<svg xmlns="http://www.w3.org/2000/svg" version="1.1" width="1024" height="576">
<rect x="0" y="0" width="1024" height="576" fill="#7f8295" />
<g transform="scale(4.000000) translate(0.5 0.5)">
<polygon fill="#c8dcc2" fill-opacity="0.501961" points="30,-9 199,159 213,-16" />
<polygon fill="#00190a" fill-opacity="0.501961" points="251,159 271,0 208,-16" />
<polygon fill="#47168b" fill-opacity="0.501961" points="4,159 113,69 -16,-14" />
<polygon fill="#ffe6cf" fill-opacity="0.501961" points="65,98 98,159 133,89" />
<polygon fill="#384f60" fill-opacity="0.501961" points="147,-3 182,44 146,126" />
<polygon fill="#ffffff" fill-opacity="0.501961" points="150,148 164,74 215,50" />
<polygon fill="#2b2d40" fill-opacity="0.501961" points="76,76 62,159 -16,137" />
<polygon fill="#964bee" fill-opacity="0.501961" points="0,-16 68,4 -10,95" />
<polygon fill="#ffffde" fill-opacity="0.501961" points="139,-7 109,58 147,99" />
<polygon fill="#1e506b" fill-opacity="0.501961" points="239,69 160,138 271,100" />
<polygon fill="#ffffff" fill-opacity="0.501961" points="191,58 174,122 209,95" />
<polygon fill="#205642" fill-opacity="0.501961" points="167,62 209,55 188,29" />
<polygon fill="#e8fff6" fill-opacity="0.501961" points="121,159 216,159 218,119" />
<polygon fill="#624b59" fill-opacity="0.501961" points="134,159 130,77 91,62" />
<polygon fill="#d8ff9f" fill-opacity="0.501961" points="187,-16 194,35 232,76" />
<polygon fill="#305c6f" fill-opacity="0.501961" points="271,136 192,32 233,156" />
<polygon fill="#060d43" fill-opacity="0.501961" points="171,105 165,132 178,134" />
<polygon fill="#f1fcd7" fill-opacity="0.501961" points="69,43 92,56 62,-7" />
<polygon fill="#4e4765" fill-opacity="0.501961" points="73,87 103,16 109,86" />
<polygon fill="#ebded2" fill-opacity="0.501961" points="103,84 71,106 70,146" />
<polygon fill="#110328" fill-opacity="0.501961" points="271,-3 222,-16 256,71" />
<polygon fill="#ffffea" fill-opacity="0.501961" points="108,108 82,147 116,159" />
<polygon fill="#9fb987" fill-opacity="0.501961" points="151,-16 220,7 158,65" />
<polygon fill="#2a3767" fill-opacity="0.501961" points="187,54 178,37 145,94" />
<polygon fill="#744baf" fill-opacity="0.501961" points="47,-16 -14,91 73,46" />
<polygon fill="#c8afb1" fill-opacity="0.501961" points="126,94 100,87 121,138" />
<polygon fill="#9fd58a" fill-opacity="0.501961" points="132,105 148,61 144,157" />
<polygon fill="#ecf3ef" fill-opacity="0.501961" points="207,57 177,127 165,79" />
<polygon fill="#f3e5e5" fill-opacity="0.501961" points="109,25 111,72 145,67" />
<polygon fill="#46717c" fill-opacity="0.501961" points="187,146 211,135 219,119" />
<polygon fill="#4b8f5e" fill-opacity="0.501961" points="207,29 245,82 219,-16" />
<polygon fill="#564a7f" fill-opacity="0.501961" points="-16,132 71,40 75,105" />
<polygon fill="#7971a7" fill-opacity="0.501961" points="80,43 118,-16 124,19" />
<polygon fill="#323343" fill-opacity="0.501961" points="53,120 89,159 -16,138" />
<polygon fill="#f7fff7" fill-opacity="0.501961" points="206,153 179,159 228,120" />
<polygon fill="#3f586b" fill-opacity="0.501961" points="148,130 173,54 148,73" />
<polygon fill="#d2d6e0" fill-opacity="0.501961" points="90,32 49,-16 93,-3" />
<polygon fill="#cca2c8" fill-opacity="0.501961" points="154,10 169,51 157,64" />
<polygon fill="#44646d" fill-opacity="0.501961" points="158,29 161,-6 176,52" />
<polygon fill="#f1feee" fill-opacity="0.501961" points="155,110 152,140 166,150" />
<polygon fill="#3a2a49" fill-opacity="0.501961" points="81,76 128,79 107,90" />
<polygon fill="#f2f7f4" fill-opacity="0.501961" points="210,61 188,56 165,77" />
<polygon fill="#4c7e55" fill-opacity="0.501961" points="175,-1 196,38 181,29" />
<polygon fill="#ffffff" fill-opacity="0.501961" points="127,91 138,79 138,95" />
<polygon fill="#9053d9" fill-opacity="0.501961" points="80,-14 -8,55 -16,-16" />
<polygon fill="#c7d5a8" fill-opacity="0.501961" points="125,-2 132,54 159,-16" />
<polygon fill="#c5efa2" fill-opacity="0.501961" points="166,-10 170,26 191,48" />
<polygon fill="#b9dd96" fill-opacity="0.501961" points="226,77 166,-16 206,-16" />
<polygon fill="#2c5062" fill-opacity="0.501961" points="271,146 201,153 271,88" />
<polygon fill="#868ea0" fill-opacity="0.501961" points="74,22 87,48 86,-13" />
<polygon fill="#527d71" fill-opacity="0.501961" points="157,57 148,91 142,16" />
<polygon fill="#516e8b" fill-opacity="0.501961" points="172,137 230,113 235,67" />
<polygon fill="#a18e8e" fill-opacity="0.501961" points="77,159 96,120 81,101" />
<polygon fill="#3e6955" fill-opacity="0.501961" points="257,109 243,55 200,15" />
<polygon fill="#453e45" fill-opacity="0.501961" points="133,135 131,101 116,159" />
<polygon fill="#c9deb4" fill-opacity="0.501961" points="100,53 84,54 66,29" />
<polygon fill="#edebde" fill-opacity="0.501961" points="89,93 68,138 73,108" />
<polygon fill="#564b78" fill-opacity="0.501961" points="107,48 57,131 -16,123" />
<polygon fill="#4a6888" fill-opacity="0.501961" points="203,66 214,131 241,109" />
<polygon fill="#fbfaf6" fill-opacity="0.501961" points="200,132 149,159 166,139" />
<polygon fill="#425d6c" fill-opacity="0.501961" points="171,117 165,104 169,103" />
<polygon fill="#e0ede3" fill-opacity="0.501961" points="205,122 197,137 218,119" />
<polygon fill="#453d55" fill-opacity="0.501961" points="129,84 118,92 109,67" />
<polygon fill="#bdaaae" fill-opacity="0.501961" points="113,88 78,93 102,109" />
<polygon fill="#e6edec" fill-opacity="0.501961" points="169,106 208,101 201,73" />
<polygon fill="#90c586" fill-opacity="0.501961" points="132,159 149,148 134,111" />
<polygon fill="#ac88a7" fill-opacity="0.501961" points="135,47 128,18 117,14" />
<polygon fill="#97bf77" fill-opacity="0.501961" points="224,40 200,19 194,-5" />
<polygon fill="#eff6ed" fill-opacity="0.501961" points="73,24 68,-16 63,16" />
<polygon fill="#e4e1d8" fill-opacity="0.501961" points="106,66 125,30 147,77" />
<polygon fill="#2b4d4d" fill-opacity="0.501961" points="236,17 270,120 243,159" />
<polygon fill="#a9908e" fill-opacity="0.501961" points="108,159 115,108 126,127" />
<polygon fill="#8cd595" fill-opacity="0.501961" points="225,75 233,82 225,57" />
<polygon fill="#dddbd2" fill-opacity="0.501961" points="69,105 71,122 93,125" />
<polygon fill="#d3e2b2" fill-opacity="0.501961" points="191,-2 171,-16 198,40" />
<polygon fill="#daeeee" fill-opacity="0.501961" points="156,64 158,55 171,48" />
<polygon fill="#998489" fill-opacity="0.501961" points="115,95 94,105 100,115" />
<polygon fill="#e5dfd9" fill-opacity="0.501961" points="103,35 130,80 134,48" />
<polygon fill="#e6fbdf" fill-opacity="0.501961" points="110,13 115,-16 124,-16" />
<polygon fill="#eae8e1" fill-opacity="0.501961" points="84,93 78,101 102,120" />
<polygon fill="#735dab" fill-opacity="0.501961" points="-16,106 43,40 -16,29" />
<polygon fill="#293249" fill-opacity="0.501961" points="23,136 -16,150 -9,100" />
<polygon fill="#54806f" fill-opacity="0.501961" points="164,31 213,58 172,53" />
<polygon fill="#d1e1c5" fill-opacity="0.501961" points="196,34 210,31 226,70" />
<polygon fill="#e1e7e5" fill-opacity="0.501961" points="206,62 178,123 162,84" />
<polygon fill="#b088aa" fill-opacity="0.501961" points="155,32 161,-8 147,-16" />
<polygon fill="#756e98" fill-opacity="0.501961" points="115,-16 116,25 132,-10" />
<polygon fill="#477756" fill-opacity="0.501961" points="151,124 151,159 146,142" />
<polygon fill="#8082a7" fill-opacity="0.501961" points="110,30 95,-3 92,39" />
<polygon fill="#30615b" fill-opacity="0.501961" points="221,29 220,-16 254,74" />
<polygon fill="#a8d39d" fill-opacity="0.501961" points="200,52 181,40 174,21" />
<polygon fill="#677a84" fill-opacity="0.501961" points="107,45 78,33 107,60" />
<polygon fill="#bf9fb6" fill-opacity="0.501961" points="116,24 126,18 115,46" />
<polygon fill="#64468c" fill-opacity="0.501961" points="27,71 108,68 62,38" />
<polygon fill="#f3fcee" fill-opacity="0.501961" points="88,-16 89,22 96,-6" />
<polygon fill="#2e2664" fill-opacity="0.501961" points="167,72 185,54 164,61" />
<polygon fill="#4b6786" fill-opacity="0.501961" points="244,159 235,84 202,75" />
<polygon fill="#4b6984" fill-opacity="0.501961" points="218,89 173,136 221,116" />
<polygon fill="#c8deac" fill-opacity="0.501961" points="140,47 127,-6 149,-11" />
<polygon fill="#eaf0eb" fill-opacity="0.501961" points="162,94 167,121 150,151" />
<polygon fill="#9b8887" fill-opacity="0.501961" points="83,124 59,159 94,131" />
<polygon fill="#e5f5ee" fill-opacity="0.501961" points="217,134 228,124 215,130" />
<polygon fill="#d6dfca" fill-opacity="0.501961" points="133,103 126,61 142,54" />
<polygon fill="#697fae" fill-opacity="0.501961" points="153,66 175,48 170,59" />
<polygon fill="#939e9f" fill-opacity="0.501961" points="161,159 158,141 165,132" />
<polygon fill="#587b85" fill-opacity="0.501961" points="189,159 173,159 210,128" />
<polygon fill="#9251dc" fill-opacity="0.501961" points="47,-11 -16,51 1,-10" />
<polygon fill="#5a8857" fill-opacity="0.501961" points="201,56 191,35 217,63" />
<polygon fill="#718468" fill-opacity="0.501961" points="139,102 139,134 133,114" />
<polygon fill="#e5eafc" fill-opacity="0.501961" points="99,-16 107,-16 101,11" />
<polygon fill="#2f325d" fill-opacity="0.501961" points="154,82 161,88 155,105" />
<polygon fill="#ede8dd" fill-opacity="0.501961" points="111,89 102,96 114,96" />
<polygon fill="#3b6350" fill-opacity="0.501961" points="241,106 223,52 240,65" />
<polygon fill="#7b6083" fill-opacity="0.501961" points="67,124 65,104 71,116" />
<polygon fill="#584a84" fill-opacity="0.501961" points="-16,126 103,85 18,87" />
<polygon fill="#383c63" fill-opacity="0.501961" points="166,133 177,131 173,113" />
<polygon fill="#faf3de" fill-opacity="0.501961" points="76,136 81,132 69,133" />
<polygon fill="#e3e7e7" fill-opacity="0.501961" points="189,57 172,69 208,98" />
<polygon fill="#56456a" fill-opacity="0.501961" points="108,86 128,84 127,93" />
<polygon fill="#8353bf" fill-opacity="0.501961" points="-16,46 60,31 58,-16" />
<polygon fill="#4c6f8c" fill-opacity="0.501961" points="239,156 240,106 203,159" />
<polygon fill="#e1e8e5" fill-opacity="0.501961" points="173,75 176,128 198,93" />
<polygon fill="#a59299" fill-opacity="0.501961" points="97,124 76,93 83,118" />
<polygon fill="#5e798b" fill-opacity="0.501961" points="174,138 172,131 197,125" />
<polygon fill="#4a6c6a" fill-opacity="0.501961" points="166,39 181,57 209,57" />
<polygon fill="#a28b98" fill-opacity="0.501961" points="155,56 159,22 168,48" />
<polygon fill="#e7e2d3" fill-opacity="0.501961" points="112,127 91,159 107,99" />
<polygon fill="#a18992" fill-opacity="0.501961" points="117,97 93,99 126,113" />
<polygon fill="#cfd7cf" fill-opacity="0.501961" points="79,23 77,-16 62,26" />
<polygon fill="#d5bdc7" fill-opacity="0.501961" points="124,25 104,39 113,23" />
<polygon fill="#557e77" fill-opacity="0.501961" points="202,45 215,78 232,83" />
<polygon fill="#27263b" fill-opacity="0.501961" points="233,5 271,133 271,-16" />
<polygon fill="#ccdcbc" fill-opacity="0.501961" points="66,31 99,54 80,50" />
<polygon fill="#4a3f5c" fill-opacity="0.501961" points="108,86 81,75 52,80" />
<polygon fill="#4e7758" fill-opacity="0.501961" points="224,-16 206,-16 216,21" />
<polygon fill="#9c75b3" fill-opacity="0.501961" points="55,19 70,40 58,-10" />
<polygon fill="#f1f3e6" fill-opacity="0.501961" points="202,35 192,30 189,21" />
<polygon fill="#7043a7" fill-opacity="0.501961" points="48,20 70,39 29,43" />
<polygon fill="#e3e6e5" fill-opacity="0.501961" points="127,159 188,152 202,126" />
<polygon fill="#e0e8e2" fill-opacity="0.501961" points="153,116 155,139 166,123" />
<polygon fill="#698c6e" fill-opacity="0.501961" points="178,19 176,-5 193,36" />
<polygon fill="#776584" fill-opacity="0.501961" points="67,111 67,96 90,84" />
<polygon fill="#506e7c" fill-opacity="0.501961" points="154,74 144,33 156,39" />
<polygon fill="#a4cb9f" fill-opacity="0.501961" points="140,135 143,85 149,114" />
<polygon fill="#57806a" fill-opacity="0.501961" points="156,89 147,120 148,65" />
<polygon fill="#3f3a4d" fill-opacity="0.501961" points="131,141 109,158 128,129" />
<polygon fill="#4d3e59" fill-opacity="0.501961" points="101,76 125,77 105,91" />
<polygon fill="#d0e0cb" fill-opacity="0.501961" points="88,1 85,22 93,41" />
<polygon fill="#e2e8e5" fill-opacity="0.501961" points="163,88 197,58 175,115" />
<polygon fill="#66778c" fill-opacity="0.501961" points="98,50 88,45 107,10" />
<polygon fill="#8c949d" fill-opacity="0.501961" points="82,9 81,41 91,41" />
<polygon fill="#444372" fill-opacity="0.501961" points="-8,95 35,129 -2,127" />
<polygon fill="#6c5d78" fill-opacity="0.501961" points="72,49 101,57 118,80" />
<polygon fill="#aad48e" fill-opacity="0.501961" points="219,35 204,-16 192,-7" />
<polygon fill="#443d58" fill-opacity="0.501961" points="-1,151 71,153 66,124" />
<polygon fill="#c0d3ae" fill-opacity="0.501961" points="145,76 139,85 136,55" />
<polygon fill="#66519b" fill-opacity="0.501961" points="3,62 -16,107 69,53" />
<polygon fill="#5d6987" fill-opacity="0.501961" points="170,70 159,84 145,75" />
<polygon fill="#83a78f" fill-opacity="0.501961" points="128,78 132,80 129,89" />
<polygon fill="#608669" fill-opacity="0.501961" points="148,95 146,135 154,112" />
<polygon fill="#aa9499" fill-opacity="0.501961" points="96,113 100,91 93,97" />
<polygon fill="#2e323f" fill-opacity="0.501961" points="-7,142 46,134 -16,127" />
<polygon fill="#b4cf8f" fill-opacity="0.501961" points="185,-16 187,15 215,41" />
<polygon fill="#9d888b" fill-opacity="0.501961" points="80,123 72,132 92,131" />
<polygon fill="#7fa061" fill-opacity="0.501961" points="198,10 208,20 207,28" />
<polygon fill="#d2debf" fill-opacity="0.501961" points="125,10 133,-6 134,32" />
<polygon fill="#8f8fb1" fill-opacity="0.501961" points="92,17 107,43 96,-12" />
<polygon fill="#8cad89" fill-opacity="0.501961" points="141,96 133,121 132,96" />
<polygon fill="#324f53" fill-opacity="0.501961" points="271,130 250,157 227,45" />
<polygon fill="#a18d93" fill-opacity="0.501961" points="126,122 112,88 115,159" />
<polygon fill="#c4e0a8" fill-opacity="0.501961" points="168,21 175,-16 165,-3" />
<polygon fill="#e1ddd5" fill-opacity="0.501961" points="77,123 72,110 94,126" />
<polygon fill="#e7e2d2" fill-opacity="0.501961" points="93,126 111,159 110,120" />
<polygon fill="#9fd5a3" fill-opacity="0.501961" points="141,159 132,153 135,128" />
<polygon fill="#cacecf" fill-opacity="0.501961" points="155,62 166,44 171,50" />
<polygon fill="#8644d2" fill-opacity="0.501961" points="-6,-16 32,27 34,3" />
<polygon fill="#a0caa6" fill-opacity="0.501961" points="137,128 133,128 135,114" />
<polygon fill="#e6e1dd" fill-opacity="0.501961" points="95,97 91,91 79,97" />
<polygon fill="#36395f" fill-opacity="0.501961" points="174,115 173,135 168,133" />
<polygon fill="#517885" fill-opacity="0.501961" points="220,120 232,121 207,130" />
<polygon fill="#e4ece6" fill-opacity="0.501961" points="196,57 207,60 182,62" />
<polygon fill="#a6b1af" fill-opacity="0.501961" points="161,134 155,146 171,137" />
<polygon fill="#fffffe" fill-opacity="0.501961" points="124,93 117,93 123,95" />
<polygon fill="#496583" fill-opacity="0.501961" points="202,70 224,73 238,141" />
<polygon fill="#7774b0" fill-opacity="0.501961" points="102,-16 106,21 111,-9" />
<polygon fill="#e4eae6" fill-opacity="0.501961" points="179,65 164,82 165,96" />
<polygon fill="#55758f" fill-opacity="0.501961" points="189,111 190,131 201,103" />
<polygon fill="#98a3a1" fill-opacity="0.501961" points="86,34 73,13 80,38" />
<polygon fill="#7f76a0" fill-opacity="0.501961" points="118,-6 108,25 125,15" />
<polygon fill="#e0ded6" fill-opacity="0.501961" points="69,110 81,101 78,121" />
<polygon fill="#e8ebe7" fill-opacity="0.501961" points="182,159 209,159 216,130" />
<polygon fill="#507b64" fill-opacity="0.501961" points="209,30 240,65 230,43" />
<polygon fill="#e0e8db" fill-opacity="0.501961" points="65,25 78,40 64,0" />
<polygon fill="#d1dedc" fill-opacity="0.501961" points="204,126 219,118 214,126" />
<polygon fill="#5c3f79" fill-opacity="0.501961" points="72,74 102,71 75,50" />
<polygon fill="#586d7b" fill-opacity="0.501961" points="158,18 163,15 159,-2" />
<polygon fill="#e5e1dc" fill-opacity="0.501961" points="116,74 127,62 106,35" />
<polygon fill="#a5949d" fill-opacity="0.501961" points="167,46 157,59 155,15" />
<polygon fill="#866d86" fill-opacity="0.501961" points="85,93 94,89 76,89" />
<polygon fill="#9b898f" fill-opacity="0.501961" points="85,135 92,128 75,121" />
<polygon fill="#8c64cb" fill-opacity="0.501961" points="1,56 14,21 -16,7" />
<polygon fill="#9fb995" fill-opacity="0.501961" points="142,36 150,14 142,14" />
<polygon fill="#6e5c78" fill-opacity="0.501961" points="116,39 119,40 117,35" />
<polygon fill="#69926b" fill-opacity="0.501961" points="191,42 193,33 209,52" />
<polygon fill="#e6dfda" fill-opacity="0.501961" points="136,74 124,26 108,65" />
<polygon fill="#dcedd3" fill-opacity="0.501961" points="135,44 143,71 143,51" />
<polygon fill="#a6abbb" fill-opacity="0.501961" points="74,14 75,0 80,25" />
<polygon fill="#e5eae6" fill-opacity="0.501961" points="168,116 153,123 159,102" />
<polygon fill="#504c6c" fill-opacity="0.501961" points="4,129 66,111 68,128" />
<polygon fill="#ac99a4" fill-opacity="0.501961" points="133,37 131,24 122,17" />
<polygon fill="#587e72" fill-opacity="0.501961" points="173,51 187,47 161,20" />
<polygon fill="#add8ad" fill-opacity="0.501961" points="224,58 206,49 229,77" />
<polygon fill="#544a69" fill-opacity="0.501961" points="70,138 70,159 38,139" />
<polygon fill="#544f5e" fill-opacity="0.501961" points="127,77 122,93 104,70" />
<polygon fill="#4b6b82" fill-opacity="0.501961" points="233,119 213,126 225,112" />
<polygon fill="#a6ca95" fill-opacity="0.501961" points="174,34 175,13 193,49" />
<polygon fill="#3b3b6f" fill-opacity="0.501961" points="174,67 152,74 176,52" />
<polygon fill="#e3eae9" fill-opacity="0.501961" points="204,96 180,119 201,72" />
<polygon fill="#dae1dd" fill-opacity="0.501961" points="156,111 167,119 160,132" />
<polygon fill="#4a4373" fill-opacity="0.501961" points="36,83 69,81 37,74" />
<polygon fill="#62538f" fill-opacity="0.501961" points="71,75 38,76 36,49" />
<polygon fill="#4a5f75" fill-opacity="0.501961" points="149,45 157,55 155,59" />
<polygon fill="#ad9e9d" fill-opacity="0.501961" points="86,121 84,111 78,112" />
<polygon fill="#e8e4d8" fill-opacity="0.501961" points="89,100 101,121 91,113" />
<polygon fill="#718768" fill-opacity="0.501961" points="136,97 141,98 136,115" />
<polygon fill="#626d86" fill-opacity="0.501961" points="160,136 167,129 165,126" />
<polygon fill="#afce94" fill-opacity="0.501961" points="203,36 217,41 194,6" />
<polygon fill="#c6d6ca" fill-opacity="0.501961" points="110,-7 110,18 117,-6" />
<polygon fill="#e8e1d4" fill-opacity="0.501961" points="87,135 87,159 101,135" />
<polygon fill="#877c81" fill-opacity="0.501961" points="125,128 94,159 117,153" />
<polygon fill="#edf8f3" fill-opacity="0.501961" points="130,90 130,94 137,90" />
<polygon fill="#363b3d" fill-opacity="0.501961" points="41,132 61,136 61,129" />
<polygon fill="#dfe8c2" fill-opacity="0.501961" points="218,52 212,40 201,34" />
<polygon fill="#bc9bac" fill-opacity="0.501961" points="106,25 108,37 103,39" />
<polygon fill="#dbd4d1" fill-opacity="0.501961" points="122,21 105,40 112,41" />
<polygon fill="#816291" fill-opacity="0.501961" points="79,50 65,33 68,45" />
<polygon fill="#574360" fill-opacity="0.501961" points="130,125 130,100 125,110" />
<polygon fill="#b09ea1" fill-opacity="0.501961" points="98,93 97,110 88,98" />
<polygon fill="#e7ebee" fill-opacity="0.501961" points="77,12 75,-12 82,-15" />
<polygon fill="#457253" fill-opacity="0.501961" points="230,54 232,73 216,39" />
<polygon fill="#607486" fill-opacity="0.501961" points="94,35 102,27 102,56" />
<polygon fill="#7f9a71" fill-opacity="0.501961" points="178,-7 180,19 174,2" />
<polygon fill="#989abc" fill-opacity="0.501961" points="87,23 79,6 85,-16" />
<polygon fill="#84757a" fill-opacity="0.501961" points="89,127 65,159 78,159" />
<polygon fill="#315351" fill-opacity="0.501961" points="224,36 224,52 235,62" />
<polygon fill="#aa8aba" fill-opacity="0.501961" points="57,12 63,1 62,18" />
<polygon fill="#e2e6e5" fill-opacity="0.501961" points="200,68 185,59 171,71" />
<polygon fill="#6e8261" fill-opacity="0.501961" points="140,132 137,130 139,139" />
<polygon fill="#618894" fill-opacity="0.501961" points="219,143 216,139 226,127" />
<polygon fill="#8178bb" fill-opacity="0.501961" points="99,4 96,-7 102,-4" />
<polygon fill="#659155" fill-opacity="0.501961" points="214,30 216,40 209,27" />
<polygon fill="#496481" fill-opacity="0.501961" points="234,91 240,119 203,102" />
<polygon fill="#7d5aba" fill-opacity="0.501961" points="-8,37 1,73 27,32" />
<polygon fill="#577e8f" fill-opacity="0.501961" points="211,75 203,73 210,103" />
<polygon fill="#694c79" fill-opacity="0.501961" points="112,87 98,83 86,87" />
<polygon fill="#b69fab" fill-opacity="0.501961" points="151,7 157,-4 156,24" />
<polygon fill="#41675b" fill-opacity="0.501961" points="229,7 224,42 210,-16" />
<polygon fill="#517681" fill-opacity="0.501961" points="215,128 213,125 205,135" />
<polygon fill="#e2dcca" fill-opacity="0.501961" points="69,137 76,134 69,125" />
<polygon fill="#678784" fill-opacity="0.501961" points="154,32 149,4 144,48" />
<polygon fill="#9078a5" fill-opacity="0.501961" points="104,21 120,16 121,25" />
<polygon fill="#e3ded2" fill-opacity="0.501961" points="113,124 107,105 90,138" />
<polygon fill="#e6eceb" fill-opacity="0.501961" points="148,159 171,137 213,159" />
<polygon fill="#5d6690" fill-opacity="0.501961" points="162,93 163,60 156,70" />
<polygon fill="#e6eeeb" fill-opacity="0.501961" points="128,91 137,82 137,95" />
<polygon fill="#a49393" fill-opacity="0.501961" points="97,114 96,102 104,117" />
<polygon fill="#97c29e" fill-opacity="0.501961" points="146,121 140,134 145,143" />
<polygon fill="#2f3359" fill-opacity="0.501961" points="169,127 176,128 170,122" />
<polygon fill="#664397" fill-opacity="0.501961" points="42,71 60,32 77,52" />
<polygon fill="#aa949a" fill-opacity="0.501961" points="122,128 104,100 127,98" />
<polygon fill="#967fa0" fill-opacity="0.501961" points="105,58 103,67 107,64" />
<polygon fill="#5c4b7b" fill-opacity="0.501961" points="56,83 63,119 78,85" />
<polygon fill="#3d4b68" fill-opacity="0.501961" points="154,106 160,91 153,85" />
<polygon fill="#548066" fill-opacity="0.501961" points="200,44 185,27 198,54" />
<polygon fill="#789f79" fill-opacity="0.501961" points="165,23 163,8 174,34" />
<polygon fill="#9099aa" fill-opacity="0.501961" points="126,-2 119,-13 113,6" />
<polygon fill="#bbbfcf" fill-opacity="0.501961" points="99,21 99,8 101,14" />
<polygon fill="#e4e4db" fill-opacity="0.501961" points="86,98 91,91 87,108" />
<polygon fill="#96ae6d" fill-opacity="0.501961" points="201,14 193,0 203,10" />
<polygon fill="#413c61" fill-opacity="0.501961" points="11,136 6,159 55,138" />
<polygon fill="#bbd593" fill-opacity="0.501961" points="189,-16 207,18 200,-16" />
<polygon fill="#e1e7e5" fill-opacity="0.501961" points="167,102 208,61 173,71" />
<polygon fill="#9aaaa5" fill-opacity="0.501961" points="167,103 164,98 164,106" />
<polygon fill="#363866" fill-opacity="0.501961" points="156,69 186,57 176,53" />
<polygon fill="#e1eadc" fill-opacity="0.501961" points="76,-16 63,7 70,15" />
<polygon fill="#67927b" fill-opacity="0.501961" points="226,41 233,51 229,40" />
<polygon fill="#5d7d67" fill-opacity="0.501961" points="151,131 146,129 146,147" />
<polygon fill="#e5dfd7" fill-opacity="0.501961" points="97,98 113,89 105,97" />
<polygon fill="#3c5875" fill-opacity="0.501961" points="215,146 234,128 215,159" />
<polygon fill="#615766" fill-opacity="0.501961" points="127,111 129,94 133,116" />
<polygon fill="#514a56" fill-opacity="0.501961" points="125,116 132,138 125,152" />
<polygon fill="#5c4e91" fill-opacity="0.501961" points="-2,81 53,86 -16,108" />
<polygon fill="#ded4d2" fill-opacity="0.501961" points="122,22 135,49 120,41" />
<polygon fill="#aac7a3" fill-opacity="0.501961" points="138,76 147,98 143,120" />
<polygon fill="#584883" fill-opacity="0.501961" points="40,58 48,108 33,80" />
<polygon fill="#cddebd" fill-opacity="0.501961" points="71,17 71,39 81,41" />
<polygon fill="#355e57" fill-opacity="0.501961" points="246,71 231,7 223,30" />
<polygon fill="#6a7f66" fill-opacity="0.501961" points="137,128 139,124 136,116" />
<polygon fill="#aec7cf" fill-opacity="0.501961" points="225,123 225,125 229,122" />
<polygon fill="#e4dfd1" fill-opacity="0.501961" points="105,141 87,123 111,134" />
<polygon fill="#a896a0" fill-opacity="0.501961" points="154,23 171,48 160,45" />
<polygon fill="#a4cba6" fill-opacity="0.501961" points="133,106 135,98 136,114" />
<polygon fill="#6da261" fill-opacity="0.501961" points="212,6 217,-14 207,-6" />
<polygon fill="#71957a" fill-opacity="0.501961" points="151,78 148,92 146,71" />
<polygon fill="#59486a" fill-opacity="0.501961" points="127,81 108,85 122,93" />
<polygon fill="#5c7e73" fill-opacity="0.501961" points="164,37 191,47 162,25" />
<polygon fill="#284551" fill-opacity="0.501961" points="238,157 245,118 251,150" />
<polygon fill="#a19ca6" fill-opacity="0.501961" points="166,133 169,137 168,133" />
<polygon fill="#958087" fill-opacity="0.501961" points="100,102 103,108 98,116" />
<polygon fill="#825dc2" fill-opacity="0.501961" points="59,22 36,10 57,-16" />
<polygon fill="#e3e3dd" fill-opacity="0.501961" points="108,68 115,55 110,35" />
<polygon fill="#bfd4aa" fill-opacity="0.501961" points="132,12 140,50 142,23" />
<polygon fill="#e3e9e4" fill-opacity="0.501961" points="168,115 163,101 161,123" />
<polygon fill="#446e62" fill-opacity="0.501961" points="244,79 243,70 234,61" />
<polygon fill="#aad3ae" fill-opacity="0.501961" points="231,79 226,66 220,64" />
<polygon fill="#a18f8f" fill-opacity="0.501961" points="97,120 94,125 91,114" />
<polygon fill="#537471" fill-opacity="0.501961" points="155,110 148,118 150,89" />
<polygon fill="#cbdebe" fill-opacity="0.501961" points="139,82 146,90 144,69" />
<polygon fill="#4e7581" fill-opacity="0.501961" points="184,159 201,159 198,140" />
<polygon fill="#3f5977" fill-opacity="0.501961" points="230,107 218,107 203,120" />
<polygon fill="#dee3df" fill-opacity="0.501961" points="202,133 207,125 182,135" />
<polygon fill="#a4acae" fill-opacity="0.501961" points="79,26 74,4 73,18" />
<polygon fill="#726177" fill-opacity="0.501961" points="64,127 71,115 68,126" />
<polygon fill="#486c6a" fill-opacity="0.501961" points="150,80 154,92 154,66" />
<polygon fill="#6d7a84" fill-opacity="0.501961" points="159,6 171,-14 158,-9" />
<polygon fill="#454f4a" fill-opacity="0.501961" points="35,133 20,128 51,128" />
<polygon fill="#6d82a2" fill-opacity="0.501961" points="156,71 163,56 172,52" />
<polygon fill="#8184a2" fill-opacity="0.501961" points="96,4 93,23 104,40" />
<polygon fill="#d9e1dc" fill-opacity="0.501961" points="194,140 218,120 169,142" />
<polygon fill="#4b7658" fill-opacity="0.501961" points="215,22 222,36 221,18" />
<polygon fill="#464b76" fill-opacity="0.501961" points="155,72 167,60 163,78" />
<polygon fill="#6ca573" fill-opacity="0.501961" points="224,58 227,70 229,66" />
<polygon fill="#7153a7" fill-opacity="0.501961" points="41,48 -16,66 10,81" />
<polygon fill="#a1b39d" fill-opacity="0.501961" points="134,83 126,75 130,82" />
<polygon fill="#e8e2d8" fill-opacity="0.501961" points="99,121 97,115 93,112" />
<polygon fill="#c7b9c1" fill-opacity="0.501961" points="109,33 123,24 111,25" />
<polygon fill="#7a7da5" fill-opacity="0.501961" points="99,24 110,-6 110,9" />
<polygon fill="#e4ded5" fill-opacity="0.501961" points="134,55 109,65 137,80" />
<polygon fill="#809ba2" fill-opacity="0.501961" points="199,136 187,159 176,159" />
<polygon fill="#78ac74" fill-opacity="0.501961" points="216,59 209,57 207,52" />
<polygon fill="#76888e" fill-opacity="0.501961" points="165,100 165,105 172,109" />
<polygon fill="#e0e8e4" fill-opacity="0.501961" points="161,95 192,104 173,108" />
<polygon fill="#4e6d87" fill-opacity="0.501961" points="223,138 235,147 230,121" />
<polygon fill="#e5eee5" fill-opacity="0.501961" points="90,10 91,21 86,17" />
<polygon fill="#8c9697" fill-opacity="0.501961" points="88,33 80,29 87,46" />
<polygon fill="#6c5c7b" fill-opacity="0.501961" points="116,73 108,67 92,76" />
<polygon fill="#5c856a" fill-opacity="0.501961" points="193,34 183,20 189,38" />
<polygon fill="#86c094" fill-opacity="0.501961" points="221,39 210,24 219,31" />
<polygon fill="#b0ca9e" fill-opacity="0.501961" points="212,48 202,37 205,44" />
<polygon fill="#c7b9b7" fill-opacity="0.501961" points="119,94 126,94 126,99" />
</g>
</svg>