<svg xmlns="http://www.w3.org/2000/svg" version="1.1" width="1024" height="576">
<rect x="0" y="0" width="1024" height="576" fill="#5d5755" />
<g transform="scale(4.000000) translate(0.5 0.5)">
<polygon fill="#fff2cc" fill-opacity="0.501961" points="101,76 174,155 181,39" />
<polygon fill="#1c1f29" fill-opacity="0.501961" points="-3,-16 163,-16 -16,139" />
<polygon fill="#dde6be" fill-opacity="0.501961" points="236,68 195,159 161,159" />
<polygon fill="#fff0d4" fill-opacity="0.501961" points="192,68 166,111 112,92" />
<polygon fill="#3c362d" fill-opacity="0.501961" points="271,-15 271,79 79,4" />
<polygon fill="#302e79" fill-opacity="0.501961" points="-16,140 80,82 162,159" />
<polygon fill="#ffff6a" fill-opacity="0.501961" points="258,79 270,137 238,159" />
<polygon fill="#9c7c5f" fill-opacity="0.501961" points="161,12 121,61 186,74" />
<polygon fill="#ffdba4" fill-opacity="0.501961" points="177,105 215,83 220,56" />
<polygon fill="#4a5349" fill-opacity="0.501961" points="193,149 145,136 195,97" />
<polygon fill="#ffffff" fill-opacity="0.501961" points="239,68 225,85 237,55" />
<polygon fill="#ffdfac" fill-opacity="0.501961" points="244,18 219,52 234,13" />
<polygon fill="#131510" fill-opacity="0.501961" points="115,76 159,4 123,37" />
<polygon fill="#1b2138" fill-opacity="0.501961" points="267,11 207,134 240,151" />
<polygon fill="#bd9668" fill-opacity="0.501961" points="96,49 117,65 127,13" />
<polygon fill="#8d9593" fill-opacity="0.501961" points="170,145 101,135 215,118" />
<polygon fill="#d3c443" fill-opacity="0.501961" points="83,82 57,79 22,106" />
<polygon fill="#f4d9b8" fill-opacity="0.501961" points="126,57 131,99 154,43" />
<polygon fill="#242417" fill-opacity="0.501961" points="57,69 115,101 88,53" />
<polygon fill="#34302a" fill-opacity="0.501961" points="161,66 146,68 165,16" />
<polygon fill="#151000" fill-opacity="0.501961" points="202,95 171,131 169,117" />
<polygon fill="#1b1c16" fill-opacity="0.501961" points="190,69 197,86 226,37" />
<polygon fill="#2b2b27" fill-opacity="0.501961" points="69,86 -2,126 3,159" />
<polygon fill="#1e1f1e" fill-opacity="0.501961" points="186,72 210,8 182,-16" />
<polygon fill="#333138" fill-opacity="0.501961" points="100,86 129,138 150,125" />
<polygon fill="#3e2f42" fill-opacity="0.501961" points="184,57 153,61 176,70" />
<polygon fill="#ebf5ff" fill-opacity="0.501961" points="250,154 257,106 271,151" />
<polygon fill="#1c1b1a" fill-opacity="0.501961" points="113,65 119,81 124,43" />
<polygon fill="#f1f8ff" fill-opacity="0.501961" points="209,106 223,99 228,75" />
<polygon fill="#c3b747" fill-opacity="0.501961" points="12,126 18,106 43,91" />
<polygon fill="#1f201b" fill-opacity="0.501961" points="253,20 217,88 220,54" />
<polygon fill="#8a8255" fill-opacity="0.501961" points="173,159 208,81 218,111" />
<polygon fill="#ceb596" fill-opacity="0.501961" points="102,80 131,110 145,83" />
<polygon fill="#d8cb3f" fill-opacity="0.501961" points="224,148 233,126 234,153" />
<polygon fill="#f6c897" fill-opacity="0.501961" points="146,41 164,12 159,34" />
<polygon fill="#000000" fill-opacity="0.501961" points="179,110 210,83 196,104" />
<polygon fill="#dcc3a1" fill-opacity="0.501961" points="171,68 164,47 170,24" />
<polygon fill="#131517" fill-opacity="0.501961" points="206,139 216,110 218,159" />
<polygon fill="#e1c2a0" fill-opacity="0.501961" points="171,116 140,118 195,93" />
<polygon fill="#aab9d8" fill-opacity="0.501961" points="188,124 210,159 199,117" />
<polygon fill="#252730" fill-opacity="0.501961" points="64,42 -16,159 -11,97" />
<polygon fill="#2f2d26" fill-opacity="0.501961" points="80,78 100,-16 104,39" />
<polygon fill="#393a43" fill-opacity="0.501961" points="30,37 119,84 8,75" />
<polygon fill="#746a21" fill-opacity="0.501961" points="203,148 177,118 163,121" />
<polygon fill="#242522" fill-opacity="0.501961" points="233,26 224,14 203,60" />
<polygon fill="#312f24" fill-opacity="0.501961" points="179,36 134,42 162,46" />
<polygon fill="#c0a481" fill-opacity="0.501961" points="122,64 145,62 136,43" />
<polygon fill="#a2993a" fill-opacity="0.501961" points="96,84 73,84 107,97" />
<polygon fill="#d4bda6" fill-opacity="0.501961" points="182,86 199,57 150,78" />
<polygon fill="#1f1f29" fill-opacity="0.501961" points="54,18 -16,28 42,-16" />
<polygon fill="#484444" fill-opacity="0.501961" points="84,-16 177,5 -16,72" />
<polygon fill="#ebddc9" fill-opacity="0.501961" points="128,77 128,105 170,105" />
<polygon fill="#a39311" fill-opacity="0.501961" points="198,127 208,138 213,114" />
<polygon fill="#171a17" fill-opacity="0.501961" points="115,52 94,49 111,46" />
<polygon fill="#dcd6c0" fill-opacity="0.501961" points="162,58 167,47 185,56" />
<polygon fill="#373130" fill-opacity="0.501961" points="201,43 182,77 184,34" />
<polygon fill="#b79e7e" fill-opacity="0.501961" points="94,59 130,92 108,90" />
<polygon fill="#c9a37b" fill-opacity="0.501961" points="93,60 119,20 111,45" />
<polygon fill="#131c23" fill-opacity="0.501961" points="143,48 137,53 135,61" />
<polygon fill="#23252f" fill-opacity="0.501961" points="62,53 74,73 50,86" />
<polygon fill="#777685" fill-opacity="0.501961" points="74,139 140,137 100,127" />
<polygon fill="#e7eef5" fill-opacity="0.501961" points="222,96 237,71 229,70" />
<polygon fill="#403d3d" fill-opacity="0.501961" points="271,20 238,66 244,-16" />
<polygon fill="#2a2920" fill-opacity="0.501961" points="194,85 202,58 169,105" />
<polygon fill="#f8ddbb" fill-opacity="0.501961" points="156,74 155,61 142,91" />
<polygon fill="#413b35" fill-opacity="0.501961" points="155,53 145,66 145,82" />
<polygon fill="#8c98bc" fill-opacity="0.501961" points="167,125 180,151 186,137" />
<polygon fill="#3b3213" fill-opacity="0.501961" points="157,139 113,159 129,139" />
<polygon fill="#d5ba99" fill-opacity="0.501961" points="233,12 242,14 234,35" />
<polygon fill="#f1b98c" fill-opacity="0.501961" points="205,101 210,87 197,105" />
<polygon fill="#e8d0b0" fill-opacity="0.501961" points="205,81 187,102 191,89" />
<polygon fill="#80776f" fill-opacity="0.501961" points="71,44 84,57 67,24" />
<polygon fill="#6d5f4d" fill-opacity="0.501961" points="175,57 170,37 176,22" />
<polygon fill="#949999" fill-opacity="0.501961" points="171,149 126,132 166,133" />
<polygon fill="#262726" fill-opacity="0.501961" points="232,-16 225,25 247,-3" />
<polygon fill="#1c1f2c" fill-opacity="0.501961" points="228,90 210,122 229,106" />
<polygon fill="#8590a1" fill-opacity="0.501961" points="194,134 178,123 210,111" />
<polygon fill="#f3f6ee" fill-opacity="0.501961" points="197,135 200,159 206,138" />
<polygon fill="#6f5c48" fill-opacity="0.501961" points="163,45 156,84 152,46" />
<polygon fill="#7a6a0d" fill-opacity="0.501961" points="190,121 209,103 170,124" />
<polygon fill="#252624" fill-opacity="0.501961" points="224,81 234,62 220,54" />
<polygon fill="#2c2b2a" fill-opacity="0.501961" points="166,10 157,-16 127,39" />
<polygon fill="#443f77" fill-opacity="0.501961" points="95,93 37,127 149,133" />
<polygon fill="#848035" fill-opacity="0.501961" points="135,123 127,107 114,102" />
<polygon fill="#deb38a" fill-opacity="0.501961" points="114,42 117,56 122,30" />
<polygon fill="#efdec7" fill-opacity="0.501961" points="161,72 184,69 156,101" />
<polygon fill="#413f3b" fill-opacity="0.501961" points="136,-10 160,-16 113,40" />
<polygon fill="#c2ad2f" fill-opacity="0.501961" points="254,91 246,125 271,90" />
<polygon fill="#eff7f7" fill-opacity="0.501961" points="228,83 236,54 236,70" />
<polygon fill="#a98369" fill-opacity="0.501961" points="126,105 168,108 138,115" />
<polygon fill="#3e3d1b" fill-opacity="0.501961" points="145,121 121,102 144,134" />
<polygon fill="#06080d" fill-opacity="0.501961" points="165,118 196,103 188,115" />
<polygon fill="#463e14" fill-opacity="0.501961" points="186,131 183,159 204,159" />
<polygon fill="#d7af84" fill-opacity="0.501961" points="218,53 206,80 220,65" />
<polygon fill="#131918" fill-opacity="0.501961" points="114,43 107,49 99,50" />
<polygon fill="#e1be9b" fill-opacity="0.501961" points="177,110 153,128 137,111" />
<polygon fill="#847e3a" fill-opacity="0.501961" points="13,140 15,118 5,144" />
<polygon fill="#c9a27a" fill-opacity="0.501961" points="96,54 118,62 114,53" />
<polygon fill="#583a50" fill-opacity="0.501961" points="193,65 159,68 181,58" />
<polygon fill="#383953" fill-opacity="0.501961" points="219,133 260,84 245,49" />
<polygon fill="#444453" fill-opacity="0.501961" points="23,98 36,67 62,74" />
<polygon fill="#e5d0ae" fill-opacity="0.501961" points="129,73 139,43 128,57" />
<polygon fill="#f5e7cc" fill-opacity="0.501961" points="200,82 211,72 203,85" />
<polygon fill="#34322d" fill-opacity="0.501961" points="117,60 116,85 126,53" />
<polygon fill="#504b49" fill-opacity="0.501961" points="206,5 241,-16 194,72" />
<polygon fill="#797567" fill-opacity="0.501961" points="141,81 138,94 145,81" />
<polygon fill="#e9ddc7" fill-opacity="0.501961" points="147,72 132,99 137,65" />
<polygon fill="#2a2c43" fill-opacity="0.501961" points="241,159 231,140 245,110" />
<polygon fill="#242628" fill-opacity="0.501961" points="8,151 -16,134 9,85" />
<polygon fill="#b49671" fill-opacity="0.501961" points="150,33 147,28 134,41" />
<polygon fill="#beae53" fill-opacity="0.501961" points="40,94 82,84 67,79" />
<polygon fill="#b48863" fill-opacity="0.501961" points="125,63 130,101 118,83" />
<polygon fill="#635615" fill-opacity="0.501961" points="214,95 216,80 201,107" />
<polygon fill="#d1a47a" fill-opacity="0.501961" points="222,42 222,49 232,36" />
<polygon fill="#e5d1b1" fill-opacity="0.501961" points="177,57 175,38 183,55" />
<polygon fill="#3d3f52" fill-opacity="0.501961" points="-16,109 -16,34 61,22" />
<polygon fill="#33312a" fill-opacity="0.501961" points="96,72 115,99 66,70" />
<polygon fill="#b4a74b" fill-opacity="0.501961" points="49,96 19,110 32,97" />
<polygon fill="#c6c9bc" fill-opacity="0.501961" points="108,131 103,136 110,137" />
<polygon fill="#46433d" fill-opacity="0.501961" points="171,-1 145,40 158,-2" />
<polygon fill="#4d4640" fill-opacity="0.501961" points="108,81 68,61 57,28" />
<polygon fill="#5c5d74" fill-opacity="0.501961" points="37,-16 -1,15 21,-16" />
<polygon fill="#c7b838" fill-opacity="0.501961" points="206,118 216,104 208,132" />
<polygon fill="#6b625a" fill-opacity="0.501961" points="86,46 90,6 82,27" />
<polygon fill="#353430" fill-opacity="0.501961" points="188,64 217,12 178,41" />
<polygon fill="#26293e" fill-opacity="0.501961" points="200,152 221,102 226,140" />
<polygon fill="#634541" fill-opacity="0.501961" points="105,63 90,66 122,74" />
<polygon fill="#2c2950" fill-opacity="0.501961" points="30,107 66,100 60,90" />
<polygon fill="#e2c79e" fill-opacity="0.501961" points="191,71 178,80 175,97" />
<polygon fill="#d7a67c" fill-opacity="0.501961" points="208,92 217,72 208,78" />
<polygon fill="#e2dcc8" fill-opacity="0.501961" points="243,20 239,12 232,17" />
<polygon fill="#383631" fill-opacity="0.501961" points="127,28 118,53 141,42" />
<polygon fill="#292822" fill-opacity="0.501961" points="90,15 92,53 108,-16" />
<polygon fill="#464176" fill-opacity="0.501961" points="85,90 0,159 86,147" />
<polygon fill="#ac8d69" fill-opacity="0.501961" points="196,55 202,47 200,43" />
<polygon fill="#6f620f" fill-opacity="0.501961" points="149,138 124,154 159,149" />
<polygon fill="#8898b9" fill-opacity="0.501961" points="211,101 205,120 188,131" />
<polygon fill="#dfcaac" fill-opacity="0.501961" points="156,106 104,85 128,106" />
<polygon fill="#4b4642" fill-opacity="0.501961" points="190,-7 158,35 165,9" />
<polygon fill="#a57987" fill-opacity="0.501961" points="178,73 186,63 179,62" />
<polygon fill="#45403c" fill-opacity="0.501961" points="271,42 239,40 242,16" />
<polygon fill="#838279" fill-opacity="0.501961" points="130,75 138,57 130,65" />
<polygon fill="#b78f6a" fill-opacity="0.501961" points="155,131 134,109 150,114" />
<polygon fill="#848e9f" fill-opacity="0.501961" points="163,126 177,159 144,126" />
<polygon fill="#4e4842" fill-opacity="0.501961" points="106,-16 98,46 126,11" />
<polygon fill="#454071" fill-opacity="0.501961" points="99,153 108,102 84,88" />
<polygon fill="#1b1c1a" fill-opacity="0.501961" points="172,118 192,112 204,87" />
<polygon fill="#c9986b" fill-opacity="0.501961" points="144,47 147,66 151,44" />
<polygon fill="#b9926b" fill-opacity="0.501961" points="125,60 141,45 135,43" />
<polygon fill="#24262b" fill-opacity="0.501961" points="178,63 166,58 183,58" />
<polygon fill="#e9d9c3" fill-opacity="0.501961" points="137,101 152,107 156,69" />
<polygon fill="#9d953f" fill-opacity="0.501961" points="233,132 227,133 237,118" />
<polygon fill="#2d2a4f" fill-opacity="0.501961" points="72,86 4,157 22,114" />
<polygon fill="#e9eef3" fill-opacity="0.501961" points="218,91 228,78 217,106" />
<polygon fill="#6b726f" fill-opacity="0.501961" points="246,53 232,51 247,58" />
<polygon fill="#d5ad85" fill-opacity="0.501961" points="158,37 157,21 149,40" />
<polygon fill="#e2dfce" fill-opacity="0.501961" points="160,115 143,110 174,110" />
<polygon fill="#241a06" fill-opacity="0.501961" points="145,109 141,106 136,106" />
<polygon fill="#cfbfa5" fill-opacity="0.501961" points="197,81 186,98 201,88" />
<polygon fill="#eadec7" fill-opacity="0.501961" points="134,71 147,64 127,93" />
<polygon fill="#bcbba9" fill-opacity="0.501961" points="164,52 169,59 166,64" />
<polygon fill="#26252c" fill-opacity="0.501961" points="134,136 136,129 138,139" />
<polygon fill="#cea377" fill-opacity="0.501961" points="167,35 168,19 171,27" />
<polygon fill="#d7dcf6" fill-opacity="0.501961" points="253,158 254,123 271,131" />
<polygon fill="#fffce2" fill-opacity="0.501961" points="108,74 113,80 114,74" />
<polygon fill="#2a2a31" fill-opacity="0.501961" points="0,87 -2,132 26,100" />
<polygon fill="#ad906f" fill-opacity="0.501961" points="154,18 147,36 140,36" />
<polygon fill="#363531" fill-opacity="0.501961" points="56,3 45,52 61,50" />
<polygon fill="#5b6680" fill-opacity="0.501961" points="172,129 162,123 175,148" />
<polygon fill="#e1e0db" fill-opacity="0.501961" points="143,133 137,139 139,133" />
<polygon fill="#d5c3a3" fill-opacity="0.501961" points="107,78 104,73 96,70" />
<polygon fill="#cbb695" fill-opacity="0.501961" points="179,99 187,101 165,119" />
<polygon fill="#d4af89" fill-opacity="0.501961" points="171,41 163,42 172,49" />
<polygon fill="#36332d" fill-opacity="0.501961" points="214,48 238,20 215,34" />
<polygon fill="#574f4b" fill-opacity="0.501961" points="80,0 84,38 102,-16" />
<polygon fill="#33322c" fill-opacity="0.501961" points="106,90 125,105 109,109" />
<polygon fill="#393951" fill-opacity="0.501961" points="250,87 226,102 216,159" />
<polygon fill="#2c2b28" fill-opacity="0.501961" points="210,66 206,53 197,86" />
<polygon fill="#3f3b39" fill-opacity="0.501961" points="69,49 108,98 97,69" />
<polygon fill="#d4ab84" fill-opacity="0.501961" points="120,34 126,30 125,25" />
<polygon fill="#92968c" fill-opacity="0.501961" points="87,129 94,137 86,138" />
<polygon fill="#3f3f4c" fill-opacity="0.501961" points="59,80 52,48 23,101" />
<polygon fill="#9c8063" fill-opacity="0.501961" points="151,71 161,43 161,58" />
<polygon fill="#b6ab4f" fill-opacity="0.501961" points="15,120 10,131 14,127" />
<polygon fill="#8993a3" fill-opacity="0.501961" points="178,126 198,124 197,135" />
<polygon fill="#242626" fill-opacity="0.501961" points="149,32 145,38 146,34" />
<polygon fill="#474271" fill-opacity="0.501961" points="72,87 41,130 129,132" />
<polygon fill="#746c35" fill-opacity="0.501961" points="163,122 185,117 174,129" />
<polygon fill="#f4e8cf" fill-opacity="0.501961" points="128,64 130,73 134,54" />
<polygon fill="#be9773" fill-opacity="0.501961" points="158,119 159,113 140,116" />
<polygon fill="#3c3932" fill-opacity="0.501961" points="74,83 86,68 109,80" />
<polygon fill="#655848" fill-opacity="0.501961" points="108,46 112,40 116,52" />
<polygon fill="#dfb58c" fill-opacity="0.501961" points="116,30 104,48 105,39" />
<polygon fill="#c0b29a" fill-opacity="0.501961" points="103,81 112,89 128,89" />
<polygon fill="#ad8064" fill-opacity="0.501961" points="164,66 182,68 170,71" />
<polygon fill="#41443a" fill-opacity="0.501961" points="165,62 157,60 171,59" />
<polygon fill="#342e2a" fill-opacity="0.501961" points="109,50 105,52 103,56" />
<polygon fill="#c9bc46" fill-opacity="0.501961" points="231,131 229,151 217,157" />
<polygon fill="#b9a231" fill-opacity="0.501961" points="241,153 253,154 251,111" />
<polygon fill="#ebdec3" fill-opacity="0.501961" points="168,114 151,123 158,124" />
<polygon fill="#bf9d79" fill-opacity="0.501961" points="175,36 176,33 174,29" />
<polygon fill="#ad916f" fill-opacity="0.501961" points="125,16 111,28 119,25" />
<polygon fill="#35312c" fill-opacity="0.501961" points="92,68 94,50 70,29" />
<polygon fill="#c2a17d" fill-opacity="0.501961" points="111,48 118,47 113,41" />
<polygon fill="#262829" fill-opacity="0.501961" points="76,67 95,80 68,77" />
<polygon fill="#38352f" fill-opacity="0.501961" points="187,93 171,103 196,70" />
<polygon fill="#2d2d25" fill-opacity="0.501961" points="228,75 230,50 211,90" />
<polygon fill="#aca14b" fill-opacity="0.501961" points="22,106 11,122 34,104" />
<polygon fill="#26241c" fill-opacity="0.501961" points="163,121 190,114 176,111" />
<polygon fill="#e0d0b4" fill-opacity="0.501961" points="166,47 172,59 162,59" />
<polygon fill="#625a54" fill-opacity="0.501961" points="62,32 65,6 70,28" />
<polygon fill="#323129" fill-opacity="0.501961" points="146,43 163,44 177,36" />
<polygon fill="#302f2d" fill-opacity="0.501961" points="124,30 151,21 171,-16" />
<polygon fill="#4c4642" fill-opacity="0.501961" points="155,-14 129,36 116,-13" />
<polygon fill="#e3b994" fill-opacity="0.501961" points="231,21 234,20 231,24" />
<polygon fill="#35342e" fill-opacity="0.501961" points="271,19 244,40 248,63" />
<polygon fill="#a88866" fill-opacity="0.501961" points="220,67 214,66 219,51" />
<polygon fill="#776d2a" fill-opacity="0.501961" points="198,115 203,101 214,94" />
<polygon fill="#977c62" fill-opacity="0.501961" points="155,45 175,39 168,45" />
<polygon fill="#1a1e18" fill-opacity="0.501961" points="100,48 113,47 108,51" />
<polygon fill="#28262d" fill-opacity="0.501961" points="11,81 15,97 47,55" />
<polygon fill="#6e6556" fill-opacity="0.501961" points="120,80 116,87 115,77" />
<polygon fill="#8e8841" fill-opacity="0.501961" points="135,118 129,115 139,127" />
<polygon fill="#3b3a38" fill-opacity="0.501961" points="148,70 156,58 155,44" />
<polygon fill="#aa9880" fill-opacity="0.501961" points="101,59 95,59 95,69" />
<polygon fill="#2f2f2b" fill-opacity="0.501961" points="114,40 110,42 115,34" />
<polygon fill="#4c4843" fill-opacity="0.501961" points="154,45 160,31 162,53" />
<polygon fill="#6a5c55" fill-opacity="0.501961" points="160,110 168,110 171,107" />
<polygon fill="#2c2c2a" fill-opacity="0.501961" points="240,28 227,75 227,45" />
<polygon fill="#deae84" fill-opacity="0.501961" points="233,27 232,36 225,43" />
<polygon fill="#514c46" fill-opacity="0.501961" points="172,43 174,38 176,52" />
<polygon fill="#39332c" fill-opacity="0.501961" points="102,59 122,64 118,69" />
<polygon fill="#af8e6b" fill-opacity="0.501961" points="156,55 157,72 153,64" />
<polygon fill="#cea984" fill-opacity="0.501961" points="107,47 100,45 115,28" />
<polygon fill="#353431" fill-opacity="0.501961" points="214,60 229,25 215,36" />
<polygon fill="#333130" fill-opacity="0.501961" points="219,61 237,51 223,82" />
<polygon fill="#beb13b" fill-opacity="0.501961" points="204,123 216,110 214,103" />
<polygon fill="#433f69" fill-opacity="0.501961" points="107,103 120,121 121,141" />
<polygon fill="#a37d63" fill-opacity="0.501961" points="106,74 112,69 100,70" />
<polygon fill="#21211d" fill-opacity="0.501961" points="191,114 181,108 205,91" />
<polygon fill="#d5ad86" fill-opacity="0.501961" points="114,42 117,48 124,29" />
<polygon fill="#2e2f37" fill-opacity="0.501961" points="243,88 230,86 242,67" />
<polygon fill="#e7d6c0" fill-opacity="0.501961" points="162,71 154,107 171,107" />
<polygon fill="#31302d" fill-opacity="0.501961" points="134,42 123,41 115,78" />
<polygon fill="#343431" fill-opacity="0.501961" points="148,131 140,118 129,129" />
<polygon fill="#967e61" fill-opacity="0.501961" points="118,59 114,66 114,59" />
<polygon fill="#36352b" fill-opacity="0.501961" points="142,47 134,35 145,44" />
<polygon fill="#76654f" fill-opacity="0.501961" points="111,41 119,53 109,45" />
<polygon fill="#37384c" fill-opacity="0.501961" points="230,148 241,154 239,115" />
<polygon fill="#e3d4be" fill-opacity="0.501961" points="136,101 153,67 150,107" />
<polygon fill="#3f3f4b" fill-opacity="0.501961" points="44,61 22,94 66,79" />
<polygon fill="#5a5a5c" fill-opacity="0.501961" points="151,125 155,130 144,123" />
<polygon fill="#2e2c46" fill-opacity="0.501961" points="32,126 8,155 14,126" />
<polygon fill="#5e5d6e" fill-opacity="0.501961" points="51,28 37,32 50,24" />
<polygon fill="#cea07a" fill-opacity="0.501961" points="146,69 143,47 140,58" />
<polygon fill="#36374b" fill-opacity="0.501961" points="234,106 263,61 241,131" />
<polygon fill="#c6a179" fill-opacity="0.501961" points="203,97 193,110 200,105" />
<polygon fill="#44403d" fill-opacity="0.501961" points="137,-11 116,32 144,5" />
<polygon fill="#484240" fill-opacity="0.501961" points="246,32 248,-16 240,8" />
<polygon fill="#3f3b61" fill-opacity="0.501961" points="85,99 54,100 63,90" />
<polygon fill="#423d6a" fill-opacity="0.501961" points="97,119 109,158 93,146" />
<polygon fill="#2c2d31" fill-opacity="0.501961" points="-16,99 26,79 7,135" />
<polygon fill="#7d6262" fill-opacity="0.501961" points="162,108 155,108 159,111" />
<polygon fill="#8d95a2" fill-opacity="0.501961" points="160,123 150,134 167,131" />
<polygon fill="#89888a" fill-opacity="0.501961" points="124,138 129,132 135,132" />
<polygon fill="#afa289" fill-opacity="0.501961" points="179,76 189,71 174,86" />
<polygon fill="#aca4b8" fill-opacity="0.501961" points="170,59 175,65 165,62" />
<polygon fill="#645a4c" fill-opacity="0.501961" points="107,76 95,64 101,63" />
<polygon fill="#b0a34d" fill-opacity="0.501961" points="87,87 59,84 72,79" />
<polygon fill="#8e8b7a" fill-opacity="0.501961" points="120,89 118,93 116,88" />
<polygon fill="#c8a17d" fill-opacity="0.501961" points="139,56 148,64 146,45" />
<polygon fill="#49423f" fill-opacity="0.501961" points="183,-16 166,28 170,-12" />
<polygon fill="#413e6b" fill-opacity="0.501961" points="118,107 132,151 131,120" />
<polygon fill="#22242b" fill-opacity="0.501961" points="-5,35 16,24 -9,24" />
<polygon fill="#756d35" fill-opacity="0.501961" points="189,121 206,107 193,111" />
<polygon fill="#96988f" fill-opacity="0.501961" points="122,139 118,132 135,139" />
<polygon fill="#45403e" fill-opacity="0.501961" points="224,-16 200,53 204,-7" />
<polygon fill="#e3d0b6" fill-opacity="0.501961" points="159,70 157,84 166,71" />
<polygon fill="#9b7955" fill-opacity="0.501961" points="177,36 180,45 174,41" />
<polygon fill="#686224" fill-opacity="0.501961" points="185,136 178,126 192,135" />
<polygon fill="#b99671" fill-opacity="0.501961" points="217,72 214,70 219,60" />
<polygon fill="#9f9649" fill-opacity="0.501961" points="96,88 85,85 101,96" />
<polygon fill="#5c5c52" fill-opacity="0.501961" points="110,80 116,84 116,87" />
<polygon fill="#65635b" fill-opacity="0.501961" points="158,78 156,70 155,87" />
<polygon fill="#aa8bb5" fill-opacity="0.501961" points="107,63 104,62 109,68" />
<polygon fill="#474728" fill-opacity="0.501961" points="76,81 94,81 101,91" />
<polygon fill="#413d5b" fill-opacity="0.501961" points="124,121 119,139 118,112" />
<polygon fill="#d1aa82" fill-opacity="0.501961" points="140,117 140,109 122,99" />
<polygon fill="#494441" fill-opacity="0.501961" points="125,13 108,-12 99,44" />
<polygon fill="#383530" fill-opacity="0.501961" points="100,57 87,47 81,52" />
<polygon fill="#b0a547" fill-opacity="0.501961" points="259,110 249,113 245,130" />
<polygon fill="#2a2c38" fill-opacity="0.501961" points="235,83 232,81 237,73" />
<polygon fill="#909aa9" fill-opacity="0.501961" points="192,121 193,132 178,125" />
<polygon fill="#2e1a31" fill-opacity="0.501961" points="118,66 103,66 111,63" />
<polygon fill="#e3b88b" fill-opacity="0.501961" points="103,52 98,50 100,55" />
<polygon fill="#aa9e4a" fill-opacity="0.501961" points="18,110 12,128 27,107" />
<polygon fill="#e5d6be" fill-opacity="0.501961" points="143,80 133,99 132,87" />
<polygon fill="#584d45" fill-opacity="0.501961" points="157,70 160,63 168,63" />
<polygon fill="#6a6457" fill-opacity="0.501961" points="153,63 147,75 140,77" />
<polygon fill="#e4d6bf" fill-opacity="0.501961" points="157,77 175,81 157,94" />
<polygon fill="#b6aa42" fill-opacity="0.501961" points="202,125 211,116 206,138" />
<polygon fill="#5c5a46" fill-opacity="0.501961" points="201,129 196,132 201,124" />
<polygon fill="#d9dbdb" fill-opacity="0.501961" points="233,71 220,87 228,87" />
<polygon fill="#b09273" fill-opacity="0.501961" points="129,98 117,83 127,72" />
<polygon fill="#887661" fill-opacity="0.501961" points="126,30 131,17 124,26" />
<polygon fill="#c09c76" fill-opacity="0.501961" points="171,34 165,36 170,20" />
<polygon fill="#b2a550" fill-opacity="0.501961" points="30,105 44,89 54,92" />
<polygon fill="#838482" fill-opacity="0.501961" points="119,132 101,139 116,139" />
<polygon fill="#d9b18b" fill-opacity="0.501961" points="118,88 126,95 125,74" />
<polygon fill="#e2d6bf" fill-opacity="0.501961" points="125,102 143,73 132,74" />
<polygon fill="#32312e" fill-opacity="0.501961" points="230,18 229,4 253,-16" />
<polygon fill="#181b46" fill-opacity="0.501961" points="191,139 177,156 199,159" />
<polygon fill="#393736" fill-opacity="0.501961" points="240,56 237,43 247,46" />
<polygon fill="#4f4d36" fill-opacity="0.501961" points="144,132 144,148 151,157" />
<polygon fill="#d4c9b2" fill-opacity="0.501961" points="172,48 160,59 173,57" />
<polygon fill="#504b46" fill-opacity="0.501961" points="191,70 201,54 198,67" />
<polygon fill="#484032" fill-opacity="0.501961" points="161,62 154,59 172,59" />
<polygon fill="#414152" fill-opacity="0.501961" points="0,0 -1,19 20,-16" />
<polygon fill="#6e6c35" fill-opacity="0.501961" points="142,129 141,133 134,123" />
<polygon fill="#1f212b" fill-opacity="0.501961" points="205,150 216,150 212,123" />
<polygon fill="#232448" fill-opacity="0.501961" points="125,153 137,139 127,140" />
<polygon fill="#e2dbc6" fill-opacity="0.501961" points="178,106 176,102 170,106" />
<polygon fill="#413f39" fill-opacity="0.501961" points="186,87 198,79 180,101" />
<polygon fill="#4e4747" fill-opacity="0.501961" points="87,68 87,41 81,60" />
<polygon fill="#47403c" fill-opacity="0.501961" points="92,-7 43,-5 85,31" />
<polygon fill="#d0b99b" fill-opacity="0.501961" points="181,103 193,86 209,82" />
<polygon fill="#bb9873" fill-opacity="0.501961" points="134,55 134,49 124,60" />
<polygon fill="#9b9552" fill-opacity="0.501961" points="120,109 117,104 123,109" />
<polygon fill="#484372" fill-opacity="0.501961" points="130,131 82,88 74,132" />
<polygon fill="#3d3937" fill-opacity="0.501961" points="152,51 153,61 161,39" />
<polygon fill="#948d47" fill-opacity="0.501961" points="124,110 131,114 130,117" />
<polygon fill="#555e69" fill-opacity="0.501961" points="169,159 170,131 177,159" />
<polygon fill="#21221c" fill-opacity="0.501961" points="194,96 197,103 205,88" />
<polygon fill="#271f2b" fill-opacity="0.501961" points="173,64 172,59 180,60" />
<polygon fill="#484441" fill-opacity="0.501961" points="148,2 122,41 140,-16" />
<polygon fill="#48453f" fill-opacity="0.501961" points="147,66 148,75 152,62" />
<polygon fill="#6e7477" fill-opacity="0.501961" points="165,143 167,139 160,134" />
<polygon fill="#25213d" fill-opacity="0.501961" points="128,136 129,140 127,141" />
<polygon fill="#3b3836" fill-opacity="0.501961" points="89,55 111,99 83,72" />
<polygon fill="#c9a480" fill-opacity="0.501961" points="115,30 117,23 122,19" />
<polygon fill="#b79371" fill-opacity="0.501961" points="144,45 151,53 152,44" />
<polygon fill="#3b3b4f" fill-opacity="0.501961" points="208,159 226,106 223,159" />
<polygon fill="#e7d8bd" fill-opacity="0.501961" points="135,67 142,72 138,62" />
<polygon fill="#343433" fill-opacity="0.501961" points="173,38 183,38 191,29" />
<polygon fill="#272624" fill-opacity="0.501961" points="133,115 141,119 142,131" />
<polygon fill="#88929f" fill-opacity="0.501961" points="199,115 191,133 197,138" />
<polygon fill="#2d2d2a" fill-opacity="0.501961" points="118,55 133,48 141,30" />
<polygon fill="#c4a27c" fill-opacity="0.501961" points="156,34 156,40 146,40" />
<polygon fill="#ccb698" fill-opacity="0.501961" points="232,18 239,15 229,27" />
<polygon fill="#4f4a45" fill-opacity="0.501961" points="181,17 184,55 177,36" />
</g>
</svg>