<svg xmlns="http://www.w3.org/2000/svg" version="1.1" width="1024" height="576">
<rect x="0" y="0" width="1024" height="576" fill="#687a8a" />
<g transform="scale(4.000000) translate(0.5 0.5)">
<polygon fill="#b1cad4" fill-opacity="0.501961" points="83,10 40,119 237,84" />
<polygon fill="#00071e" fill-opacity="0.501961" points="271,2 218,4 235,159" />
<polygon fill="#0f1b30" fill-opacity="0.501961" points="18,145 12,-1 54,-15" />
<polygon fill="#4eaeff" fill-opacity="0.501961" points="57,24 215,70 211,23" />
<polygon fill="#0c1d2c" fill-opacity="0.501961" points="12,13 185,11 104,-14" />
<polygon fill="#2e3a4e" fill-opacity="0.501961" points="259,-5 271,145 192,159" />
<polygon fill="#202a3d" fill-opacity="0.501961" points="13,159 19,62 50,126" />
<polygon fill="#a8a9a8" fill-opacity="0.501961" points="212,115 41,116 227,46" />
<polygon fill="#1a2836" fill-opacity="0.501961" points="203,24 243,2 122,2" />
<polygon fill="#44594d" fill-opacity="0.501961" points="124,77 178,82 157,60" />
<polygon fill="#9ea5a7" fill-opacity="0.501961" points="54,11 28,80 176,101" />
<polygon fill="#ffffff" fill-opacity="0.501961" points="-16,104 1,159 1,61" />
<polygon fill="#8ac1f5" fill-opacity="0.501961" points="199,59 100,32 98,68" />
<polygon fill="#a4a19c" fill-opacity="0.501961" points="223,139 108,134 171,119" />
<polygon fill="#dceffa" fill-opacity="0.501961" points="77,1 139,-16 178,1" />
<polygon fill="#75859c" fill-opacity="0.501961" points="32,13 97,13 32,116" />
<polygon fill="#bfbb77" fill-opacity="0.501961" points="97,102 98,28 72,106" />
<polygon fill="#414651" fill-opacity="0.501961" points="9,118 111,117 22,145" />
<polygon fill="#308ad7" fill-opacity="0.501961" points="189,30 131,22 93,54" />
<polygon fill="#ccc6d1" fill-opacity="0.501961" points="55,79 44,115 45,70" />
<polygon fill="#61adef" fill-opacity="0.501961" points="64,38 72,74 84,26" />
<polygon fill="#a5b2c9" fill-opacity="0.501961" points="215,48 175,51 191,117" />
<polygon fill="#555566" fill-opacity="0.501961" points="226,82 214,65 214,123" />
<polygon fill="#3a4552" fill-opacity="0.501961" points="7,-16 7,64 -15,-16" />
<polygon fill="#f9ffff" fill-opacity="0.501961" points="158,0 261,0 207,-16" />
<polygon fill="#876f21" fill-opacity="0.501961" points="80,51 86,35 85,65" />
<polygon fill="#a8edd4" fill-opacity="0.501961" points="102,91 103,118 79,107" />
<polygon fill="#2173bc" fill-opacity="0.501961" points="70,28 130,31 103,20" />
<polygon fill="#474a52" fill-opacity="0.501961" points="45,23 30,13 43,70" />
<polygon fill="#4f5867" fill-opacity="0.501961" points="230,25 213,5 216,60" />
<polygon fill="#757578" fill-opacity="0.501961" points="46,159 157,117 31,125" />
<polygon fill="#102331" fill-opacity="0.501961" points="28,61 32,2 14,2" />
<polygon fill="#374253" fill-opacity="0.501961" points="267,159 185,117 246,117" />
<polygon fill="#97a0a7" fill-opacity="0.501961" points="111,122 154,139 206,122" />
<polygon fill="#505562" fill-opacity="0.501961" points="31,91 40,131 44,65" />
<polygon fill="#1a2a38" fill-opacity="0.501961" points="118,2 155,12 80,13" />
<polygon fill="#6d7074" fill-opacity="0.501961" points="131,143 204,159 228,116" />
<polygon fill="#b0bbbb" fill-opacity="0.501961" points="104,13 77,21 49,13" />
<polygon fill="#ffffff" fill-opacity="0.501961" points="1,148 -16,91 1,74" />
<polygon fill="#6f859a" fill-opacity="0.501961" points="92,-16 17,0 66,3" />
<polygon fill="#11243a" fill-opacity="0.501961" points="29,99 34,154 14,159" />
<polygon fill="#d4be84" fill-opacity="0.501961" points="85,57 86,34 99,33" />
<polygon fill="#aec1d2" fill-opacity="0.501961" points="64,92 66,47 82,66" />
<polygon fill="#acb6bb" fill-opacity="0.501961" points="91,16 125,13 115,21" />
<polygon fill="#bac7bb" fill-opacity="0.501961" points="2,77 1,22 -16,83" />
<polygon fill="#788083" fill-opacity="0.501961" points="126,159 121,103 87,73" />
<polygon fill="#3f454d" fill-opacity="0.501961" points="164,63 149,78 136,66" />
<polygon fill="#545963" fill-opacity="0.501961" points="87,21 28,19 57,28" />
<polygon fill="#9ba4ac" fill-opacity="0.501961" points="158,69 213,117 213,57" />
<polygon fill="#847d8a" fill-opacity="0.501961" points="56,78 76,115 58,117" />
<polygon fill="#3a4856" fill-opacity="0.501961" points="143,143 74,159 5,137" />
<polygon fill="#4d4e5a" fill-opacity="0.501961" points="207,124 197,90 196,117" />
<polygon fill="#838c8b" fill-opacity="0.501961" points="206,50 173,37 172,49" />
<polygon fill="#525d6b" fill-opacity="0.501961" points="164,10 212,22 141,24" />
<polygon fill="#c2cbd3" fill-opacity="0.501961" points="32,55 40,75 32,75" />
<polygon fill="#7f94a4" fill-opacity="0.501961" points="151,3 46,0 104,-15" />
<polygon fill="#46464e" fill-opacity="0.501961" points="171,115 157,120 191,122" />
<polygon fill="#213042" fill-opacity="0.501961" points="99,10 53,-1 45,13" />
<polygon fill="#766a45" fill-opacity="0.501961" points="100,45 95,66 93,55" />
<polygon fill="#a0a099" fill-opacity="0.501961" points="95,129 114,139 64,135" />
<polygon fill="#182a39" fill-opacity="0.501961" points="185,13 207,6 160,2" />
<polygon fill="#7b8ba5" fill-opacity="0.501961" points="6,52 14,13 17,57" />
<polygon fill="#358fdc" fill-opacity="0.501961" points="195,24 215,54 214,24" />
<polygon fill="#6c6873" fill-opacity="0.501961" points="45,49 65,50 62,77" />
<polygon fill="#8f98a3" fill-opacity="0.501961" points="78,29 43,23 48,73" />
<polygon fill="#b0b3bd" fill-opacity="0.501961" points="215,86 184,103 116,79" />
<polygon fill="#2c3c53" fill-opacity="0.501961" points="261,139 225,69 225,148" />
<polygon fill="#5d6876" fill-opacity="0.501961" points="170,14 225,12 224,27" />
<polygon fill="#328dd9" fill-opacity="0.501961" points="72,41 81,21 79,56" />
<polygon fill="#bbd5ee" fill-opacity="0.501961" points="87,30 99,39 122,36" />
<polygon fill="#3d8fd6" fill-opacity="0.501961" points="123,39 176,22 168,51" />
<polygon fill="#304053" fill-opacity="0.501961" points="16,80 30,111 31,38" />
<polygon fill="#223444" fill-opacity="0.501961" points="162,12 205,1 246,13" />
<polygon fill="#d0de8b" fill-opacity="0.501961" points="97,72 81,100 94,103" />
<polygon fill="#90909b" fill-opacity="0.501961" points="117,115 200,95 106,92" />
<polygon fill="#9eafc4" fill-opacity="0.501961" points="15,72 8,51 8,84" />
<polygon fill="#d8e5ef" fill-opacity="0.501961" points="150,-1 128,1 110,-9" />
<polygon fill="#a3b2c1" fill-opacity="0.501961" points="217,68 224,52 224,77" />
<polygon fill="#273749" fill-opacity="0.501961" points="225,17 226,100 254,5" />
<polygon fill="#acb9c3" fill-opacity="0.501961" points="101,57 132,89 100,89" />
<polygon fill="#36495f" fill-opacity="0.501961" points="238,146 262,68 233,37" />
<polygon fill="#428ed1" fill-opacity="0.501961" points="101,51 98,39 139,40" />
<polygon fill="#798490" fill-opacity="0.501961" points="86,83 69,99 72,114" />
<polygon fill="#a8f4f0" fill-opacity="0.501961" points="83,116 77,115 75,104" />
<polygon fill="#ced3da" fill-opacity="0.501961" points="190,102 196,118 195,88" />
<polygon fill="#7a6d57" fill-opacity="0.501961" points="101,63 80,53 80,62" />
<polygon fill="#5b6373" fill-opacity="0.501961" points="214,11 226,35 215,70" />
<polygon fill="#cbc9d7" fill-opacity="0.501961" points="57,82 44,76 73,77" />
<polygon fill="#c8d7ee" fill-opacity="0.501961" points="218,1 255,1 267,-16" />
<polygon fill="#96c3e9" fill-opacity="0.501961" points="180,65 138,43 99,52" />
<polygon fill="#7dbbed" fill-opacity="0.501961" points="214,48 208,60 165,53" />
<polygon fill="#4c5666" fill-opacity="0.501961" points="104,132 56,117 28,132" />
<polygon fill="#646d86" fill-opacity="0.501961" points="191,56 191,66 181,68" />
<polygon fill="#e5f0f3" fill-opacity="0.501961" points="175,63 183,69 182,56" />
<polygon fill="#332e33" fill-opacity="0.501961" points="61,117 75,122 45,121" />
<polygon fill="#8dacc0" fill-opacity="0.501961" points="196,31 173,33 205,42" />
<polygon fill="#4f5665" fill-opacity="0.501961" points="39,55 57,50 17,47" />
<polygon fill="#a5a7b0" fill-opacity="0.501961" points="61,78 85,78 62,118" />
<polygon fill="#d9bebf" fill-opacity="0.501961" points="86,53 92,44 94,75" />
<polygon fill="#546475" fill-opacity="0.501961" points="91,26 109,20 82,21" />
<polygon fill="#52d466" fill-opacity="0.501961" points="163,80 170,79 170,66" />
<polygon fill="#b1b6c3" fill-opacity="0.501961" points="114,72 107,60 153,60" />
<polygon fill="#a29d55" fill-opacity="0.501961" points="80,50 82,36 95,37" />
<polygon fill="#8b8c6b" fill-opacity="0.501961" points="99,97 87,64 86,84" />
<polygon fill="#afbdd1" fill-opacity="0.501961" points="9,79 9,98 13,92" />
<polygon fill="#499be0" fill-opacity="0.501961" points="117,26 80,36 78,23" />
<polygon fill="#5f6370" fill-opacity="0.501961" points="117,72 132,70 133,75" />
<polygon fill="#546367" fill-opacity="0.501961" points="168,64 127,66 161,74" />
<polygon fill="#7c7a87" fill-opacity="0.501961" points="149,116 191,118 149,104" />
<polygon fill="#3e4c5c" fill-opacity="0.501961" points="7,76 7,51 1,63" />
<polygon fill="#4c4f5c" fill-opacity="0.501961" points="122,122 140,119 115,116" />
<polygon fill="#616e7c" fill-opacity="0.501961" points="31,128 49,149 31,87" />
<polygon fill="#586169" fill-opacity="0.501961" points="77,159 148,140 85,138" />
<polygon fill="#888d9a" fill-opacity="0.501961" points="182,73 167,82 212,79" />
<polygon fill="#576f84" fill-opacity="0.501961" points="248,65 244,51 240,70" />
<polygon fill="#718398" fill-opacity="0.501961" points="20,-15 8,1 60,0" />
<polygon fill="#2b3b55" fill-opacity="0.501961" points="31,102 17,149 15,96" />
<polygon fill="#1d2f3f" fill-opacity="0.501961" points="37,1 17,11 16,43" />
<polygon fill="#566984" fill-opacity="0.501961" points="250,90 271,117 250,135" />
<polygon fill="#212f45" fill-opacity="0.501961" points="246,77 271,121 257,65" />
<polygon fill="#344454" fill-opacity="0.501961" points="168,159 106,142 228,142" />
<polygon fill="#485870" fill-opacity="0.501961" points="21,68 13,78 11,61" />
<polygon fill="#b2b7b4" fill-opacity="0.501961" points="210,138 206,135 210,130" />
<polygon fill="#9ea198" fill-opacity="0.501961" points="48,135 66,131 68,139" />
<polygon fill="#adaab8" fill-opacity="0.501961" points="57,65 44,100 53,112" />
<polygon fill="#797b8b" fill-opacity="0.501961" points="67,113 55,119 55,82" />
<polygon fill="#9ba2a8" fill-opacity="0.501961" points="195,139 193,127 181,128" />
<polygon fill="#a1bccf" fill-opacity="0.501961" points="93,71 111,50 136,71" />
<polygon fill="#354458" fill-opacity="0.501961" points="18,99 15,33 32,48" />
<polygon fill="#445162" fill-opacity="0.501961" points="8,107 2,89 7,72" />
<polygon fill="#a2abb6" fill-opacity="0.501961" points="32,68 39,58 39,80" />
<polygon fill="#368cd3" fill-opacity="0.501961" points="178,33 158,25 199,24" />
<polygon fill="#4f5160" fill-opacity="0.501961" points="117,116 100,118 119,122" />
<polygon fill="#868a89" fill-opacity="0.501961" points="113,123 102,139 154,138" />
<polygon fill="#d3dff7" fill-opacity="0.501961" points="191,61 200,62 206,58" />
<polygon fill="#4e5460" fill-opacity="0.501961" points="42,68 35,41 43,28" />
<polygon fill="#788992" fill-opacity="0.501961" points="169,-2 180,1 159,1" />
<polygon fill="#4c4e57" fill-opacity="0.501961" points="157,120 145,122 133,117" />
<polygon fill="#878895" fill-opacity="0.501961" points="141,110 191,116 190,100" />
<polygon fill="#627487" fill-opacity="0.501961" points="12,92 2,145 16,144" />
<polygon fill="#7a8ba5" fill-opacity="0.501961" points="15,6 10,28 9,8" />
<polygon fill="#7f8e8f" fill-opacity="0.501961" points="3,58 1,-1 -12,16" />
<polygon fill="#a3a9a6" fill-opacity="0.501961" points="87,139 87,132 107,135" />
<polygon fill="#a89e72" fill-opacity="0.501961" points="98,39 100,62 85,37" />
<polygon fill="#ddefb5" fill-opacity="0.501961" points="76,101 83,95 88,99" />
<polygon fill="#839fae" fill-opacity="0.501961" points="127,65 101,73 102,65" />
<polygon fill="#a6a7b0" fill-opacity="0.501961" points="113,95 107,88 109,115" />
<polygon fill="#526278" fill-opacity="0.501961" points="12,105 11,88 16,89" />
<polygon fill="#a1acb6" fill-opacity="0.501961" points="135,124 159,131 162,122" />
<polygon fill="#d8dcd3" fill-opacity="0.501961" points="1,63 -16,64 3,106" />
<polygon fill="#8fa5ba" fill-opacity="0.501961" points="65,53 46,40 76,33" />
<polygon fill="#64a1d7" fill-opacity="0.501961" points="139,55 167,53 176,35" />
<polygon fill="#a4c0bc" fill-opacity="0.501961" points="78,90 69,64 87,69" />
<polygon fill="#2e3f4d" fill-opacity="0.501961" points="245,144 212,136 239,133" />
<polygon fill="#4e5866" fill-opacity="0.501961" points="64,22 37,26 31,14" />
<polygon fill="#65717a" fill-opacity="0.501961" points="110,22 139,24 156,13" />
<polygon fill="#9baab5" fill-opacity="0.501961" points="217,51 225,68 216,70" />
<polygon fill="#223544" fill-opacity="0.501961" points="94,11 72,3 118,3" />
<polygon fill="#5f6471" fill-opacity="0.501961" points="58,78 58,50 66,50" />
<polygon fill="#9ccfd2" fill-opacity="0.501961" points="104,87 92,116 101,115" />
<polygon fill="#788496" fill-opacity="0.501961" points="224,35 224,64 217,57" />
<polygon fill="#66a5df" fill-opacity="0.501961" points="136,30 109,30 126,37" />
<polygon fill="#d8c8c7" fill-opacity="0.501961" points="94,53 90,45 83,54" />
<polygon fill="#509d96" fill-opacity="0.501961" points="85,111 87,117 75,106" />
<polygon fill="#656d77" fill-opacity="0.501961" points="196,93 197,82 200,91" />
<polygon fill="#accce7" fill-opacity="0.501961" points="133,53 153,47 131,46" />
<polygon fill="#3b3c45" fill-opacity="0.501961" points="205,124 221,118 183,118" />
<polygon fill="#616875" fill-opacity="0.501961" points="220,120 225,82 214,76" />
<polygon fill="#539ad8" fill-opacity="0.501961" points="116,43 129,51 103,48" />
<polygon fill="#bfc6d2" fill-opacity="0.501961" points="205,92 199,97 213,96" />
<polygon fill="#737580" fill-opacity="0.501961" points="142,92 147,101 141,118" />
<polygon fill="#dcc6b5" fill-opacity="0.501961" points="82,85 81,75 87,64" />
<polygon fill="#acb2a9" fill-opacity="0.501961" points="45,138 47,131 50,139" />
<polygon fill="#706f7c" fill-opacity="0.501961" points="138,112 133,97 134,119" />
<polygon fill="#5e8099" fill-opacity="0.501961" points="77,65 74,62 68,64" />
<polygon fill="#9b9ca8" fill-opacity="0.501961" points="76,82 62,112 61,85" />
<polygon fill="#9facc3" fill-opacity="0.501961" points="8,37 10,28 11,44" />
<polygon fill="#757983" fill-opacity="0.501961" points="125,91 127,116 130,102" />
<polygon fill="#a3b9c2" fill-opacity="0.501961" points="186,42 173,35 174,40" />
<polygon fill="#889399" fill-opacity="0.501961" points="136,13 138,21 110,18" />
<polygon fill="#545759" fill-opacity="0.501961" points="78,132 79,150 70,158" />
<polygon fill="#474f59" fill-opacity="0.501961" points="94,133 91,153 99,155" />
<polygon fill="#5e5b24" fill-opacity="0.501961" points="86,61 81,60 82,51" />
<polygon fill="#c3cdd1" fill-opacity="0.501961" points="188,85 171,88 155,82" />
<polygon fill="#72848f" fill-opacity="0.501961" points="201,50 199,41 177,47" />
<polygon fill="#5c6875" fill-opacity="0.501961" points="176,24 209,13 158,13" />
<polygon fill="#9c9995" fill-opacity="0.501961" points="133,67 138,66 129,80" />
<polygon fill="#c9c7b2" fill-opacity="0.501961" points="90,74 92,63 103,81" />
<polygon fill="#a0a7b1" fill-opacity="0.501961" points="168,93 159,83 167,118" />
<polygon fill="#777f89" fill-opacity="0.501961" points="158,92 165,114 165,94" />
<polygon fill="#ccdde9" fill-opacity="0.501961" points="117,0 171,0 130,-14" />
<polygon fill="#555e67" fill-opacity="0.501961" points="100,150 105,142 101,128" />
<polygon fill="#63707f" fill-opacity="0.501961" points="32,56 42,53 32,18" />
<polygon fill="#565c67" fill-opacity="0.501961" points="171,122 152,116 133,122" />
<polygon fill="#a8a9b4" fill-opacity="0.501961" points="103,75 117,117 116,74" />
<polygon fill="#7f8589" fill-opacity="0.501961" points="116,93 112,104 111,86" />
<polygon fill="#a0a79d" fill-opacity="0.501961" points="37,132 35,138 42,133" />
<polygon fill="#c9dcea" fill-opacity="0.501961" points="8,79 10,78 10,72" />
<polygon fill="#a4aab4" fill-opacity="0.501961" points="186,115 179,86 188,86" />
<polygon fill="#4390d2" fill-opacity="0.501961" points="118,43 156,45 185,24" />
<polygon fill="#797a85" fill-opacity="0.501961" points="221,118 206,118 207,98" />
<polygon fill="#a1b0a2" fill-opacity="0.501961" points="174,76 165,68 158,69" />
<polygon fill="#36455d" fill-opacity="0.501961" points="254,148 271,156 255,94" />
<polygon fill="#a7aeb9" fill-opacity="0.501961" points="177,114 179,99 172,84" />
<polygon fill="#a9aeb9" fill-opacity="0.501961" points="213,82 213,116 207,94" />
<polygon fill="#bad4e8" fill-opacity="0.501961" points="104,31 84,33 101,36" />
<polygon fill="#9ca3ad" fill-opacity="0.501961" points="138,84 173,96 199,87" />
<polygon fill="#636a79" fill-opacity="0.501961" points="224,81 225,125 214,89" />
<polygon fill="#595c62" fill-opacity="0.501961" points="57,133 66,141 53,153" />
<polygon fill="#9ad3d0" fill-opacity="0.501961" points="72,117 78,105 80,114" />
<polygon fill="#3d8ac8" fill-opacity="0.501961" points="196,28 194,43 186,24" />
<polygon fill="#374557" fill-opacity="0.501961" points="4,30 2,-4 8,13" />
<polygon fill="#586475" fill-opacity="0.501961" points="223,121 195,121 209,132" />
<polygon fill="#75847e" fill-opacity="0.501961" points="82,95 86,79 75,98" />
<polygon fill="#848991" fill-opacity="0.501961" points="70,24 44,23 57,37" />
<polygon fill="#6d768e" fill-opacity="0.501961" points="215,66 197,65 216,61" />
<polygon fill="#2f3d50" fill-opacity="0.501961" points="31,68 17,70 31,122" />
<polygon fill="#9aabb9" fill-opacity="0.501961" points="233,-16 180,0 215,1" />
<polygon fill="#203042" fill-opacity="0.501961" points="35,132 29,159 19,131" />
<polygon fill="#81b1ab" fill-opacity="0.501961" points="84,72 76,89 75,67" />
<polygon fill="#3f8ed1" fill-opacity="0.501961" points="79,36 72,23 92,25" />
<polygon fill="#5b6c7b" fill-opacity="0.501961" points="3,142 14,111 3,102" />
<polygon fill="#9bd6dc" fill-opacity="0.501961" points="93,106 75,103 92,114" />
<polygon fill="#2d394d" fill-opacity="0.501961" points="225,25 225,127 243,90" />
<polygon fill="#91938e" fill-opacity="0.501961" points="158,139 130,138 167,129" />
<polygon fill="#7c8ea0" fill-opacity="0.501961" points="11,113 7,125 8,100" />
<polygon fill="#847b5c" fill-opacity="0.501961" points="96,52 98,60 86,61" />
<polygon fill="#3f85c0" fill-opacity="0.501961" points="190,47 184,43 183,26" />
<polygon fill="#3888cc" fill-opacity="0.501961" points="99,23 107,31 136,24" />
<polygon fill="#5c9379" fill-opacity="0.501961" points="95,92 101,96 99,80" />
<polygon fill="#545a60" fill-opacity="0.501961" points="137,143 134,135 136,132" />
<polygon fill="#586c80" fill-opacity="0.501961" points="79,2 107,-16 35,0" />
<polygon fill="#63666d" fill-opacity="0.501961" points="89,152 86,132 70,152" />
<polygon fill="#599fd8" fill-opacity="0.501961" points="81,52 77,37 65,55" />
<polygon fill="#616871" fill-opacity="0.501961" points="109,24 98,20 123,20" />
<polygon fill="#3c3a44" fill-opacity="0.501961" points="48,116 43,121 62,120" />
<polygon fill="#abadbb" fill-opacity="0.501961" points="148,116 149,96 145,103" />
<polygon fill="#555d6b" fill-opacity="0.501961" points="218,135 215,96 226,126" />
<polygon fill="#6a737e" fill-opacity="0.501961" points="118,101 118,139 129,137" />
<polygon fill="#a2abb4" fill-opacity="0.501961" points="115,19 82,20 101,14" />
<polygon fill="#515866" fill-opacity="0.501961" points="212,18 222,16 224,47" />
<polygon fill="#696f79" fill-opacity="0.501961" points="178,96 184,115 178,119" />
<polygon fill="#5e6777" fill-opacity="0.501961" points="217,33 222,55 224,14" />
<polygon fill="#9daec4" fill-opacity="0.501961" points="9,43 13,52 9,63" />
<polygon fill="#64748d" fill-opacity="0.501961" points="13,45 10,63 17,67" />
<polygon fill="#46505c" fill-opacity="0.501961" points="43,76 40,87 40,65" />
<polygon fill="#a69397" fill-opacity="0.501961" points="85,62 92,57 89,71" />
<polygon fill="#aeb5be" fill-opacity="0.501961" points="159,115 154,116 158,100" />
<polygon fill="#545e66" fill-opacity="0.501961" points="110,145 111,128 115,146" />
<polygon fill="#6f7681" fill-opacity="0.501961" points="172,122 168,96 175,102" />
<polygon fill="#98ac65" fill-opacity="0.501961" points="96,88 99,80 82,88" />
<polygon fill="#98a4af" fill-opacity="0.501961" points="150,130 166,124 185,131" />
<polygon fill="#71737f" fill-opacity="0.501961" points="147,108 141,94 144,121" />
<polygon fill="#818086" fill-opacity="0.501961" points="69,115 71,89 74,105" />
<polygon fill="#5c6271" fill-opacity="0.501961" points="225,91 217,94 209,91" />
<polygon fill="#418ed1" fill-opacity="0.501961" points="212,48 214,25 198,23" />
<polygon fill="#a9b6c0" fill-opacity="0.501961" points="195,31 200,35 197,42" />
<polygon fill="#d4e3a4" fill-opacity="0.501961" points="95,96 76,103 100,102" />
<polygon fill="#314156" fill-opacity="0.501961" points="247,142 252,75 214,150" />
<polygon fill="#1f3141" fill-opacity="0.501961" points="19,17 46,1 15,6" />
<polygon fill="#757b8b" fill-opacity="0.501961" points="183,59 188,67 189,58" />
<polygon fill="#2c3d4a" fill-opacity="0.501961" points="188,13 185,1 142,12" />
<polygon fill="#394c5e" fill-opacity="0.501961" points="2,41 7,23 7,57" />
<polygon fill="#42434c" fill-opacity="0.501961" points="66,122 75,117 88,121" />
<polygon fill="#283a4a" fill-opacity="0.501961" points="233,3 215,13 180,4" />
<polygon fill="#c2c9d2" fill-opacity="0.501961" points="137,81 130,85 149,83" />
<polygon fill="#4d5869" fill-opacity="0.501961" points="186,13 179,24 213,21" />
<polygon fill="#655a4e" fill-opacity="0.501961" points="81,50 86,45 87,50" />
<polygon fill="#82919d" fill-opacity="0.501961" points="152,-2 144,1 156,2" />
<polygon fill="#a2afb4" fill-opacity="0.501961" points="54,19 73,20 61,15" />
<polygon fill="#575f70" fill-opacity="0.501961" points="43,80 34,105 44,112" />
<polygon fill="#626b6b" fill-opacity="0.501961" points="164,142 159,130 166,139" />
<polygon fill="#a9b0c0" fill-opacity="0.501961" points="210,66 166,72 199,77" />
<polygon fill="#bcbaca" fill-opacity="0.501961" points="49,109 54,93 55,116" />
<polygon fill="#b5b5b3" fill-opacity="0.501961" points="61,135 76,136 70,133" />
<polygon fill="#2e4150" fill-opacity="0.501961" points="118,2 147,11 171,2" />
<polygon fill="#9da1ad" fill-opacity="0.501961" points="205,104 200,106 204,118" />
<polygon fill="#8ebee6" fill-opacity="0.501961" points="97,59 136,53 100,49" />
<polygon fill="#9d9dad" fill-opacity="0.501961" points="132,75 133,69 149,78" />
<polygon fill="#8a9297" fill-opacity="0.501961" points="190,140 196,128 185,122" />
<polygon fill="#b7c6cb" fill-opacity="0.501961" points="186,32 189,41 193,42" />
<polygon fill="#8a8d9d" fill-opacity="0.501961" points="48,110 54,89 48,80" />
<polygon fill="#787f86" fill-opacity="0.501961" points="149,94 152,116 156,93" />
<polygon fill="#2a3a4c" fill-opacity="0.501961" points="234,54 223,3 271,5" />
<polygon fill="#b8b9c6" fill-opacity="0.501961" points="114,88 132,79 104,79" />
<polygon fill="#69717e" fill-opacity="0.501961" points="62,123 103,122 94,131" />
<polygon fill="#666061" fill-opacity="0.501961" points="91,50 96,50 92,48" />
<polygon fill="#d4d9ce" fill-opacity="0.501961" points="180,40 182,31 183,38" />
<polygon fill="#7eb2df" fill-opacity="0.501961" points="213,46 215,59 181,55" />
<polygon fill="#b8bac5" fill-opacity="0.501961" points="137,112 140,97 141,111" />
<polygon fill="#a1c3e3" fill-opacity="0.501961" points="69,63 67,54 78,63" />
<polygon fill="#7b8595" fill-opacity="0.501961" points="224,81 224,72 212,69" />
<polygon fill="#5d656d" fill-opacity="0.501961" points="139,156 154,143 153,131" />
<polygon fill="#5295d0" fill-opacity="0.501961" points="214,46 200,52 204,35" />
<polygon fill="#5a9b94" fill-opacity="0.501961" points="96,114 82,111 91,117" />
<polygon fill="#90aabd" fill-opacity="0.501961" points="174,70 160,60 178,58" />
<polygon fill="#1a3146" fill-opacity="0.501961" points="214,138 214,131 212,138" />
<polygon fill="#797a89" fill-opacity="0.501961" points="112,115 116,108 110,92" />
<polygon fill="#1d2e3d" fill-opacity="0.501961" points="17,24 30,9 30,46" />
<polygon fill="#caced7" fill-opacity="0.501961" points="193,118 192,109 196,109" />
<polygon fill="#9aa0ab" fill-opacity="0.501961" points="160,86 111,83 115,96" />
<polygon fill="#31404d" fill-opacity="0.501961" points="154,65 164,64 166,67" />
<polygon fill="#3d5368" fill-opacity="0.501961" points="242,69 242,111 249,85" />
<polygon fill="#3d8ccf" fill-opacity="0.501961" points="169,31 190,23 210,31" />
<polygon fill="#56667d" fill-opacity="0.501961" points="18,35 11,23 11,60" />
<polygon fill="#487b62" fill-opacity="0.501961" points="170,81 163,75 153,79" />
<polygon fill="#88bbb8" fill-opacity="0.501961" points="101,92 99,69 107,64" />
<polygon fill="#a9adb5" fill-opacity="0.501961" points="127,101 131,91 131,113" />
<polygon fill="#29384e" fill-opacity="0.501961" points="246,65 271,78 248,94" />
<polygon fill="#5b606d" fill-opacity="0.501961" points="200,99 197,111 202,113" />
<polygon fill="#c4c9d4" fill-opacity="0.501961" points="67,113 69,101 70,111" />
<polygon fill="#667282" fill-opacity="0.501961" points="72,140 147,140 119,153" />
<polygon fill="#608cb0" fill-opacity="0.501961" points="200,46 173,44 202,36" />
<polygon fill="#364254" fill-opacity="0.501961" points="53,158 103,143 56,142" />
<polygon fill="#7eb0df" fill-opacity="0.501961" points="124,49 152,52 146,58" />
<polygon fill="#aaaeb8" fill-opacity="0.501961" points="76,107 76,89 72,102" />
<polygon fill="#babbca" fill-opacity="0.501961" points="44,101 48,108 47,117" />
<polygon fill="#b7bcc6" fill-opacity="0.501961" points="162,89 178,95 186,91" />
<polygon fill="#b2c4d8" fill-opacity="0.501961" points="130,62 96,64 105,56" />
<polygon fill="#7aa787" fill-opacity="0.501961" points="168,66 179,71 154,71" />
<polygon fill="#354458" fill-opacity="0.501961" points="15,25 18,102 31,53" />
<polygon fill="#787f8e" fill-opacity="0.501961" points="208,92 201,88 192,92" />
<polygon fill="#58636f" fill-opacity="0.501961" points="64,123 58,133 81,129" />
<polygon fill="#94a4b6" fill-opacity="0.501961" points="7,96 9,88 11,104" />
<polygon fill="#babccb" fill-opacity="0.501961" points="54,96 54,85 49,100" />
<polygon fill="#3385cc" fill-opacity="0.501961" points="180,36 176,26 177,39" />
<polygon fill="#9e9569" fill-opacity="0.501961" points="81,49 89,43 80,42" />
<polygon fill="#418fd1" fill-opacity="0.501961" points="76,31 83,37 71,48" />
<polygon fill="#384b5e" fill-opacity="0.501961" points="248,39 242,16 241,63" />
<polygon fill="#768492" fill-opacity="0.501961" points="35,57 31,70 31,49" />
<polygon fill="#9fcdca" fill-opacity="0.501961" points="77,107 73,117 81,116" />
<polygon fill="#bbb779" fill-opacity="0.501961" points="83,38 89,34 81,49" />
<polygon fill="#586267" fill-opacity="0.501961" points="145,132 145,141 141,146" />
<polygon fill="#6b686f" fill-opacity="0.501961" points="181,142 172,139 189,131" />
<polygon fill="#465362" fill-opacity="0.501961" points="3,73 6,89 7,80" />
<polygon fill="#c0c7cf" fill-opacity="0.501961" points="185,84 194,84 195,94" />
<polygon fill="#777c85" fill-opacity="0.501961" points="129,91 123,124 131,111" />
<polygon fill="#9595a1" fill-opacity="0.501961" points="100,71 114,80 130,79" />
<polygon fill="#83858a" fill-opacity="0.501961" points="138,109 134,96 138,93" />
<polygon fill="#32313f" fill-opacity="0.501961" points="42,32 39,31 41,23" />
<polygon fill="#a1d8d9" fill-opacity="0.501961" points="81,71 82,64 76,61" />
<polygon fill="#8a8c98" fill-opacity="0.501961" points="57,75 43,75 46,54" />
<polygon fill="#585e66" fill-opacity="0.501961" points="192,123 197,116 179,117" />
<polygon fill="#646d75" fill-opacity="0.501961" points="71,116 73,109 75,120" />
<polygon fill="#c3c7ca" fill-opacity="0.501961" points="205,90 207,84 198,88" />
<polygon fill="#b4bac6" fill-opacity="0.501961" points="55,74 67,82 43,77" />
<polygon fill="#485f72" fill-opacity="0.501961" points="271,57 271,67 234,62" />
<polygon fill="#8196a8" fill-opacity="0.501961" points="252,97 253,94 254,101" />
<polygon fill="#b7beca" fill-opacity="0.501961" points="142,87 140,91 153,89" />
<polygon fill="#949fa9" fill-opacity="0.501961" points="150,131 135,122 118,122" />
</g>
</svg>