<svg xmlns="http://www.w3.org/2000/svg" version="1.1" width="1024" height="791">
<rect x="0" y="0" width="1024" height="791" fill="#7ca7b9" />
<g transform="scale(4.000000) translate(0.5 0.5)">
<polygon fill="#00328b" fill-opacity="0.501961" points="201,115 199,11 -16,12" />
<polygon fill="#99ffff" fill-opacity="0.501961" points="170,177 29,145 144,64" />
<polygon fill="#ffdfcb" fill-opacity="0.501961" points="265,-16 196,-14 258,213" />
<polygon fill="#0081d3" fill-opacity="0.501961" points="25,139 4,11 126,77" />
<polygon fill="#976041" fill-opacity="0.501961" points="161,171 244,52 241,185" />
<polygon fill="#ffffff" fill-opacity="0.501961" points="1,188 99,213 197,184" />
<polygon fill="#ffffff" fill-opacity="0.501961" points="165,7 -16,11 73,-16" />
<polygon fill="#562f00" fill-opacity="0.501961" points="104,17 125,83 159,27" />
<polygon fill="#ffffff" fill-opacity="0.501961" points="6,-16 -16,55 5,135" />
<polygon fill="#ffffff" fill-opacity="0.501961" points="271,178 239,213 123,195" />
<polygon fill="#fffffe" fill-opacity="0.501961" points="271,0 196,19 125,-5" />
<polygon fill="#ffffff" fill-opacity="0.501961" points="168,71 216,66 195,52" />
<polygon fill="#ffffd0" fill-opacity="0.501961" points="-16,122 29,151 -16,202" />
<polygon fill="#5f7e26" fill-opacity="0.501961" points="8,185 105,185 6,156" />
<polygon fill="#0390dc" fill-opacity="0.501961" points="207,90 115,111 161,136" />
<polygon fill="#164a39" fill-opacity="0.501961" points="122,184 82,162 172,180" />
<polygon fill="#6ae4ec" fill-opacity="0.501961" points="20,141 6,83 143,142" />
<polygon fill="#ffffff" fill-opacity="0.501961" points="-16,182 17,213 118,195" />
<polygon fill="#9affff" fill-opacity="0.501961" points="175,123 63,157 176,168" />
<polygon fill="#edffff" fill-opacity="0.501961" points="106,89 123,123 63,131" />
<polygon fill="#256eb8" fill-opacity="0.501961" points="169,88 6,11 6,70" />
<polygon fill="#ffffff" fill-opacity="0.501961" points="271,143 250,50 243,213" />
<polygon fill="#093aa1" fill-opacity="0.501961" points="184,63 211,25 127,11" />
<polygon fill="#91c2d5" fill-opacity="0.501961" points="110,40 44,58 115,62" />
<polygon fill="#97a4a2" fill-opacity="0.501961" points="178,127 246,13 244,113" />
<polygon fill="#003699" fill-opacity="0.501961" points="202,100 206,69 122,80" />
<polygon fill="#aaed8e" fill-opacity="0.501961" points="17,151 147,186 77,186" />
<polygon fill="#ffffff" fill-opacity="0.501961" points="16,-16 -16,13 113,0" />
<polygon fill="#1f7dcb" fill-opacity="0.501961" points="8,13 14,93 127,12" />
<polygon fill="#815125" fill-opacity="0.501961" points="230,149 198,113 173,146" />
<polygon fill="#931300" fill-opacity="0.501961" points="217,156 176,166 223,170" />
<polygon fill="#ffffff" fill-opacity="0.501961" points="244,-16 271,11 252,101" />
<polygon fill="#fff7f0" fill-opacity="0.501961" points="236,7 142,-16 63,11" />
<polygon fill="#ffe8db" fill-opacity="0.501961" points="271,200 158,173 163,213" />
<polygon fill="#ffffff" fill-opacity="0.501961" points="12,144 0,192 -2,120" />
<polygon fill="#97ffff" fill-opacity="0.501961" points="125,84 77,113 174,103" />
<polygon fill="#ffceae" fill-opacity="0.501961" points="219,162 165,154 213,148" />
<polygon fill="#a6d4e8" fill-opacity="0.501961" points="82,14 63,55 79,53" />
<polygon fill="#f7a259" fill-opacity="0.501961" points="45,188 25,185 30,148" />
<polygon fill="#654a0d" fill-opacity="0.501961" points="107,64 147,60 141,18" />
<polygon fill="#beffff" fill-opacity="0.501961" points="182,118 194,119 208,94" />
<polygon fill="#ffffff" fill-opacity="0.501961" points="4,0 -16,82 7,131" />
<polygon fill="#000052" fill-opacity="0.501961" points="183,11 161,11 178,23" />
<polygon fill="#cafffa" fill-opacity="0.501961" points="95,159 155,175 142,125" />
<polygon fill="#9ca1a3" fill-opacity="0.501961" points="157,193 159,163 248,181" />
<polygon fill="#71ffff" fill-opacity="0.501961" points="146,58 124,75 153,70" />
<polygon fill="#bcffff" fill-opacity="0.501961" points="210,67 193,51 173,73" />
<polygon fill="#43c6e4" fill-opacity="0.501961" points="170,124 136,152 179,160" />
<polygon fill="#0c94cb" fill-opacity="0.501961" points="49,125 96,76 85,113" />
<polygon fill="#0236a0" fill-opacity="0.501961" points="191,61 147,65 148,17" />
<polygon fill="#114859" fill-opacity="0.501961" points="8,137 12,125 29,146" />
<polygon fill="#164d5f" fill-opacity="0.501961" points="101,176 129,169 63,160" />
<polygon fill="#63686c" fill-opacity="0.501961" points="224,163 239,69 245,122" />
<polygon fill="#186e5c" fill-opacity="0.501961" points="94,183 41,169 48,184" />
<polygon fill="#ffffff" fill-opacity="0.501961" points="167,213 254,190 78,188" />
<polygon fill="#31b1d2" fill-opacity="0.501961" points="112,144 127,129 62,130" />
<polygon fill="#ffffff" fill-opacity="0.501961" points="-16,189 128,193 45,213" />
<polygon fill="#d4fea0" fill-opacity="0.501961" points="8,140 61,163 4,160" />
<polygon fill="#756c6c" fill-opacity="0.501961" points="237,63 236,10 246,27" />
<polygon fill="#3d6794" fill-opacity="0.501961" points="97,68 41,39 17,65" />
<polygon fill="#b5640c" fill-opacity="0.501961" points="172,123 190,127 198,118" />
<polygon fill="#c0b8b5" fill-opacity="0.501961" points="202,3 238,15 223,127" />
<polygon fill="#0c4163" fill-opacity="0.501961" points="213,49 218,69 210,72" />
<polygon fill="#024bb9" fill-opacity="0.501961" points="70,46 88,10 120,16" />
<polygon fill="#d5f2fa" fill-opacity="0.501961" points="90,10 82,7 75,31" />
<polygon fill="#233d47" fill-opacity="0.501961" points="21,185 10,183 31,156" />
<polygon fill="#2cfdff" fill-opacity="0.501961" points="203,88 209,108 214,97" />
<polygon fill="#1778be" fill-opacity="0.501961" points="173,123 125,127 171,101" />
<polygon fill="#ffffff" fill-opacity="0.501961" points="-16,141 6,213 5,75" />
<polygon fill="#225060" fill-opacity="0.501961" points="131,180 156,186 161,170" />
<polygon fill="#2b5966" fill-opacity="0.501961" points="61,153 85,167 49,158" />
<polygon fill="#1690c4" fill-opacity="0.501961" points="111,115 117,106 148,113" />
<polygon fill="#0e60b6" fill-opacity="0.501961" points="98,92 60,65 136,67" />
<polygon fill="#a5ffff" fill-opacity="0.501961" points="118,79 107,100 168,102" />
<polygon fill="#ffffff" fill-opacity="0.501961" points="54,6 127,-16 203,3" />
<polygon fill="#675119" fill-opacity="0.501961" points="151,48 130,17 103,37" />
<polygon fill="#ffffff" fill-opacity="0.501961" points="271,150 247,213 251,90" />
<polygon fill="#1a3962" fill-opacity="0.501961" points="195,41 208,34 200,13" />
<polygon fill="#79dbe4" fill-opacity="0.501961" points="5,119 8,72 40,155" />
<polygon fill="#2ba0ce" fill-opacity="0.501961" points="5,63 22,107 93,99" />
<polygon fill="#004d77" fill-opacity="0.501961" points="212,88 213,109 218,95" />
<polygon fill="#cdc5c0" fill-opacity="0.501961" points="196,43 227,58 239,8" />
<polygon fill="#acd2ab" fill-opacity="0.501961" points="153,189 94,189 61,163" />
<polygon fill="#480000" fill-opacity="0.501961" points="176,164 189,160 187,169" />
<polygon fill="#0a90c4" fill-opacity="0.501961" points="164,142 177,135 194,139" />
<polygon fill="#a3f6f3" fill-opacity="0.501961" points="187,159 81,143 138,171" />
<polygon fill="#2d2205" fill-opacity="0.501961" points="126,59 151,35 144,60" />
<polygon fill="#bdfbff" fill-opacity="0.501961" points="37,62 44,44 38,50" />
<polygon fill="#427fc1" fill-opacity="0.501961" points="192,40 205,23 149,22" />
<polygon fill="#b3ffff" fill-opacity="0.501961" points="211,54 214,69 171,69" />
<polygon fill="#bfb5ab" fill-opacity="0.501961" points="189,20 176,7 236,8" />
<polygon fill="#847657" fill-opacity="0.501961" points="121,67 131,31 112,62" />
<polygon fill="#50ffff" fill-opacity="0.501961" points="162,100 148,111 116,102" />
<polygon fill="#cdffff" fill-opacity="0.501961" points="179,105 197,114 185,117" />
<polygon fill="#bfecff" fill-opacity="0.501961" points="93,61 81,62 100,47" />
<polygon fill="#0a448d" fill-opacity="0.501961" points="89,34 90,59 97,28" />
<polygon fill="#929290" fill-opacity="0.501961" points="239,160 182,185 236,187" />
<polygon fill="#b74900" fill-opacity="0.501961" points="196,130 179,130 180,137" />
<polygon fill="#1a56a5" fill-opacity="0.501961" points="124,75 215,70 168,100" />
<polygon fill="#b2fcef" fill-opacity="0.501961" points="52,148 95,135 104,164" />
<polygon fill="#ffffff" fill-opacity="0.501961" points="271,-6 245,-16 255,77" />
<polygon fill="#e5ffff" fill-opacity="0.501961" points="55,128 135,123 94,111" />
<polygon fill="#000f5a" fill-opacity="0.501961" points="171,38 200,51 197,40" />
<polygon fill="#ffffff" fill-opacity="0.501961" points="94,0 -16,8 11,-16" />
<polygon fill="#ffffff" fill-opacity="0.501961" points="7,89 -16,78 5,-3" />
<polygon fill="#8de2ff" fill-opacity="0.501961" points="50,50 45,28 44,41" />
<polygon fill="#0768c5" fill-opacity="0.501961" points="22,11 62,41 79,13" />
<polygon fill="#c4c0b7" fill-opacity="0.501961" points="219,120 227,102 199,118" />
<polygon fill="#afbabd" fill-opacity="0.501961" points="181,187 150,174 218,172" />
<polygon fill="#012d97" fill-opacity="0.501961" points="138,17 156,11 154,46" />
<polygon fill="#8effff" fill-opacity="0.501961" points="190,106 209,96 210,104" />
<polygon fill="#be7332" fill-opacity="0.501961" points="182,122 224,118 216,128" />
<polygon fill="#7fffff" fill-opacity="0.501961" points="175,127 192,127 175,132" />
<polygon fill="#75bae2" fill-opacity="0.501961" points="130,20 116,15 137,7" />
<polygon fill="#5f766a" fill-opacity="0.501961" points="51,158 42,154 51,142" />
<polygon fill="#a6eaff" fill-opacity="0.501961" points="81,45 73,50 70,64" />
<polygon fill="#163578" fill-opacity="0.501961" points="175,84 215,92 198,77" />
<polygon fill="#e5fffb" fill-opacity="0.501961" points="143,175 159,166 120,162" />
<polygon fill="#9d8c53" fill-opacity="0.501961" points="140,48 138,29 125,35" />
<polygon fill="#777978" fill-opacity="0.501961" points="244,174 217,135 243,126" />
<polygon fill="#5eccd6" fill-opacity="0.501961" points="89,135 35,138 6,107" />
<polygon fill="#ffffff" fill-opacity="0.501961" points="148,135 131,128 124,135" />
<polygon fill="#fffcfe" fill-opacity="0.501961" points="139,98 135,85 155,97" />
<polygon fill="#294f60" fill-opacity="0.501961" points="203,53 214,51 216,60" />
<polygon fill="#d0beb4" fill-opacity="0.501961" points="234,77 212,89 204,74" />
<polygon fill="#0b4350" fill-opacity="0.501961" points="111,165 95,171 132,180" />
<polygon fill="#42ffff" fill-opacity="0.501961" points="133,98 119,84 117,98" />
<polygon fill="#ffffff" fill-opacity="0.501961" points="134,1 271,8 213,-16" />
<polygon fill="#a27545" fill-opacity="0.501961" points="33,153 37,165 18,187" />
<polygon fill="#392f12" fill-opacity="0.501961" points="136,21 120,26 113,58" />
<polygon fill="#7ee2ff" fill-opacity="0.501961" points="100,54 109,41 112,54" />
<polygon fill="#9da292" fill-opacity="0.501961" points="109,43 128,53 124,58" />
<polygon fill="#f4b7a0" fill-opacity="0.501961" points="187,161 184,148 223,152" />
<polygon fill="#66eaff" fill-opacity="0.501961" points="131,72 146,58 141,79" />
<polygon fill="#d6bf8f" fill-opacity="0.501961" points="112,26 108,36 102,38" />
<polygon fill="#36728f" fill-opacity="0.501961" points="183,175 159,169 166,164" />
<polygon fill="#1863bc" fill-opacity="0.501961" points="110,74 136,77 135,86" />
<polygon fill="#5dba91" fill-opacity="0.501961" points="6,182 6,156 24,166" />
<polygon fill="#54b8da" fill-opacity="0.501961" points="13,72 16,46 27,98" />
<polygon fill="#881d01" fill-opacity="0.501961" points="216,157 205,167 221,167" />
<polygon fill="#0b54b8" fill-opacity="0.501961" points="98,48 105,10 87,12" />
<polygon fill="#b6ffff" fill-opacity="0.501961" points="87,101 95,128 123,98" />
<polygon fill="#1d57a8" fill-opacity="0.501961" points="199,68 189,109 145,89" />
<polygon fill="#c6ffff" fill-opacity="0.501961" points="200,55 183,72 170,72" />
<polygon fill="#194672" fill-opacity="0.501961" points="32,67 55,60 23,59" />
<polygon fill="#000a42" fill-opacity="0.501961" points="85,53 81,59 82,62" />
<polygon fill="#166db7" fill-opacity="0.501961" points="161,128 159,107 175,124" />
<polygon fill="#221600" fill-opacity="0.501961" points="142,53 145,46 117,45" />
<polygon fill="#bdbbbb" fill-opacity="0.501961" points="60,184 34,192 7,184" />
<polygon fill="#3d341c" fill-opacity="0.501961" points="109,31 122,23 103,44" />
<polygon fill="#669ca3" fill-opacity="0.501961" points="110,163 90,166 108,170" />
<polygon fill="#49b8d5" fill-opacity="0.501961" points="50,94 88,112 50,128" />
<polygon fill="#3f7281" fill-opacity="0.501961" points="6,136 9,125 33,149" />
<polygon fill="#c1ffff" fill-opacity="0.501961" points="168,131 150,129 155,124" />
<polygon fill="#1783c8" fill-opacity="0.501961" points="42,11 7,70 7,12" />
<polygon fill="#0b3273" fill-opacity="0.501961" points="194,69 206,72 201,91" />
<polygon fill="#1e53aa" fill-opacity="0.501961" points="149,39 192,47 159,80" />
<polygon fill="#443100" fill-opacity="0.501961" points="147,33 149,49 137,27" />
<polygon fill="#4bac8a" fill-opacity="0.501961" points="69,174 78,184 105,183" />
<polygon fill="#b6adaa" fill-opacity="0.501961" points="239,186 244,148 249,175" />
<polygon fill="#a4853e" fill-opacity="0.501961" points="124,67 114,62 142,61" />
<polygon fill="#b0cead" fill-opacity="0.501961" points="152,185 119,189 93,174" />
<polygon fill="#5f3220" fill-opacity="0.501961" points="180,142 200,147 176,149" />
<polygon fill="#c3c1c0" fill-opacity="0.501961" points="236,5 201,14 232,83" />
<polygon fill="#097cc5" fill-opacity="0.501961" points="65,68 56,87 91,81" />
<polygon fill="#3fc7e8" fill-opacity="0.501961" points="157,136 138,140 155,128" />
<polygon fill="#43d6ff" fill-opacity="0.501961" points="187,111 160,113 174,106" />
<polygon fill="#10597b" fill-opacity="0.501961" points="217,109 215,102 201,108" />
<polygon fill="#ffffff" fill-opacity="0.501961" points="229,213 158,196 271,190" />
<polygon fill="#def9ff" fill-opacity="0.501961" points="78,26 70,42 70,34" />
<polygon fill="#7ce4e8" fill-opacity="0.501961" points="105,151 178,170 171,150" />
<polygon fill="#cdf9fd" fill-opacity="0.501961" points="133,151 168,137 117,142" />
<polygon fill="#002f3f" fill-opacity="0.501961" points="133,179 137,175 125,172" />
<polygon fill="#ffffff" fill-opacity="0.501961" points="109,90 116,97 105,95" />
<polygon fill="#000000" fill-opacity="0.501961" points="113,56 109,56 109,63" />
<polygon fill="#52b7d9" fill-opacity="0.501961" points="141,114 141,125 109,112" />
<polygon fill="#4cc7dd" fill-opacity="0.501961" points="167,139 181,150 130,151" />
<polygon fill="#9ea7b1" fill-opacity="0.501961" points="89,31 89,37 96,34" />
<polygon fill="#6c6f73" fill-opacity="0.501961" points="235,78 244,70 240,41" />
<polygon fill="#eeece7" fill-opacity="0.501961" points="88,-6 80,21 90,7" />
<polygon fill="#0e5464" fill-opacity="0.501961" points="23,183 6,184 8,174" />
<polygon fill="#6ec9e7" fill-opacity="0.501961" points="50,96 61,82 59,69" />
<polygon fill="#c8763d" fill-opacity="0.501961" points="201,136 188,130 220,131" />
<polygon fill="#fdffca" fill-opacity="0.501961" points="4,136 38,155 16,151" />
<polygon fill="#8ee2d7" fill-opacity="0.501961" points="48,141 16,137 23,127" />
<polygon fill="#034889" fill-opacity="0.501961" points="43,36 43,54 39,42" />
<polygon fill="#eaf7fc" fill-opacity="0.501961" points="73,87 67,88 65,85" />
<polygon fill="#2e7cc0" fill-opacity="0.501961" points="154,96 165,88 139,78" />
<polygon fill="#205e9c" fill-opacity="0.501961" points="48,41 75,46 42,22" />
<polygon fill="#3eddd4" fill-opacity="0.501961" points="194,126 184,128 196,130" />
<polygon fill="#8ce8ff" fill-opacity="0.501961" points="43,44 56,45 43,38" />
<polygon fill="#2c2d31" fill-opacity="0.501961" points="115,54 120,42 121,63" />
<polygon fill="#a6dca2" fill-opacity="0.501961" points="6,155 42,149 14,168" />
<polygon fill="#00236e" fill-opacity="0.501961" points="186,19 163,14 179,10" />
<polygon fill="#8ed8ff" fill-opacity="0.501961" points="38,33 40,37 33,46" />
<polygon fill="#4771b9" fill-opacity="0.501961" points="149,21 188,34 161,11" />
<polygon fill="#124b85" fill-opacity="0.501961" points="79,37 85,38 79,55" />
<polygon fill="#590f00" fill-opacity="0.501961" points="178,167 185,162 197,169" />
<polygon fill="#b1ada9" fill-opacity="0.501961" points="236,96 213,115 236,35" />
<polygon fill="#6d6a68" fill-opacity="0.501961" points="222,144 216,184 241,134" />
<polygon fill="#5f4b12" fill-opacity="0.501961" points="151,46 127,67 141,61" />
<polygon fill="#7cc87a" fill-opacity="0.501961" points="53,175 34,163 65,168" />
<polygon fill="#032d8f" fill-opacity="0.501961" points="176,41 134,21 144,12" />
<polygon fill="#324773" fill-opacity="0.501961" points="107,64 100,59 83,66" />
<polygon fill="#185fb7" fill-opacity="0.501961" points="109,63 116,82 129,76" />
<polygon fill="#ffffff" fill-opacity="0.501961" points="101,115 114,128 124,119" />
<polygon fill="#65b7e6" fill-opacity="0.501961" points="77,40 90,46 59,58" />
<polygon fill="#43b6d7" fill-opacity="0.501961" points="17,112 6,87 7,119" />
<polygon fill="#002e6c" fill-opacity="0.501961" points="94,48 91,44 87,59" />
<polygon fill="#8c551d" fill-opacity="0.501961" points="182,130 186,137 174,134" />
<polygon fill="#1a6dc0" fill-opacity="0.501961" points="83,10 26,14 65,45" />
<polygon fill="#fffffd" fill-opacity="0.501961" points="124,195 48,213 -16,190" />
<polygon fill="#dbffae" fill-opacity="0.501961" points="68,165 33,153 46,166" />
<polygon fill="#00164e" fill-opacity="0.501961" points="196,18 202,21 206,29" />
<polygon fill="#ffffff" fill-opacity="0.501961" points="126,89 132,90 123,80" />
<polygon fill="#bbb3b0" fill-opacity="0.501961" points="90,5 77,10 102,11" />
<polygon fill="#52a2c9" fill-opacity="0.501961" points="142,171 157,174 142,175" />
<polygon fill="#346687" fill-opacity="0.501961" points="64,162 95,172 91,161" />
<polygon fill="#107fc2" fill-opacity="0.501961" points="60,93 95,99 97,84" />
<polygon fill="#3a504e" fill-opacity="0.501961" points="214,125 203,131 188,125" />
<polygon fill="#013873" fill-opacity="0.501961" points="37,44 27,48 43,48" />
<polygon fill="#c8c5c6" fill-opacity="0.501961" points="250,42 243,34 245,14" />
<polygon fill="#ffffff" fill-opacity="0.501961" points="253,177 252,47 271,108" />
<polygon fill="#55f6ff" fill-opacity="0.501961" points="152,71 133,76 146,68" />
<polygon fill="#c8bbb9" fill-opacity="0.501961" points="183,11 143,11 160,4" />
<polygon fill="#0c2545" fill-opacity="0.501961" points="203,75 211,68 217,69" />
<polygon fill="#259ccd" fill-opacity="0.501961" points="75,119 89,106 60,85" />
<polygon fill="#c6b6a9" fill-opacity="0.501961" points="164,189 157,175 203,180" />
<polygon fill="#15469e" fill-opacity="0.501961" points="145,59 157,31 172,67" />
<polygon fill="#154a55" fill-opacity="0.501961" points="122,179 124,167 100,170" />
<polygon fill="#34b0d5" fill-opacity="0.501961" points="107,125 116,141 126,132" />
<polygon fill="#83bae8" fill-opacity="0.501961" points="112,45 111,54 94,65" />
<polygon fill="#f9ffff" fill-opacity="0.501961" points="200,60 191,67 181,62" />
<polygon fill="#3d81c2" fill-opacity="0.501961" points="112,89 95,83 106,53" />
<polygon fill="#cbebf3" fill-opacity="0.501961" points="108,62 108,51 105,60" />
<polygon fill="#50e7ff" fill-opacity="0.501961" points="174,99 138,100 149,109" />
<polygon fill="#dea75e" fill-opacity="0.501961" points="24,182 29,166 46,184" />
<polygon fill="#153e8d" fill-opacity="0.501961" points="187,63 190,45 170,39" />
<polygon fill="#8cffff" fill-opacity="0.501961" points="95,48 95,42 92,49" />
<polygon fill="#bff4e2" fill-opacity="0.501961" points="102,156 68,162 70,152" />
<polygon fill="#99ab98" fill-opacity="0.501961" points="62,153 38,153 25,143" />
<polygon fill="#02257a" fill-opacity="0.501961" points="197,40 198,34 188,24" />
<polygon fill="#e9fdff" fill-opacity="0.501961" points="188,119 186,110 198,108" />
<polygon fill="#0f263d" fill-opacity="0.501961" points="110,60 106,63 119,66" />
<polygon fill="#c3eafe" fill-opacity="0.501961" points="14,90 15,101 6,81" />
<polygon fill="#cdbbb0" fill-opacity="0.501961" points="224,53 200,50 200,41" />
<polygon fill="#ffffff" fill-opacity="0.501961" points="125,84 115,84 122,81" />
<polygon fill="#174fa0" fill-opacity="0.501961" points="204,98 175,71 162,99" />
<polygon fill="#107bc2" fill-opacity="0.501961" points="49,87 21,66 58,67" />
<polygon fill="#18449b" fill-opacity="0.501961" points="146,66 169,53 166,70" />
<polygon fill="#c0bab9" fill-opacity="0.501961" points="21,4 46,10 8,11" />
<polygon fill="#2382da" fill-opacity="0.501961" points="111,39 116,44 109,45" />
<polygon fill="#ffffff" fill-opacity="0.501961" points="-16,125 4,190 2,56" />
<polygon fill="#94c5ea" fill-opacity="0.501961" points="80,73 80,70 90,74" />
<polygon fill="#c06136" fill-opacity="0.501961" points="188,141 205,147 220,142" />
<polygon fill="#236dbb" fill-opacity="0.501961" points="168,108 174,96 201,99" />
<polygon fill="#c5dff5" fill-opacity="0.501961" points="81,85 88,86 84,82" />
<polygon fill="#a39079" fill-opacity="0.501961" points="222,161 220,154 195,160" />
<polygon fill="#3b617b" fill-opacity="0.501961" points="160,166 182,169 176,173" />
<polygon fill="#085dc2" fill-opacity="0.501961" points="78,29 88,11 110,24" />
<polygon fill="#b6c2c6" fill-opacity="0.501961" points="178,188 199,170 182,171" />
<polygon fill="#f3997c" fill-opacity="0.501961" points="191,158 187,149 175,154" />
<polygon fill="#2d6bb3" fill-opacity="0.501961" points="153,77 130,79 131,88" />
<polygon fill="#134145" fill-opacity="0.501961" points="50,180 50,185 68,183" />
<polygon fill="#70381b" fill-opacity="0.501961" points="216,142 198,148 216,148" />
<polygon fill="#322407" fill-opacity="0.501961" points="120,39 125,29 109,43" />
<polygon fill="#719fb4" fill-opacity="0.501961" points="227,175 216,169 197,174" />
<polygon fill="#c4c3c3" fill-opacity="0.501961" points="202,118 216,110 201,110" />
<polygon fill="#084f94" fill-opacity="0.501961" points="68,50 64,64 70,61" />
<polygon fill="#9c8d6b" fill-opacity="0.501961" points="109,28 124,36 113,34" />
<polygon fill="#147ac2" fill-opacity="0.501961" points="6,48 17,68 12,80" />
<polygon fill="#6fd5e4" fill-opacity="0.501961" points="98,133 112,143 69,143" />
<polygon fill="#abe9a0" fill-opacity="0.501961" points="96,173 44,160 66,175" />
<polygon fill="#5d93a0" fill-opacity="0.501961" points="24,146 39,153 21,136" />
<polygon fill="#1a4a55" fill-opacity="0.501961" points="128,179 156,175 160,184" />
<polygon fill="#82f3f6" fill-opacity="0.501961" points="195,102 212,103 194,109" />
<polygon fill="#e3ffff" fill-opacity="0.501961" points="148,61 144,62 141,67" />
<polygon fill="#94ffff" fill-opacity="0.501961" points="145,94 116,98 127,110" />
<polygon fill="#92958c" fill-opacity="0.501961" points="225,143 207,139 228,136" />
<polygon fill="#103260" fill-opacity="0.501961" points="208,32 192,44 205,25" />
<polygon fill="#c1bdb7" fill-opacity="0.501961" points="187,20 219,10 182,9" />
<polygon fill="#a8fcfc" fill-opacity="0.501961" points="89,101 92,130 104,127" />
<polygon fill="#17130d" fill-opacity="0.501961" points="128,45 128,61 134,40" />
<polygon fill="#ffffff" fill-opacity="0.501961" points="77,130 71,117 78,120" />
<polygon fill="#1882c2" fill-opacity="0.501961" points="57,88 93,80 60,74" />
<polygon fill="#a6ffff" fill-opacity="0.501961" points="210,58 206,71 191,55" />
<polygon fill="#fffdfa" fill-opacity="0.501961" points="-7,13 101,-11 3,-16" />
<polygon fill="#363021" fill-opacity="0.501961" points="124,60 120,63 112,47" />
<polygon fill="#517653" fill-opacity="0.501961" points="37,170 34,159 52,180" />
<polygon fill="#0058ab" fill-opacity="0.501961" points="41,53 52,55 65,44" />
<polygon fill="#5db185" fill-opacity="0.501961" points="77,181 96,177 62,173" />
<polygon fill="#135897" fill-opacity="0.501961" points="24,56 23,46 36,36" />
<polygon fill="#979791" fill-opacity="0.501961" points="216,119 227,123 238,80" />
<polygon fill="#c3fcff" fill-opacity="0.501961" points="175,131 165,128 178,127" />
<polygon fill="#459eda" fill-opacity="0.501961" points="205,33 196,23 195,31" />
<polygon fill="#3a6988" fill-opacity="0.501961" points="101,166 86,159 87,164" />
<polygon fill="#0f3561" fill-opacity="0.501961" points="47,44 50,36 48,30" />
<polygon fill="#2c63b2" fill-opacity="0.501961" points="179,62 180,41 153,41" />
<polygon fill="#f1ffff" fill-opacity="0.501961" points="49,59 46,58 50,56" />
<polygon fill="#c4b9b0" fill-opacity="0.501961" points="220,86 205,86 206,75" />
<polygon fill="#1b7ac0" fill-opacity="0.501961" points="99,79 70,72 104,95" />
<polygon fill="#cee8f3" fill-opacity="0.501961" points="64,105 65,100 59,105" />
<polygon fill="#fdfffe" fill-opacity="0.501961" points="121,144 141,143 138,149" />
<polygon fill="#33aed8" fill-opacity="0.501961" points="163,137 172,131 143,130" />
<polygon fill="#afb8b4" fill-opacity="0.501961" points="207,128 225,132 220,127" />
<polygon fill="#70bde8" fill-opacity="0.501961" points="85,38 82,51 88,55" />
<polygon fill="#3bb2d5" fill-opacity="0.501961" points="134,123 123,134 101,134" />
<polygon fill="#bab9ba" fill-opacity="0.501961" points="249,126 241,130 243,97" />
<polygon fill="#ceffff" fill-opacity="0.501961" points="178,63 191,65 167,71" />
<polygon fill="#827873" fill-opacity="0.501961" points="218,185 226,175 200,181" />
<polygon fill="#1b4e6d" fill-opacity="0.501961" points="10,137 10,129 15,124" />
<polygon fill="#b1efff" fill-opacity="0.501961" points="34,60 39,47 41,52" />
<polygon fill="#c7ffff" fill-opacity="0.501961" points="167,164 167,159 179,160" />
<polygon fill="#85e4e7" fill-opacity="0.501961" points="116,156 82,149 129,146" />
<polygon fill="#93511e" fill-opacity="0.501961" points="216,131 224,135 204,137" />
<polygon fill="#d5ffff" fill-opacity="0.501961" points="82,53 79,59 78,57" />
<polygon fill="#2589ac" fill-opacity="0.501961" points="199,117 196,113 194,119" />
<polygon fill="#676767" fill-opacity="0.501961" points="242,33 238,21 237,46" />
<polygon fill="#c65a28" fill-opacity="0.501961" points="204,161 188,164 211,167" />
<polygon fill="#d2c5bc" fill-opacity="0.501961" points="43,185 44,193 72,186" />
<polygon fill="#1464b4" fill-opacity="0.501961" points="180,114 156,119 161,110" />
<polygon fill="#608197" fill-opacity="0.501961" points="68,29 62,38 70,37" />
<polygon fill="#bdb9b6" fill-opacity="0.501961" points="218,65 238,34 217,103" />
<polygon fill="#2e6499" fill-opacity="0.501961" points="59,65 19,68 36,59" />
<polygon fill="#103564" fill-opacity="0.501961" points="35,33 33,41 38,32" />
<polygon fill="#032886" fill-opacity="0.501961" points="149,39 156,26 167,40" />
<polygon fill="#30bae9" fill-opacity="0.501961" points="185,109 192,112 178,112" />
<polygon fill="#6aa1a4" fill-opacity="0.501961" points="130,170 121,179 124,171" />
<polygon fill="#1e4a97" fill-opacity="0.501961" points="196,88 202,68 165,82" />
<polygon fill="#e2ffff" fill-opacity="0.501961" points="139,129 149,134 121,137" />
<polygon fill="#0c5ba4" fill-opacity="0.501961" points="82,58 86,70 68,76" />
<polygon fill="#ffffff" fill-opacity="0.501961" points="143,86 138,86 139,91" />
<polygon fill="#103554" fill-opacity="0.501961" points="101,47 105,40 105,46" />
<polygon fill="#0e54b5" fill-opacity="0.501961" points="110,25 106,12 84,49" />
<polygon fill="#000012" fill-opacity="0.501961" points="104,57 105,56 104,59" />
<polygon fill="#37d6e9" fill-opacity="0.501961" points="206,90 200,97 216,97" />
<polygon fill="#645326" fill-opacity="0.501961" points="142,26 105,27 127,18" />
<polygon fill="#585b5c" fill-opacity="0.501961" points="211,93 220,93 202,84" />
<polygon fill="#295eaa" fill-opacity="0.501961" points="183,14 182,35 176,21" />
<polygon fill="#e2ffff" fill-opacity="0.501961" points="97,59 96,54 89,61" />
<polygon fill="#7d7a77" fill-opacity="0.501961" points="220,143 241,79 241,157" />
<polygon fill="#31a0cd" fill-opacity="0.501961" points="113,108 113,116 141,109" />
<polygon fill="#eae7e8" fill-opacity="0.501961" points="247,57 247,105 254,81" />
<polygon fill="#83bcdf" fill-opacity="0.501961" points="66,59 57,56 65,62" />
<polygon fill="#2494c9" fill-opacity="0.501961" points="98,97 69,105 53,87" />
<polygon fill="#607363" fill-opacity="0.501961" points="41,147 50,149 43,150" />
<polygon fill="#464b47" fill-opacity="0.501961" points="210,135 198,141 184,135" />
<polygon fill="#d18a4d" fill-opacity="0.501961" points="212,120 194,125 180,120" />
<polygon fill="#84cdff" fill-opacity="0.501961" points="54,37 48,34 56,34" />
<polygon fill="#4dc0e1" fill-opacity="0.501961" points="169,127 164,151 179,139" />
</g>
</svg>