<svg xmlns="http://www.w3.org/2000/svg" version="1.1" width="1024" height="791">
<rect x="0" y="0" width="1024" height="791" fill="#555b5e" />
<g transform="scale(4.000000) translate(0.5 0.5)">
<polygon fill="#ffffff" fill-opacity="0.501961" points="271,107 233,213 247,-11" />
<polygon fill="#000500" fill-opacity="0.501961" points="51,11 241,165 237,11" />
<polygon fill="#ffffff" fill-opacity="0.501961" points="103,213 205,186 6,185" />
<polygon fill="#ffffff" fill-opacity="0.501961" points="177,-16 89,9 271,11" />
<polygon fill="#ffffff" fill-opacity="0.501961" points="-16,13 121,4 21,-16" />
<polygon fill="#000310" fill-opacity="0.501961" points="185,115 245,185 5,183" />
<polygon fill="#ffffff" fill-opacity="0.501961" points="224,213 271,181 115,191" />
<polygon fill="#ffffff" fill-opacity="0.501961" points="6,-16 5,137 -16,64" />
<polygon fill="#000000" fill-opacity="0.501961" points="9,181 49,185 6,46" />
<polygon fill="#ffffff" fill-opacity="0.501961" points="-16,183 128,193 26,213" />
<polygon fill="#ffffff" fill-opacity="0.501961" points="271,136 245,213 248,45" />
<polygon fill="#ffffff" fill-opacity="0.501961" points="5,71 -16,156 8,213" />
<polygon fill="#ffffff" fill-opacity="0.501961" points="235,-9 271,1 255,129" />
<polygon fill="#7984ad" fill-opacity="0.501961" points="235,170 197,142 96,168" />
<polygon fill="#97a5c9" fill-opacity="0.501961" points="99,105 165,71 58,73" />
<polygon fill="#ffffff" fill-opacity="0.501961" points="179,11 -16,10 82,-16" />
<polygon fill="#000000" fill-opacity="0.501961" points="6,10 8,36 93,13" />
<polygon fill="#ffffff" fill-opacity="0.501961" points="271,182 244,213 140,194" />
<polygon fill="#000000" fill-opacity="0.501961" points="242,12 141,41 32,11" />
<polygon fill="#ffffff" fill-opacity="0.501961" points="76,9 159,-16 252,9" />
<polygon fill="#fff0c4" fill-opacity="0.501961" points="87,133 76,160 69,129" />
<polygon fill="#36422b" fill-opacity="0.501961" points="63,167 236,146 183,44" />
<polygon fill="#7780ac" fill-opacity="0.501961" points="-16,26 68,51 120,26" />
<polygon fill="#000000" fill-opacity="0.501961" points="150,184 27,183 85,166" />
<polygon fill="#ffffff" fill-opacity="0.501961" points="79,213 -16,189 164,186" />
<polygon fill="#00071f" fill-opacity="0.501961" points="34,52 57,104 70,54" />
<polygon fill="#ffffff" fill-opacity="0.501961" points="5,-1 -16,77 6,148" />
<polygon fill="#000000" fill-opacity="0.501961" points="185,177 243,168 233,185" />
<polygon fill="#ffffff" fill-opacity="0.501961" points="1,66 8,213 -16,143" />
<polygon fill="#444661" fill-opacity="0.501961" points="69,171 145,159 120,77" />
<polygon fill="#000007" fill-opacity="0.501961" points="59,183 7,184 6,122" />
<polygon fill="#000000" fill-opacity="0.501961" points="148,167 114,185 206,181" />
<polygon fill="#ffffff" fill-opacity="0.501961" points="271,164 246,213 251,78" />
<polygon fill="#ffffff" fill-opacity="0.501961" points="271,-4 215,-4 271,34" />
<polygon fill="#384a2a" fill-opacity="0.501961" points="149,25 181,82 52,55" />
<polygon fill="#182509" fill-opacity="0.501961" points="237,128 236,9 149,140" />
<polygon fill="#41497d" fill-opacity="0.501961" points="41,171 79,123 8,53" />
<polygon fill="#000000" fill-opacity="0.501961" points="23,29 9,11 76,20" />
<polygon fill="#ffffff" fill-opacity="0.501961" points="-16,13 16,-16 113,0" />
<polygon fill="#b4c1f4" fill-opacity="0.501961" points="89,85 147,77 113,71" />
<polygon fill="#6b7281" fill-opacity="0.501961" points="182,149 242,148 242,172" />
<polygon fill="#000000" fill-opacity="0.501961" points="233,170 189,184 137,170" />
<polygon fill="#000a24" fill-opacity="0.501961" points="6,181 8,66 39,155" />
<polygon fill="#5c64a7" fill-opacity="0.501961" points="182,41 226,26 186,26" />
<polygon fill="#000000" fill-opacity="0.501961" points="120,37 207,13 33,14" />
<polygon fill="#080b0d" fill-opacity="0.501961" points="55,123 70,142 54,158" />
<polygon fill="#ffffff" fill-opacity="0.501961" points="262,190 149,192 232,213" />
<polygon fill="#a19e9a" fill-opacity="0.501961" points="237,112 251,77 239,31" />
<polygon fill="#5d6c40" fill-opacity="0.501961" points="171,55 166,101 117,64" />
<polygon fill="#ffffff" fill-opacity="0.501961" points="139,3 271,8 219,-16" />
<polygon fill="#000000" fill-opacity="0.501961" points="120,184 167,170 78,171" />
<polygon fill="#a7b6aa" fill-opacity="0.501961" points="67,76 75,53 82,79" />
<polygon fill="#100e26" fill-opacity="0.501961" points="116,110 122,77 113,82" />
<polygon fill="#656f9b" fill-opacity="0.501961" points="45,69 19,98 55,122" />
<polygon fill="#ffffff" fill-opacity="0.501961" points="250,-16 271,39 246,102" />
<polygon fill="#52587c" fill-opacity="0.501961" points="84,148 162,170 44,170" />
<polygon fill="#fdc6ae" fill-opacity="0.501961" points="68,152 81,155 81,130" />
<polygon fill="#000000" fill-opacity="0.501961" points="117,184 28,183 58,166" />
<polygon fill="#000000" fill-opacity="0.501961" points="181,21 237,27 236,12" />
<polygon fill="#737677" fill-opacity="0.501961" points="97,144 161,145 120,131" />
<polygon fill="#000000" fill-opacity="0.501961" points="17,11 74,24 4,27" />
<polygon fill="#2c3744" fill-opacity="0.501961" points="92,147 63,89 110,111" />
<polygon fill="#324127" fill-opacity="0.501961" points="191,28 127,142 211,96" />
<polygon fill="#636e83" fill-opacity="0.501961" points="57,58 60,90 97,101" />
<polygon fill="#ffffff" fill-opacity="0.501961" points="-16,185 100,197 10,213" />
<polygon fill="#ffffff" fill-opacity="0.501961" points="4,213 5,121 -16,160" />
<polygon fill="#000000" fill-opacity="0.501961" points="208,170 165,183 241,184" />
<polygon fill="#5a7511" fill-opacity="0.501961" points="79,61 130,66 86,74" />
<polygon fill="#000000" fill-opacity="0.501961" points="52,102 48,69 59,71" />
<polygon fill="#58607c" fill-opacity="0.501961" points="44,25 108,25 108,51" />
<polygon fill="#ffffff" fill-opacity="0.501961" points="5,-10 -16,41 5,96" />
<polygon fill="#1c1e2f" fill-opacity="0.501961" points="181,149 100,145 153,163" />
<polygon fill="#515a7f" fill-opacity="0.501961" points="6,56 6,25 48,26" />
<polygon fill="#232f2a" fill-opacity="0.501961" points="130,24 75,64 222,48" />
<polygon fill="#7277aa" fill-opacity="0.501961" points="161,169 220,170 177,156" />
<polygon fill="#c2c0be" fill-opacity="0.501961" points="98,184 133,194 168,185" />
<polygon fill="#374264" fill-opacity="0.501961" points="118,165 29,170 34,147" />
<polygon fill="#ffffff" fill-opacity="0.501961" points="73,193 215,192 146,213" />
<polygon fill="#ffffff" fill-opacity="0.501961" points="271,173 254,92 247,213" />
<polygon fill="#36405c" fill-opacity="0.501961" points="34,29 49,89 7,62" />
<polygon fill="#9498b0" fill-opacity="0.501961" points="204,152 181,152 177,142" />
<polygon fill="#857d9c" fill-opacity="0.501961" points="151,81 109,107 137,74" />
<polygon fill="#354146" fill-opacity="0.501961" points="242,168 231,153 193,156" />
<polygon fill="#ffffff" fill-opacity="0.501961" points="52,-16 -16,4 114,3" />
<polygon fill="#b1c0ee" fill-opacity="0.501961" points="104,72 126,71 134,83" />
<polygon fill="#817f7d" fill-opacity="0.501961" points="247,24 244,54 237,17" />
<polygon fill="#1a1c22" fill-opacity="0.501961" points="89,156 88,138 116,155" />
<polygon fill="#ffffff" fill-opacity="0.501961" points="161,-16 230,4 92,3" />
<polygon fill="#ffe7c1" fill-opacity="0.501961" points="74,143 84,128 69,136" />
<polygon fill="#4f4f3a" fill-opacity="0.501961" points="189,101 138,79 136,113" />
<polygon fill="#898784" fill-opacity="0.501961" points="239,98 237,151 247,132" />
<polygon fill="#737dbb" fill-opacity="0.501961" points="23,103 23,89 15,84" />
<polygon fill="#000000" fill-opacity="0.501961" points="235,185 192,170 238,170" />
<polygon fill="#0b1700" fill-opacity="0.501961" points="238,106 200,82 237,72" />
<polygon fill="#7580a4" fill-opacity="0.501961" points="111,111 48,63 114,88" />
<polygon fill="#4d5888" fill-opacity="0.501961" points="63,96 100,116 50,116" />
<polygon fill="#232840" fill-opacity="0.501961" points="184,151 162,119 103,119" />
<polygon fill="#000000" fill-opacity="0.501961" points="133,184 170,170 221,184" />
<polygon fill="#8d8fad" fill-opacity="0.501961" points="216,147 195,153 233,153" />
<polygon fill="#000000" fill-opacity="0.501961" points="8,12 36,11 6,22" />
<polygon fill="#a9a7a3" fill-opacity="0.501961" points="246,167 238,170 239,191" />
<polygon fill="#2b3624" fill-opacity="0.501961" points="188,149 188,71 242,149" />
<polygon fill="#373943" fill-opacity="0.501961" points="74,130 52,145 51,117" />
<polygon fill="#7077a4" fill-opacity="0.501961" points="15,40 21,28 26,66" />
<polygon fill="#222633" fill-opacity="0.501961" points="147,133 128,142 105,139" />
<polygon fill="#000000" fill-opacity="0.501961" points="10,163 87,181 7,184" />
<polygon fill="#31401b" fill-opacity="0.501961" points="193,107 141,122 111,106" />
<polygon fill="#a0a49e" fill-opacity="0.501961" points="132,137 131,131 113,133" />
<polygon fill="#000000" fill-opacity="0.501961" points="212,11 238,25 171,24" />
<polygon fill="#7880ad" fill-opacity="0.501961" points="42,113 36,85 57,111" />
<polygon fill="#bcbab8" fill-opacity="0.501961" points="207,184 164,184 185,193" />
<polygon fill="#000000" fill-opacity="0.501961" points="72,170 97,184 148,171" />
<polygon fill="#9b9e9b" fill-opacity="0.501961" points="100,136 114,132 97,132" />
<polygon fill="#5c6279" fill-opacity="0.501961" points="89,169 137,157 96,156" />
<polygon fill="#00070b" fill-opacity="0.501961" points="52,69 51,100 62,102" />
<polygon fill="#000000" fill-opacity="0.501961" points="61,11 179,11 115,29" />
<polygon fill="#bbbaba" fill-opacity="0.501961" points="32,11 10,11 27,6" />
<polygon fill="#171b24" fill-opacity="0.501961" points="57,146 75,146 58,133" />
<polygon fill="#313b4c" fill-opacity="0.501961" points="160,43 215,52 188,28" />
<polygon fill="#404864" fill-opacity="0.501961" points="63,88 52,58 70,60" />
<polygon fill="#3f4f1e" fill-opacity="0.501961" points="149,60 230,64 152,84" />
<polygon fill="#1d202e" fill-opacity="0.501961" points="99,127 96,146 79,146" />
<polygon fill="#191e27" fill-opacity="0.501961" points="72,55 29,68 32,54" />
<polygon fill="#222332" fill-opacity="0.501961" points="122,115 122,82 113,84" />
<polygon fill="#7c809a" fill-opacity="0.501961" points="29,34 84,43 56,25" />
<polygon fill="#2d344c" fill-opacity="0.501961" points="86,169 62,147 42,170" />
<polygon fill="#112007" fill-opacity="0.501961" points="224,29 196,44 236,55" />
<polygon fill="#000000" fill-opacity="0.501961" points="50,12 83,25 14,23" />
<polygon fill="#475068" fill-opacity="0.501961" points="13,73 53,60 30,103" />
<polygon fill="#bfbebe" fill-opacity="0.501961" points="242,4 232,7 249,20" />
<polygon fill="#303a4e" fill-opacity="0.501961" points="102,37 150,38 78,59" />
<polygon fill="#29360d" fill-opacity="0.501961" points="84,59 118,48 151,63" />
<polygon fill="#7f93b6" fill-opacity="0.501961" points="139,77 126,71 122,107" />
<polygon fill="#dbd9d9" fill-opacity="0.501961" points="252,138 246,112 244,137" />
<polygon fill="#3c4376" fill-opacity="0.501961" points="142,35 135,28 127,32" />
<polygon fill="#ffffff" fill-opacity="0.501961" points="255,114 250,-16 271,47" />
<polygon fill="#a7b4d9" fill-opacity="0.501961" points="130,81 96,74 125,70" />
<polygon fill="#b4b2b1" fill-opacity="0.501961" points="51,184 23,193 19,184" />
<polygon fill="#ffffff" fill-opacity="0.501961" points="99,213 -11,180 -2,213" />
<polygon fill="#191b00" fill-opacity="0.501961" points="161,23 162,56 152,54" />
<polygon fill="#3b4063" fill-opacity="0.501961" points="130,121 159,122 160,136" />
<polygon fill="#8d784d" fill-opacity="0.501961" points="112,128 96,124 111,121" />
<polygon fill="#fafafa" fill-opacity="0.501961" points="167,213 96,189 251,192" />
<polygon fill="#a39099" fill-opacity="0.501961" points="80,145 85,158 87,147" />
<polygon fill="#070d00" fill-opacity="0.501961" points="176,139 159,130 177,123" />
<polygon fill="#cdd1b8" fill-opacity="0.501961" points="74,64 68,77 70,62" />
<polygon fill="#ffffff" fill-opacity="0.501961" points="-16,51 3,114 4,-9" />
<polygon fill="#28392f" fill-opacity="0.501961" points="62,88 87,100 62,98" />
<polygon fill="#7d82bd" fill-opacity="0.501961" points="235,170 213,164 214,170" />
<polygon fill="#8b3c16" fill-opacity="0.501961" points="145,82 141,91 135,83" />
<polygon fill="#00101b" fill-opacity="0.501961" points="9,105 27,175 33,132" />
<polygon fill="#000000" fill-opacity="0.501961" points="153,184 106,170 199,171" />
<polygon fill="#928f8b" fill-opacity="0.501961" points="238,186 246,161 240,135" />
<polygon fill="#c2c1c1" fill-opacity="0.501961" points="115,2 89,9 142,10" />
<polygon fill="#8a95bb" fill-opacity="0.501961" points="69,153 67,146 75,146" />
<polygon fill="#000000" fill-opacity="0.501961" points="233,12 178,28 127,13" />
<polygon fill="#5b6a66" fill-opacity="0.501961" points="64,89 80,58 73,91" />
<polygon fill="#606c95" fill-opacity="0.501961" points="120,100 105,108 71,89" />
<polygon fill="#5d628c" fill-opacity="0.501961" points="56,151 32,132 38,153" />
<polygon fill="#70676a" fill-opacity="0.501961" points="71,134 62,122 89,126" />
<polygon fill="#8b9188" fill-opacity="0.501961" points="129,120 122,112 111,111" />
<polygon fill="#97a1b3" fill-opacity="0.501961" points="77,70 74,79 107,88" />
<polygon fill="#383b4d" fill-opacity="0.501961" points="216,107 238,139 217,125" />
<polygon fill="#617655" fill-opacity="0.501961" points="129,64 99,70 143,74" />
<polygon fill="#596481" fill-opacity="0.501961" points="82,43 56,55 18,42" />
<polygon fill="#293146" fill-opacity="0.501961" points="21,79 14,39 7,62" />
<polygon fill="#5b7331" fill-opacity="0.501961" points="101,77 87,66 96,81" />
<polygon fill="#252a2c" fill-opacity="0.501961" points="181,155 150,157 166,133" />
<polygon fill="#1e2539" fill-opacity="0.501961" points="123,124 136,131 100,130" />
<polygon fill="#575e88" fill-opacity="0.501961" points="121,166 170,164 139,156" />
<polygon fill="#ffffff" fill-opacity="0.501961" points="6,201 1,87 -16,141" />
<polygon fill="#000000" fill-opacity="0.501961" points="80,170 6,170 31,184" />
<polygon fill="#68757c" fill-opacity="0.501961" points="150,97 157,98 147,78" />
<polygon fill="#c9c8c8" fill-opacity="0.501961" points="250,174 239,191 247,148" />
<polygon fill="#283612" fill-opacity="0.501961" points="184,46 171,60 237,65" />
<polygon fill="#9294af" fill-opacity="0.501961" points="178,144 191,153 204,151" />
<polygon fill="#c6c5c5" fill-opacity="0.501961" points="135,10 176,9 149,2" />
<polygon fill="#767574" fill-opacity="0.501961" points="237,102 241,77 245,113" />
<polygon fill="#969995" fill-opacity="0.501961" points="111,143 123,140 126,144" />
<polygon fill="#faf9f9" fill-opacity="0.501961" points="144,-16 191,6 68,6" />
<polygon fill="#363a39" fill-opacity="0.501961" points="95,151 117,158 76,159" />
<polygon fill="#1b1e32" fill-opacity="0.501961" points="55,53 74,51 70,64" />
<polygon fill="#7a88b1" fill-opacity="0.501961" points="134,94 127,84 139,90" />
<polygon fill="#1e310b" fill-opacity="0.501961" points="185,26 159,39 135,27" />
<polygon fill="#d3d4d4" fill-opacity="0.501961" points="254,50 246,83 245,50" />
<polygon fill="#000000" fill-opacity="0.501961" points="34,12 136,13 83,27" />
<polygon fill="#515c56" fill-opacity="0.501961" points="203,157 180,148 192,166" />
<polygon fill="#f7cca9" fill-opacity="0.501961" points="85,136 74,152 75,133" />
<polygon fill="#535d8c" fill-opacity="0.501961" points="193,25 228,26 204,34" />
<polygon fill="#000000" fill-opacity="0.501961" points="49,13 9,25 6,12" />
<polygon fill="#c8972f" fill-opacity="0.501961" points="120,156 119,161 117,154" />
<polygon fill="#9ea39d" fill-opacity="0.501961" points="99,143 114,140 112,145" />
<polygon fill="#000000" fill-opacity="0.501961" points="236,185 182,173 236,170" />
<polygon fill="#35422d" fill-opacity="0.501961" points="230,148 192,127 190,149" />
<polygon fill="#071100" fill-opacity="0.501961" points="110,36 136,37 109,23" />
<polygon fill="#ffffff" fill-opacity="0.501961" points="271,161 251,211 254,122" />
<polygon fill="#b7b6b5" fill-opacity="0.501961" points="214,186 233,191 240,184" />
<polygon fill="#7e8282" fill-opacity="0.501961" points="136,139 154,142 134,145" />
<polygon fill="#000000" fill-opacity="0.501961" points="218,11 237,29 237,11" />
<polygon fill="#252611" fill-opacity="0.501961" points="111,106 125,115 124,106" />
<polygon fill="#c8c7c6" fill-opacity="0.501961" points="76,187 49,193 44,185" />
<polygon fill="#d4d3d3" fill-opacity="0.501961" points="253,99 243,112 247,67" />
<polygon fill="#22282b" fill-opacity="0.501961" points="135,140 133,125 158,138" />
<polygon fill="#bebdbc" fill-opacity="0.501961" points="25,11 36,5 50,9" />
<polygon fill="#8991b3" fill-opacity="0.501961" points="114,81 104,91 75,83" />
<polygon fill="#36422a" fill-opacity="0.501961" points="112,123 122,117 84,101" />
<polygon fill="#99a4cc" fill-opacity="0.501961" points="146,75 126,85 118,75" />
<polygon fill="#ffffff" fill-opacity="0.501961" points="271,7 256,-16 182,0" />
<polygon fill="#1d2434" fill-opacity="0.501961" points="103,146 128,155 101,154" />
<polygon fill="#777a87" fill-opacity="0.501961" points="225,150 241,147 241,154" />
<polygon fill="#3b4658" fill-opacity="0.501961" points="81,44 73,67 98,39" />
<polygon fill="#ffefd3" fill-opacity="0.501961" points="77,137 74,144 69,137" />
<polygon fill="#47506d" fill-opacity="0.501961" points="18,60 45,118 15,85" />
<polygon fill="#0c1a36" fill-opacity="0.501961" points="20,108 9,58 6,118" />
<polygon fill="#292d3a" fill-opacity="0.501961" points="125,131 129,159 132,145" />
<polygon fill="#656ca2" fill-opacity="0.501961" points="16,84 26,110 30,102" />
<polygon fill="#394839" fill-opacity="0.501961" points="184,110 192,93 143,91" />
<polygon fill="#2c3037" fill-opacity="0.501961" points="114,133 121,142 114,161" />
<polygon fill="#3d466a" fill-opacity="0.501961" points="130,118 148,128 115,128" />
<polygon fill="#5c689f" fill-opacity="0.501961" points="99,169 93,160 110,160" />
<polygon fill="#a57483" fill-opacity="0.501961" points="152,98 150,94 141,94" />
<polygon fill="#35415d" fill-opacity="0.501961" points="29,170 36,151 59,167" />
<polygon fill="#435426" fill-opacity="0.501961" points="93,61 149,69 124,57" />
<polygon fill="#5e6362" fill-opacity="0.501961" points="148,61 159,60 138,54" />
<polygon fill="#cececd" fill-opacity="0.501961" points="246,56 245,21 251,36" />
<polygon fill="#2f3935" fill-opacity="0.501961" points="237,98 218,112 238,111" />
<polygon fill="#414561" fill-opacity="0.501961" points="44,124 57,122 57,165" />
<polygon fill="#192134" fill-opacity="0.501961" points="87,133 92,136 97,124" />
<polygon fill="#172411" fill-opacity="0.501961" points="236,79 204,35 236,29" />
<polygon fill="#30353d" fill-opacity="0.501961" points="109,144 112,133 107,133" />
<polygon fill="#000000" fill-opacity="0.501961" points="16,184 99,184 59,170" />
<polygon fill="#966e4e" fill-opacity="0.501961" points="92,150 95,153 90,159" />
<polygon fill="#4e623b" fill-opacity="0.501961" points="134,76 167,65 121,66" />
<polygon fill="#484f67" fill-opacity="0.501961" points="60,118 60,86 90,130" />
<polygon fill="#424a60" fill-opacity="0.501961" points="146,168 142,156 178,156" />
<polygon fill="#ffffff" fill-opacity="0.501961" points="128,196 197,213 262,193" />
<polygon fill="#e0e2de" fill-opacity="0.501961" points="127,136 127,133 131,133" />
<polygon fill="#2b354d" fill-opacity="0.501961" points="153,47 149,34 118,46" />
<polygon fill="#000000" fill-opacity="0.501961" points="7,172 6,182 23,183" />
<polygon fill="#4b5672" fill-opacity="0.501961" points="237,167 189,155 212,168" />
<polygon fill="#a3aed8" fill-opacity="0.501961" points="111,83 96,74 129,70" />
<polygon fill="#2e3e3a" fill-opacity="0.501961" points="203,56 223,40 219,52" />
<polygon fill="#7b84b8" fill-opacity="0.501961" points="179,164 201,166 195,170" />
<polygon fill="#1b1916" fill-opacity="0.501961" points="208,185 225,185 214,182" />
<polygon fill="#8d94a3" fill-opacity="0.501961" points="76,51 72,60 76,61" />
<polygon fill="#242c34" fill-opacity="0.501961" points="57,127 64,115 67,155" />
<polygon fill="#6e748e" fill-opacity="0.501961" points="44,51 99,37 35,29" />
<polygon fill="#30294a" fill-opacity="0.501961" points="113,90 116,80 124,84" />
<polygon fill="#000000" fill-opacity="0.501961" points="51,66 58,81 49,87" />
<polygon fill="#e2bb9e" fill-opacity="0.501961" points="73,142 82,151 73,155" />
<polygon fill="#000000" fill-opacity="0.501961" points="192,25 234,25 233,13" />
<polygon fill="#3d464f" fill-opacity="0.501961" points="34,36 41,43 17,37" />
<polygon fill="#5f6787" fill-opacity="0.501961" points="28,26 26,37 7,27" />
<polygon fill="#253119" fill-opacity="0.501961" points="187,145 169,114 234,91" />
<polygon fill="#ffffff" fill-opacity="0.501961" points="-16,3 42,-16 105,0" />
<polygon fill="#484f4f" fill-opacity="0.501961" points="225,28 242,23 234,28" />
<polygon fill="#787776" fill-opacity="0.501961" points="240,28 243,15 238,14" />
<polygon fill="#dedcdb" fill-opacity="0.501961" points="56,5 85,6 69,10" />
<polygon fill="#636a95" fill-opacity="0.501961" points="144,170 141,160 118,161" />
<polygon fill="#cbc9c7" fill-opacity="0.501961" points="174,11 178,6 187,9" />
<polygon fill="#501402" fill-opacity="0.501961" points="140,85 146,86 149,93" />
<polygon fill="#000000" fill-opacity="0.501961" points="165,184 188,171 235,184" />
<polygon fill="#061926" fill-opacity="0.501961" points="34,168 8,111 7,167" />
<polygon fill="#3b3d5c" fill-opacity="0.501961" points="196,28 198,39 166,39" />
<polygon fill="#7783a5" fill-opacity="0.501961" points="139,91 126,81 120,94" />
<polygon fill="#231d1e" fill-opacity="0.501961" points="120,112 115,107 123,99" />
<polygon fill="#000000" fill-opacity="0.501961" points="94,171 161,175 118,184" />
<polygon fill="#5e7433" fill-opacity="0.501961" points="78,69 92,75 108,70" />
<polygon fill="#232f16" fill-opacity="0.501961" points="176,85 213,96 202,69" />
<polygon fill="#fcfcfc" fill-opacity="0.501961" points="271,47 251,40 251,121" />
<polygon fill="#8f94ba" fill-opacity="0.501961" points="58,29 69,26 50,26" />
<polygon fill="#3b4548" fill-opacity="0.501961" points="216,155 238,153 236,165" />
<polygon fill="#2f3141" fill-opacity="0.501961" points="69,141 65,141 74,149" />
<polygon fill="#4a536d" fill-opacity="0.501961" points="57,60 70,65 60,94" />
<polygon fill="#2a313b" fill-opacity="0.501961" points="24,63 37,60 36,71" />
<polygon fill="#636b8a" fill-opacity="0.501961" points="40,78 55,105 29,85" />
<polygon fill="#2a363e" fill-opacity="0.501961" points="85,30 101,29 99,33" />
<polygon fill="#ad7f6f" fill-opacity="0.501961" points="80,149 80,145 74,146" />
<polygon fill="#909493" fill-opacity="0.501961" points="115,144 123,145 126,140" />
<polygon fill="#dcb798" fill-opacity="0.501961" points="85,135 82,130 69,135" />
<polygon fill="#495d48" fill-opacity="0.501961" points="126,113 129,95 142,112" />
<polygon fill="#efefef" fill-opacity="0.501961" points="249,189 189,206 167,190" />
<polygon fill="#101411" fill-opacity="0.501961" points="43,59 55,55 33,54" />
<polygon fill="#d1cfcf" fill-opacity="0.501961" points="230,3 206,10 240,10" />
<polygon fill="#6c6152" fill-opacity="0.501961" points="92,128 115,121 113,128" />
<polygon fill="#2d3649" fill-opacity="0.501961" points="110,114 120,124 123,139" />
<polygon fill="#4f567e" fill-opacity="0.501961" points="172,157 133,169 187,170" />
<polygon fill="#5f6369" fill-opacity="0.501961" points="136,136 131,133 144,133" />
<polygon fill="#42474a" fill-opacity="0.501961" points="72,117 87,118 72,132" />
<polygon fill="#6d739e" fill-opacity="0.501961" points="24,51 18,46 23,63" />
<polygon fill="#020c18" fill-opacity="0.501961" points="29,124 33,144 7,153" />
<polygon fill="#000000" fill-opacity="0.501961" points="129,24 90,13 48,25" />
<polygon fill="#545e7a" fill-opacity="0.501961" points="86,42 102,40 109,32" />
<polygon fill="#394a2b" fill-opacity="0.501961" points="133,109 134,94 182,123" />
<polygon fill="#5b6983" fill-opacity="0.501961" points="184,153 172,164 178,151" />
<polygon fill="#3c403c" fill-opacity="0.501961" points="151,127 153,136 178,143" />
<polygon fill="#0d171f" fill-opacity="0.501961" points="113,87 120,99 118,89" />
<polygon fill="#8088b7" fill-opacity="0.501961" points="40,99 46,108 42,88" />
<polygon fill="#8b91bd" fill-opacity="0.501961" points="6,48 7,54 8,52" />
<polygon fill="#787877" fill-opacity="0.501961" points="238,139 243,130 240,115" />
<polygon fill="#212c11" fill-opacity="0.501961" points="145,47 115,47 123,59" />
<polygon fill="#4c5678" fill-opacity="0.501961" points="81,103 79,117 47,106" />
<polygon fill="#212b3c" fill-opacity="0.501961" points="47,80 51,102 60,102" />
<polygon fill="#797a79" fill-opacity="0.501961" points="244,176 238,183 238,157" />
<polygon fill="#5e645e" fill-opacity="0.501961" points="159,57 157,63 173,58" />
<polygon fill="#272c38" fill-opacity="0.501961" points="91,136 117,136 101,141" />
<polygon fill="#000000" fill-opacity="0.501961" points="46,184 132,184 87,171" />
<polygon fill="#323d41" fill-opacity="0.501961" points="101,38 125,45 75,56" />
<polygon fill="#ffffff" fill-opacity="0.501961" points="76,213 143,193 8,196" />
<polygon fill="#505875" fill-opacity="0.501961" points="35,82 39,60 43,84" />
<polygon fill="#dcdcdc" fill-opacity="0.501961" points="12,186 11,192 33,191" />
<polygon fill="#425027" fill-opacity="0.501961" points="171,85 147,60 185,65" />
<polygon fill="#888b79" fill-opacity="0.501961" points="99,104 106,110 115,111" />
<polygon fill="#080f00" fill-opacity="0.501961" points="236,109 236,121 228,122" />
<polygon fill="#1a1f2a" fill-opacity="0.501961" points="139,145 138,155 169,156" />
<polygon fill="#7a86b6" fill-opacity="0.501961" points="182,158 173,160 189,164" />
<polygon fill="#6d79a5" fill-opacity="0.501961" points="112,87 114,107 89,85" />
<polygon fill="#b0b0b0" fill-opacity="0.501961" points="247,45 241,48 245,64" />
<polygon fill="#000000" fill-opacity="0.501961" points="175,12 128,25 217,25" />
<polygon fill="#2d3564" fill-opacity="0.501961" points="98,122 96,130 84,120" />
<polygon fill="#727383" fill-opacity="0.501961" points="71,130 69,117 64,124" />
<polygon fill="#525649" fill-opacity="0.501961" points="208,154 209,164 220,153" />
<polygon fill="#353d3a" fill-opacity="0.501961" points="218,120 237,131 237,148" />
<polygon fill="#314136" fill-opacity="0.501961" points="89,100 105,114 72,100" />
<polygon fill="#000000" fill-opacity="0.501961" points="184,173 167,185 131,175" />
<polygon fill="#586494" fill-opacity="0.501961" points="110,107 119,101 88,96" />
<polygon fill="#595b58" fill-opacity="0.501961" points="180,132 178,125 178,136" />
<polygon fill="#5f6992" fill-opacity="0.501961" points="17,89 27,94 15,76" />
<polygon fill="#3c4a13" fill-opacity="0.501961" points="156,32 151,29 164,28" />
<polygon fill="#1b1e26" fill-opacity="0.501961" points="132,136 119,140 129,140" />
<polygon fill="#65778e" fill-opacity="0.501961" points="123,105 122,100 129,102" />
<polygon fill="#464e66" fill-opacity="0.501961" points="15,55 7,31 15,30" />
<polygon fill="#19230e" fill-opacity="0.501961" points="204,35 210,49 222,29" />
<polygon fill="#495365" fill-opacity="0.501961" points="21,39 31,65 32,40" />
<polygon fill="#26271a" fill-opacity="0.501961" points="149,131 155,132 149,143" />
<polygon fill="#5762a0" fill-opacity="0.501961" points="232,165 236,164 237,170" />
<polygon fill="#212c19" fill-opacity="0.501961" points="238,138 198,134 188,109" />
<polygon fill="#121515" fill-opacity="0.501961" points="134,97 140,96 143,99" />
<polygon fill="#363d4d" fill-opacity="0.501961" points="96,156 68,170 60,155" />
<polygon fill="#5b6e46" fill-opacity="0.501961" points="128,70 109,71 115,65" />
<polygon fill="#333d4e" fill-opacity="0.501961" points="181,38 161,46 190,46" />
<polygon fill="#535e87" fill-opacity="0.501961" points="112,169 108,162 93,170" />
<polygon fill="#2f374c" fill-opacity="0.501961" points="148,170 148,157 143,159" />
<polygon fill="#767b9d" fill-opacity="0.501961" points="40,44 71,36 35,34" />
<polygon fill="#40511a" fill-opacity="0.501961" points="83,59 99,59 81,70" />
<polygon fill="#7f8587" fill-opacity="0.501961" points="101,144 109,140 97,141" />
<polygon fill="#181c27" fill-opacity="0.501961" points="61,64 62,56 79,48" />
<polygon fill="#7e8284" fill-opacity="0.501961" points="149,145 133,140 146,140" />
<polygon fill="#fffefe" fill-opacity="0.501961" points="23,-5 -8,22 5,0" />
<polygon fill="#293418" fill-opacity="0.501961" points="182,109 192,118 153,118" />
</g>
</svg>