<svg xmlns="http://www.w3.org/2000/svg" version="1.1" width="1024" height="580">
<rect x="0" y="0" width="1024" height="580" fill="#828586" />
<g transform="scale(4.000000) translate(0.5 0.5)">
<polygon fill="#ffffff" fill-opacity="0.501961" points="215,0 136,102 -16,4" />
<polygon fill="#141214" fill-opacity="0.501961" points="271,148 139,150 254,-16" />
<polygon fill="#dde6da" fill-opacity="0.501961" points="205,91 -16,50 207,14" />
<polygon fill="#353741" fill-opacity="0.501961" points="163,160 90,63 -16,74" />
<polygon fill="#fcffff" fill-opacity="0.501961" points="4,60 2,18 65,58" />
<polygon fill="#404040" fill-opacity="0.501961" points="271,144 30,144 240,55" />
<polygon fill="#2b2a21" fill-opacity="0.501961" points="243,50 188,-1 244,-5" />
<polygon fill="#484e60" fill-opacity="0.501961" points="-16,145 108,91 -16,50" />
<polygon fill="#afaeb3" fill-opacity="0.501961" points="87,132 -2,95 106,98" />
<polygon fill="#434745" fill-opacity="0.501961" points="81,42 70,2 68,64" />
<polygon fill="#514c41" fill-opacity="0.501961" points="240,-1 234,71 192,42" />
<polygon fill="#89817d" fill-opacity="0.501961" points="202,111 159,143 183,53" />
<polygon fill="#000000" fill-opacity="0.501961" points="-1,-2 -16,67 3,79" />
<polygon fill="#2b3237" fill-opacity="0.501961" points="65,108 -16,110 44,128" />
<polygon fill="#ffffff" fill-opacity="0.501961" points="210,48 188,60 206,70" />
<polygon fill="#d58700" fill-opacity="0.501961" points="78,134 81,107 98,122" />
<polygon fill="#dbe3df" fill-opacity="0.501961" points="64,29 180,48 182,87" />
<polygon fill="#6c7679" fill-opacity="0.501961" points="158,73 118,113 129,160" />
<polygon fill="#121d1f" fill-opacity="0.501961" points="209,109 231,54 267,118" />
<polygon fill="#e1e6de" fill-opacity="0.501961" points="97,66 181,70 108,93" />
<polygon fill="#000000" fill-opacity="0.501961" points="79,-16 21,-1 124,0" />
<polygon fill="#282e3b" fill-opacity="0.501961" points="127,87 97,118 108,153" />
<polygon fill="#212121" fill-opacity="0.501961" points="64,94 1,78 -12,95" />
<polygon fill="#b5bcb4" fill-opacity="0.501961" points="86,4 66,28 136,94" />
<polygon fill="#1f282f" fill-opacity="0.501961" points="83,106 66,111 103,114" />
<polygon fill="#5b5953" fill-opacity="0.501961" points="195,32 218,67 271,31" />
<polygon fill="#cfd6eb" fill-opacity="0.501961" points="82,112 57,113 57,130" />
<polygon fill="#1a1e1e" fill-opacity="0.501961" points="59,160 123,140 -4,144" />
<polygon fill="#343530" fill-opacity="0.501961" points="182,62 181,89 191,77" />
<polygon fill="#000000" fill-opacity="0.501961" points="2,159 -16,122 0,88" />
<polygon fill="#9bacd5" fill-opacity="0.501961" points="23,94 53,108 91,98" />
<polygon fill="#696f6c" fill-opacity="0.501961" points="186,54 184,25 177,60" />
<polygon fill="#000000" fill-opacity="0.501961" points="226,0 149,-1 205,-16" />
<polygon fill="#b1bcb7" fill-opacity="0.501961" points="61,0 39,56 2,0" />
<polygon fill="#61677e" fill-opacity="0.501961" points="31,144 111,130 22,122" />
<polygon fill="#edf1f0" fill-opacity="0.501961" points="56,59 2,49 26,63" />
<polygon fill="#eef4f1" fill-opacity="0.501961" points="199,70 190,26 186,63" />
<polygon fill="#fffffb" fill-opacity="0.501961" points="73,60 90,48 119,72" />
<polygon fill="#6e7481" fill-opacity="0.501961" points="248,-2 259,51 243,80" />
<polygon fill="#9fafd8" fill-opacity="0.501961" points="6,107 49,99 2,95" />
<polygon fill="#000000" fill-opacity="0.501961" points="255,-10 255,90 271,40" />
<polygon fill="#000000" fill-opacity="0.501961" points="0,64 2,-16 -11,25" />
<polygon fill="#3d443c" fill-opacity="0.501961" points="140,93 166,95 147,158" />
<polygon fill="#63594d" fill-opacity="0.501961" points="239,59 195,49 196,32" />
<polygon fill="#4d4840" fill-opacity="0.501961" points="144,108 149,79 158,79" />
<polygon fill="#414240" fill-opacity="0.501961" points="79,46 71,36 65,51" />
<polygon fill="#ffffff" fill-opacity="0.501961" points="150,80 127,75 138,92" />
<polygon fill="#000000" fill-opacity="0.501961" points="171,-16 111,-1 149,0" />
<polygon fill="#656051" fill-opacity="0.501961" points="199,2 192,14 240,13" />
<polygon fill="#492927" fill-opacity="0.501961" points="188,97 187,148 172,88" />
<polygon fill="#b8a392" fill-opacity="0.501961" points="190,80 189,102 208,88" />
<polygon fill="#738c8a" fill-opacity="0.501961" points="173,78 178,136 162,129" />
<polygon fill="#3a3f41" fill-opacity="0.501961" points="28,135 28,157 105,135" />
<polygon fill="#404044" fill-opacity="0.501961" points="72,72 115,100 -16,86" />
<polygon fill="#8190b3" fill-opacity="0.501961" points="114,114 59,104 103,100" />
<polygon fill="#604b44" fill-opacity="0.501961" points="218,68 194,69 198,131" />
<polygon fill="#c1c6df" fill-opacity="0.501961" points="4,142 27,137 2,134" />
<polygon fill="#000000" fill-opacity="0.501961" points="100,143 158,160 213,144" />
<polygon fill="#d2d8d7" fill-opacity="0.501961" points="182,9 181,77 159,90" />
<polygon fill="#6d747c" fill-opacity="0.501961" points="149,143 84,143 139,127" />
<polygon fill="#a0a59e" fill-opacity="0.501961" points="135,100 108,45 106,67" />
<polygon fill="#818c97" fill-opacity="0.501961" points="114,108 139,118 130,96" />
<polygon fill="#eff7ea" fill-opacity="0.501961" points="142,28 135,67 97,42" />
<polygon fill="#2a2e32" fill-opacity="0.501961" points="114,160 107,92 122,123" />
<polygon fill="#9a9daf" fill-opacity="0.501961" points="70,129 77,135 50,134" />
<polygon fill="#f3fcf4" fill-opacity="0.501961" points="207,14 191,30 208,30" />
<polygon fill="#ffffff" fill-opacity="0.501961" points="188,120 192,112 192,121" />
<polygon fill="#cdd8d1" fill-opacity="0.501961" points="132,0 106,35 81,1" />
<polygon fill="#000000" fill-opacity="0.501961" points="81,-16 23,-1 102,0" />
<polygon fill="#2a3137" fill-opacity="0.501961" points="54,126 37,112 56,110" />
<polygon fill="#181e28" fill-opacity="0.501961" points="249,24 218,35 223,19" />
<polygon fill="#1d1d1f" fill-opacity="0.501961" points="208,124 180,122 193,140" />
<polygon fill="#000000" fill-opacity="0.501961" points="3,1 -12,-16 41,-3" />
<polygon fill="#c3c7db" fill-opacity="0.501961" points="57,125 74,112 79,128" />
<polygon fill="#000000" fill-opacity="0.501961" points="41,144 6,159 0,143" />
<polygon fill="#5d6573" fill-opacity="0.501961" points="231,131 256,142 191,143" />
<polygon fill="#ccc8b7" fill-opacity="0.501961" points="178,90 198,87 174,84" />
<polygon fill="#b7c0c2" fill-opacity="0.501961" points="108,72 151,73 173,49" />
<polygon fill="#b1b7b5" fill-opacity="0.501961" points="72,0 27,22 -1,0" />
<polygon fill="#eed3b4" fill-opacity="0.501961" points="171,91 167,100 172,104" />
<polygon fill="#3a3c3a" fill-opacity="0.501961" points="82,5 75,-16 74,4" />
<polygon fill="#dae1dd" fill-opacity="0.501961" points="67,61 67,37 20,64" />
<polygon fill="#e19a0b" fill-opacity="0.501961" points="95,128 82,112 96,114" />
<polygon fill="#595f7d" fill-opacity="0.501961" points="50,66 75,62 98,72" />
<polygon fill="#42433a" fill-opacity="0.501961" points="177,81 166,94 174,77" />
<polygon fill="#000000" fill-opacity="0.501961" points="229,-14 189,-1 271,0" />
<polygon fill="#d7e1d9" fill-opacity="0.501961" points="179,16 193,46 194,-1" />
<polygon fill="#5e5f65" fill-opacity="0.501961" points="26,63 2,96 1,55" />
<polygon fill="#ced7d2" fill-opacity="0.501961" points="90,45 71,52 74,64" />
<polygon fill="#5d6863" fill-opacity="0.501961" points="144,16 142,2 140,18" />
<polygon fill="#272c38" fill-opacity="0.501961" points="113,110 123,98 102,91" />
<polygon fill="#cacfcc" fill-opacity="0.501961" points="73,33 72,1 86,24" />
<polygon fill="#000000" fill-opacity="0.501961" points="94,143 72,160 12,143" />
<polygon fill="#000000" fill-opacity="0.501961" points="104,0 199,-1 141,-16" />
<polygon fill="#000000" fill-opacity="0.501961" points="254,160 256,87 271,144" />
<polygon fill="#66685e" fill-opacity="0.501961" points="180,42 170,40 185,39" />
<polygon fill="#737784" fill-opacity="0.501961" points="243,84 250,52 253,85" />
<polygon fill="#232c3e" fill-opacity="0.501961" points="238,7 237,73 248,45" />
<polygon fill="#fffff9" fill-opacity="0.501961" points="107,57 104,83 92,50" />
<polygon fill="#000000" fill-opacity="0.501961" points="222,143 258,144 196,160" />
<polygon fill="#ffffff" fill-opacity="0.501961" points="208,63 187,61 203,69" />
<polygon fill="#838d9f" fill-opacity="0.501961" points="105,96 102,112 97,78" />
<polygon fill="#212632" fill-opacity="0.501961" points="96,113 117,113 96,129" />
<polygon fill="#14222f" fill-opacity="0.501961" points="68,107 57,112 82,111" />
<polygon fill="#000000" fill-opacity="0.501961" points="-1,144 0,84 -11,107" />
<polygon fill="#7a8081" fill-opacity="0.501961" points="245,8 252,35 254,-1" />
<polygon fill="#cdd5d1" fill-opacity="0.501961" points="7,16 3,53 44,49" />
<polygon fill="#233237" fill-opacity="0.501961" points="163,101 159,83 158,96" />
<polygon fill="#7b7b88" fill-opacity="0.501961" points="49,136 4,123 50,121" />
<polygon fill="#9fa7a1" fill-opacity="0.501961" points="148,38 140,23 147,56" />
<polygon fill="#ccd2d2" fill-opacity="0.501961" points="192,52 185,43 185,75" />
<polygon fill="#2b2f32" fill-opacity="0.501961" points="203,142 201,126 161,138" />
<polygon fill="#e2eddf" fill-opacity="0.501961" points="188,12 144,24 166,41" />
<polygon fill="#1a1820" fill-opacity="0.501961" points="237,63 220,59 220,76" />
<polygon fill="#676459" fill-opacity="0.501961" points="227,52 208,-5 208,82" />
<polygon fill="#6e757d" fill-opacity="0.501961" points="117,103 144,134 122,140" />
<polygon fill="#454e50" fill-opacity="0.501961" points="181,71 182,51 186,57" />
<polygon fill="#676475" fill-opacity="0.501961" points="204,120 237,118 207,111" />
<polygon fill="#d2b895" fill-opacity="0.501961" points="190,86 192,78 203,91" />
<polygon fill="#929bb2" fill-opacity="0.501961" points="69,130 82,135 98,131" />
<polygon fill="#4e504a" fill-opacity="0.501961" points="188,78 211,66 228,84" />
<polygon fill="#6c695e" fill-opacity="0.501961" points="233,1 195,12 240,19" />
<polygon fill="#21262a" fill-opacity="0.501961" points="5,94 27,88 47,95" />
<polygon fill="#373e43" fill-opacity="0.501961" points="60,88 103,101 97,89" />
<polygon fill="#000000" fill-opacity="0.501961" points="0,0 1,110 -16,51" />
<polygon fill="#9c9f9e" fill-opacity="0.501961" points="89,36 85,51 68,29" />
<polygon fill="#000000" fill-opacity="0.501961" points="255,100 255,18 271,65" />
<polygon fill="#3a220d" fill-opacity="0.501961" points="162,85 149,83 156,80" />
<polygon fill="#dfe3e1" fill-opacity="0.501961" points="152,74 165,86 179,54" />
<polygon fill="#303033" fill-opacity="0.501961" points="143,130 142,142 175,136" />
<polygon fill="#414640" fill-opacity="0.501961" points="70,62 74,44 68,54" />
<polygon fill="#3e3938" fill-opacity="0.501961" points="11,123 -16,114 35,117" />
<polygon fill="#e9a01f" fill-opacity="0.501961" points="94,124 82,127 80,116" />
<polygon fill="#bfc6c2" fill-opacity="0.501961" points="182,24 208,13 210,26" />
<polygon fill="#000000" fill-opacity="0.501961" points="47,-16 -3,-1 58,0" />
<polygon fill="#363d34" fill-opacity="0.501961" points="184,42 183,30 181,37" />
<polygon fill="#cdd2d5" fill-opacity="0.501961" points="190,108 193,118 188,119" />
<polygon fill="#dbe3e2" fill-opacity="0.501961" points="92,63 73,64 72,50" />
<polygon fill="#ffffff" fill-opacity="0.501961" points="113,89 110,78 117,78" />
<polygon fill="#758699" fill-opacity="0.501961" points="144,87 161,90 145,96" />
<polygon fill="#a7abbb" fill-opacity="0.501961" points="6,131 4,143 30,142" />
<polygon fill="#503439" fill-opacity="0.501961" points="194,122 195,90 210,102" />
<polygon fill="#a4aaa8" fill-opacity="0.501961" points="47,54 21,17 31,1" />
<polygon fill="#36392d" fill-opacity="0.501961" points="181,91 160,92 170,86" />
<polygon fill="#55545d" fill-opacity="0.501961" points="0,93 37,63 101,80" />
<polygon fill="#8e9ea4" fill-opacity="0.501961" points="130,90 138,101 125,107" />
<polygon fill="#6d4647" fill-opacity="0.501961" points="171,109 178,96 196,110" />
<polygon fill="#7d879f" fill-opacity="0.501961" points="81,101 64,109 108,109" />
<polygon fill="#5d697d" fill-opacity="0.501961" points="7,106 7,119 45,105" />
<polygon fill="#535853" fill-opacity="0.501961" points="127,107 165,99 164,129" />
<polygon fill="#353742" fill-opacity="0.501961" points="233,82 239,40 251,104" />
<polygon fill="#5f6f70" fill-opacity="0.501961" points="97,70 101,79 92,84" />
<polygon fill="#dde7e2" fill-opacity="0.501961" points="57,9 66,21 50,21" />
<polygon fill="#808079" fill-opacity="0.501961" points="107,70 110,75 107,80" />
<polygon fill="#292b35" fill-opacity="0.501961" points="63,129 49,129 55,126" />
<polygon fill="#fdfff5" fill-opacity="0.501961" points="142,88 124,78 152,75" />
<polygon fill="#d4d6cb" fill-opacity="0.501961" points="134,78 106,87 128,92" />
<polygon fill="#75797b" fill-opacity="0.501961" points="88,143 74,139 61,143" />
<polygon fill="#70635b" fill-opacity="0.501961" points="202,69 205,118 211,89" />
<polygon fill="#798681" fill-opacity="0.501961" points="116,75 121,77 125,70" />
<polygon fill="#646e86" fill-opacity="0.501961" points="56,104 69,108 41,109" />
<polygon fill="#8d9091" fill-opacity="0.501961" points="173,63 173,76 176,69" />
<polygon fill="#b2bab7" fill-opacity="0.501961" points="23,34 3,1 1,24" />
<polygon fill="#292c31" fill-opacity="0.501961" points="70,87 89,95 41,95" />
<polygon fill="#ecf7fa" fill-opacity="0.501961" points="175,83 179,90 181,84" />
<polygon fill="#6d7370" fill-opacity="0.501961" points="108,65 107,53 110,56" />
<polygon fill="#77807c" fill-opacity="0.501961" points="145,24 142,19 144,31" />
<polygon fill="#3f3e36" fill-opacity="0.501961" points="177,79 204,80 195,74" />
<polygon fill="#665f53" fill-opacity="0.501961" points="236,50 195,34 197,51" />
<polygon fill="#232123" fill-opacity="0.501961" points="7,58 5,65 4,60" />
<polygon fill="#ebeee7" fill-opacity="0.501961" points="143,44 143,61 109,70" />
<polygon fill="#babecd" fill-opacity="0.501961" points="76,127 55,127 62,113" />
<polygon fill="#636463" fill-opacity="0.501961" points="68,28 78,40 68,47" />
<polygon fill="#000000" fill-opacity="0.501961" points="153,143 48,143 96,160" />
<polygon fill="#8f9292" fill-opacity="0.501961" points="86,20 93,12 81,12" />
<polygon fill="#6c728f" fill-opacity="0.501961" points="40,71 13,64 64,63" />
<polygon fill="#8d99b3" fill-opacity="0.501961" points="103,99 68,100 108,111" />
<polygon fill="#eff6ee" fill-opacity="0.501961" points="207,52 207,66 190,68" />
<polygon fill="#d3d8d4" fill-opacity="0.501961" points="193,72 185,60 193,34" />
<polygon fill="#474850" fill-opacity="0.501961" points="62,127 95,127 77,132" />
<polygon fill="#12212a" fill-opacity="0.501961" points="50,114 66,109 44,109" />
<polygon fill="#2c2d33" fill-opacity="0.501961" points="114,132 86,109 119,123" />
<polygon fill="#303328" fill-opacity="0.501961" points="180,89 186,78 189,82" />
<polygon fill="#a5aecc" fill-opacity="0.501961" points="2,105 2,96 12,102" />
<polygon fill="#000000" fill-opacity="0.501961" points="227,143 210,160 201,143" />
<polygon fill="#cdd3d1" fill-opacity="0.501961" points="144,28 151,72 174,55" />
<polygon fill="#c7d0cc" fill-opacity="0.501961" points="201,30 192,0 166,2" />
<polygon fill="#767a87" fill-opacity="0.501961" points="47,131 51,110 54,135" />
<polygon fill="#5b5e5d" fill-opacity="0.501961" points="136,120 114,104 121,126" />
<polygon fill="#68645b" fill-opacity="0.501961" points="219,35 236,65 237,35" />
<polygon fill="#474e62" fill-opacity="0.501961" points="75,111 99,100 87,110" />
<polygon fill="#e4e6e5" fill-opacity="0.501961" points="8,58 45,57 35,44" />
<polygon fill="#4d3d2b" fill-opacity="0.501961" points="156,80 149,80 152,86" />
<polygon fill="#706f74" fill-opacity="0.501961" points="148,142 152,143 154,132" />
<polygon fill="#abb6b1" fill-opacity="0.501961" points="133,17 167,16 168,2" />
<polygon fill="#b5b9c9" fill-opacity="0.501961" points="56,113 78,123 55,124" />
<polygon fill="#83869a" fill-opacity="0.501961" points="7,126 44,134 0,137" />
<polygon fill="#dee7dd" fill-opacity="0.501961" points="146,60 112,32 141,17" />
<polygon fill="#68858c" fill-opacity="0.501961" points="160,141 170,131 167,110" />
<polygon fill="#f4fbf0" fill-opacity="0.501961" points="61,61 49,44 62,49" />
<polygon fill="#fefff9" fill-opacity="0.501961" points="96,67 102,61 107,87" />
<polygon fill="#3e424a" fill-opacity="0.501961" points="93,140 103,132 119,138" />
<polygon fill="#9ea39e" fill-opacity="0.501961" points="160,75 172,79 161,79" />
<polygon fill="#879297" fill-opacity="0.501961" points="131,92 116,91 140,103" />
<polygon fill="#f4f8f7" fill-opacity="0.501961" points="178,76 180,65 175,61" />
<polygon fill="#6c6971" fill-opacity="0.501961" points="190,72 188,67 184,78" />
<polygon fill="#97a1bd" fill-opacity="0.501961" points="56,95 85,109 94,100" />
<polygon fill="#727278" fill-opacity="0.501961" points="244,38 253,18 251,63" />
<polygon fill="#bac1bf" fill-opacity="0.501961" points="157,79 141,69 149,51" />
<polygon fill="#000000" fill-opacity="0.501961" points="228,0 177,-16 126,0" />
<polygon fill="#212535" fill-opacity="0.501961" points="124,94 122,101 114,96" />
<polygon fill="#7b7a72" fill-opacity="0.501961" points="117,61 114,64 109,61" />
<polygon fill="#364c4c" fill-opacity="0.501961" points="169,121 172,109 174,123" />
<polygon fill="#cfd5d0" fill-opacity="0.501961" points="194,41 186,64 184,41" />
<polygon fill="#62858e" fill-opacity="0.501961" points="178,134 165,130 178,120" />
<polygon fill="#7f7d80" fill-opacity="0.501961" points="117,94 121,93 117,81" />
<polygon fill="#000000" fill-opacity="0.501961" points="271,100 255,65 255,149" />
<polygon fill="#767b79" fill-opacity="0.501961" points="43,143 57,143 51,140" />
<polygon fill="#d8ded7" fill-opacity="0.501961" points="139,43 109,61 112,43" />
<polygon fill="#81889b" fill-opacity="0.501961" points="77,135 90,129 67,129" />
<polygon fill="#c2ccce" fill-opacity="0.501961" points="193,110 194,119 188,115" />
<polygon fill="#495263" fill-opacity="0.501961" points="209,128 209,141 253,135" />
<polygon fill="#cdd4d0" fill-opacity="0.501961" points="100,1 81,1 102,32" />
<polygon fill="#d5e0dd" fill-opacity="0.501961" points="173,82 163,89 159,79" />
<polygon fill="#53534b" fill-opacity="0.501961" points="199,14 194,7 209,13" />
<polygon fill="#000000" fill-opacity="0.501961" points="1,102 -16,159 0,142" />
<polygon fill="#000000" fill-opacity="0.501961" points="264,-16 222,-1 263,0" />
<polygon fill="#ffffff" fill-opacity="0.501961" points="115,78 108,85 116,90" />
<polygon fill="#bb8625" fill-opacity="0.501961" points="79,113 93,127 81,128" />
<polygon fill="#000000" fill-opacity="0.501961" points="102,-16 47,0 136,-1" />
<polygon fill="#8891a3" fill-opacity="0.501961" points="104,99 97,114 109,110" />
<polygon fill="#7e8691" fill-opacity="0.501961" points="118,135 140,123 142,133" />
<polygon fill="#5c5f58" fill-opacity="0.501961" points="126,89 125,80 124,84" />
<polygon fill="#4d4e54" fill-opacity="0.501961" points="98,92 14,90 89,68" />
<polygon fill="#1c2520" fill-opacity="0.501961" points="248,97 212,97 217,85" />
<polygon fill="#f1f5f2" fill-opacity="0.501961" points="146,69 165,76 171,69" />
<polygon fill="#d0bea7" fill-opacity="0.501961" points="169,107 175,98 170,93" />
<polygon fill="#70695d" fill-opacity="0.501961" points="237,0 209,29 211,0" />
<polygon fill="#b9c4c5" fill-opacity="0.501961" points="206,51 209,59 185,57" />
<polygon fill="#1c2129" fill-opacity="0.501961" points="233,105 257,116 226,115" />
<polygon fill="#cad0cb" fill-opacity="0.501961" points="182,31 171,58 181,53" />
<polygon fill="#79807d" fill-opacity="0.501961" points="75,13 67,14 72,2" />
<polygon fill="#1e2e34" fill-opacity="0.501961" points="180,121 185,134 179,134" />
<polygon fill="#35333e" fill-opacity="0.501961" points="239,135 212,124 217,116" />
<polygon fill="#292a32" fill-opacity="0.501961" points="56,127 50,127 55,111" />
<polygon fill="#6e5f4c" fill-opacity="0.501961" points="187,87 197,87 192,90" />
<polygon fill="#b2b9b7" fill-opacity="0.501961" points="51,51 16,5 40,23" />
<polygon fill="#b4beb9" fill-opacity="0.501961" points="145,11 146,0 184,0" />
<polygon fill="#28272a" fill-opacity="0.501961" points="225,35 236,33 220,20" />
<polygon fill="#51554c" fill-opacity="0.501961" points="219,102 228,98 203,97" />
<polygon fill="#000000" fill-opacity="0.501961" points="255,-2 256,58 269,43" />
<polygon fill="#d7dddb" fill-opacity="0.501961" points="1,44 31,36 5,57" />
<polygon fill="#b3bbb5" fill-opacity="0.501961" points="140,69 128,70 114,59" />
<polygon fill="#c9c8d4" fill-opacity="0.501961" points="195,100 194,91 192,98" />
<polygon fill="#6e4946" fill-opacity="0.501961" points="186,94 183,123 172,103" />
<polygon fill="#000000" fill-opacity="0.501961" points="151,144 209,160 237,143" />
<polygon fill="#bbc1bd" fill-opacity="0.501961" points="68,56 54,61 47,57" />
<polygon fill="#c2cbc6" fill-opacity="0.501961" points="62,50 61,33 35,18" />
<polygon fill="#443837" fill-opacity="0.501961" points="184,95 188,106 188,89" />
<polygon fill="#cdd3cf" fill-opacity="0.501961" points="80,50 82,38 85,46" />
<polygon fill="#758294" fill-opacity="0.501961" points="138,117 138,109 118,117" />
<polygon fill="#6f717a" fill-opacity="0.501961" points="51,121 5,122 44,132" />
<polygon fill="#535a55" fill-opacity="0.501961" points="166,132 163,87 137,122" />
<polygon fill="#5a6056" fill-opacity="0.501961" points="148,92 139,119 140,92" />
<polygon fill="#6c727f" fill-opacity="0.501961" points="102,82 71,63 88,65" />
<polygon fill="#e8e8e1" fill-opacity="0.501961" points="119,80 118,91 125,75" />
<polygon fill="#e6eae4" fill-opacity="0.501961" points="141,55 109,76 132,50" />
<polygon fill="#101a2a" fill-opacity="0.501961" points="225,107 207,112 213,101" />
<polygon fill="#9fa6a4" fill-opacity="0.501961" points="75,6 88,1 83,8" />
<polygon fill="#717581" fill-opacity="0.501961" points="51,133 53,110 46,129" />
<polygon fill="#d5c4b7" fill-opacity="0.501961" points="187,88 182,90 183,91" />
<polygon fill="#c5ccc7" fill-opacity="0.501961" points="81,29 74,19 71,36" />
<polygon fill="#edf7e6" fill-opacity="0.501961" points="152,36 158,22 145,32" />
<polygon fill="#616978" fill-opacity="0.501961" points="102,114 99,106 79,106" />
<polygon fill="#b2b6c1" fill-opacity="0.501961" points="55,64 35,64 51,58" />
<polygon fill="#f9fef1" fill-opacity="0.501961" points="209,30 196,25 198,29" />
<polygon fill="#dee4e1" fill-opacity="0.501961" points="205,51 194,51 192,72" />
<polygon fill="#6f4145" fill-opacity="0.501961" points="198,100 210,104 197,125" />
<polygon fill="#b9bfbd" fill-opacity="0.501961" points="4,15 2,1 56,2" />
<polygon fill="#929abc" fill-opacity="0.501961" points="48,104 33,98 11,105" />
<polygon fill="#3e4d44" fill-opacity="0.501961" points="198,86 197,81 208,79" />
<polygon fill="#9e9ab1" fill-opacity="0.501961" points="249,118 255,116 246,116" />
<polygon fill="#262f2c" fill-opacity="0.501961" points="254,100 245,108 253,74" />
<polygon fill="#b9bcba" fill-opacity="0.501961" points="73,1 92,25 73,15" />
<polygon fill="#d9af81" fill-opacity="0.501961" points="154,91 153,85 157,85" />
<polygon fill="#393433" fill-opacity="0.501961" points="41,116 48,122 21,120" />
<polygon fill="#eff8ee" fill-opacity="0.501961" points="138,95 139,84 132,82" />
<polygon fill="#233441" fill-opacity="0.501961" points="244,17 237,-3 237,36" />
<polygon fill="#5b606f" fill-opacity="0.501961" points="68,64 21,66 34,76" />
<polygon fill="#616562" fill-opacity="0.501961" points="68,35 73,45 70,21" />
<polygon fill="#4e647d" fill-opacity="0.501961" points="144,99 152,90 163,91" />
<polygon fill="#707274" fill-opacity="0.501961" points="1,81 6,72 1,55" />
<polygon fill="#aaaebb" fill-opacity="0.501961" points="27,135 2,137 28,143" />
<polygon fill="#f1f5ed" fill-opacity="0.501961" points="132,82 142,86 121,84" />
<polygon fill="#9ca8c3" fill-opacity="0.501961" points="77,97 44,96 56,103" />
<polygon fill="#64686a" fill-opacity="0.501961" points="223,143 210,127 210,143" />
<polygon fill="#000000" fill-opacity="0.501961" points="0,51 -16,106 -1,149" />
<polygon fill="#5e6664" fill-opacity="0.501961" points="238,2 237,25 231,1" />
<polygon fill="#737981" fill-opacity="0.501961" points="120,128 120,143 145,143" />
<polygon fill="#96a09b" fill-opacity="0.501961" points="126,73 115,71 122,79" />
<polygon fill="#323436" fill-opacity="0.501961" points="120,109 95,116 95,129" />
<polygon fill="#bbc6bf" fill-opacity="0.501961" points="69,33 56,43 68,10" />
<polygon fill="#b3a597" fill-opacity="0.501961" points="189,81 190,104 195,82" />
<polygon fill="#777a7f" fill-opacity="0.501961" points="109,88 105,92 118,95" />
<polygon fill="#b8bdbb" fill-opacity="0.501961" points="164,51 157,53 158,30" />
<polygon fill="#b8bccc" fill-opacity="0.501961" points="60,120 77,127 78,114" />
<polygon fill="#2f353c" fill-opacity="0.501961" points="103,89 111,108 115,98" />
<polygon fill="#4c3d3f" fill-opacity="0.501961" points="185,94 172,94 180,89" />
<polygon fill="#313f38" fill-opacity="0.501961" points="163,103 159,97 169,92" />
<polygon fill="#1f2224" fill-opacity="0.501961" points="235,59 234,94 222,63" />
<polygon fill="#a6acaa" fill-opacity="0.501961" points="164,5 158,25 158,2" />
<polygon fill="#2d2e30" fill-opacity="0.501961" points="169,142 163,134 191,134" />
<polygon fill="#52534b" fill-opacity="0.501961" points="125,107 151,110 152,101" />
<polygon fill="#747a7b" fill-opacity="0.501961" points="146,24 142,12 142,19" />
<polygon fill="#c1cac6" fill-opacity="0.501961" points="99,2 145,23 111,31" />
<polygon fill="#949a99" fill-opacity="0.501961" points="28,1 27,13 36,22" />
<polygon fill="#555555" fill-opacity="0.501961" points="81,49 73,36 73,48" />
<polygon fill="#556163" fill-opacity="0.501961" points="34,109 52,115 12,115" />
<polygon fill="#7e8783" fill-opacity="0.501961" points="91,45 86,44 84,39" />
<polygon fill="#6a6352" fill-opacity="0.501961" points="218,30 205,49 197,31" />
<polygon fill="#6d4c49" fill-opacity="0.501961" points="190,87 181,110 174,100" />
<polygon fill="#6b6a76" fill-opacity="0.501961" points="206,115 214,111 228,118" />
<polygon fill="#302c3f" fill-opacity="0.501961" points="234,117 233,129 251,120" />
<polygon fill="#7e8a8d" fill-opacity="0.501961" points="119,109 124,118 122,101" />
<polygon fill="#404348" fill-opacity="0.501961" points="11,96 2,95 16,69" />
<polygon fill="#484c4f" fill-opacity="0.501961" points="122,117 137,125 118,124" />
<polygon fill="#e2e6dd" fill-opacity="0.501961" points="101,51 107,46 96,40" />
<polygon fill="#505a51" fill-opacity="0.501961" points="150,106 147,98 168,100" />
<polygon fill="#000000" fill-opacity="0.501961" points="-13,44 1,15 -2,-16" />
<polygon fill="#463c2f" fill-opacity="0.501961" points="148,89 159,82 148,84" />
<polygon fill="#919188" fill-opacity="0.501961" points="107,79 107,86 110,81" />
<polygon fill="#bec4c2" fill-opacity="0.501961" points="38,27 26,6 25,16" />
<polygon fill="#5a1328" fill-opacity="0.501961" points="190,110 193,104 191,99" />
<polygon fill="#3a3a35" fill-opacity="0.501961" points="184,48 182,41 182,50" />
<polygon fill="#282929" fill-opacity="0.501961" points="219,31 241,18 222,18" />
<polygon fill="#4a3c3e" fill-opacity="0.501961" points="209,97 194,119 196,89" />
<polygon fill="#e5ece2" fill-opacity="0.501961" points="188,25 187,47 195,29" />
<polygon fill="#9ba693" fill-opacity="0.501961" points="206,86 208,88 206,94" />
<polygon fill="#939997" fill-opacity="0.501961" points="24,14 23,19 16,7" />
<polygon fill="#6a7082" fill-opacity="0.501961" points="67,109 79,104 81,109" />
<polygon fill="#656b5e" fill-opacity="0.501961" points="201,69 204,79 207,68" />
<polygon fill="#828998" fill-opacity="0.501961" points="13,67 20,63 4,66" />
<polygon fill="#cad2c6" fill-opacity="0.501961" points="165,29 174,34 166,13" />
<polygon fill="#eff5f0" fill-opacity="0.501961" points="151,78 115,80 134,73" />
<polygon fill="#909694" fill-opacity="0.501961" points="24,16 27,28 36,36" />
<polygon fill="#a7b0a9" fill-opacity="0.501961" points="50,31 58,27 46,14" />
<polygon fill="#f2f4f4" fill-opacity="0.501961" points="180,73 175,75 175,62" />
<polygon fill="#67798d" fill-opacity="0.501961" points="147,94 143,87 163,93" />
<polygon fill="#615c53" fill-opacity="0.501961" points="218,54 206,50 209,24" />
<polygon fill="#c1c8c7" fill-opacity="0.501961" points="145,31 143,5 156,4" />
</g>
</svg>