<svg xmlns="http://www.w3.org/2000/svg" version="1.1" width="1024" height="580">
<rect x="0" y="0" width="1024" height="580" fill="#9aa09f" />
<g transform="scale(4.000000) translate(0.5 0.5)">
<polygon fill="#ffffff" fill-opacity="0.501961" points="228,79 271,0 -16,4" />
<polygon fill="#3a3433" fill-opacity="0.501961" points="-8,62 1,160 271,140" />
<polygon fill="#ffffff" fill-opacity="0.501961" points="1,71 2,-3 108,67" />
<polygon fill="#3d4442" fill-opacity="0.501961" points="156,75 251,160 271,72" />
<polygon fill="#ede7d7" fill-opacity="0.501961" points="49,116 -16,94 131,94" />
<polygon fill="#fff5d8" fill-opacity="0.501961" points="265,96 213,111 168,95" />
<polygon fill="#5e626b" fill-opacity="0.501961" points="72,85 119,106 115,19" />
<polygon fill="#edfaf8" fill-opacity="0.501961" points="102,3 42,44 94,77" />
<polygon fill="#204248" fill-opacity="0.501961" points="-16,90 104,93 66,68" />
<polygon fill="#494342" fill-opacity="0.501961" points="235,143 -16,159 41,104" />
<polygon fill="#d5e7e7" fill-opacity="0.501961" points="252,1 113,58 254,74" />
<polygon fill="#bac7c2" fill-opacity="0.501961" points="176,37 152,112 107,107" />
<polygon fill="#000000" fill-opacity="0.501961" points="271,22 255,81 254,-16" />
<polygon fill="#233f43" fill-opacity="0.501961" points="203,70 271,92 153,93" />
<polygon fill="#000000" fill-opacity="0.501961" points="49,-1 -6,0 -11,-16" />
<polygon fill="#000000" fill-opacity="0.501961" points="1,70 2,-5 -16,7" />
<polygon fill="#655b62" fill-opacity="0.501961" points="101,106 234,103 271,153" />
<polygon fill="#000000" fill-opacity="0.501961" points="262,0 237,-16 196,0" />
<polygon fill="#000000" fill-opacity="0.501961" points="154,-1 103,-16 73,0" />
<polygon fill="#e2eaec" fill-opacity="0.501961" points="13,2 137,37 260,1" />
<polygon fill="#b6ccd2" fill-opacity="0.501961" points="92,53 106,82 99,115" />
<polygon fill="#e2f1ee" fill-opacity="0.501961" points="70,52 19,74 1,5" />
<polygon fill="#8d8886" fill-opacity="0.501961" points="66,127 -16,102 152,105" />
<polygon fill="#000000" fill-opacity="0.501961" points="-16,118 0,59 1,156" />
<polygon fill="#865d46" fill-opacity="0.501961" points="120,62 105,28 91,59" />
<polygon fill="#000000" fill-opacity="0.501961" points="271,0 168,-1 219,-16" />
<polygon fill="#1c306f" fill-opacity="0.501961" points="104,69 109,108 116,68" />
<polygon fill="#000000" fill-opacity="0.501961" points="217,0 161,-16 129,0" />
<polygon fill="#000000" fill-opacity="0.501961" points="256,80 271,127 253,158" />
<polygon fill="#585c5e" fill-opacity="0.501961" points="52,40 59,28 40,28" />
<polygon fill="#000000" fill-opacity="0.501961" points="81,-16 27,-1 129,0" />
<polygon fill="#cbd9d9" fill-opacity="0.501961" points="201,75 212,15 114,52" />
<polygon fill="#dde5e2" fill-opacity="0.501961" points="103,39 78,72 42,1" />
<polygon fill="#dcd9c3" fill-opacity="0.501961" points="46,108 -1,93 85,95" />
<polygon fill="#000000" fill-opacity="0.501961" points="255,-2 271,48 256,94" />
<polygon fill="#213265" fill-opacity="0.501961" points="110,71 121,59 133,66" />
<polygon fill="#454448" fill-opacity="0.501961" points="117,144 259,160 251,119" />
<polygon fill="#130402" fill-opacity="0.501961" points="100,38 104,30 113,31" />
<polygon fill="#000000" fill-opacity="0.501961" points="-16,34 -1,91 0,8" />
<polygon fill="#000000" fill-opacity="0.501961" points="27,143 80,160 140,143" />
<polygon fill="#d1ddd7" fill-opacity="0.501961" points="131,73 255,28 252,68" />
<polygon fill="#a1aaa7" fill-opacity="0.501961" points="151,53 108,104 168,112" />
<polygon fill="#384a46" fill-opacity="0.501961" points="181,69 204,91 160,87" />
<polygon fill="#3d4f4e" fill-opacity="0.501961" points="96,92 46,77 95,75" />
<polygon fill="#3a4f7f" fill-opacity="0.501961" points="105,45 81,63 100,57" />
<polygon fill="#d8cfbb" fill-opacity="0.501961" points="251,93 254,108 197,99" />
<polygon fill="#e1e7e6" fill-opacity="0.501961" points="78,8 1,52 2,5" />
<polygon fill="#35484d" fill-opacity="0.501961" points="233,92 247,69 263,96" />
<polygon fill="#f3fff7" fill-opacity="0.501961" points="92,74 100,56 82,69" />
<polygon fill="#41595e" fill-opacity="0.501961" points="-15,94 61,93 36,68" />
<polygon fill="#d0dbd4" fill-opacity="0.501961" points="86,72 86,23 4,63" />
<polygon fill="#566169" fill-opacity="0.501961" points="132,98 128,75 123,94" />
<polygon fill="#bbcccc" fill-opacity="0.501961" points="233,32 127,29 114,65" />
<polygon fill="#d3e5e2" fill-opacity="0.501961" points="118,69 151,69 122,77" />
<polygon fill="#000000" fill-opacity="0.501961" points="212,143 202,160 140,143" />
<polygon fill="#a36638" fill-opacity="0.501961" points="118,54 103,46 97,71" />
<polygon fill="#d6ccb9" fill-opacity="0.501961" points="138,100 180,107 195,94" />
<polygon fill="#857e7d" fill-opacity="0.501961" points="246,103 180,125 104,102" />
<polygon fill="#000000" fill-opacity="0.501961" points="79,-1 28,-16 -8,0" />
<polygon fill="#ebeef6" fill-opacity="0.501961" points="216,31 177,4 252,10" />
<polygon fill="#000000" fill-opacity="0.501961" points="255,58 256,152 271,114" />
<polygon fill="#a59f99" fill-opacity="0.501961" points="1,98 2,117 73,101" />
<polygon fill="#f3f7f9" fill-opacity="0.501961" points="68,24 128,29 77,5" />
<polygon fill="#3e3a35" fill-opacity="0.501961" points="37,159 -16,136 10,120" />
<polygon fill="#000000" fill-opacity="0.501961" points="2,94 -13,72 -1,134" />
<polygon fill="#f7f8d3" fill-opacity="0.501961" points="23,94 1,95 3,103" />
<polygon fill="#000000" fill-opacity="0.501961" points="251,144 197,160 146,143" />
<polygon fill="#3a5077" fill-opacity="0.501961" points="143,63 147,69 126,66" />
<polygon fill="#ccd1d1" fill-opacity="0.501961" points="182,1 117,46 108,3" />
<polygon fill="#e5dac6" fill-opacity="0.501961" points="112,104 133,101 114,97" />
<polygon fill="#52615d" fill-opacity="0.501961" points="63,79 55,67 14,90" />
<polygon fill="#4c5e88" fill-opacity="0.501961" points="106,124 116,78 100,108" />
<polygon fill="#000000" fill-opacity="0.501961" points="-7,144 67,143 55,160" />
<polygon fill="#3c5553" fill-opacity="0.501961" points="169,71 161,93 187,83" />
<polygon fill="#d5e0de" fill-opacity="0.501961" points="177,43 152,47 154,85" />
<polygon fill="#5b595d" fill-opacity="0.501961" points="254,142 139,143 195,112" />
<polygon fill="#e3deca" fill-opacity="0.501961" points="104,95 68,96 92,102" />
<polygon fill="#e0e5e3" fill-opacity="0.501961" points="47,39 101,26 101,44" />
<polygon fill="#000000" fill-opacity="0.501961" points="-1,-10 -15,-6 1,41" />
<polygon fill="#cdd5d1" fill-opacity="0.501961" points="35,20 91,2 2,3" />
<polygon fill="#62605f" fill-opacity="0.501961" points="18,116 84,137 150,120" />
<polygon fill="#314468" fill-opacity="0.501961" points="99,69 125,64 106,79" />
<polygon fill="#cdcfbb" fill-opacity="0.501961" points="190,106 232,94 156,94" />
<polygon fill="#bdcdd1" fill-opacity="0.501961" points="255,60 200,29 252,31" />
<polygon fill="#b5beb4" fill-opacity="0.501961" points="213,77 222,63 253,67" />
<polygon fill="#354d4c" fill-opacity="0.501961" points="31,75 2,75 5,93" />
<polygon fill="#c3d7d6" fill-opacity="0.501961" points="98,67 107,91 83,61" />
<polygon fill="#000000" fill-opacity="0.501961" points="255,-5 271,38 255,97" />
<polygon fill="#485169" fill-opacity="0.501961" points="123,49 105,48 117,43" />
<polygon fill="#523924" fill-opacity="0.501961" points="112,29 113,43 108,29" />
<polygon fill="#ced7ce" fill-opacity="0.501961" points="1,53 68,49 1,73" />
<polygon fill="#c2d1ce" fill-opacity="0.501961" points="102,40 145,29 181,42" />
<polygon fill="#b6d7cd" fill-opacity="0.501961" points="115,81 123,84 123,95" />
<polygon fill="#ced8d2" fill-opacity="0.501961" points="130,25 147,55 116,60" />
<polygon fill="#e0eaeb" fill-opacity="0.501961" points="43,12 2,46 46,51" />
<polygon fill="#000000" fill-opacity="0.501961" points="-16,76 0,19 1,136" />
<polygon fill="#dae0cc" fill-opacity="0.501961" points="157,83 159,99 161,86" />
<polygon fill="#729095" fill-opacity="0.501961" points="126,75 154,80 108,84" />
<polygon fill="#acb6ad" fill-opacity="0.501961" points="242,76 243,62 237,75" />
<polygon fill="#000000" fill-opacity="0.501961" points="76,0 177,0 132,-16" />
<polygon fill="#dce3e1" fill-opacity="0.501961" points="31,72 19,73 18,50" />
<polygon fill="#867e7d" fill-opacity="0.501961" points="176,102 222,118 249,107" />
<polygon fill="#838f8d" fill-opacity="0.501961" points="10,78 17,70 1,69" />
<polygon fill="#7a9c85" fill-opacity="0.501961" points="78,75 70,66 51,74" />
<polygon fill="#607f73" fill-opacity="0.501961" points="183,75 169,70 152,80" />
<polygon fill="#3b5254" fill-opacity="0.501961" points="211,86 245,95 236,73" />
<polygon fill="#f7f4d0" fill-opacity="0.501961" points="20,100 38,95 14,95" />
<polygon fill="#696c6e" fill-opacity="0.501961" points="55,35 43,36 50,26" />
<polygon fill="#ccd0cd" fill-opacity="0.501961" points="68,1 117,1 114,17" />
<polygon fill="#000000" fill-opacity="0.501961" points="48,143 108,160 161,143" />
<polygon fill="#63677c" fill-opacity="0.501961" points="109,60 132,69 132,60" />
<polygon fill="#94a1a4" fill-opacity="0.501961" points="152,59 136,64 147,65" />
<polygon fill="#4c5c69" fill-opacity="0.501961" points="100,69 96,64 111,61" />
<polygon fill="#465d64" fill-opacity="0.501961" points="158,81 175,96 184,92" />
<polygon fill="#f4efd1" fill-opacity="0.501961" points="200,96 216,101 231,96" />
<polygon fill="#d5dfda" fill-opacity="0.501961" points="37,18 56,60 40,73" />
<polygon fill="#dae1e4" fill-opacity="0.501961" points="190,3 127,30 233,31" />
<polygon fill="#b3bcc2" fill-opacity="0.501961" points="109,62 121,62 99,70" />
<polygon fill="#000000" fill-opacity="0.501961" points="189,144 234,156 271,143" />
<polygon fill="#dde7e6" fill-opacity="0.501961" points="180,52 188,74 235,44" />
<polygon fill="#b6bbac" fill-opacity="0.501961" points="254,61 254,78 246,66" />
<polygon fill="#706e73" fill-opacity="0.501961" points="93,112 125,128 174,111" />
<polygon fill="#dde5dd" fill-opacity="0.501961" points="253,66 253,49 196,46" />
<polygon fill="#d7dada" fill-opacity="0.501961" points="38,15 105,28 85,48" />
<polygon fill="#8a8582" fill-opacity="0.501961" points="43,102 80,108 11,115" />
<polygon fill="#ffffff" fill-opacity="0.501961" points="51,33 51,30 52,32" />
<polygon fill="#4f6975" fill-opacity="0.501961" points="145,60 149,58 147,64" />
<polygon fill="#5b7b71" fill-opacity="0.501961" points="201,79 193,79 196,69" />
<polygon fill="#58544f" fill-opacity="0.501961" points="75,140 2,143 1,115" />
<polygon fill="#455275" fill-opacity="0.501961" points="86,59 101,55 104,42" />
<polygon fill="#cad7d3" fill-opacity="0.501961" points="35,56 60,41 65,71" />
<polygon fill="#b8784b" fill-opacity="0.501961" points="102,46 115,54 108,65" />
<polygon fill="#c9d6d2" fill-opacity="0.501961" points="190,54 178,70 141,65" />
<polygon fill="#eef5f1" fill-opacity="0.501961" points="29,21 2,1 2,22" />
<polygon fill="#dbe2de" fill-opacity="0.501961" points="86,78 101,56 86,64" />
<polygon fill="#acbbbf" fill-opacity="0.501961" points="131,75 116,77 115,71" />
<polygon fill="#c6d2cd" fill-opacity="0.501961" points="232,63 202,72 172,63" />
<polygon fill="#eaeef5" fill-opacity="0.501961" points="209,17 253,19 253,2" />
<polygon fill="#303349" fill-opacity="0.501961" points="111,42 116,42 113,45" />
<polygon fill="#e8f2f5" fill-opacity="0.501961" points="53,39 7,33 3,48" />
<polygon fill="#dee2db" fill-opacity="0.501961" points="13,64 2,59 6,73" />
<polygon fill="#33416e" fill-opacity="0.501961" points="138,66 129,68 122,64" />
<polygon fill="#434147" fill-opacity="0.501961" points="106,50 104,41 114,48" />
<polygon fill="#d0c7bb" fill-opacity="0.501961" points="149,103 123,103 145,97" />
<polygon fill="#000000" fill-opacity="0.501961" points="0,147 0,64 -16,109" />
<polygon fill="#5a6146" fill-opacity="0.501961" points="70,82 83,71 87,74" />
<polygon fill="#9fb4b8" fill-opacity="0.501961" points="164,82 147,83 151,69" />
<polygon fill="#ebefeb" fill-opacity="0.501961" points="115,14 116,32 107,26" />
<polygon fill="#afafab" fill-opacity="0.501961" points="81,108 102,105 106,88" />
<polygon fill="#000000" fill-opacity="0.501961" points="1,0 -1,65 -16,37" />
<polygon fill="#392e2e" fill-opacity="0.501961" points="101,38 111,30 105,29" />
<polygon fill="#d5dbd9" fill-opacity="0.501961" points="70,1 9,2 33,35" />
<polygon fill="#000000" fill-opacity="0.501961" points="123,0 211,-1 166,-16" />
<polygon fill="#bcccce" fill-opacity="0.501961" points="195,50 246,33 129,30" />
<polygon fill="#696469" fill-opacity="0.501961" points="127,84 130,91 121,99" />
<polygon fill="#4f5f86" fill-opacity="0.501961" points="102,124 113,93 105,85" />
<polygon fill="#ddd3c3" fill-opacity="0.501961" points="67,104 86,96 41,95" />
<polygon fill="#77706c" fill-opacity="0.501961" points="62,113 27,122 1,111" />
<polygon fill="#4a585f" fill-opacity="0.501961" points="11,91 13,70 27,92" />
<polygon fill="#3e4a53" fill-opacity="0.501961" points="253,80 243,72 255,98" />
<polygon fill="#000000" fill-opacity="0.501961" points="100,-1 41,-16 36,0" />
<polygon fill="#000000" fill-opacity="0.501961" points="267,119 256,147 255,87" />
<polygon fill="#efe3cb" fill-opacity="0.501961" points="253,96 245,99 254,102" />
<polygon fill="#fdf9d9" fill-opacity="0.501961" points="238,100 224,96 251,96" />
<polygon fill="#4d6b66" fill-opacity="0.501961" points="227,79 219,71 218,95" />
<polygon fill="#adb8b3" fill-opacity="0.501961" points="183,64 175,76 174,60" />
<polygon fill="#000000" fill-opacity="0.501961" points="255,85 255,-11 271,32" />
<polygon fill="#b7d2d0" fill-opacity="0.501961" points="137,84 142,72 143,96" />
<polygon fill="#415160" fill-opacity="0.501961" points="48,92 95,80 95,93" />
<polygon fill="#696064" fill-opacity="0.501961" points="241,118 254,140 254,105" />
<polygon fill="#759392" fill-opacity="0.501961" points="138,83 138,99 134,87" />
<polygon fill="#fcffed" fill-opacity="0.501961" points="149,86 151,90 150,96" />
<polygon fill="#9e9a90" fill-opacity="0.501961" points="43,105 1,100 1,113" />
<polygon fill="#dce7e0" fill-opacity="0.501961" points="71,70 89,24 87,69" />
<polygon fill="#3f4b53" fill-opacity="0.501961" points="212,71 222,89 193,94" />
<polygon fill="#aea698" fill-opacity="0.501961" points="213,99 198,105 230,104" />
<polygon fill="#e8c493" fill-opacity="0.501961" points="111,36 106,39 109,44" />
<polygon fill="#535757" fill-opacity="0.501961" points="47,36 52,37 45,29" />
<polygon fill="#838f64" fill-opacity="0.501961" points="51,77 56,70 51,64" />
<polygon fill="#c7dad3" fill-opacity="0.501961" points="66,41 103,41 90,49" />
<polygon fill="#42585a" fill-opacity="0.501961" points="251,91 226,90 233,70" />
<polygon fill="#595556" fill-opacity="0.501961" points="239,143 170,120 100,143" />
<polygon fill="#b1c0be" fill-opacity="0.501961" points="197,49 194,72 199,64" />
<polygon fill="#000000" fill-opacity="0.501961" points="35,-1 27,-11 -4,0" />
<polygon fill="#767073" fill-opacity="0.501961" points="193,124 169,105 252,111" />
<polygon fill="#d2d6cd" fill-opacity="0.501961" points="239,62 225,63 242,75" />
<polygon fill="#b2babb" fill-opacity="0.501961" points="232,6 217,0 248,0" />
<polygon fill="#bdcac4" fill-opacity="0.501961" points="224,60 217,77 219,47" />
<polygon fill="#344d4a" fill-opacity="0.501961" points="161,75 171,74 172,83" />
<polygon fill="#3a4d55" fill-opacity="0.501961" points="51,84 63,72 74,94" />
<polygon fill="#4b587b" fill-opacity="0.501961" points="102,69 116,72 125,62" />
<polygon fill="#5d7473" fill-opacity="0.501961" points="140,78 138,81 133,79" />
<polygon fill="#000000" fill-opacity="0.501961" points="42,144 16,160 0,143" />
<polygon fill="#000000" fill-opacity="0.501961" points="190,0 188,-16 248,-1" />
<polygon fill="#b7c3c3" fill-opacity="0.501961" points="244,32 236,37 243,57" />
<polygon fill="#f2ffff" fill-opacity="0.501961" points="99,58 97,59 97,63" />
<polygon fill="#e1ebec" fill-opacity="0.501961" points="47,35 8,52 2,34" />
<polygon fill="#6d8b83" fill-opacity="0.501961" points="30,68 32,80 37,70" />
<polygon fill="#c2cfca" fill-opacity="0.501961" points="130,79 123,68 138,69" />
<polygon fill="#74857c" fill-opacity="0.501961" points="192,75 207,71 200,77" />
<polygon fill="#35455f" fill-opacity="0.501961" points="107,76 98,72 125,67" />
<polygon fill="#a66e46" fill-opacity="0.501961" points="116,60 114,48 99,56" />
<polygon fill="#c3d0d0" fill-opacity="0.501961" points="118,29 145,61 164,39" />
<polygon fill="#d6e0db" fill-opacity="0.501961" points="63,50 58,71 97,42" />
<polygon fill="#8a8180" fill-opacity="0.501961" points="253,114 253,103 227,109" />
<polygon fill="#e9e2cc" fill-opacity="0.501961" points="28,98 45,95 47,100" />
<polygon fill="#b8c9ce" fill-opacity="0.501961" points="105,92 96,102 103,76" />
<polygon fill="#57524e" fill-opacity="0.501961" points="39,142 125,142 52,119" />
<polygon fill="#ebf1f4" fill-opacity="0.501961" points="108,29 55,16 81,10" />
<polygon fill="#d4dfdd" fill-opacity="0.501961" points="166,40 144,72 192,57" />
<polygon fill="#d3dfd9" fill-opacity="0.501961" points="123,46 150,52 117,54" />
<polygon fill="#d2b997" fill-opacity="0.501961" points="108,45 107,34 110,36" />
<polygon fill="#d3d7d7" fill-opacity="0.501961" points="15,33 3,19 43,30" />
<polygon fill="#483834" fill-opacity="0.501961" points="115,36 107,31 114,31" />
<polygon fill="#e7e5c9" fill-opacity="0.501961" points="190,101 182,96 201,97" />
<polygon fill="#726f6a" fill-opacity="0.501961" points="243,69 250,73 241,77" />
<polygon fill="#97918f" fill-opacity="0.501961" points="101,103 56,102 80,111" />
<polygon fill="#3a362b" fill-opacity="0.501961" points="102,36 106,43 104,35" />
<polygon fill="#cfddd8" fill-opacity="0.501961" points="126,52 123,24 114,35" />
<polygon fill="#8da39e" fill-opacity="0.501961" points="85,76 90,72 100,79" />
<polygon fill="#93a4a5" fill-opacity="0.501961" points="152,88 167,97 151,97" />
<polygon fill="#54697c" fill-opacity="0.501961" points="137,67 148,64 146,70" />
<polygon fill="#4c6167" fill-opacity="0.501961" points="203,85 237,93 182,95" />
<polygon fill="#394748" fill-opacity="0.501961" points="228,88 195,92 205,78" />
<polygon fill="#98968e" fill-opacity="0.501961" points="143,104 113,102 109,111" />
<polygon fill="#c5cec4" fill-opacity="0.501961" points="156,97 162,91 157,87" />
<polygon fill="#575a5c" fill-opacity="0.501961" points="49,25 54,32 52,25" />
<polygon fill="#abb7b9" fill-opacity="0.501961" points="148,44 151,32 152,55" />
<polygon fill="#4b5b5b" fill-opacity="0.501961" points="91,94 64,90 82,71" />
<polygon fill="#746d6a" fill-opacity="0.501961" points="16,119 3,123 1,109" />
<polygon fill="#c4cfd7" fill-opacity="0.501961" points="246,32 255,51 253,25" />
<polygon fill="#d2d9d7" fill-opacity="0.501961" points="32,40 16,73 33,68" />
<polygon fill="#799797" fill-opacity="0.501961" points="143,86 149,94 145,76" />
<polygon fill="#40584e" fill-opacity="0.501961" points="10,87 1,70 1,85" />
<polygon fill="#576686" fill-opacity="0.501961" points="107,83 105,101 119,87" />
<polygon fill="#dde4e2" fill-opacity="0.501961" points="153,80 160,86 153,86" />
<polygon fill="#cad7d4" fill-opacity="0.501961" points="44,71 50,41 71,53" />
<polygon fill="#b6ab9e" fill-opacity="0.501961" points="230,103 254,105 248,99" />
<polygon fill="#455454" fill-opacity="0.501961" points="166,92 197,78 160,84" />
<polygon fill="#ccd1ca" fill-opacity="0.501961" points="1,1 34,18 25,1" />
<polygon fill="#ced7d1" fill-opacity="0.501961" points="68,50 57,58 92,54" />
<polygon fill="#a9bdb3" fill-opacity="0.501961" points="111,105 114,92 126,84" />
<polygon fill="#8c8c8e" fill-opacity="0.501961" points="99,108 105,117 92,106" />
<polygon fill="#c3cdc7" fill-opacity="0.501961" points="161,71 137,64 157,64" />
<polygon fill="#a67651" fill-opacity="0.501961" points="107,60 117,63 101,42" />
<polygon fill="#646363" fill-opacity="0.501961" points="100,112 56,124 95,131" />
<polygon fill="#5e867f" fill-opacity="0.501961" points="157,80 165,79 169,72" />
<polygon fill="#668687" fill-opacity="0.501961" points="243,86 244,75 240,76" />
<polygon fill="#999da5" fill-opacity="0.501961" points="121,63 128,59 133,61" />
<polygon fill="#dfeae6" fill-opacity="0.501961" points="70,61 101,42 81,64" />
<polygon fill="#a09da3" fill-opacity="0.501961" points="133,100 126,95 150,95" />
<polygon fill="#cbd7d0" fill-opacity="0.501961" points="170,62 165,73 142,51" />
<polygon fill="#b3b5b0" fill-opacity="0.501961" points="244,71 247,69 242,62" />
<polygon fill="#cfd2d1" fill-opacity="0.501961" points="189,0 119,20 73,0" />
<polygon fill="#4c6d6e" fill-opacity="0.501961" points="68,67 66,81 76,90" />
<polygon fill="#53638f" fill-opacity="0.501961" points="102,73 109,69 100,70" />
<polygon fill="#b3b7b9" fill-opacity="0.501961" points="115,47 125,44 114,44" />
<polygon fill="#dad8c0" fill-opacity="0.501961" points="8,102 37,97 1,93" />
<polygon fill="#2b2a28" fill-opacity="0.501961" points="1,6 2,36 -6,10" />
<polygon fill="#495962" fill-opacity="0.501961" points="12,85 58,73 46,93" />
<polygon fill="#545864" fill-opacity="0.501961" points="210,138 216,120 254,137" />
<polygon fill="#7f806e" fill-opacity="0.501961" points="179,66 189,75 187,79" />
<polygon fill="#6f8284" fill-opacity="0.501961" points="123,82 129,70 128,81" />
<polygon fill="#000000" fill-opacity="0.501961" points="-16,24 -1,66 0,-6" />
<polygon fill="#4e5978" fill-opacity="0.501961" points="97,57 90,56 85,62" />
<polygon fill="#c6d0c9" fill-opacity="0.501961" points="10,38 16,53 13,66" />
<polygon fill="#bbd3cb" fill-opacity="0.501961" points="134,84 142,82 145,85" />
<polygon fill="#d9dbdb" fill-opacity="0.501961" points="99,29 57,28 103,42" />
<polygon fill="#5f5e61" fill-opacity="0.501961" points="140,134 97,119 180,123" />
<polygon fill="#4d534e" fill-opacity="0.501961" points="180,71 180,83 191,79" />
<polygon fill="#546163" fill-opacity="0.501961" points="11,80 16,69 16,88" />
<polygon fill="#e2e8eb" fill-opacity="0.501961" points="213,8 245,2 234,26" />
<polygon fill="#b7c7c4" fill-opacity="0.501961" points="128,54 132,31 124,31" />
<polygon fill="#b1bdbf" fill-opacity="0.501961" points="173,54 175,45 176,59" />
<polygon fill="#869db0" fill-opacity="0.501961" points="103,93 96,79 98,96" />
<polygon fill="#39474c" fill-opacity="0.501961" points="43,81 13,75 14,83" />
<polygon fill="#ccd6d1" fill-opacity="0.501961" points="230,70 218,59 228,75" />
<polygon fill="#716d71" fill-opacity="0.501961" points="165,126 114,112 211,112" />
<polygon fill="#dbe9ed" fill-opacity="0.501961" points="52,55 55,38 80,36" />
<polygon fill="#dee6e5" fill-opacity="0.501961" points="198,45 198,68 224,58" />
<polygon fill="#909394" fill-opacity="0.501961" points="232,126 231,121 229,121" />
<polygon fill="#dbe8e8" fill-opacity="0.501961" points="175,49 185,53 176,69" />
<polygon fill="#637777" fill-opacity="0.501961" points="179,71 173,89 173,78" />
<polygon fill="#837c7d" fill-opacity="0.501961" points="193,106 155,105 148,117" />
<polygon fill="#6a7c85" fill-opacity="0.501961" points="236,91 238,94 227,93" />
<polygon fill="#52696b" fill-opacity="0.501961" points="211,73 222,93 221,83" />
<polygon fill="#727370" fill-opacity="0.501961" points="244,71 250,71 253,77" />
<polygon fill="#384763" fill-opacity="0.501961" points="100,69 102,75 112,77" />
<polygon fill="#dbe7e7" fill-opacity="0.501961" points="184,72 183,52 191,51" />
<polygon fill="#aec3be" fill-opacity="0.501961" points="120,90 127,83 120,79" />
<polygon fill="#6b739d" fill-opacity="0.501961" points="209,91 211,93 210,88" />
<polygon fill="#546e82" fill-opacity="0.501961" points="147,68 146,65 138,65" />
<polygon fill="#3c3f41" fill-opacity="0.501961" points="56,31 56,28 54,28" />
<polygon fill="#adb1b2" fill-opacity="0.501961" points="50,32 51,36 57,27" />
<polygon fill="#cbc6b8" fill-opacity="0.501961" points="168,95 153,103 188,102" />
<polygon fill="#303c55" fill-opacity="0.501961" points="105,64 100,67 102,62" />
<polygon fill="#7c7773" fill-opacity="0.501961" points="76,107 51,113 103,116" />
<polygon fill="#ccd8d5" fill-opacity="0.501961" points="125,68 117,72 122,75" />
<polygon fill="#d5d7d9" fill-opacity="0.501961" points="59,33 51,14 92,32" />
<polygon fill="#b1774e" fill-opacity="0.501961" points="97,63 114,51 109,60" />
<polygon fill="#4f5054" fill-opacity="0.501961" points="254,136 238,143 254,121" />
<polygon fill="#000001" fill-opacity="0.501961" points="271,157 271,47 255,99" />
<polygon fill="#ebf2ef" fill-opacity="0.501961" points="10,6 39,25 14,18" />
<polygon fill="#405454" fill-opacity="0.501961" points="172,74 174,91 161,94" />
<polygon fill="#a8bcc5" fill-opacity="0.501961" points="113,65 98,65 103,68" />
<polygon fill="#515c83" fill-opacity="0.501961" points="97,112 107,109 115,90" />
<polygon fill="#526668" fill-opacity="0.501961" points="29,89 13,83 35,82" />
<polygon fill="#53504c" fill-opacity="0.501961" points="68,142 13,121 15,141" />
<polygon fill="#504f4b" fill-opacity="0.501961" points="96,124 113,121 94,119" />
<polygon fill="#000000" fill-opacity="0.501961" points="255,6 271,22 255,73" />
<polygon fill="#2c3d5b" fill-opacity="0.501961" points="121,64 118,70 125,66" />
<polygon fill="#b2aeaa" fill-opacity="0.501961" points="33,99 19,104 3,99" />
<polygon fill="#56796d" fill-opacity="0.501961" points="44,78 34,75 37,68" />
<polygon fill="#ccd6d4" fill-opacity="0.501961" points="111,41 131,17 128,39" />
<polygon fill="#678874" fill-opacity="0.501961" points="25,72 31,74 23,76" />
<polygon fill="#d1dcd7" fill-opacity="0.501961" points="126,47 119,57 117,50" />
<polygon fill="#cac7b9" fill-opacity="0.501961" points="71,98 102,103 99,94" />
<polygon fill="#aeb5b8" fill-opacity="0.501961" points="208,0 226,0 217,3" />
<polygon fill="#a0a08a" fill-opacity="0.501961" points="160,90 162,86 161,91" />
<polygon fill="#b3c6c3" fill-opacity="0.501961" points="215,32 220,53 221,30" />
<polygon fill="#d3dde4" fill-opacity="0.501961" points="222,28 178,32 177,15" />
<polygon fill="#868281" fill-opacity="0.501961" points="165,107 213,104 194,113" />
<polygon fill="#dde4e7" fill-opacity="0.501961" points="194,25 225,1 178,1" />
<polygon fill="#dce7df" fill-opacity="0.501961" points="37,64 50,63 42,73" />
<polygon fill="#718287" fill-opacity="0.501961" points="147,75 148,83 142,80" />
<polygon fill="#444d5a" fill-opacity="0.501961" points="101,68 99,68 99,62" />
<polygon fill="#646e75" fill-opacity="0.501961" points="206,72 217,81 215,72" />
<polygon fill="#e7ecea" fill-opacity="0.501961" points="111,29 107,21 127,31" />
<polygon fill="#807e7e" fill-opacity="0.501961" points="122,60 109,64 113,59" />
<polygon fill="#618283" fill-opacity="0.501961" points="236,72 230,78 225,77" />
<polygon fill="#54504b" fill-opacity="0.501961" points="175,141 123,127 120,142" />
<polygon fill="#c8d3d0" fill-opacity="0.501961" points="151,34 149,49 113,62" />
<polygon fill="#40606f" fill-opacity="0.501961" points="151,58 148,58 146,62" />
<polygon fill="#b8c2bb" fill-opacity="0.501961" points="52,50 50,61 54,64" />
<polygon fill="#434748" fill-opacity="0.501961" points="47,29 47,32 52,36" />
<polygon fill="#c9d8d2" fill-opacity="0.501961" points="216,71 216,76 220,71" />
<polygon fill="#333e55" fill-opacity="0.501961" points="107,84 110,70 105,75" />
<polygon fill="#dbe4df" fill-opacity="0.501961" points="218,39 213,71 201,47" />
<polygon fill="#000202" fill-opacity="0.501961" points="216,0 269,-16 265,0" />
<polygon fill="#9d968d" fill-opacity="0.501961" points="102,103 84,108 101,108" />
<polygon fill="#cdd1cf" fill-opacity="0.501961" points="37,36 26,28 46,33" />
<polygon fill="#3e4f53" fill-opacity="0.501961" points="241,77 239,92 222,83" />
<polygon fill="#916444" fill-opacity="0.501961" points="116,48 115,58 104,66" />
<polygon fill="#b9d9cd" fill-opacity="0.501961" points="193,75 193,71 192,72" />
<polygon fill="#595757" fill-opacity="0.501961" points="16,75 12,69 15,78" />
<polygon fill="#5b6388" fill-opacity="0.501961" points="110,74 112,96 116,76" />
<polygon fill="#d5d8d6" fill-opacity="0.501961" points="80,6 155,31 161,10" />
<polygon fill="#000000" fill-opacity="0.501961" points="-16,107 0,154 0,80" />
<polygon fill="#6d8d85" fill-opacity="0.501961" points="116,89 120,97 118,86" />
<polygon fill="#8e8c84" fill-opacity="0.501961" points="121,103 108,111 110,104" />
</g>
</svg>