<svg xmlns="http://www.w3.org/2000/svg" version="1.1" width="1024" height="580">
<rect x="0" y="0" width="1024" height="580" fill="#7490bb" />
<g transform="scale(4.000000) translate(0.5 0.5)">
<polygon fill="#000059" fill-opacity="0.501961" points="46,109 198,-16 -16,1" />
<polygon fill="#efffff" fill-opacity="0.501961" points="177,38 -16,136 271,127" />
<polygon fill="#ffffff" fill-opacity="0.501961" points="161,7 238,14 141,58" />
<polygon fill="#0b2786" fill-opacity="0.501961" points="-16,69 175,79 22,-16" />
<polygon fill="#09399a" fill-opacity="0.501961" points="262,-5 181,73 271,75" />
<polygon fill="#f2ffff" fill-opacity="0.501961" points="2,74 7,160 45,85" />
<polygon fill="#ffffff" fill-opacity="0.501961" points="172,87 271,77 165,160" />
<polygon fill="#fffff4" fill-opacity="0.501961" points="51,89 66,160 139,114" />
<polygon fill="#023c50" fill-opacity="0.501961" points="49,117 72,160 16,159" />
<polygon fill="#00125f" fill-opacity="0.501961" points="249,11 143,-1 238,-16" />
<polygon fill="#387ebc" fill-opacity="0.501961" points="162,117 134,89 130,160" />
<polygon fill="#0e2788" fill-opacity="0.501961" points="147,-16 72,93 147,47" />
<polygon fill="#000000" fill-opacity="0.501961" points="252,152 256,63 271,129" />
<polygon fill="#ffffff" fill-opacity="0.501961" points="115,67 138,72 76,112" />
<polygon fill="#e4ffff" fill-opacity="0.501961" points="213,8 167,12 232,43" />
<polygon fill="#5298dc" fill-opacity="0.501961" points="229,31 112,92 230,71" />
<polygon fill="#b1ae96" fill-opacity="0.501961" points="83,128 53,155 162,133" />
<polygon fill="#0e3265" fill-opacity="0.501961" points="271,135 154,144 238,160" />
<polygon fill="#fdffff" fill-opacity="0.501961" points="147,31 154,74 181,2" />
<polygon fill="#447bb5" fill-opacity="0.501961" points="49,76 82,90 -16,120" />
<polygon fill="#ffffff" fill-opacity="0.501961" points="27,143 -3,141 28,103" />
<polygon fill="#4698d5" fill-opacity="0.501961" points="159,44 197,23 234,47" />
<polygon fill="#141e6a" fill-opacity="0.501961" points="229,59 270,-16 271,60" />
<polygon fill="#000000" fill-opacity="0.501961" points="-1,99 -16,51 1,2" />
<polygon fill="#000000" fill-opacity="0.501961" points="60,143 89,160 148,144" />
<polygon fill="#13466f" fill-opacity="0.501961" points="33,118 34,133 46,120" />
<polygon fill="#ffffff" fill-opacity="0.501961" points="4,100 2,76 34,86" />
<polygon fill="#000000" fill-opacity="0.501961" points="2,149 -1,81 -12,127" />
<polygon fill="#000000" fill-opacity="0.501961" points="39,160 96,143 -16,143" />
<polygon fill="#e2f9f2" fill-opacity="0.501961" points="218,68 237,124 144,143" />
<polygon fill="#f3fffd" fill-opacity="0.501961" points="201,10 145,65 158,18" />
<polygon fill="#3f98da" fill-opacity="0.501961" points="99,91 108,109 135,92" />
<polygon fill="#fcffff" fill-opacity="0.501961" points="131,124 67,132 87,88" />
<polygon fill="#334b9f" fill-opacity="0.501961" points="92,8 160,79 104,60" />
<polygon fill="#6ab4e4" fill-opacity="0.501961" points="229,142 177,143 257,107" />
<polygon fill="#f2ffff" fill-opacity="0.501961" points="202,92 164,80 122,93" />
<polygon fill="#1f3f98" fill-opacity="0.501961" points="-1,42 40,99 41,55" />
<polygon fill="#b0e5f8" fill-opacity="0.501961" points="252,81 183,103 255,106" />
<polygon fill="#000000" fill-opacity="0.501961" points="157,160 133,143 216,144" />
<polygon fill="#ffffff" fill-opacity="0.501961" points="108,137 125,143 95,142" />
<polygon fill="#190c00" fill-opacity="0.501961" points="254,-16 271,43 254,94" />
<polygon fill="#1b3167" fill-opacity="0.501961" points="50,-1 202,-16 153,17" />
<polygon fill="#d4c5e3" fill-opacity="0.501961" points="43,85 46,79 65,89" />
<polygon fill="#faffff" fill-opacity="0.501961" points="139,78 127,69 89,89" />
<polygon fill="#40a3df" fill-opacity="0.501961" points="164,93 172,107 143,107" />
<polygon fill="#277fc6" fill-opacity="0.501961" points="179,79 189,86 202,77" />
<polygon fill="#1d69c2" fill-opacity="0.501961" points="158,83 125,66 169,68" />
<polygon fill="#a3b6cd" fill-opacity="0.501961" points="104,29 94,14 120,36" />
<polygon fill="#132c88" fill-opacity="0.501961" points="138,66 147,-1 115,69" />
<polygon fill="#a0a399" fill-opacity="0.501961" points="183,143 136,132 182,130" />
<polygon fill="#000000" fill-opacity="0.501961" points="254,0 161,0 219,-16" />
<polygon fill="#eafffd" fill-opacity="0.501961" points="143,52 185,47 147,69" />
<polygon fill="#000000" fill-opacity="0.501961" points="2,127 0,37 -16,101" />
<polygon fill="#4572c4" fill-opacity="0.501961" points="254,21 254,4 194,5" />
<polygon fill="#4775b4" fill-opacity="0.501961" points="203,2 159,0 187,11" />
<polygon fill="#223683" fill-opacity="0.501961" points="96,17 3,-16 1,77" />
<polygon fill="#4c344c" fill-opacity="0.501961" points="38,93 66,88 45,102" />
<polygon fill="#f6ffff" fill-opacity="0.501961" points="25,75 12,106 3,81" />
<polygon fill="#3c7ac9" fill-opacity="0.501961" points="254,143 199,135 251,125" />
<polygon fill="#7eb9d2" fill-opacity="0.501961" points="50,102 70,119 11,101" />
<polygon fill="#fffffb" fill-opacity="0.501961" points="215,67 194,89 200,124" />
<polygon fill="#466cb9" fill-opacity="0.501961" points="191,53 214,30 238,84" />
<polygon fill="#88b5e3" fill-opacity="0.501961" points="232,42 221,21 220,75" />
<polygon fill="#f6fff8" fill-opacity="0.501961" points="33,142 0,142 24,104" />
<polygon fill="#000000" fill-opacity="0.501961" points="93,0 79,-16 22,-1" />
<polygon fill="#3678bc" fill-opacity="0.501961" points="156,128 154,112 122,133" />
<polygon fill="#368bd2" fill-opacity="0.501961" points="3,103 20,110 2,119" />
<polygon fill="#6b6168" fill-opacity="0.501961" points="62,146 49,124 52,110" />
<polygon fill="#000000" fill-opacity="0.501961" points="191,143 219,160 263,143" />
<polygon fill="#000000" fill-opacity="0.501961" points="254,105 256,134 271,75" />
<polygon fill="#000000" fill-opacity="0.501961" points="-15,150 3,160 -2,103" />
<polygon fill="#000000" fill-opacity="0.501961" points="52,143 80,160 140,144" />
<polygon fill="#67c1e2" fill-opacity="0.501961" points="160,49 181,26 173,49" />
<polygon fill="#1f3493" fill-opacity="0.501961" points="242,7 230,46 241,67" />
<polygon fill="#1b44a9" fill-opacity="0.501961" points="47,66 63,94 92,83" />
<polygon fill="#f1fdf9" fill-opacity="0.501961" points="238,102 161,125 243,123" />
<polygon fill="#52a5ca" fill-opacity="0.501961" points="25,140 54,138 47,119" />
<polygon fill="#8fc2ee" fill-opacity="0.501961" points="125,77 131,123 152,106" />
<polygon fill="#d5fcfd" fill-opacity="0.501961" points="213,80 253,81 254,96" />
<polygon fill="#d8fbf9" fill-opacity="0.501961" points="107,75 60,144 66,104" />
<polygon fill="#bbdcf2" fill-opacity="0.501961" points="173,75 175,61 193,78" />
<polygon fill="#ecfffe" fill-opacity="0.501961" points="214,31 194,8 223,21" />
<polygon fill="#98c9ea" fill-opacity="0.501961" points="248,76 209,113 215,92" />
<polygon fill="#2847a0" fill-opacity="0.501961" points="93,66 41,84 4,67" />
<polygon fill="#000000" fill-opacity="0.501961" points="74,143 31,160 -16,143" />
<polygon fill="#caeae3" fill-opacity="0.501961" points="176,137 143,139 160,143" />
<polygon fill="#7b619b" fill-opacity="0.501961" points="114,71 111,24 105,48" />
<polygon fill="#f3fffe" fill-opacity="0.501961" points="143,94 166,82 151,101" />
<polygon fill="#000000" fill-opacity="0.501961" points="0,55 1,-9 -16,1" />
<polygon fill="#6ab7de" fill-opacity="0.501961" points="253,113 223,126 253,100" />
<polygon fill="#f5fefd" fill-opacity="0.501961" points="25,106 2,125 37,111" />
<polygon fill="#7dc8f0" fill-opacity="0.501961" points="25,92 45,105 3,109" />
<polygon fill="#e8ffff" fill-opacity="0.501961" points="67,134 70,142 97,141" />
<polygon fill="#4790c5" fill-opacity="0.501961" points="213,61 172,61 231,77" />
<polygon fill="#4486ca" fill-opacity="0.501961" points="154,13 144,32 176,1" />
<polygon fill="#000000" fill-opacity="0.501961" points="255,143 255,45 269,94" />
<polygon fill="#54a6db" fill-opacity="0.501961" points="142,65 180,86 164,64" />
<polygon fill="#243788" fill-opacity="0.501961" points="68,2 43,80 136,51" />
<polygon fill="#201600" fill-opacity="0.501961" points="108,-1 152,1 175,-16" />
<polygon fill="#989697" fill-opacity="0.501961" points="71,139 105,137 77,130" />
<polygon fill="#216fc7" fill-opacity="0.501961" points="224,73 253,69 232,82" />
<polygon fill="#b4fcff" fill-opacity="0.501961" points="19,74 27,80 8,75" />
<polygon fill="#f6faf8" fill-opacity="0.501961" points="93,86 122,70 124,90" />
<polygon fill="#4f81c3" fill-opacity="0.501961" points="108,70 116,62 138,69" />
<polygon fill="#000000" fill-opacity="0.501961" points="48,-1 -10,-16 -8,0" />
<polygon fill="#000000" fill-opacity="0.501961" points="167,0 134,-15 82,0" />
<polygon fill="#000000" fill-opacity="0.501961" points="271,43 256,-16 255,30" />
<polygon fill="#91b3c9" fill-opacity="0.501961" points="247,64 254,68 253,57" />
<polygon fill="#fcfffd" fill-opacity="0.501961" points="134,109 83,108 92,130" />
<polygon fill="#ccaec0" fill-opacity="0.501961" points="54,84 35,94 44,82" />
<polygon fill="#d5f7f2" fill-opacity="0.501961" points="146,67 175,58 151,26" />
<polygon fill="#476cb7" fill-opacity="0.501961" points="229,0 254,46 254,0" />
<polygon fill="#16273c" fill-opacity="0.501961" points="27,160 46,160 43,131" />
<polygon fill="#000000" fill-opacity="0.501961" points="122,143 160,160 189,143" />
<polygon fill="#2e3a7f" fill-opacity="0.501961" points="225,70 239,71 253,45" />
<polygon fill="#efd9cb" fill-opacity="0.501961" points="60,139 66,131 52,109" />
<polygon fill="#99bdd6" fill-opacity="0.501961" points="83,112 49,109 64,121" />
<polygon fill="#4f8dc5" fill-opacity="0.501961" points="217,66 185,47 194,84" />
<polygon fill="#fefffb" fill-opacity="0.501961" points="148,32 188,28 170,9" />
<polygon fill="#84a1c5" fill-opacity="0.501961" points="218,9 240,12 228,24" />
<polygon fill="#406592" fill-opacity="0.501961" points="31,125 41,126 37,114" />
<polygon fill="#46a6d9" fill-opacity="0.501961" points="146,31 146,50 151,40" />
<polygon fill="#afdbe2" fill-opacity="0.501961" points="221,118 254,113 252,127" />
<polygon fill="#2c59b0" fill-opacity="0.501961" points="143,79 137,59 166,80" />
<polygon fill="#243ea0" fill-opacity="0.501961" points="254,56 226,25 246,17" />
<polygon fill="#f6fffa" fill-opacity="0.501961" points="112,104 118,131 131,122" />
<polygon fill="#92b5d2" fill-opacity="0.501961" points="95,16 84,6 88,5" />
<polygon fill="#3252b2" fill-opacity="0.501961" points="218,46 193,47 211,65" />
<polygon fill="#62a0c8" fill-opacity="0.501961" points="255,135 252,123 229,127" />
<polygon fill="#21378c" fill-opacity="0.501961" points="169,5 77,3 139,26" />
<polygon fill="#000000" fill-opacity="0.501961" points="271,105 255,147 255,47" />
<polygon fill="#f1fbf9" fill-opacity="0.501961" points="197,97 227,80 213,72" />
<polygon fill="#7fc9e2" fill-opacity="0.501961" points="107,99 99,89 90,93" />
<polygon fill="#fcfefa" fill-opacity="0.501961" points="220,109 192,133 161,126" />
<polygon fill="#3d3140" fill-opacity="0.501961" points="46,88 37,98 51,99" />
<polygon fill="#f5ffff" fill-opacity="0.501961" points="75,140 63,102 63,132" />
<polygon fill="#357dbf" fill-opacity="0.501961" points="36,79 18,68 39,98" />
<polygon fill="#ebfdf7" fill-opacity="0.501961" points="141,52 145,65 167,56" />
<polygon fill="#e7eff2" fill-opacity="0.501961" points="1,120 37,130 3,139" />
<polygon fill="#000000" fill-opacity="0.501961" points="194,0 248,0 230,-16" />
<polygon fill="#98a09d" fill-opacity="0.501961" points="125,139 169,138 157,128" />
<polygon fill="#5aade3" fill-opacity="0.501961" points="130,69 142,73 146,87" />
<polygon fill="#429ed0" fill-opacity="0.501961" points="81,93 61,96 99,75" />
<polygon fill="#000000" fill-opacity="0.501961" points="0,83 -1,152 -16,134" />
<polygon fill="#5ea0d8" fill-opacity="0.501961" points="122,91 164,116 158,128" />
<polygon fill="#b6def0" fill-opacity="0.501961" points="174,36 202,22 176,26" />
<polygon fill="#f1fcf8" fill-opacity="0.501961" points="35,108 23,142 1,142" />
<polygon fill="#4e96d0" fill-opacity="0.501961" points="105,95 105,107 129,91" />
<polygon fill="#7cbee2" fill-opacity="0.501961" points="230,99 250,98 235,103" />
<polygon fill="#9ba19f" fill-opacity="0.501961" points="131,129 118,139 87,133" />
<polygon fill="#daf9f7" fill-opacity="0.501961" points="64,95 49,106 88,114" />
<polygon fill="#e6fff9" fill-opacity="0.501961" points="32,89 2,82 7,103" />
<polygon fill="#203ca2" fill-opacity="0.501961" points="242,12 204,3 237,2" />
<polygon fill="#273e97" fill-opacity="0.501961" points="110,65 76,90 2,62" />
<polygon fill="#6482c4" fill-opacity="0.501961" points="66,93 51,86 57,95" />
<polygon fill="#314389" fill-opacity="0.501961" points="110,22 78,0 138,0" />
<polygon fill="#5a9ec8" fill-opacity="0.501961" points="247,107 254,117 254,99" />
<polygon fill="#1c3083" fill-opacity="0.501961" points="143,-7 114,62 145,42" />
<polygon fill="#ebfff6" fill-opacity="0.501961" points="185,89 170,129 173,83" />
<polygon fill="#2b62bd" fill-opacity="0.501961" points="193,71 182,64 211,68" />
<polygon fill="#a7cce7" fill-opacity="0.501961" points="202,106 215,92 216,113" />
<polygon fill="#f0fff7" fill-opacity="0.501961" points="245,91 254,101 253,84" />
<polygon fill="#000000" fill-opacity="0.501961" points="255,82 255,-5 270,36" />
<polygon fill="#6da9df" fill-opacity="0.501961" points="193,141 222,142 203,129" />
<polygon fill="#f7ecdf" fill-opacity="0.501961" points="48,109 42,114 51,120" />
<polygon fill="#618ca7" fill-opacity="0.501961" points="49,106 40,105 37,113" />
<polygon fill="#5576c6" fill-opacity="0.501961" points="116,67 93,77 106,78" />
<polygon fill="#e1faf3" fill-opacity="0.501961" points="235,118 237,126 251,118" />
<polygon fill="#7fafdf" fill-opacity="0.501961" points="217,48 224,13 231,54" />
<polygon fill="#84898e" fill-opacity="0.501961" points="61,114 52,110 46,119" />
<polygon fill="#4e8ec7" fill-opacity="0.501961" points="193,51 187,33 213,31" />
<polygon fill="#aef5f7" fill-opacity="0.501961" points="88,92 98,78 74,97" />
<polygon fill="#384f6d" fill-opacity="0.501961" points="32,124 50,118 47,124" />
<polygon fill="#000000" fill-opacity="0.501961" points="242,143 209,144 265,160" />
<polygon fill="#f7fef7" fill-opacity="0.501961" points="130,72 113,73 110,92" />
<polygon fill="#414985" fill-opacity="0.501961" points="120,10 123,0 156,0" />
<polygon fill="#000000" fill-opacity="0.501961" points="0,41 -16,99 0,144" />
<polygon fill="#bde0f4" fill-opacity="0.501961" points="201,21 195,8 220,11" />
<polygon fill="#010000" fill-opacity="0.501961" points="271,0 205,0 257,-15" />
<polygon fill="#62a5c0" fill-opacity="0.501961" points="50,127 36,133 31,123" />
<polygon fill="#469cd1" fill-opacity="0.501961" points="160,95 154,105 169,101" />
<polygon fill="#d7f7fb" fill-opacity="0.501961" points="188,115 156,108 169,118" />
<polygon fill="#ffffff" fill-opacity="0.501961" points="50,83 44,85 55,85" />
<polygon fill="#b2e2f7" fill-opacity="0.501961" points="161,64 185,47 188,57" />
<polygon fill="#477bb5" fill-opacity="0.501961" points="129,143 127,136 150,142" />
<polygon fill="#7a8abe" fill-opacity="0.501961" points="105,24 122,41 111,35" />
<polygon fill="#050300" fill-opacity="0.501961" points="160,-16 219,-1 171,0" />
<polygon fill="#74bedc" fill-opacity="0.501961" points="161,48 176,35 190,44" />
<polygon fill="#dcfeff" fill-opacity="0.501961" points="161,143 175,139 150,139" />
<polygon fill="#92d4ed" fill-opacity="0.501961" points="35,98 12,96 30,91" />
<polygon fill="#090300" fill-opacity="0.501961" points="0,0 -16,-16 43,-1" />
<polygon fill="#5b79a3" fill-opacity="0.501961" points="254,51 251,64 255,75" />
<polygon fill="#85a0c8" fill-opacity="0.501961" points="225,16 237,23 239,15" />
<polygon fill="#243687" fill-opacity="0.501961" points="111,68 2,62 1,31" />
<polygon fill="#1f3885" fill-opacity="0.501961" points="76,2 12,1 111,31" />
<polygon fill="#77b4db" fill-opacity="0.501961" points="211,70 217,64 230,83" />
<polygon fill="#56a3d6" fill-opacity="0.501961" points="183,83 180,73 176,85" />
<polygon fill="#2347a0" fill-opacity="0.501961" points="232,4 218,10 199,4" />
<polygon fill="#805e99" fill-opacity="0.501961" points="110,60 110,39 107,49" />
<polygon fill="#5a86ab" fill-opacity="0.501961" points="169,9 166,0 181,0" />
<polygon fill="#9d9d95" fill-opacity="0.501961" points="135,130 106,133 137,138" />
<polygon fill="#bee1ed" fill-opacity="0.501961" points="46,103 63,95 58,103" />
<polygon fill="#b3e5ee" fill-opacity="0.501961" points="1,106 27,93 4,96" />
<polygon fill="#ffffff" fill-opacity="0.501961" points="89,142 101,138 114,142" />
<polygon fill="#588fc7" fill-opacity="0.501961" points="218,127 253,137 193,141" />
<polygon fill="#d0d6dc" fill-opacity="0.501961" points="33,126 27,135 34,139" />
<polygon fill="#9c9795" fill-opacity="0.501961" points="181,130 180,136 168,134" />
<polygon fill="#060400" fill-opacity="0.501961" points="142,-16 85,-1 193,0" />
<polygon fill="#f4fef6" fill-opacity="0.501961" points="171,9 196,11 174,26" />
<polygon fill="#a1b8c5" fill-opacity="0.501961" points="229,130 226,117 236,118" />
<polygon fill="#9fdef1" fill-opacity="0.501961" points="141,52 141,59 145,47" />
<polygon fill="#3b58b9" fill-opacity="0.501961" points="248,143 220,143 256,132" />
<polygon fill="#5184be" fill-opacity="0.501961" points="13,114 1,120 1,102" />
<polygon fill="#dcfcf4" fill-opacity="0.501961" points="166,81 186,101 150,88" />
<polygon fill="#040000" fill-opacity="0.501961" points="202,143 248,156 265,143" />
<polygon fill="#adcaec" fill-opacity="0.501961" points="196,73 186,80 193,71" />
<polygon fill="#e0dcdc" fill-opacity="0.501961" points="138,136 139,129 142,133" />
<polygon fill="#1d3484" fill-opacity="0.501961" points="131,2 112,44 171,0" />
<polygon fill="#3f73b7" fill-opacity="0.501961" points="136,130 150,131 137,115" />
<polygon fill="#f7fff9" fill-opacity="0.501961" points="201,28 214,27 221,17" />
<polygon fill="#a0a8aa" fill-opacity="0.501961" points="79,131 99,139 129,130" />
<polygon fill="#77cdfa" fill-opacity="0.501961" points="245,75 234,80 255,81" />
<polygon fill="#2b64b6" fill-opacity="0.501961" points="252,77 249,69 232,72" />
<polygon fill="#b3e1f9" fill-opacity="0.501961" points="174,141 186,142 201,128" />
<polygon fill="#314e9d" fill-opacity="0.501961" points="169,1 190,8 193,1" />
<polygon fill="#060100" fill-opacity="0.501961" points="38,0 62,-10 85,0" />
<polygon fill="#5e81a2" fill-opacity="0.501961" points="31,143 36,138 27,142" />
<polygon fill="#675899" fill-opacity="0.501961" points="110,21 113,26 121,9" />
<polygon fill="#aab7e2" fill-opacity="0.501961" points="146,106 132,88 118,86" />
<polygon fill="#5a71b9" fill-opacity="0.501961" points="199,58 225,69 230,60" />
<polygon fill="#2768bf" fill-opacity="0.501961" points="3,71 22,69 6,76" />
<polygon fill="#54a2cf" fill-opacity="0.501961" points="131,140 117,137 121,143" />
<polygon fill="#f5faf7" fill-opacity="0.501961" points="215,120 220,104 243,90" />
<polygon fill="#64b6e5" fill-opacity="0.501961" points="38,100 30,84 28,102" />
<polygon fill="#5faad5" fill-opacity="0.501961" points="151,68 139,55 140,63" />
<polygon fill="#dafcf4" fill-opacity="0.501961" points="66,94 101,96 108,109" />
<polygon fill="#8fbce2" fill-opacity="0.501961" points="154,98 130,118 144,115" />
<polygon fill="#e2f5f4" fill-opacity="0.501961" points="161,67 181,46 167,49" />
<polygon fill="#e4f7f5" fill-opacity="0.501961" points="163,14 153,36 152,26" />
<polygon fill="#1c3581" fill-opacity="0.501961" points="109,19 78,1 124,1" />
<polygon fill="#6dadd0" fill-opacity="0.501961" points="248,1 254,16 253,1" />
<polygon fill="#819dbf" fill-opacity="0.501961" points="101,18 92,13 102,25" />
<polygon fill="#f5fdf9" fill-opacity="0.501961" points="186,124 186,140 174,108" />
<polygon fill="#53a7c8" fill-opacity="0.501961" points="53,137 40,138 49,129" />
<polygon fill="#4086cc" fill-opacity="0.501961" points="162,71 172,77 169,63" />
<polygon fill="#eef9f6" fill-opacity="0.501961" points="100,78 89,89 115,90" />
<polygon fill="#25408c" fill-opacity="0.501961" points="102,21 88,6 109,6" />
<polygon fill="#1b3357" fill-opacity="0.501961" points="58,140 54,129 54,149" />
<polygon fill="#ebf9f7" fill-opacity="0.501961" points="89,130 120,104 123,129" />
<polygon fill="#2352b5" fill-opacity="0.501961" points="242,73 225,78 234,79" />
<polygon fill="#384a86" fill-opacity="0.501961" points="35,89 47,103 36,98" />
<polygon fill="#9cc3ec" fill-opacity="0.501961" points="136,79 122,90 122,78" />
<polygon fill="#000000" fill-opacity="0.501961" points="1,0 -16,-3 -1,60" />
<polygon fill="#a0d2f1" fill-opacity="0.501961" points="126,99 139,110 106,104" />
<polygon fill="#000000" fill-opacity="0.501961" points="54,143 64,158 115,143" />
<polygon fill="#000000" fill-opacity="0.501961" points="57,160 51,143 3,144" />
<polygon fill="#f7fff8" fill-opacity="0.501961" points="21,76 2,96 9,78" />
<polygon fill="#fbfef7" fill-opacity="0.501961" points="50,108 58,99 67,103" />
<polygon fill="#355aa9" fill-opacity="0.501961" points="29,78 34,87 58,77" />
<polygon fill="#6bb4e3" fill-opacity="0.501961" points="239,97 254,114 252,97" />
<polygon fill="#223891" fill-opacity="0.501961" points="254,57 233,66 252,32" />
<polygon fill="#8cbce2" fill-opacity="0.501961" points="17,103 21,113 5,119" />
<polygon fill="#66add4" fill-opacity="0.501961" points="195,60 183,66 188,38" />
<polygon fill="#fdfffa" fill-opacity="0.501961" points="108,141 116,142 118,137" />
<polygon fill="#93cdf1" fill-opacity="0.501961" points="73,119 71,110 78,109" />
<polygon fill="#a5d3eb" fill-opacity="0.501961" points="223,99 235,99 232,105" />
<polygon fill="#f5fcf7" fill-opacity="0.501961" points="215,76 226,91 198,87" />
<polygon fill="#abbdcb" fill-opacity="0.501961" points="35,125 26,142 34,137" />
<polygon fill="#92c6e6" fill-opacity="0.501961" points="168,68 174,66 179,88" />
<polygon fill="#735b8d" fill-opacity="0.501961" points="55,86 43,86 56,95" />
<polygon fill="#828988" fill-opacity="0.501961" points="122,139 113,138 119,132" />
<polygon fill="#233f8e" fill-opacity="0.501961" points="97,15 110,28 113,12" />
<polygon fill="#67a2da" fill-opacity="0.501961" points="230,34 231,53 213,35" />
<polygon fill="#243b9a" fill-opacity="0.501961" points="115,66 110,39 142,64" />
<polygon fill="#2c58ae" fill-opacity="0.501961" points="145,26 147,41 139,53" />
<polygon fill="#8adaee" fill-opacity="0.501961" points="171,96 165,95 173,105" />
<polygon fill="#d1ccc4" fill-opacity="0.501961" points="153,136 147,138 150,131" />
<polygon fill="#233989" fill-opacity="0.501961" points="75,3 103,25 110,63" />
<polygon fill="#509dbf" fill-opacity="0.501961" points="51,126 56,140 47,139" />
<polygon fill="#81d4e5" fill-opacity="0.501961" points="148,43 152,49 146,51" />
<polygon fill="#f9fcf8" fill-opacity="0.501961" points="90,126 76,99 100,97" />
<polygon fill="#4e90cd" fill-opacity="0.501961" points="159,113 135,103 153,118" />
<polygon fill="#f3faf7" fill-opacity="0.501961" points="72,130 109,112 133,121" />
<polygon fill="#fffffe" fill-opacity="0.501961" points="2,128 2,142 21,141" />
<polygon fill="#4677a3" fill-opacity="0.501961" points="241,63 223,77 254,66" />
<polygon fill="#61a8dc" fill-opacity="0.501961" points="148,119 132,112 131,118" />
<polygon fill="#f7ebdb" fill-opacity="0.501961" points="56,115 62,128 53,118" />
<polygon fill="#9ad2ea" fill-opacity="0.501961" points="169,32 179,35 166,40" />
<polygon fill="#c0e6f4" fill-opacity="0.501961" points="182,107 198,102 188,90" />
<polygon fill="#8cd6f1" fill-opacity="0.501961" points="159,129 167,118 152,129" />
<polygon fill="#27449a" fill-opacity="0.501961" points="225,25 240,20 241,49" />
<polygon fill="#f3faf7" fill-opacity="0.501961" points="156,129 209,109 205,125" />
<polygon fill="#e2f7f9" fill-opacity="0.501961" points="221,113 247,108 241,103" />
<polygon fill="#cbeef8" fill-opacity="0.501961" points="34,119 37,108 32,108" />
<polygon fill="#d2e3f4" fill-opacity="0.501961" points="177,70 176,65 185,69" />
<polygon fill="#aeaccb" fill-opacity="0.501961" points="69,143 62,137 59,143" />
<polygon fill="#98d4ee" fill-opacity="0.501961" points="76,94 56,99 66,93" />
<polygon fill="#526392" fill-opacity="0.501961" points="82,5 72,0 91,0" />
<polygon fill="#413d54" fill-opacity="0.501961" points="44,89 43,104 40,93" />
<polygon fill="#447ac5" fill-opacity="0.501961" points="195,34 227,47 211,32" />
<polygon fill="#a2c8de" fill-opacity="0.501961" points="178,143 169,137 165,143" />
<polygon fill="#6287c5" fill-opacity="0.501961" points="199,40 218,47 195,28" />
<polygon fill="#6f5c98" fill-opacity="0.501961" points="107,39 111,49 110,33" />
<polygon fill="#7ab3de" fill-opacity="0.501961" points="31,96 7,107 51,107" />
<polygon fill="#e2f6f2" fill-opacity="0.501961" points="149,63 150,41 172,29" />
<polygon fill="#eefcf5" fill-opacity="0.501961" points="215,12 203,26 220,18" />
<polygon fill="#071f37" fill-opacity="0.501961" points="50,142 34,142 40,139" />
<polygon fill="#eef6f4" fill-opacity="0.501961" points="25,107 2,143 25,132" />
<polygon fill="#305fae" fill-opacity="0.501961" points="67,84 77,91 56,93" />
<polygon fill="#5d9cd3" fill-opacity="0.501961" points="112,96 126,94 106,108" />
<polygon fill="#a5d6e9" fill-opacity="0.501961" points="102,98 105,109 111,109" />
<polygon fill="#81aace" fill-opacity="0.501961" points="198,137 185,143 216,142" />
<polygon fill="#93ccef" fill-opacity="0.501961" points="231,117 242,118 242,106" />
<polygon fill="#263c8a" fill-opacity="0.501961" points="72,12 38,55 7,5" />
<polygon fill="#313f6d" fill-opacity="0.501961" points="8,32 2,46 1,13" />
<polygon fill="#4b94d3" fill-opacity="0.501961" points="162,65 160,81 173,77" />
<polygon fill="#76a5bc" fill-opacity="0.501961" points="175,1 182,9 167,9" />
<polygon fill="#ecfff6" fill-opacity="0.501961" points="144,91 147,101 160,88" />
<polygon fill="#eaf6f6" fill-opacity="0.501961" points="107,79 115,71 134,79" />
<polygon fill="#5aadd0" fill-opacity="0.501961" points="196,7 183,7 190,11" />
<polygon fill="#366896" fill-opacity="0.501961" points="145,140 148,141 146,130" />
<polygon fill="#f6fff7" fill-opacity="0.501961" points="250,91 240,91 234,96" />
<polygon fill="#caeef3" fill-opacity="0.501961" points="128,68 135,75 126,81" />
<polygon fill="#edf8f4" fill-opacity="0.501961" points="142,52 144,62 168,58" />
<polygon fill="#c0e2ff" fill-opacity="0.501961" points="61,141 81,142 73,138" />
<polygon fill="#5793cc" fill-opacity="0.501961" points="192,86 205,72 188,82" />
<polygon fill="#335faf" fill-opacity="0.501961" points="154,17 173,4 163,3" />
<polygon fill="#f1faf6" fill-opacity="0.501961" points="181,136 202,95 210,119" />
<polygon fill="#2c4fa7" fill-opacity="0.501961" points="148,76 128,64 154,70" />
<polygon fill="#8badba" fill-opacity="0.501961" points="49,101 49,110 42,110" />
<polygon fill="#73cee5" fill-opacity="0.501961" points="152,99 159,92 165,94" />
<polygon fill="#1f3b9f" fill-opacity="0.501961" points="121,12 118,34 114,25" />
<polygon fill="#223885" fill-opacity="0.501961" points="2,2 77,2 2,49" />
<polygon fill="#9acce7" fill-opacity="0.501961" points="201,81 211,72 207,71" />
<polygon fill="#c8e1f0" fill-opacity="0.501961" points="115,92 123,85 101,91" />
<polygon fill="#274099" fill-opacity="0.501961" points="2,63 46,82 14,47" />
<polygon fill="#aaa4c2" fill-opacity="0.501961" points="106,27 110,32 112,29" />
<polygon fill="#000000" fill-opacity="0.501961" points="271,86 255,28 255,143" />
<polygon fill="#ebfaf5" fill-opacity="0.501961" points="186,118 171,132 175,97" />
<polygon fill="#d8f4f0" fill-opacity="0.501961" points="240,119 249,116 253,120" />
<polygon fill="#bbe5f1" fill-opacity="0.501961" points="191,135 218,125 200,125" />
<polygon fill="#d7e6f1" fill-opacity="0.501961" points="24,134 4,127 12,118" />
<polygon fill="#ae95a9" fill-opacity="0.501961" points="40,94 40,89 37,96" />
<polygon fill="#c9cced" fill-opacity="0.501961" points="99,79 107,83 111,75" />
<polygon fill="#effff8" fill-opacity="0.501961" points="209,29 208,21 223,23" />
<polygon fill="#4f639b" fill-opacity="0.501961" points="183,8 202,0 167,0" />
<polygon fill="#6aaedc" fill-opacity="0.501961" points="163,81 176,70 174,78" />
<polygon fill="#bedcf5" fill-opacity="0.501961" points="136,113 143,111 148,115" />
<polygon fill="#5a89ba" fill-opacity="0.501961" points="244,128 254,126 254,138" />
<polygon fill="#9dcae8" fill-opacity="0.501961" points="241,89 231,86 211,105" />
</g>
</svg>