<svg xmlns="http://www.w3.org/2000/svg" version="1.1" width="1024" height="580">
<rect x="0" y="0" width="1024" height="580" fill="#252834" />
<g transform="scale(4.000000) translate(0.5 0.5)">
<polygon fill="#ffffff" fill-opacity="0.501961" points="32,24 34,160 72,83" />
<polygon fill="#eecacd" fill-opacity="0.501961" points="235,20 206,25 218,121" />
<polygon fill="#070200" fill-opacity="0.501961" points="218,-16 187,121 45,66" />
<polygon fill="#000000" fill-opacity="0.501961" points="63,-15 17,119 -16,1" />
<polygon fill="#043294" fill-opacity="0.501961" points="56,160 -16,110 232,112" />
<polygon fill="#f6ddc3" fill-opacity="0.501961" points="25,99 60,128 54,24" />
<polygon fill="#000000" fill-opacity="0.501961" points="260,160 271,-16 219,-16" />
<polygon fill="#92637a" fill-opacity="0.501961" points="241,106 190,120 242,65" />
<polygon fill="#000000" fill-opacity="0.501961" points="73,35 241,2 -13,-16" />
<polygon fill="#c3a29c" fill-opacity="0.501961" points="67,99 26,42 47,19" />
<polygon fill="#000000" fill-opacity="0.501961" points="45,67 -15,-16 -16,100" />
<polygon fill="#001a74" fill-opacity="0.501961" points="252,160 70,131 252,110" />
<polygon fill="#fffff7" fill-opacity="0.501961" points="62,107 41,86 71,77" />
<polygon fill="#ffffff" fill-opacity="0.501961" points="229,59 211,55 225,36" />
<polygon fill="#c889a2" fill-opacity="0.501961" points="237,72 200,70 200,98" />
<polygon fill="#ffffff" fill-opacity="0.501961" points="226,98 237,107 242,102" />
<polygon fill="#080000" fill-opacity="0.501961" points="252,93 210,100 202,88" />
<polygon fill="#8c9aac" fill-opacity="0.501961" points="135,123 108,116 157,113" />
<polygon fill="#2c291c" fill-opacity="0.501961" points="224,73 68,15 181,11" />
<polygon fill="#ffffe9" fill-opacity="0.501961" points="32,82 27,106 48,109" />
<polygon fill="#000000" fill-opacity="0.501961" points="271,-7 256,36 170,-13" />
<polygon fill="#0a0800" fill-opacity="0.501961" points="152,116 57,97 168,63" />
<polygon fill="#001355" fill-opacity="0.501961" points="21,160 -16,94 29,99" />
<polygon fill="#000000" fill-opacity="0.501961" points="267,37 268,87 221,60" />
<polygon fill="#907773" fill-opacity="0.501961" points="62,25 38,27 51,55" />
<polygon fill="#a88d9e" fill-opacity="0.501961" points="142,53 134,66 142,71" />
<polygon fill="#000000" fill-opacity="0.501961" points="175,0 -4,32 2,-16" />
<polygon fill="#ffffe4" fill-opacity="0.501961" points="62,105 42,85 71,75" />
<polygon fill="#4a64ab" fill-opacity="0.501961" points="52,101 70,160 22,138" />
<polygon fill="#000f40" fill-opacity="0.501961" points="90,160 194,123 52,122" />
<polygon fill="#000000" fill-opacity="0.501961" points="49,64 -16,87 -16,52" />
<polygon fill="#0f0a00" fill-opacity="0.501961" points="59,11 81,115 112,34" />
<polygon fill="#ffffff" fill-opacity="0.501961" points="227,77 222,61 223,87" />
<polygon fill="#070603" fill-opacity="0.501961" points="150,92 193,-3 214,64" />
<polygon fill="#193d8b" fill-opacity="0.501961" points="194,110 253,135 202,160" />
<polygon fill="#000000" fill-opacity="0.501961" points="271,3 87,-16 196,27" />
<polygon fill="#000000" fill-opacity="0.501961" points="36,66 -16,144 10,-11" />
<polygon fill="#7b7888" fill-opacity="0.501961" points="218,21 236,25 236,51" />
<polygon fill="#000000" fill-opacity="0.501961" points="271,46 236,97 258,117" />
<polygon fill="#fadcca" fill-opacity="0.501961" points="212,82 231,48 218,42" />
<polygon fill="#e7b651" fill-opacity="0.501961" points="65,96 27,88 42,101" />
<polygon fill="#6f829a" fill-opacity="0.501961" points="52,114 76,122 93,116" />
<polygon fill="#3b3931" fill-opacity="0.501961" points="90,28 174,44 144,9" />
<polygon fill="#531731" fill-opacity="0.501961" points="213,110 219,78 230,108" />
<polygon fill="#646d83" fill-opacity="0.501961" points="203,33 219,20 205,57" />
<polygon fill="#ffffe9" fill-opacity="0.501961" points="36,54 49,63 57,52" />
<polygon fill="#947491" fill-opacity="0.501961" points="216,104 202,95 204,119" />
<polygon fill="#c2ccd2" fill-opacity="0.501961" points="117,120 111,115 106,122" />
<polygon fill="#000000" fill-opacity="0.501961" points="186,124 203,109 196,75" />
<polygon fill="#afbfd0" fill-opacity="0.501961" points="59,115 49,125 34,116" />
<polygon fill="#7c89b8" fill-opacity="0.501961" points="33,68 72,74 44,83" />
<polygon fill="#082b6b" fill-opacity="0.501961" points="24,99 41,137 -16,94" />
<polygon fill="#000000" fill-opacity="0.501961" points="3,157 -16,87 3,68" />
<polygon fill="#6c001c" fill-opacity="0.501961" points="222,68 216,70 221,88" />
<polygon fill="#474332" fill-opacity="0.501961" points="176,102 192,97 191,52" />
<polygon fill="#000000" fill-opacity="0.501961" points="50,64 42,72 43,65" />
<polygon fill="#539bff" fill-opacity="0.501961" points="242,130 252,130 241,139" />
<polygon fill="#ffffff" fill-opacity="0.501961" points="26,107 36,99 62,104" />
<polygon fill="#afa6ba" fill-opacity="0.501961" points="43,139 40,160 116,156" />
<polygon fill="#000000" fill-opacity="0.501961" points="95,-16 -16,-13 -11,62" />
<polygon fill="#000000" fill-opacity="0.501961" points="271,5 227,44 271,63" />
<polygon fill="#786464" fill-opacity="0.501961" points="49,22 63,29 35,56" />
<polygon fill="#14110f" fill-opacity="0.501961" points="55,65 103,97 94,1" />
<polygon fill="#ae938b" fill-opacity="0.501961" points="29,41 56,25 36,26" />
<polygon fill="#f1ffff" fill-opacity="0.501961" points="211,85 216,69 217,89" />
<polygon fill="#000000" fill-opacity="0.501961" points="26,99 -16,88 31,65" />
<polygon fill="#ffffe4" fill-opacity="0.501961" points="226,99 239,109 238,100" />
<polygon fill="#5a354f" fill-opacity="0.501961" points="204,102 212,64 215,117" />
<polygon fill="#001851" fill-opacity="0.501961" points="149,113 195,157 199,109" />
<polygon fill="#ffeeda" fill-opacity="0.501961" points="221,61 209,49 227,40" />
<polygon fill="#030000" fill-opacity="0.501961" points="266,54 229,70 224,59" />
<polygon fill="#1c180d" fill-opacity="0.501961" points="67,109 115,111 72,82" />
<polygon fill="#d1af61" fill-opacity="0.501961" points="26,101 45,95 44,82" />
<polygon fill="#14358d" fill-opacity="0.501961" points="23,142 39,147 39,120" />
<polygon fill="#110c0d" fill-opacity="0.501961" points="217,59 207,69 179,37" />
<polygon fill="#d6dae3" fill-opacity="0.501961" points="48,80 34,72 47,71" />
<polygon fill="#ffe7cd" fill-opacity="0.501961" points="64,105 66,99 59,99" />
<polygon fill="#000000" fill-opacity="0.501961" points="185,-16 221,2 195,50" />
<polygon fill="#000000" fill-opacity="0.501961" points="-16,7 40,63 18,90" />
<polygon fill="#f8f6f2" fill-opacity="0.501961" points="57,111 28,101 28,91" />
<polygon fill="#3e3929" fill-opacity="0.501961" points="98,103 149,97 132,108" />
<polygon fill="#0b337e" fill-opacity="0.501961" points="29,98 29,110 13,96" />
<polygon fill="#8c6479" fill-opacity="0.501961" points="210,102 229,98 229,108" />
<polygon fill="#000101" fill-opacity="0.501961" points="139,99 178,73 67,92" />
<polygon fill="#00195d" fill-opacity="0.501961" points="241,144 203,117 241,113" />
<polygon fill="#7e7a8a" fill-opacity="0.501961" points="219,19 231,19 238,40" />
<polygon fill="#ffefd8" fill-opacity="0.501961" points="46,47 50,61 38,61" />
<polygon fill="#514f41" fill-opacity="0.501961" points="76,100 105,101 89,105" />
<polygon fill="#799ccd" fill-opacity="0.501961" points="216,111 196,118 204,109" />
<polygon fill="#71636b" fill-opacity="0.501961" points="135,52 144,53 146,72" />
<polygon fill="#1f4795" fill-opacity="0.501961" points="57,112 35,111 39,116" />
<polygon fill="#7c8ca3" fill-opacity="0.501961" points="129,115 147,123 157,117" />
<polygon fill="#684f4b" fill-opacity="0.501961" points="64,47 58,54 39,44" />
<polygon fill="#000000" fill-opacity="0.501961" points="271,0 197,-8 243,31" />
<polygon fill="#38352d" fill-opacity="0.501961" points="108,7 150,45 87,16" />
<polygon fill="#a88b7e" fill-opacity="0.501961" points="214,57 225,62 225,72" />
<polygon fill="#4c4351" fill-opacity="0.501961" points="225,48 241,47 236,24" />
<polygon fill="#fffff9" fill-opacity="0.501961" points="47,86 62,96 70,83" />
<polygon fill="#000000" fill-opacity="0.501961" points="67,27 -16,4 124,-16" />
<polygon fill="#98a2c3" fill-opacity="0.501961" points="221,20 215,20 210,31" />
<polygon fill="#3f3635" fill-opacity="0.501961" points="217,43 213,32 208,42" />
<polygon fill="#000000" fill-opacity="0.501961" points="257,-4 257,127 237,55" />
<polygon fill="#0a286d" fill-opacity="0.501961" points="49,133 53,151 77,107" />
<polygon fill="#9e9ab8" fill-opacity="0.501961" points="56,143 28,151 29,142" />
<polygon fill="#001856" fill-opacity="0.501961" points="4,160 4,121 33,111" />
<polygon fill="#001c5c" fill-opacity="0.501961" points="154,114 114,115 135,108" />
<polygon fill="#5f7190" fill-opacity="0.501961" points="80,114 67,122 100,120" />
<polygon fill="#7e4f68" fill-opacity="0.501961" points="241,90 238,71 225,67" />
<polygon fill="#1d150b" fill-opacity="0.501961" points="164,31 80,32 51,63" />
<polygon fill="#6f6262" fill-opacity="0.501961" points="63,114 55,113 48,100" />
<polygon fill="#d38480" fill-opacity="0.501961" points="53,60 57,68 43,74" />
<polygon fill="#fffffe" fill-opacity="0.501961" points="225,90 222,85 226,76" />
<polygon fill="#ffe1cd" fill-opacity="0.501961" points="47,64 37,56 56,50" />
<polygon fill="#121419" fill-opacity="0.501961" points="65,98 160,67 80,65" />
<polygon fill="#6975ab" fill-opacity="0.501961" points="42,84 68,73 54,71" />
<polygon fill="#eccc81" fill-opacity="0.501961" points="62,93 36,98 29,88" />
<polygon fill="#000000" fill-opacity="0.501961" points="18,45 54,10 -16,-5" />
<polygon fill="#ffffff" fill-opacity="0.501961" points="33,73 38,69 33,81" />
<polygon fill="#494632" fill-opacity="0.501961" points="148,104 163,98 177,103" />
<polygon fill="#000000" fill-opacity="0.501961" points="206,63 193,23 194,84" />
<polygon fill="#766263" fill-opacity="0.501961" points="66,34 53,24 30,50" />
<polygon fill="#e1c4ba" fill-opacity="0.501961" points="228,55 208,46 232,49" />
<polygon fill="#8e8b8c" fill-opacity="0.501961" points="138,70 140,68 145,71" />
<polygon fill="#201322" fill-opacity="0.501961" points="226,92 219,100 199,90" />
<polygon fill="#ffffff" fill-opacity="0.501961" points="48,82 45,93 66,78" />
<polygon fill="#4d668e" fill-opacity="0.501961" points="21,110 17,99 14,105" />
<polygon fill="#001a51" fill-opacity="0.501961" points="178,159 201,120 65,124" />
<polygon fill="#000000" fill-opacity="0.501961" points="243,111 247,11 271,106" />
<polygon fill="#38437a" fill-opacity="0.501961" points="196,121 210,109 239,110" />
<polygon fill="#494248" fill-opacity="0.501961" points="206,60 212,32 203,48" />
<polygon fill="#000000" fill-opacity="0.501961" points="36,65 26,97 -16,97" />
<polygon fill="#636f93" fill-opacity="0.501961" points="201,142 223,143 189,151" />
<polygon fill="#000000" fill-opacity="0.501961" points="32,60 49,65 43,69" />
<polygon fill="#251519" fill-opacity="0.501961" points="208,110 220,106 231,109" />
<polygon fill="#313127" fill-opacity="0.501961" points="191,45 180,54 180,26" />
<polygon fill="#000000" fill-opacity="0.501961" points="238,100 261,79 259,110" />
<polygon fill="#000000" fill-opacity="0.501961" points="187,19 129,-16 255,20" />
<polygon fill="#7f5f6c" fill-opacity="0.501961" points="34,80 31,84 41,83" />
<polygon fill="#000000" fill-opacity="0.501961" points="269,138 254,148 253,104" />
<polygon fill="#b79b7a" fill-opacity="0.501961" points="63,104 37,110 59,112" />
<polygon fill="#7b4a60" fill-opacity="0.501961" points="228,77 241,85 224,91" />
<polygon fill="#3a3832" fill-opacity="0.501961" points="98,15 120,39 150,17" />
<polygon fill="#171616" fill-opacity="0.501961" points="183,109 136,44 174,45" />
<polygon fill="#001953" fill-opacity="0.501961" points="194,149 198,117 146,111" />
<polygon fill="#3a2a2c" fill-opacity="0.501961" points="50,39 58,51 68,48" />
<polygon fill="#3e2e5d" fill-opacity="0.501961" points="41,83 45,82 40,87" />
<polygon fill="#000000" fill-opacity="0.501961" points="23,52 35,23 7,38" />
<polygon fill="#000000" fill-opacity="0.501961" points="-16,90 3,97 4,160" />
<polygon fill="#6d8ac7" fill-opacity="0.501961" points="39,121 30,125 31,115" />
<polygon fill="#090a0b" fill-opacity="0.501961" points="82,57 58,72 69,44" />
<polygon fill="#777f93" fill-opacity="0.501961" points="211,25 226,37 204,35" />
<polygon fill="#0d0900" fill-opacity="0.501961" points="96,110 64,111 71,104" />
<polygon fill="#f6d7b8" fill-opacity="0.501961" points="51,105 65,103 60,82" />
<polygon fill="#f6decb" fill-opacity="0.501961" points="235,100 242,105 226,106" />
<polygon fill="#002061" fill-opacity="0.501961" points="214,114 251,111 253,133" />
<polygon fill="#3a2d37" fill-opacity="0.501961" points="207,62 212,56 204,40" />
<polygon fill="#070000" fill-opacity="0.501961" points="65,144 127,160 106,143" />
<polygon fill="#140f05" fill-opacity="0.501961" points="157,101 139,111 112,106" />
<polygon fill="#fcfcf1" fill-opacity="0.501961" points="52,72 45,73 37,84" />
<polygon fill="#7a001f" fill-opacity="0.501961" points="219,72 218,89 224,94" />
<polygon fill="#f8f9eb" fill-opacity="0.501961" points="27,94 31,84 36,86" />
<polygon fill="#060300" fill-opacity="0.501961" points="182,109 205,109 194,90" />
<polygon fill="#080000" fill-opacity="0.501961" points="188,143 151,144 207,160" />
<polygon fill="#7c5474" fill-opacity="0.501961" points="209,67 202,97 201,72" />
<polygon fill="#092062" fill-opacity="0.501961" points="219,113 246,143 214,140" />
<polygon fill="#624f4e" fill-opacity="0.501961" points="33,55 28,45 49,42" />
<polygon fill="#fffff9" fill-opacity="0.501961" points="71,80 58,100 62,79" />
<polygon fill="#40343e" fill-opacity="0.501961" points="236,110 229,109 222,92" />
<polygon fill="#3c5582" fill-opacity="0.501961" points="57,117 52,107 68,120" />
<polygon fill="#050000" fill-opacity="0.501961" points="106,143 195,144 136,160" />
<polygon fill="#8496b1" fill-opacity="0.501961" points="62,121 50,113 61,116" />
<polygon fill="#000000" fill-opacity="0.501961" points="186,50 186,75 174,57" />
<polygon fill="#b3935c" fill-opacity="0.501961" points="58,91 47,100 59,97" />
<polygon fill="#b08286" fill-opacity="0.501961" points="54,62 57,70 37,76" />
<polygon fill="#e6c87b" fill-opacity="0.501961" points="39,83 47,97 31,99" />
<polygon fill="#5f9cff" fill-opacity="0.501961" points="243,137 248,137 246,130" />
<polygon fill="#d9bbac" fill-opacity="0.501961" points="52,42 45,50 48,40" />
<polygon fill="#001650" fill-opacity="0.501961" points="107,126 123,127 99,116" />
<polygon fill="#1d3e92" fill-opacity="0.501961" points="41,123 40,160 28,121" />
<polygon fill="#838ea7" fill-opacity="0.501961" points="232,30 205,31 214,22" />
<polygon fill="#a1877f" fill-opacity="0.501961" points="30,46 32,33 45,24" />
<polygon fill="#718ec1" fill-opacity="0.501961" points="39,74 45,74 38,68" />
<polygon fill="#fcffff" fill-opacity="0.501961" points="51,109 28,102 47,100" />
<polygon fill="#03225b" fill-opacity="0.501961" points="27,106 4,152 4,103" />
<polygon fill="#000418" fill-opacity="0.501961" points="68,105 62,110 63,117" />
<polygon fill="#877473" fill-opacity="0.501961" points="50,24 56,46 57,24" />
<polygon fill="#11100c" fill-opacity="0.501961" points="122,86 129,17 137,61" />
<polygon fill="#d5b7a4" fill-opacity="0.501961" points="217,37 214,40 220,43" />
<polygon fill="#00174f" fill-opacity="0.501961" points="32,114 15,160 5,114" />
<polygon fill="#a0acbe" fill-opacity="0.501961" points="107,116 122,116 107,121" />
<polygon fill="#141519" fill-opacity="0.501961" points="119,62 82,95 59,57" />
<polygon fill="#020100" fill-opacity="0.501961" points="71,-2 79,44 51,17" />
<polygon fill="#fff0dc" fill-opacity="0.501961" points="227,44 226,37 214,49" />
<polygon fill="#61383f" fill-opacity="0.501961" points="228,63 227,57 236,48" />
<polygon fill="#a79791" fill-opacity="0.501961" points="140,63 138,58 141,53" />
<polygon fill="#9fb3da" fill-opacity="0.501961" points="49,122 48,105 53,116" />
<polygon fill="#fffae7" fill-opacity="0.501961" points="210,50 221,53 218,59" />
<polygon fill="#2d4a8c" fill-opacity="0.501961" points="207,132 197,152 201,111" />
<polygon fill="#2c1628" fill-opacity="0.501961" points="224,90 240,89 239,100" />
<polygon fill="#253685" fill-opacity="0.501961" points="227,133 237,118 220,130" />
<polygon fill="#0e327b" fill-opacity="0.501961" points="179,111 200,112 189,116" />
<polygon fill="#0f0f13" fill-opacity="0.501961" points="226,70 226,59 231,66" />
<polygon fill="#f8e8d5" fill-opacity="0.501961" points="209,111 201,111 202,109" />
<polygon fill="#dedcdd" fill-opacity="0.501961" points="49,142 60,158 40,145" />
<polygon fill="#363533" fill-opacity="0.501961" points="133,44 134,34 160,43" />
<polygon fill="#c1e0d2" fill-opacity="0.501961" points="222,87 224,90 223,91" />
<polygon fill="#423f33" fill-opacity="0.501961" points="182,76 180,103 188,104" />
<polygon fill="#765167" fill-opacity="0.501961" points="204,74 216,90 199,91" />
<polygon fill="#937c7c" fill-opacity="0.501961" points="35,51 39,34 50,30" />
<polygon fill="#af8b85" fill-opacity="0.501961" points="215,64 224,58 223,70" />
<polygon fill="#74737e" fill-opacity="0.501961" points="233,23 226,20 218,43" />
<polygon fill="#001d5a" fill-opacity="0.501961" points="97,143 77,143 77,117" />
<polygon fill="#edf1ef" fill-opacity="0.501961" points="42,82 34,80 36,73" />
<polygon fill="#fffff3" fill-opacity="0.501961" points="69,77 44,83 50,89" />
<polygon fill="#3c333a" fill-opacity="0.501961" points="50,50 53,46 46,46" />
<polygon fill="#835e5a" fill-opacity="0.501961" points="62,47 56,52 60,53" />
<polygon fill="#020100" fill-opacity="0.501961" points="124,70 168,100 117,94" />
<polygon fill="#021f5a" fill-opacity="0.501961" points="120,143 129,119 138,142" />
<polygon fill="#001b53" fill-opacity="0.501961" points="114,117 114,141 120,135" />
<polygon fill="#000000" fill-opacity="0.501961" points="260,-4 159,-11 202,28" />
<polygon fill="#a0b0d1" fill-opacity="0.501961" points="35,121 44,120 33,116" />
<polygon fill="#221916" fill-opacity="0.501961" points="89,47 59,48 58,35" />
<polygon fill="#ffffff" fill-opacity="0.501961" points="215,85 218,76 214,80" />
<polygon fill="#040200" fill-opacity="0.501961" points="47,-16 97,10 164,3" />
<polygon fill="#4b66a8" fill-opacity="0.501961" points="58,143 41,143 44,135" />
<polygon fill="#011d58" fill-opacity="0.501961" points="174,143 101,143 204,108" />
<polygon fill="#000000" fill-opacity="0.501961" points="106,-3 0,41 27,-1" />
<polygon fill="#ffe7d4" fill-opacity="0.501961" points="42,50 38,58 54,59" />
<polygon fill="#7d6077" fill-opacity="0.501961" points="214,70 207,69 212,82" />
<polygon fill="#debab0" fill-opacity="0.501961" points="210,46 211,53 231,51" />
<polygon fill="#001b54" fill-opacity="0.501961" points="146,127 143,122 144,114" />
<polygon fill="#415786" fill-opacity="0.501961" points="232,138 250,160 218,160" />
<polygon fill="#fbe0d3" fill-opacity="0.501961" points="65,101 58,96 47,107" />
<polygon fill="#000000" fill-opacity="0.501961" points="203,61 194,73 213,65" />
<polygon fill="#000000" fill-opacity="0.501961" points="-16,57 13,44 50,67" />
<polygon fill="#44434d" fill-opacity="0.501961" points="133,61 144,54 138,51" />
<polygon fill="#637ca7" fill-opacity="0.501961" points="43,130 54,122 45,123" />
<polygon fill="#845a6e" fill-opacity="0.501961" points="233,106 225,99 201,108" />
<polygon fill="#383648" fill-opacity="0.501961" points="227,47 237,46 226,42" />
<polygon fill="#000000" fill-opacity="0.501961" points="233,21 266,-16 271,71" />
<polygon fill="#7789a8" fill-opacity="0.501961" points="150,122 150,114 148,116" />
<polygon fill="#7989a4" fill-opacity="0.501961" points="143,115 120,117 143,122" />
<polygon fill="#6f7292" fill-opacity="0.501961" points="44,84 40,87 41,71" />
<polygon fill="#000000" fill-opacity="0.501961" points="15,149 28,143 1,143" />
<polygon fill="#151518" fill-opacity="0.501961" points="89,102 89,55 65,99" />
<polygon fill="#001a51" fill-opacity="0.501961" points="122,115 126,141 117,146" />
<polygon fill="#1c2852" fill-opacity="0.501961" points="214,41 219,41 212,47" />
<polygon fill="#0c2c6d" fill-opacity="0.501961" points="4,97 18,97 4,119" />
<polygon fill="#052563" fill-opacity="0.501961" points="247,127 251,135 253,114" />
<polygon fill="#563945" fill-opacity="0.501961" points="207,52 210,51 210,62" />
<polygon fill="#bab1a5" fill-opacity="0.501961" points="229,99 230,106 232,97" />
<polygon fill="#0f0d04" fill-opacity="0.501961" points="201,111 197,59 186,110" />
<polygon fill="#001850" fill-opacity="0.501961" points="175,128 197,113 146,112" />
<polygon fill="#241722" fill-opacity="0.501961" points="247,103 235,90 219,91" />
<polygon fill="#000000" fill-opacity="0.501961" points="98,42 95,60 110,56" />
<polygon fill="#695757" fill-opacity="0.501961" points="30,42 44,49 47,39" />
<polygon fill="#ffd7be" fill-opacity="0.501961" points="239,107 234,106 238,110" />
<polygon fill="#34322b" fill-opacity="0.501961" points="193,96 181,97 189,55" />
<polygon fill="#817077" fill-opacity="0.501961" points="52,103 45,97 52,99" />
<polygon fill="#a2aebf" fill-opacity="0.501961" points="117,118 120,119 118,121" />
<polygon fill="#826d6b" fill-opacity="0.501961" points="40,56 31,42 43,33" />
<polygon fill="#121009" fill-opacity="0.501961" points="71,69 92,4 65,26" />
<polygon fill="#50443f" fill-opacity="0.501961" points="244,143 197,144 188,160" />
<polygon fill="#3f3d31" fill-opacity="0.501961" points="115,105 140,104 118,99" />
<polygon fill="#4980ff" fill-opacity="0.501961" points="245,129 243,138 248,135" />
<polygon fill="#0c0902" fill-opacity="0.501961" points="79,109 90,103 111,108" />
<polygon fill="#000000" fill-opacity="0.501961" points="268,74 268,103 240,110" />
<polygon fill="#e9c975" fill-opacity="0.501961" points="40,97 49,98 42,86" />
<polygon fill="#162d5b" fill-opacity="0.501961" points="129,120 135,111 128,109" />
<polygon fill="#193773" fill-opacity="0.501961" points="154,111 139,115 133,110" />
<polygon fill="#a8a3ce" fill-opacity="0.501961" points="49,108 47,99 52,105" />
<polygon fill="#5d4f4f" fill-opacity="0.501961" points="57,33 63,31 67,42" />
<polygon fill="#090a0b" fill-opacity="0.501961" points="182,40 155,45 167,52" />
<polygon fill="#000000" fill-opacity="0.501961" points="263,26 243,72 231,65" />
<polygon fill="#00174f" fill-opacity="0.501961" points="252,113 237,118 236,140" />
<polygon fill="#2f2b1e" fill-opacity="0.501961" points="142,87 139,103 143,99" />
<polygon fill="#163165" fill-opacity="0.501961" points="181,110 162,110 151,121" />
<polygon fill="#22231d" fill-opacity="0.501961" points="143,10 160,37 171,11" />
<polygon fill="#001a54" fill-opacity="0.501961" points="92,116 97,143 113,140" />
<polygon fill="#001d5b" fill-opacity="0.501961" points="53,130 56,122 56,132" />
<polygon fill="#edf0e6" fill-opacity="0.501961" points="217,83 213,76 216,92" />
<polygon fill="#423f38" fill-opacity="0.501961" points="127,36 104,27 126,17" />
<polygon fill="#1a160e" fill-opacity="0.501961" points="125,110 156,111 155,98" />
<polygon fill="#fffffe" fill-opacity="0.501961" points="64,82 71,83 59,96" />
<polygon fill="#2f1827" fill-opacity="0.501961" points="209,100 224,89 205,92" />
<polygon fill="#4f72b3" fill-opacity="0.501961" points="58,111 52,115 44,111" />
<polygon fill="#906d62" fill-opacity="0.501961" points="35,80 38,82 28,86" />
<polygon fill="#143376" fill-opacity="0.501961" points="253,133 249,122 252,112" />
<polygon fill="#423f30" fill-opacity="0.501961" points="66,102 87,105 88,99" />
<polygon fill="#0e2c72" fill-opacity="0.501961" points="25,112 35,115 46,112" />
<polygon fill="#755069" fill-opacity="0.501961" points="238,74 226,77 236,69" />
<polygon fill="#143383" fill-opacity="0.501961" points="68,136 59,127 50,145" />
<polygon fill="#00154a" fill-opacity="0.501961" points="22,105 20,98 31,109" />
<polygon fill="#00134b" fill-opacity="0.501961" points="96,112 107,113 109,128" />
<polygon fill="#453450" fill-opacity="0.501961" points="145,63 138,71 137,64" />
<polygon fill="#000000" fill-opacity="0.501961" points="245,143 261,143 258,154" />
<polygon fill="#8a8ea6" fill-opacity="0.501961" points="31,112 34,108 34,113" />
<polygon fill="#a3a4c0" fill-opacity="0.501961" points="58,75 66,76 65,73" />
<polygon fill="#750022" fill-opacity="0.501961" points="222,73 218,72 219,76" />
<polygon fill="#766162" fill-opacity="0.501961" points="220,35 218,42 226,34" />
<polygon fill="#29261d" fill-opacity="0.501961" points="186,40 187,82 195,69" />
<polygon fill="#b16e57" fill-opacity="0.501961" points="62,143 81,156 40,145" />
<polygon fill="#ffffeb" fill-opacity="0.501961" points="225,57 219,52 229,54" />
<polygon fill="#171612" fill-opacity="0.501961" points="140,32 145,20 149,45" />
<polygon fill="#96807d" fill-opacity="0.501961" points="41,24 56,24 27,43" />
<polygon fill="#000000" fill-opacity="0.501961" points="151,32 158,35 160,33" />
<polygon fill="#001650" fill-opacity="0.501961" points="221,138 210,144 221,127" />
<polygon fill="#716b72" fill-opacity="0.501961" points="219,38 221,29 211,36" />
<polygon fill="#000000" fill-opacity="0.501961" points="176,56 187,70 176,75" />
<polygon fill="#16161a" fill-opacity="0.501961" points="141,74 169,45 178,75" />
<polygon fill="#734656" fill-opacity="0.501961" points="201,94 204,105 210,101" />
<polygon fill="#000000" fill-opacity="0.501961" points="230,-16 191,-8 197,44" />
<polygon fill="#fffff1" fill-opacity="0.501961" points="235,105 232,100 239,103" />
<polygon fill="#201608" fill-opacity="0.501961" points="139,33 109,39 121,52" />
<polygon fill="#1e1d16" fill-opacity="0.501961" points="78,10 99,12 107,40" />
<polygon fill="#484e92" fill-opacity="0.501961" points="60,75 54,74 57,70" />
<polygon fill="#736363" fill-opacity="0.501961" points="45,40 57,27 58,42" />
<polygon fill="#8d7878" fill-opacity="0.501961" points="25,45 58,27 39,31" />
<polygon fill="#00174f" fill-opacity="0.501961" points="249,113 252,128 232,130" />
<polygon fill="#364695" fill-opacity="0.501961" points="223,115 211,111 229,112" />
<polygon fill="#cc9187" fill-opacity="0.501961" points="50,74 50,63 59,68" />
<polygon fill="#abb7ca" fill-opacity="0.501961" points="42,77 39,69 39,80" />
<polygon fill="#414245" fill-opacity="0.501961" points="173,37 151,43 168,43" />
<polygon fill="#fcfefc" fill-opacity="0.501961" points="28,105 32,100 48,108" />
<polygon fill="#848a9f" fill-opacity="0.501961" points="217,21 230,21 212,37" />
<polygon fill="#815257" fill-opacity="0.501961" points="220,60 224,61 215,62" />
<polygon fill="#234aa3" fill-opacity="0.501961" points="25,131 27,140 30,127" />
<polygon fill="#001853" fill-opacity="0.501961" points="67,143 85,136 67,118" />
<polygon fill="#677996" fill-opacity="0.501961" points="17,102 14,104 21,106" />
<polygon fill="#060300" fill-opacity="0.501961" points="62,109 70,104 71,110" />
<polygon fill="#000000" fill-opacity="0.501961" points="3,81 -16,148 2,157" />
<polygon fill="#001851" fill-opacity="0.501961" points="183,127 143,112 192,112" />
<polygon fill="#070a10" fill-opacity="0.501961" points="209,53 214,58 214,65" />
<polygon fill="#000000" fill-opacity="0.501961" points="32,73 40,61 13,46" />
<polygon fill="#0f2a61" fill-opacity="0.501961" points="27,116 29,103 6,110" />
<polygon fill="#151217" fill-opacity="0.501961" points="233,52 231,61 241,48" />
<polygon fill="#001c5b" fill-opacity="0.501961" points="72,114 92,115 81,111" />
<polygon fill="#211c15" fill-opacity="0.501961" points="116,92 128,101 88,100" />
<polygon fill="#d6af79" fill-opacity="0.501961" points="33,99 47,95 31,91" />
<polygon fill="#87556d" fill-opacity="0.501961" points="241,74 241,89 235,77" />
<polygon fill="#000000" fill-opacity="0.501961" points="271,120 251,41 241,101" />
<polygon fill="#000000" fill-opacity="0.501961" points="94,81 88,91 102,93" />
<polygon fill="#001850" fill-opacity="0.501961" points="80,120 75,142 86,132" />
<polygon fill="#191511" fill-opacity="0.501961" points="152,88 180,77 180,104" />
<polygon fill="#041a5a" fill-opacity="0.501961" points="208,117 238,112 218,126" />
<polygon fill="#001850" fill-opacity="0.501961" points="151,139 117,121 124,142" />
<polygon fill="#150d15" fill-opacity="0.501961" points="36,56 35,52 34,53" />
<polygon fill="#ebc483" fill-opacity="0.501961" points="47,99 59,92 33,94" />
<polygon fill="#05296c" fill-opacity="0.501961" points="33,143 10,142 19,137" />
<polygon fill="#00194f" fill-opacity="0.501961" points="32,109 17,143 16,119" />
</g>
</svg>