<svg xmlns="http://www.w3.org/2000/svg" version="1.1" width="1024" height="580">
<rect x="0" y="0" width="1024" height="580" fill="#252834" />
<g transform="scale(4.000000) translate(0.5 0.5)">
<polygon fill="#ffffff" fill-opacity="0.501961" points="73,78 33,160 31,23" />
<polygon fill="#cc9fab" fill-opacity="0.501961" points="199,120 242,104 218,4" />
<polygon fill="#edd7bf" fill-opacity="0.501961" points="47,19 64,136 29,105" />
<polygon fill="#070200" fill-opacity="0.501961" points="188,133 -16,0 217,-16" />
<polygon fill="#000000" fill-opacity="0.501961" points="41,65 -16,129 -15,-16" />
<polygon fill="#001e84" fill-opacity="0.501961" points="261,108 46,113 237,160" />
<polygon fill="#000000" fill-opacity="0.501961" points="123,-1 268,31 271,-10" />
<polygon fill="#ccbfbd" fill-opacity="0.501961" points="231,21 224,95 204,26" />
<polygon fill="#09399d" fill-opacity="0.501961" points="2,143 10,102 151,143" />
<polygon fill="#cba7a0" fill-opacity="0.501961" points="46,82 35,27 59,22" />
<polygon fill="#110a05" fill-opacity="0.501961" points="70,83 263,90 158,115" />
<polygon fill="#000000" fill-opacity="0.501961" points="226,60 257,143 271,-13" />
<polygon fill="#0d0700" fill-opacity="0.501961" points="59,-16 105,49 53,73" />
<polygon fill="#f5eacf" fill-opacity="0.501961" points="42,158 46,82 72,71" />
<polygon fill="#000000" fill-opacity="0.501961" points="-16,-13 2,160 35,-3" />
<polygon fill="#fffff6" fill-opacity="0.501961" points="227,33 211,54 225,58" />
<polygon fill="#ad768f" fill-opacity="0.501961" points="197,75 242,90 241,68" />
<polygon fill="#fffff4" fill-opacity="0.501961" points="236,111 241,105 229,96" />
<polygon fill="#3e3b2e" fill-opacity="0.501961" points="178,17 141,64 89,11" />
<polygon fill="#866964" fill-opacity="0.501961" points="27,34 28,53 69,30" />
<polygon fill="#070600" fill-opacity="0.501961" points="74,112 69,56 180,86" />
<polygon fill="#000000" fill-opacity="0.501961" points="182,49 213,69 216,58" />
<polygon fill="#000000" fill-opacity="0.501961" points="48,69 -16,72 -3,30" />
<polygon fill="#000000" fill-opacity="0.501961" points="261,28 253,-16 169,6" />
<polygon fill="#00144e" fill-opacity="0.501961" points="40,136 212,160 174,106" />
<polygon fill="#f9db8f" fill-opacity="0.501961" points="31,113 59,97 33,72" />
<polygon fill="#000000" fill-opacity="0.501961" points="-16,16 82,26 114,-16" />
<polygon fill="#001452" fill-opacity="0.501961" points="23,151 -16,101 30,94" />
<polygon fill="#637bb7" fill-opacity="0.501961" points="72,126 33,160 30,114" />
<polygon fill="#000000" fill-opacity="0.501961" points="225,2 172,78 205,-16" />
<polygon fill="#8e647c" fill-opacity="0.501961" points="225,66 198,72 205,118" />
<polygon fill="#000000" fill-opacity="0.501961" points="247,115 271,61 234,-10" />
<polygon fill="#817886" fill-opacity="0.501961" points="219,18 238,27 231,57" />
<polygon fill="#000000" fill-opacity="0.501961" points="24,36 30,96 -16,97" />
<polygon fill="#ffffff" fill-opacity="0.501961" points="214,81 218,88 216,70" />
<polygon fill="#ffffff" fill-opacity="0.501961" points="66,90 46,89 69,69" />
<polygon fill="#61b1ff" fill-opacity="0.501961" points="241,136 246,138 246,127" />
<polygon fill="#5e5d6b" fill-opacity="0.501961" points="205,28 202,51 234,32" />
<polygon fill="#3f3d2c" fill-opacity="0.501961" points="192,46 192,99 171,112" />
<polygon fill="#120f0e" fill-opacity="0.501961" points="147,31 40,66 127,68" />
<polygon fill="#000000" fill-opacity="0.501961" points="78,-5 -16,0 9,45" />
<polygon fill="#000000" fill-opacity="0.501961" points="225,66 271,82 270,5" />
<polygon fill="#ffffe4" fill-opacity="0.501961" points="35,59 48,44 49,66" />
<polygon fill="#a7b5d7" fill-opacity="0.501961" points="55,75 31,90 35,68" />
<polygon fill="#8e7484" fill-opacity="0.501961" points="141,71 136,66 145,50" />
<polygon fill="#20071e" fill-opacity="0.501961" points="199,89 212,101 246,94" />
<polygon fill="#ffffff" fill-opacity="0.501961" points="31,88 38,108 30,111" />
<polygon fill="#d9b152" fill-opacity="0.501961" points="50,106 61,90 35,89" />
<polygon fill="#620000" fill-opacity="0.501961" points="217,69 222,70 220,88" />
<polygon fill="#ffffff" fill-opacity="0.501961" points="219,88 226,71 226,83" />
<polygon fill="#1c180c" fill-opacity="0.501961" points="73,78 139,110 60,107" />
<polygon fill="#ffe7d1" fill-opacity="0.501961" points="219,61 233,50 209,46" />
<polygon fill="#736163" fill-opacity="0.501961" points="59,25 17,47 63,44" />
<polygon fill="#274990" fill-opacity="0.501961" points="228,149 198,113 200,160" />
<polygon fill="#203c8d" fill-opacity="0.501961" points="74,157 64,131 34,130" />
<polygon fill="#553047" fill-opacity="0.501961" points="212,109 216,94 243,114" />
<polygon fill="#000000" fill-opacity="0.501961" points="35,61 25,100 8,24" />
<polygon fill="#6d0013" fill-opacity="0.501961" points="217,87 222,95 221,74" />
<polygon fill="#2e56a3" fill-opacity="0.501961" points="65,110 59,117 41,113" />
<polygon fill="#cf8180" fill-opacity="0.501961" points="52,69 54,58 40,73" />
<polygon fill="#000000" fill-opacity="0.501961" points="197,27 93,-6 271,1" />
<polygon fill="#080600" fill-opacity="0.501961" points="204,109 161,111 198,96" />
<polygon fill="#000000" fill-opacity="0.501961" points="196,49 190,77 212,65" />
<polygon fill="#46373a" fill-opacity="0.501961" points="46,52 65,41 64,55" />
<polygon fill="#542f48" fill-opacity="0.501961" points="227,68 229,88 243,94" />
<polygon fill="#001b56" fill-opacity="0.501961" points="162,160 57,111 201,111" />
<polygon fill="#062a6a" fill-opacity="0.501961" points="25,98 5,96 4,160" />
<polygon fill="#bd9f96" fill-opacity="0.501961" points="27,40 34,28 47,26" />
<polygon fill="#ffffff" fill-opacity="0.501961" points="41,105 60,111 30,110" />
<polygon fill="#002878" fill-opacity="0.501961" points="252,156 253,109 242,116" />
<polygon fill="#ffffff" fill-opacity="0.501961" points="65,73 70,80 58,102" />
<polygon fill="#ffffff" fill-opacity="0.501961" points="213,78 218,65 216,88" />
<polygon fill="#28271d" fill-opacity="0.501961" points="196,61 126,7 181,13" />
<polygon fill="#8ea3c1" fill-opacity="0.501961" points="31,113 64,128 34,129" />
<polygon fill="#97b6d7" fill-opacity="0.501961" points="210,109 203,117 200,111" />
<polygon fill="#3e2754" fill-opacity="0.501961" points="47,87 46,79 43,83" />
<polygon fill="#444236" fill-opacity="0.501961" points="96,96 122,104 70,104" />
<polygon fill="#000000" fill-opacity="0.501961" points="271,116 233,97 266,86" />
<polygon fill="#6b465f" fill-opacity="0.501961" points="214,87 210,67 198,90" />
<polygon fill="#3a3138" fill-opacity="0.501961" points="226,44 240,36 239,54" />
<polygon fill="#010000" fill-opacity="0.501961" points="257,81 271,36 222,60" />
<polygon fill="#060500" fill-opacity="0.501961" points="187,11 204,46 197,93" />
<polygon fill="#fffffa" fill-opacity="0.501961" points="233,99 245,104 232,103" />
<polygon fill="#000000" fill-opacity="0.501961" points="164,-16 -15,-10 59,27" />
<polygon fill="#18140c" fill-opacity="0.501961" points="68,9 55,69 129,41" />
<polygon fill="#37352c" fill-opacity="0.501961" points="160,13 106,33 73,11" />
<polygon fill="#000000" fill-opacity="0.501961" points="236,11 259,142 271,85" />
<polygon fill="#000000" fill-opacity="0.501961" points="-16,141 1,69 6,160" />
<polygon fill="#917c7b" fill-opacity="0.501961" points="39,24 28,45 58,28" />
<polygon fill="#697bba" fill-opacity="0.501961" points="45,81 66,70 53,71" />
<polygon fill="#7c8aa9" fill-opacity="0.501961" points="203,34 233,30 214,22" />
<polygon fill="#ffffea" fill-opacity="0.501961" points="238,109 229,100 237,101" />
<polygon fill="#000000" fill-opacity="0.501961" points="-16,5 51,-16 10,73" />
<polygon fill="#3d3c2d" fill-opacity="0.501961" points="166,97 190,105 148,103" />
<polygon fill="#ffecd2" fill-opacity="0.501961" points="226,36 221,40 224,51" />
<polygon fill="#382e32" fill-opacity="0.501961" points="217,42 205,45 209,39" />
<polygon fill="#0f0f0f" fill-opacity="0.501961" points="183,43 140,45 165,101" />
<polygon fill="#000000" fill-opacity="0.501961" points="197,50 186,-16 223,-11" />
<polygon fill="#47639e" fill-opacity="0.501961" points="47,121 31,129 49,110" />
<polygon fill="#986179" fill-opacity="0.501961" points="230,102 218,99 201,110" />
<polygon fill="#1f181a" fill-opacity="0.501961" points="216,61 204,43 204,69" />
<polygon fill="#000000" fill-opacity="0.501961" points="44,69 -1,12 -16,37" />
<polygon fill="#5b6b91" fill-opacity="0.501961" points="194,142 235,142 254,160" />
<polygon fill="#121111" fill-opacity="0.501961" points="71,98 74,-1 125,100" />
<polygon fill="#001148" fill-opacity="0.501961" points="8,111 29,115 7,160" />
<polygon fill="#8f97ae" fill-opacity="0.501961" points="227,20 234,24 217,21" />
<polygon fill="#7a4035" fill-opacity="0.501961" points="37,85 37,80 32,81" />
<polygon fill="#ffedd9" fill-opacity="0.501961" points="54,63 37,62 41,51" />
<polygon fill="#031e5f" fill-opacity="0.501961" points="255,125 231,106 200,149" />
<polygon fill="#2548a3" fill-opacity="0.501961" points="35,150 30,123 25,141" />
<polygon fill="#5893ff" fill-opacity="0.501961" points="241,139 249,136 245,130" />
<polygon fill="#9e94b2" fill-opacity="0.501961" points="61,142 32,143 52,160" />
<polygon fill="#454642" fill-opacity="0.501961" points="165,33 153,44 171,41" />
<polygon fill="#121318" fill-opacity="0.501961" points="68,69 140,75 134,42" />
<polygon fill="#b99d8f" fill-opacity="0.501961" points="27,46 28,36 35,31" />
<polygon fill="#e9faec" fill-opacity="0.501961" points="227,80 223,91 222,65" />
<polygon fill="#050200" fill-opacity="0.501961" points="172,29 178,76 191,73" />
<polygon fill="#000000" fill-opacity="0.501961" points="84,88 152,98 168,74" />
<polygon fill="#e4e8e4" fill-opacity="0.501961" points="43,87 36,68 33,73" />
<polygon fill="#46433b" fill-opacity="0.501961" points="123,38 128,20 102,19" />
<polygon fill="#f2e083" fill-opacity="0.501961" points="39,99 48,88 31,84" />
<polygon fill="#d5dbd2" fill-opacity="0.501961" points="211,85 217,91 215,65" />
<polygon fill="#66435c" fill-opacity="0.501961" points="210,91 213,76 203,69" />
<polygon fill="#fffff4" fill-opacity="0.501961" points="55,108 63,94 45,110" />
<polygon fill="#ffffff" fill-opacity="0.501961" points="47,81 51,91 68,81" />
<polygon fill="#000000" fill-opacity="0.501961" points="23,97 35,65 -16,96" />
<polygon fill="#eccbc0" fill-opacity="0.501961" points="227,58 208,49 231,48" />
<polygon fill="#4c4a36" fill-opacity="0.501961" points="131,105 116,101 146,99" />
<polygon fill="#3e3b33" fill-opacity="0.501961" points="180,73 192,74 185,108" />
<polygon fill="#281526" fill-opacity="0.501961" points="228,98 245,88 205,93" />
<polygon fill="#835c79" fill-opacity="0.501961" points="202,100 199,75 208,68" />
<polygon fill="#0b246a" fill-opacity="0.501961" points="251,111 218,142 202,116" />
<polygon fill="#9b7165" fill-opacity="0.501961" points="215,59 225,62 217,73" />
<polygon fill="#00144d" fill-opacity="0.501961" points="60,123 104,111 119,123" />
<polygon fill="#000000" fill-opacity="0.501961" points="271,24 171,13 271,-12" />
<polygon fill="#090801" fill-opacity="0.501961" points="201,111 189,110 199,65" />
<polygon fill="#74869f" fill-opacity="0.501961" points="19,104 13,106 17,99" />
<polygon fill="#00174f" fill-opacity="0.501961" points="132,113 193,139 61,142" />
<polygon fill="#342a32" fill-opacity="0.501961" points="205,62 205,43 214,60" />
<polygon fill="#050409" fill-opacity="0.501961" points="80,58 54,66 55,55" />
<polygon fill="#563a43" fill-opacity="0.501961" points="239,46 228,61 233,47" />
<polygon fill="#b78181" fill-opacity="0.501961" points="51,63 54,69 40,72" />
<polygon fill="#000000" fill-opacity="0.501961" points="105,158 64,143 137,143" />
<polygon fill="#151519" fill-opacity="0.501961" points="72,75 127,52 64,111" />
<polygon fill="#ccab62" fill-opacity="0.501961" points="56,99 41,85 48,84" />
<polygon fill="#584341" fill-opacity="0.501961" points="34,39 32,51 26,53" />
<polygon fill="#9caec5" fill-opacity="0.501961" points="53,114 65,118 43,121" />
<polygon fill="#696572" fill-opacity="0.501961" points="140,51 143,61 134,55" />
<polygon fill="#092965" fill-opacity="0.501961" points="30,111 30,97 11,98" />
<polygon fill="#3d5578" fill-opacity="0.501961" points="75,127 88,131 91,122" />
<polygon fill="#663f54" fill-opacity="0.501961" points="225,94 238,75 227,80" />
<polygon fill="#00113a" fill-opacity="0.501961" points="252,132 240,105 240,123" />
<polygon fill="#4b2b30" fill-opacity="0.501961" points="216,105 211,111 237,110" />
<polygon fill="#070000" fill-opacity="0.501961" points="196,143 144,160 91,143" />
<polygon fill="#000000" fill-opacity="0.501961" points="254,97 253,153 271,160" />
<polygon fill="#112e6c" fill-opacity="0.501961" points="54,126 58,138 49,147" />
<polygon fill="#fff2da" fill-opacity="0.501961" points="47,44 50,44 53,53" />
<polygon fill="#000000" fill-opacity="0.501961" points="239,110 264,90 271,112" />
<polygon fill="#000000" fill-opacity="0.501961" points="242,103 249,-6 271,103" />
<polygon fill="#010100" fill-opacity="0.501961" points="152,-2 22,28 67,-16" />
<polygon fill="#d3b076" fill-opacity="0.501961" points="58,96 32,90 50,108" />
<polygon fill="#0c0800" fill-opacity="0.501961" points="113,103 138,110 90,110" />
<polygon fill="#2d2c22" fill-opacity="0.501961" points="191,25 190,54 180,46" />
<polygon fill="#a4b6d3" fill-opacity="0.501961" points="32,118 39,124 38,113" />
<polygon fill="#112e63" fill-opacity="0.501961" points="149,111 175,119 197,110" />
<polygon fill="#805970" fill-opacity="0.501961" points="240,73 223,69 241,92" />
<polygon fill="#634f50" fill-opacity="0.501961" points="49,33 37,49 43,33" />
<polygon fill="#000000" fill-opacity="0.501961" points="46,15 64,33 82,34" />
<polygon fill="#855c71" fill-opacity="0.501961" points="233,106 228,98 207,101" />
<polygon fill="#e4c76f" fill-opacity="0.501961" points="36,88 47,85 38,109" />
<polygon fill="#352a31" fill-opacity="0.501961" points="65,31 52,44 61,64" />
<polygon fill="#4c579c" fill-opacity="0.501961" points="235,111 209,110 218,115" />
<polygon fill="#000000" fill-opacity="0.501961" points="3,74 2,150 -16,141" />
<polygon fill="#ffffef" fill-opacity="0.501961" points="48,77 44,71 46,79" />
<polygon fill="#000000" fill-opacity="0.501961" points="214,60 213,69 194,63" />
<polygon fill="#1d1911" fill-opacity="0.501961" points="110,6 79,9 78,77" />
<polygon fill="#504c55" fill-opacity="0.501961" points="215,36 205,50 202,38" />
<polygon fill="#7c94b8" fill-opacity="0.501961" points="45,74 35,76 38,68" />
<polygon fill="#fffff3" fill-opacity="0.501961" points="220,59 213,55 229,53" />
<polygon fill="#ffedd7" fill-opacity="0.501961" points="35,56 51,54 44,63" />
<polygon fill="#08265e" fill-opacity="0.501961" points="67,121 82,110 59,113" />
<polygon fill="#867576" fill-opacity="0.501961" points="50,24 63,40 59,28" />
<polygon fill="#403f47" fill-opacity="0.501961" points="209,46 207,57 203,49" />
<polygon fill="#c3b7aa" fill-opacity="0.501961" points="224,57 220,66 227,76" />
<polygon fill="#f7f6ee" fill-opacity="0.501961" points="32,75 33,80 38,79" />
<polygon fill="#968180" fill-opacity="0.501961" points="37,27 43,38 44,24" />
<polygon fill="#ebc6ac" fill-opacity="0.501961" points="33,47 40,50 34,52" />
<polygon fill="#000000" fill-opacity="0.501961" points="64,111 81,106 62,106" />
<polygon fill="#373833" fill-opacity="0.501961" points="135,20 145,45 135,44" />
<polygon fill="#98a6be" fill-opacity="0.501961" points="41,130 66,126 50,123" />
<polygon fill="#001750" fill-opacity="0.501961" points="148,112 197,138 195,113" />
<polygon fill="#6e5452" fill-opacity="0.501961" points="35,38 33,47 39,50" />
<polygon fill="#000000" fill-opacity="0.501961" points="41,66 10,33 -7,65" />
<polygon fill="#ffffff" fill-opacity="0.501961" points="57,78 47,84 58,88" />
<polygon fill="#050000" fill-opacity="0.501961" points="-8,143 31,144 -10,155" />
<polygon fill="#1b1817" fill-opacity="0.501961" points="181,79 178,106 155,87" />
<polygon fill="#74544f" fill-opacity="0.501961" points="53,59 52,53 59,47" />
<polygon fill="#7f6870" fill-opacity="0.501961" points="237,28 218,41 232,22" />
<polygon fill="#9aa2bc" fill-opacity="0.501961" points="202,109 210,110 199,117" />
<polygon fill="#838ba7" fill-opacity="0.501961" points="212,23 204,35 226,20" />
<polygon fill="#000000" fill-opacity="0.501961" points="108,55 101,60 96,38" />
<polygon fill="#8f8aa4" fill-opacity="0.501961" points="59,78 59,69 68,67" />
<polygon fill="#f5cb7b" fill-opacity="0.501961" points="56,112 64,96 57,103" />
<polygon fill="#000000" fill-opacity="0.501961" points="266,30 252,44 231,20" />
<polygon fill="#060500" fill-opacity="0.501961" points="117,15 117,-14 160,-3" />
<polygon fill="#566499" fill-opacity="0.501961" points="33,138 36,127 57,146" />
<polygon fill="#2e53b0" fill-opacity="0.501961" points="49,111 38,112 45,114" />
<polygon fill="#ffffff" fill-opacity="0.501961" points="35,105 33,94 31,110" />
<polygon fill="#11110f" fill-opacity="0.501961" points="111,98 129,29 138,63" />
<polygon fill="#1f180d" fill-opacity="0.501961" points="129,31 172,31 117,46" />
<polygon fill="#273a94" fill-opacity="0.501961" points="222,127 229,128 229,136" />
<polygon fill="#fff1d0" fill-opacity="0.501961" points="89,159 -13,155 40,143" />
<polygon fill="#151519" fill-opacity="0.501961" points="122,69 79,84 60,57" />
<polygon fill="#513229" fill-opacity="0.501961" points="37,52 31,53 36,54" />
<polygon fill="#6f445d" fill-opacity="0.501961" points="199,89 214,109 204,106" />
<polygon fill="#392e33" fill-opacity="0.501961" points="217,44 210,36 211,42" />
<polygon fill="#001952" fill-opacity="0.501961" points="85,125 62,133 94,141" />
<polygon fill="#001951" fill-opacity="0.501961" points="57,123 117,123 91,113" />
<polygon fill="#130b15" fill-opacity="0.501961" points="232,70 225,59 227,69" />
<polygon fill="#0d1c39" fill-opacity="0.501961" points="37,63 41,66 43,73" />
<polygon fill="#6b6773" fill-opacity="0.501961" points="210,46 213,30 203,36" />
<polygon fill="#18160a" fill-opacity="0.501961" points="132,111 168,111 146,98" />
<polygon fill="#45619a" fill-opacity="0.501961" points="207,115 201,121 204,112" />
<polygon fill="#6f475d" fill-opacity="0.501961" points="212,80 202,89 215,90" />
<polygon fill="#2a1826" fill-opacity="0.501961" points="221,89 203,98 242,96" />
<polygon fill="#2547a6" fill-opacity="0.501961" points="58,143 66,140 62,130" />
<polygon fill="#000000" fill-opacity="0.501961" points="247,-9 160,-7 203,30" />
<polygon fill="#000000" fill-opacity="0.501961" points="-16,96 33,62 28,97" />
<polygon fill="#a38980" fill-opacity="0.501961" points="35,39 37,27 30,33" />
<polygon fill="#ffefd9" fill-opacity="0.501961" points="46,42 46,46 53,49" />
<polygon fill="#1d3375" fill-opacity="0.501961" points="26,160 33,135 35,155" />
<polygon fill="#000000" fill-opacity="0.501961" points="72,-8 21,39 -12,-5" />
<polygon fill="#040000" fill-opacity="0.501961" points="257,160 252,143 196,148" />
<polygon fill="#504441" fill-opacity="0.501961" points="242,143 209,160 198,143" />
<polygon fill="#ffe2cf" fill-opacity="0.501961" points="53,58 39,47 41,62" />
<polygon fill="#8c7778" fill-opacity="0.501961" points="45,23 29,34 57,27" />
<polygon fill="#000000" fill-opacity="0.501961" points="179,54 175,80 186,68" />
<polygon fill="#ffff8d" fill-opacity="0.501961" points="45,93 49,92 44,86" />
<polygon fill="#060507" fill-opacity="0.501961" points="204,107 196,111 195,84" />
<polygon fill="#5b6f8c" fill-opacity="0.501961" points="79,126 80,123 84,127" />
<polygon fill="#9e806a" fill-opacity="0.501961" points="244,105 240,103 240,108" />
<polygon fill="#5979be" fill-opacity="0.501961" points="60,111 28,111 47,117" />
<polygon fill="#2b2730" fill-opacity="0.501961" points="234,37 226,45 235,46" />
<polygon fill="#0a0a0c" fill-opacity="0.501961" points="83,53 56,70 55,53" />
<polygon fill="#000000" fill-opacity="0.501961" points="249,110 271,105 239,99" />
<polygon fill="#bfcfea" fill-opacity="0.501961" points="54,115 48,115 51,125" />
<polygon fill="#171619" fill-opacity="0.501961" points="174,57 175,88 130,43" />
<polygon fill="#8f9bba" fill-opacity="0.501961" points="49,74 64,70 51,80" />
<polygon fill="#00164e" fill-opacity="0.501961" points="70,126 72,112 93,119" />
<polygon fill="#556683" fill-opacity="0.501961" points="62,118 50,127 58,116" />
<polygon fill="#f4dac4" fill-opacity="0.501961" points="52,52 51,60 47,53" />
<polygon fill="#403e30" fill-opacity="0.501961" points="65,103 78,99 91,104" />
<polygon fill="#2e091c" fill-opacity="0.501961" points="221,86 213,98 222,99" />
<polygon fill="#071d5e" fill-opacity="0.501961" points="217,140 228,112 213,112" />
<polygon fill="#d2ada6" fill-opacity="0.501961" points="211,52 214,47 225,50" />
<polygon fill="#fee1cd" fill-opacity="0.501961" points="47,64 42,56 34,55" />
<polygon fill="#ffffff" fill-opacity="0.501961" points="51,112 60,100 54,102" />
<polygon fill="#fff9e8" fill-opacity="0.501961" points="213,51 221,51 219,58" />
<polygon fill="#434340" fill-opacity="0.501961" points="139,35 147,40 135,38" />
<polygon fill="#26447b" fill-opacity="0.501961" points="5,112 24,112 14,108" />
<polygon fill="#3b3932" fill-opacity="0.501961" points="138,32 100,12 105,30" />
<polygon fill="#fff0dc" fill-opacity="0.501961" points="225,36 225,44 214,49" />
<polygon fill="#0f0e09" fill-opacity="0.501961" points="190,16 196,48 166,6" />
<polygon fill="#383528" fill-opacity="0.501961" points="110,104 139,105 119,97" />
<polygon fill="#12000d" fill-opacity="0.501961" points="221,73 221,70 217,71" />
<polygon fill="#010101" fill-opacity="0.501961" points="34,83 -9,97 -2,83" />
<polygon fill="#001952" fill-opacity="0.501961" points="4,114 30,116 22,143" />
<polygon fill="#f8dcd4" fill-opacity="0.501961" points="139,61 141,60 139,58" />
<polygon fill="#00175b" fill-opacity="0.501961" points="251,139 237,138 248,143" />
<polygon fill="#36342b" fill-opacity="0.501961" points="188,52 193,67 186,72" />
<polygon fill="#000000" fill-opacity="0.501961" points="97,100 91,84 101,90" />
<polygon fill="#223969" fill-opacity="0.501961" points="42,117 39,112 41,124" />
<polygon fill="#15161a" fill-opacity="0.501961" points="100,92 137,56 105,47" />
<polygon fill="#94a5c6" fill-opacity="0.501961" points="38,67 33,71 44,74" />
<polygon fill="#776e7e" fill-opacity="0.501961" points="225,20 234,26 233,34" />
<polygon fill="#18131a" fill-opacity="0.501961" points="60,43 55,48 56,35" />
<polygon fill="#ffffc0" fill-opacity="0.501961" points="37,94 41,88 41,80" />
<polygon fill="#3f3d30" fill-opacity="0.501961" points="162,106 151,98 172,102" />
<polygon fill="#a8a69e" fill-opacity="0.501961" points="230,107 227,105 230,99" />
<polygon fill="#4e85ff" fill-opacity="0.501961" points="243,131 248,135 240,136" />
<polygon fill="#476096" fill-opacity="0.501961" points="40,78 38,74 43,78" />
<polygon fill="#23100a" fill-opacity="0.501961" points="231,107 235,109 229,111" />
<polygon fill="#7b5167" fill-opacity="0.501961" points="203,107 232,106 226,99" />
<polygon fill="#d9d2c5" fill-opacity="0.501961" points="32,77 37,75 31,85" />
<polygon fill="#0b2f75" fill-opacity="0.501961" points="98,111 81,116 64,111" />
<polygon fill="#fffff7" fill-opacity="0.501961" points="66,73 63,92 70,78" />
<polygon fill="#000000" fill-opacity="0.501961" points="121,73 124,99 149,81" />
<polygon fill="#001a53" fill-opacity="0.501961" points="250,129 247,110 228,131" />
<polygon fill="#191a14" fill-opacity="0.501961" points="176,12 148,8 181,42" />
<polygon fill="#a1a59d" fill-opacity="0.501961" points="216,62 213,68 216,70" />
<polygon fill="#1b3e80" fill-opacity="0.501961" points="4,112 7,108 4,98" />
<polygon fill="#171710" fill-opacity="0.501961" points="127,10 128,26 132,10" />
<polygon fill="#5e2030" fill-opacity="0.501961" points="227,58 230,63 230,57" />
<polygon fill="#000000" fill-opacity="0.501961" points="258,111 232,50 271,74" />
<polygon fill="#000000" fill-opacity="0.501961" points="239,108 254,104 270,113" />
<polygon fill="#001a53" fill-opacity="0.501961" points="183,133 188,141 204,116" />
<polygon fill="#001952" fill-opacity="0.501961" points="191,112 122,142 74,112" />
<polygon fill="#192f7f" fill-opacity="0.501961" points="217,129 210,121 206,143" />
<polygon fill="#885d78" fill-opacity="0.501961" points="233,72 241,74 237,70" />
<polygon fill="#20170c" fill-opacity="0.501961" points="129,37 75,32 70,48" />
<polygon fill="#c28983" fill-opacity="0.501961" points="222,50 224,52 230,51" />
<polygon fill="#3c3a34" fill-opacity="0.501961" points="131,14 133,29 148,17" />
<polygon fill="#000000" fill-opacity="0.501961" points="22,97 -16,75 26,14" />
<polygon fill="#545685" fill-opacity="0.501961" points="69,71 64,70 66,69" />
<polygon fill="#151516" fill-opacity="0.501961" points="51,51 80,79 123,83" />
<polygon fill="#000000" fill-opacity="0.501961" points="260,-16 255,21 206,19" />
<polygon fill="#841644" fill-opacity="0.501961" points="222,74 216,74 224,71" />
<polygon fill="#040401" fill-opacity="0.501961" points="196,23 194,74 207,66" />
<polygon fill="#d1b26d" fill-opacity="0.501961" points="37,92 37,104 44,86" />
<polygon fill="#fff8b3" fill-opacity="0.501961" points="45,94 37,86 32,87" />
<polygon fill="#573741" fill-opacity="0.501961" points="209,62 211,55 208,49" />
<polygon fill="#373533" fill-opacity="0.501961" points="146,37 172,34 168,42" />
<polygon fill="#12357c" fill-opacity="0.501961" points="147,115 135,111 155,111" />
<polygon fill="#98aacc" fill-opacity="0.501961" points="56,130 47,124 33,127" />
<polygon fill="#423f39" fill-opacity="0.501961" points="181,83 181,97 189,84" />
<polygon fill="#f9decc" fill-opacity="0.501961" points="230,105 233,98 243,105" />
<polygon fill="#151315" fill-opacity="0.501961" points="102,99 72,80 64,101" />
<polygon fill="#7e6d6f" fill-opacity="0.501961" points="43,29 60,30 47,37" />
<polygon fill="#a67370" fill-opacity="0.501961" points="55,67 53,61 47,65" />
<polygon fill="#000000" fill-opacity="0.501961" points="271,122 254,103 253,148" />
<polygon fill="#9ba299" fill-opacity="0.501961" points="219,67 225,72 225,63" />
<polygon fill="#060300" fill-opacity="0.501961" points="75,108 60,109 63,105" />
<polygon fill="#89858e" fill-opacity="0.501961" points="228,28 215,40 224,20" />
<polygon fill="#193e86" fill-opacity="0.501961" points="226,135 229,141 240,143" />
<polygon fill="#0b2b69" fill-opacity="0.501961" points="164,136 138,143 187,143" />
<polygon fill="#001952" fill-opacity="0.501961" points="197,111 91,142 197,141" />
<polygon fill="#1e1d12" fill-opacity="0.501961" points="138,91 145,83 139,99" />
<polygon fill="#0a2866" fill-opacity="0.501961" points="241,110 252,143 252,110" />
<polygon fill="#fffffa" fill-opacity="0.501961" points="41,111 43,105 49,110" />
<polygon fill="#736c75" fill-opacity="0.501961" points="217,33 221,41 231,25" />
<polygon fill="#00154c" fill-opacity="0.501961" points="250,112 234,113 251,133" />
<polygon fill="#111013" fill-opacity="0.501961" points="132,51 147,43 176,51" />
<polygon fill="#414039" fill-opacity="0.501961" points="150,27 146,32 148,16" />
<polygon fill="#070500" fill-opacity="0.501961" points="194,156 194,143 150,143" />
<polygon fill="#1a170c" fill-opacity="0.501961" points="178,103 158,110 193,111" />
<polygon fill="#0f0d08" fill-opacity="0.501961" points="123,107 151,110 152,102" />
<polygon fill="#100e03" fill-opacity="0.501961" points="66,103 63,110 90,110" />
<polygon fill="#744f64" fill-opacity="0.501961" points="200,97 200,90 213,105" />
<polygon fill="#38529c" fill-opacity="0.501961" points="26,138 41,126 31,144" />
<polygon fill="#030401" fill-opacity="0.501961" points="52,12 66,36 78,26" />
<polygon fill="#030300" fill-opacity="0.501961" points="102,49 72,59 104,59" />
<polygon fill="#001a53" fill-opacity="0.501961" points="198,112 170,142 59,112" />
<polygon fill="#020201" fill-opacity="0.501961" points="24,49 17,59 41,67" />
<polygon fill="#001248" fill-opacity="0.501961" points="26,108 8,109 28,102" />
<polygon fill="#1b2a50" fill-opacity="0.501961" points="231,104 239,113 238,118" />
<polygon fill="#aaaeb7" fill-opacity="0.501961" points="61,72 51,78 57,77" />
<polygon fill="#445c99" fill-opacity="0.501961" points="198,142 204,160 219,142" />
<polygon fill="#3a3830" fill-opacity="0.501961" points="182,39 188,43 180,52" />
<polygon fill="#735e5c" fill-opacity="0.501961" points="27,52 28,45 42,43" />
<polygon fill="#4d68a4" fill-opacity="0.501961" points="204,116 196,111 210,113" />
</g>
</svg>