<svg xmlns="http://www.w3.org/2000/svg" version="1.1" width="1024" height="580">
<rect x="0" y="0" width="1024" height="580" fill="#111624" />
<g transform="scale(4.000000) translate(0.5 0.5)">
<polygon fill="#fffaff" fill-opacity="0.501961" points="47,95 1,96 15,56" />
<polygon fill="#1d4089" fill-opacity="0.501961" points="92,85 271,142 -5,143" />
<polygon fill="#000000" fill-opacity="0.501961" points="259,121 255,-16 -16,3" />
<polygon fill="#342c23" fill-opacity="0.501961" points="161,111 170,50 -15,111" />
<polygon fill="#000000" fill-opacity="0.501961" points="77,45 -12,63 8,-16" />
<polygon fill="#af989a" fill-opacity="0.501961" points="8,59 37,57 11,111" />
<polygon fill="#001e6b" fill-opacity="0.501961" points="76,111 254,111 250,160" />
<polygon fill="#264885" fill-opacity="0.501961" points="8,95 129,132 3,129" />
<polygon fill="#000000" fill-opacity="0.501961" points="43,46 77,104 44,114" />
<polygon fill="#352c23" fill-opacity="0.501961" points="57,13 128,105 115,5" />
<polygon fill="#000000" fill-opacity="0.501961" points="236,-16 271,109 149,110" />
<polygon fill="#fff0e2" fill-opacity="0.501961" points="32,84 4,97 23,72" />
<polygon fill="#8c9bae" fill-opacity="0.501961" points="65,115 102,135 84,116" />
<polygon fill="#665456" fill-opacity="0.501961" points="7,64 38,58 44,89" />
<polygon fill="#000a4f" fill-opacity="0.501961" points="2,103 72,139 9,141" />
<polygon fill="#000000" fill-opacity="0.501961" points="209,111 93,-11 271,1" />
<polygon fill="#000000" fill-opacity="0.501961" points="17,111 68,110 59,84" />
<polygon fill="#000000" fill-opacity="0.501961" points="64,-16 -16,16 63,80" />
<polygon fill="#2447bf" fill-opacity="0.501961" points="5,84 4,61 17,89" />
<polygon fill="#000000" fill-opacity="0.501961" points="3,64 -16,82 3,136" />
<polygon fill="#ac8c7f" fill-opacity="0.501961" points="87,81 83,99 95,92" />
<polygon fill="#000000" fill-opacity="0.501961" points="31,88 32,79 39,78" />
<polygon fill="#5499ff" fill-opacity="0.501961" points="246,128 248,137 237,138" />
<polygon fill="#62728e" fill-opacity="0.501961" points="35,117 70,116 67,133" />
<polygon fill="#c3daff" fill-opacity="0.501961" points="35,92 40,81 43,96" />
<polygon fill="#313034" fill-opacity="0.501961" points="167,139 146,91 166,14" />
<polygon fill="#6380b0" fill-opacity="0.501961" points="25,98 22,111 10,103" />
<polygon fill="#332c22" fill-opacity="0.501961" points="90,79 64,13 65,113" />
<polygon fill="#a2adbc" fill-opacity="0.501961" points="92,124 78,130 104,128" />
<polygon fill="#60432a" fill-opacity="0.501961" points="106,45 117,77 114,10" />
<polygon fill="#00164f" fill-opacity="0.501961" points="121,141 230,108 244,142" />
<polygon fill="#001e5f" fill-opacity="0.501961" points="1,100 20,93 30,99" />
<polygon fill="#143266" fill-opacity="0.501961" points="60,160 169,138 120,112" />
<polygon fill="#001852" fill-opacity="0.501961" points="-2,142 29,98 43,138" />
<polygon fill="#000000" fill-opacity="0.501961" points="3,-16 -16,63 64,45" />
<polygon fill="#000000" fill-opacity="0.501961" points="158,-9 160,73 97,-16" />
<polygon fill="#011e58" fill-opacity="0.501961" points="79,139 88,116 62,137" />
<polygon fill="#473942" fill-opacity="0.501961" points="6,77 15,64 12,81" />
<polygon fill="#2a282a" fill-opacity="0.501961" points="91,67 169,110 96,109" />
<polygon fill="#000e40" fill-opacity="0.501961" points="64,121 53,126 56,106" />
<polygon fill="#000000" fill-opacity="0.501961" points="39,105 66,110 63,37" />
<polygon fill="#001c59" fill-opacity="0.501961" points="233,142 253,111 132,113" />
<polygon fill="#ffe1cb" fill-opacity="0.501961" points="20,92 31,80 17,75" />
<polygon fill="#000000" fill-opacity="0.501961" points="2,82 5,97 -4,94" />
<polygon fill="#000000" fill-opacity="0.501961" points="3,144 -16,139 3,116" />
<polygon fill="#000000" fill-opacity="0.501961" points="260,110 168,109 167,-16" />
<polygon fill="#000000" fill-opacity="0.501961" points="58,98 30,99 33,112" />
<polygon fill="#000000" fill-opacity="0.501961" points="149,8 64,-16 -16,7" />
<polygon fill="#353349" fill-opacity="0.501961" points="42,56 25,74 43,81" />
<polygon fill="#000000" fill-opacity="0.501961" points="254,118 253,144 271,145" />
<polygon fill="#000000" fill-opacity="0.501961" points="81,51 -16,37 27,58" />
<polygon fill="#131419" fill-opacity="0.501961" points="110,70 107,13 62,71" />
<polygon fill="#becdf9" fill-opacity="0.501961" points="4,96 4,81 16,96" />
<polygon fill="#c2cbd4" fill-opacity="0.501961" points="49,122 53,116 48,117" />
<polygon fill="#a28880" fill-opacity="0.501961" points="85,85 94,95 90,97" />
<polygon fill="#4165d1" fill-opacity="0.501961" points="43,90 37,86 42,74" />
<polygon fill="#032668" fill-opacity="0.501961" points="10,108 28,106 35,113" />
<polygon fill="#392e1c" fill-opacity="0.501961" points="167,8 157,9 166,39" />
<polygon fill="#2a2a32" fill-opacity="0.501961" points="59,71 161,112 159,72" />
<polygon fill="#8b9bb2" fill-opacity="0.501961" points="97,131 98,123 85,124" />
<polygon fill="#1c3668" fill-opacity="0.501961" points="181,112 97,110 106,133" />
<polygon fill="#000000" fill-opacity="0.501961" points="271,129 148,-16 259,-1" />
<polygon fill="#282930" fill-opacity="0.501961" points="68,110 87,107 78,65" />
<polygon fill="#697ec1" fill-opacity="0.501961" points="25,90 7,82 4,88" />
<polygon fill="#edc8b3" fill-opacity="0.501961" points="15,80 27,66 23,86" />
<polygon fill="#7b6b69" fill-opacity="0.501961" points="8,57 37,57 18,75" />
<polygon fill="#6f7f9b" fill-opacity="0.501961" points="59,130 74,127 54,124" />
<polygon fill="#f78c75" fill-opacity="0.501961" points="32,95 22,94 30,87" />
<polygon fill="#010000" fill-opacity="0.501961" points="152,47 116,-16 117,49" />
<polygon fill="#33220e" fill-opacity="0.501961" points="121,37 107,93 122,86" />
<polygon fill="#0b265b" fill-opacity="0.501961" points="68,122 90,143 77,119" />
<polygon fill="#000000" fill-opacity="0.501961" points="96,-15 8,61 -16,-10" />
<polygon fill="#092358" fill-opacity="0.501961" points="119,112 81,123 135,123" />
<polygon fill="#619aff" fill-opacity="0.501961" points="243,131 248,136 241,137" />
<polygon fill="#000000" fill-opacity="0.501961" points="13,-16 63,-14 63,106" />
<polygon fill="#211a1a" fill-opacity="0.501961" points="38,58 41,79 34,80" />
<polygon fill="#001d57" fill-opacity="0.501961" points="3,142 67,141 5,105" />
<polygon fill="#9eadc0" fill-opacity="0.501961" points="9,107 11,101 16,106" />
<polygon fill="#7a615e" fill-opacity="0.501961" points="96,83 85,85 87,92" />
<polygon fill="#3a56b2" fill-opacity="0.501961" points="11,73 5,76 4,91" />
<polygon fill="#7286a3" fill-opacity="0.501961" points="111,130 109,122 108,130" />
<polygon fill="#ffe2cf" fill-opacity="0.501961" points="27,83 17,87 20,71" />
<polygon fill="#7887a1" fill-opacity="0.501961" points="83,117 62,114 62,122" />
<polygon fill="#00174d" fill-opacity="0.501961" points="166,112 250,141 176,142" />
<polygon fill="#09275f" fill-opacity="0.501961" points="67,135 124,142 111,128" />
<polygon fill="#000006" fill-opacity="0.501961" points="16,58 1,48 39,57" />
<polygon fill="#17346d" fill-opacity="0.501961" points="83,110 43,111 59,119" />
<polygon fill="#533f2e" fill-opacity="0.501961" points="114,9 106,11 114,37" />
<polygon fill="#040000" fill-opacity="0.501961" points="176,143 176,160 224,144" />
<polygon fill="#032768" fill-opacity="0.501961" points="5,112 12,97 4,96" />
<polygon fill="#9b867c" fill-opacity="0.501961" points="7,71 31,58 12,58" />
<polygon fill="#021f5b" fill-opacity="0.501961" points="254,110 247,130 184,113" />
<polygon fill="#000000" fill-opacity="0.501961" points="28,111 46,95 66,111" />
<polygon fill="#685553" fill-opacity="0.501961" points="17,73 35,60 23,59" />
<polygon fill="#000000" fill-opacity="0.501961" points="3,76 -16,90 4,160" />
<polygon fill="#09255d" fill-opacity="0.501961" points="66,141 93,138 61,129" />
<polygon fill="#677b97" fill-opacity="0.501961" points="49,123 50,128 55,123" />
<polygon fill="#7f624f" fill-opacity="0.501961" points="14,71 9,73 18,81" />
<polygon fill="#60452c" fill-opacity="0.501961" points="113,71 109,63 124,64" />
<polygon fill="#000000" fill-opacity="0.501961" points="45,51 43,102 64,60" />
<polygon fill="#060100" fill-opacity="0.501961" points="221,160 271,144 188,143" />
<polygon fill="#001d4f" fill-opacity="0.501961" points="42,122 46,118 51,131" />
<polygon fill="#000000" fill-opacity="0.501961" points="271,110 167,110 171,-16" />
<polygon fill="#0e295d" fill-opacity="0.501961" points="84,113 166,143 166,112" />
<polygon fill="#14161c" fill-opacity="0.501961" points="109,14 68,67 73,9" />
<polygon fill="#000000" fill-opacity="0.501961" points="253,148 253,91 271,107" />
<polygon fill="#c7bbd7" fill-opacity="0.501961" points="37,91 34,88 25,92" />
<polygon fill="#393846" fill-opacity="0.501961" points="101,16 112,21 87,20" />
<polygon fill="#2d2313" fill-opacity="0.501961" points="65,84 74,58 64,48" />
<polygon fill="#141521" fill-opacity="0.501961" points="152,52 112,62 164,73" />
<polygon fill="#2d4876" fill-opacity="0.501961" points="121,133 112,125 124,119" />
<polygon fill="#000000" fill-opacity="0.501961" points="88,17 92,13 103,16" />
<polygon fill="#303240" fill-opacity="0.501961" points="111,13 93,7 76,11" />
<polygon fill="#745346" fill-opacity="0.501961" points="23,75 35,78 34,72" />
<polygon fill="#000000" fill-opacity="0.501961" points="116,14 133,54 178,-16" />
<polygon fill="#3d3c49" fill-opacity="0.501961" points="111,25 99,29 85,25" />
<polygon fill="#000000" fill-opacity="0.501961" points="117,-16 146,8 30,7" />
<polygon fill="#342916" fill-opacity="0.501961" points="167,42 160,22 161,64" />
<polygon fill="#000000" fill-opacity="0.501961" points="4,12 -16,55 3,105" />
<polygon fill="#a5b0df" fill-opacity="0.501961" points="37,81 42,96 34,92" />
<polygon fill="#07296c" fill-opacity="0.501961" points="29,114 22,98 30,99" />
<polygon fill="#0a2164" fill-opacity="0.501961" points="10,59 4,56 4,71" />
<polygon fill="#10183a" fill-opacity="0.501961" points="41,77 32,84 33,88" />
<polygon fill="#26252c" fill-opacity="0.501961" points="86,60 108,52 68,53" />
<polygon fill="#8d9aaf" fill-opacity="0.501961" points="11,100 20,106 23,100" />
<polygon fill="#f9e8d5" fill-opacity="0.501961" points="19,91 5,92 10,95" />
<polygon fill="#383846" fill-opacity="0.501961" points="95,17 74,17 78,22" />
<polygon fill="#ffe7cf" fill-opacity="0.501961" points="30,76 28,85 27,80" />
<polygon fill="#001b55" fill-opacity="0.501961" points="16,108 16,101 20,112" />
<polygon fill="#242b3b" fill-opacity="0.501961" points="110,78 91,129 94,92" />
<polygon fill="#965d6a" fill-opacity="0.501961" points="117,91 121,95 113,91" />
<polygon fill="#000000" fill-opacity="0.501961" points="103,25 75,24 88,20" />
<polygon fill="#001953" fill-opacity="0.501961" points="55,125 64,122 54,118" />
<polygon fill="#231816" fill-opacity="0.501961" points="28,75 33,70 25,74" />
<polygon fill="#0c2b65" fill-opacity="0.501961" points="98,121 83,123 84,110" />
<polygon fill="#322f3b" fill-opacity="0.501961" points="71,85 90,89 75,91" />
<polygon fill="#2a282a" fill-opacity="0.501961" points="61,111 71,95 126,106" />
<polygon fill="#7a8ca4" fill-opacity="0.501961" points="116,127 121,129 116,125" />
<polygon fill="#000000" fill-opacity="0.501961" points="76,18 93,15 66,12" />
<polygon fill="#0c317d" fill-opacity="0.501961" points="253,133 246,133 252,112" />
<polygon fill="#323e66" fill-opacity="0.501961" points="42,57 32,57 42,70" />
<polygon fill="#5087ff" fill-opacity="0.501961" points="241,133 246,138 249,133" />
<polygon fill="#001850" fill-opacity="0.501961" points="250,113 238,140 170,112" />
<polygon fill="#3a5476" fill-opacity="0.501961" points="46,127 41,129 39,124" />
<polygon fill="#000000" fill-opacity="0.501961" points="34,94 31,105 42,111" />
<polygon fill="#6e7f9b" fill-opacity="0.501961" points="56,131 68,124 57,124" />
<polygon fill="#121312" fill-opacity="0.501961" points="115,84 120,82 120,97" />
<polygon fill="#00174f" fill-opacity="0.501961" points="14,134 11,121 49,123" />
<polygon fill="#012267" fill-opacity="0.501961" points="4,111 31,119 43,112" />
<polygon fill="#374e7f" fill-opacity="0.501961" points="76,110 88,114 98,111" />
<polygon fill="#ead2be" fill-opacity="0.501961" points="15,88 15,95 11,93" />
<polygon fill="#dfe0eb" fill-opacity="0.501961" points="32,91 41,89 41,94" />
<polygon fill="#87706c" fill-opacity="0.501961" points="90,84 93,98 94,88" />
<polygon fill="#000000" fill-opacity="0.501961" points="100,27 86,32 109,32" />
<polygon fill="#1e1414" fill-opacity="0.501961" points="29,86 41,67 39,78" />
<polygon fill="#322a1b" fill-opacity="0.501961" points="71,56 70,13 64,33" />
<polygon fill="#0d265e" fill-opacity="0.501961" points="140,141 117,135 122,114" />
<polygon fill="#adb9c8" fill-opacity="0.501961" points="86,126 85,129 91,131" />
<polygon fill="#333112" fill-opacity="0.501961" points="127,160 150,143 81,143" />
<polygon fill="#0f1013" fill-opacity="0.501961" points="71,67 72,54 105,54" />
<polygon fill="#7b89c3" fill-opacity="0.501961" points="41,80 29,91 42,90" />
<polygon fill="#a8b1c3" fill-opacity="0.501961" points="82,122 79,115 82,117" />
<polygon fill="#0a2763" fill-opacity="0.501961" points="193,119 176,110 217,112" />
<polygon fill="#3d3b4b" fill-opacity="0.501961" points="79,26 85,29 94,26" />
<polygon fill="#314a80" fill-opacity="0.501961" points="150,114 160,111 138,110" />
<polygon fill="#2d4c85" fill-opacity="0.501961" points="17,112 27,109 34,112" />
<polygon fill="#5c6f8f" fill-opacity="0.501961" points="36,121 47,117 39,115" />
<polygon fill="#24242b" fill-opacity="0.501961" points="70,40 112,39 84,48" />
<polygon fill="#291e0d" fill-opacity="0.501961" points="162,68 162,109 168,89" />
<polygon fill="#244072" fill-opacity="0.501961" points="133,147 140,142 133,122" />
<polygon fill="#040403" fill-opacity="0.501961" points="95,46 98,40 74,43" />
<polygon fill="#000000" fill-opacity="0.501961" points="257,108 168,111 167,54" />
<polygon fill="#202128" fill-opacity="0.501961" points="97,110 90,95 85,99" />
<polygon fill="#00043f" fill-opacity="0.501961" points="51,112 62,116 64,112" />
<polygon fill="#001851" fill-opacity="0.501961" points="252,146 242,114 251,112" />
<polygon fill="#001950" fill-opacity="0.501961" points="38,135 40,115 34,130" />
<polygon fill="#021f54" fill-opacity="0.501961" points="72,120 80,123 85,133" />
<polygon fill="#2a2931" fill-opacity="0.501961" points="91,65 73,57 107,57" />
<polygon fill="#000000" fill-opacity="0.501961" points="121,-16 160,12 159,55" />
<polygon fill="#272932" fill-opacity="0.501961" points="101,71 81,73 123,109" />
<polygon fill="#0d275d" fill-opacity="0.501961" points="140,113 79,112 103,125" />
<polygon fill="#333442" fill-opacity="0.501961" points="108,48 95,47 110,44" />
<polygon fill="#12316b" fill-opacity="0.501961" points="10,101 4,94 4,121" />
<polygon fill="#000000" fill-opacity="0.501961" points="84,47 97,51 71,51" />
<polygon fill="#31303b" fill-opacity="0.501961" points="88,43 102,40 76,38" />
<polygon fill="#000000" fill-opacity="0.501961" points="91,32 83,28 74,31" />
<polygon fill="#000000" fill-opacity="0.501961" points="86,63 97,60 84,60" />
<polygon fill="#000000" fill-opacity="0.501961" points="109,16 108,12 95,12" />
<polygon fill="#282830" fill-opacity="0.501961" points="109,98 168,109 152,77" />
<polygon fill="#001650" fill-opacity="0.501961" points="28,99 29,105 20,97" />
<polygon fill="#3d3c4c" fill-opacity="0.501961" points="84,45 97,46 88,48" />
<polygon fill="#00174e" fill-opacity="0.501961" points="22,128 16,112 39,114" />
<polygon fill="#13336f" fill-opacity="0.501961" points="84,133 62,143 113,143" />
<polygon fill="#a89085" fill-opacity="0.501961" points="8,64 19,62 12,58" />
<polygon fill="#afb9db" fill-opacity="0.501961" points="13,92 14,88 21,91" />
<polygon fill="#2b2c34" fill-opacity="0.501961" points="70,70 92,110 70,102" />
<polygon fill="#0f285e" fill-opacity="0.501961" points="167,112 148,112 166,144" />
<polygon fill="#001851" fill-opacity="0.501961" points="167,141 173,112 217,112" />
<polygon fill="#3b3746" fill-opacity="0.501961" points="8,69 8,76 13,81" />
<polygon fill="#000000" fill-opacity="0.501961" points="99,37 87,35 80,39" />
<polygon fill="#001b52" fill-opacity="0.501961" points="24,142 53,129 88,141" />
<polygon fill="#000000" fill-opacity="0.501961" points="96,46 96,42 109,44" />
<polygon fill="#c2857d" fill-opacity="0.501961" points="32,89 23,96 31,93" />
<polygon fill="#1e1509" fill-opacity="0.501961" points="121,40 121,23 117,26" />
<polygon fill="#10295c" fill-opacity="0.501961" points="114,130 61,130 101,142" />
<polygon fill="#93817e" fill-opacity="0.501961" points="84,87 95,96 84,94" />
<polygon fill="#e0cbb7" fill-opacity="0.501961" points="14,74 17,84 13,80" />
<polygon fill="#214178" fill-opacity="0.501961" points="23,109 7,109 19,113" />
<polygon fill="#6a5753" fill-opacity="0.501961" points="11,79 8,68 14,76" />
<polygon fill="#25252d" fill-opacity="0.501961" points="87,89 77,96 72,86" />
<polygon fill="#071d54" fill-opacity="0.501961" points="108,131 101,139 99,127" />
<polygon fill="#2b2b35" fill-opacity="0.501961" points="84,34 100,37 107,31" />
<polygon fill="#7b8ca6" fill-opacity="0.501961" points="66,130 58,124 65,125" />
<polygon fill="#000000" fill-opacity="0.501961" points="99,60 110,60 104,62" />
<polygon fill="#35323e" fill-opacity="0.501961" points="83,62 73,63 82,65" />
<polygon fill="#29241b" fill-opacity="0.501961" points="64,8 75,10 67,18" />
<polygon fill="#4f6992" fill-opacity="0.501961" points="118,142 123,142 124,145" />
<polygon fill="#000000" fill-opacity="0.501961" points="6,57 -9,43 40,57" />
<polygon fill="#000000" fill-opacity="0.501961" points="261,121 154,-14 271,-3" />
<polygon fill="#896a5e" fill-opacity="0.501961" points="24,90 27,88 20,88" />
<polygon fill="#000000" fill-opacity="0.501961" points="69,35 76,39 86,37" />
<polygon fill="#3b3949" fill-opacity="0.501961" points="74,34 85,32 84,35" />
<polygon fill="#000000" fill-opacity="0.501961" points="43,104 63,110 44,39" />
<polygon fill="#f3d2c2" fill-opacity="0.501961" points="15,85 25,89 17,80" />
<polygon fill="#7d6e6e" fill-opacity="0.501961" points="6,70 37,59 19,58" />
<polygon fill="#234a96" fill-opacity="0.501961" points="239,111 235,113 228,111" />
<polygon fill="#213c6b" fill-opacity="0.501961" points="113,124 107,133 109,148" />
<polygon fill="#000000" fill-opacity="0.501961" points="2,76 -16,122 4,160" />
<polygon fill="#000000" fill-opacity="0.501961" points="64,110 63,60 36,110" />
<polygon fill="#576b8a" fill-opacity="0.501961" points="53,127 48,126 51,130" />
<polygon fill="#a2acd7" fill-opacity="0.501961" points="18,89 5,86 8,91" />
<polygon fill="#504654" fill-opacity="0.501961" points="7,75 16,78 17,75" />
<polygon fill="#7c8ba4" fill-opacity="0.501961" points="71,115 57,119 82,119" />
<polygon fill="#42332e" fill-opacity="0.501961" points="26,78 31,65 34,69" />
<polygon fill="#06245e" fill-opacity="0.501961" points="69,115 75,111 59,114" />
<polygon fill="#282830" fill-opacity="0.501961" points="105,106 88,94 85,103" />
<polygon fill="#243966" fill-opacity="0.501961" points="66,128 76,126 86,130" />
<polygon fill="#2c3456" fill-opacity="0.501961" points="37,94 33,93 28,97" />
<polygon fill="#2f2213" fill-opacity="0.501961" points="120,85 109,76 116,67" />
<polygon fill="#283b82" fill-opacity="0.501961" points="36,83 40,83 42,78" />
<polygon fill="#051733" fill-opacity="0.501961" points="18,96 5,96 12,99" />
<polygon fill="#4c60ab" fill-opacity="0.501961" points="8,77 17,87 4,82" />
<polygon fill="#7a8aa2" fill-opacity="0.501961" points="68,115 64,115 70,120" />
<polygon fill="#273f6d" fill-opacity="0.501961" points="71,115 70,120 59,124" />
<polygon fill="#5c3e27" fill-opacity="0.501961" points="110,56 114,59 114,44" />
<polygon fill="#00184c" fill-opacity="0.501961" points="29,109 22,106 15,109" />
<polygon fill="#33323e" fill-opacity="0.501961" points="98,26 109,28 97,29" />
<polygon fill="#e7aca5" fill-opacity="0.501961" points="20,87 20,84 30,86" />
<polygon fill="#2e2f37" fill-opacity="0.501961" points="74,47 84,50 83,46" />
<polygon fill="#000000" fill-opacity="0.501961" points="72,24 80,21 86,25" />
<polygon fill="#121d31" fill-opacity="0.501961" points="18,93 22,99 21,93" />
<polygon fill="#58412d" fill-opacity="0.501961" points="115,44 109,46 111,26" />
<polygon fill="#000001" fill-opacity="0.501961" points="37,160 66,143 5,143" />
<polygon fill="#33333e" fill-opacity="0.501961" points="92,29 72,27 84,25" />
<polygon fill="#1b1611" fill-opacity="0.501961" points="126,62 128,57 109,61" />
<polygon fill="#25252a" fill-opacity="0.501961" points="118,108 91,90 107,93" />
<polygon fill="#2c2419" fill-opacity="0.501961" points="150,103 137,100 137,108" />
<polygon fill="#38507a" fill-opacity="0.501961" points="79,154 86,145 84,136" />
<polygon fill="#00164e" fill-opacity="0.501961" points="61,118 47,112 63,112" />
<polygon fill="#526788" fill-opacity="0.501961" points="49,115 52,119 63,119" />
<polygon fill="#000000" fill-opacity="0.501961" points="96,55 94,57 102,56" />
<polygon fill="#30271b" fill-opacity="0.501961" points="159,76 166,65 166,100" />
<polygon fill="#5b412b" fill-opacity="0.501961" points="111,66 120,63 121,71" />
<polygon fill="#000000" fill-opacity="0.501961" points="83,45 88,43 79,44" />
<polygon fill="#455b8e" fill-opacity="0.501961" points="71,112 76,110 82,112" />
<polygon fill="#001851" fill-opacity="0.501961" points="17,142 16,128 49,129" />
<polygon fill="#1c3a7c" fill-opacity="0.501961" points="112,116 124,111 98,111" />
<polygon fill="#353540" fill-opacity="0.501961" points="113,9 88,9 100,13" />
<polygon fill="#0e275b" fill-opacity="0.501961" points="116,123 88,112 152,113" />
<polygon fill="#a5b1c2" fill-opacity="0.501961" points="98,125 93,124 98,130" />
<polygon fill="#252730" fill-opacity="0.501961" points="77,67 88,109 76,111" />
<polygon fill="#000000" fill-opacity="0.501961" points="97,36 107,39 107,36" />
<polygon fill="#0f306b" fill-opacity="0.501961" points="17,97 15,102 25,98" />
<polygon fill="#0f1318" fill-opacity="0.501961" points="114,91 122,88 105,83" />
<polygon fill="#ddc8b8" fill-opacity="0.501961" points="26,70 22,75 23,72" />
<polygon fill="#000000" fill-opacity="0.501961" points="108,24 96,25 94,21" />
<polygon fill="#001953" fill-opacity="0.501961" points="5,141 41,112 9,113" />
<polygon fill="#131112" fill-opacity="0.501961" points="104,70 81,64 71,71" />
<polygon fill="#171822" fill-opacity="0.501961" points="125,72 122,54 165,71" />
<polygon fill="#282931" fill-opacity="0.501961" points="160,70 121,71 149,108" />
<polygon fill="#2746ae" fill-opacity="0.501961" points="9,76 5,80 4,71" />
<polygon fill="#2c2519" fill-opacity="0.501961" points="65,74 63,109 72,106" />
<polygon fill="#000000" fill-opacity="0.501961" points="30,98 32,107 40,97" />
<polygon fill="#05245a" fill-opacity="0.501961" points="110,123 113,137 115,121" />
<polygon fill="#22190c" fill-opacity="0.501961" points="121,42 115,37 115,53" />
<polygon fill="#ffffea" fill-opacity="0.501961" points="25,87 26,83 29,84" />
<polygon fill="#1a3568" fill-opacity="0.501961" points="116,115 125,116 123,141" />
<polygon fill="#000000" fill-opacity="0.501961" points="50,100 30,104 30,111" />
<polygon fill="#0a2c72" fill-opacity="0.501961" points="34,111 34,116 50,112" />
<polygon fill="#09245b" fill-opacity="0.501961" points="112,140 154,130 160,142" />
<polygon fill="#84645d" fill-opacity="0.501961" points="36,75 32,70 33,79" />
<polygon fill="#322716" fill-opacity="0.501961" points="166,96 159,107 166,109" />
<polygon fill="#13357a" fill-opacity="0.501961" points="207,111 198,115 190,111" />
<polygon fill="#001952" fill-opacity="0.501961" points="237,112 193,141 168,112" />
<polygon fill="#060400" fill-opacity="0.501961" points="225,144 238,150 253,143" />
<polygon fill="#1b4087" fill-opacity="0.501961" points="241,111 242,114 253,111" />
<polygon fill="#27282f" fill-opacity="0.501961" points="100,94 156,110 72,109" />
<polygon fill="#223767" fill-opacity="0.501961" points="76,129 75,122 78,115" />
<polygon fill="#435375" fill-opacity="0.501961" points="117,110 123,113 133,110" />
<polygon fill="#00124b" fill-opacity="0.501961" points="5,97 11,109 5,103" />
<polygon fill="#2c251d" fill-opacity="0.501961" points="160,33 161,5 166,20" />
<polygon fill="#2f2421" fill-opacity="0.501961" points="41,61 33,73 37,59" />
<polygon fill="#ffdac5" fill-opacity="0.501961" points="30,83 31,81 24,80" />
<polygon fill="#051c52" fill-opacity="0.501961" points="124,120 125,138 132,124" />
<polygon fill="#7382c7" fill-opacity="0.501961" points="12,84 6,87 5,82" />
<polygon fill="#1b3b6a" fill-opacity="0.501961" points="150,120 148,131 139,133" />
<polygon fill="#6f6160" fill-opacity="0.501961" points="26,59 26,70 31,65" />
<polygon fill="#3b393b" fill-opacity="0.501961" points="74,110 71,95 69,111" />
<polygon fill="#0d0d14" fill-opacity="0.501961" points="133,54 129,63 156,62" />
<polygon fill="#0d0b0c" fill-opacity="0.501961" points="133,143 122,143 132,149" />
<polygon fill="#000000" fill-opacity="0.501961" points="-16,78 6,15 1,115" />
<polygon fill="#0a2359" fill-opacity="0.501961" points="82,129 56,133 77,142" />
<polygon fill="#2f271c" fill-opacity="0.501961" points="70,32 71,57 64,44" />
<polygon fill="#040404" fill-opacity="0.501961" points="90,41 71,44 89,46" />
<polygon fill="#000000" fill-opacity="0.501961" points="108,15 90,16 99,12" />
<polygon fill="#020604" fill-opacity="0.501961" points="91,28 87,33 71,30" />
<polygon fill="#010c3b" fill-opacity="0.501961" points="5,60 5,68 9,58" />
<polygon fill="#001a53" fill-opacity="0.501961" points="226,112 245,114 238,142" />
<polygon fill="#5086ff" fill-opacity="0.501961" points="242,138 245,130 248,135" />
<polygon fill="#828fc2" fill-opacity="0.501961" points="6,82 10,90 21,90" />
<polygon fill="#0d275c" fill-opacity="0.501961" points="78,113 118,123 125,112" />
<polygon fill="#0e2f70" fill-opacity="0.501961" points="9,131 4,121 4,140" />
<polygon fill="#536286" fill-opacity="0.501961" points="67,130 67,126 76,127" />
<polygon fill="#092557" fill-opacity="0.501961" points="54,127 52,132 52,125" />
<polygon fill="#001a53" fill-opacity="0.501961" points="217,113 247,130 246,114" />
<polygon fill="#788aa3" fill-opacity="0.501961" points="117,125 115,132 117,129" />
<polygon fill="#302f3a" fill-opacity="0.501961" points="71,17 85,22 99,18" />
<polygon fill="#2b2b34" fill-opacity="0.501961" points="109,72 70,71 70,88" />
<polygon fill="#413231" fill-opacity="0.501961" points="28,67 33,76 29,75" />
<polygon fill="#001952" fill-opacity="0.501961" points="5,116 6,141 67,142" />
<polygon fill="#072156" fill-opacity="0.501961" points="150,139 148,113 163,124" />
<polygon fill="#000000" fill-opacity="0.501961" points="45,-16 87,8 138,7" />
<polygon fill="#2f2e36" fill-opacity="0.501961" points="82,49 89,45 70,46" />
<polygon fill="#272830" fill-opacity="0.501961" points="111,108 109,80 89,77" />
<polygon fill="#ced0df" fill-opacity="0.501961" points="41,95 40,88 33,90" />
<polygon fill="#001b53" fill-opacity="0.501961" points="81,133 81,129 68,128" />
<polygon fill="#1b3a7c" fill-opacity="0.501961" points="150,142 162,140 159,143" />
<polygon fill="#0e2a5e" fill-opacity="0.501961" points="118,130 125,141 84,139" />
<polygon fill="#b68c93" fill-opacity="0.501961" points="22,96 28,89 32,96" />
<polygon fill="#05090c" fill-opacity="0.501961" points="108,48 109,54 89,48" />
<polygon fill="#413c45" fill-opacity="0.501961" points="102,34 108,35 113,32" />
<polygon fill="#42342f" fill-opacity="0.501961" points="116,58 112,51 101,51" />
<polygon fill="#03010a" fill-opacity="0.501961" points="125,51 148,43 161,54" />
<polygon fill="#1a2a67" fill-opacity="0.501961" points="40,70 41,64 44,77" />
<polygon fill="#244072" fill-opacity="0.501961" points="99,133 95,131 96,143" />
<polygon fill="#2d2d36" fill-opacity="0.501961" points="89,55 75,51 101,51" />
<polygon fill="#0d3075" fill-opacity="0.501961" points="176,143 177,139 190,143" />
<polygon fill="#233a8d" fill-opacity="0.501961" points="11,82 4,77 4,58" />
<polygon fill="#062256" fill-opacity="0.501961" points="89,142 86,137 106,140" />
<polygon fill="#000000" fill-opacity="0.501961" points="271,96 254,156 254,45" />
</g>
</svg>