<svg xmlns="http://www.w3.org/2000/svg" version="1.1" width="1024" height="580">
<rect x="0" y="0" width="1024" height="580" fill="#1f1c24" />
<g transform="scale(4.000000) translate(0.5 0.5)">
<polygon fill="#1c49a6" fill-opacity="0.501961" points="271,112 -16,111 94,160" />
<polygon fill="#000000" fill-opacity="0.501961" points="266,160 271,-7 160,-16" />
<polygon fill="#58371e" fill-opacity="0.501961" points="147,-16 206,111 29,111" />
<polygon fill="#000000" fill-opacity="0.501961" points="89,-16 -1,151 -16,-7" />
<polygon fill="#6e7d9b" fill-opacity="0.501961" points="42,117 131,114 38,143" />
<polygon fill="#001e66" fill-opacity="0.501961" points="243,160 264,108 66,137" />
<polygon fill="#00115c" fill-opacity="0.501961" points="44,160 37,105 -16,131" />
<polygon fill="#000000" fill-opacity="0.501961" points="198,109 239,-16 271,111" />
<polygon fill="#000000" fill-opacity="0.501961" points="-16,-6 -14,150 76,-12" />
<polygon fill="#989fb3" fill-opacity="0.501961" points="87,129 113,113 111,130" />
<polygon fill="#3b2413" fill-opacity="0.501961" points="46,28 165,-16 43,109" />
<polygon fill="#60b2ff" fill-opacity="0.501961" points="249,130 245,138 239,130" />
<polygon fill="#000000" fill-opacity="0.501961" points="-16,108 12,-16 53,111" />
<polygon fill="#000000" fill-opacity="0.501961" points="178,-16 263,130 271,-3" />
<polygon fill="#493527" fill-opacity="0.501961" points="124,110 201,65 149,-16" />
<polygon fill="#a1acbd" fill-opacity="0.501961" points="70,116 57,121 41,115" />
<polygon fill="#2d1f0f" fill-opacity="0.501961" points="208,107 139,-16 211,31" />
<polygon fill="#001a54" fill-opacity="0.501961" points="207,156 164,117 271,108" />
<polygon fill="#00205e" fill-opacity="0.501961" points="6,159 56,148 4,101" />
<polygon fill="#0f0901" fill-opacity="0.501961" points="33,15 115,-16 186,2" />
<polygon fill="#16265a" fill-opacity="0.501961" points="111,112 145,160 224,112" />
<polygon fill="#142452" fill-opacity="0.501961" points="52,144 135,148 72,123" />
<polygon fill="#4b372d" fill-opacity="0.501961" points="183,19 128,10 128,118" />
<polygon fill="#273767" fill-opacity="0.501961" points="84,123 117,124 81,112" />
<polygon fill="#000000" fill-opacity="0.501961" points="1,-16 -2,110 42,109" />
<polygon fill="#402a1f" fill-opacity="0.501961" points="57,92 64,30 126,4" />
<polygon fill="#000000" fill-opacity="0.501961" points="271,109 253,87 254,160" />
<polygon fill="#000000" fill-opacity="0.501961" points="4,143 -16,142 3,89" />
<polygon fill="#3b74ff" fill-opacity="0.501961" points="247,128 245,139 239,135" />
<polygon fill="#8796ac" fill-opacity="0.501961" points="44,124 39,130 60,127" />
<polygon fill="#000000" fill-opacity="0.501961" points="262,128 271,-16 187,-14" />
<polygon fill="#001e5d" fill-opacity="0.501961" points="250,142 184,143 214,116" />
<polygon fill="#20170d" fill-opacity="0.501961" points="176,110 220,52 212,110" />
<polygon fill="#173162" fill-opacity="0.501961" points="62,130 43,130 74,145" />
<polygon fill="#210900" fill-opacity="0.501961" points="34,143 86,160 141,143" />
<polygon fill="#000000" fill-opacity="0.501961" points="54,42 64,-16 -16,10" />
<polygon fill="#130500" fill-opacity="0.501961" points="217,160 259,143 154,143" />
<polygon fill="#1b2f67" fill-opacity="0.501961" points="103,110 181,152 194,111" />
<polygon fill="#6b7897" fill-opacity="0.501961" points="84,123 82,115 59,117" />
<polygon fill="#000000" fill-opacity="0.501961" points="271,110 214,109 253,-16" />
<polygon fill="#00184f" fill-opacity="0.501961" points="40,160 36,115 5,111" />
<polygon fill="#022369" fill-opacity="0.501961" points="253,117 237,119 252,136" />
<polygon fill="#35231a" fill-opacity="0.501961" points="127,2 40,111 128,107" />
<polygon fill="#4b372d" fill-opacity="0.501961" points="163,110 149,18 137,111" />
<polygon fill="#647697" fill-opacity="0.501961" points="66,139 70,130 65,122" />
<polygon fill="#1b120a" fill-opacity="0.501961" points="49,110 49,21 28,92" />
<polygon fill="#919bb2" fill-opacity="0.501961" points="114,124 85,125 102,129" />
<polygon fill="#001656" fill-opacity="0.501961" points="59,139 38,139 47,145" />
<polygon fill="#949db4" fill-opacity="0.501961" points="90,130 85,129 90,125" />
<polygon fill="#a2a9bb" fill-opacity="0.501961" points="101,118 100,115 105,116" />
<polygon fill="#0d0803" fill-opacity="0.501961" points="207,59 236,70 188,-11" />
<polygon fill="#2b2219" fill-opacity="0.501961" points="205,102 180,99 180,9" />
<polygon fill="#0e327d" fill-opacity="0.501961" points="20,111 4,120 4,111" />
<polygon fill="#001850" fill-opacity="0.501961" points="252,114 184,113 236,137" />
<polygon fill="#030000" fill-opacity="0.501961" points="-15,160 49,144 2,143" />
<polygon fill="#0d1e56" fill-opacity="0.501961" points="118,142 126,112 114,119" />
<polygon fill="#233668" fill-opacity="0.501961" points="86,130 59,122 81,122" />
<polygon fill="#25190e" fill-opacity="0.501961" points="80,33 52,18 91,2" />
<polygon fill="#062058" fill-opacity="0.501961" points="199,113 154,141 254,143" />
<polygon fill="#576b8c" fill-opacity="0.501961" points="41,114 55,138 39,139" />
<polygon fill="#667898" fill-opacity="0.501961" points="74,120 76,130 71,129" />
<polygon fill="#001e5a" fill-opacity="0.501961" points="49,130 4,126 4,142" />
<polygon fill="#241e1a" fill-opacity="0.501961" points="183,10 97,12 135,-4" />
<polygon fill="#271d07" fill-opacity="0.501961" points="205,144 141,143 155,160" />
<polygon fill="#00184f" fill-opacity="0.501961" points="3,112 43,113 16,139" />
<polygon fill="#031b57" fill-opacity="0.501961" points="104,142 66,140 71,130" />
<polygon fill="#452d21" fill-opacity="0.501961" points="122,110 104,64 114,11" />
<polygon fill="#000000" fill-opacity="0.501961" points="-1,79 6,158 -16,156" />
<polygon fill="#233868" fill-opacity="0.501961" points="53,116 57,125 53,134" />
<polygon fill="#422f24" fill-opacity="0.501961" points="73,35 71,105 55,74" />
<polygon fill="#000000" fill-opacity="0.501961" points="30,-9 -5,113 28,105" />
<polygon fill="#0c3176" fill-opacity="0.501961" points="252,130 240,147 253,150" />
<polygon fill="#2b1e18" fill-opacity="0.501961" points="47,105 66,78 41,60" />
<polygon fill="#000000" fill-opacity="0.501961" points="253,104 271,145 255,146" />
<polygon fill="#8a98b2" fill-opacity="0.501961" points="61,137 62,139 58,137" />
<polygon fill="#38281f" fill-opacity="0.501961" points="162,50 204,89 167,5" />
<polygon fill="#281d16" fill-opacity="0.501961" points="202,77 166,3 200,36" />
<polygon fill="#0f0902" fill-opacity="0.501961" points="210,110 218,43 228,104" />
<polygon fill="#0e2e6a" fill-opacity="0.501961" points="4,152 10,138 4,116" />
<polygon fill="#2c3d71" fill-opacity="0.501961" points="99,110 102,124 74,110" />
<polygon fill="#0e285a" fill-opacity="0.501961" points="48,129 45,132 47,141" />
<polygon fill="#0c2863" fill-opacity="0.501961" points="253,110 252,136 241,110" />
<polygon fill="#100b06" fill-opacity="0.501961" points="28,54 64,-6 58,35" />
<polygon fill="#7f8ba6" fill-opacity="0.501961" points="100,117 112,116 103,122" />
<polygon fill="#00134d" fill-opacity="0.501961" points="58,122 51,122 53,124" />
<polygon fill="#687897" fill-opacity="0.501961" points="63,130 46,122 40,129" />
<polygon fill="#0e2055" fill-opacity="0.501961" points="94,142 135,141 107,129" />
<polygon fill="#524134" fill-opacity="0.501961" points="134,38 129,59 128,29" />
<polygon fill="#586689" fill-opacity="0.501961" points="79,118 83,126 81,131" />
<polygon fill="#173b80" fill-opacity="0.501961" points="40,143 33,140 26,143" />
<polygon fill="#122d6a" fill-opacity="0.501961" points="208,143 164,143 179,134" />
<polygon fill="#162d5f" fill-opacity="0.501961" points="70,121 69,113 71,114" />
<polygon fill="#273c6a" fill-opacity="0.501961" points="104,121 107,121 107,127" />
<polygon fill="#3b4b6d" fill-opacity="0.501961" points="174,142 121,142 141,152" />
<polygon fill="#0b2458" fill-opacity="0.501961" points="47,123 47,127 50,122" />
<polygon fill="#000000" fill-opacity="0.501961" points="246,144 260,142 252,151" />
<polygon fill="#12235b" fill-opacity="0.501961" points="98,128 104,137 115,141" />
<polygon fill="#7a89a4" fill-opacity="0.501961" points="55,117 49,122 41,117" />
<polygon fill="#001a52" fill-opacity="0.501961" points="4,127 46,122 21,116" />
<polygon fill="#929cb2" fill-opacity="0.501961" points="113,116 111,119 106,117" />
<polygon fill="#000000" fill-opacity="0.501961" points="-7,134 61,-16 -16,0" />
<polygon fill="#00174f" fill-opacity="0.501961" points="180,140 251,141 221,129" />
<polygon fill="#15110d" fill-opacity="0.501961" points="149,160 137,143 212,144" />
<polygon fill="#291f0f" fill-opacity="0.501961" points="112,143 93,157 138,144" />
<polygon fill="#0d0600" fill-opacity="0.501961" points="91,6 61,-2 119,-4" />
<polygon fill="#314d93" fill-opacity="0.501961" points="157,111 139,111 148,114" />
<polygon fill="#001952" fill-opacity="0.501961" points="5,137 46,142 7,114" />
<polygon fill="#13265d" fill-opacity="0.501961" points="85,124 77,136 85,129" />
<polygon fill="#15295f" fill-opacity="0.501961" points="155,112 115,139 118,112" />
<polygon fill="#473228" fill-opacity="0.501961" points="131,71 129,0 184,92" />
<polygon fill="#2d1914" fill-opacity="0.501961" points="100,55 94,76 102,99" />
<polygon fill="#000000" fill-opacity="0.501961" points="238,109 268,113 223,38" />
<polygon fill="#010000" fill-opacity="0.501961" points="257,143 240,143 241,160" />
<polygon fill="#0a2557" fill-opacity="0.501961" points="54,128 68,160 55,150" />
<polygon fill="#5a90ff" fill-opacity="0.501961" points="241,137 246,135 244,130" />
<polygon fill="#0e0c03" fill-opacity="0.501961" points="91,143 15,143 62,160" />
<polygon fill="#4a2f21" fill-opacity="0.501961" points="103,14 114,18 102,34" />
<polygon fill="#73819d" fill-opacity="0.501961" points="60,130 67,129 67,123" />
<polygon fill="#151611" fill-opacity="0.501961" points="184,43 180,30 179,55" />
<polygon fill="#26211b" fill-opacity="0.501961" points="128,76 118,48 127,13" />
<polygon fill="#1b120c" fill-opacity="0.501961" points="161,-7 208,49 198,16" />
<polygon fill="#10265b" fill-opacity="0.501961" points="178,142 205,113 163,112" />
<polygon fill="#001850" fill-opacity="0.501961" points="252,131 202,113 247,112" />
<polygon fill="#070400" fill-opacity="0.501961" points="37,110 13,110 38,33" />
<polygon fill="#021c53" fill-opacity="0.501961" points="256,142 171,141 212,124" />
<polygon fill="#3e332a" fill-opacity="0.501961" points="182,87 183,110 190,111" />
<polygon fill="#2c1d15" fill-opacity="0.501961" points="101,5 74,48 74,16" />
<polygon fill="#5c6a8b" fill-opacity="0.501961" points="90,122 87,115 91,115" />
<polygon fill="#2c1e17" fill-opacity="0.501961" points="46,71 51,30 66,68" />
<polygon fill="#7d8aa5" fill-opacity="0.501961" points="56,115 78,115 55,122" />
<polygon fill="#556497" fill-opacity="0.501961" points="117,110 112,112 124,112" />
<polygon fill="#16326d" fill-opacity="0.501961" points="43,110 46,116 55,110" />
<polygon fill="#473025" fill-opacity="0.501961" points="122,111 116,80 106,110" />
<polygon fill="#412d23" fill-opacity="0.501961" points="177,30 173,100 157,45" />
<polygon fill="#8591aa" fill-opacity="0.501961" points="106,123 95,123 102,129" />
<polygon fill="#082a6a" fill-opacity="0.501961" points="24,136 24,143 6,143" />
<polygon fill="#001851" fill-opacity="0.501961" points="5,117 8,142 40,141" />
<polygon fill="#161b17" fill-opacity="0.501961" points="72,111 69,105 74,94" />
<polygon fill="#15285c" fill-opacity="0.501961" points="88,113 92,120 97,112" />
<polygon fill="#000000" fill-opacity="0.501961" points="258,39 167,-6 271,1" />
<polygon fill="#263d7c" fill-opacity="0.501961" points="128,111 140,112 127,118" />
<polygon fill="#3a2d25" fill-opacity="0.501961" points="120,28 126,50 126,8" />
<polygon fill="#7988a2" fill-opacity="0.501961" points="42,124 41,137 46,139" />
<polygon fill="#001a52" fill-opacity="0.501961" points="42,131 9,142 8,114" />
<polygon fill="#5f7090" fill-opacity="0.501961" points="60,128 57,137 56,121" />
<polygon fill="#17295f" fill-opacity="0.501961" points="75,136 86,141 76,117" />
<polygon fill="#5a3e2d" fill-opacity="0.501961" points="116,70 112,72 115,57" />
<polygon fill="#283a69" fill-opacity="0.501961" points="106,121 98,125 96,121" />
<polygon fill="#3a251c" fill-opacity="0.501961" points="71,74 125,45 87,15" />
<polygon fill="#59688c" fill-opacity="0.501961" points="106,121 108,116 111,122" />
<polygon fill="#1a2b61" fill-opacity="0.501961" points="163,112 109,112 177,135" />
<polygon fill="#30231c" fill-opacity="0.501961" points="87,17 57,44 64,23" />
<polygon fill="#143375" fill-opacity="0.501961" points="236,143 210,143 222,139" />
<polygon fill="#17100b" fill-opacity="0.501961" points="60,11 171,-3 125,-16" />
<polygon fill="#001852" fill-opacity="0.501961" points="242,141 236,121 203,142" />
<polygon fill="#9fabbe" fill-opacity="0.501961" points="45,125 42,128 40,124" />
<polygon fill="#09225a" fill-opacity="0.501961" points="84,143 67,137 69,131" />
<polygon fill="#36281f" fill-opacity="0.501961" points="132,5 184,25 166,8" />
<polygon fill="#3a4a74" fill-opacity="0.501961" points="102,114 94,115 91,125" />
<polygon fill="#000000" fill-opacity="0.501961" points="8,144 -1,154 -13,139" />
<polygon fill="#132560" fill-opacity="0.501961" points="99,115 102,111 108,115" />
<polygon fill="#261d18" fill-opacity="0.501961" points="53,110 42,83 61,108" />
<polygon fill="#324772" fill-opacity="0.501961" points="47,117 55,134 47,129" />
<polygon fill="#000000" fill-opacity="0.501961" points="224,110 223,92 263,109" />
<polygon fill="#000200" fill-opacity="0.501961" points="233,143 230,160 212,143" />
<polygon fill="#8794ac" fill-opacity="0.501961" points="47,129 51,124 48,125" />
<polygon fill="#213f85" fill-opacity="0.501961" points="113,143 101,143 110,140" />
<polygon fill="#11357d" fill-opacity="0.501961" points="50,140 53,143 49,143" />
<polygon fill="#548aff" fill-opacity="0.501961" points="245,131 241,132 249,136" />
<polygon fill="#10225a" fill-opacity="0.501961" points="72,131 143,131 106,142" />
<polygon fill="#1c2e63" fill-opacity="0.501961" points="130,113 175,122 129,136" />
<polygon fill="#33579a" fill-opacity="0.501961" points="5,138 4,141 4,135" />
<polygon fill="#8893ab" fill-opacity="0.501961" points="111,126 113,127 112,129" />
<polygon fill="#573929" fill-opacity="0.501961" points="94,86 89,82 95,93" />
<polygon fill="#2c1f18" fill-opacity="0.501961" points="84,93 73,55 73,81" />
<polygon fill="#644634" fill-opacity="0.501961" points="138,27 129,27 145,22" />
<polygon fill="#091f55" fill-opacity="0.501961" points="61,124 70,123 61,121" />
<polygon fill="#2d2520" fill-opacity="0.501961" points="114,109 128,103 126,75" />
<polygon fill="#402b1f" fill-opacity="0.501961" points="172,13 178,37 162,52" />
<polygon fill="#1c1c14" fill-opacity="0.501961" points="181,91 176,110 182,101" />
<polygon fill="#50372a" fill-opacity="0.501961" points="118,29 108,16 110,27" />
<polygon fill="#2e416f" fill-opacity="0.501961" points="71,118 68,125 68,113" />
<polygon fill="#203872" fill-opacity="0.501961" points="73,115 87,112 65,110" />
<polygon fill="#000000" fill-opacity="0.501961" points="3,153 3,100 -16,137" />
<polygon fill="#3e2b22" fill-opacity="0.501961" points="86,46 79,88 74,70" />
<polygon fill="#4f3527" fill-opacity="0.501961" points="104,58 112,65 121,58" />
<polygon fill="#000000" fill-opacity="0.501961" points="271,135 252,99 257,146" />
<polygon fill="#392c24" fill-opacity="0.501961" points="190,62 181,82 184,36" />
<polygon fill="#0f255b" fill-opacity="0.501961" points="68,128 71,123 69,121" />
<polygon fill="#162c61" fill-opacity="0.501961" points="67,143 61,123 60,134" />
<polygon fill="#172a5e" fill-opacity="0.501961" points="79,128 71,122 79,122" />
<polygon fill="#47577f" fill-opacity="0.501961" points="107,120 103,118 110,119" />
<polygon fill="#4a352a" fill-opacity="0.501961" points="176,37 132,22 140,40" />
<polygon fill="#321f19" fill-opacity="0.501961" points="123,45 107,29 108,18" />
<polygon fill="#727d9b" fill-opacity="0.501961" points="96,114 97,120 95,122" />
<polygon fill="#130c06" fill-opacity="0.501961" points="29,72 45,82 38,44" />
<polygon fill="#9ca5b9" fill-opacity="0.501961" points="88,123 86,128 86,123" />
<polygon fill="#0f225a" fill-opacity="0.501961" points="126,127 121,122 110,122" />
<polygon fill="#9ba3b8" fill-opacity="0.501961" points="108,116 110,120 112,117" />
<polygon fill="#1a201e" fill-opacity="0.501961" points="126,105 118,109 127,108" />
<polygon fill="#818fa9" fill-opacity="0.501961" points="45,118 40,116 43,120" />
<polygon fill="#544537" fill-opacity="0.501961" points="131,93 128,81 127,102" />
<polygon fill="#4e3d32" fill-opacity="0.501961" points="127,102 142,111 128,110" />
<polygon fill="#909bb2" fill-opacity="0.501961" points="60,118 50,116 48,119" />
<polygon fill="#123579" fill-opacity="0.501961" points="242,115 232,111 253,111" />
<polygon fill="#00164d" fill-opacity="0.501961" points="251,114 236,112 225,118" />
<polygon fill="#384b77" fill-opacity="0.501961" points="56,139 61,135 57,126" />
<polygon fill="#19120e" fill-opacity="0.501961" points="43,40 39,68 64,19" />
<polygon fill="#001b54" fill-opacity="0.501961" points="214,115 242,131 251,116" />
<polygon fill="#0c235a" fill-opacity="0.501961" points="163,141 200,138 204,116" />
<polygon fill="#042258" fill-opacity="0.501961" points="126,114 129,133 124,132" />
<polygon fill="#31231a" fill-opacity="0.501961" points="203,81 185,103 190,43" />
<polygon fill="#2b4589" fill-opacity="0.501961" points="61,112 67,111 70,113" />
<polygon fill="#919cb2" fill-opacity="0.501961" points="103,131 105,128 100,122" />
<polygon fill="#244082" fill-opacity="0.501961" points="175,115 163,111 185,111" />
<polygon fill="#13275c" fill-opacity="0.501961" points="169,113 196,112 167,142" />
<polygon fill="#412d22" fill-opacity="0.501961" points="155,110 160,71 179,109" />
<polygon fill="#001b59" fill-opacity="0.501961" points="248,124 254,140 249,137" />
<polygon fill="#7887a2" fill-opacity="0.501961" points="41,122 47,118 42,116" />
<polygon fill="#000000" fill-opacity="0.501961" points="-16,46 1,110 34,108" />
<polygon fill="#422d23" fill-opacity="0.501961" points="58,94 74,88 68,57" />
<polygon fill="#7d8aa5" fill-opacity="0.501961" points="56,127 57,123 60,123" />
<polygon fill="#001a51" fill-opacity="0.501961" points="37,135 10,113 40,118" />
<polygon fill="#0b0902" fill-opacity="0.501961" points="182,-8 210,21 180,7" />
<polygon fill="#46332a" fill-opacity="0.501961" points="72,46 72,65 64,51" />
<polygon fill="#4267bf" fill-opacity="0.501961" points="101,112 103,111 100,111" />
<polygon fill="#13367c" fill-opacity="0.501961" points="40,143 51,143 43,140" />
<polygon fill="#100b07" fill-opacity="0.501961" points="47,109 31,110 32,77" />
<polygon fill="#3b241b" fill-opacity="0.501961" points="82,111 110,107 113,54" />
<polygon fill="#1e3062" fill-opacity="0.501961" points="103,123 92,122 89,113" />
<polygon fill="#322019" fill-opacity="0.501961" points="127,40 115,6 111,18" />
<polygon fill="#413126" fill-opacity="0.501961" points="180,53 164,52 179,101" />
<polygon fill="#132459" fill-opacity="0.501961" points="99,135 101,135 99,128" />
<polygon fill="#241913" fill-opacity="0.501961" points="201,111 208,88 186,104" />
<polygon fill="#37271f" fill-opacity="0.501961" points="125,44 125,88 117,72" />
<polygon fill="#331f18" fill-opacity="0.501961" points="118,72 94,89 89,78" />
<polygon fill="#041c52" fill-opacity="0.501961" points="48,130 41,132 35,130" />
<polygon fill="#453127" fill-opacity="0.501961" points="130,109 132,66 168,110" />
<polygon fill="#573d2d" fill-opacity="0.501961" points="122,52 113,51 108,46" />
<polygon fill="#274184" fill-opacity="0.501961" points="96,111 107,114 114,111" />
<polygon fill="#4b392f" fill-opacity="0.501961" points="128,78 129,57 138,97" />
<polygon fill="#183572" fill-opacity="0.501961" points="175,143 176,138 188,143" />
<polygon fill="#0d2259" fill-opacity="0.501961" points="84,123 84,141 78,142" />
<polygon fill="#2c1a14" fill-opacity="0.501961" points="113,42 120,43 124,58" />
<polygon fill="#011b52" fill-opacity="0.501961" points="228,126 247,142 170,142" />
<polygon fill="#5a3f2e" fill-opacity="0.501961" points="141,17 149,19 143,11" />
<polygon fill="#282018" fill-opacity="0.501961" points="185,32 176,5 175,32" />
<polygon fill="#3e2e24" fill-opacity="0.501961" points="156,9 160,20 129,9" />
<polygon fill="#15275e" fill-opacity="0.501961" points="69,112 55,113 65,115" />
<polygon fill="#2e4173" fill-opacity="0.501961" points="55,111 71,110 62,116" />
<polygon fill="#3a2c23" fill-opacity="0.501961" points="73,21 66,25 73,42" />
<polygon fill="#523729" fill-opacity="0.501961" points="108,88 112,95 108,95" />
<polygon fill="#001247" fill-opacity="0.501961" points="57,139 48,142 39,139" />
<polygon fill="#48342a" fill-opacity="0.501961" points="142,110 168,74 142,46" />
<polygon fill="#493c32" fill-opacity="0.501961" points="128,22 135,23 130,8" />
<polygon fill="#001a53" fill-opacity="0.501961" points="9,132 40,134 34,142" />
<polygon fill="#6a7b98" fill-opacity="0.501961" points="66,117 78,122 74,117" />
<polygon fill="#4f5d84" fill-opacity="0.501961" points="91,121 94,124 97,117" />
<polygon fill="#422d23" fill-opacity="0.501961" points="140,19 131,47 142,73" />
<polygon fill="#475a81" fill-opacity="0.501961" points="44,139 42,136 48,138" />
<polygon fill="#2f4370" fill-opacity="0.501961" points="54,121 54,114 58,124" />
<polygon fill="#0a2157" fill-opacity="0.501961" points="129,141 103,142 107,136" />
<polygon fill="#00164e" fill-opacity="0.501961" points="251,115 246,124 252,138" />
<polygon fill="#3a271d" fill-opacity="0.501961" points="57,56 70,42 57,76" />
<polygon fill="#201c15" fill-opacity="0.501961" points="77,61 74,71 73,49" />
<polygon fill="#3b2920" fill-opacity="0.501961" points="75,30 92,60 74,71" />
<polygon fill="#1c1511" fill-opacity="0.501961" points="198,27 200,57 216,75" />
<polygon fill="#2b3c69" fill-opacity="0.501961" points="78,111 77,120 74,121" />
<polygon fill="#0e2258" fill-opacity="0.501961" points="62,115 66,112 60,112" />
<polygon fill="#536488" fill-opacity="0.501961" points="69,130 75,128 82,130" />
<polygon fill="#16295e" fill-opacity="0.501961" points="101,130 174,130 140,141" />
<polygon fill="#546186" fill-opacity="0.501961" points="88,116 83,122 90,120" />
<polygon fill="#53392b" fill-opacity="0.501961" points="109,110 118,100 113,99" />
<polygon fill="#3a2c21" fill-opacity="0.501961" points="79,111 63,110 65,105" />
<polygon fill="#3b2c23" fill-opacity="0.501961" points="167,50 179,14 179,40" />
<polygon fill="#060401" fill-opacity="0.501961" points="40,14 31,49 76,-13" />
<polygon fill="#382820" fill-opacity="0.501961" points="126,110 113,108 125,74" />
<polygon fill="#2d2017" fill-opacity="0.501961" points="195,41 187,29 179,56" />
<polygon fill="#462d21" fill-opacity="0.501961" points="80,39 95,40 89,44" />
<polygon fill="#00124b" fill-opacity="0.501961" points="50,132 52,130 47,130" />
<polygon fill="#172e61" fill-opacity="0.501961" points="66,130 55,130 53,136" />
<polygon fill="#16130d" fill-opacity="0.501961" points="76,7 75,29 70,9" />
<polygon fill="#2f1d16" fill-opacity="0.501961" points="100,54 112,50 119,54" />
<polygon fill="#5c4131" fill-opacity="0.501961" points="140,32 147,39 141,25" />
<polygon fill="#2e1c17" fill-opacity="0.501961" points="101,42 107,30 99,27" />
<polygon fill="#41567d" fill-opacity="0.501961" points="73,129 73,119 70,130" />
<polygon fill="#483c32" fill-opacity="0.501961" points="182,50 183,55 185,56" />
<polygon fill="#0e225a" fill-opacity="0.501961" points="77,129 92,140 84,142" />
<polygon fill="#9da7bc" fill-opacity="0.501961" points="55,115 57,115 57,122" />
<polygon fill="#0f0d06" fill-opacity="0.501961" points="75,80 73,79 73,84" />
<polygon fill="#8995ac" fill-opacity="0.501961" points="80,122 82,118 80,120" />
<polygon fill="#18120e" fill-opacity="0.501961" points="147,0 157,-8 191,13" />
<polygon fill="#18160f" fill-opacity="0.501961" points="74,95 73,88 70,100" />
<polygon fill="#271813" fill-opacity="0.501961" points="80,9 118,3 98,18" />
<polygon fill="#4e3525" fill-opacity="0.501961" points="112,85 121,82 115,91" />
<polygon fill="#362016" fill-opacity="0.501961" points="110,93 114,86 118,93" />
<polygon fill="#0a2058" fill-opacity="0.501961" points="78,129 65,142 80,140" />
<polygon fill="#192c5f" fill-opacity="0.501961" points="93,114 95,121 91,124" />
<polygon fill="#160e08" fill-opacity="0.501961" points="214,51 206,105 218,84" />
<polygon fill="#0f2d6e" fill-opacity="0.501961" points="252,132 252,113 247,116" />
<polygon fill="#00144a" fill-opacity="0.501961" points="252,135 251,114 246,117" />
<polygon fill="#1d438d" fill-opacity="0.501961" points="241,111 234,113 232,111" />
<polygon fill="#001951" fill-opacity="0.501961" points="249,112 204,140 222,112" />
<polygon fill="#3c281f" fill-opacity="0.501961" points="49,83 66,70 57,84" />
<polygon fill="#0e1f57" fill-opacity="0.501961" points="92,114 101,113 97,112" />
<polygon fill="#193576" fill-opacity="0.501961" points="98,143 75,143 91,138" />
<polygon fill="#412c23" fill-opacity="0.501961" points="134,78 143,73 134,104" />
<polygon fill="#0b1f55" fill-opacity="0.501961" points="96,141 72,130 80,142" />
<polygon fill="#5d6b8d" fill-opacity="0.501961" points="84,119 81,128 80,119" />
<polygon fill="#331f15" fill-opacity="0.501961" points="174,33 173,22 168,33" />
<polygon fill="#472f22" fill-opacity="0.501961" points="102,62 108,72 111,50" />
<polygon fill="#000000" fill-opacity="0.501961" points="232,106 267,91 243,111" />
<polygon fill="#9ca5ba" fill-opacity="0.501961" points="82,119 83,116 82,116" />
<polygon fill="#808ca8" fill-opacity="0.501961" points="101,119 110,119 104,117" />
<polygon fill="#0e3074" fill-opacity="0.501961" points="57,143 61,139 68,143" />
<polygon fill="#727f9d" fill-opacity="0.501961" points="65,130 69,125 66,124" />
<polygon fill="#412d22" fill-opacity="0.501961" points="146,37 149,12 142,29" />
<polygon fill="#4c382e" fill-opacity="0.501961" points="149,63 157,22 145,23" />
<polygon fill="#241d19" fill-opacity="0.501961" points="110,160 133,143 91,143" />
<polygon fill="#110b06" fill-opacity="0.501961" points="39,49 71,4 46,23" />
<polygon fill="#241e16" fill-opacity="0.501961" points="171,109 180,97 180,107" />
<polygon fill="#1d417f" fill-opacity="0.501961" points="23,112 17,110 14,112" />
<polygon fill="#000000" fill-opacity="0.501961" points="19,111 29,99 -16,107" />
<polygon fill="#031d52" fill-opacity="0.501961" points="36,113 33,130 41,114" />
<polygon fill="#352018" fill-opacity="0.501961" points="84,79 100,79 117,63" />
<polygon fill="#5a698c" fill-opacity="0.501961" points="63,121 60,115 64,119" />
<polygon fill="#0c235a" fill-opacity="0.501961" points="173,140 193,125 191,142" />
<polygon fill="#301b15" fill-opacity="0.501961" points="119,56 118,81 124,71" />
<polygon fill="#182c61" fill-opacity="0.501961" points="137,117 104,124 121,115" />
<polygon fill="#070502" fill-opacity="0.501961" points="224,32 229,83 199,4" />
<polygon fill="#171711" fill-opacity="0.501961" points="121,-12 128,16 129,-14" />
<polygon fill="#2f241c" fill-opacity="0.501961" points="137,13 131,3 153,5" />
<polygon fill="#392219" fill-opacity="0.501961" points="80,106 107,110 83,80" />
<polygon fill="#031c53" fill-opacity="0.501961" points="53,137 54,124 56,134" />
<polygon fill="#001a53" fill-opacity="0.501961" points="6,117 45,142 8,141" />
<polygon fill="#8c99b1" fill-opacity="0.501961" points="45,129 41,125 43,130" />
<polygon fill="#051e54" fill-opacity="0.501961" points="205,114 229,115 200,142" />
<polygon fill="#11265d" fill-opacity="0.501961" points="188,123 162,113 203,112" />
<polygon fill="#010301" fill-opacity="0.501961" points="253,160 253,107 266,149" />
<polygon fill="#48352c" fill-opacity="0.501961" points="153,66 145,59 173,54" />
<polygon fill="#493227" fill-opacity="0.501961" points="74,91 81,92 77,96" />
<polygon fill="#0c2159" fill-opacity="0.501961" points="97,131 118,142 57,142" />
<polygon fill="#19140e" fill-opacity="0.501961" points="181,28 180,10 189,6" />
<polygon fill="#596b8e" fill-opacity="0.501961" points="56,133 60,139 59,130" />
<polygon fill="#4c382b" fill-opacity="0.501961" points="150,78 149,106 141,77" />
<polygon fill="#4c3325" fill-opacity="0.501961" points="88,54 87,65 90,58" />
<polygon fill="#3d271d" fill-opacity="0.501961" points="106,86 108,59 117,102" />
<polygon fill="#344672" fill-opacity="0.501961" points="62,114 61,120 63,124" />
<polygon fill="#6e503d" fill-opacity="0.501961" points="110,49 111,49 112,46" />
<polygon fill="#11245c" fill-opacity="0.501961" points="137,139 80,138 110,130" />
</g>
</svg>