<svg xmlns="http://www.w3.org/2000/svg" version="1.1" width="1024" height="580">
<rect x="0" y="0" width="1024" height="580" fill="#0f1928" />
<g transform="scale(4.000000) translate(0.5 0.5)">
<polygon fill="#0e3da1" fill-opacity="0.501961" points="100,160 -14,112 246,111" />
<polygon fill="#78ffff" fill-opacity="0.501961" points="121,33 134,26 128,48" />
<polygon fill="#000000" fill-opacity="0.501961" points="271,98 270,-12 143,-14" />
<polygon fill="#000000" fill-opacity="0.501961" points="-16,126 83,80 3,-16" />
<polygon fill="#fffffd" fill-opacity="0.501961" points="133,81 121,76 131,64" />
<polygon fill="#002d8f" fill-opacity="0.501961" points="252,110 118,155 254,160" />
<polygon fill="#51543a" fill-opacity="0.501961" points="197,39 168,76 249,66" />
<polygon fill="#7e91ad" fill-opacity="0.501961" points="86,118 51,123 30,111" />
<polygon fill="#060200" fill-opacity="0.501961" points="134,53 132,111 260,-16" />
<polygon fill="#626e92" fill-opacity="0.501961" points="76,119 121,123 116,103" />
<polygon fill="#001f6e" fill-opacity="0.501961" points="6,111 95,142 3,143" />
<polygon fill="#81ffff" fill-opacity="0.501961" points="134,40 127,46 123,29" />
<polygon fill="#4c4e33" fill-opacity="0.501961" points="151,53 181,10 148,14" />
<polygon fill="#050200" fill-opacity="0.501961" points="222,106 251,-16 271,114" />
<polygon fill="#393a24" fill-opacity="0.501961" points="58,16 55,52 20,19" />
<polygon fill="#5391ff" fill-opacity="0.501961" points="242,129 250,132 242,143" />
<polygon fill="#111108" fill-opacity="0.501961" points="170,111 271,65 51,88" />
<polygon fill="#000000" fill-opacity="0.501961" points="271,24 186,50 168,-16" />
<polygon fill="#3c443a" fill-opacity="0.501961" points="177,43 249,52 173,73" />
<polygon fill="#030200" fill-opacity="0.501961" points="80,68 -16,-16 -4,116" />
<polygon fill="#030000" fill-opacity="0.501961" points="90,3 -16,22 -16,-12" />
<polygon fill="#151a17" fill-opacity="0.501961" points="129,71 190,47 39,45" />
<polygon fill="#fff8ff" fill-opacity="0.501961" points="132,77 124,80 125,72" />
<polygon fill="#001653" fill-opacity="0.501961" points="53,114 34,109 9,121" />
<polygon fill="#70ffff" fill-opacity="0.501961" points="133,41 129,29 123,42" />
<polygon fill="#00c4ff" fill-opacity="0.501961" points="135,33 126,32 125,27" />
<polygon fill="#151c1c" fill-opacity="0.501961" points="38,11 129,-1 118,60" />
<polygon fill="#000304" fill-opacity="0.501961" points="181,111 130,107 167,41" />
<polygon fill="#011e57" fill-opacity="0.501961" points="36,133 216,107 260,160" />
<polygon fill="#7d8eaa" fill-opacity="0.501961" points="37,116 41,123 64,117" />
<polygon fill="#bc7d73" fill-opacity="0.501961" points="106,103 117,108 119,104" />
<polygon fill="#1b2222" fill-opacity="0.501961" points="193,66 152,95 224,111" />
<polygon fill="#11181c" fill-opacity="0.501961" points="107,110 15,109 132,48" />
<polygon fill="#151d1e" fill-opacity="0.501961" points="125,-11 138,63 157,-16" />
<polygon fill="#8fa0b7" fill-opacity="0.501961" points="75,122 83,116 65,115" />
<polygon fill="#000000" fill-opacity="0.501961" points="158,-8 248,56 271,-1" />
<polygon fill="#03205b" fill-opacity="0.501961" points="81,130 9,160 3,111" />
<polygon fill="#b4877a" fill-opacity="0.501961" points="126,69 124,66 133,65" />
<polygon fill="#474b3c" fill-opacity="0.501961" points="166,21 173,1 173,43" />
<polygon fill="#00185a" fill-opacity="0.501961" points="94,109 81,115 111,113" />
<polygon fill="#000000" fill-opacity="0.501961" points="3,160 4,107 -16,84" />
<polygon fill="#97acd6" fill-opacity="0.501961" points="122,117 111,119 115,114" />
<polygon fill="#010000" fill-opacity="0.501961" points="183,108 119,104 115,79" />
<polygon fill="#5a504b" fill-opacity="0.501961" points="145,78 139,86 140,72" />
<polygon fill="#000000" fill-opacity="0.501961" points="75,65 63,98 -12,28" />
<polygon fill="#4e564c" fill-opacity="0.501961" points="148,39 150,18 161,29" />
<polygon fill="#14150e" fill-opacity="0.501961" points="236,45 160,51 160,30" />
<polygon fill="#2e342c" fill-opacity="0.501961" points="42,10 61,37 20,29" />
<polygon fill="#120200" fill-opacity="0.501961" points="259,143 197,160 134,143" />
<polygon fill="#232723" fill-opacity="0.501961" points="252,66 234,42 224,75" />
<polygon fill="#1a180b" fill-opacity="0.501961" points="147,18 184,6 148,-16" />
<polygon fill="#474c42" fill-opacity="0.501961" points="173,56 180,89 187,60" />
<polygon fill="#050602" fill-opacity="0.501961" points="236,20 256,126 268,66" />
<polygon fill="#7b6b69" fill-opacity="0.501961" points="131,81 122,77 123,84" />
<polygon fill="#738ba8" fill-opacity="0.501961" points="99,117 89,115 88,123" />
<polygon fill="#020100" fill-opacity="0.501961" points="145,80 129,61 173,68" />
<polygon fill="#03225f" fill-opacity="0.501961" points="96,116 166,139 91,142" />
<polygon fill="#000000" fill-opacity="0.501961" points="53,1 -11,21 4,-16" />
<polygon fill="#639fff" fill-opacity="0.501961" points="242,137 247,134 240,135" />
<polygon fill="#7b615c" fill-opacity="0.501961" points="134,75 130,63 121,67" />
<polygon fill="#00205d" fill-opacity="0.501961" points="99,136 82,109 90,140" />
<polygon fill="#424a43" fill-opacity="0.501961" points="237,70 205,48 193,67" />
<polygon fill="#13191a" fill-opacity="0.501961" points="183,109 187,65 245,111" />
<polygon fill="#131d25" fill-opacity="0.501961" points="125,101 62,110 82,50" />
<polygon fill="#000000" fill-opacity="0.501961" points="253,80 254,148 271,100" />
<polygon fill="#00124b" fill-opacity="0.501961" points="249,112 251,136 236,113" />
<polygon fill="#131b20" fill-opacity="0.501961" points="30,44 120,22 122,77" />
<polygon fill="#151e24" fill-opacity="0.501961" points="112,26 125,-16 142,29" />
<polygon fill="#5b4d63" fill-opacity="0.501961" points="109,106 119,107 119,117" />
<polygon fill="#71e5ff" fill-opacity="0.501961" points="131,30 122,42 131,46" />
<polygon fill="#191802" fill-opacity="0.501961" points="132,144 77,159 36,143" />
<polygon fill="#05225e" fill-opacity="0.501961" points="21,122 39,156 90,122" />
<polygon fill="#151710" fill-opacity="0.501961" points="13,15 42,3 26,50" />
<polygon fill="#121b23" fill-opacity="0.501961" points="90,110 52,-16 124,43" />
<polygon fill="#1a211b" fill-opacity="0.501961" points="189,78 183,40 197,40" />
<polygon fill="#e1e5fe" fill-opacity="0.501961" points="126,80 132,73 122,73" />
<polygon fill="#000000" fill-opacity="0.501961" points="183,-16 271,29 178,41" />
<polygon fill="#001a53" fill-opacity="0.501961" points="219,141 245,141 225,117" />
<polygon fill="#101c29" fill-opacity="0.501961" points="160,98 146,81 207,99" />
<polygon fill="#ffffff" fill-opacity="0.501961" points="127,37 129,35 126,35" />
<polygon fill="#001b56" fill-opacity="0.501961" points="4,140 11,110 49,127" />
<polygon fill="#26251f" fill-opacity="0.501961" points="124,79 130,99 132,83" />
<polygon fill="#072b50" fill-opacity="0.501961" points="132,35 135,46 137,31" />
<polygon fill="#313732" fill-opacity="0.501961" points="231,46 237,69 192,46" />
<polygon fill="#101b26" fill-opacity="0.501961" points="162,61 142,44 100,48" />
<polygon fill="#082761" fill-opacity="0.501961" points="71,108 63,130 69,136" />
<polygon fill="#0c2a67" fill-opacity="0.501961" points="8,110 21,120 55,110" />
<polygon fill="#284576" fill-opacity="0.501961" points="76,126 76,116 83,121" />
<polygon fill="#0fc8ff" fill-opacity="0.501961" points="126,34 124,29 131,31" />
<polygon fill="#001955" fill-opacity="0.501961" points="212,112 247,112 244,130" />
<polygon fill="#161b1a" fill-opacity="0.501961" points="159,64 161,42 128,24" />
<polygon fill="#1f1d11" fill-opacity="0.501961" points="225,73 170,77 180,89" />
<polygon fill="#2f4b71" fill-opacity="0.501961" points="179,143 211,142 218,158" />
<polygon fill="#533425" fill-opacity="0.501961" points="122,70 122,72 128,70" />
<polygon fill="#414a40" fill-opacity="0.501961" points="56,37 47,18 57,24" />
<polygon fill="#4d85ff" fill-opacity="0.501961" points="249,139 243,137 245,129" />
<polygon fill="#4f658d" fill-opacity="0.501961" points="47,119 48,122 36,122" />
<polygon fill="#000000" fill-opacity="0.501961" points="4,156 3,108 -12,134" />
<polygon fill="#000404" fill-opacity="0.501961" points="118,58 113,87 126,98" />
<polygon fill="#0a3685" fill-opacity="0.501961" points="118,118 122,111 115,112" />
<polygon fill="#353728" fill-opacity="0.501961" points="50,73 54,79 53,87" />
<polygon fill="#000000" fill-opacity="0.501961" points="11,78 71,48 32,89" />
<polygon fill="#0e0e03" fill-opacity="0.501961" points="45,-16 45,19 60,17" />
<polygon fill="#000504" fill-opacity="0.501961" points="228,110 256,110 247,72" />
<polygon fill="#121a23" fill-opacity="0.501961" points="60,108 120,76 106,111" />
<polygon fill="#131613" fill-opacity="0.501961" points="245,74 236,46 271,51" />
<polygon fill="#1a2222" fill-opacity="0.501961" points="137,97 159,110 141,110" />
<polygon fill="#080d00" fill-opacity="0.501961" points="257,143 209,159 189,144" />
<polygon fill="#001a50" fill-opacity="0.501961" points="226,137 240,144 251,139" />
<polygon fill="#181713" fill-opacity="0.501961" points="173,38 186,57 175,4" />
<polygon fill="#173673" fill-opacity="0.501961" points="198,118 177,110 222,110" />
<polygon fill="#07265f" fill-opacity="0.501961" points="52,115 58,108 69,114" />
<polygon fill="#414b43" fill-opacity="0.501961" points="174,53 175,76 186,77" />
<polygon fill="#bf8986" fill-opacity="0.501961" points="113,108 111,107 114,103" />
<polygon fill="#000000" fill-opacity="0.501961" points="156,105 147,84 117,85" />
<polygon fill="#7285a3" fill-opacity="0.501961" points="74,117 57,121 48,115" />
<polygon fill="#030401" fill-opacity="0.501961" points="167,59 125,61 168,81" />
<polygon fill="#0b1113" fill-opacity="0.501961" points="-16,82 55,88 24,111" />
<polygon fill="#072460" fill-opacity="0.501961" points="54,120 57,143 71,140" />
<polygon fill="#060701" fill-opacity="0.501961" points="115,143 148,160 189,143" />
<polygon fill="#0c2d6b" fill-opacity="0.501961" points="5,146 4,121 10,137" />
<polygon fill="#0b0500" fill-opacity="0.501961" points="48,143 -4,143 39,160" />
<polygon fill="#10181e" fill-opacity="0.501961" points="146,33 141,77 131,43" />
<polygon fill="#001d5a" fill-opacity="0.501961" points="173,126 124,113 214,112" />
<polygon fill="#6f84ac" fill-opacity="0.501961" points="108,117 117,124 114,115" />
<polygon fill="#163673" fill-opacity="0.501961" points="128,110 171,110 153,117" />
<polygon fill="#191a13" fill-opacity="0.501961" points="238,67 225,95 187,73" />
<polygon fill="#c7c6d7" fill-opacity="0.501961" points="130,72 124,79 123,72" />
<polygon fill="#062562" fill-opacity="0.501961" points="108,125 153,112 204,142" />
<polygon fill="#092460" fill-opacity="0.501961" points="48,137 47,119 59,152" />
<polygon fill="#34351f" fill-opacity="0.501961" points="93,36 92,43 80,42" />
<polygon fill="#8b9bb5" fill-opacity="0.501961" points="72,115 69,122 78,118" />
<polygon fill="#052460" fill-opacity="0.501961" points="105,134 106,111 90,141" />
<polygon fill="#011d56" fill-opacity="0.501961" points="4,111 8,128 39,114" />
<polygon fill="#404c45" fill-opacity="0.501961" points="165,11 171,19 172,8" />
<polygon fill="#5e7296" fill-opacity="0.501961" points="35,119 43,115 46,123" />
<polygon fill="#072661" fill-opacity="0.501961" points="76,114 76,136 86,150" />
<polygon fill="#000000" fill-opacity="0.501961" points="271,-13 180,4 236,47" />
<polygon fill="#9eafd1" fill-opacity="0.501961" points="118,121 112,118 116,115" />
<polygon fill="#08a9ff" fill-opacity="0.501961" points="128,28 121,32 132,30" />
<polygon fill="#2c4673" fill-opacity="0.501961" points="93,160 35,142 124,142" />
<polygon fill="#444c44" fill-opacity="0.501961" points="158,39 148,35 158,18" />
<polygon fill="#090d0b" fill-opacity="0.501961" points="7,40 26,74 46,33" />
<polygon fill="#0d2138" fill-opacity="0.501961" points="122,47 123,26 115,25" />
<polygon fill="#14a0ec" fill-opacity="0.501961" points="132,40 132,30 130,33" />
<polygon fill="#98acc3" fill-opacity="0.501961" points="110,115 104,115 107,116" />
<polygon fill="#000000" fill-opacity="0.501961" points="153,1 214,0 164,-16" />
<polygon fill="#07225d" fill-opacity="0.501961" points="49,135 38,139 38,116" />
<polygon fill="#121d2a" fill-opacity="0.501961" points="145,19 138,53 131,21" />
<polygon fill="#0f1009" fill-opacity="0.501961" points="151,65 144,80 130,70" />
<polygon fill="#0a0f0e" fill-opacity="0.501961" points="123,143 64,160 6,143" />
<polygon fill="#6a5f63" fill-opacity="0.501961" points="141,85 138,81 142,77" />
<polygon fill="#40473f" fill-opacity="0.501961" points="223,71 212,48 194,69" />
<polygon fill="#010100" fill-opacity="0.501961" points="-16,28 22,-9 2,83" />
<polygon fill="#000000" fill-opacity="0.501961" points="173,53 138,90 173,70" />
<polygon fill="#000000" fill-opacity="0.501961" points="139,79 138,99 133,78" />
<polygon fill="#052360" fill-opacity="0.501961" points="25,122 75,142 100,122" />
<polygon fill="#031f5b" fill-opacity="0.501961" points="251,129 223,113 197,135" />
<polygon fill="#80f1ff" fill-opacity="0.501961" points="131,46 125,34 125,45" />
<polygon fill="#202c22" fill-opacity="0.501961" points="160,10 160,34 169,7" />
<polygon fill="#2f2919" fill-opacity="0.501961" points="57,46 47,41 48,52" />
<polygon fill="#151d23" fill-opacity="0.501961" points="178,110 209,77 226,111" />
<polygon fill="#1a1b14" fill-opacity="0.501961" points="149,43 167,32 186,41" />
<polygon fill="#000000" fill-opacity="0.501961" points="71,84 55,95 59,51" />
<polygon fill="#04225e" fill-opacity="0.501961" points="121,113 126,132 179,112" />
<polygon fill="#0f181b" fill-opacity="0.501961" points="42,86 28,110 71,109" />
<polygon fill="#052461" fill-opacity="0.501961" points="89,134 73,141 87,115" />
<polygon fill="#000000" fill-opacity="0.501961" points="40,81 38,95 9,69" />
<polygon fill="#13367c" fill-opacity="0.501961" points="28,139 15,143 37,143" />
<polygon fill="#647b9c" fill-opacity="0.501961" points="81,122 84,121 80,116" />
<polygon fill="#2d2e1f" fill-opacity="0.501961" points="121,7 115,-16 163,-16" />
<polygon fill="#414b41" fill-opacity="0.501961" points="50,29 50,39 46,34" />
<polygon fill="#06235f" fill-opacity="0.501961" points="68,120 42,141 97,142" />
<polygon fill="#072765" fill-opacity="0.501961" points="47,116 49,110 42,114" />
<polygon fill="#242826" fill-opacity="0.501961" points="24,30 34,33 45,11" />
<polygon fill="#131c24" fill-opacity="0.501961" points="121,102 72,72 69,110" />
<polygon fill="#000000" fill-opacity="0.501961" points="138,93 165,110 181,105" />
<polygon fill="#001c57" fill-opacity="0.501961" points="44,141 35,118 2,142" />
<polygon fill="#1e3f7d" fill-opacity="0.501961" points="88,114 89,110 74,111" />
<polygon fill="#494f45" fill-opacity="0.501961" points="175,21 169,32 168,28" />
<polygon fill="#513d36" fill-opacity="0.501961" points="131,77 129,84 135,80" />
<polygon fill="#98a6bd" fill-opacity="0.501961" points="51,116 48,120 54,122" />
<polygon fill="#043262" fill-opacity="0.501961" points="123,28 122,42 119,37" />
<polygon fill="#000000" fill-opacity="0.501961" points="252,140 257,102 265,139" />
<polygon fill="#97a6bc" fill-opacity="0.501961" points="88,121 94,118 90,116" />
<polygon fill="#020500" fill-opacity="0.501961" points="132,60 114,67 116,59" />
<polygon fill="#000000" fill-opacity="0.501961" points="134,84 140,73 137,65" />
<polygon fill="#000000" fill-opacity="0.501961" points="180,40 181,10 271,-3" />
<polygon fill="#01205c" fill-opacity="0.501961" points="107,124 110,119 116,135" />
<polygon fill="#05245e" fill-opacity="0.501961" points="89,108 88,125 80,128" />
<polygon fill="#000000" fill-opacity="0.501961" points="145,105 144,84 131,85" />
<polygon fill="#0d2c69" fill-opacity="0.501961" points="132,143 173,143 148,135" />
<polygon fill="#222319" fill-opacity="0.501961" points="128,95 131,106 131,86" />
<polygon fill="#000000" fill-opacity="0.501961" points="28,82 53,52 76,67" />
<polygon fill="#2d291e" fill-opacity="0.501961" points="193,75 210,74 195,82" />
<polygon fill="#191a19" fill-opacity="0.501961" points="179,32 170,2 179,3" />
<polygon fill="#001a52" fill-opacity="0.501961" points="140,142 170,142 149,135" />
<polygon fill="#131c24" fill-opacity="0.501961" points="73,17 117,59 123,22" />
<polygon fill="#121a22" fill-opacity="0.501961" points="117,41 109,109 75,111" />
<polygon fill="#0b100e" fill-opacity="0.501961" points="192,86 192,70 181,79" />
<polygon fill="#0c141a" fill-opacity="0.501961" points="240,85 198,80 234,109" />
<polygon fill="#405b86" fill-opacity="0.501961" points="102,124 100,115 97,121" />
<polygon fill="#001c5b" fill-opacity="0.501961" points="55,112 56,116 48,112" />
<polygon fill="#001d59" fill-opacity="0.501961" points="99,119 97,113 95,121" />
<polygon fill="#010000" fill-opacity="0.501961" points="43,8 -16,5 63,-16" />
<polygon fill="#224a9a" fill-opacity="0.501961" points="238,111 252,111 245,113" />
<polygon fill="#1d1f16" fill-opacity="0.501961" points="142,79 138,66 142,65" />
<polygon fill="#062460" fill-opacity="0.501961" points="83,142 151,123 91,122" />
<polygon fill="#000000" fill-opacity="0.501961" points="50,75 52,92 45,90" />
<polygon fill="#131b23" fill-opacity="0.501961" points="63,51 54,13 124,73" />
<polygon fill="#282d2c" fill-opacity="0.501961" points="215,69 235,55 240,69" />
<polygon fill="#000000" fill-opacity="0.501961" points="270,40 179,39 238,-16" />
<polygon fill="#4a3835" fill-opacity="0.501961" points="130,72 130,68 135,67" />
<polygon fill="#0b2c4f" fill-opacity="0.501961" points="135,35 132,36 137,43" />
<polygon fill="#121b24" fill-opacity="0.501961" points="151,81 154,97 196,101" />
<polygon fill="#000000" fill-opacity="0.501961" points="127,83 117,88 127,106" />
<polygon fill="#161815" fill-opacity="0.501961" points="175,56 189,44 160,32" />
<polygon fill="#001a54" fill-opacity="0.501961" points="40,112 7,112 5,141" />
<polygon fill="#101921" fill-opacity="0.501961" points="69,85 68,108 62,88" />
<polygon fill="#0b141d" fill-opacity="0.501961" points="20,67 34,64 15,61" />
<polygon fill="#000000" fill-opacity="0.501961" points="165,85 144,77 166,73" />
<polygon fill="#062561" fill-opacity="0.501961" points="58,134 69,118 80,142" />
<polygon fill="#232a28" fill-opacity="0.501961" points="206,92 196,85 190,89" />
<polygon fill="#0fa7f5" fill-opacity="0.501961" points="123,40 126,32 123,33" />
<polygon fill="#001d56" fill-opacity="0.501961" points="228,114 253,135 245,112" />
<polygon fill="#14377f" fill-opacity="0.501961" points="39,116 52,111 34,111" />
<polygon fill="#000000" fill-opacity="0.501961" points="140,93 130,103 137,64" />
<polygon fill="#424a44" fill-opacity="0.501961" points="176,57 184,56 184,78" />
<polygon fill="#957a87" fill-opacity="0.501961" points="140,84 142,81 140,80" />
<polygon fill="#000302" fill-opacity="0.501961" points="59,99 55,88 70,89" />
<polygon fill="#030608" fill-opacity="0.501961" points="2,110 8,80 23,109" />
<polygon fill="#153780" fill-opacity="0.501961" points="218,116 225,111 204,111" />
<polygon fill="#04215e" fill-opacity="0.501961" points="196,112 185,142 249,112" />
<polygon fill="#171912" fill-opacity="0.501961" points="65,41 37,37 37,47" />
<polygon fill="#161c20" fill-opacity="0.501961" points="43,107 39,77 53,110" />
<polygon fill="#022562" fill-opacity="0.501961" points="91,113 89,112 92,117" />
<polygon fill="#060a08" fill-opacity="0.501961" points="159,59 133,69 133,60" />
<polygon fill="#c2ffff" fill-opacity="0.501961" points="130,34 127,35 130,37" />
<polygon fill="#373e37" fill-opacity="0.501961" points="54,18 50,37 48,18" />
<polygon fill="#131c25" fill-opacity="0.501961" points="94,105 114,89 60,91" />
<polygon fill="#14150e" fill-opacity="0.501961" points="243,51 204,41 238,40" />
<polygon fill="#042056" fill-opacity="0.501961" points="47,112 42,112 48,118" />
<polygon fill="#284576" fill-opacity="0.501961" points="59,122 62,115 61,123" />
<polygon fill="#252719" fill-opacity="0.501961" points="226,99 209,103 210,110" />
<polygon fill="#092763" fill-opacity="0.501961" points="122,133 118,129 119,118" />
<polygon fill="#20251f" fill-opacity="0.501961" points="128,109 129,97 133,110" />
<polygon fill="#13316e" fill-opacity="0.501961" points="239,143 211,143 228,137" />
<polygon fill="#00184e" fill-opacity="0.501961" points="230,134 250,142 210,142" />
<polygon fill="#0d0e09" fill-opacity="0.501961" points="212,72 211,84 235,73" />
<polygon fill="#000000" fill-opacity="0.501961" points="3,115 4,160 -16,94" />
<polygon fill="#020909" fill-opacity="0.501961" points="97,78 93,84 87,78" />
<polygon fill="#000000" fill-opacity="0.501961" points="33,63 59,51 38,87" />
<polygon fill="#111a22" fill-opacity="0.501961" points="116,35 75,-16 139,15" />
<polygon fill="#000000" fill-opacity="0.501961" points="170,102 173,97 173,109" />
<polygon fill="#534647" fill-opacity="0.501961" points="124,82 119,76 129,82" />
<polygon fill="#070e11" fill-opacity="0.501961" points="116,94 122,66 112,72" />
<polygon fill="#1e211e" fill-opacity="0.501961" points="243,50 230,48 240,71" />
<polygon fill="#12357b" fill-opacity="0.501961" points="20,116 34,111 6,111" />
<polygon fill="#001b54" fill-opacity="0.501961" points="41,112 8,112 9,128" />
<polygon fill="#20231e" fill-opacity="0.501961" points="53,76 54,93 48,98" />
<polygon fill="#00184e" fill-opacity="0.501961" points="156,112 181,123 182,112" />
<polygon fill="#6095ff" fill-opacity="0.501961" points="243,131 246,134 242,137" />
<polygon fill="#0b131a" fill-opacity="0.501961" points="40,111 24,85 14,98" />
<polygon fill="#153980" fill-opacity="0.501961" points="195,115 201,111 182,112" />
<polygon fill="#173877" fill-opacity="0.501961" points="53,112 65,110 76,115" />
<polygon fill="#062460" fill-opacity="0.501961" points="199,112 191,142 86,127" />
<polygon fill="#121b24" fill-opacity="0.501961" points="83,56 74,-6 63,59" />
<polygon fill="#000000" fill-opacity="0.501961" points="143,80 144,94 153,71" />
<polygon fill="#111a24" fill-opacity="0.501961" points="188,108 222,84 174,100" />
<polygon fill="#070e0e" fill-opacity="0.501961" points="160,55 160,28 173,52" />
<polygon fill="#0d0f0f" fill-opacity="0.501961" points="14,9 33,18 13,33" />
<polygon fill="#273129" fill-opacity="0.501961" points="186,45 194,70 184,68" />
<polygon fill="#070d08" fill-opacity="0.501961" points="173,89 186,90 174,93" />
<polygon fill="#000606" fill-opacity="0.501961" points="50,106 60,104 57,108" />
<polygon fill="#131c24" fill-opacity="0.501961" points="81,72 124,72 96,59" />
<polygon fill="#121212" fill-opacity="0.501961" points="176,33 174,12 179,16" />
<polygon fill="#2d2619" fill-opacity="0.501961" points="159,46 155,50 147,37" />
<polygon fill="#121c26" fill-opacity="0.501961" points="130,46 88,61 137,58" />
<polygon fill="#4a3533" fill-opacity="0.501961" points="120,68 131,68 126,71" />
<polygon fill="#151611" fill-opacity="0.501961" points="149,17 161,17 150,-10" />
<polygon fill="#6f82a0" fill-opacity="0.501961" points="120,116 119,123 122,121" />
<polygon fill="#062461" fill-opacity="0.501961" points="142,114 213,137 87,134" />
<polygon fill="#0f1719" fill-opacity="0.501961" points="56,26 89,-12 58,5" />
<polygon fill="#072561" fill-opacity="0.501961" points="130,113 113,128 183,125" />
<polygon fill="#264179" fill-opacity="0.501961" points="114,114 120,110 126,110" />
<polygon fill="#1b272e" fill-opacity="0.501961" points="169,78 169,72 178,77" />
<polygon fill="#241f17" fill-opacity="0.501961" points="232,73 230,80 223,74" />
<polygon fill="#26231a" fill-opacity="0.501961" points="171,88 183,90 185,75" />
<polygon fill="#171a16" fill-opacity="0.501961" points="12,32 28,30 46,4" />
<polygon fill="#041f5b" fill-opacity="0.501961" points="32,113 49,142 16,142" />
<polygon fill="#161f2b" fill-opacity="0.501961" points="106,80 108,75 120,76" />
<polygon fill="#7688a5" fill-opacity="0.501961" points="40,118 41,122 45,121" />
<polygon fill="#03215d" fill-opacity="0.501961" points="91,140 107,124 103,118" />
<polygon fill="#252e27" fill-opacity="0.501961" points="153,13 167,13 168,27" />
<polygon fill="#090f14" fill-opacity="0.501961" points="246,95 232,110 211,110" />
<polygon fill="#18397d" fill-opacity="0.501961" points="155,139 169,143 155,143" />
<polygon fill="#062665" fill-opacity="0.501961" points="58,114 73,111 70,115" />
<polygon fill="#072560" fill-opacity="0.501961" points="147,132 117,120 130,132" />
<polygon fill="#5287ff" fill-opacity="0.501961" points="244,131 246,137 242,133" />
<polygon fill="#040601" fill-opacity="0.501961" points="41,90 45,86 57,94" />
<polygon fill="#131d25" fill-opacity="0.501961" points="122,105 121,95 94,93" />
<polygon fill="#111b25" fill-opacity="0.501961" points="51,93 29,99 68,105" />
<polygon fill="#062360" fill-opacity="0.501961" points="110,123 42,141 39,122" />
<polygon fill="#1e3d79" fill-opacity="0.501961" points="114,119 105,111 108,116" />
<polygon fill="#181b16" fill-opacity="0.501961" points="212,103 217,74 223,83" />
<polygon fill="#604a41" fill-opacity="0.501961" points="119,107 121,110 119,104" />
<polygon fill="#9caabf" fill-opacity="0.501961" points="94,120 89,116 89,118" />
<polygon fill="#131b24" fill-opacity="0.501961" points="105,82 65,86 109,111" />
<polygon fill="#121b22" fill-opacity="0.501961" points="168,101 148,85 178,86" />
<polygon fill="#101c27" fill-opacity="0.501961" points="112,45 125,36 105,36" />
<polygon fill="#16387a" fill-opacity="0.501961" points="130,139 142,143 128,143" />
<polygon fill="#070d0a" fill-opacity="0.501961" points="160,54 149,54 142,47" />
<polygon fill="#434b45" fill-opacity="0.501961" points="174,27 170,32 168,12" />
<polygon fill="#001d54" fill-opacity="0.501961" points="143,142 129,139 148,137" />
<polygon fill="#2e2c1d" fill-opacity="0.501961" points="141,98 138,99 140,107" />
<polygon fill="#e48aa2" fill-opacity="0.501961" points="113,104 117,105 112,106" />
<polygon fill="#1d1e18" fill-opacity="0.501961" points="180,29 154,42 179,39" />
<polygon fill="#05235f" fill-opacity="0.501961" points="140,120 111,112 147,112" />
<polygon fill="#152230" fill-opacity="0.501961" points="146,106 161,111 152,105" />
<polygon fill="#111920" fill-opacity="0.501961" points="99,106 60,111 55,97" />
<polygon fill="#00468e" fill-opacity="0.501961" points="131,27 134,29 127,27" />
<polygon fill="#000000" fill-opacity="0.501961" points="185,2 155,0 174,-15" />
<polygon fill="#021d57" fill-opacity="0.501961" points="252,112 231,142 209,112" />
<polygon fill="#434a43" fill-opacity="0.501961" points="195,60 193,70 219,52" />
<polygon fill="#000000" fill-opacity="0.501961" points="138,92 144,107 153,90" />
<polygon fill="#181917" fill-opacity="0.501961" points="217,40 189,40 215,49" />
<polygon fill="#654232" fill-opacity="0.501961" points="116,110 121,108 111,109" />
<polygon fill="#001a51" fill-opacity="0.501961" points="155,141 169,137 177,142" />
<polygon fill="#0b0d08" fill-opacity="0.501961" points="52,12 59,-1 33,3" />
<polygon fill="#0a0e0b" fill-opacity="0.501961" points="33,51 45,31 45,50" />
<polygon fill="#00184f" fill-opacity="0.501961" points="168,114 186,119 175,124" />
<polygon fill="#0b1318" fill-opacity="0.501961" points="102,16 84,18 112,3" />
<polygon fill="#3b423b" fill-opacity="0.501961" points="200,48 224,69 214,49" />
<polygon fill="#1b4185" fill-opacity="0.501961" points="12,143 8,143 8,141" />
<polygon fill="#062360" fill-opacity="0.501961" points="208,135 232,114 178,112" />
<polygon fill="#070e13" fill-opacity="0.501961" points="15,106 16,81 33,111" />
<polygon fill="#071119" fill-opacity="0.501961" points="195,84 183,94 187,79" />
<polygon fill="#95ffff" fill-opacity="0.501961" points="133,41 127,33 128,40" />
<polygon fill="#131b23" fill-opacity="0.501961" points="143,-16 150,44 129,25" />
<polygon fill="#111a21" fill-opacity="0.501961" points="107,11 137,-10 54,-16" />
<polygon fill="#011e56" fill-opacity="0.501961" points="137,142 109,134 111,142" />
<polygon fill="#3d453d" fill-opacity="0.501961" points="158,38 148,38 149,17" />
<polygon fill="#000000" fill-opacity="0.501961" points="23,65 66,78 77,66" />
<polygon fill="#64524e" fill-opacity="0.501961" points="128,64 132,71 132,66" />
<polygon fill="#123575" fill-opacity="0.501961" points="92,115 83,112 99,110" />
<polygon fill="#080b0a" fill-opacity="0.501961" points="125,59 137,64 111,63" />
<polygon fill="#001952" fill-opacity="0.501961" points="30,141 4,142 7,123" />
<polygon fill="#1e438c" fill-opacity="0.501961" points="152,112 157,111 162,113" />
<polygon fill="#020304" fill-opacity="0.501961" points="24,62 46,61 -3,30" />
<polygon fill="#252218" fill-opacity="0.501961" points="196,71 213,70 207,82" />
</g>
</svg>