<svg xmlns="http://www.w3.org/2000/svg" version="1.1" width="1024" height="580">
<rect x="0" y="0" width="1024" height="580" fill="#2e3544" />
<g transform="scale(4.000000) translate(0.5 0.5)">
<polygon fill="#ffffff" fill-opacity="0.501961" points="32,15 -16,132 74,129" />
<polygon fill="#ffffff" fill-opacity="0.501961" points="220,110 179,111 201,45" />
<polygon fill="#000001" fill-opacity="0.501961" points="36,53 165,160 202,-16" />
<polygon fill="#000000" fill-opacity="0.501961" points="261,-12 259,157 182,-16" />
<polygon fill="#ffffff" fill-opacity="0.501961" points="36,42 55,124 2,78" />
<polygon fill="#123f9b" fill-opacity="0.501961" points="20,160 228,128 -16,101" />
<polygon fill="#030904" fill-opacity="0.501961" points="36,-9 271,-3 65,94" />
<polygon fill="#000000" fill-opacity="0.501961" points="20,63 -16,71 7,-16" />
<polygon fill="#c7a68b" fill-opacity="0.501961" points="40,90 43,12 10,24" />
<polygon fill="#000000" fill-opacity="0.501961" points="3,149 -16,79 3,68" />
<polygon fill="#e8b3af" fill-opacity="0.501961" points="181,55 210,122 208,51" />
<polygon fill="#e4ebfc" fill-opacity="0.501961" points="4,86 49,62 49,138" />
<polygon fill="#00207e" fill-opacity="0.501961" points="74,109 230,160 271,113" />
<polygon fill="#d0b3aa" fill-opacity="0.501961" points="127,62 138,75 123,86" />
<polygon fill="#ffffff" fill-opacity="0.501961" points="199,114 181,94 218,95" />
<polygon fill="#000000" fill-opacity="0.501961" points="269,135 253,-16 209,86" />
<polygon fill="#f5f7fb" fill-opacity="0.501961" points="67,101 55,75 56,115" />
<polygon fill="#6c85b7" fill-opacity="0.501961" points="33,110 91,117 -12,160" />
<polygon fill="#000000" fill-opacity="0.501961" points="57,15 -16,10 23,-16" />
<polygon fill="#575149" fill-opacity="0.501961" points="206,76 223,21 171,30" />
<polygon fill="#00133c" fill-opacity="0.501961" points="190,131 125,160 60,82" />
<polygon fill="#ffffff" fill-opacity="0.501961" points="5,105 35,52 5,71" />
<polygon fill="#000000" fill-opacity="0.501961" points="86,-10 60,69 37,55" />
<polygon fill="#000000" fill-opacity="0.501961" points="120,51 173,96 196,84" />
<polygon fill="#6b2812" fill-opacity="0.501961" points="29,80 30,94 22,85" />
<polygon fill="#000000" fill-opacity="0.501961" points="25,51 -16,16 -16,91" />
<polygon fill="#3d4e92" fill-opacity="0.501961" points="40,56 40,83 33,77" />
<polygon fill="#29499d" fill-opacity="0.501961" points="202,160 180,120 219,104" />
<polygon fill="#16212b" fill-opacity="0.501961" points="171,-7 81,37 58,136" />
<polygon fill="#000000" fill-opacity="0.501961" points="2,59 -16,118 6,160" />
<polygon fill="#f3d0aa" fill-opacity="0.501961" points="24,13 12,22 38,13" />
<polygon fill="#5574b5" fill-opacity="0.501961" points="10,160 4,99 30,98" />
<polygon fill="#242c33" fill-opacity="0.501961" points="56,87 54,109 49,87" />
<polygon fill="#ffffff" fill-opacity="0.501961" points="47,62 28,109 50,111" />
<polygon fill="#748aaf" fill-opacity="0.501961" points="18,130 70,115 105,129" />
<polygon fill="#ed9dc5" fill-opacity="0.501961" points="216,62 212,54 186,59" />
<polygon fill="#ffedcd" fill-opacity="0.501961" points="214,73 187,69 202,86" />
<polygon fill="#fedcc0" fill-opacity="0.501961" points="45,33 27,68 22,42" />
<polygon fill="#001547" fill-opacity="0.501961" points="210,160 259,114 216,97" />
<polygon fill="#ffffff" fill-opacity="0.501961" points="183,87 199,98 190,107" />
<polygon fill="#060a05" fill-opacity="0.501961" points="170,70 101,59 202,44" />
<polygon fill="#000000" fill-opacity="0.501961" points="3,37 -16,0 27,-1" />
<polygon fill="#82725e" fill-opacity="0.501961" points="18,15 41,41 52,20" />
<polygon fill="#284592" fill-opacity="0.501961" points="181,90 206,145 184,156" />
<polygon fill="#17316b" fill-opacity="0.501961" points="13,124 27,145 17,97" />
<polygon fill="#529aff" fill-opacity="0.501961" points="236,139 248,136 244,131" />
<polygon fill="#ffffff" fill-opacity="0.501961" points="58,84 40,72 49,65" />
<polygon fill="#001a56" fill-opacity="0.501961" points="159,120 197,160 27,140" />
<polygon fill="#000000" fill-opacity="0.501961" points="271,42 255,-16 173,7" />
<polygon fill="#010607" fill-opacity="0.501961" points="271,27 206,85 264,116" />
<polygon fill="#535a47" fill-opacity="0.501961" points="173,3 148,16 150,-16" />
<polygon fill="#353d33" fill-opacity="0.501961" points="186,23 172,40 184,90" />
<polygon fill="#8398cb" fill-opacity="0.501961" points="23,160 12,103 9,140" />
<polygon fill="#000000" fill-opacity="0.501961" points="39,56 63,72 69,-10" />
<polygon fill="#ffffff" fill-opacity="0.501961" points="4,97 25,96 8,71" />
<polygon fill="#0f191e" fill-opacity="0.501961" points="100,67 63,110 181,108" />
<polygon fill="#000000" fill-opacity="0.501961" points="50,96 53,110 54,98" />
<polygon fill="#877865" fill-opacity="0.501961" points="11,27 16,45 37,18" />
<polygon fill="#11191d" fill-opacity="0.501961" points="12,-16 59,33 199,22" />
<polygon fill="#ba8fb7" fill-opacity="0.501961" points="209,49 183,67 192,51" />
<polygon fill="#fffaeb" fill-opacity="0.501961" points="206,113 216,91 194,99" />
<polygon fill="#ffffff" fill-opacity="0.501961" points="26,94 44,111 34,84" />
<polygon fill="#000000" fill-opacity="0.501961" points="17,-16 -3,131 -16,29" />
<polygon fill="#85706f" fill-opacity="0.501961" points="136,85 121,65 137,66" />
<polygon fill="#88593b" fill-opacity="0.501961" points="35,55 22,51 35,61" />
<polygon fill="#000000" fill-opacity="0.501961" points="-13,11 22,52 12,65" />
<polygon fill="#a2a4b3" fill-opacity="0.501961" points="56,102 51,78 62,90" />
<polygon fill="#0c0c00" fill-opacity="0.501961" points="230,55 271,42 193,45" />
<polygon fill="#ffffff" fill-opacity="0.501961" points="63,106 50,113 63,92" />
<polygon fill="#6987c6" fill-opacity="0.501961" points="38,139 27,95 19,126" />
<polygon fill="#000000" fill-opacity="0.501961" points="172,93 194,85 135,64" />
<polygon fill="#0f1619" fill-opacity="0.501961" points="51,64 71,110 124,110" />
<polygon fill="#020301" fill-opacity="0.501961" points="175,61 107,48 170,19" />
<polygon fill="#000000" fill-opacity="0.501961" points="52,20 -16,-11 30,-12" />
<polygon fill="#001850" fill-opacity="0.501961" points="229,125 196,125 266,158" />
<polygon fill="#020401" fill-opacity="0.501961" points="216,111 260,107 263,49" />
<polygon fill="#1b2026" fill-opacity="0.501961" points="148,71 180,51 190,71" />
<polygon fill="#ffffff" fill-opacity="0.501961" points="5,72 25,81 26,58" />
<polygon fill="#fffbe1" fill-opacity="0.501961" points="43,45 28,31 39,52" />
<polygon fill="#869ecd" fill-opacity="0.501961" points="7,133 18,89 5,111" />
<polygon fill="#6c74ad" fill-opacity="0.501961" points="41,89 37,63 32,73" />
<polygon fill="#2d302c" fill-opacity="0.501961" points="25,40 33,44 32,40" />
<polygon fill="#011e54" fill-opacity="0.501961" points="180,103 124,160 185,134" />
<polygon fill="#ffe7cf" fill-opacity="0.501961" points="189,77 213,76 200,86" />
<polygon fill="#515a90" fill-opacity="0.501961" points="218,90 219,116 212,107" />
<polygon fill="#2d372c" fill-opacity="0.501961" points="190,17 242,42 168,53" />
<polygon fill="#d5dfeb" fill-opacity="0.501961" points="52,115 41,118 55,122" />
<polygon fill="#b26755" fill-opacity="0.501961" points="205,84 203,96 195,89" />
<polygon fill="#fffffe" fill-opacity="0.501961" points="50,79 24,95 47,104" />
<polygon fill="#ffffff" fill-opacity="0.501961" points="31,110 41,111 30,90" />
<polygon fill="#0f3984" fill-opacity="0.501961" points="151,112 127,118 103,111" />
<polygon fill="#dec9c0" fill-opacity="0.501961" points="124,77 130,72 130,81" />
<polygon fill="#6b5162" fill-opacity="0.501961" points="217,74 203,59 191,63" />
<polygon fill="#fffbe8" fill-opacity="0.501961" points="25,47 29,53 39,38" />
<polygon fill="#171b1d" fill-opacity="0.501961" points="224,17 210,83 241,116" />
<polygon fill="#000000" fill-opacity="0.501961" points="256,155 254,110 264,130" />
<polygon fill="#083180" fill-opacity="0.501961" points="252,111 252,148 238,111" />
<polygon fill="#b3a391" fill-opacity="0.501961" points="22,14 13,22 30,27" />
<polygon fill="#000841" fill-opacity="0.501961" points="22,112 17,107 18,126" />
<polygon fill="#101922" fill-opacity="0.501961" points="64,91 49,63 121,77" />
<polygon fill="#6f6457" fill-opacity="0.501961" points="50,26 51,37 19,25" />
<polygon fill="#000000" fill-opacity="0.501961" points="2,153 -16,93 3,74" />
<polygon fill="#5569a3" fill-opacity="0.501961" points="173,156 172,142 215,142" />
<polygon fill="#040b0d" fill-opacity="0.501961" points="180,112 171,72 184,58" />
<polygon fill="#9fafc5" fill-opacity="0.501961" points="93,125 100,123 95,129" />
<polygon fill="#5894ff" fill-opacity="0.501961" points="249,135 243,137 243,128" />
<polygon fill="#011e5d" fill-opacity="0.501961" points="48,138 61,142 63,123" />
<polygon fill="#f1ccae" fill-opacity="0.501961" points="30,30 17,43 37,36" />
<polygon fill="#1e365e" fill-opacity="0.501961" points="23,92 23,88 34,85" />
<polygon fill="#000000" fill-opacity="0.501961" points="146,52 155,79 137,75" />
<polygon fill="#aeb8c2" fill-opacity="0.501961" points="82,115 72,116 79,121" />
<polygon fill="#ffffff" fill-opacity="0.501961" points="38,92 20,72 37,82" />
<polygon fill="#8d7482" fill-opacity="0.501961" points="183,66 190,81 192,51" />
<polygon fill="#feece1" fill-opacity="0.501961" points="191,112 188,89 205,109" />
<polygon fill="#000000" fill-opacity="0.501961" points="61,25 76,46 37,55" />
<polygon fill="#000000" fill-opacity="0.501961" points="123,33 129,59 116,74" />
<polygon fill="#001e56" fill-opacity="0.501961" points="70,122 73,148 64,160" />
<polygon fill="#5173ba" fill-opacity="0.501961" points="20,111 42,117 58,111" />
<polygon fill="#001e62" fill-opacity="0.501961" points="15,160 3,158 5,132" />
<polygon fill="#002161" fill-opacity="0.501961" points="84,121 102,110 137,130" />
<polygon fill="#2d447a" fill-opacity="0.501961" points="35,160 58,143 13,132" />
<polygon fill="#000100" fill-opacity="0.501961" points="19,63 -16,63 0,3" />
<polygon fill="#c1b8b1" fill-opacity="0.501961" points="36,55 34,68 44,63" />
<polygon fill="#263b7d" fill-opacity="0.501961" points="219,125 207,103 209,128" />
<polygon fill="#000000" fill-opacity="0.501961" points="271,2 156,-8 271,37" />
<polygon fill="#284a9b" fill-opacity="0.501961" points="206,120 175,111 210,111" />
<polygon fill="#6f88c1" fill-opacity="0.501961" points="50,137 25,132 57,120" />
<polygon fill="#dbc2ab" fill-opacity="0.501961" points="43,31 43,45 40,35" />
<polygon fill="#827281" fill-opacity="0.501961" points="195,50 216,61 211,51" />
<polygon fill="#001e5d" fill-opacity="0.501961" points="63,123 75,122 59,119" />
<polygon fill="#625a50" fill-opacity="0.501961" points="31,28 11,32 15,39" />
<polygon fill="#ffffff" fill-opacity="0.501961" points="216,94 211,106 210,93" />
<polygon fill="#ffffff" fill-opacity="0.501961" points="64,97 55,106 60,112" />
<polygon fill="#4b534c" fill-opacity="0.501961" points="173,34 185,32 178,54" />
<polygon fill="#95877a" fill-opacity="0.501961" points="46,25 7,30 28,12" />
<polygon fill="#090000" fill-opacity="0.501961" points="252,160 215,144 261,143" />
<polygon fill="#384c70" fill-opacity="0.501961" points="19,104 17,92 15,112" />
<polygon fill="#abadba" fill-opacity="0.501961" points="48,85 62,91 62,102" />
<polygon fill="#121b25" fill-opacity="0.501961" points="159,-16 64,114 81,13" />
<polygon fill="#000000" fill-opacity="0.501961" points="35,-4 -16,1 -7,40" />
<polygon fill="#020200" fill-opacity="0.501961" points="42,61 71,53 44,43" />
<polygon fill="#ffffff" fill-opacity="0.501961" points="184,92 193,90 190,104" />
<polygon fill="#41322d" fill-opacity="0.501961" points="122,71 139,68 128,67" />
<polygon fill="#746050" fill-opacity="0.501961" points="35,38 34,25 30,29" />
<polygon fill="#1d1f19" fill-opacity="0.501961" points="189,28 142,34 169,-9" />
<polygon fill="#000000" fill-opacity="0.501961" points="70,49 40,40 81,36" />
<polygon fill="#ffffff" fill-opacity="0.501961" points="5,94 7,69 30,62" />
<polygon fill="#9a695d" fill-opacity="0.501961" points="28,80 24,91 21,82" />
<polygon fill="#aabbd6" fill-opacity="0.501961" points="47,131 44,117 32,114" />
<polygon fill="#131b24" fill-opacity="0.501961" points="68,101 136,106 77,-16" />
<polygon fill="#ffe6d1" fill-opacity="0.501961" points="18,45 41,51 41,44" />
<polygon fill="#062158" fill-opacity="0.501961" points="119,142 190,123 179,145" />
<polygon fill="#00174f" fill-opacity="0.501961" points="250,124 237,111 225,143" />
<polygon fill="#171000" fill-opacity="0.501961" points="165,143 54,143 114,160" />
<polygon fill="#ffffff" fill-opacity="0.501961" points="18,63 14,96 4,94" />
<polygon fill="#7f90a7" fill-opacity="0.501961" points="81,130 73,124 92,123" />
<polygon fill="#000000" fill-opacity="0.501961" points="254,152 271,113 253,112" />
<polygon fill="#ffaad5" fill-opacity="0.501961" points="189,63 195,56 204,56" />
<polygon fill="#151916" fill-opacity="0.501961" points="165,75 183,68 193,38" />
<polygon fill="#001c56" fill-opacity="0.501961" points="74,135 77,122 78,128" />
<polygon fill="#2f5198" fill-opacity="0.501961" points="52,111 79,111 67,122" />
<polygon fill="#181b13" fill-opacity="0.501961" points="242,24 242,43 190,13" />
<polygon fill="#7a92c4" fill-opacity="0.501961" points="42,109 31,135 42,137" />
<polygon fill="#000201" fill-opacity="0.501961" points="160,3 163,60 175,30" />
<polygon fill="#ffffff" fill-opacity="0.501961" points="45,63 55,74 44,69" />
<polygon fill="#6888c5" fill-opacity="0.501961" points="17,97 5,122 4,97" />
<polygon fill="#181b23" fill-opacity="0.501961" points="176,94 192,85 185,72" />
<polygon fill="#133062" fill-opacity="0.501961" points="90,114 85,106 84,128" />
<polygon fill="#1d2325" fill-opacity="0.501961" points="121,81 143,88 132,80" />
<polygon fill="#050b0c" fill-opacity="0.501961" points="227,110 212,82 270,109" />
<polygon fill="#0d377f" fill-opacity="0.501961" points="143,111 168,112 158,117" />
<polygon fill="#97a8c8" fill-opacity="0.501961" points="21,103 10,103 6,112" />
<polygon fill="#ba908a" fill-opacity="0.501961" points="215,90 190,88 197,96" />
<polygon fill="#947c5b" fill-opacity="0.501961" points="14,160 48,143 10,143" />
<polygon fill="#080902" fill-opacity="0.501961" points="221,57 225,47 205,45" />
<polygon fill="#001a54" fill-opacity="0.501961" points="182,112 118,142 104,112" />
<polygon fill="#001e5a" fill-opacity="0.501961" points="239,111 212,113 239,145" />
<polygon fill="#464e45" fill-opacity="0.501961" points="169,8 163,-14 174,1" />
<polygon fill="#808cb5" fill-opacity="0.501961" points="182,103 181,97 183,100" />
<polygon fill="#151d26" fill-opacity="0.501961" points="177,68 180,92 194,85" />
<polygon fill="#000000" fill-opacity="0.501961" points="2,101 -16,158 4,141" />
<polygon fill="#ead0c0" fill-opacity="0.501961" points="186,76 195,70 214,74" />
<polygon fill="#d4d5d4" fill-opacity="0.501961" points="41,84 38,96 44,110" />
<polygon fill="#eff0ee" fill-opacity="0.501961" points="52,111 46,101 29,110" />
<polygon fill="#7e6652" fill-opacity="0.501961" points="14,34 24,35 19,47" />
<polygon fill="#ebc5ac" fill-opacity="0.501961" points="210,107 195,100 205,111" />
<polygon fill="#6b5558" fill-opacity="0.501961" points="185,81 196,61 186,71" />
<polygon fill="#485048" fill-opacity="0.501961" points="156,-16 160,12 148,12" />
<polygon fill="#112c67" fill-opacity="0.501961" points="46,160 20,130 71,160" />
<polygon fill="#7f5e69" fill-opacity="0.501961" points="214,57 213,65 195,71" />
<polygon fill="#dfe1e9" fill-opacity="0.501961" points="59,106 62,112 64,108" />
<polygon fill="#ffffff" fill-opacity="0.501961" points="38,93 19,97 20,91" />
<polygon fill="#b0c0d7" fill-opacity="0.501961" points="37,115 30,122 56,115" />
<polygon fill="#ffe1cf" fill-opacity="0.501961" points="190,75 195,84 208,82" />
<polygon fill="#0c131a" fill-opacity="0.501961" points="205,85 240,64 231,96" />
<polygon fill="#0a2b69" fill-opacity="0.501961" points="76,113 102,110 127,125" />
<polygon fill="#fff3dd" fill-opacity="0.501961" points="28,38 28,33 20,42" />
<polygon fill="#001f59" fill-opacity="0.501961" points="16,111 20,112 16,100" />
<polygon fill="#28291e" fill-opacity="0.501961" points="57,53 51,52 51,67" />
<polygon fill="#000000" fill-opacity="0.501961" points="35,9 15,15 -16,-9" />
<polygon fill="#080906" fill-opacity="0.501961" points="115,33 116,71 155,40" />
<polygon fill="#000101" fill-opacity="0.501961" points="21,47 18,60 -4,50" />
<polygon fill="#262418" fill-opacity="0.501961" points="53,-9 44,37 58,15" />
<polygon fill="#4f567d" fill-opacity="0.501961" points="221,100 211,111 217,93" />
<polygon fill="#8b8fab" fill-opacity="0.501961" points="138,77 131,72 136,82" />
<polygon fill="#4871bf" fill-opacity="0.501961" points="29,97 17,97 30,104" />
<polygon fill="#909aad" fill-opacity="0.501961" points="27,72 32,66 30,62" />
<polygon fill="#ffffff" fill-opacity="0.501961" points="39,90 29,78 37,109" />
<polygon fill="#6c7ca3" fill-opacity="0.501961" points="67,116 51,132 55,114" />
<polygon fill="#feddc8" fill-opacity="0.501961" points="194,65 199,83 207,79" />
<polygon fill="#1b272f" fill-opacity="0.501961" points="49,93 53,103 57,96" />
<polygon fill="#a0a2ae" fill-opacity="0.501961" points="55,100 65,97 48,75" />
<polygon fill="#000000" fill-opacity="0.501961" points="53,73 57,36 79,39" />
<polygon fill="#fffffe" fill-opacity="0.501961" points="49,66 54,78 44,77" />
<polygon fill="#121b23" fill-opacity="0.501961" points="64,33 56,-4 165,32" />
<polygon fill="#ffffff" fill-opacity="0.501961" points="22,82 6,76 31,73" />
<polygon fill="#6781ba" fill-opacity="0.501961" points="7,135 14,112 19,147" />
<polygon fill="#313024" fill-opacity="0.501961" points="141,44 140,51 145,57" />
<polygon fill="#000000" fill-opacity="0.501961" points="188,86 158,80 176,97" />
<polygon fill="#ffffff" fill-opacity="0.501961" points="209,102 190,95 214,96" />
<polygon fill="#fce5cf" fill-opacity="0.501961" points="25,61 23,51 38,68" />
<polygon fill="#384039" fill-opacity="0.501961" points="192,45 224,42 205,19" />
<polygon fill="#9c9ca6" fill-opacity="0.501961" points="50,104 54,110 47,105" />
<polygon fill="#9386a0" fill-opacity="0.501961" points="184,61 193,50 202,49" />
<polygon fill="#6780b8" fill-opacity="0.501961" points="22,110 43,136 21,129" />
<polygon fill="#353b52" fill-opacity="0.501961" points="136,87 131,74 137,82" />
<polygon fill="#ffffff" fill-opacity="0.501961" points="53,111 61,110 62,99" />
<polygon fill="#000000" fill-opacity="0.501961" points="6,155 -16,139 13,145" />
<polygon fill="#091117" fill-opacity="0.501961" points="246,86 220,106 223,56" />
<polygon fill="#a5b4d0" fill-opacity="0.501961" points="55,122 61,114 58,114" />
<polygon fill="#614a53" fill-opacity="0.501961" points="201,63 213,63 215,77" />
<polygon fill="#a89989" fill-opacity="0.501961" points="18,17 14,35 13,23" />
<polygon fill="#001e5c" fill-opacity="0.501961" points="125,128 90,141 58,133" />
<polygon fill="#2949a1" fill-opacity="0.501961" points="208,132 213,143 181,142" />
<polygon fill="#6c554d" fill-opacity="0.501961" points="133,66 137,67 141,75" />
<polygon fill="#526591" fill-opacity="0.501961" points="30,143 73,160 49,142" />
<polygon fill="#000000" fill-opacity="0.501961" points="-16,19 9,32 17,-16" />
<polygon fill="#121c24" fill-opacity="0.501961" points="65,111 179,109 157,79" />
<polygon fill="#000000" fill-opacity="0.501961" points="148,59 146,82 131,53" />
<polygon fill="#001953" fill-opacity="0.501961" points="254,138 247,144 249,120" />
<polygon fill="#23231a" fill-opacity="0.501961" points="126,34 133,60 126,58" />
<polygon fill="#5d4c58" fill-opacity="0.501961" points="205,61 201,71 198,67" />
<polygon fill="#121b23" fill-opacity="0.501961" points="103,102 125,73 75,36" />
<polygon fill="#203b86" fill-opacity="0.501961" points="213,140 186,106 193,141" />
<polygon fill="#dec8b5" fill-opacity="0.501961" points="195,64 189,76 198,77" />
<polygon fill="#19221b" fill-opacity="0.501961" points="190,52 183,22 195,21" />
<polygon fill="#72685d" fill-opacity="0.501961" points="38,36 30,21 46,28" />
<polygon fill="#010100" fill-opacity="0.501961" points="256,124 271,-16 231,-16" />
<polygon fill="#02215e" fill-opacity="0.501961" points="91,112 116,123 87,123" />
<polygon fill="#000c45" fill-opacity="0.501961" points="19,113 18,125 15,113" />
<polygon fill="#23221a" fill-opacity="0.501961" points="175,5 138,20 158,23" />
<polygon fill="#aab4c2" fill-opacity="0.501961" points="76,115 75,121 71,117" />
<polygon fill="#0c0c0a" fill-opacity="0.501961" points="12,53 -3,92 -12,68" />
<polygon fill="#c3a696" fill-opacity="0.501961" points="125,76 133,70 135,76" />
<polygon fill="#001b52" fill-opacity="0.501961" points="241,138 219,140 238,112" />
<polygon fill="#accaff" fill-opacity="0.501961" points="23,109 23,112 29,109" />
<polygon fill="#191510" fill-opacity="0.501961" points="62,150 39,143 24,150" />
<polygon fill="#1e3c75" fill-opacity="0.501961" points="81,110 97,115 112,110" />
<polygon fill="#ffe9d6" fill-opacity="0.501961" points="38,52 23,41 23,49" />
<polygon fill="#8c7f71" fill-opacity="0.501961" points="44,19 33,14 45,27" />
<polygon fill="#18366c" fill-opacity="0.501961" points="61,119 59,126 64,136" />
<polygon fill="#000000" fill-opacity="0.501961" points="179,-10 264,13 183,14" />
<polygon fill="#ffffff" fill-opacity="0.501961" points="191,92 183,93 199,99" />
<polygon fill="#001860" fill-opacity="0.501961" points="67,111 78,114 61,114" />
<polygon fill="#2e4a7a" fill-opacity="0.501961" points="161,148 139,142 157,142" />
<polygon fill="#454d46" fill-opacity="0.501961" points="184,36 173,30 184,52" />
<polygon fill="#b9c2c9" fill-opacity="0.501961" points="76,130 71,126 75,126" />
<polygon fill="#f9f9f6" fill-opacity="0.501961" points="10,75 15,69 25,94" />
<polygon fill="#284377" fill-opacity="0.501961" points="228,111 217,112 219,109" />
<polygon fill="#080905" fill-opacity="0.501961" points="187,51 186,43 200,47" />
<polygon fill="#141509" fill-opacity="0.501961" points="136,74 139,70 146,82" />
<polygon fill="#000000" fill-opacity="0.501961" points="170,53 154,35 142,59" />
<polygon fill="#404c6e" fill-opacity="0.501961" points="39,74 37,82 41,84" />
<polygon fill="#3d5ea4" fill-opacity="0.501961" points="4,137 9,122 5,119" />
<polygon fill="#121108" fill-opacity="0.501961" points="136,143 148,160 183,144" />
<polygon fill="#8f929f" fill-opacity="0.501961" points="41,58 36,55 35,63" />
<polygon fill="#ffffff" fill-opacity="0.501961" points="15,95 5,73 4,96" />
<polygon fill="#cfdae5" fill-opacity="0.501961" points="22,101 19,102 22,106" />
<polygon fill="#ffffff" fill-opacity="0.501961" points="48,79 43,91 40,81" />
<polygon fill="#6782bb" fill-opacity="0.501961" points="6,127 14,106 15,157" />
<polygon fill="#607db5" fill-opacity="0.501961" points="34,122 46,120 53,126" />
<polygon fill="#ba8a82" fill-opacity="0.501961" points="201,81 192,91 203,92" />
<polygon fill="#072560" fill-opacity="0.501961" points="111,123 79,123 114,113" />
<polygon fill="#c6b8b4" fill-opacity="0.501961" points="204,103 194,111 196,106" />
<polygon fill="#052461" fill-opacity="0.501961" points="97,140 83,142 84,126" />
<polygon fill="#000000" fill-opacity="0.501961" points="66,57 62,34 47,20" />
<polygon fill="#8899b5" fill-opacity="0.501961" points="68,126 58,128 66,123" />
<polygon fill="#001d5d" fill-opacity="0.501961" points="219,133 203,121 214,137" />
<polygon fill="#f199ae" fill-opacity="0.501961" points="205,58 211,60 210,62" />
<polygon fill="#0d171c" fill-opacity="0.501961" points="53,93 56,101 50,93" />
<polygon fill="#6f5a65" fill-opacity="0.501961" points="184,79 184,64 195,63" />
<polygon fill="#020507" fill-opacity="0.501961" points="16,63 -10,58 21,51" />
<polygon fill="#4d689f" fill-opacity="0.501961" points="75,119 61,111 44,113" />
<polygon fill="#11161a" fill-opacity="0.501961" points="236,101 223,74 207,85" />
<polygon fill="#9c8e81" fill-opacity="0.501961" points="38,33 39,27 29,18" />
<polygon fill="#586399" fill-opacity="0.501961" points="218,112 212,111 218,99" />
<polygon fill="#210e20" fill-opacity="0.501961" points="28,86 28,88 23,87" />
<polygon fill="#ffe3cf" fill-opacity="0.501961" points="41,43 37,53 21,45" />
<polygon fill="#b7b7b8" fill-opacity="0.501961" points="16,87 18,98 20,95" />
<polygon fill="#c78a7d" fill-opacity="0.501961" points="206,94 199,96 196,86" />
<polygon fill="#dfad96" fill-opacity="0.501961" points="208,111 209,102 205,101" />
<polygon fill="#254484" fill-opacity="0.501961" points="34,142 19,142 18,129" />
<polygon fill="#949eb8" fill-opacity="0.501961" points="43,109 41,105 40,114" />
<polygon fill="#000000" fill-opacity="0.501961" points="37,54 50,61 49,46" />
<polygon fill="#feddc9" fill-opacity="0.501961" points="191,77 211,79 205,84" />
<polygon fill="#325281" fill-opacity="0.501961" points="66,142 79,142 67,146" />
<polygon fill="#4d88ff" fill-opacity="0.501961" points="243,135 241,137 249,138" />
<polygon fill="#5771ad" fill-opacity="0.501961" points="29,134 45,138 58,128" />
<polygon fill="#ffffff" fill-opacity="0.501961" points="214,91 213,96 216,92" />
<polygon fill="#5a4842" fill-opacity="0.501961" points="122,68 135,71 131,63" />
<polygon fill="#353520" fill-opacity="0.501961" points="78,18 92,9 92,16" />
<polygon fill="#1b3a89" fill-opacity="0.501961" points="216,126 204,120 212,109" />
<polygon fill="#080d10" fill-opacity="0.501961" points="243,105 219,110 241,69" />
<polygon fill="#00194e" fill-opacity="0.501961" points="250,111 252,135 234,115" />
<polygon fill="#b6b9c2" fill-opacity="0.501961" points="65,98 59,99 58,84" />
<polygon fill="#0e171c" fill-opacity="0.501961" points="67,96 54,73 88,83" />
<polygon fill="#060702" fill-opacity="0.501961" points="55,66 45,57 43,60" />
<polygon fill="#143478" fill-opacity="0.501961" points="248,111 230,112 242,115" />
<polygon fill="#4c5173" fill-opacity="0.501961" points="215,103 202,115 212,110" />
<polygon fill="#22407d" fill-opacity="0.501961" points="14,98 15,100 20,99" />
<polygon fill="#637db5" fill-opacity="0.501961" points="18,129 32,112 32,126" />
<polygon fill="#242117" fill-opacity="0.501961" points="176,54 183,69 186,48" />
<polygon fill="#000000" fill-opacity="0.501961" points="132,64 130,31 142,57" />
<polygon fill="#fbf7ed" fill-opacity="0.501961" points="199,107 205,109 205,97" />
<polygon fill="#282d29" fill-opacity="0.501961" points="228,25 227,44 197,20" />
<polygon fill="#4d4c47" fill-opacity="0.501961" points="17,33 20,38 12,36" />
<polygon fill="#090907" fill-opacity="0.501961" points="226,19 183,20 212,10" />
<polygon fill="#111d27" fill-opacity="0.501961" points="169,75 176,59 147,60" />
<polygon fill="#9a7964" fill-opacity="0.501961" points="35,59 40,70 35,66" />
<polygon fill="#adafbc" fill-opacity="0.501961" points="65,97 53,92 54,97" />
<polygon fill="#ffffff" fill-opacity="0.501961" points="30,111 32,82 41,99" />
<polygon fill="#082667" fill-opacity="0.501961" points="193,114 192,127 190,121" />
<polygon fill="#d4b899" fill-opacity="0.501961" points="11,143 -10,160 44,147" />
<polygon fill="#ff994d" fill-opacity="0.501961" points="28,84 28,82 24,86" />
<polygon fill="#d4b7aa" fill-opacity="0.501961" points="211,76 203,77 203,70" />
<polygon fill="#2f2427" fill-opacity="0.501961" points="212,67 216,58 221,81" />
<polygon fill="#bbc0c7" fill-opacity="0.501961" points="43,64 41,73 38,57" />
<polygon fill="#535e91" fill-opacity="0.501961" points="181,103 184,96 186,114" />
<polygon fill="#5572ad" fill-opacity="0.501961" points="26,109 26,99 29,109" />
<polygon fill="#7287a8" fill-opacity="0.501961" points="92,128 106,127 93,124" />
<polygon fill="#9a8a7c" fill-opacity="0.501961" points="31,16 19,21 19,35" />
<polygon fill="#8ca9e0" fill-opacity="0.501961" points="14,111 10,113 12,109" />
<polygon fill="#b3c1d6" fill-opacity="0.501961" points="47,124 40,126 43,130" />
<polygon fill="#001953" fill-opacity="0.501961" points="177,142 103,129 178,113" />
<polygon fill="#04225e" fill-opacity="0.501961" points="110,112 99,114 99,133" />
<polygon fill="#2b2a32" fill-opacity="0.501961" points="182,94 185,74 189,79" />
<polygon fill="#8a7587" fill-opacity="0.501961" points="188,54 214,56 208,50" />
<polygon fill="#17397c" fill-opacity="0.501961" points="169,139 157,143 173,143" />
<polygon fill="#fde2cf" fill-opacity="0.501961" points="42,45 27,49 35,55" />
<polygon fill="#011c55" fill-opacity="0.501961" points="94,142 145,114 174,142" />
</g>
</svg>