<svg xmlns="http://www.w3.org/2000/svg" version="1.1" width="1024" height="580">
<rect x="0" y="0" width="1024" height="580" fill="#1a2432" />
<g transform="scale(4.000000) translate(0.5 0.5)">
<polygon fill="#ffffff" fill-opacity="0.501961" points="4,95 51,97 16,56" />
<polygon fill="#001a71" fill-opacity="0.501961" points="32,160 260,131 -10,94" />
<polygon fill="#b8a49d" fill-opacity="0.501961" points="44,58 42,99 -2,58" />
<polygon fill="#000000" fill-opacity="0.501961" points="-16,72 9,-16 43,41" />
<polygon fill="#545b48" fill-opacity="0.501961" points="120,36 40,1 36,52" />
<polygon fill="#080b02" fill-opacity="0.501961" points="42,111 46,46 156,45" />
<polygon fill="#fbdbd0" fill-opacity="0.501961" points="131,62 130,79 121,76" />
<polygon fill="#171809" fill-opacity="0.501961" points="19,109 195,110 271,43" />
<polygon fill="#001a6d" fill-opacity="0.501961" points="253,111 252,160 96,111" />
<polygon fill="#fffaea" fill-opacity="0.501961" points="40,95 30,75 5,95" />
<polygon fill="#090c06" fill-opacity="0.501961" points="85,-16 147,-13 147,98" />
<polygon fill="#000000" fill-opacity="0.501961" points="30,-16 38,56 -16,59" />
<polygon fill="#000000" fill-opacity="0.501961" points="245,-16 246,115 271,62" />
<polygon fill="#796c60" fill-opacity="0.501961" points="9,59 2,86 58,56" />
<polygon fill="#737f72" fill-opacity="0.501961" points="149,57 168,52 148,36" />
<polygon fill="#a2b5c8" fill-opacity="0.501961" points="63,125 55,116 69,115" />
<polygon fill="#59a1ff" fill-opacity="0.501961" points="245,127 249,141 241,135" />
<polygon fill="#68779f" fill-opacity="0.501961" points="9,101 14,112 44,80" />
<polygon fill="#000000" fill-opacity="0.501961" points="-16,76 3,148 4,44" />
<polygon fill="#c8ac81" fill-opacity="0.501961" points="218,37 216,54 222,57" />
<polygon fill="#2b312b" fill-opacity="0.501961" points="9,97 69,113 100,96" />
<polygon fill="#1e221a" fill-opacity="0.501961" points="8,-11 271,-1 199,52" />
<polygon fill="#4a524b" fill-opacity="0.501961" points="38,81 53,43 39,-11" />
<polygon fill="#616447" fill-opacity="0.501961" points="233,111 231,80 247,77" />
<polygon fill="#000000" fill-opacity="0.501961" points="185,72 119,98 205,93" />
<polygon fill="#464a3d" fill-opacity="0.501961" points="160,92 201,105 118,104" />
<polygon fill="#000000" fill-opacity="0.501961" points="25,58 41,-16 -16,7" />
<polygon fill="#090801" fill-opacity="0.501961" points="52,53 51,-9 62,15" />
<polygon fill="#7895f9" fill-opacity="0.501961" points="10,92 3,94 4,66" />
<polygon fill="#fffeda" fill-opacity="0.501961" points="14,77 20,88 30,82" />
<polygon fill="#626753" fill-opacity="0.501961" points="227,15 244,-16 243,14" />
<polygon fill="#000000" fill-opacity="0.501961" points="244,-16 271,48 255,132" />
<polygon fill="#001750" fill-opacity="0.501961" points="28,124 197,160 271,110" />
<polygon fill="#606b68" fill-opacity="0.501961" points="108,22 90,44 109,43" />
<polygon fill="#000000" fill-opacity="0.501961" points="145,55 98,73 120,33" />
<polygon fill="#001c5e" fill-opacity="0.501961" points="7,106 123,142 4,143" />
<polygon fill="#998989" fill-opacity="0.501961" points="135,75 125,60 123,85" />
<polygon fill="#61664b" fill-opacity="0.501961" points="244,38 238,57 230,44" />
<polygon fill="#444a41" fill-opacity="0.501961" points="92,105 45,105 42,86" />
<polygon fill="#505649" fill-opacity="0.501961" points="110,96 98,105 140,103" />
<polygon fill="#0b131b" fill-opacity="0.501961" points="100,100 222,24 179,100" />
<polygon fill="#54455b" fill-opacity="0.501961" points="25,92 4,80 6,73" />
<polygon fill="#4f5e5e" fill-opacity="0.501961" points="83,5 82,39 60,49" />
<polygon fill="#4f4a30" fill-opacity="0.501961" points="148,6 184,9 178,-12" />
<polygon fill="#0d1721" fill-opacity="0.501961" points="239,20 137,6 100,48" />
<polygon fill="#ffdebf" fill-opacity="0.501961" points="27,71 20,96 36,81" />
<polygon fill="#121f29" fill-opacity="0.501961" points="90,15 108,83 68,103" />
<polygon fill="#2449ad" fill-opacity="0.501961" points="36,81 43,66 42,89" />
<polygon fill="#020000" fill-opacity="0.501961" points="110,144 19,143 48,160" />
<polygon fill="#7f898f" fill-opacity="0.501961" points="212,3 222,-4 222,2" />
<polygon fill="#4f5c56" fill-opacity="0.501961" points="178,44 150,49 155,37" />
<polygon fill="#282617" fill-opacity="0.501961" points="231,3 231,90 219,46" />
<polygon fill="#060000" fill-opacity="0.501961" points="241,143 123,144 184,160" />
<polygon fill="#494f4a" fill-opacity="0.501961" points="44,22 51,54 36,78" />
<polygon fill="#000102" fill-opacity="0.501961" points="46,87 99,49 47,66" />
<polygon fill="#000000" fill-opacity="0.501961" points="145,61 93,63 148,37" />
<polygon fill="#8e806d" fill-opacity="0.501961" points="5,73 34,63 8,58" />
<polygon fill="#8495ad" fill-opacity="0.501961" points="54,122 56,115 74,118" />
<polygon fill="#081016" fill-opacity="0.501961" points="121,75 48,100 129,96" />
<polygon fill="#0d0a00" fill-opacity="0.501961" points="271,109 221,110 255,95" />
<polygon fill="#000000" fill-opacity="0.501961" points="3,30 4,133 -16,101" />
<polygon fill="#000503" fill-opacity="0.501961" points="82,25 99,19 87,4" />
<polygon fill="#050f1b" fill-opacity="0.501961" points="44,96 16,97 45,111" />
<polygon fill="#4e4d30" fill-opacity="0.501961" points="233,98 226,106 205,100" />
<polygon fill="#232317" fill-opacity="0.501961" points="249,2 227,24 250,55" />
<polygon fill="#141f2a" fill-opacity="0.501961" points="56,101 136,80 54,69" />
<polygon fill="#ba9249" fill-opacity="0.501961" points="221,41 211,42 217,37" />
<polygon fill="#000000" fill-opacity="0.501961" points="254,73 253,160 271,97" />
<polygon fill="#010200" fill-opacity="0.501961" points="203,95 127,99 188,79" />
<polygon fill="#ffe8c7" fill-opacity="0.501961" points="20,71 22,68 27,75" />
<polygon fill="#545a4e" fill-opacity="0.501961" points="38,-3 49,36 49,-14" />
<polygon fill="#15212a" fill-opacity="0.501961" points="218,7 118,90 210,68" />
<polygon fill="#000000" fill-opacity="0.501961" points="252,109 251,-16 271,52" />
<polygon fill="#6c5943" fill-opacity="0.501961" points="19,64 6,71 12,81" />
<polygon fill="#ffdfca" fill-opacity="0.501961" points="17,88 16,76 36,91" />
<polygon fill="#334241" fill-opacity="0.501961" points="58,-2 58,50 85,13" />
<polygon fill="#222219" fill-opacity="0.501961" points="249,105 250,42 236,55" />
<polygon fill="#000000" fill-opacity="0.501961" points="34,56 5,-16 -16,57" />
<polygon fill="#163a7d" fill-opacity="0.501961" points="16,109 28,96 32,114" />
<polygon fill="#0b0a0b" fill-opacity="0.501961" points="187,7 182,22 133,15" />
<polygon fill="#e5e2ee" fill-opacity="0.501961" points="4,96 6,88 25,95" />
<polygon fill="#001e58" fill-opacity="0.501961" points="250,142 197,110 165,143" />
<polygon fill="#bb7c4b" fill-opacity="0.501961" points="25,88 28,95 18,89" />
<polygon fill="#001a54" fill-opacity="0.501961" points="146,143 209,112 61,113" />
<polygon fill="#455d80" fill-opacity="0.501961" points="47,115 43,121 33,118" />
<polygon fill="#6f85a1" fill-opacity="0.501961" points="81,116 79,117 81,122" />
<polygon fill="#3b2b17" fill-opacity="0.501961" points="26,71 21,74 23,77" />
<polygon fill="#7489a3" fill-opacity="0.501961" points="23,99 11,106 22,106" />
<polygon fill="#252519" fill-opacity="0.501961" points="43,24 32,-4 33,57" />
<polygon fill="#654a3e" fill-opacity="0.501961" points="122,62 122,68 137,69" />
<polygon fill="#4279f7" fill-opacity="0.501961" points="239,134 251,130 244,139" />
<polygon fill="#191e1d" fill-opacity="0.501961" points="50,68 52,38 71,51" />
<polygon fill="#101a23" fill-opacity="0.501961" points="192,82 225,62 229,103" />
<polygon fill="#ada6b1" fill-opacity="0.501961" points="123,69 134,77 122,79" />
<polygon fill="#aebec8" fill-opacity="0.501961" points="12,105 10,102 14,101" />
<polygon fill="#000000" fill-opacity="0.501961" points="134,57 133,79 145,55" />
<polygon fill="#b6c9f7" fill-opacity="0.501961" points="28,92 42,96 42,87" />
<polygon fill="#100e00" fill-opacity="0.501961" points="222,108 194,103 200,110" />
<polygon fill="#4e574c" fill-opacity="0.501961" points="132,100 154,106 173,100" />
<polygon fill="#4b5756" fill-opacity="0.501961" points="58,46 61,30 110,26" />
<polygon fill="#000000" fill-opacity="0.501961" points="4,148 -16,119 3,54" />
<polygon fill="#eac9ad" fill-opacity="0.501961" points="23,68 27,73 18,73" />
<polygon fill="#9d948e" fill-opacity="0.501961" points="6,65 7,58 31,59" />
<polygon fill="#002167" fill-opacity="0.501961" points="4,103 17,141 5,160" />
<polygon fill="#52584c" fill-opacity="0.501961" points="244,98 243,73 233,98" />
<polygon fill="#32353f" fill-opacity="0.501961" points="45,71 36,76 42,56" />
<polygon fill="#969aa1" fill-opacity="0.501961" points="217,58 218,51 215,51" />
<polygon fill="#131e26" fill-opacity="0.501961" points="110,42 108,4 198,26" />
<polygon fill="#001854" fill-opacity="0.501961" points="251,134 252,113 227,113" />
<polygon fill="#14212d" fill-opacity="0.501961" points="125,78 84,74 54,46" />
<polygon fill="#00184f" fill-opacity="0.501961" points="68,141 57,142 62,117" />
<polygon fill="#2d3836" fill-opacity="0.501961" points="162,34 183,54 158,56" />
<polygon fill="#434f69" fill-opacity="0.501961" points="4,72 4,57 12,84" />
<polygon fill="#070100" fill-opacity="0.501961" points="99,160 143,143 39,143" />
<polygon fill="#627bd5" fill-opacity="0.501961" points="6,90 17,90 4,76" />
<polygon fill="#00236b" fill-opacity="0.501961" points="31,102 7,99 26,96" />
<polygon fill="#535c50" fill-opacity="0.501961" points="166,101 195,100 179,105" />
<polygon fill="#4b503f" fill-opacity="0.501961" points="43,73 52,105 43,98" />
<polygon fill="#131e26" fill-opacity="0.501961" points="202,73 218,46 153,21" />
<polygon fill="#515849" fill-opacity="0.501961" points="57,105 82,103 67,99" />
<polygon fill="#907d67" fill-opacity="0.501961" points="27,73 37,72 25,59" />
<polygon fill="#ffe7d4" fill-opacity="0.501961" points="30,80 12,80 25,89" />
<polygon fill="#1e1d10" fill-opacity="0.501961" points="94,99 112,110 74,111" />
<polygon fill="#000000" fill-opacity="0.501961" points="151,35 112,73 107,48" />
<polygon fill="#050000" fill-opacity="0.501961" points="196,143 199,160 255,144" />
<polygon fill="#000000" fill-opacity="0.501961" points="64,66 45,67 45,85" />
<polygon fill="#011d57" fill-opacity="0.501961" points="239,142 155,143 248,110" />
<polygon fill="#0e110c" fill-opacity="0.501961" points="243,74 240,51 231,81" />
<polygon fill="#050906" fill-opacity="0.501961" points="143,94 96,97 93,82" />
<polygon fill="#50574e" fill-opacity="0.501961" points="245,51 230,53 239,39" />
<polygon fill="#131208" fill-opacity="0.501961" points="52,107 89,110 71,103" />
<polygon fill="#15202b" fill-opacity="0.501961" points="203,90 178,62 227,55" />
<polygon fill="#2d2718" fill-opacity="0.501961" points="97,8 136,-16 35,-3" />
<polygon fill="#535a48" fill-opacity="0.501961" points="224,99 220,105 208,103" />
<polygon fill="#6b81d4" fill-opacity="0.501961" points="43,90 42,78 32,88" />
<polygon fill="#000000" fill-opacity="0.501961" points="28,56 34,-16 -16,8" />
<polygon fill="#151811" fill-opacity="0.501961" points="219,51 243,13 239,39" />
<polygon fill="#56605e" fill-opacity="0.501961" points="108,42 108,24 96,45" />
<polygon fill="#171303" fill-opacity="0.501961" points="31,99 65,110 30,110" />
<polygon fill="#473522" fill-opacity="0.501961" points="21,80 22,74 24,80" />
<polygon fill="#343f3b" fill-opacity="0.501961" points="201,15 209,16 217,-9" />
<polygon fill="#544c4d" fill-opacity="0.501961" points="124,84 126,79 134,85" />
<polygon fill="#001850" fill-opacity="0.501961" points="7,144 117,135 5,114" />
<polygon fill="#4d554c" fill-opacity="0.501961" points="50,66 39,36 47,1" />
<polygon fill="#0c100c" fill-opacity="0.501961" points="219,13 233,-16 229,15" />
<polygon fill="#162739" fill-opacity="0.501961" points="178,97 198,96 187,91" />
<polygon fill="#5a6363" fill-opacity="0.501961" points="105,25 97,45 97,27" />
<polygon fill="#16222e" fill-opacity="0.501961" points="94,96 55,67 57,91" />
<polygon fill="#1e1e14" fill-opacity="0.501961" points="232,86 228,108 208,62" />
<polygon fill="#4f564b" fill-opacity="0.501961" points="74,102 89,104 93,99" />
<polygon fill="#040000" fill-opacity="0.501961" points="26,143 12,155 -3,143" />
<polygon fill="#ffc755" fill-opacity="0.501961" points="217,47 217,41 218,44" />
<polygon fill="#4f5851" fill-opacity="0.501961" points="237,14 230,-3 245,7" />
<polygon fill="#ffe5d0" fill-opacity="0.501961" points="35,83 28,72 23,79" />
<polygon fill="#0f1a22" fill-opacity="0.501961" points="164,55 173,90 132,71" />
<polygon fill="#535d5d" fill-opacity="0.501961" points="78,35 68,44 91,40" />
<polygon fill="#000f4b" fill-opacity="0.501961" points="250,138 251,142 237,139" />
<polygon fill="#5b6464" fill-opacity="0.501961" points="160,38 149,38 148,58" />
<polygon fill="#2c3939" fill-opacity="0.501961" points="86,23 62,26 78,6" />
<polygon fill="#0f0e06" fill-opacity="0.501961" points="235,105 220,110 209,105" />
<polygon fill="#b7bfde" fill-opacity="0.501961" points="132,76 125,74 124,77" />
<polygon fill="#363e5c" fill-opacity="0.501961" points="5,79 19,88 4,70" />
<polygon fill="#171914" fill-opacity="0.501961" points="60,56 56,28 51,63" />
<polygon fill="#44433e" fill-opacity="0.501961" points="16,66 14,73 20,66" />
<polygon fill="#5b5141" fill-opacity="0.501961" points="30,73 34,79 33,65" />
<polygon fill="#06276a" fill-opacity="0.501961" points="194,120 163,111 225,111" />
<polygon fill="#001850" fill-opacity="0.501961" points="239,112 195,143 110,112" />
<polygon fill="#04225a" fill-opacity="0.501961" points="26,107 43,117 6,108" />
<polygon fill="#070e0d" fill-opacity="0.501961" points="83,42 61,57 86,52" />
<polygon fill="#4e564b" fill-opacity="0.501961" points="121,99 106,103 134,104" />
<polygon fill="#000000" fill-opacity="0.501961" points="254,75 271,109 253,144" />
<polygon fill="#151f29" fill-opacity="0.501961" points="80,70 124,71 107,88" />
<polygon fill="#070500" fill-opacity="0.501961" points="57,105 55,70 45,73" />
<polygon fill="#062d75" fill-opacity="0.501961" points="67,112 52,116 36,111" />
<polygon fill="#131e28" fill-opacity="0.501961" points="118,22 83,28 106,6" />
<polygon fill="#f7e5d3" fill-opacity="0.501961" points="20,94 18,89 8,95" />
<polygon fill="#000000" fill-opacity="0.501961" points="65,60 78,66 71,75" />
<polygon fill="#4e564e" fill-opacity="0.501961" points="231,105 242,76 233,83" />
<polygon fill="#8a7868" fill-opacity="0.501961" points="12,80 16,66 5,64" />
<polygon fill="#49534d" fill-opacity="0.501961" points="50,88 43,93 52,104" />
<polygon fill="#2b2d26" fill-opacity="0.501961" points="219,76 244,63 209,70" />
<polygon fill="#223f74" fill-opacity="0.501961" points="228,110 248,111 240,114" />
<polygon fill="#202c30" fill-opacity="0.501961" points="97,20 96,71 83,25" />
<polygon fill="#4a5149" fill-opacity="0.501961" points="232,57 245,39 233,42" />
<polygon fill="#0e3174" fill-opacity="0.501961" points="252,145 252,114 247,130" />
<polygon fill="#000000" fill-opacity="0.501961" points="31,-16 -16,56 30,57" />
<polygon fill="#000000" fill-opacity="0.501961" points="106,57 146,65 146,47" />
<polygon fill="#001a53" fill-opacity="0.501961" points="2,142 78,118 122,141" />
<polygon fill="#092766" fill-opacity="0.501961" points="165,143 105,143 136,134" />
<polygon fill="#001952" fill-opacity="0.501961" points="14,142 115,114 217,141" />
<polygon fill="#151e27" fill-opacity="0.501961" points="171,74 206,15 218,49" />
<polygon fill="#000000" fill-opacity="0.501961" points="271,40 250,109 251,-12" />
<polygon fill="#adb2c6" fill-opacity="0.501961" points="15,89 17,93 8,91" />
<polygon fill="#213e75" fill-opacity="0.501961" points="6,112 14,106 35,112" />
<polygon fill="#131411" fill-opacity="0.501961" points="37,36 40,54 33,53" />
<polygon fill="#091113" fill-opacity="0.501961" points="60,12 54,-3 57,28" />
<polygon fill="#a8836b" fill-opacity="0.501961" points="32,90 22,96 23,90" />
<polygon fill="#444f4d" fill-opacity="0.501961" points="42,85 47,104 49,92" />
<polygon fill="#454c43" fill-opacity="0.501961" points="38,-8 51,0 41,43" />
<polygon fill="#e8eaf1" fill-opacity="0.501961" points="31,91 41,93 38,96" />
<polygon fill="#163677" fill-opacity="0.501961" points="18,143 39,143 26,139" />
<polygon fill="#5e708d" fill-opacity="0.501961" points="11,107 19,100 23,107" />
<polygon fill="#35343b" fill-opacity="0.501961" points="126,81 128,78 133,81" />
<polygon fill="#001b53" fill-opacity="0.501961" points="26,124 16,103 16,117" />
<polygon fill="#001951" fill-opacity="0.501961" points="5,142 41,119 46,141" />
<polygon fill="#082b6f" fill-opacity="0.501961" points="74,117 85,111 56,111" />
<polygon fill="#505848" fill-opacity="0.501961" points="220,102 205,100 205,105" />
<polygon fill="#2e2f2d" fill-opacity="0.501961" points="12,75 9,70 11,71" />
<polygon fill="#aca9b9" fill-opacity="0.501961" points="123,74 132,75 122,78" />
<polygon fill="#5c94ff" fill-opacity="0.501961" points="246,130 244,132 248,137" />
<polygon fill="#001349" fill-opacity="0.501961" points="242,123 250,119 252,136" />
<polygon fill="#353224" fill-opacity="0.501961" points="229,17 226,33 233,48" />
<polygon fill="#ab835f" fill-opacity="0.501961" points="12,74 16,83 8,76" />
<polygon fill="#03070c" fill-opacity="0.501961" points="232,21 241,14 240,25" />
<polygon fill="#344db8" fill-opacity="0.501961" points="42,77 35,84 37,77" />
<polygon fill="#0f1922" fill-opacity="0.501961" points="211,4 225,44 226,4" />
<polygon fill="#202423" fill-opacity="0.501961" points="111,93 99,100 129,99" />
<polygon fill="#ffdcc1" fill-opacity="0.501961" points="19,86 15,79 17,73" />
<polygon fill="#1d211e" fill-opacity="0.501961" points="49,86 79,100 53,100" />
<polygon fill="#14212a" fill-opacity="0.501961" points="109,28 110,46 122,46" />
<polygon fill="#4b5248" fill-opacity="0.501961" points="63,104 78,99 89,103" />
<polygon fill="#15202a" fill-opacity="0.501961" points="147,9 153,36 113,32" />
<polygon fill="#001853" fill-opacity="0.501961" points="24,102 30,97 25,111" />
<polygon fill="#123070" fill-opacity="0.501961" points="196,138 180,143 212,143" />
<polygon fill="#ffe4d1" fill-opacity="0.501961" points="31,75 31,88 25,74" />
<polygon fill="#14120f" fill-opacity="0.501961" points="153,109 164,105 140,104" />
<polygon fill="#655b70" fill-opacity="0.501961" points="126,73 128,74 122,78" />
<polygon fill="#101516" fill-opacity="0.501961" points="105,111 91,107 93,81" />
<polygon fill="#0e3177" fill-opacity="0.501961" points="123,111 159,111 141,116" />
<polygon fill="#588fff" fill-opacity="0.501961" points="243,134 245,132 249,136" />
<polygon fill="#001a52" fill-opacity="0.501961" points="93,112 203,142 225,112" />
<polygon fill="#715c57" fill-opacity="0.501961" points="135,71 130,62 123,65" />
<polygon fill="#7c8ba5" fill-opacity="0.501961" points="68,120 68,115 60,122" />
<polygon fill="#bc8e49" fill-opacity="0.501961" points="215,43 220,39 218,45" />
<polygon fill="#727b87" fill-opacity="0.501961" points="217,48 221,53 219,57" />
<polygon fill="#535d62" fill-opacity="0.501961" points="221,4 214,3 221,-10" />
<polygon fill="#b3b9d5" fill-opacity="0.501961" points="5,86 5,92 15,90" />
<polygon fill="#000000" fill-opacity="0.501961" points="199,89 176,75 173,94" />
<polygon fill="#01080a" fill-opacity="0.501961" points="140,73 144,52 132,72" />
<polygon fill="#0a100f" fill-opacity="0.501961" points="102,13 82,3 85,21" />
<polygon fill="#374342" fill-opacity="0.501961" points="85,25 97,28 82,42" />
<polygon fill="#5a6362" fill-opacity="0.501961" points="72,26 81,28 72,42" />
<polygon fill="#ffffd5" fill-opacity="0.501961" points="127,69 127,71 129,72" />
<polygon fill="#00154f" fill-opacity="0.501961" points="53,128 43,112 49,114" />
<polygon fill="#1e211a" fill-opacity="0.501961" points="250,110 227,111 246,96" />
<polygon fill="#3f4132" fill-opacity="0.501961" points="164,8 148,7 179,-9" />
<polygon fill="#1e221e" fill-opacity="0.501961" points="231,39 235,71 219,49" />
<polygon fill="#2a2920" fill-opacity="0.501961" points="170,-16 187,3 221,0" />
<polygon fill="#10120e" fill-opacity="0.501961" points="37,30 37,0 32,14" />
<polygon fill="#111d23" fill-opacity="0.501961" points="155,58 141,60 138,66" />
<polygon fill="#2e4d88" fill-opacity="0.501961" points="168,110 161,112 175,112" />
<polygon fill="#847768" fill-opacity="0.501961" points="15,61 25,68 35,59" />
<polygon fill="#a28e77" fill-opacity="0.501961" points="33,72 36,61 37,68" />
<polygon fill="#000000" fill-opacity="0.501961" points="133,63 144,53 99,47" />
<polygon fill="#0c0a0a" fill-opacity="0.501961" points="179,12 161,21 147,10" />
<polygon fill="#001953" fill-opacity="0.501961" points="236,142 252,112 135,115" />
<polygon fill="#22251f" fill-opacity="0.501961" points="57,111 27,111 58,101" />
<polygon fill="#588eff" fill-opacity="0.501961" points="241,133 244,137 247,136" />
<polygon fill="#121f2a" fill-opacity="0.501961" points="174,82 131,88 135,72" />
<polygon fill="#323f3e" fill-opacity="0.501961" points="160,42 171,60 171,39" />
<polygon fill="#111d29" fill-opacity="0.501961" points="101,44 107,58 85,66" />
<polygon fill="#212219" fill-opacity="0.501961" points="131,16 149,-6 107,14" />
<polygon fill="#101920" fill-opacity="0.501961" points="226,72 200,99 227,100" />
<polygon fill="#4e4236" fill-opacity="0.501961" points="38,73 35,66 40,63" />
<polygon fill="#0a0e0f" fill-opacity="0.501961" points="233,57 232,70 242,52" />
<polygon fill="#fde2d0" fill-opacity="0.501961" points="33,85 35,79 19,80" />
<polygon fill="#333024" fill-opacity="0.501961" points="229,80 227,56 234,62" />
<polygon fill="#95a2b7" fill-opacity="0.501961" points="60,121 57,116 55,122" />
<polygon fill="#2e3d3a" fill-opacity="0.501961" points="201,16 199,-9 204,4" />
<polygon fill="#000000" fill-opacity="0.501961" points="4,160 3,53 -16,100" />
<polygon fill="#564e3e" fill-opacity="0.501961" points="24,79 16,75 21,74" />
<polygon fill="#00194c" fill-opacity="0.501961" points="68,115 68,117 74,118" />
<polygon fill="#3a3d30" fill-opacity="0.501961" points="153,91 152,96 157,103" />
<polygon fill="#19397b" fill-opacity="0.501961" points="102,140 109,143 93,143" />
<polygon fill="#111d26" fill-opacity="0.501961" points="66,51 54,68 63,41" />
<polygon fill="#121d26" fill-opacity="0.501961" points="172,57 203,-3 175,26" />
<polygon fill="#143373" fill-opacity="0.501961" points="189,143 178,139 166,143" />
<polygon fill="#161711" fill-opacity="0.501961" points="192,109 196,99 220,110" />
<polygon fill="#000000" fill-opacity="0.501961" points="64,61 58,70 74,71" />
<polygon fill="#153474" fill-opacity="0.501961" points="93,143 80,139 67,143" />
<polygon fill="#001952" fill-opacity="0.501961" points="59,142 93,112 181,141" />
<polygon fill="#001a52" fill-opacity="0.501961" points="92,142 184,116 249,142" />
<polygon fill="#3f402f" fill-opacity="0.501961" points="239,68 231,68 243,63" />
<polygon fill="#2e4570" fill-opacity="0.501961" points="189,112 199,109 210,112" />
<polygon fill="#0d2e72" fill-opacity="0.501961" points="17,97 29,103 29,97" />
<polygon fill="#73778c" fill-opacity="0.501961" points="15,57 19,62 7,57" />
<polygon fill="#161912" fill-opacity="0.501961" points="207,109 202,97 191,111" />
<polygon fill="#0f0c03" fill-opacity="0.501961" points="56,67 46,69 43,62" />
<polygon fill="#04080a" fill-opacity="0.501961" points="242,39 241,28 235,32" />
<polygon fill="#384443" fill-opacity="0.501961" points="83,27 72,11 82,6" />
<polygon fill="#3f3f2c" fill-opacity="0.501961" points="243,24 236,30 229,30" />
<polygon fill="#1b386b" fill-opacity="0.501961" points="98,115 83,110 106,111" />
<polygon fill="#13367a" fill-opacity="0.501961" points="9,143 4,139 4,126" />
<polygon fill="#353a2d" fill-opacity="0.501961" points="210,66 206,60 214,64" />
<polygon fill="#11264e" fill-opacity="0.501961" points="63,119 61,115 62,109" />
<polygon fill="#464b3f" fill-opacity="0.501961" points="237,100 236,105 225,104" />
<polygon fill="#565f5d" fill-opacity="0.501961" points="160,53 154,57 159,38" />
<polygon fill="#0b1516" fill-opacity="0.501961" points="210,4 204,9 206,-16" />
<polygon fill="#000000" fill-opacity="0.501961" points="117,71 103,65 134,43" />
<polygon fill="#131e28" fill-opacity="0.501961" points="53,79 97,63 122,79" />
<polygon fill="#070806" fill-opacity="0.501961" points="133,52 118,35 144,46" />
<polygon fill="#153475" fill-opacity="0.501961" points="249,143 235,139 226,143" />
<polygon fill="#454b40" fill-opacity="0.501961" points="67,105 61,100 53,104" />
<polygon fill="#4c5550" fill-opacity="0.501961" points="40,58 51,63 47,35" />
<polygon fill="#23251c" fill-opacity="0.501961" points="164,98 165,86 169,97" />
<polygon fill="#001a53" fill-opacity="0.501961" points="41,116 49,137 31,135" />
<polygon fill="#e7bd93" fill-opacity="0.501961" points="16,87 19,91 19,86" />
<polygon fill="#001a53" fill-opacity="0.501961" points="222,114 245,142 127,142" />
<polygon fill="#030503" fill-opacity="0.501961" points="122,98 149,98 152,86" />
<polygon fill="#001a52" fill-opacity="0.501961" points="107,142 5,142 7,113" />
<polygon fill="#7c8da6" fill-opacity="0.501961" points="68,122 69,115 65,115" />
<polygon fill="#ad9884" fill-opacity="0.501961" points="36,65 36,71 33,73" />
<polygon fill="#153575" fill-opacity="0.501961" points="44,143 66,143 52,139" />
<polygon fill="#001a52" fill-opacity="0.501961" points="92,142 53,121 28,142" />
<polygon fill="#00154e" fill-opacity="0.501961" points="105,112 71,112 93,118" />
<polygon fill="#292619" fill-opacity="0.501961" points="58,66 54,40 50,65" />
<polygon fill="#12120e" fill-opacity="0.501961" points="169,111 184,105 151,106" />
<polygon fill="#171914" fill-opacity="0.501961" points="251,86 250,61 244,85" />
<polygon fill="#463d31" fill-opacity="0.501961" points="32,76 40,72 33,72" />
<polygon fill="#a09689" fill-opacity="0.501961" points="29,68 30,61 32,68" />
<polygon fill="#000513" fill-opacity="0.501961" points="-16,53 8,57 -12,59" />
<polygon fill="#020000" fill-opacity="0.501961" points="253,143 242,144 270,160" />
<polygon fill="#fff1e0" fill-opacity="0.501961" points="19,92 22,95 9,95" />
<polygon fill="#98a5ba" fill-opacity="0.501961" points="20,100 20,102 17,104" />
<polygon fill="#544d44" fill-opacity="0.501961" points="39,65 31,69 32,63" />
<polygon fill="#0a0f0e" fill-opacity="0.501961" points="169,70 171,81 201,86" />
<polygon fill="#1e2321" fill-opacity="0.501961" points="60,7 92,10 100,0" />
<polygon fill="#b7b7c6" fill-opacity="0.501961" points="32,94 28,85 37,90" />
<polygon fill="#0a1929" fill-opacity="0.501961" points="226,47 219,44 225,55" />
<polygon fill="#6f574a" fill-opacity="0.501961" points="124,71 131,65 125,67" />
<polygon fill="#001349" fill-opacity="0.501961" points="38,112 58,112 52,117" />
<polygon fill="#2a2414" fill-opacity="0.501961" points="226,73 226,100 232,95" />
<polygon fill="#1a3b7d" fill-opacity="0.501961" points="219,142 229,143 224,141" />
<polygon fill="#17170f" fill-opacity="0.501961" points="199,-3 183,8 198,5" />
<polygon fill="#17212e" fill-opacity="0.501961" points="147,7 126,7 151,19" />
<polygon fill="#1c2329" fill-opacity="0.501961" points="211,13 222,11 223,44" />
<polygon fill="#687b99" fill-opacity="0.501961" points="10,100 11,107 17,102" />
<polygon fill="#433f2e" fill-opacity="0.501961" points="186,8 168,-3 173,8" />
<polygon fill="#151f28" fill-opacity="0.501961" points="217,52 211,19 116,23" />
<polygon fill="#000000" fill-opacity="0.501961" points="76,54 87,51 87,59" />
<polygon fill="#121e2a" fill-opacity="0.501961" points="57,98 102,98 59,84" />
<polygon fill="#3e4c4a" fill-opacity="0.501961" points="58,44 58,28 72,45" />
<polygon fill="#0b0f11" fill-opacity="0.501961" points="109,18 126,13 137,19" />
<polygon fill="#1b1d1d" fill-opacity="0.501961" points="249,32 250,64 243,54" />
<polygon fill="#524e44" fill-opacity="0.501961" points="9,78 12,68 6,73" />
<polygon fill="#3e548a" fill-opacity="0.501961" points="43,73 42,63 39,81" />
<polygon fill="#2f2a1e" fill-opacity="0.501961" points="133,-16 134,4 151,4" />
<polygon fill="#101b22" fill-opacity="0.501961" points="88,43 101,54 69,46" />
<polygon fill="#000000" fill-opacity="0.501961" points="46,81 54,70 54,86" />
<polygon fill="#000f47" fill-opacity="0.501961" points="27,101 22,98 16,98" />
</g>
</svg>