<svg xmlns="http://www.w3.org/2000/svg" version="1.1" width="1024" height="580">
<rect x="0" y="0" width="1024" height="580" fill="#020814" />
<g transform="scale(4.000000) translate(0.5 0.5)">
<polygon fill="#1844a1" fill-opacity="0.501961" points="271,110 147,160 -16,112" />
<polygon fill="#0d3fab" fill-opacity="0.501961" points="255,143 252,120 193,142" />
<polygon fill="#000000" fill-opacity="0.501961" points="-16,55 249,-16 271,120" />
<polygon fill="#213f7c" fill-opacity="0.501961" points="164,125 5,160 4,113" />
<polygon fill="#000000" fill-opacity="0.501961" points="271,9 -14,126 0,-16" />
<polygon fill="#8593a3" fill-opacity="0.501961" points="158,125 105,123 131,132" />
<polygon fill="#818fa1" fill-opacity="0.501961" points="34,130 67,129 60,114" />
<polygon fill="#000000" fill-opacity="0.501961" points="246,-16 -3,111 271,111" />
<polygon fill="#000e48" fill-opacity="0.501961" points="17,130 164,131 121,160" />
<polygon fill="#6aaeff" fill-opacity="0.501961" points="245,132 240,136 250,140" />
<polygon fill="#001555" fill-opacity="0.501961" points="41,110 0,111 37,160" />
<polygon fill="#00104b" fill-opacity="0.501961" points="142,112 207,160 256,115" />
<polygon fill="#000000" fill-opacity="0.501961" points="-14,119 -16,-1 271,-3" />
<polygon fill="#000d46" fill-opacity="0.501961" points="49,123 91,111 129,123" />
<polygon fill="#7a8aa3" fill-opacity="0.501961" points="146,122 165,130 137,129" />
<polygon fill="#060000" fill-opacity="0.501961" points="197,143 142,160 82,143" />
<polygon fill="#000000" fill-opacity="0.501961" points="271,109 -16,110 14,-16" />
<polygon fill="#5f7189" fill-opacity="0.501961" points="100,123 84,130 124,130" />
<polygon fill="#7b8ba4" fill-opacity="0.501961" points="51,129 48,115 61,116" />
<polygon fill="#001959" fill-opacity="0.501961" points="7,112 39,111 3,160" />
<polygon fill="#001a54" fill-opacity="0.501961" points="214,138 261,111 123,115" />
<polygon fill="#000000" fill-opacity="0.501961" points="254,152 253,39 271,89" />
<polygon fill="#020000" fill-opacity="0.501961" points="19,160 80,143 -3,143" />
<polygon fill="#00114a" fill-opacity="0.501961" points="77,140 78,112 64,114" />
<polygon fill="#538dff" fill-opacity="0.501961" points="246,140 243,130 248,130" />
<polygon fill="#001650" fill-opacity="0.501961" points="108,124 102,110 152,122" />
<polygon fill="#00083c" fill-opacity="0.501961" points="250,138 247,142 237,139" />
<polygon fill="#002366" fill-opacity="0.501961" points="95,143 45,129 16,143" />
<polygon fill="#00164f" fill-opacity="0.501961" points="114,136 96,143 100,125" />
<polygon fill="#00194e" fill-opacity="0.501961" points="54,131 61,141 54,118" />
<polygon fill="#000000" fill-opacity="0.501961" points="-1,-16 257,113 271,-3" />
<polygon fill="#556782" fill-opacity="0.501961" points="79,124 80,130 98,123" />
<polygon fill="#000000" fill-opacity="0.501961" points="5,160 3,101 -16,125" />
<polygon fill="#001a50" fill-opacity="0.501961" points="100,140 83,117 88,148" />
<polygon fill="#001043" fill-opacity="0.501961" points="52,123 39,123 44,119" />
<polygon fill="#143b8b" fill-opacity="0.501961" points="244,115 230,111 250,111" />
<polygon fill="#001851" fill-opacity="0.501961" points="212,116 129,142 247,141" />
<polygon fill="#6f8098" fill-opacity="0.501961" points="71,129 66,125 63,130" />
<polygon fill="#092963" fill-opacity="0.501961" points="96,119 66,110 126,110" />
<polygon fill="#0e3477" fill-opacity="0.501961" points="5,111 4,120 20,111" />
<polygon fill="#00164c" fill-opacity="0.501961" points="3,112 36,115 42,140" />
<polygon fill="#000000" fill-opacity="0.501961" points="-4,110 271,109 1,-16" />
<polygon fill="#7888a2" fill-opacity="0.501961" points="158,123 147,123 159,129" />
<polygon fill="#617493" fill-opacity="0.501961" points="123,130 120,123 100,124" />
<polygon fill="#001b53" fill-opacity="0.501961" points="61,124 107,122 61,110" />
<polygon fill="#405878" fill-opacity="0.501961" points="36,119 41,124 37,110" />
<polygon fill="#03225e" fill-opacity="0.501961" points="154,143 133,142 128,126" />
<polygon fill="#00164e" fill-opacity="0.501961" points="226,112 251,133 249,112" />
<polygon fill="#00164d" fill-opacity="0.501961" points="38,132 101,131 77,142" />
<polygon fill="#496384" fill-opacity="0.501961" points="166,126 167,130 169,125" />
<polygon fill="#001c53" fill-opacity="0.501961" points="105,115 113,115 105,132" />
<polygon fill="#7988a2" fill-opacity="0.501961" points="139,131 144,124 137,123" />
<polygon fill="#647693" fill-opacity="0.501961" points="43,118 53,116 53,122" />
<polygon fill="#4d6388" fill-opacity="0.501961" points="51,122 50,118 65,121" />
<polygon fill="#00154f" fill-opacity="0.501961" points="96,112 135,124 162,113" />
<polygon fill="#467cfb" fill-opacity="0.501961" points="242,131 248,134 240,140" />
<polygon fill="#001750" fill-opacity="0.501961" points="132,142 137,127 142,135" />
<polygon fill="#001954" fill-opacity="0.501961" points="4,142 6,111 55,139" />
<polygon fill="#001a52" fill-opacity="0.501961" points="170,121 168,142 248,140" />
<polygon fill="#001d55" fill-opacity="0.501961" points="142,119 146,112 144,129" />
<polygon fill="#090400" fill-opacity="0.501961" points="174,160 231,143 130,143" />
<polygon fill="#7a89a4" fill-opacity="0.501961" points="43,129 41,124 57,125" />
<polygon fill="#000000" fill-opacity="0.501961" points="253,140 266,160 255,111" />
<polygon fill="#062765" fill-opacity="0.501961" points="115,134 87,143 133,143" />
<polygon fill="#080400" fill-opacity="0.501961" points="30,143 71,160 130,143" />
<polygon fill="#001851" fill-opacity="0.501961" points="151,131 70,132 110,143" />
<polygon fill="#8493ab" fill-opacity="0.501961" points="59,125 56,130 59,130" />
<polygon fill="#001751" fill-opacity="0.501961" points="97,138 88,139 91,125" />
<polygon fill="#1b3f87" fill-opacity="0.501961" points="249,123 252,122 252,112" />
<polygon fill="#000000" fill-opacity="0.501961" points="4,152 3,64 -16,122" />
<polygon fill="#71829f" fill-opacity="0.501961" points="93,129 99,125 93,126" />
<polygon fill="#001a53" fill-opacity="0.501961" points="138,112 251,113 236,142" />
<polygon fill="#153574" fill-opacity="0.501961" points="203,143 197,140 190,142" />
<polygon fill="#516587" fill-opacity="0.501961" points="42,122 50,130 43,130" />
<polygon fill="#001751" fill-opacity="0.501961" points="114,124 116,115 84,114" />
<polygon fill="#7f8fa8" fill-opacity="0.501961" points="99,129 98,123 95,123" />
<polygon fill="#001652" fill-opacity="0.501961" points="49,113 46,118 32,111" />
<polygon fill="#001a53" fill-opacity="0.501961" points="192,114 155,142 250,142" />
<polygon fill="#6e819c" fill-opacity="0.501961" points="84,127 79,126 80,122" />
<polygon fill="#0c3072" fill-opacity="0.501961" points="5,140 4,125 9,139" />
<polygon fill="#001750" fill-opacity="0.501961" points="85,113 118,113 67,127" />
<polygon fill="#1f3868" fill-opacity="0.501961" points="54,115 59,130 54,125" />
<polygon fill="#1a3b7c" fill-opacity="0.501961" points="230,143 222,140 211,143" />
<polygon fill="#001851" fill-opacity="0.501961" points="166,134 156,135 167,125" />
<polygon fill="#021d53" fill-opacity="0.501961" points="153,125 151,119 134,119" />
<polygon fill="#001852" fill-opacity="0.501961" points="57,113 94,112 78,123" />
<polygon fill="#13316a" fill-opacity="0.501961" points="46,110 58,115 62,110" />
<polygon fill="#6a7c9a" fill-opacity="0.501961" points="120,128 118,124 106,130" />
<polygon fill="#001952" fill-opacity="0.501961" points="212,142 228,113 242,140" />
<polygon fill="#9faabd" fill-opacity="0.501961" points="60,118 53,119 60,116" />
<polygon fill="#001952" fill-opacity="0.501961" points="6,139 67,142 6,116" />
<polygon fill="#041f53" fill-opacity="0.501961" points="107,155 114,124 117,145" />
<polygon fill="#143777" fill-opacity="0.501961" points="24,111 30,114 39,112" />
<polygon fill="#001951" fill-opacity="0.501961" points="57,130 21,142 101,142" />
<polygon fill="#7a8ba5" fill-opacity="0.501961" points="152,131 156,124 158,129" />
<polygon fill="#1a3363" fill-opacity="0.501961" points="42,134 47,129 47,119" />
<polygon fill="#001952" fill-opacity="0.501961" points="39,112 16,113 17,141" />
<polygon fill="#001b52" fill-opacity="0.501961" points="121,138 121,126 129,144" />
<polygon fill="#112f6e" fill-opacity="0.501961" points="102,143 84,138 67,143" />
<polygon fill="#001850" fill-opacity="0.501961" points="76,141 108,128 103,140" />
<polygon fill="#001850" fill-opacity="0.501961" points="239,114 251,137 251,118" />
<polygon fill="#000000" fill-opacity="0.501961" points="35,111 119,94 156,-16" />
<polygon fill="#4e6487" fill-opacity="0.501961" points="169,128 168,123 167,125" />
<polygon fill="#011d56" fill-opacity="0.501961" points="161,125 157,143 154,137" />
<polygon fill="#0e2d6d" fill-opacity="0.501961" points="23,142 12,138 2,143" />
<polygon fill="#00194e" fill-opacity="0.501961" points="69,128 65,126 73,126" />
<polygon fill="#8896ad" fill-opacity="0.501961" points="139,123 146,126 137,130" />
<polygon fill="#00184f" fill-opacity="0.501961" points="123,127 120,122 121,118" />
<polygon fill="#45597f" fill-opacity="0.501961" points="132,131 138,129 127,126" />
<polygon fill="#001a52" fill-opacity="0.501961" points="5,142 59,140 11,116" />
<polygon fill="#000000" fill-opacity="0.501961" points="259,-16 28,110 264,110" />
<polygon fill="#001b53" fill-opacity="0.501961" points="141,120 134,113 127,126" />
<polygon fill="#7a8ba5" fill-opacity="0.501961" points="48,120 51,125 49,116" />
<polygon fill="#001952" fill-opacity="0.501961" points="170,122 141,113 116,123" />
<polygon fill="#001951" fill-opacity="0.501961" points="79,130 111,141 67,142" />
<polygon fill="#001a53" fill-opacity="0.501961" points="116,132 177,130 152,142" />
<polygon fill="#00144c" fill-opacity="0.501961" points="86,128 83,134 85,124" />
<polygon fill="#697c9a" fill-opacity="0.501961" points="57,129 55,127 57,124" />
<polygon fill="#001953" fill-opacity="0.501961" points="99,138 101,125 105,143" />
<polygon fill="#234a97" fill-opacity="0.501961" points="6,123 4,122 4,116" />
<polygon fill="#001a53" fill-opacity="0.501961" points="85,114 84,125 71,115" />
<polygon fill="#00124b" fill-opacity="0.501961" points="38,123 47,119 48,123" />
<polygon fill="#021c54" fill-opacity="0.501961" points="144,129 142,144 148,133" />
<polygon fill="#6c7d9b" fill-opacity="0.501961" points="40,122 51,128 40,130" />
<polygon fill="#092457" fill-opacity="0.501961" points="62,115 63,123 66,120" />
<polygon fill="#070401" fill-opacity="0.501961" points="54,160 34,143 4,143" />
<polygon fill="#001951" fill-opacity="0.501961" points="148,142 137,130 117,142" />
<polygon fill="#526788" fill-opacity="0.501961" points="37,118 42,119 34,121" />
<polygon fill="#001a53" fill-opacity="0.501961" points="40,120 20,122 37,139" />
<polygon fill="#6e7f9a" fill-opacity="0.501961" points="69,124 58,125 64,127" />
<polygon fill="#001a53" fill-opacity="0.501961" points="137,125 140,113 129,114" />
<polygon fill="#233c67" fill-opacity="0.501961" points="50,132 49,129 47,128" />
<polygon fill="#010200" fill-opacity="0.501961" points="254,149 253,104 271,160" />
<polygon fill="#00164f" fill-opacity="0.501961" points="104,128 107,129 104,138" />
<polygon fill="#4d6387" fill-opacity="0.501961" points="64,120 58,121 60,119" />
<polygon fill="#001b53" fill-opacity="0.501961" points="158,128 179,118 161,114" />
<polygon fill="#001951" fill-opacity="0.501961" points="81,140 69,124 74,121" />
<polygon fill="#00194f" fill-opacity="0.501961" points="44,122 38,119 39,123" />
<polygon fill="#001951" fill-opacity="0.501961" points="76,119 77,112 51,112" />
<polygon fill="#8f9cb3" fill-opacity="0.501961" points="150,131 146,127 148,124" />
<polygon fill="#001c54" fill-opacity="0.501961" points="93,126 88,135 90,140" />
<polygon fill="#103379" fill-opacity="0.501961" points="120,111 134,115 148,111" />
<polygon fill="#001850" fill-opacity="0.501961" points="108,112 146,112 121,123" />
<polygon fill="#001a53" fill-opacity="0.501961" points="64,137 7,142 5,121" />
<polygon fill="#001b52" fill-opacity="0.501961" points="107,141 99,137 99,125" />
<polygon fill="#41577e" fill-opacity="0.501961" points="87,125 89,130 91,120" />
<polygon fill="#001951" fill-opacity="0.501961" points="86,123 90,115 106,122" />
<polygon fill="#19397b" fill-opacity="0.501961" points="118,143 104,143 115,140" />
<polygon fill="#001850" fill-opacity="0.501961" points="108,142 136,139 104,130" />
<polygon fill="#12306f" fill-opacity="0.501961" points="123,143 149,143 132,138" />
<polygon fill="#001850" fill-opacity="0.501961" points="97,142 159,142 130,133" />
<polygon fill="#1a397d" fill-opacity="0.501961" points="67,143 56,140 49,143" />
<polygon fill="#00184f" fill-opacity="0.501961" points="46,142 84,141 60,135" />
<polygon fill="#4c6285" fill-opacity="0.501961" points="97,132 98,124 99,128" />
<polygon fill="#001b53" fill-opacity="0.501961" points="50,141 54,128 58,142" />
<polygon fill="#001a53" fill-opacity="0.501961" points="214,116 243,141 131,142" />
<polygon fill="#556a8c" fill-opacity="0.501961" points="37,117 41,124 36,120" />
<polygon fill="#001a53" fill-opacity="0.501961" points="35,118 10,127 44,139" />
<polygon fill="#657896" fill-opacity="0.501961" points="103,126 123,128 113,130" />
<polygon fill="#001a53" fill-opacity="0.501961" points="10,142 7,128 42,122" />
<polygon fill="#43577e" fill-opacity="0.501961" points="52,119 51,114 54,114" />
<polygon fill="#001b54" fill-opacity="0.501961" points="81,137 72,141 80,129" />
<polygon fill="#001a53" fill-opacity="0.501961" points="124,142 144,130 170,135" />
<polygon fill="#153a81" fill-opacity="0.501961" points="155,114 163,111 147,111" />
<polygon fill="#001b54" fill-opacity="0.501961" points="251,115 182,116 236,140" />
<polygon fill="#00164b" fill-opacity="0.501961" points="148,115 145,112 158,113" />
<polygon fill="#122f6e" fill-opacity="0.501961" points="26,139 25,143 37,142" />
<polygon fill="#254e98" fill-opacity="0.501961" points="25,111 22,113 20,111" />
<polygon fill="#5d93ff" fill-opacity="0.501961" points="245,131 248,137 242,135" />
<polygon fill="#001b53" fill-opacity="0.501961" points="94,113 59,123 131,123" />
<polygon fill="#001950" fill-opacity="0.501961" points="49,113 38,119 41,112" />
<polygon fill="#07080c" fill-opacity="0.501961" points="151,143 73,143 123,160" />
<polygon fill="#001a52" fill-opacity="0.501961" points="11,139 6,112 40,112" />
<polygon fill="#173776" fill-opacity="0.501961" points="250,143 238,143 249,140" />
<polygon fill="#001a52" fill-opacity="0.501961" points="34,113 5,142 44,142" />
<polygon fill="#001b51" fill-opacity="0.501961" points="84,129 87,129 85,121" />
<polygon fill="#10306d" fill-opacity="0.501961" points="202,142 206,139 216,143" />
<polygon fill="#001a52" fill-opacity="0.501961" points="251,141 194,142 154,113" />
<polygon fill="#001a53" fill-opacity="0.501961" points="150,112 118,123 83,112" />
<polygon fill="#0f2f71" fill-opacity="0.501961" points="88,115 81,112 100,111" />
<polygon fill="#001851" fill-opacity="0.501961" points="82,124 78,112 114,112" />
<polygon fill="#001a53" fill-opacity="0.501961" points="90,142 128,131 49,131" />
<polygon fill="#000000" fill-opacity="0.501961" points="2,157 -16,119 4,75" />
<polygon fill="#1e4287" fill-opacity="0.501961" points="185,143 188,143 187,141" />
<polygon fill="#001a52" fill-opacity="0.501961" points="196,130 153,141 220,142" />
<polygon fill="#17377b" fill-opacity="0.501961" points="186,143 179,140 170,143" />
<polygon fill="#001a52" fill-opacity="0.501961" points="164,142 204,128 241,140" />
<polygon fill="#021e56" fill-opacity="0.501961" points="61,116 65,111 62,121" />
<polygon fill="#000000" fill-opacity="0.501961" points="271,0 101,111 -16,-7" />
<polygon fill="#001a53" fill-opacity="0.501961" points="76,139 6,123 17,142" />
<polygon fill="#001a53" fill-opacity="0.501961" points="179,114 163,141 250,142" />
<polygon fill="#001a53" fill-opacity="0.501961" points="116,112 172,112 140,123" />
<polygon fill="#001a53" fill-opacity="0.501961" points="164,114 178,142 240,135" />
<polygon fill="#7f8ea7" fill-opacity="0.501961" points="119,128 116,124 115,129" />
<polygon fill="#001a53" fill-opacity="0.501961" points="121,112 61,112 89,123" />
<polygon fill="#001a53" fill-opacity="0.501961" points="138,142 100,130 83,141" />
<polygon fill="#001a53" fill-opacity="0.501961" points="168,128 163,113 137,113" />
<polygon fill="#2c5cb7" fill-opacity="0.501961" points="170,112 170,111 173,111" />
<polygon fill="#697998" fill-opacity="0.501961" points="154,126 149,124 152,128" />
<polygon fill="#041d54" fill-opacity="0.501961" points="118,137 112,147 114,127" />
<polygon fill="#011c55" fill-opacity="0.501961" points="52,142 64,137 67,129" />
<polygon fill="#697b96" fill-opacity="0.501961" points="78,124 81,127 77,128" />
<polygon fill="#1e3e82" fill-opacity="0.501961" points="111,143 117,141 123,143" />
<polygon fill="#00174f" fill-opacity="0.501961" points="115,136 105,140 121,142" />
<polygon fill="#7787a5" fill-opacity="0.501961" points="61,127 66,128 65,129" />
<polygon fill="#9ca9bb" fill-opacity="0.501961" points="59,115 57,115 59,120" />
<polygon fill="#090000" fill-opacity="0.501961" points="75,158 85,145 113,144" />
<polygon fill="#001a53" fill-opacity="0.501961" points="252,131 251,117 215,118" />
<polygon fill="#0c265a" fill-opacity="0.501961" points="144,126 141,137 145,132" />
<polygon fill="#001a53" fill-opacity="0.501961" points="7,142 10,112 40,112" />
<polygon fill="#092557" fill-opacity="0.501961" points="76,125 77,119 79,130" />
<polygon fill="#030301" fill-opacity="0.501961" points="108,109 102,105 104,111" />
<polygon fill="#001750" fill-opacity="0.501961" points="32,124 32,122 39,123" />
<polygon fill="#001a53" fill-opacity="0.501961" points="7,140 5,118 73,142" />
<polygon fill="#1b3768" fill-opacity="0.501961" points="239,113 247,110 231,110" />
<polygon fill="#1c438d" fill-opacity="0.501961" points="226,111 235,111 231,113" />
<polygon fill="#1e4590" fill-opacity="0.501961" points="112,113 107,111 118,111" />
<polygon fill="#001a52" fill-opacity="0.501961" points="118,112 78,123 75,112" />
<polygon fill="#00174f" fill-opacity="0.501961" points="246,112 240,118 229,112" />
<polygon fill="#1d3f87" fill-opacity="0.501961" points="154,143 161,141 164,143" />
<polygon fill="#001a53" fill-opacity="0.501961" points="180,128 228,142 140,142" />
<polygon fill="#001a52" fill-opacity="0.501961" points="117,141 165,142 145,133" />
<polygon fill="#1d3d7e" fill-opacity="0.501961" points="252,143 245,143 252,140" />
<polygon fill="#001a53" fill-opacity="0.501961" points="235,138 183,112 244,112" />
<polygon fill="#000101" fill-opacity="0.501961" points="271,84 232,111 260,109" />
<polygon fill="#163a7f" fill-opacity="0.501961" points="202,113 197,112 207,111" />
<polygon fill="#001a53" fill-opacity="0.501961" points="158,112 182,135 208,112" />
<polygon fill="#001b54" fill-opacity="0.501961" points="251,133 232,115 251,112" />
<polygon fill="#113379" fill-opacity="0.501961" points="205,111 216,111 219,115" />
<polygon fill="#6e7f9c" fill-opacity="0.501961" points="66,126 60,130 67,130" />
<polygon fill="#001851" fill-opacity="0.501961" points="201,120 224,112 179,112" />
<polygon fill="#103378" fill-opacity="0.501961" points="196,111 183,111 196,115" />
<polygon fill="#001952" fill-opacity="0.501961" points="223,112 179,130 182,112" />
<polygon fill="#001a53" fill-opacity="0.501961" points="97,142 129,131 161,140" />
<polygon fill="#001a53" fill-opacity="0.501961" points="75,129 81,113 63,117" />
<polygon fill="#173578" fill-opacity="0.501961" points="35,143 36,140 44,143" />
<polygon fill="#607493" fill-opacity="0.501961" points="156,127 157,131 158,126" />
<polygon fill="#001a52" fill-opacity="0.501961" points="38,142 47,130 9,139" />
<polygon fill="#001a53" fill-opacity="0.501961" points="34,142 70,139 36,129" />
<polygon fill="#001b54" fill-opacity="0.501961" points="215,140 156,140 191,113" />
<polygon fill="#000000" fill-opacity="0.501961" points="187,88 208,111 204,96" />
<polygon fill="#070912" fill-opacity="0.501961" points="40,143 155,143 93,160" />
<polygon fill="#123272" fill-opacity="0.501961" points="56,115 66,112 55,111" />
<polygon fill="#2952a4" fill-opacity="0.501961" points="152,112 150,111 154,111" />
<polygon fill="#010101" fill-opacity="0.501961" points="60,97 43,109 62,111" />
<polygon fill="#001a52" fill-opacity="0.501961" points="192,112 190,124 209,112" />
<polygon fill="#001a54" fill-opacity="0.501961" points="23,113 7,138 50,141" />
<polygon fill="#001a53" fill-opacity="0.501961" points="92,112 71,122 60,113" />
<polygon fill="#53678a" fill-opacity="0.501961" points="123,127 130,123 122,123" />
<polygon fill="#0a2559" fill-opacity="0.501961" points="122,137 124,133 121,125" />
<polygon fill="#000c3f" fill-opacity="0.501961" points="245,142 248,139 251,141" />
<polygon fill="#011b53" fill-opacity="0.501961" points="80,128 80,137 85,142" />
<polygon fill="#3153a1" fill-opacity="0.501961" points="16,143 18,142 14,142" />
<polygon fill="#001953" fill-opacity="0.501961" points="122,141 104,131 150,132" />
<polygon fill="#506487" fill-opacity="0.501961" points="130,129 133,123 134,131" />
<polygon fill="#001a53" fill-opacity="0.501961" points="133,123 102,112 161,112" />
<polygon fill="#28416d" fill-opacity="0.501961" points="129,128 137,126 136,129" />
<polygon fill="#1d3f83" fill-opacity="0.501961" points="9,141 5,143 10,143" />
<polygon fill="#2c62ce" fill-opacity="0.501961" points="240,132 244,132 240,135" />
<polygon fill="#1e3766" fill-opacity="0.501961" points="114,122 114,127 109,129" />
<polygon fill="#001a53" fill-opacity="0.501961" points="217,133 249,113 238,138" />
<polygon fill="#001a53" fill-opacity="0.501961" points="120,115 113,124 107,116" />
<polygon fill="#001a52" fill-opacity="0.501961" points="7,132 32,137 5,142" />
<polygon fill="#384f77" fill-opacity="0.501961" points="65,123 64,130 66,128" />
<polygon fill="#808fa8" fill-opacity="0.501961" points="56,127 59,127 58,129" />
<polygon fill="#8391aa" fill-opacity="0.501961" points="57,122 60,118 59,121" />
<polygon fill="#001b53" fill-opacity="0.501961" points="163,122 127,113 110,123" />
<polygon fill="#08090f" fill-opacity="0.501961" points="256,143 164,143 224,160" />
<polygon fill="#000000" fill-opacity="0.501961" points="16,98 23,99 25,111" />
<polygon fill="#031e54" fill-opacity="0.501961" points="88,124 84,131 84,127" />
<polygon fill="#000000" fill-opacity="0.501961" points="254,140 270,129 248,160" />
<polygon fill="#697b99" fill-opacity="0.501961" points="83,128 79,124 83,126" />
<polygon fill="#001b53" fill-opacity="0.501961" points="165,126 168,133 159,136" />
<polygon fill="#233c67" fill-opacity="0.501961" points="56,132 51,131 55,129" />
<polygon fill="#001a53" fill-opacity="0.501961" points="6,142 49,142 8,113" />
<polygon fill="#183776" fill-opacity="0.501961" points="248,139 253,131 252,137" />
<polygon fill="#010304" fill-opacity="0.501961" points="255,153 253,115 269,154" />
<polygon fill="#001a53" fill-opacity="0.501961" points="159,116 141,113 127,124" />
<polygon fill="#163576" fill-opacity="0.501961" points="133,143 126,143 123,140" />
<polygon fill="#113377" fill-opacity="0.501961" points="74,115 78,111 63,111" />
<polygon fill="#00184d" fill-opacity="0.501961" points="121,139 131,142 115,142" />
<polygon fill="#0b2a5b" fill-opacity="0.501961" points="55,124 59,121 59,123" />
<polygon fill="#4d6387" fill-opacity="0.501961" points="104,129 100,132 105,124" />
<polygon fill="#001951" fill-opacity="0.501961" points="77,139 75,113 66,112" />
<polygon fill="#00174f" fill-opacity="0.501961" points="100,127 107,136 99,132" />
<polygon fill="#042055" fill-opacity="0.501961" points="95,139 92,123 91,131" />
<polygon fill="#1e448d" fill-opacity="0.501961" points="92,113 88,111 94,111" />
<polygon fill="#001a52" fill-opacity="0.501961" points="61,112 93,123 107,112" />
<polygon fill="#001a53" fill-opacity="0.501961" points="153,131 150,142 123,141" />
<polygon fill="#6f7f9a" fill-opacity="0.501961" points="38,125 45,123 41,123" />
<polygon fill="#001950" fill-opacity="0.501961" points="233,135 241,132 243,127" />
<polygon fill="#001952" fill-opacity="0.501961" points="46,132 58,136 74,131" />
<polygon fill="#8493ab" fill-opacity="0.501961" points="56,118 59,116 59,122" />
<polygon fill="#001a53" fill-opacity="0.501961" points="39,124 34,139 8,115" />
<polygon fill="#001b53" fill-opacity="0.501961" points="77,113 64,123 113,123" />
<polygon fill="#133676" fill-opacity="0.501961" points="43,112 38,114 38,111" />
<polygon fill="#314873" fill-opacity="0.501961" points="93,128 94,126 93,125" />
<polygon fill="#021d55" fill-opacity="0.501961" points="82,127 72,138 76,140" />
<polygon fill="#568aff" fill-opacity="0.501961" points="244,130 246,130 245,137" />
<polygon fill="#001a53" fill-opacity="0.501961" points="146,131 117,142 76,131" />
<polygon fill="#1b3979" fill-opacity="0.501961" points="252,120 253,129 250,131" />
<polygon fill="#000000" fill-opacity="0.501961" points="254,71 253,140 271,126" />
<polygon fill="#001a53" fill-opacity="0.501961" points="251,127 250,113 201,135" />
<polygon fill="#001a53" fill-opacity="0.501961" points="81,118 67,129 76,113" />
<polygon fill="#001951" fill-opacity="0.501961" points="251,117 241,113 251,137" />
<polygon fill="#001a53" fill-opacity="0.501961" points="40,113 7,118 17,130" />
<polygon fill="#103276" fill-opacity="0.501961" points="175,115 163,111 187,111" />
<polygon fill="#001851" fill-opacity="0.501961" points="183,122 196,112 154,113" />
<polygon fill="#001a53" fill-opacity="0.501961" points="234,140 150,112 250,112" />
<polygon fill="#8190a9" fill-opacity="0.501961" points="122,128 117,125 115,126" />
<polygon fill="#031e55" fill-opacity="0.501961" points="43,136 48,133 47,128" />
<polygon fill="#1b3e86" fill-opacity="0.501961" points="109,113 115,111 103,111" />
<polygon fill="#001448" fill-opacity="0.501961" points="109,114 115,112 104,112" />
<polygon fill="#001b54" fill-opacity="0.501961" points="130,112 102,112 113,121" />
<polygon fill="#001a52" fill-opacity="0.501961" points="83,115 72,112 92,112" />
<polygon fill="#001a53" fill-opacity="0.501961" points="160,142 159,130 202,131" />
<polygon fill="#001750" fill-opacity="0.501961" points="57,132 51,133 51,131" />
<polygon fill="#0f2b5e" fill-opacity="0.501961" points="45,128 47,125 47,121" />
<polygon fill="#5a6e8e" fill-opacity="0.501961" points="83,130 78,130 83,126" />
<polygon fill="#7f8ea8" fill-opacity="0.501961" points="50,115 47,118 48,119" />
<polygon fill="#041e55" fill-opacity="0.501961" points="124,126 116,120 117,115" />
<polygon fill="#031e56" fill-opacity="0.501961" points="56,114 47,115 52,112" />
<polygon fill="#001b53" fill-opacity="0.501961" points="43,122 5,124 17,134" />
<polygon fill="#001a53" fill-opacity="0.501961" points="152,114 251,112 238,136" />
<polygon fill="#15387c" fill-opacity="0.501961" points="144,114 146,111 138,111" />
<polygon fill="#72829e" fill-opacity="0.501961" points="131,128 134,125 130,126" />
<polygon fill="#00174e" fill-opacity="0.501961" points="140,112 145,125 144,112" />
<polygon fill="#031e54" fill-opacity="0.501961" points="93,121 95,124 94,120" />
<polygon fill="#001a53" fill-opacity="0.501961" points="103,142 110,138 104,128" />
<polygon fill="#8f9db4" fill-opacity="0.501961" points="80,125 77,126 81,123" />
<polygon fill="#001952" fill-opacity="0.501961" points="62,118 86,123 77,113" />
<polygon fill="#6f7f9c" fill-opacity="0.501961" points="127,125 125,124 121,128" />
<polygon fill="#001a53" fill-opacity="0.501961" points="129,124 133,112 146,112" />
<polygon fill="#001a53" fill-opacity="0.501961" points="80,130 52,142 79,141" />
<polygon fill="#4f6187" fill-opacity="0.501961" points="49,120 50,119 52,122" />
<polygon fill="#627694" fill-opacity="0.501961" points="68,131 65,128 72,128" />
<polygon fill="#001a4f" fill-opacity="0.501961" points="57,112 54,112 54,119" />
<polygon fill="#001b53" fill-opacity="0.501961" points="70,125 64,116 82,122" />
<polygon fill="#1c3b7e" fill-opacity="0.501961" points="20,141 26,143 21,143" />
<polygon fill="#173576" fill-opacity="0.501961" points="94,142 86,143 88,141" />
<polygon fill="#020508" fill-opacity="0.501961" points="254,138 260,138 253,117" />
<polygon fill="#001a52" fill-opacity="0.501961" points="140,141 84,142 100,130" />
<polygon fill="#001a52" fill-opacity="0.501961" points="20,141 31,142 41,120" />
<polygon fill="#001a53" fill-opacity="0.501961" points="125,140 70,142 89,131" />
<polygon fill="#000000" fill-opacity="0.501961" points="271,146 254,143 255,104" />
<polygon fill="#001b53" fill-opacity="0.501961" points="74,142 31,135 76,130" />
<polygon fill="#001a52" fill-opacity="0.501961" points="19,142 60,141 23,132" />
<polygon fill="#001a53" fill-opacity="0.501961" points="11,112 13,120 42,113" />
<polygon fill="#152f5f" fill-opacity="0.501961" points="79,131 80,129 75,131" />
<polygon fill="#0f295a" fill-opacity="0.501961" points="131,132 127,128 128,124" />
</g>
</svg>