<svg xmlns="http://www.w3.org/2000/svg" version="1.1" width="1024" height="580">
<rect x="0" y="0" width="1024" height="580" fill="#121b27" />
<g transform="scale(4.000000) translate(0.5 0.5)">
<polygon fill="#133e9a" fill-opacity="0.501961" points="-16,110 271,112 88,160" />
<polygon fill="#000000" fill-opacity="0.501961" points="271,141 139,53 251,-16" />
<polygon fill="#4b4e3e" fill-opacity="0.501961" points="47,-3 168,-4 166,121" />
<polygon fill="#6b7f9d" fill-opacity="0.501961" points="95,139 28,139 69,108" />
<polygon fill="#001964" fill-opacity="0.501961" points="254,109 68,141 250,160" />
<polygon fill="#000000" fill-opacity="0.501961" points="271,13 167,-16 179,134" />
<polygon fill="#000000" fill-opacity="0.501961" points="-16,132 5,-16 72,79" />
<polygon fill="#a59999" fill-opacity="0.501961" points="131,65 132,103 120,78" />
<polygon fill="#070d12" fill-opacity="0.501961" points="110,21 229,64 66,60" />
<polygon fill="#5c6458" fill-opacity="0.501961" points="148,-16 39,17 169,20" />
<polygon fill="#5e6a61" fill-opacity="0.501961" points="72,82 71,56 104,78" />
<polygon fill="#001d72" fill-opacity="0.501961" points="48,142 4,144 4,108" />
<polygon fill="#6abaff" fill-opacity="0.501961" points="249,138 246,127 241,137" />
<polygon fill="#191f1e" fill-opacity="0.501961" points="16,70 162,53 32,8" />
<polygon fill="#000000" fill-opacity="0.501961" points="271,112 266,11 128,100" />
<polygon fill="#000000" fill-opacity="0.501961" points="179,110 271,3 172,-16" />
<polygon fill="#6d809e" fill-opacity="0.501961" points="39,129 43,115 67,115" />
<polygon fill="#010000" fill-opacity="0.501961" points="-9,-7 -6,148 38,-8" />
<polygon fill="#1d2322" fill-opacity="0.501961" points="149,104 172,79 121,80" />
<polygon fill="#001b5b" fill-opacity="0.501961" points="271,111 159,112 199,160" />
<polygon fill="#131f26" fill-opacity="0.501961" points="124,84 110,42 59,117" />
<polygon fill="#4a514f" fill-opacity="0.501961" points="31,70 31,49 17,64" />
<polygon fill="#baafbc" fill-opacity="0.501961" points="144,81 124,76 124,69" />
<polygon fill="#000000" fill-opacity="0.501961" points="271,109 166,110 253,-16" />
<polygon fill="#d5a15b" fill-opacity="0.501961" points="139,66 142,76 142,61" />
<polygon fill="#000000" fill-opacity="0.501961" points="68,53 73,96 24,93" />
<polygon fill="#161c1a" fill-opacity="0.501961" points="156,109 135,107 133,72" />
<polygon fill="#545b4f" fill-opacity="0.501961" points="166,39 153,42 163,5" />
<polygon fill="#627596" fill-opacity="0.501961" points="48,136 66,138 83,114" />
<polygon fill="#405770" fill-opacity="0.501961" points="168,97 165,122 155,111" />
<polygon fill="#001a50" fill-opacity="0.501961" points="31,115 51,160 1,110" />
<polygon fill="#0a0a03" fill-opacity="0.501961" points="157,48 152,17 145,32" />
<polygon fill="#030000" fill-opacity="0.501961" points="84,160 62,143 147,143" />
<polygon fill="#8c8d84" fill-opacity="0.501961" points="124,97 133,88 125,91" />
<polygon fill="#000000" fill-opacity="0.501961" points="253,54 271,86 254,147" />
<polygon fill="#17170b" fill-opacity="0.501961" points="16,18 59,-16 54,46" />
<polygon fill="#979a9e" fill-opacity="0.501961" points="145,82 138,81 141,75" />
<polygon fill="#596154" fill-opacity="0.501961" points="155,82 155,69 170,63" />
<polygon fill="#596461" fill-opacity="0.501961" points="72,63 91,63 72,85" />
<polygon fill="#001855" fill-opacity="0.501961" points="84,132 89,112 145,113" />
<polygon fill="#001b51" fill-opacity="0.501961" points="131,160 178,110 249,117" />
<polygon fill="#46432d" fill-opacity="0.501961" points="118,34 70,33 84,23" />
<polygon fill="#020300" fill-opacity="0.501961" points="90,110 114,111 110,96" />
<polygon fill="#21221b" fill-opacity="0.501961" points="142,85 154,33 157,99" />
<polygon fill="#15212b" fill-opacity="0.501961" points="121,50 122,79 19,44" />
<polygon fill="#a5837a" fill-opacity="0.501961" points="123,78 133,64 123,63" />
<polygon fill="#26261b" fill-opacity="0.501961" points="160,54 173,11 173,81" />
<polygon fill="#000000" fill-opacity="0.501961" points="1,68 4,149 -16,122" />
<polygon fill="#000000" fill-opacity="0.501961" points="171,-16 270,-1 183,66" />
<polygon fill="#06070b" fill-opacity="0.501961" points="104,50 71,38 112,35" />
<polygon fill="#4b534e" fill-opacity="0.501961" points="158,-16 99,-1 143,31" />
<polygon fill="#3f463f" fill-opacity="0.501961" points="34,14 121,-16 95,12" />
<polygon fill="#1a3363" fill-opacity="0.501961" points="45,126 46,119 72,122" />
<polygon fill="#000e15" fill-opacity="0.501961" points="125,86 123,92 120,77" />
<polygon fill="#7184a2" fill-opacity="0.501961" points="75,125 39,124 55,130" />
<polygon fill="#071f4b" fill-opacity="0.501961" points="68,112 78,102 69,124" />
<polygon fill="#182125" fill-opacity="0.501961" points="123,20 139,74 99,18" />
<polygon fill="#2e2d1f" fill-opacity="0.501961" points="163,108 175,103 167,62" />
<polygon fill="#1a2326" fill-opacity="0.501961" points="140,102 130,103 136,67" />
<polygon fill="#000000" fill-opacity="0.501961" points="174,110 174,23 271,109" />
<polygon fill="#0a0000" fill-opacity="0.501961" points="189,160 162,143 242,144" />
<polygon fill="#181f1d" fill-opacity="0.501961" points="25,46 21,72 1,62" />
<polygon fill="#3d73ff" fill-opacity="0.501961" points="250,136 244,139 243,128" />
<polygon fill="#7789a6" fill-opacity="0.501961" points="65,122 54,115 69,117" />
<polygon fill="#03205a" fill-opacity="0.501961" points="4,144 44,131 4,109" />
<polygon fill="#6e819e" fill-opacity="0.501961" points="75,139 82,123 82,136" />
<polygon fill="#424d49" fill-opacity="0.501961" points="95,63 75,63 95,71" />
<polygon fill="#153369" fill-opacity="0.501961" points="114,132 68,131 107,120" />
<polygon fill="#a2afbe" fill-opacity="0.501961" points="58,132 61,136 56,139" />
<polygon fill="#00194b" fill-opacity="0.501961" points="93,127 89,142 135,140" />
<polygon fill="#2e3b37" fill-opacity="0.501961" points="124,41 137,41 120,16" />
<polygon fill="#1f2118" fill-opacity="0.501961" points="130,33 91,21 135,22" />
<polygon fill="#5792ff" fill-opacity="0.501961" points="243,132 249,136 240,134" />
<polygon fill="#010000" fill-opacity="0.501961" points="9,50 31,0 -16,-1" />
<polygon fill="#000000" fill-opacity="0.501961" points="70,79 34,95 31,74" />
<polygon fill="#10306c" fill-opacity="0.501961" points="127,110 192,112 147,134" />
<polygon fill="#080c0a" fill-opacity="0.501961" points="28,51 11,12 55,25" />
<polygon fill="#716d69" fill-opacity="0.501961" points="108,17 119,16 117,6" />
<polygon fill="#d2dcf6" fill-opacity="0.501961" points="126,77 132,75 130,73" />
<polygon fill="#092863" fill-opacity="0.501961" points="253,133 249,160 241,144" />
<polygon fill="#121c21" fill-opacity="0.501961" points="45,89 26,110 95,111" />
<polygon fill="#866f42" fill-opacity="0.501961" points="133,68 140,61 145,67" />
<polygon fill="#001d59" fill-opacity="0.501961" points="254,114 208,136 252,128" />
<polygon fill="#05235c" fill-opacity="0.501961" points="150,112 154,133 75,122" />
<polygon fill="#001650" fill-opacity="0.501961" points="56,129 50,132 44,131" />
<polygon fill="#15232f" fill-opacity="0.501961" points="58,66 37,52 72,55" />
<polygon fill="#121819" fill-opacity="0.501961" points="148,86 162,55 142,71" />
<polygon fill="#21241f" fill-opacity="0.501961" points="158,105 121,100 161,89" />
<polygon fill="#272416" fill-opacity="0.501961" points="50,18 100,20 65,31" />
<polygon fill="#040000" fill-opacity="0.501961" points="9,143 43,143 7,157" />
<polygon fill="#363325" fill-opacity="0.501961" points="155,33 153,69 148,49" />
<polygon fill="#0a0000" fill-opacity="0.501961" points="157,144 112,155 126,143" />
<polygon fill="#6f706b" fill-opacity="0.501961" points="128,95 134,89 121,96" />
<polygon fill="#000000" fill-opacity="0.501961" points="78,143 49,143 64,160" />
<polygon fill="#022771" fill-opacity="0.501961" points="65,110 73,115 52,114" />
<polygon fill="#254273" fill-opacity="0.501961" points="127,130 133,124 152,129" />
<polygon fill="#0f1a25" fill-opacity="0.501961" points="136,32 132,74 150,28" />
<polygon fill="#0a2660" fill-opacity="0.501961" points="41,119 38,143 7,143" />
<polygon fill="#020503" fill-opacity="0.501961" points="-2,24 -6,111 23,109" />
<polygon fill="#3a527b" fill-opacity="0.501961" points="31,125 32,129 40,126" />
<polygon fill="#313737" fill-opacity="0.501961" points="21,72 19,51 32,52" />
<polygon fill="#010000" fill-opacity="0.501961" points="60,98 71,65 28,73" />
<polygon fill="#1f1f15" fill-opacity="0.501961" points="174,-16 173,16 152,-16" />
<polygon fill="#010f20" fill-opacity="0.501961" points="134,69 140,72 135,80" />
<polygon fill="#879ab4" fill-opacity="0.501961" points="83,127 69,126 73,130" />
<polygon fill="#001853" fill-opacity="0.501961" points="36,114 5,141 10,111" />
<polygon fill="#052568" fill-opacity="0.501961" points="199,143 238,132 245,143" />
<polygon fill="#001952" fill-opacity="0.501961" points="166,112 247,112 179,143" />
<polygon fill="#909eb4" fill-opacity="0.501961" points="39,122 44,118 43,115" />
<polygon fill="#a3a4be" fill-opacity="0.501961" points="130,73 124,80 123,73" />
<polygon fill="#021f57" fill-opacity="0.501961" points="56,129 63,132 52,132" />
<polygon fill="#09255e" fill-opacity="0.501961" points="149,127 139,143 206,143" />
<polygon fill="#131d27" fill-opacity="0.501961" points="57,59 122,69 120,41" />
<polygon fill="#141d2a" fill-opacity="0.501961" points="128,87 127,79 147,83" />
<polygon fill="#000000" fill-opacity="0.501961" points="271,160 253,119 259,81" />
<polygon fill="#4d544b" fill-opacity="0.501961" points="170,76 155,78 155,69" />
<polygon fill="#08265f" fill-opacity="0.501961" points="49,143 43,142 48,133" />
<polygon fill="#535b68" fill-opacity="0.501961" points="60,9 64,19 69,16" />
<polygon fill="#434c44" fill-opacity="0.501961" points="166,3 143,7 167,38" />
<polygon fill="#001b4e" fill-opacity="0.501961" points="119,127 110,142 167,141" />
<polygon fill="#1a3667" fill-opacity="0.501961" points="75,116 80,127 77,131" />
<polygon fill="#fff8d2" fill-opacity="0.501961" points="127,72 129,72 128,69" />
<polygon fill="#131e26" fill-opacity="0.501961" points="64,86 68,110 126,79" />
<polygon fill="#20241d" fill-opacity="0.501961" points="157,24 135,19 153,18" />
<polygon fill="#596262" fill-opacity="0.501961" points="71,67 83,77 71,82" />
<polygon fill="#463833" fill-opacity="0.501961" points="130,69 125,68 139,61" />
<polygon fill="#272c25" fill-opacity="0.501961" points="51,21 78,-16 42,5" />
<polygon fill="#092768" fill-opacity="0.501961" points="253,111 252,139 235,111" />
<polygon fill="#131f29" fill-opacity="0.501961" points="135,98 128,109 100,93" />
<polygon fill="#030000" fill-opacity="0.501961" points="217,160 271,143 224,143" />
<polygon fill="#183469" fill-opacity="0.501961" points="79,131 114,132 102,124" />
<polygon fill="#000000" fill-opacity="0.501961" points="-16,147 1,76 4,143" />
<polygon fill="#4a5e73" fill-opacity="0.501961" points="147,112 156,108 169,111" />
<polygon fill="#5d7192" fill-opacity="0.501961" points="85,116 70,115 84,122" />
<polygon fill="#001747" fill-opacity="0.501961" points="77,137 71,141 79,142" />
<polygon fill="#001851" fill-opacity="0.501961" points="251,114 225,111 246,130" />
<polygon fill="#283333" fill-opacity="0.501961" points="83,64 104,79 83,85" />
<polygon fill="#0d295e" fill-opacity="0.501961" points="51,123 44,129 46,122" />
<polygon fill="#536066" fill-opacity="0.501961" points="122,22 139,17 125,16" />
<polygon fill="#647798" fill-opacity="0.501961" points="46,124 76,125 55,130" />
<polygon fill="#0a100f" fill-opacity="0.501961" points="18,78 -2,61 22,42" />
<polygon fill="#040701" fill-opacity="0.501961" points="99,109 121,106 93,98" />
<polygon fill="#3a3b2c" fill-opacity="0.501961" points="97,34 116,24 79,24" />
<polygon fill="#767774" fill-opacity="0.501961" points="127,96 134,87 124,87" />
<polygon fill="#001951" fill-opacity="0.501961" points="131,113 85,126 84,112" />
<polygon fill="#001950" fill-opacity="0.501961" points="32,114 33,140 6,142" />
<polygon fill="#001a50" fill-opacity="0.501961" points="54,124 52,120 51,125" />
<polygon fill="#101b21" fill-opacity="0.501961" points="34,66 28,71 53,72" />
<polygon fill="#3f463e" fill-opacity="0.501961" points="66,10 122,8 70,-16" />
<polygon fill="#080200" fill-opacity="0.501961" points="67,160 125,143 51,143" />
<polygon fill="#121c28" fill-opacity="0.501961" points="148,57 115,64 106,30" />
<polygon fill="#2f2c1e" fill-opacity="0.501961" points="147,103 156,111 153,77" />
<polygon fill="#131d26" fill-opacity="0.501961" points="130,86 159,94 133,78" />
<polygon fill="#0e161c" fill-opacity="0.501961" points="25,111 16,90 40,98" />
<polygon fill="#00104a" fill-opacity="0.501961" points="72,132 65,130 78,130" />
<polygon fill="#001851" fill-opacity="0.501961" points="182,141 239,118 242,142" />
<polygon fill="#011d55" fill-opacity="0.501961" points="23,128 43,122 7,116" />
<polygon fill="#092764" fill-opacity="0.501961" points="69,110 84,115 60,115" />
<polygon fill="#080500" fill-opacity="0.501961" points="181,160 231,143 147,143" />
<polygon fill="#000000" fill-opacity="0.501961" points="271,110 242,-16 174,110" />
<polygon fill="#474e48" fill-opacity="0.501961" points="109,1 110,17 51,19" />
<polygon fill="#101111" fill-opacity="0.501961" points="169,97 174,77 168,59" />
<polygon fill="#163b81" fill-opacity="0.501961" points="17,112 7,114 6,111" />
<polygon fill="#000d48" fill-opacity="0.501961" points="62,132 66,130 67,132" />
<polygon fill="#48545b" fill-opacity="0.501961" points="143,29 136,28 147,16" />
<polygon fill="#070c0d" fill-opacity="0.501961" points="161,52 167,39 156,46" />
<polygon fill="#7787a2" fill-opacity="0.501961" points="72,133 76,138 64,133" />
<polygon fill="#647595" fill-opacity="0.501961" points="45,122 52,117 53,122" />
<polygon fill="#5085ff" fill-opacity="0.501961" points="248,134 242,138 242,131" />
<polygon fill="#292619" fill-opacity="0.501961" points="120,26 105,32 110,16" />
<polygon fill="#162029" fill-opacity="0.501961" points="125,89 116,60 116,108" />
<polygon fill="#4d554e" fill-opacity="0.501961" points="165,35 158,24 154,42" />
<polygon fill="#161f26" fill-opacity="0.501961" points="95,81 139,53 100,46" />
<polygon fill="#001952" fill-opacity="0.501961" points="44,112 8,127 10,113" />
<polygon fill="#607393" fill-opacity="0.501961" points="45,126 41,137 46,138" />
<polygon fill="#0f3071" fill-opacity="0.501961" points="230,116 222,112 236,111" />
<polygon fill="#0c110e" fill-opacity="0.501961" points="165,101 155,89 155,105" />
<polygon fill="#000007" fill-opacity="0.501961" points="132,23 133,29 130,24" />
<polygon fill="#0e110c" fill-opacity="0.501961" points="146,18 152,25 150,34" />
<polygon fill="#707b7f" fill-opacity="0.501961" points="142,28 134,27 138,29" />
<polygon fill="#313933" fill-opacity="0.501961" points="140,24 134,31 134,12" />
<polygon fill="#050201" fill-opacity="0.501961" points="54,143 29,160 -16,143" />
<polygon fill="#000000" fill-opacity="0.501961" points="271,4 175,93 174,-16" />
<polygon fill="#2b4674" fill-opacity="0.501961" points="60,130 62,135 64,122" />
<polygon fill="#6c6e6c" fill-opacity="0.501961" points="125,96 128,88 124,89" />
<polygon fill="#000000" fill-opacity="0.501961" points="253,105 271,84 253,150" />
<polygon fill="#505541" fill-opacity="0.501961" points="161,109 165,111 166,100" />
<polygon fill="#0c275e" fill-opacity="0.501961" points="127,136 91,134 133,124" />
<polygon fill="#070c0c" fill-opacity="0.501961" points="166,59 164,52 152,68" />
<polygon fill="#101b27" fill-opacity="0.501961" points="115,40 131,43 137,69" />
<polygon fill="#244072" fill-opacity="0.501961" points="162,129 157,115 153,129" />
<polygon fill="#1d3a6f" fill-opacity="0.501961" points="97,130 82,123 116,127" />
<polygon fill="#001951" fill-opacity="0.501961" points="251,112 193,112 237,141" />
<polygon fill="#173060" fill-opacity="0.501961" points="38,130 45,130 31,137" />
<polygon fill="#162026" fill-opacity="0.501961" points="105,46 149,64 149,44" />
<polygon fill="#555f5e" fill-opacity="0.501961" points="75,65 71,84 82,63" />
<polygon fill="#09192a" fill-opacity="0.501961" points="147,68 151,79 142,76" />
<polygon fill="#0f2e6c" fill-opacity="0.501961" points="4,112 4,138 10,127" />
<polygon fill="#000000" fill-opacity="0.501961" points="28,87 64,95 51,65" />
<polygon fill="#6f809c" fill-opacity="0.501961" points="58,132 55,138 49,133" />
<polygon fill="#001952" fill-opacity="0.501961" points="147,142 244,139 199,125" />
<polygon fill="#4b5757" fill-opacity="0.501961" points="93,81 95,79 94,83" />
<polygon fill="#0b090c" fill-opacity="0.501961" points="74,47 94,35 73,37" />
<polygon fill="#625353" fill-opacity="0.501961" points="128,80 128,84 131,83" />
<polygon fill="#363728" fill-opacity="0.501961" points="170,46 162,55 155,55" />
<polygon fill="#485147" fill-opacity="0.501961" points="167,60 166,75 158,80" />
<polygon fill="#70819c" fill-opacity="0.501961" points="89,138 86,130 89,130" />
<polygon fill="#092557" fill-opacity="0.501961" points="84,142 88,130 84,130" />
<polygon fill="#6e809d" fill-opacity="0.501961" points="74,120 71,118 75,115" />
<polygon fill="#3b4241" fill-opacity="0.501961" points="32,54 24,70 29,69" />
<polygon fill="#525c5a" fill-opacity="0.501961" points="77,83 81,65 83,80" />
<polygon fill="#0b100e" fill-opacity="0.501961" points="148,109 134,108 150,98" />
<polygon fill="#121d27" fill-opacity="0.501961" points="117,107 121,94 135,102" />
<polygon fill="#c0c3d4" fill-opacity="0.501961" points="125,78 122,75 123,73" />
<polygon fill="#111b22" fill-opacity="0.501961" points="56,90 96,111 92,94" />
<polygon fill="#122e63" fill-opacity="0.501961" points="91,119 93,132 82,132" />
<polygon fill="#1b3e82" fill-opacity="0.501961" points="163,117 147,111 177,111" />
<polygon fill="#10120f" fill-opacity="0.501961" points="164,3 146,-16 183,-5" />
<polygon fill="#62799b" fill-opacity="0.501961" points="63,125 49,130 72,129" />
<polygon fill="#3c557f" fill-opacity="0.501961" points="40,129 34,126 32,129" />
<polygon fill="#00184d" fill-opacity="0.501961" points="54,135 47,158 56,160" />
<polygon fill="#151f2a" fill-opacity="0.501961" points="78,84 118,99 126,85" />
<polygon fill="#001850" fill-opacity="0.501961" points="5,116 6,137 29,141" />
<polygon fill="#17212b" fill-opacity="0.501961" points="127,111 126,98 114,111" />
<polygon fill="#121c24" fill-opacity="0.501961" points="70,28 79,57 34,59" />
<polygon fill="#767879" fill-opacity="0.501961" points="140,76 139,82 145,79" />
<polygon fill="#0e110b" fill-opacity="0.501961" points="108,19 120,20 117,23" />
<polygon fill="#042056" fill-opacity="0.501961" points="26,127 40,136 39,129" />
<polygon fill="#1b386a" fill-opacity="0.501961" points="69,129 73,115 68,122" />
<polygon fill="#161612" fill-opacity="0.501961" points="169,34 167,18 173,7" />
<polygon fill="#363728" fill-opacity="0.501961" points="161,93 166,87 150,95" />
<polygon fill="#303730" fill-opacity="0.501961" points="86,9 95,7 101,-16" />
<polygon fill="#3059a9" fill-opacity="0.501961" points="70,111 73,112 69,112" />
<polygon fill="#7c8ca7" fill-opacity="0.501961" points="87,136 78,132 84,132" />
<polygon fill="#465c85" fill-opacity="0.501961" points="57,121 62,121 62,115" />
<polygon fill="#143373" fill-opacity="0.501961" points="206,143 181,143 192,139" />
<polygon fill="#0b265b" fill-opacity="0.501961" points="67,124 69,117 73,120" />
<polygon fill="#0c0d0a" fill-opacity="0.501961" points="20,23 56,-16 14,10" />
<polygon fill="#001952" fill-opacity="0.501961" points="211,142 175,113 174,141" />
<polygon fill="#19397e" fill-opacity="0.501961" points="165,140 157,143 172,143" />
<polygon fill="#13357c" fill-opacity="0.501961" points="202,111 195,115 184,111" />
<polygon fill="#dedbe3" fill-opacity="0.501961" points="129,76 132,78 126,77" />
<polygon fill="#001952" fill-opacity="0.501961" points="203,113 184,112 181,139" />
<polygon fill="#030608" fill-opacity="0.501961" points="164,79 164,88 156,91" />
<polygon fill="#0e285b" fill-opacity="0.501961" points="156,136 172,136 173,113" />
<polygon fill="#151f28" fill-opacity="0.501961" points="124,73 69,57 116,56" />
<polygon fill="#424a43" fill-opacity="0.501961" points="153,25 164,14 153,-16" />
<polygon fill="#193973" fill-opacity="0.501961" points="44,115 35,111 57,110" />
<polygon fill="#40383b" fill-opacity="0.501961" points="130,84 126,82 128,78" />
<polygon fill="#3c3e31" fill-opacity="0.501961" points="68,28 100,29 84,33" />
<polygon fill="#011e57" fill-opacity="0.501961" points="37,139 35,112 40,124" />
<polygon fill="#0d1b29" fill-opacity="0.501961" points="148,71 139,96 149,96" />
<polygon fill="#8391a9" fill-opacity="0.501961" points="68,115 65,122 63,115" />
<polygon fill="#141f28" fill-opacity="0.501961" points="81,110 34,111 45,91" />
<polygon fill="#323224" fill-opacity="0.501961" points="135,100 144,97 147,102" />
<polygon fill="#0b2457" fill-opacity="0.501961" points="81,155 69,133 71,150" />
<polygon fill="#060d13" fill-opacity="0.501961" points="21,41 41,47 62,41" />
<polygon fill="#070810" fill-opacity="0.501961" points="64,160 19,143 81,143" />
<polygon fill="#1a2226" fill-opacity="0.501961" points="99,59 125,67 101,77" />
<polygon fill="#1d1f1b" fill-opacity="0.501961" points="70,-12 30,15 42,22" />
<polygon fill="#3c4849" fill-opacity="0.501961" points="88,70 91,81 87,75" />
<polygon fill="#030504" fill-opacity="0.501961" points="44,71 71,62 63,98" />
<polygon fill="#14357c" fill-opacity="0.501961" points="37,143 53,143 44,140" />
<polygon fill="#342f20" fill-opacity="0.501961" points="150,65 152,77 154,57" />
<polygon fill="#6e7272" fill-opacity="0.501961" points="112,18 115,17 112,12" />
<polygon fill="#202019" fill-opacity="0.501961" points="94,29 91,36 80,34" />
<polygon fill="#000000" fill-opacity="0.501961" points="29,-16 -16,67 -3,-8" />
<polygon fill="#000000" fill-opacity="0.501961" points="3,106 -16,125 5,160" />
<polygon fill="#1f201a" fill-opacity="0.501961" points="91,22 51,34 62,21" />
<polygon fill="#03205b" fill-opacity="0.501961" points="154,112 111,118 152,125" />
<polygon fill="#082458" fill-opacity="0.501961" points="85,131 83,139 86,138" />
<polygon fill="#808489" fill-opacity="0.501961" points="141,73 143,82 140,79" />
<polygon fill="#343c35" fill-opacity="0.501961" points="69,9 70,23 79,22" />
<polygon fill="#001a53" fill-opacity="0.501961" points="165,112 225,141 243,112" />
<polygon fill="#131d27" fill-opacity="0.501961" points="109,63 123,80 102,104" />
<polygon fill="#2f3e3c" fill-opacity="0.501961" points="122,40 126,26 128,39" />
<polygon fill="#0c275b" fill-opacity="0.501961" points="69,119 82,122 70,123" />
<polygon fill="#2c2c21" fill-opacity="0.501961" points="154,111 154,87 147,110" />
<polygon fill="#2d3838" fill-opacity="0.501961" points="128,40 135,26 133,42" />
<polygon fill="#00164a" fill-opacity="0.501961" points="61,136 71,160 62,160" />
<polygon fill="#000000" fill-opacity="0.501961" points="36,96 57,79 23,87" />
<polygon fill="#1d3868" fill-opacity="0.501961" points="51,122 55,129 54,116" />
<polygon fill="#647798" fill-opacity="0.501961" points="52,121 61,115 62,121" />
<polygon fill="#00164e" fill-opacity="0.501961" points="162,142 184,136 146,136" />
<polygon fill="#8696ae" fill-opacity="0.501961" points="40,126 45,128 42,124" />
<polygon fill="#082666" fill-opacity="0.501961" points="251,135 242,143 253,142" />
<polygon fill="#535b62" fill-opacity="0.501961" points="63,9 62,16 70,11" />
<polygon fill="#021e56" fill-opacity="0.501961" points="7,125 18,113 41,125" />
<polygon fill="#0d141a" fill-opacity="0.501961" points="22,111 19,95 52,104" />
<polygon fill="#4a524a" fill-opacity="0.501961" points="104,20 116,-16 92,17" />
<polygon fill="#1c1d17" fill-opacity="0.501961" points="174,93 173,67 167,74" />
<polygon fill="#222629" fill-opacity="0.501961" points="140,70 134,65 141,77" />
<polygon fill="#6c5c36" fill-opacity="0.501961" points="141,61 145,66 144,61" />
<polygon fill="#353d3c" fill-opacity="0.501961" points="32,52 32,66 22,70" />
<polygon fill="#8191ac" fill-opacity="0.501961" points="59,130 61,126 61,128" />
<polygon fill="#0e1719" fill-opacity="0.501961" points="150,42 132,29 150,33" />
<polygon fill="#092559" fill-opacity="0.501961" points="80,120 83,123 81,113" />
<polygon fill="#4d5242" fill-opacity="0.501961" points="163,102 168,111 157,109" />
<polygon fill="#2f281d" fill-opacity="0.501961" points="57,30 74,22 59,22" />
<polygon fill="#131d24" fill-opacity="0.501961" points="55,66 79,46 24,44" />
<polygon fill="#192228" fill-opacity="0.501961" points="108,80 125,71 98,73" />
<polygon fill="#090b0a" fill-opacity="0.501961" points="66,70 57,74 38,60" />
<polygon fill="#141f27" fill-opacity="0.501961" points="87,96 68,86 87,80" />
<polygon fill="#090907" fill-opacity="0.501961" points="39,24 13,10 20,42" />
<polygon fill="#ab894f" fill-opacity="0.501961" points="142,68 142,63 139,63" />
<polygon fill="#000000" fill-opacity="0.501961" points="69,74 68,84 38,92" />
<polygon fill="#2e2e25" fill-opacity="0.501961" points="62,21 45,8 49,21" />
<polygon fill="#001850" fill-opacity="0.501961" points="251,112 251,137 240,113" />
<polygon fill="#1c3d7a" fill-opacity="0.501961" points="50,111 71,110 59,114" />
<polygon fill="#141916" fill-opacity="0.501961" points="73,29 35,42 35,29" />
<polygon fill="#444131" fill-opacity="0.501961" points="102,29 109,33 94,32" />
<polygon fill="#3d463f" fill-opacity="0.501961" points="111,9 92,19 111,19" />
<polygon fill="#141f27" fill-opacity="0.501961" points="57,46 133,47 72,64" />
<polygon fill="#171a18" fill-opacity="0.501961" points="118,30 100,44 100,35" />
<polygon fill="#213b6b" fill-opacity="0.501961" points="49,123 46,124 47,129" />
<polygon fill="#131713" fill-opacity="0.501961" points="148,29 155,42 152,16" />
<polygon fill="#4b5149" fill-opacity="0.501961" points="154,16 166,7 166,15" />
<polygon fill="#313e3e" fill-opacity="0.501961" points="83,65 95,64 83,82" />
<polygon fill="#101310" fill-opacity="0.501961" points="143,31 154,28 151,38" />
<polygon fill="#111b23" fill-opacity="0.501961" points="58,90 76,102 94,95" />
<polygon fill="#323229" fill-opacity="0.501961" points="168,99 164,93 167,82" />
<polygon fill="#173676" fill-opacity="0.501961" points="132,143 139,140 149,143" />
<polygon fill="#81768a" fill-opacity="0.501961" points="130,71 127,75 128,76" />
<polygon fill="#060b0e" fill-opacity="0.501961" points="157,95 165,92 165,101" />
<polygon fill="#322c23" fill-opacity="0.501961" points="116,28 105,22 119,22" />
<polygon fill="#5c666c" fill-opacity="0.501961" points="128,21 127,16 134,16" />
<polygon fill="#40473f" fill-opacity="0.501961" points="112,-13 80,-16 68,12" />
<polygon fill="#495e82" fill-opacity="0.501961" points="35,136 34,133 32,138" />
<polygon fill="#0b0f10" fill-opacity="0.501961" points="163,53 163,63 154,66" />
<polygon fill="#6c7c9b" fill-opacity="0.501961" points="72,117 73,122 74,117" />
<polygon fill="#00164d" fill-opacity="0.501961" points="138,135 160,142 136,141" />
<polygon fill="#0f1920" fill-opacity="0.501961" points="41,58 29,71 44,71" />
<polygon fill="#133576" fill-opacity="0.501961" points="253,116 250,111 239,111" />
<polygon fill="#1e1e17" fill-opacity="0.501961" points="167,99 167,111 174,109" />
<polygon fill="#8493ad" fill-opacity="0.501961" points="86,134 91,134 91,136" />
<polygon fill="#001b53" fill-opacity="0.501961" points="49,112 10,124 5,112" />
<polygon fill="#c8cedc" fill-opacity="0.501961" points="132,74 126,77 130,77" />
<polygon fill="#4a5149" fill-opacity="0.501961" points="136,25 144,-16 154,5" />
<polygon fill="#afbac9" fill-opacity="0.501961" points="55,135 56,133 60,137" />
<polygon fill="#0e295c" fill-opacity="0.501961" points="119,136 134,130 153,136" />
<polygon fill="#001a52" fill-opacity="0.501961" points="5,119 8,142 36,139" />
<polygon fill="#465d84" fill-opacity="0.501961" points="31,120 32,116 35,118" />
<polygon fill="#062158" fill-opacity="0.501961" points="24,127 32,138 32,113" />
<polygon fill="#122c59" fill-opacity="0.501961" points="76,119 78,108 74,111" />
<polygon fill="#000c46" fill-opacity="0.501961" points="54,141 64,140 59,142" />
<polygon fill="#637898" fill-opacity="0.501961" points="84,115 70,115 76,119" />
<polygon fill="#121d25" fill-opacity="0.501961" points="27,102 52,92 74,111" />
<polygon fill="#00154b" fill-opacity="0.501961" points="250,112 236,112 250,117" />
<polygon fill="#141e28" fill-opacity="0.501961" points="92,108 73,110 85,94" />
<polygon fill="#000000" fill-opacity="0.501961" points="253,144 254,82 271,141" />
</g>
</svg>