<svg xmlns="http://www.w3.org/2000/svg" version="1.1" width="1024" height="580">
<rect x="0" y="0" width="1024" height="580" fill="#343748" />
<g transform="scale(4.000000) translate(0.5 0.5)">
<polygon fill="#fffff7" fill-opacity="0.501961" points="82,42 151,125 171,2" />
<polygon fill="#000000" fill-opacity="0.501961" points="137,-16 260,149 262,-5" />
<polygon fill="#000000" fill-opacity="0.501961" points="-16,2 4,160 100,-16" />
<polygon fill="#ffdeca" fill-opacity="0.501961" points="116,5 175,95 99,87" />
<polygon fill="#425d9d" fill-opacity="0.501961" points="185,160 207,57 48,138" />
<polygon fill="#000000" fill-opacity="0.501961" points="224,160 182,-16 271,4" />
<polygon fill="#6d6779" fill-opacity="0.501961" points="133,-16 199,40 76,48" />
<polygon fill="#0b3080" fill-opacity="0.501961" points="240,122 4,160 4,97" />
<polygon fill="#000000" fill-opacity="0.501961" points="-8,-16 -13,139 70,-2" />
<polygon fill="#25191c" fill-opacity="0.501961" points="110,103 66,-16 29,109" />
<polygon fill="#ffebda" fill-opacity="0.501961" points="129,101 101,43 171,57" />
<polygon fill="#827969" fill-opacity="0.501961" points="208,66 192,111 95,110" />
<polygon fill="#001773" fill-opacity="0.501961" points="169,134 248,107 259,160" />
<polygon fill="#000000" fill-opacity="0.501961" points="271,112 248,-16 196,108" />
<polygon fill="#6d7a94" fill-opacity="0.501961" points="54,123 96,112 57,98" />
<polygon fill="#a49292" fill-opacity="0.501961" points="170,24 137,66 185,45" />
<polygon fill="#9eb2ba" fill-opacity="0.501961" points="200,95 187,66 175,110" />
<polygon fill="#413535" fill-opacity="0.501961" points="140,93 171,61 183,76" />
<polygon fill="#000b3e" fill-opacity="0.501961" points="-5,145 45,92 58,144" />
<polygon fill="#000000" fill-opacity="0.501961" points="26,-16 43,111 -16,72" />
<polygon fill="#81222e" fill-opacity="0.501961" points="125,71 142,76 135,81" />
<polygon fill="#ffdec5" fill-opacity="0.501961" points="122,36 135,38 132,10" />
<polygon fill="#42414e" fill-opacity="0.501961" points="103,51 103,-15 43,59" />
<polygon fill="#38252e" fill-opacity="0.501961" points="150,50 214,74 212,50" />
<polygon fill="#778fb5" fill-opacity="0.501961" points="6,104 23,107 21,97" />
<polygon fill="#fffff4" fill-opacity="0.501961" points="155,45 164,38 166,52" />
<polygon fill="#16171c" fill-opacity="0.501961" points="90,110 57,78 136,99" />
<polygon fill="#001857" fill-opacity="0.501961" points="271,113 193,160 195,109" />
<polygon fill="#091117" fill-opacity="0.501961" points="129,35 114,38 135,43" />
<polygon fill="#9b7879" fill-opacity="0.501961" points="107,84 102,9 91,45" />
<polygon fill="#000000" fill-opacity="0.501961" points="271,141 184,-5 258,-16" />
<polygon fill="#373f51" fill-opacity="0.501961" points="191,22 160,31 148,-16" />
<polygon fill="#5f618e" fill-opacity="0.501961" points="166,160 200,91 124,160" />
<polygon fill="#b7c9e1" fill-opacity="0.501961" points="66,115 70,122 49,119" />
<polygon fill="#fff3df" fill-opacity="0.501961" points="106,71 125,93 112,30" />
<polygon fill="#6ec5ff" fill-opacity="0.501961" points="245,130 241,139 247,136" />
<polygon fill="#232027" fill-opacity="0.501961" points="189,49 174,112 172,65" />
<polygon fill="#fffff0" fill-opacity="0.501961" points="133,38 123,35 128,23" />
<polygon fill="#20141b" fill-opacity="0.501961" points="180,-13 226,100 184,47" />
<polygon fill="#ffeadc" fill-opacity="0.501961" points="143,70 113,67 142,39" />
<polygon fill="#30467d" fill-opacity="0.501961" points="184,143 104,118 171,100" />
<polygon fill="#000000" fill-opacity="0.501961" points="-11,126 -5,-16 57,-6" />
<polygon fill="#2f2733" fill-opacity="0.501961" points="94,31 50,123 42,36" />
<polygon fill="#ffebcb" fill-opacity="0.501961" points="120,36 120,24 109,36" />
<polygon fill="#83f6ff" fill-opacity="0.501961" points="197,83 188,102 192,78" />
<polygon fill="#3d4558" fill-opacity="0.501961" points="153,-16 120,32 108,-16" />
<polygon fill="#b27361" fill-opacity="0.501961" points="102,66 121,95 100,84" />
<polygon fill="#5d6178" fill-opacity="0.501961" points="181,29 181,62 148,1" />
<polygon fill="#1c131b" fill-opacity="0.501961" points="101,59 38,101 96,96" />
<polygon fill="#32303c" fill-opacity="0.501961" points="170,64 154,86 161,66" />
<polygon fill="#9b838f" fill-opacity="0.501961" points="134,34 140,4 126,18" />
<polygon fill="#ffecdc" fill-opacity="0.501961" points="108,74 135,96 147,84" />
<polygon fill="#001c5e" fill-opacity="0.501961" points="4,106 89,142 6,142" />
<polygon fill="#696f89" fill-opacity="0.501961" points="96,52 95,25 125,6" />
<polygon fill="#7e757d" fill-opacity="0.501961" points="174,98 139,94 167,72" />
<polygon fill="#e6f6fa" fill-opacity="0.501961" points="166,57 151,59 167,66" />
<polygon fill="#bd816c" fill-opacity="0.501961" points="146,57 130,60 155,63" />
<polygon fill="#4f5668" fill-opacity="0.501961" points="169,71 182,31 168,45" />
<polygon fill="#fff5d3" fill-opacity="0.501961" points="94,57 100,60 90,49" />
<polygon fill="#726267" fill-opacity="0.501961" points="181,102 189,64 198,71" />
<polygon fill="#1a3e85" fill-opacity="0.501961" points="29,97 30,113 13,97" />
<polygon fill="#000000" fill-opacity="0.501961" points="254,160 271,99 253,63" />
<polygon fill="#534e4a" fill-opacity="0.501961" points="62,99 102,110 49,110" />
<polygon fill="#fff3e3" fill-opacity="0.501961" points="157,74 127,54 148,83" />
<polygon fill="#254384" fill-opacity="0.501961" points="82,160 172,111 71,111" />
<polygon fill="#ae7072" fill-opacity="0.501961" points="126,70 146,79 132,82" />
<polygon fill="#675457" fill-opacity="0.501961" points="198,108 188,114 198,79" />
<polygon fill="#000000" fill-opacity="0.501961" points="5,156 -16,143 3,77" />
<polygon fill="#321e2b" fill-opacity="0.501961" points="115,90 121,92 110,80" />
<polygon fill="#000000" fill-opacity="0.501961" points="199,143 245,144 192,157" />
<polygon fill="#3d7cff" fill-opacity="0.501961" points="240,132 250,132 246,139" />
<polygon fill="#160d0b" fill-opacity="0.501961" points="30,39 53,110 30,109" />
<polygon fill="#2b3442" fill-opacity="0.501961" points="96,14 162,0 81,-13" />
<polygon fill="#0e347c" fill-opacity="0.501961" points="12,98 5,113 4,96" />
<polygon fill="#b0ccd9" fill-opacity="0.501961" points="142,95 133,102 134,107" />
<polygon fill="#152336" fill-opacity="0.501961" points="159,50 159,55 151,49" />
<polygon fill="#fdded1" fill-opacity="0.501961" points="133,97 137,79 105,65" />
<polygon fill="#8786af" fill-opacity="0.501961" points="148,6 160,23 144,55" />
<polygon fill="#8d9ec7" fill-opacity="0.501961" points="153,160 136,160 155,133" />
<polygon fill="#f0c3a9" fill-opacity="0.501961" points="166,49 147,48 167,35" />
<polygon fill="#0a2d73" fill-opacity="0.501961" points="13,111 57,127 54,112" />
<polygon fill="#22131b" fill-opacity="0.501961" points="201,15 209,107 224,58" />
<polygon fill="#9190b1" fill-opacity="0.501961" points="170,55 176,38 171,25" />
<polygon fill="#584f50" fill-opacity="0.501961" points="142,91 174,106 148,111" />
<polygon fill="#372c38" fill-opacity="0.501961" points="75,87 41,93 67,12" />
<polygon fill="#001e5b" fill-opacity="0.501961" points="195,111 245,111 239,152" />
<polygon fill="#82829c" fill-opacity="0.501961" points="177,44 183,34 180,59" />
<polygon fill="#1a1d20" fill-opacity="0.501961" points="178,38 174,51 178,59" />
<polygon fill="#cec6c0" fill-opacity="0.501961" points="181,83 187,77 188,64" />
<polygon fill="#0c0100" fill-opacity="0.501961" points="66,143 32,160 -16,143" />
<polygon fill="#000000" fill-opacity="0.501961" points="257,-2 271,93 169,-12" />
<polygon fill="#757f91" fill-opacity="0.501961" points="131,116 136,126 127,125" />
<polygon fill="#78929d" fill-opacity="0.501961" points="131,45 107,41 120,48" />
<polygon fill="#594c57" fill-opacity="0.501961" points="159,41 164,20 152,42" />
<polygon fill="#fce3d4" fill-opacity="0.501961" points="111,78 118,40 123,92" />
<polygon fill="#7f6a6b" fill-opacity="0.501961" points="195,111 186,93 177,108" />
<polygon fill="#000000" fill-opacity="0.501961" points="-16,95 24,97 11,-16" />
<polygon fill="#f2ede5" fill-opacity="0.501961" points="141,50 127,56 141,37" />
<polygon fill="#7493a2" fill-opacity="0.501961" points="150,50 155,59 162,55" />
<polygon fill="#7a7c93" fill-opacity="0.501961" points="104,9 96,32 105,38" />
<polygon fill="#3f4654" fill-opacity="0.501961" points="118,90 128,110 130,97" />
<polygon fill="#2e313b" fill-opacity="0.501961" points="126,-16 189,29 169,-16" />
<polygon fill="#918393" fill-opacity="0.501961" points="123,5 121,23 104,36" />
<polygon fill="#58678c" fill-opacity="0.501961" points="63,142 141,143 78,160" />
<polygon fill="#f1dbcf" fill-opacity="0.501961" points="153,57 108,61 105,43" />
<polygon fill="#052d73" fill-opacity="0.501961" points="253,144 245,126 252,112" />
<polygon fill="#333c49" fill-opacity="0.501961" points="121,1 110,-6 105,34" />
<polygon fill="#7a889e" fill-opacity="0.501961" points="11,100 14,107 25,100" />
<polygon fill="#ffe4d0" fill-opacity="0.501961" points="117,25 108,38 120,33" />
<polygon fill="#6e6373" fill-opacity="0.501961" points="134,21 145,46 142,11" />
<polygon fill="#000000" fill-opacity="0.501961" points="260,-16 271,109 218,110" />
<polygon fill="#151c23" fill-opacity="0.501961" points="63,17 79,56 80,-14" />
<polygon fill="#1f2831" fill-opacity="0.501961" points="94,83 97,110 128,99" />
<polygon fill="#7c757d" fill-opacity="0.501961" points="170,101 173,77 132,98" />
<polygon fill="#323238" fill-opacity="0.501961" points="169,39 165,59 172,56" />
<polygon fill="#313d75" fill-opacity="0.501961" points="192,127 139,140 196,143" />
<polygon fill="#27242d" fill-opacity="0.501961" points="159,71 169,63 174,77" />
<polygon fill="#2c4e96" fill-opacity="0.501961" points="175,121 149,111 207,112" />
<polygon fill="#1d3875" fill-opacity="0.501961" points="41,143 82,111 142,139" />
<polygon fill="#d3aa93" fill-opacity="0.501961" points="188,104 192,105 185,110" />
<polygon fill="#9f9998" fill-opacity="0.501961" points="123,52 112,42 119,38" />
<polygon fill="#b08a82" fill-opacity="0.501961" points="99,85 96,82 111,77" />
<polygon fill="#9c6352" fill-opacity="0.501961" points="91,39 107,60 93,51" />
<polygon fill="#fcf1e5" fill-opacity="0.501961" points="154,80 132,96 160,58" />
<polygon fill="#2a1d27" fill-opacity="0.501961" points="211,63 190,25 179,64" />
<polygon fill="#b1bdd2" fill-opacity="0.501961" points="69,115 65,120 58,115" />
<polygon fill="#031d56" fill-opacity="0.501961" points="255,110 192,113 196,148" />
<polygon fill="#624b4d" fill-opacity="0.501961" points="118,29 121,34 124,23" />
<polygon fill="#222e34" fill-opacity="0.501961" points="97,44 89,34 91,22" />
<polygon fill="#062d81" fill-opacity="0.501961" points="55,115 67,113 48,111" />
<polygon fill="#c8845a" fill-opacity="0.501961" points="148,143 150,156 185,143" />
<polygon fill="#050300" fill-opacity="0.501961" points="196,74 190,69 190,72" />
<polygon fill="#19161f" fill-opacity="0.501961" points="102,63 85,100 84,56" />
<polygon fill="#605762" fill-opacity="0.501961" points="154,81 166,100 165,76" />
<polygon fill="#2f3e62" fill-opacity="0.501961" points="57,105 62,105 63,122" />
<polygon fill="#9c8085" fill-opacity="0.501961" points="140,32 133,10 130,33" />
<polygon fill="#424c5d" fill-opacity="0.501961" points="80,41 83,20 108,5" />
<polygon fill="#23131a" fill-opacity="0.501961" points="216,110 197,110 212,49" />
<polygon fill="#8885a3" fill-opacity="0.501961" points="155,16 150,3 136,32" />
<polygon fill="#865f57" fill-opacity="0.501961" points="138,76 139,83 143,77" />
<polygon fill="#00164f" fill-opacity="0.501961" points="189,142 206,128 249,140" />
<polygon fill="#685555" fill-opacity="0.501961" points="99,32 108,29 103,48" />
<polygon fill="#060000" fill-opacity="0.501961" points="233,160 197,143 271,143" />
<polygon fill="#fde6d6" fill-opacity="0.501961" points="117,78 135,60 103,48" />
<polygon fill="#42434f" fill-opacity="0.501961" points="170,9 169,40 161,6" />
<polygon fill="#fdd6c1" fill-opacity="0.501961" points="101,58 100,62 92,54" />
<polygon fill="#000008" fill-opacity="0.501961" points="122,40 129,39 119,36" />
<polygon fill="#000000" fill-opacity="0.501961" points="107,-16 -16,-12 0,40" />
<polygon fill="#00010b" fill-opacity="0.501961" points="16,107 16,89 25,77" />
<polygon fill="#251e28" fill-opacity="0.501961" points="54,103 49,23 36,87" />
<polygon fill="#191219" fill-opacity="0.501961" points="170,74 176,54 176,81" />
<polygon fill="#5e626e" fill-opacity="0.501961" points="173,65 164,68 173,55" />
<polygon fill="#f7e7d7" fill-opacity="0.501961" points="150,78 130,97 122,89" />
<polygon fill="#fffff0" fill-opacity="0.501961" points="112,41 108,39 109,36" />
<polygon fill="#b88575" fill-opacity="0.501961" points="154,66 144,57 136,60" />
<polygon fill="#31363e" fill-opacity="0.501961" points="167,105 174,108 179,81" />
<polygon fill="#ffefdd" fill-opacity="0.501961" points="164,52 165,44 154,45" />
<polygon fill="#203f80" fill-opacity="0.501961" points="162,112 103,140 147,143" />
<polygon fill="#2f3540" fill-opacity="0.501961" points="156,18 153,-16 163,-10" />
<polygon fill="#2e2531" fill-opacity="0.501961" points="93,23 82,89 55,91" />
<polygon fill="#00174f" fill-opacity="0.501961" points="24,98 39,134 23,142" />
<polygon fill="#110a0e" fill-opacity="0.501961" points="192,40 228,43 180,-5" />
<polygon fill="#524a43" fill-opacity="0.501961" points="143,144 55,143 90,160" />
<polygon fill="#ac7565" fill-opacity="0.501961" points="100,55 102,79 113,87" />
<polygon fill="#b48070" fill-opacity="0.501961" points="92,40 91,55 99,55" />
<polygon fill="#5f5d6b" fill-opacity="0.501961" points="199,99 197,77 190,113" />
<polygon fill="#80e4fd" fill-opacity="0.501961" points="190,102 188,94 193,90" />
<polygon fill="#b9b7b2" fill-opacity="0.501961" points="187,64 185,75 192,64" />
<polygon fill="#d3c8bf" fill-opacity="0.501961" points="131,56 154,47 141,58" />
<polygon fill="#2d252f" fill-opacity="0.501961" points="204,71 185,28 183,60" />
<polygon fill="#8b87a1" fill-opacity="0.501961" points="154,41 144,54 150,11" />
<polygon fill="#9b9b9c" fill-opacity="0.501961" points="166,92 170,87 170,103" />
<polygon fill="#b58c7c" fill-opacity="0.501961" points="130,84 131,87 135,89" />
<polygon fill="#617494" fill-opacity="0.501961" points="8,107 25,107 22,100" />
<polygon fill="#f0cab1" fill-opacity="0.501961" points="140,38 126,36 136,41" />
<polygon fill="#000000" fill-opacity="0.501961" points="-16,89 3,42 4,160" />
<polygon fill="#f1f7fa" fill-opacity="0.501961" points="149,143 188,151 138,160" />
<polygon fill="#5a5a6b" fill-opacity="0.501961" points="189,90 178,109 184,111" />
<polygon fill="#4c84ff" fill-opacity="0.501961" points="246,130 243,138 241,132" />
<polygon fill="#7e88aa" fill-opacity="0.501961" points="123,21 135,7 131,17" />
<polygon fill="#00174f" fill-opacity="0.501961" points="208,117 251,121 233,141" />
<polygon fill="#4a5d92" fill-opacity="0.501961" points="152,137 182,117 175,108" />
<polygon fill="#001c56" fill-opacity="0.501961" points="62,140 8,143 4,103" />
<polygon fill="#d5e6eb" fill-opacity="0.501961" points="119,45 142,48 126,54" />
<polygon fill="#343a47" fill-opacity="0.501961" points="177,40 178,11 169,11" />
<polygon fill="#8d8fb0" fill-opacity="0.501961" points="96,38 102,50 99,25" />
<polygon fill="#72758a" fill-opacity="0.501961" points="172,20 167,12 172,29" />
<polygon fill="#162e6b" fill-opacity="0.501961" points="166,132 175,132 184,113" />
<polygon fill="#fae1ce" fill-opacity="0.501961" points="124,32 129,21 128,37" />
<polygon fill="#736b78" fill-opacity="0.501961" points="189,73 201,86 204,74" />
<polygon fill="#223d7b" fill-opacity="0.501961" points="113,139 68,113 131,112" />
<polygon fill="#10171d" fill-opacity="0.501961" points="49,10 108,-16 44,36" />
<polygon fill="#313b44" fill-opacity="0.501961" points="79,40 93,69 88,31" />
<polygon fill="#362e39" fill-opacity="0.501961" points="46,70 75,82 71,15" />
<polygon fill="#2e3237" fill-opacity="0.501961" points="89,58 100,62 101,74" />
<polygon fill="#858eaf" fill-opacity="0.501961" points="140,28 133,21 137,10" />
<polygon fill="#615d67" fill-opacity="0.501961" points="183,110 191,100 186,102" />
<polygon fill="#b06e5a" fill-opacity="0.501961" points="165,33 169,35 167,49" />
<polygon fill="#000000" fill-opacity="0.501961" points="252,160 271,144 254,100" />
<polygon fill="#001750" fill-opacity="0.501961" points="19,98 28,108 30,103" />
<polygon fill="#010000" fill-opacity="0.501961" points="32,97 27,60 -16,97" />
<polygon fill="#fee7d8" fill-opacity="0.501961" points="156,77 147,63 108,64" />
<polygon fill="#292c37" fill-opacity="0.501961" points="150,-16 177,27 169,-8" />
<polygon fill="#b8b2b3" fill-opacity="0.501961" points="185,86 181,92 182,81" />
<polygon fill="#140f13" fill-opacity="0.501961" points="64,82 59,65 59,93" />
<polygon fill="#908a90" fill-opacity="0.501961" points="154,99 160,98 152,82" />
<polygon fill="#a0fbff" fill-opacity="0.501961" points="189,94 194,87 193,81" />
<polygon fill="#b1765e" fill-opacity="0.501961" points="130,25 136,38 133,12" />
<polygon fill="#b6bfc6" fill-opacity="0.501961" points="34,118 33,116 34,116" />
<polygon fill="#8685a2" fill-opacity="0.501961" points="157,33 160,14 145,46" />
<polygon fill="#9f5e61" fill-opacity="0.501961" points="129,73 127,75 131,79" />
<polygon fill="#5d729a" fill-opacity="0.501961" points="117,107 117,112 134,111" />
<polygon fill="#898daf" fill-opacity="0.501961" points="109,27 113,16 117,17" />
<polygon fill="#333a48" fill-opacity="0.501961" points="165,11 160,1 160,27" />
<polygon fill="#060300" fill-opacity="0.501961" points="33,97 41,111 30,111" />
<polygon fill="#817c8f" fill-opacity="0.501961" points="145,38 139,24 166,45" />
<polygon fill="#22417d" fill-opacity="0.501961" points="12,109 23,109 9,114" />
<polygon fill="#110910" fill-opacity="0.501961" points="97,70 92,96 78,97" />
<polygon fill="#6574a5" fill-opacity="0.501961" points="176,130 183,128 185,115" />
<polygon fill="#fde8d5" fill-opacity="0.501961" points="164,34 165,53 161,44" />
<polygon fill="#d0b4a9" fill-opacity="0.501961" points="126,52 124,55 132,54" />
<polygon fill="#4e5a6f" fill-opacity="0.501961" points="125,5 126,12 115,21" />
<polygon fill="#3f4655" fill-opacity="0.501961" points="98,11 91,19 94,41" />
<polygon fill="#9592af" fill-opacity="0.501961" points="181,37 179,31 181,33" />
<polygon fill="#394047" fill-opacity="0.501961" points="152,111 139,107 166,107" />
<polygon fill="#212b32" fill-opacity="0.501961" points="177,1 192,27 184,43" />
<polygon fill="#384251" fill-opacity="0.501961" points="139,4 148,-8 142,17" />
<polygon fill="#83a1ac" fill-opacity="0.501961" points="128,48 127,42 116,47" />
<polygon fill="#997d79" fill-opacity="0.501961" points="123,95 106,88 106,81" />
<polygon fill="#8d9297" fill-opacity="0.501961" points="133,99 147,104 141,91" />
<polygon fill="#856d67" fill-opacity="0.501961" points="117,43 103,38 103,43" />
<polygon fill="#f8f7f2" fill-opacity="0.501961" points="125,51 141,45 140,54" />
<polygon fill="#132c69" fill-opacity="0.501961" points="84,137 49,139 48,119" />
<polygon fill="#2e3238" fill-opacity="0.501961" points="110,109 79,99 93,111" />
<polygon fill="#1f232b" fill-opacity="0.501961" points="46,30 64,17 60,49" />
<polygon fill="#26386d" fill-opacity="0.501961" points="181,127 178,159 195,114" />
<polygon fill="#10080b" fill-opacity="0.501961" points="230,108 199,110 223,70" />
<polygon fill="#283246" fill-opacity="0.501961" points="153,56 156,50 161,52" />
<polygon fill="#00174e" fill-opacity="0.501961" points="251,112 252,137 241,120" />
<polygon fill="#7b7586" fill-opacity="0.501961" points="166,26 164,35 163,17" />
<polygon fill="#6a504b" fill-opacity="0.501961" points="135,33 143,34 137,36" />
<polygon fill="#c2bcba" fill-opacity="0.501961" points="180,93 178,100 181,98" />
<polygon fill="#00164f" fill-opacity="0.501961" points="6,125 40,114 5,112" />
<polygon fill="#747388" fill-opacity="0.501961" points="98,52 97,40 109,63" />
<polygon fill="#885a55" fill-opacity="0.501961" points="138,73 127,73 145,79" />
<polygon fill="#2a1d26" fill-opacity="0.501961" points="209,100 211,65 199,96" />
<polygon fill="#3b3c44" fill-opacity="0.501961" points="174,108 173,98 162,109" />
<polygon fill="#756d76" fill-opacity="0.501961" points="174,93 170,79 162,75" />
<polygon fill="#3b303c" fill-opacity="0.501961" points="75,82 63,27 60,87" />
<polygon fill="#7e7573" fill-opacity="0.501961" points="192,65 187,69 195,68" />
<polygon fill="#103373" fill-opacity="0.501961" points="11,142 4,143 4,130" />
<polygon fill="#2a2932" fill-opacity="0.501961" points="161,67 176,63 160,74" />
<polygon fill="#af8074" fill-opacity="0.501961" points="100,68 117,92 101,85" />
<polygon fill="#52525d" fill-opacity="0.501961" points="51,111 82,106 67,101" />
<polygon fill="#fae5d5" fill-opacity="0.501961" points="153,79 159,67 117,66" />
<polygon fill="#f9e0d2" fill-opacity="0.501961" points="104,54 107,44 140,63" />
<polygon fill="#d68c70" fill-opacity="0.501961" points="121,33 118,29 120,21" />
<polygon fill="#f7e2d3" fill-opacity="0.501961" points="128,37 129,32 122,35" />
<polygon fill="#262b37" fill-opacity="0.501961" points="88,3 150,-1 92,-16" />
<polygon fill="#bc9794" fill-opacity="0.501961" points="185,107 186,112 191,108" />
<polygon fill="#0b2869" fill-opacity="0.501961" points="222,119 251,112 214,111" />
<polygon fill="#382b38" fill-opacity="0.501961" points="200,56 177,71 188,54" />
<polygon fill="#333c4c" fill-opacity="0.501961" points="77,29 95,14 87,2" />
<polygon fill="#6c83ab" fill-opacity="0.501961" points="72,117 73,121 66,120" />
<polygon fill="#73778d" fill-opacity="0.501961" points="100,26 108,11 103,35" />
<polygon fill="#0f2f70" fill-opacity="0.501961" points="74,126 69,120 70,116" />
<polygon fill="#1e2125" fill-opacity="0.501961" points="52,99 66,110 55,95" />
<polygon fill="#001850" fill-opacity="0.501961" points="250,114 238,137 214,112" />
<polygon fill="#b5a7a0" fill-opacity="0.501961" points="149,51 157,54 142,53" />
<polygon fill="#595f6c" fill-opacity="0.501961" points="168,62 173,56 168,72" />
<polygon fill="#fbe6d7" fill-opacity="0.501961" points="123,63 116,85 106,66" />
<polygon fill="#384252" fill-opacity="0.501961" points="133,2 129,-16 122,26" />
<polygon fill="#7f7e98" fill-opacity="0.501961" points="171,55 170,24 175,39" />
<polygon fill="#3c3d45" fill-opacity="0.501961" points="165,16 171,36 165,30" />
<polygon fill="#66626c" fill-opacity="0.501961" points="139,110 146,87 157,103" />
<polygon fill="#5e6c78" fill-opacity="0.501961" points="129,97 134,99 138,96" />
<polygon fill="#244180" fill-opacity="0.501961" points="131,113 141,134 175,112" />
<polygon fill="#8787a8" fill-opacity="0.501961" points="155,18 146,50 144,12" />
<polygon fill="#835c55" fill-opacity="0.501961" points="92,38 101,53 95,52" />
<polygon fill="#000000" fill-opacity="0.501961" points="271,52 271,110 220,110" />
<polygon fill="#69828b" fill-opacity="0.501961" points="123,41 136,44 130,46" />
<polygon fill="#00124f" fill-opacity="0.501961" points="5,98 9,104 6,107" />
<polygon fill="#6f6c7b" fill-opacity="0.501961" points="188,105 182,97 187,76" />
<polygon fill="#3d4450" fill-opacity="0.501961" points="174,80 179,92 182,81" />
<polygon fill="#1b212a" fill-opacity="0.501961" points="94,84 118,104 110,91" />
<polygon fill="#1e3e77" fill-opacity="0.501961" points="4,103 8,112 4,116" />
<polygon fill="#525869" fill-opacity="0.501961" points="100,31 106,16 102,11" />
<polygon fill="#d59882" fill-opacity="0.501961" points="166,36 164,39 166,32" />
<polygon fill="#233e7b" fill-opacity="0.501961" points="120,114 139,142 77,138" />
<polygon fill="#89848b" fill-opacity="0.501961" points="163,98 148,87 153,81" />
<polygon fill="#515767" fill-opacity="0.501961" points="155,26 155,14 159,15" />
<polygon fill="#6d4b47" fill-opacity="0.501961" points="176,160 190,143 142,145" />
<polygon fill="#876e74" fill-opacity="0.501961" points="118,23 111,31 116,20" />
<polygon fill="#5c71a3" fill-opacity="0.501961" points="150,137 152,142 160,127" />
<polygon fill="#291e2a" fill-opacity="0.501961" points="89,85 82,44 69,91" />
<polygon fill="#5e494b" fill-opacity="0.501961" points="116,41 113,36 116,37" />
<polygon fill="#ffe9db" fill-opacity="0.501961" points="112,36 114,32 120,34" />
<polygon fill="#777f9a" fill-opacity="0.501961" points="139,10 133,15 141,3" />
<polygon fill="#112e67" fill-opacity="0.501961" points="32,113 24,106 18,110" />
<polygon fill="#576a97" fill-opacity="0.501961" points="93,108 94,111 102,112" />
<polygon fill="#686d83" fill-opacity="0.501961" points="174,36 175,31 176,37" />
<polygon fill="#77798f" fill-opacity="0.501961" points="178,28 182,32 178,24" />
<polygon fill="#fff9e8" fill-opacity="0.501961" points="115,36 119,36 116,35" />
<polygon fill="#685e69" fill-opacity="0.501961" points="193,101 201,90 201,72" />
<polygon fill="#00174e" fill-opacity="0.501961" points="45,114 33,113 50,127" />
<polygon fill="#0b0e0d" fill-opacity="0.501961" points="75,144 14,160 -16,143" />
<polygon fill="#19326f" fill-opacity="0.501961" points="198,118 180,139 190,113" />
<polygon fill="#44477b" fill-opacity="0.501961" points="150,142 173,141 188,123" />
<polygon fill="#26447f" fill-opacity="0.501961" points="33,112 23,109 14,112" />
<polygon fill="#2a2f39" fill-opacity="0.501961" points="167,55 168,49 175,64" />
<polygon fill="#e3dad5" fill-opacity="0.501961" points="152,58 167,58 152,69" />
<polygon fill="#635960" fill-opacity="0.501961" points="159,106 169,101 162,95" />
<polygon fill="#0b0608" fill-opacity="0.501961" points="229,49 227,95 202,3" />
<polygon fill="#876d6d" fill-opacity="0.501961" points="143,28 141,20 137,32" />
<polygon fill="#183576" fill-opacity="0.501961" points="66,122 83,137 54,123" />
<polygon fill="#343845" fill-opacity="0.501961" points="188,34 178,13 186,20" />
<polygon fill="#5b6e8c" fill-opacity="0.501961" points="134,112 130,105 144,111" />
<polygon fill="#48629d" fill-opacity="0.501961" points="145,142 93,159 88,142" />
<polygon fill="#5c5654" fill-opacity="0.501961" points="87,143 107,160 136,143" />
<polygon fill="#372f3a" fill-opacity="0.501961" points="59,83 58,27 47,67" />
<polygon fill="#384052" fill-opacity="0.501961" points="137,-13 133,15 144,-8" />
<polygon fill="#475065" fill-opacity="0.501961" points="52,101 52,113 59,110" />
<polygon fill="#8482a0" fill-opacity="0.501961" points="181,35 183,48 178,40" />
<polygon fill="#0b080b" fill-opacity="0.501961" points="99,81 99,76 89,72" />
<polygon fill="#201922" fill-opacity="0.501961" points="179,74 175,61 168,73" />
<polygon fill="#8d8aa3" fill-opacity="0.501961" points="181,45 182,51 178,58" />
<polygon fill="#1c171a" fill-opacity="0.501961" points="37,89 55,100 44,107" />
<polygon fill="#898093" fill-opacity="0.501961" points="98,45 104,56 103,46" />
<polygon fill="#a1b4bd" fill-opacity="0.501961" points="140,105 137,95 135,105" />
<polygon fill="#001951" fill-opacity="0.501961" points="7,142 5,114 57,141" />
<polygon fill="#8285a1" fill-opacity="0.501961" points="102,15 97,25 101,25" />
<polygon fill="#6f7d99" fill-opacity="0.501961" points="133,118 128,118 127,123" />
<polygon fill="#aca3a0" fill-opacity="0.501961" points="131,33 127,29 123,29" />
<polygon fill="#0a2967" fill-opacity="0.501961" points="197,143 229,143 206,135" />
<polygon fill="#001952" fill-opacity="0.501961" points="222,119 245,142 191,142" />
<polygon fill="#2b1f29" fill-opacity="0.501961" points="206,60 191,64 206,73" />
<polygon fill="#2a2d35" fill-opacity="0.501961" points="100,76 101,64 90,62" />
<polygon fill="#1f171f" fill-opacity="0.501961" points="182,57 189,50 185,36" />
<polygon fill="#4867a3" fill-opacity="0.501961" points="178,110 179,117 155,110" />
<polygon fill="#264181" fill-opacity="0.501961" points="131,141 176,113 139,113" />
<polygon fill="#5d6676" fill-opacity="0.501961" points="190,103 197,95 197,83" />
<polygon fill="#f9e5d6" fill-opacity="0.501961" points="131,85 107,43 116,85" />
<polygon fill="#001e5f" fill-opacity="0.501961" points="20,97 26,100 12,99" />
<polygon fill="#5f6672" fill-opacity="0.501961" points="130,111 133,100 112,110" />
<polygon fill="#001953" fill-opacity="0.501961" points="4,112 33,113 37,142" />
<polygon fill="#8aabb6" fill-opacity="0.501961" points="149,55 158,55 157,59" />
<polygon fill="#e7a4ab" fill-opacity="0.501961" points="136,78 141,83 131,81" />
<polygon fill="#70656e" fill-opacity="0.501961" points="191,66 204,72 205,78" />
<polygon fill="#b0755f" fill-opacity="0.501961" points="166,30 164,36 164,31" />
<polygon fill="#cab3a6" fill-opacity="0.501961" points="136,46 132,44 139,44" />
</g>
</svg>