<svg xmlns="http://www.w3.org/2000/svg" version="1.1" width="1024" height="580">
<rect x="0" y="0" width="1024" height="580" fill="#181e2c" />
<g transform="scale(4.000000) translate(0.5 0.5)">
<polygon fill="#9b97a4" fill-opacity="0.501961" points="178,73 256,160 228,-16" />
<polygon fill="#000000" fill-opacity="0.501961" points="-13,-6 -10,111 258,-12" />
<polygon fill="#09338d" fill-opacity="0.501961" points="225,160 20,122 271,102" />
<polygon fill="#d2bebb" fill-opacity="0.501961" points="204,9 239,11 218,62" />
<polygon fill="#7e7968" fill-opacity="0.501961" points="89,65 132,47 133,110" />
<polygon fill="#000000" fill-opacity="0.501961" points="163,-16 -16,6 53,117" />
<polygon fill="#000000" fill-opacity="0.501961" points="164,118 209,-13 152,-16" />
<polygon fill="#fffff5" fill-opacity="0.501961" points="182,62 205,47 197,40" />
<polygon fill="#082e7c" fill-opacity="0.501961" points="154,155 3,93 5,145" />
<polygon fill="#000000" fill-opacity="0.501961" points="271,61 243,-16 226,56" />
<polygon fill="#000000" fill-opacity="0.501961" points="135,111 202,76 199,111" />
<polygon fill="#000000" fill-opacity="0.501961" points="29,110 119,109 -16,-16" />
<polygon fill="#000000" fill-opacity="0.501961" points="142,-7 220,57 182,-5" />
<polygon fill="#ffffec" fill-opacity="0.501961" points="207,33 217,48 235,35" />
<polygon fill="#41568a" fill-opacity="0.501961" points="205,84 191,142 269,160" />
<polygon fill="#aab7c4" fill-opacity="0.501961" points="120,132 100,123 126,123" />
<polygon fill="#000016" fill-opacity="0.501961" points="238,83 239,136 229,113" />
<polygon fill="#777073" fill-opacity="0.501961" points="247,57 249,111 230,59" />
<polygon fill="#000000" fill-opacity="0.501961" points="234,-16 256,130 271,7" />
<polygon fill="#8b9fbd" fill-opacity="0.501961" points="24,100 16,112 5,100" />
<polygon fill="#62738c" fill-opacity="0.501961" points="44,110 35,128 70,129" />
<polygon fill="#c0aaad" fill-opacity="0.501961" points="134,78 121,81 128,58" />
<polygon fill="#66686c" fill-opacity="0.501961" points="212,58 183,50 178,97" />
<polygon fill="#090807" fill-opacity="0.501961" points="228,58 202,51 252,46" />
<polygon fill="#000000" fill-opacity="0.501961" points="155,41 -16,-1 249,-16" />
<polygon fill="#000000" fill-opacity="0.501961" points="173,62 203,35 101,-16" />
<polygon fill="#000000" fill-opacity="0.501961" points="253,22 206,-8 271,-16" />
<polygon fill="#000d46" fill-opacity="0.501961" points="196,159 195,106 106,134" />
<polygon fill="#7c7b96" fill-opacity="0.501961" points="199,25 244,26 213,4" />
<polygon fill="#fffbdf" fill-opacity="0.501961" points="203,51 200,40 185,54" />
<polygon fill="#000000" fill-opacity="0.501961" points="115,0 -11,-3 122,69" />
<polygon fill="#00216a" fill-opacity="0.501961" points="51,111 80,131 147,111" />
<polygon fill="#000000" fill-opacity="0.501961" points="-16,114 115,46 5,-16" />
<polygon fill="#88b0ff" fill-opacity="0.501961" points="251,159 245,129 228,160" />
<polygon fill="#000000" fill-opacity="0.501961" points="198,111 162,111 201,75" />
<polygon fill="#746b65" fill-opacity="0.501961" points="200,111 233,111 204,51" />
<polygon fill="#313e3a" fill-opacity="0.501961" points="159,86 114,38 160,43" />
<polygon fill="#2c2b1f" fill-opacity="0.501961" points="87,78 108,109 136,79" />
<polygon fill="#001251" fill-opacity="0.501961" points="5,99 70,152 5,160" />
<polygon fill="#000000" fill-opacity="0.501961" points="271,70 255,-9 229,52" />
<polygon fill="#000000" fill-opacity="0.501961" points="31,110 108,111 29,-16" />
<polygon fill="#6c6668" fill-opacity="0.501961" points="235,11 221,37 241,31" />
<polygon fill="#5e5f50" fill-opacity="0.501961" points="106,86 87,62 111,53" />
<polygon fill="#1a3d88" fill-opacity="0.501961" points="252,147 190,111 252,111" />
<polygon fill="#000000" fill-opacity="0.501961" points="3,65 -16,117 4,149" />
<polygon fill="#5f5d65" fill-opacity="0.501961" points="249,119 247,63 224,47" />
<polygon fill="#ffebce" fill-opacity="0.501961" points="214,32 231,46 211,42" />
<polygon fill="#000000" fill-opacity="0.501961" points="173,96 148,8 201,-15" />
<polygon fill="#000000" fill-opacity="0.501961" points="251,160 271,84 250,51" />
<polygon fill="#6b6c76" fill-opacity="0.501961" points="188,91 189,49 177,86" />
<polygon fill="#000000" fill-opacity="0.501961" points="202,30 215,52 207,51" />
<polygon fill="#5b6f8c" fill-opacity="0.501961" points="100,122 108,129 91,131" />
<polygon fill="#00164f" fill-opacity="0.501961" points="162,132 0,129 84,154" />
<polygon fill="#000000" fill-opacity="0.501961" points="176,6 271,6 233,-16" />
<polygon fill="#ffd2b1" fill-opacity="0.501961" points="199,42 206,52 203,39" />
<polygon fill="#99a1a6" fill-opacity="0.501961" points="81,130 83,123 88,130" />
<polygon fill="#3b3a3d" fill-opacity="0.501961" points="197,57 202,75 183,93" />
<polygon fill="#6490ed" fill-opacity="0.501961" points="241,130 251,131 243,148" />
<polygon fill="#000000" fill-opacity="0.501961" points="233,111 237,85 240,108" />
<polygon fill="#ab8588" fill-opacity="0.501961" points="128,53 119,61 134,61" />
<polygon fill="#345aa5" fill-opacity="0.501961" points="29,97 29,108 7,97" />
<polygon fill="#001d56" fill-opacity="0.501961" points="97,110 190,110 200,160" />
<polygon fill="#1c3878" fill-opacity="0.501961" points="252,114 253,135 215,112" />
<polygon fill="#00124a" fill-opacity="0.501961" points="129,122 50,123 84,110" />
<polygon fill="#9791ae" fill-opacity="0.501961" points="201,22 234,10 219,5" />
<polygon fill="#686f59" fill-opacity="0.501961" points="151,59 159,53 148,44" />
<polygon fill="#95a3b7" fill-opacity="0.501961" points="130,129 104,128 114,124" />
<polygon fill="#aeb7bf" fill-opacity="0.501961" points="25,106 16,100 10,105" />
<polygon fill="#000000" fill-opacity="0.501961" points="126,28 195,43 204,11" />
<polygon fill="#151f24" fill-opacity="0.501961" points="82,64 157,43 133,32" />
<polygon fill="#000000" fill-opacity="0.501961" points="146,110 188,105 169,75" />
<polygon fill="#6a7f6f" fill-opacity="0.501961" points="118,71 121,90 108,67" />
<polygon fill="#ff9960" fill-opacity="0.501961" points="231,74 229,78 220,74" />
<polygon fill="#1e323e" fill-opacity="0.501961" points="153,88 136,107 130,35" />
<polygon fill="#f9d4bf" fill-opacity="0.501961" points="228,48 209,40 228,32" />
<polygon fill="#7689a8" fill-opacity="0.501961" points="60,115 50,121 37,117" />
<polygon fill="#1f1c13" fill-opacity="0.501961" points="193,59 209,52 203,50" />
<polygon fill="#64666e" fill-opacity="0.501961" points="213,96 229,55 184,52" />
<polygon fill="#041d59" fill-opacity="0.501961" points="213,141 244,124 236,140" />
<polygon fill="#341003" fill-opacity="0.501961" points="99,69 86,73 96,96" />
<polygon fill="#050000" fill-opacity="0.501961" points="163,144 95,143 103,160" />
<polygon fill="#8f91a9" fill-opacity="0.501961" points="201,32 216,8 206,12" />
<polygon fill="#2a292f" fill-opacity="0.501961" points="215,57 211,45 239,57" />
<polygon fill="#7e8da2" fill-opacity="0.501961" points="63,130 51,130 52,125" />
<polygon fill="#060000" fill-opacity="0.501961" points="-7,143 35,155 77,144" />
<polygon fill="#000000" fill-opacity="0.501961" points="199,76 202,98 178,111" />
<polygon fill="#001853" fill-opacity="0.501961" points="32,147 24,101 40,122" />
<polygon fill="#c6c1cf" fill-opacity="0.501961" points="131,79 122,74 128,70" />
<polygon fill="#000000" fill-opacity="0.501961" points="209,40 163,32 185,2" />
<polygon fill="#ffffea" fill-opacity="0.501961" points="224,30 227,27 222,27" />
<polygon fill="#1d2119" fill-opacity="0.501961" points="110,77 106,105 124,101" />
<polygon fill="#503e31" fill-opacity="0.501961" points="126,63 135,69 114,67" />
<polygon fill="#000000" fill-opacity="0.501961" points="-10,95 4,-16 98,100" />
<polygon fill="#f0d4b5" fill-opacity="0.501961" points="271,160 186,160 244,142" />
<polygon fill="#07255e" fill-opacity="0.501961" points="41,111 110,129 116,110" />
<polygon fill="#001048" fill-opacity="0.501961" points="43,118 51,124 52,135" />
<polygon fill="#696463" fill-opacity="0.501961" points="197,110 239,111 201,99" />
<polygon fill="#001b56" fill-opacity="0.501961" points="31,136 16,132 15,99" />
<polygon fill="#000000" fill-opacity="0.501961" points="264,3 229,46 271,79" />
<polygon fill="#70829f" fill-opacity="0.501961" points="42,115 48,128 40,131" />
<polygon fill="#ffeedc" fill-opacity="0.501961" points="187,52 205,49 199,43" />
<polygon fill="#79857c" fill-opacity="0.501961" points="108,66 108,80 102,83" />
<polygon fill="#20271e" fill-opacity="0.501961" points="111,53 122,83 121,44" />
<polygon fill="#070000" fill-opacity="0.501961" points="70,143 131,160 192,143" />
<polygon fill="#000000" fill-opacity="0.501961" points="119,-12 268,-7 194,11" />
<polygon fill="#697a95" fill-opacity="0.501961" points="95,126 108,123 109,129" />
<polygon fill="#705e59" fill-opacity="0.501961" points="238,30 221,32 235,38" />
<polygon fill="#162a3b" fill-opacity="0.501961" points="139,87 114,91 146,74" />
<polygon fill="#f6e1ce" fill-opacity="0.501961" points="220,30 208,38 223,41" />
<polygon fill="#000e46" fill-opacity="0.501961" points="87,119 95,117 97,140" />
<polygon fill="#57678d" fill-opacity="0.501961" points="197,143 235,141 252,160" />
<polygon fill="#a6b2c4" fill-opacity="0.501961" points="124,124 118,126 124,130" />
<polygon fill="#89859e" fill-opacity="0.501961" points="218,35 217,7 209,9" />
<polygon fill="#655654" fill-opacity="0.501961" points="215,30 225,23 221,19" />
<polygon fill="#373743" fill-opacity="0.501961" points="235,86 241,78 221,78" />
<polygon fill="#767f8c" fill-opacity="0.501961" points="185,53 182,72 197,51" />
<polygon fill="#000000" fill-opacity="0.501961" points="-16,84 3,150 3,62" />
<polygon fill="#796e68" fill-opacity="0.501961" points="239,103 249,103 242,113" />
<polygon fill="#24281c" fill-opacity="0.501961" points="150,57 166,80 146,111" />
<polygon fill="#75584f" fill-opacity="0.501961" points="228,42 217,52 231,48" />
<polygon fill="#e0e1d5" fill-opacity="0.501961" points="24,102 20,100 18,101" />
<polygon fill="#000000" fill-opacity="0.501961" points="193,-5 160,64 176,88" />
<polygon fill="#113074" fill-opacity="0.501961" points="246,126 252,108 252,142" />
<polygon fill="#6e6b76" fill-opacity="0.501961" points="178,83 182,92 187,69" />
<polygon fill="#5e5d80" fill-opacity="0.501961" points="124,99 123,87 132,92" />
<polygon fill="#001754" fill-opacity="0.501961" points="218,135 209,135 219,151" />
<polygon fill="#7a6c68" fill-opacity="0.501961" points="211,35 212,17 205,27" />
<polygon fill="#5d5e6a" fill-opacity="0.501961" points="217,74 246,63 247,76" />
<polygon fill="#000000" fill-opacity="0.501961" points="62,-16 95,111 32,108" />
<polygon fill="#2f322e" fill-opacity="0.501961" points="135,110 114,111 114,90" />
<polygon fill="#090e0c" fill-opacity="0.501961" points="110,94 110,76 116,80" />
<polygon fill="#000000" fill-opacity="0.501961" points="271,117 251,110 249,55" />
<polygon fill="#001145" fill-opacity="0.501961" points="80,136 80,114 70,129" />
<polygon fill="#000000" fill-opacity="0.501961" points="271,42 219,-5 271,-1" />
<polygon fill="#000000" fill-opacity="0.501961" points="91,5 185,53 217,-16" />
<polygon fill="#00164d" fill-opacity="0.501961" points="11,117 48,123 22,126" />
<polygon fill="#001b55" fill-opacity="0.501961" points="175,143 86,138 149,122" />
<polygon fill="#000000" fill-opacity="0.501961" points="236,111 239,104 234,95" />
<polygon fill="#1e231e" fill-opacity="0.501961" points="109,52 109,71 123,60" />
<polygon fill="#000000" fill-opacity="0.501961" points="207,52 206,39 214,48" />
<polygon fill="#647798" fill-opacity="0.501961" points="51,116 38,122 37,115" />
<polygon fill="#fff0ce" fill-opacity="0.501961" points="218,31 224,26 226,29" />
<polygon fill="#01205c" fill-opacity="0.501961" points="49,113 14,107 6,122" />
<polygon fill="#5e708a" fill-opacity="0.501961" points="88,123 90,132 82,123" />
<polygon fill="#000000" fill-opacity="0.501961" points="196,111 202,88 149,108" />
<polygon fill="#966b6e" fill-opacity="0.501961" points="123,54 133,53 121,59" />
<polygon fill="#ffeed8" fill-opacity="0.501961" points="200,53 198,42 192,47" />
<polygon fill="#8786a0" fill-opacity="0.501961" points="201,25 205,12 233,14" />
<polygon fill="#73767e" fill-opacity="0.501961" points="212,53 201,54 219,80" />
<polygon fill="#000000" fill-opacity="0.501961" points="253,36 253,151 271,89" />
<polygon fill="#000000" fill-opacity="0.501961" points="-16,58 115,52 112,-16" />
<polygon fill="#504e55" fill-opacity="0.501961" points="236,35 240,21 229,10" />
<polygon fill="#69756c" fill-opacity="0.501961" points="117,71 121,83 115,88" />
<polygon fill="#2f2c27" fill-opacity="0.501961" points="238,84 231,94 232,111" />
<polygon fill="#0f2b64" fill-opacity="0.501961" points="131,119 153,110 102,112" />
<polygon fill="#00164f" fill-opacity="0.501961" points="162,112 91,114 186,138" />
<polygon fill="#171109" fill-opacity="0.501961" points="96,103 83,77 89,53" />
<polygon fill="#676d63" fill-opacity="0.501961" points="109,79 108,59 99,83" />
<polygon fill="#a75a53" fill-opacity="0.501961" points="217,43 215,42 216,45" />
<polygon fill="#202e39" fill-opacity="0.501961" points="137,94 120,79 162,80" />
<polygon fill="#0e1b22" fill-opacity="0.501961" points="106,111 91,88 125,109" />
<polygon fill="#000000" fill-opacity="0.501961" points="260,-16 231,50 260,68" />
<polygon fill="#2f2c30" fill-opacity="0.501961" points="200,76 190,79 186,93" />
<polygon fill="#498bff" fill-opacity="0.501961" points="248,135 241,132 242,137" />
<polygon fill="#00144c" fill-opacity="0.501961" points="39,116 40,130 36,131" />
<polygon fill="#032161" fill-opacity="0.501961" points="46,143 88,131 126,143" />
<polygon fill="#f1e1ce" fill-opacity="0.501961" points="222,38 228,43 229,32" />
<polygon fill="#001b51" fill-opacity="0.501961" points="3,99 28,100 17,95" />
<polygon fill="#1e3d73" fill-opacity="0.501961" points="24,111 7,108 5,113" />
<polygon fill="#000000" fill-opacity="0.501961" points="85,93 2,97 -1,-15" />
<polygon fill="#2b437d" fill-opacity="0.501961" points="235,111 199,116 230,136" />
<polygon fill="#343028" fill-opacity="0.501961" points="192,67 205,51 196,56" />
<polygon fill="#ffffe9" fill-opacity="0.501961" points="211,40 209,34 208,41" />
<polygon fill="#74839b" fill-opacity="0.501961" points="64,130 61,124 53,124" />
<polygon fill="#ffecda" fill-opacity="0.501961" points="194,48 198,53 203,43" />
<polygon fill="#b89a81" fill-opacity="0.501961" points="133,106 133,104 131,107" />
<polygon fill="#00114e" fill-opacity="0.501961" points="47,136 47,122 53,136" />
<polygon fill="#605e67" fill-opacity="0.501961" points="244,109 238,84 248,76" />
<polygon fill="#0a2d6c" fill-opacity="0.501961" points="11,109 4,133 4,96" />
<polygon fill="#001b50" fill-opacity="0.501961" points="54,110 57,121 53,123" />
<polygon fill="#5e6a8d" fill-opacity="0.501961" points="213,106 232,111 197,112" />
<polygon fill="#615e66" fill-opacity="0.501961" points="231,105 201,63 201,111" />
<polygon fill="#3e261a" fill-opacity="0.501961" points="88,66 99,93 110,90" />
<polygon fill="#1e221d" fill-opacity="0.501961" points="91,54 114,60 124,52" />
<polygon fill="#6e6a70" fill-opacity="0.501961" points="210,88 234,84 231,98" />
<polygon fill="#9089a1" fill-opacity="0.501961" points="237,13 206,11 219,6" />
<polygon fill="#142639" fill-opacity="0.501961" points="149,75 124,44 144,41" />
<polygon fill="#00174e" fill-opacity="0.501961" points="126,132 58,130 89,142" />
<polygon fill="#212932" fill-opacity="0.501961" points="228,33 221,31 224,33" />
<polygon fill="#6a5d4d" fill-opacity="0.501961" points="158,145 235,143 212,160" />
<polygon fill="#403c48" fill-opacity="0.501961" points="123,98 131,101 125,110" />
<polygon fill="#00174f" fill-opacity="0.501961" points="101,124 75,113 132,118" />
<polygon fill="#000000" fill-opacity="0.501961" points="200,38 160,75 203,-12" />
<polygon fill="#0a215b" fill-opacity="0.501961" points="229,142 239,136 238,113" />
<polygon fill="#647095" fill-opacity="0.501961" points="237,141 249,137 244,143" />
<polygon fill="#33363a" fill-opacity="0.501961" points="231,27 239,31 232,22" />
<polygon fill="#2d4782" fill-opacity="0.501961" points="238,122 250,110 238,135" />
<polygon fill="#000000" fill-opacity="0.501961" points="249,144 257,153 271,138" />
<polygon fill="#001951" fill-opacity="0.501961" points="80,142 131,142 118,129" />
<polygon fill="#c6cdd7" fill-opacity="0.501961" points="112,129 114,124 116,127" />
<polygon fill="#000000" fill-opacity="0.501961" points="213,50 205,41 207,35" />
<polygon fill="#b6bcbd" fill-opacity="0.501961" points="68,125 68,128 69,125" />
<polygon fill="#352f1b" fill-opacity="0.501961" points="154,90 158,57 149,59" />
<polygon fill="#0e3178" fill-opacity="0.501961" points="164,116 179,111 162,111" />
<polygon fill="#13232e" fill-opacity="0.501961" points="164,73 161,95 151,70" />
<polygon fill="#000000" fill-opacity="0.501961" points="234,110 238,101 236,92" />
<polygon fill="#113070" fill-opacity="0.501961" points="189,143 157,143 171,138" />
<polygon fill="#001952" fill-opacity="0.501961" points="195,138 196,112 136,112" />
<polygon fill="#092a71" fill-opacity="0.501961" points="90,111 48,111 68,117" />
<polygon fill="#625a50" fill-opacity="0.501961" points="99,59 97,79 105,75" />
<polygon fill="#00164d" fill-opacity="0.501961" points="55,113 105,112 72,127" />
<polygon fill="#070400" fill-opacity="0.501961" points="67,144 45,158 0,143" />
<polygon fill="#000000" fill-opacity="0.501961" points="158,111 187,109 170,74" />
<polygon fill="#000000" fill-opacity="0.501961" points="210,49 202,37 214,46" />
<polygon fill="#72767e" fill-opacity="0.501961" points="183,69 184,56 199,53" />
<polygon fill="#001953" fill-opacity="0.501961" points="77,140 9,122 4,142" />
<polygon fill="#615f69" fill-opacity="0.501961" points="247,107 232,60 246,60" />
<polygon fill="#001a57" fill-opacity="0.501961" points="27,97 31,115 24,102" />
<polygon fill="#001a53" fill-opacity="0.501961" points="196,142 159,112 107,142" />
<polygon fill="#b19e72" fill-opacity="0.501961" points="211,107 214,107 216,101" />
<polygon fill="#858b91" fill-opacity="0.501961" points="187,51 186,54 196,53" />
<polygon fill="#685d59" fill-opacity="0.501961" points="200,25 212,31 207,33" />
<polygon fill="#080600" fill-opacity="0.501961" points="200,160 153,143 196,143" />
<polygon fill="#a1a4bd" fill-opacity="0.501961" points="126,77 127,73 134,78" />
<polygon fill="#ffebc8" fill-opacity="0.501961" points="213,30 213,28 209,28" />
<polygon fill="#4f5245" fill-opacity="0.501961" points="118,72 113,65 124,64" />
<polygon fill="#64626b" fill-opacity="0.501961" points="186,76 183,93 178,89" />
<polygon fill="#d4beb0" fill-opacity="0.501961" points="130,69 133,77 126,70" />
<polygon fill="#807072" fill-opacity="0.501961" points="224,17 216,27 216,36" />
<polygon fill="#000000" fill-opacity="0.501961" points="-16,133 -1,160 5,80" />
<polygon fill="#34373f" fill-opacity="0.501961" points="234,58 231,48 210,53" />
<polygon fill="#6c544f" fill-opacity="0.501961" points="131,65 121,63 133,73" />
<polygon fill="#72748a" fill-opacity="0.501961" points="231,34 230,26 224,19" />
<polygon fill="#636470" fill-opacity="0.501961" points="205,77 235,63 198,58" />
<polygon fill="#8b99b0" fill-opacity="0.501961" points="16,106 13,99 10,105" />
<polygon fill="#0f3171" fill-opacity="0.501961" points="10,143 41,143 23,138" />
<polygon fill="#000000" fill-opacity="0.501961" points="66,109 29,111 42,38" />
<polygon fill="#272a28" fill-opacity="0.501961" points="123,74 122,47 115,49" />
<polygon fill="#18262c" fill-opacity="0.501961" points="125,111 144,110 149,99" />
<polygon fill="#001750" fill-opacity="0.501961" points="252,134 246,148 249,160" />
<polygon fill="#5d5c67" fill-opacity="0.501961" points="204,27 205,34 211,19" />
<polygon fill="#a88a8a" fill-opacity="0.501961" points="130,52 124,53 127,62" />
<polygon fill="#001652" fill-opacity="0.501961" points="49,110 34,115 50,115" />
<polygon fill="#212a32" fill-opacity="0.501961" points="121,78 121,94 128,83" />
<polygon fill="#000000" fill-opacity="0.501961" points="191,-10 266,-16 266,22" />
<polygon fill="#8a859c" fill-opacity="0.501961" points="220,7 232,13 203,13" />
<polygon fill="#233f77" fill-opacity="0.501961" points="16,112 30,111 23,108" />
<polygon fill="#2c2c2c" fill-opacity="0.501961" points="239,31 227,43 241,35" />
<polygon fill="#183b7f" fill-opacity="0.501961" points="130,143 149,143 139,140" />
<polygon fill="#15377a" fill-opacity="0.501961" points="136,116 122,111 150,111" />
<polygon fill="#fff1de" fill-opacity="0.501961" points="214,41 225,42 230,38" />
<polygon fill="#380c07" fill-opacity="0.501961" points="92,73 90,81 102,70" />
<polygon fill="#f2e0d0" fill-opacity="0.501961" points="208,31 211,43 214,39" />
<polygon fill="#001a52" fill-opacity="0.501961" points="138,142 120,112 197,114" />
<polygon fill="#5c5a63" fill-opacity="0.501961" points="199,109 211,82 213,110" />
<polygon fill="#001952" fill-opacity="0.501961" points="16,142 4,113 62,141" />
<polygon fill="#1b2b38" fill-opacity="0.501961" points="134,43 132,101 149,80" />
<polygon fill="#5f675f" fill-opacity="0.501961" points="109,64 93,62 103,73" />
<polygon fill="#9f6952" fill-opacity="0.501961" points="236,32 229,41 234,28" />
<polygon fill="#686d78" fill-opacity="0.501961" points="211,54 199,57 193,75" />
<polygon fill="#1e2d3b" fill-opacity="0.501961" points="148,51 122,39 120,52" />
<polygon fill="#8290aa" fill-opacity="0.501961" points="57,131 55,125 52,126" />
<polygon fill="#f5dec6" fill-opacity="0.501961" points="246,143 245,160 207,148" />
<polygon fill="#d3a98e" fill-opacity="0.501961" points="205,47 204,45 202,50" />
<polygon fill="#725a5b" fill-opacity="0.501961" points="132,60 131,55 124,54" />
<polygon fill="#c6ae78" fill-opacity="0.501961" points="215,72 218,73 213,76" />
<polygon fill="#000000" fill-opacity="0.501961" points="183,96 199,98 200,79" />
<polygon fill="#393a3e" fill-opacity="0.501961" points="202,82 200,64 198,74" />
<polygon fill="#244082" fill-opacity="0.501961" points="197,111 198,133 231,135" />
<polygon fill="#5d5d6a" fill-opacity="0.501961" points="229,108 206,71 226,80" />
<polygon fill="#131711" fill-opacity="0.501961" points="152,89 165,86 149,111" />
<polygon fill="#7c6560" fill-opacity="0.501961" points="223,50 222,47 214,49" />
<polygon fill="#142e6d" fill-opacity="0.501961" points="207,133 236,141 205,142" />
<polygon fill="#888194" fill-opacity="0.501961" points="238,14 227,6 215,6" />
<polygon fill="#000000" fill-opacity="0.501961" points="197,15 222,0 194,1" />
<polygon fill="#928ca8" fill-opacity="0.501961" points="230,13 229,24 223,15" />
<polygon fill="#393e32" fill-opacity="0.501961" points="160,59 148,42 159,47" />
<polygon fill="#ffe6d5" fill-opacity="0.501961" points="201,40 194,46 196,52" />
<polygon fill="#eedac7" fill-opacity="0.501961" points="214,29 212,40 218,40" />
<polygon fill="#001951" fill-opacity="0.501961" points="66,127 67,141 115,140" />
<polygon fill="#ff8748" fill-opacity="0.501961" points="230,77 227,75 221,78" />
<polygon fill="#052056" fill-opacity="0.501961" points="113,137 109,138 111,125" />
<polygon fill="#494f61" fill-opacity="0.501961" points="233,75 228,66 226,74" />
<polygon fill="#000000" fill-opacity="0.501961" points="248,87 265,148 264,28" />
<polygon fill="#71819e" fill-opacity="0.501961" points="86,125 84,128 82,124" />
<polygon fill="#000e45" fill-opacity="0.501961" points="52,123 46,132 49,122" />
<polygon fill="#37454e" fill-opacity="0.501961" points="226,30 222,30 223,36" />
<polygon fill="#c7b4ab" fill-opacity="0.501961" points="123,62 129,61 126,59" />
<polygon fill="#1b1f1c" fill-opacity="0.501961" points="126,62 113,51 99,56" />
<polygon fill="#000213" fill-opacity="0.501961" points="199,160 250,155 216,143" />
<polygon fill="#4f432f" fill-opacity="0.501961" points="124,101 113,93 114,98" />
<polygon fill="#000000" fill-opacity="0.501961" points="160,12 162,64 204,14" />
<polygon fill="#434b46" fill-opacity="0.501961" points="115,69 129,74 121,68" />
<polygon fill="#eed07e" fill-opacity="0.501961" points="212,89 216,90 214,88" />
<polygon fill="#9e8e92" fill-opacity="0.501961" points="124,68 127,83 123,76" />
<polygon fill="#62636d" fill-opacity="0.501961" points="201,69 201,80 233,60" />
<polygon fill="#0b2d6e" fill-opacity="0.501961" points="3,104 5,97 15,98" />
<polygon fill="#001951" fill-opacity="0.501961" points="88,126 91,113 97,131" />
<polygon fill="#493f41" fill-opacity="0.501961" points="124,80 125,85 131,83" />
<polygon fill="#33302f" fill-opacity="0.501961" points="232,101 227,108 233,105" />
<polygon fill="#001a52" fill-opacity="0.501961" points="86,129 105,142 87,142" />
<polygon fill="#000000" fill-opacity="0.501961" points="256,-16 233,53 268,65" />
<polygon fill="#63616b" fill-opacity="0.501961" points="222,63 214,83 222,107" />
<polygon fill="#657166" fill-opacity="0.501961" points="117,72 121,87 115,89" />
<polygon fill="#163677" fill-opacity="0.501961" points="253,145 248,130 252,113" />
<polygon fill="#000000" fill-opacity="0.501961" points="185,33 179,76 158,71" />
<polygon fill="#001a53" fill-opacity="0.501961" points="138,114 204,134 136,142" />
<polygon fill="#805b58" fill-opacity="0.501961" points="129,63 132,59 132,55" />
<polygon fill="#19397b" fill-opacity="0.501961" points="72,143 92,143 81,140" />
<polygon fill="#ced4da" fill-opacity="0.501961" points="19,105 20,107 20,102" />
<polygon fill="#001952" fill-opacity="0.501961" points="85,142 12,140 53,130" />
<polygon fill="#15305f" fill-opacity="0.501961" points="59,126 58,122 55,119" />
<polygon fill="#465d82" fill-opacity="0.501961" points="102,131 110,130 101,128" />
<polygon fill="#5e5d68" fill-opacity="0.501961" points="202,86 212,85 218,107" />
<polygon fill="#1a2936" fill-opacity="0.501961" points="149,71 130,62 142,55" />
<polygon fill="#4588ff" fill-opacity="0.501961" points="242,132 244,130 247,133" />
<polygon fill="#5c675b" fill-opacity="0.501961" points="158,57 148,51 148,57" />
<polygon fill="#3f3f44" fill-opacity="0.501961" points="238,32 239,23 231,28" />
<polygon fill="#777585" fill-opacity="0.501961" points="229,8 228,14 233,18" />
<polygon fill="#1b3b7e" fill-opacity="0.501961" points="46,140 56,143 42,143" />
<polygon fill="#001a53" fill-opacity="0.501961" points="67,141 5,118 8,142" />
<polygon fill="#1d3969" fill-opacity="0.501961" points="196,110 187,113 176,110" />
<polygon fill="#1e4693" fill-opacity="0.501961" points="45,113 43,111 52,111" />
<polygon fill="#214288" fill-opacity="0.501961" points="99,143 104,141 109,143" />
<polygon fill="#677368" fill-opacity="0.501961" points="119,70 116,77 109,73" />
<polygon fill="#4c5f81" fill-opacity="0.501961" points="64,130 57,128 64,122" />
<polygon fill="#fbd9c3" fill-opacity="0.501961" points="228,30 222,25 223,30" />
<polygon fill="#001851" fill-opacity="0.501961" points="52,123 85,123 75,116" />
<polygon fill="#000000" fill-opacity="0.501961" points="195,111 156,109 199,87" />
<polygon fill="#bbc2da" fill-opacity="0.501961" points="134,76 129,72 130,75" />
<polygon fill="#221f17" fill-opacity="0.501961" points="98,97 91,80 119,91" />
<polygon fill="#0c1416" fill-opacity="0.501961" points="113,41 159,40 124,30" />
<polygon fill="#a37962" fill-opacity="0.501961" points="219,25 221,29 223,24" />
<polygon fill="#000000" fill-opacity="0.501961" points="114,52 118,9 91,53" />
<polygon fill="#546ba5" fill-opacity="0.501961" points="197,142 205,160 211,142" />
<polygon fill="#3b3d4f" fill-opacity="0.501961" points="237,82 236,77 222,81" />
<polygon fill="#ffead4" fill-opacity="0.501961" points="221,40 218,37 219,30" />
<polygon fill="#605f66" fill-opacity="0.501961" points="240,58 247,65 229,88" />
<polygon fill="#1c2c39" fill-opacity="0.501961" points="135,47 148,99 133,105" />
<polygon fill="#707684" fill-opacity="0.501961" points="204,53 203,67 212,53" />
<polygon fill="#feead9" fill-opacity="0.501961" points="228,39 220,35 220,46" />
<polygon fill="#c5ccd6" fill-opacity="0.501961" points="19,101 22,106 17,102" />
<polygon fill="#041c55" fill-opacity="0.501961" points="226,136 238,139 236,133" />
<polygon fill="#001a52" fill-opacity="0.501961" points="72,127 62,142 119,142" />
<polygon fill="#71819e" fill-opacity="0.501961" points="42,115 51,115 59,121" />
<polygon fill="#0f3175" fill-opacity="0.501961" points="82,111 91,115 101,112" />
<polygon fill="#001750" fill-opacity="0.501961" points="40,126 6,113 33,112" />
<polygon fill="#4d7ff1" fill-opacity="0.501961" points="240,132 242,138 249,134" />
<polygon fill="#000000" fill-opacity="0.501961" points="241,22 230,-5 270,1" />
<polygon fill="#666f66" fill-opacity="0.501961" points="107,66 100,75 109,83" />
</g>
</svg>