<svg xmlns="http://www.w3.org/2000/svg" version="1.1" width="1024" height="580">
<rect x="0" y="0" width="1024" height="580" fill="#444551" />
<g transform="scale(4.000000) translate(0.5 0.5)">
<polygon fill="#f4ded6" fill-opacity="0.501961" points="40,32 227,22 56,137" />
<polygon fill="#00000d" fill-opacity="0.501961" points="251,-16 271,144 131,156" />
<polygon fill="#000000" fill-opacity="0.501961" points="-16,137 51,160 12,-16" />
<polygon fill="#000000" fill-opacity="0.501961" points="67,5 250,-16 271,36" />
<polygon fill="#ffe5d9" fill-opacity="0.501961" points="103,-1 152,67 72,62" />
<polygon fill="#000000" fill-opacity="0.501961" points="-9,129 89,-16 -16,0" />
<polygon fill="#656580" fill-opacity="0.501961" points="182,115 176,35 6,140" />
<polygon fill="#dde0db" fill-opacity="0.501961" points="222,54 151,31 203,12" />
<polygon fill="#000000" fill-opacity="0.501961" points="51,-16 262,-6 148,29" />
<polygon fill="#1b3868" fill-opacity="0.501961" points="110,154 82,51 61,145" />
<polygon fill="#001d7c" fill-opacity="0.501961" points="263,160 239,103 32,138" />
<polygon fill="#000000" fill-opacity="0.501961" points="271,111 252,-16 202,109" />
<polygon fill="#00050b" fill-opacity="0.501961" points="-16,143 -2,3 58,91" />
<polygon fill="#7a99c7" fill-opacity="0.501961" points="104,129 56,91 24,126" />
<polygon fill="#b97b7e" fill-opacity="0.501961" points="102,21 75,5 44,87" />
<polygon fill="#ffffef" fill-opacity="0.501961" points="144,44 83,83 132,28" />
<polygon fill="#6f6862" fill-opacity="0.501961" points="211,5 226,70 192,40" />
<polygon fill="#00166f" fill-opacity="0.501961" points="5,143 6,106 86,147" />
<polygon fill="#000000" fill-opacity="0.501961" points="202,46 176,50 242,100" />
<polygon fill="#ad8c7b" fill-opacity="0.501961" points="82,75 130,111 186,69" />
<polygon fill="#ffffff" fill-opacity="0.501961" points="55,76 44,68 56,42" />
<polygon fill="#645656" fill-opacity="0.501961" points="20,78 76,22 33,31" />
<polygon fill="#ffffff" fill-opacity="0.501961" points="200,12 163,29 175,41" />
<polygon fill="#000000" fill-opacity="0.501961" points="151,10 57,-16 -16,9" />
<polygon fill="#ffffff" fill-opacity="0.501961" points="118,11 84,26 95,11" />
<polygon fill="#fff3e7" fill-opacity="0.501961" points="91,77 115,77 98,32" />
<polygon fill="#63554f" fill-opacity="0.501961" points="139,52 158,28 195,85" />
<polygon fill="#c6d3c9" fill-opacity="0.501961" points="65,111 41,111 78,57" />
<polygon fill="#4e6493" fill-opacity="0.501961" points="59,132 62,102 159,119" />
<polygon fill="#56343b" fill-opacity="0.501961" points="48,33 115,20 83,36" />
<polygon fill="#3d3c47" fill-opacity="0.501961" points="69,61 62,104 57,80" />
<polygon fill="#000000" fill-opacity="0.501961" points="227,110 228,-16 271,112" />
<polygon fill="#974246" fill-opacity="0.501961" points="113,22 124,16 117,45" />
<polygon fill="#000000" fill-opacity="0.501961" points="129,29 173,23 107,-16" />
<polygon fill="#321e10" fill-opacity="0.501961" points="98,95 85,73 93,112" />
<polygon fill="#000000" fill-opacity="0.501961" points="59,-13 -5,76 -4,-9" />
<polygon fill="#feffff" fill-opacity="0.501961" points="63,94 72,113 69,71" />
<polygon fill="#54a4ff" fill-opacity="0.501961" points="245,138 239,133 252,132" />
<polygon fill="#fce1d3" fill-opacity="0.501961" points="99,57 132,31 146,72" />
<polygon fill="#ffffff" fill-opacity="0.501961" points="106,10 128,21 93,15" />
<polygon fill="#00050c" fill-opacity="0.501961" points="121,66 119,76 113,67" />
<polygon fill="#403534" fill-opacity="0.501961" points="144,97 216,61 169,114" />
<polygon fill="#d9e1dd" fill-opacity="0.501961" points="48,40 58,86 42,64" />
<polygon fill="#78635a" fill-opacity="0.501961" points="69,84 91,64 95,39" />
<polygon fill="#464348" fill-opacity="0.501961" points="82,93 100,114 61,113" />
<polygon fill="#000000" fill-opacity="0.501961" points="271,110 204,0 271,-5" />
<polygon fill="#948f8c" fill-opacity="0.501961" points="190,20 220,39 221,67" />
<polygon fill="#ffefe4" fill-opacity="0.501961" points="147,40 132,31 152,53" />
<polygon fill="#002364" fill-opacity="0.501961" points="37,160 -2,115 37,109" />
<polygon fill="#415455" fill-opacity="0.501961" points="30,67 39,40 49,89" />
<polygon fill="#7c93ba" fill-opacity="0.501961" points="41,130 41,112 95,130" />
<polygon fill="#bb4a56" fill-opacity="0.501961" points="81,36 59,79 62,46" />
<polygon fill="#05245f" fill-opacity="0.501961" points="271,109 26,134 186,160" />
<polygon fill="#512c30" fill-opacity="0.501961" points="36,21 65,45 67,30" />
<polygon fill="#000000" fill-opacity="0.501961" points="224,76 201,43 189,56" />
<polygon fill="#7e6967" fill-opacity="0.501961" points="204,37 114,80 152,84" />
<polygon fill="#001015" fill-opacity="0.501961" points="91,14 45,-16 132,-4" />
<polygon fill="#c0978c" fill-opacity="0.501961" points="159,70 110,78 161,54" />
<polygon fill="#000000" fill-opacity="0.501961" points="238,-6 155,25 90,4" />
<polygon fill="#9eb2ce" fill-opacity="0.501961" points="151,115 150,122 132,117" />
<polygon fill="#0c2d73" fill-opacity="0.501961" points="195,110 149,112 162,136" />
<polygon fill="#000000" fill-opacity="0.501961" points="121,82 108,74 110,80" />
<polygon fill="#e07c7f" fill-opacity="0.501961" points="115,30 135,25 95,18" />
<polygon fill="#98424e" fill-opacity="0.501961" points="103,39 125,37 110,45" />
<polygon fill="#000000" fill-opacity="0.501961" points="16,-16 -16,114 22,108" />
<polygon fill="#656971" fill-opacity="0.501961" points="66,77 68,44 82,37" />
<polygon fill="#e3a79c" fill-opacity="0.501961" points="119,96 102,78 130,86" />
<polygon fill="#161619" fill-opacity="0.501961" points="45,74 47,102 55,86" />
<polygon fill="#545557" fill-opacity="0.501961" points="198,12 201,42 208,7" />
<polygon fill="#41434c" fill-opacity="0.501961" points="169,41 156,31 163,62" />
<polygon fill="#fff5ed" fill-opacity="0.501961" points="126,49 110,39 125,72" />
<polygon fill="#f5fcf8" fill-opacity="0.501961" points="60,46 53,58 56,38" />
<polygon fill="#0f234f" fill-opacity="0.501961" points="125,113 132,102 102,116" />
<polygon fill="#6f86b0" fill-opacity="0.501961" points="111,122 123,114 84,116" />
<polygon fill="#a16f6b" fill-opacity="0.501961" points="100,55 101,78 96,69" />
<polygon fill="#3a5a71" fill-opacity="0.501961" points="67,114 58,117 64,88" />
<polygon fill="#000712" fill-opacity="0.501961" points="144,55 139,45 149,52" />
<polygon fill="#ffffff" fill-opacity="0.501961" points="157,28 181,31 186,21" />
<polygon fill="#fff9e9" fill-opacity="0.501961" points="101,35 110,23 115,30" />
<polygon fill="#aca297" fill-opacity="0.501961" points="73,7 91,16 68,21" />
<polygon fill="#ebe1df" fill-opacity="0.501961" points="48,112 57,83 60,110" />
<polygon fill="#a08876" fill-opacity="0.501961" points="72,101 85,97 88,66" />
<polygon fill="#717f9f" fill-opacity="0.501961" points="92,133 106,125 83,123" />
<polygon fill="#f9f1ec" fill-opacity="0.501961" points="110,65 118,79 92,65" />
<polygon fill="#fcfbf9" fill-opacity="0.501961" points="188,41 163,37 179,27" />
<polygon fill="#23302f" fill-opacity="0.501961" points="23,80 20,33 48,91" />
<polygon fill="#071b1f" fill-opacity="0.501961" points="88,-16 56,37 44,16" />
<polygon fill="#726666" fill-opacity="0.501961" points="41,28 51,25 52,51" />
<polygon fill="#231a18" fill-opacity="0.501961" points="171,91 235,111 170,109" />
<polygon fill="#ffffff" fill-opacity="0.501961" points="72,65 79,58 81,49" />
<polygon fill="#b6aeb0" fill-opacity="0.501961" points="165,82 173,80 165,61" />
<polygon fill="#e0737d" fill-opacity="0.501961" points="59,53 71,51 57,83" />
<polygon fill="#ffffff" fill-opacity="0.501961" points="154,36 144,36 140,32" />
<polygon fill="#21494c" fill-opacity="0.501961" points="83,54 77,62 86,77" />
<polygon fill="#000000" fill-opacity="0.501961" points="128,69 128,73 123,78" />
<polygon fill="#4e67a1" fill-opacity="0.501961" points="30,115 67,115 38,107" />
<polygon fill="#000000" fill-opacity="0.501961" points="254,160 253,102 271,94" />
<polygon fill="#60292a" fill-opacity="0.501961" points="125,19 133,33 120,21" />
<polygon fill="#3b353c" fill-opacity="0.501961" points="194,115 177,49 196,63" />
<polygon fill="#afb0b1" fill-opacity="0.501961" points="209,56 209,30 203,39" />
<polygon fill="#0a0000" fill-opacity="0.501961" points="151,46 152,58 154,51" />
<polygon fill="#fffbee" fill-opacity="0.501961" points="119,27 145,41 126,39" />
<polygon fill="#152e6d" fill-opacity="0.501961" points="95,109 118,145 113,125" />
<polygon fill="#ffffff" fill-opacity="0.501961" points="71,41 71,36 65,35" />
<polygon fill="#796d65" fill-opacity="0.501961" points="221,34 209,42 220,69" />
<polygon fill="#213840" fill-opacity="0.501961" points="120,65 113,61 122,74" />
<polygon fill="#704246" fill-opacity="0.501961" points="113,44 122,40 118,27" />
<polygon fill="#2e5a62" fill-opacity="0.501961" points="143,29 170,44 155,29" />
<polygon fill="#100000" fill-opacity="0.501961" points="10,143 133,143 72,160" />
<polygon fill="#e2e1df" fill-opacity="0.501961" points="191,33 195,19 154,28" />
<polygon fill="#f4fdfb" fill-opacity="0.501961" points="47,75 56,66 56,80" />
<polygon fill="#9f6b68" fill-opacity="0.501961" points="131,55 131,46 127,49" />
<polygon fill="#574c48" fill-opacity="0.501961" points="109,91 75,96 75,112" />
<polygon fill="#447fff" fill-opacity="0.501961" points="248,137 246,125 241,137" />
<polygon fill="#001755" fill-opacity="0.501961" points="254,128 250,109 189,139" />
<polygon fill="#444248" fill-opacity="0.501961" points="165,89 154,82 156,65" />
<polygon fill="#050a0a" fill-opacity="0.501961" points="184,18 128,22 77,-16" />
<polygon fill="#746562" fill-opacity="0.501961" points="128,104 98,110 103,82" />
<polygon fill="#140c0b" fill-opacity="0.501961" points="240,70 198,98 196,66" />
<polygon fill="#000000" fill-opacity="0.501961" points="-1,144 25,-2 -16,-9" />
<polygon fill="#5e4d53" fill-opacity="0.501961" points="100,30 98,33 103,39" />
<polygon fill="#6d564f" fill-opacity="0.501961" points="137,60 153,67 148,57" />
<polygon fill="#b3d0d2" fill-opacity="0.501961" points="83,35 108,26 81,50" />
<polygon fill="#efe1d7" fill-opacity="0.501961" points="105,46 135,60 97,65" />
<polygon fill="#3b2f26" fill-opacity="0.501961" points="226,60 230,22 213,26" />
<polygon fill="#68898c" fill-opacity="0.501961" points="70,83 76,105 78,63" />
<polygon fill="#614543" fill-opacity="0.501961" points="145,36 140,42 150,39" />
<polygon fill="#224a9b" fill-opacity="0.501961" points="136,119 153,111 109,111" />
<polygon fill="#ada7a7" fill-opacity="0.501961" points="140,97 142,81 151,87" />
<polygon fill="#011f5a" fill-opacity="0.501961" points="61,142 4,139 4,109" />
<polygon fill="#0c3c9d" fill-opacity="0.501961" points="67,116 85,111 61,111" />
<polygon fill="#a5696f" fill-opacity="0.501961" points="117,15 134,29 105,24" />
<polygon fill="#e5e6e6" fill-opacity="0.501961" points="196,38 195,29 200,30" />
<polygon fill="#c0938b" fill-opacity="0.501961" points="96,91 84,65 109,88" />
<polygon fill="#142c69" fill-opacity="0.501961" points="152,145 171,125 105,121" />
<polygon fill="#b88f89" fill-opacity="0.501961" points="124,79 155,73 159,51" />
<polygon fill="#dc8a92" fill-opacity="0.501961" points="104,20 83,28 93,20" />
<polygon fill="#ffffff" fill-opacity="0.501961" points="90,16 96,13 91,23" />
<polygon fill="#9ba3ad" fill-opacity="0.501961" points="71,100 67,107 78,121" />
<polygon fill="#c3968f" fill-opacity="0.501961" points="139,83 124,94 106,81" />
<polygon fill="#aabad5" fill-opacity="0.501961" points="52,130 49,124 65,125" />
<polygon fill="#fff1e5" fill-opacity="0.501961" points="102,42 90,52 121,50" />
<polygon fill="#7e818a" fill-opacity="0.501961" points="185,38 186,48 204,44" />
<polygon fill="#9a5357" fill-opacity="0.501961" points="73,20 58,41 90,18" />
<polygon fill="#200a00" fill-opacity="0.501961" points="183,144 128,143 134,160" />
<polygon fill="#ffffff" fill-opacity="0.501961" points="72,75 70,68 74,62" />
<polygon fill="#696967" fill-opacity="0.501961" points="218,38 204,10 190,16" />
<polygon fill="#ffffff" fill-opacity="0.501961" points="65,95 68,104 68,85" />
<polygon fill="#fcece3" fill-opacity="0.501961" points="128,40 150,48 133,31" />
<polygon fill="#fff4e4" fill-opacity="0.501961" points="106,82 99,69 106,70" />
<polygon fill="#463933" fill-opacity="0.501961" points="166,110 142,101 141,110" />
<polygon fill="#400e11" fill-opacity="0.501961" points="115,25 116,32 123,38" />
<polygon fill="#7c6969" fill-opacity="0.501961" points="174,51 145,42 180,40" />
<polygon fill="#000000" fill-opacity="0.501961" points="123,79 110,78 112,82" />
<polygon fill="#ffc4c7" fill-opacity="0.501961" points="112,43 103,31 118,37" />
<polygon fill="#293e70" fill-opacity="0.501961" points="70,121 84,123 64,127" />
<polygon fill="#000000" fill-opacity="0.501961" points="4,109 1,160 -16,140" />
<polygon fill="#3d373f" fill-opacity="0.501961" points="198,107 175,95 212,94" />
<polygon fill="#766b69" fill-opacity="0.501961" points="52,32 44,15 50,51" />
<polygon fill="#203d7e" fill-opacity="0.501961" points="21,111 40,131 41,113" />
<polygon fill="#000000" fill-opacity="0.501961" points="266,-16 209,-16 256,117" />
<polygon fill="#f1f9f6" fill-opacity="0.501961" points="123,18 91,17 112,12" />
<polygon fill="#57423b" fill-opacity="0.501961" points="221,62 233,70 233,63" />
<polygon fill="#b19099" fill-opacity="0.501961" points="99,112 106,90 96,101" />
<polygon fill="#020000" fill-opacity="0.501961" points="271,160 208,143 271,143" />
<polygon fill="#050605" fill-opacity="0.501961" points="112,11 219,4 151,28" />
<polygon fill="#928a8c" fill-opacity="0.501961" points="176,78 148,92 180,59" />
<polygon fill="#fbefe0" fill-opacity="0.501961" points="105,38 100,31 115,25" />
<polygon fill="#4d4a52" fill-opacity="0.501961" points="197,75 211,61 204,77" />
<polygon fill="#fbfbf9" fill-opacity="0.501961" points="177,32 180,39 159,33" />
<polygon fill="#faebe0" fill-opacity="0.501961" points="131,32 117,43 149,34" />
<polygon fill="#57222a" fill-opacity="0.501961" points="50,39 67,22 61,37" />
<polygon fill="#4e5b5f" fill-opacity="0.501961" points="37,53 49,87 34,70" />
<polygon fill="#b0a296" fill-opacity="0.501961" points="216,59 221,63 219,68" />
<polygon fill="#fff3e6" fill-opacity="0.501961" points="93,73 103,38 92,55" />
<polygon fill="#778aae" fill-opacity="0.501961" points="101,126 104,117 109,134" />
<polygon fill="#000000" fill-opacity="0.501961" points="194,58 214,56 214,66" />
<polygon fill="#444649" fill-opacity="0.501961" points="76,45 82,20 85,30" />
<polygon fill="#6d6162" fill-opacity="0.501961" points="133,69 135,81 150,78" />
<polygon fill="#534d52" fill-opacity="0.501961" points="169,50 185,77 182,99" />
<polygon fill="#001348" fill-opacity="0.501961" points="94,142 98,130 54,141" />
<polygon fill="#a28886" fill-opacity="0.501961" points="72,24 85,12 77,8" />
<polygon fill="#213770" fill-opacity="0.501961" points="88,160 109,132 99,126" />
<polygon fill="#ffffff" fill-opacity="0.501961" points="84,46 86,51 89,43" />
<polygon fill="#8594ac" fill-opacity="0.501961" points="143,121 132,122 130,115" />
<polygon fill="#001852" fill-opacity="0.501961" points="232,141 254,120 196,139" />
<polygon fill="#b8a09c" fill-opacity="0.501961" points="117,61 111,61 107,51" />
<polygon fill="#bec8c5" fill-opacity="0.501961" points="152,50 149,57 147,54" />
<polygon fill="#102221" fill-opacity="0.501961" points="43,107 24,94 54,88" />
<polygon fill="#010100" fill-opacity="0.501961" points="132,0 214,1 182,20" />
<polygon fill="#5f5155" fill-opacity="0.501961" points="115,110 102,111 98,93" />
<polygon fill="#b09f96" fill-opacity="0.501961" points="71,74 83,74 87,81" />
<polygon fill="#7f8a8d" fill-opacity="0.501961" points="91,38 78,47 88,31" />
<polygon fill="#45666d" fill-opacity="0.501961" points="74,71 71,88 82,84" />
<polygon fill="#0b161d" fill-opacity="0.501961" points="107,9 126,-16 57,7" />
<polygon fill="#2e3c42" fill-opacity="0.501961" points="159,40 170,42 159,33" />
<polygon fill="#2e241f" fill-opacity="0.501961" points="23,62 19,40 46,11" />
<polygon fill="#948c88" fill-opacity="0.501961" points="46,113 41,109 53,95" />
<polygon fill="#152e67" fill-opacity="0.501961" points="53,139 32,136 46,127" />
<polygon fill="#96706d" fill-opacity="0.501961" points="104,79 96,66 98,77" />
<polygon fill="#7e91bb" fill-opacity="0.501961" points="64,128 77,130 54,113" />
<polygon fill="#584f52" fill-opacity="0.501961" points="167,96 138,86 162,108" />
<polygon fill="#aab2b5" fill-opacity="0.501961" points="150,34 164,40 153,39" />
<polygon fill="#3c3b42" fill-opacity="0.501961" points="180,47 170,47 190,56" />
<polygon fill="#2c414a" fill-opacity="0.501961" points="68,109 60,101 66,115" />
<polygon fill="#5f373e" fill-opacity="0.501961" points="50,87 62,77 61,85" />
<polygon fill="#936965" fill-opacity="0.501961" points="103,92 93,74 92,87" />
<polygon fill="#969094" fill-opacity="0.501961" points="136,95 130,113 150,89" />
<polygon fill="#9e8f86" fill-opacity="0.501961" points="216,62 222,69 217,51" />
<polygon fill="#180806" fill-opacity="0.501961" points="231,27 222,60 238,69" />
<polygon fill="#0c2325" fill-opacity="0.501961" points="80,86 79,79 82,81" />
<polygon fill="#5c7078" fill-opacity="0.501961" points="141,52 137,50 144,44" />
<polygon fill="#c25b65" fill-opacity="0.501961" points="100,18 115,25 91,24" />
<polygon fill="#efddd1" fill-opacity="0.501961" points="103,84 89,71 95,69" />
<polygon fill="#6d5458" fill-opacity="0.501961" points="98,30 85,28 106,25" />
<polygon fill="#071518" fill-opacity="0.501961" points="56,39 44,9 58,11" />
<polygon fill="#c48a83" fill-opacity="0.501961" points="88,51 84,68 91,75" />
<polygon fill="#edffff" fill-opacity="0.501961" points="109,74 115,79 122,76" />
<polygon fill="#9dafd0" fill-opacity="0.501961" points="44,118 61,117 60,122" />
<polygon fill="#06348a" fill-opacity="0.501961" points="247,129 253,142 252,129" />
<polygon fill="#f2e3d8" fill-opacity="0.501961" points="141,59 101,64 115,47" />
<polygon fill="#000000" fill-opacity="0.501961" points="190,58 215,63 199,46" />
<polygon fill="#8d9db9" fill-opacity="0.501961" points="118,121 103,115 120,117" />
<polygon fill="#072065" fill-opacity="0.501961" points="103,122 103,112 97,123" />
<polygon fill="#e5ddd8" fill-opacity="0.501961" points="89,23 90,28 83,24" />
<polygon fill="#18387e" fill-opacity="0.501961" points="97,113 66,112 80,117" />
<polygon fill="#b1918d" fill-opacity="0.501961" points="144,81 117,92 96,81" />
<polygon fill="#241400" fill-opacity="0.501961" points="215,143 174,143 198,160" />
<polygon fill="#9a5d62" fill-opacity="0.501961" points="73,28 78,18 56,29" />
<polygon fill="#f9fcf7" fill-opacity="0.501961" points="134,50 141,52 135,55" />
<polygon fill="#56565e" fill-opacity="0.501961" points="214,43 206,52 215,58" />
<polygon fill="#923d3d" fill-opacity="0.501961" points="70,45 80,39 67,53" />
<polygon fill="#080300" fill-opacity="0.501961" points="271,87 190,110 269,110" />
<polygon fill="#464042" fill-opacity="0.501961" points="85,114 96,97 87,75" />
<polygon fill="#ecedea" fill-opacity="0.501961" points="58,50 53,40 58,45" />
<polygon fill="#000000" fill-opacity="0.501961" points="26,86 -16,109 19,110" />
<polygon fill="#a59e9d" fill-opacity="0.501961" points="105,90 112,98 111,103" />
<polygon fill="#605556" fill-opacity="0.501961" points="53,45 29,47 45,33" />
<polygon fill="#2d2429" fill-opacity="0.501961" points="165,48 164,55 156,48" />
<polygon fill="#7c7779" fill-opacity="0.501961" points="111,92 100,77 104,107" />
<polygon fill="#796f72" fill-opacity="0.501961" points="82,98 94,99 88,93" />
<polygon fill="#0d2969" fill-opacity="0.501961" points="181,122 217,110 143,113" />
<polygon fill="#000000" fill-opacity="0.501961" points="205,66 194,77 204,44" />
<polygon fill="#ffffff" fill-opacity="0.501961" points="70,78 66,80 71,84" />
<polygon fill="#32474c" fill-opacity="0.501961" points="43,51 32,55 33,83" />
<polygon fill="#444347" fill-opacity="0.501961" points="203,13 207,17 199,32" />
<polygon fill="#3a3e45" fill-opacity="0.501961" points="151,66 155,66 149,62" />
<polygon fill="#856064" fill-opacity="0.501961" points="124,39 118,39 119,34" />
<polygon fill="#081116" fill-opacity="0.501961" points="116,3 89,14 65,-16" />
<polygon fill="#496d76" fill-opacity="0.501961" points="148,33 143,27 130,27" />
<polygon fill="#000000" fill-opacity="0.501961" points="183,110 194,108 182,103" />
<polygon fill="#fcede3" fill-opacity="0.501961" points="121,57 118,42 135,36" />
<polygon fill="#3c3a40" fill-opacity="0.501961" points="162,77 146,81 154,74" />
<polygon fill="#fbffff" fill-opacity="0.501961" points="126,64 123,63 125,74" />
<polygon fill="#22201e" fill-opacity="0.501961" points="214,25 211,2 221,8" />
<polygon fill="#c0958e" fill-opacity="0.501961" points="161,58 147,66 157,50" />
<polygon fill="#cbbab2" fill-opacity="0.501961" points="107,79 105,61 110,63" />
<polygon fill="#0c1a1c" fill-opacity="0.501961" points="38,108 24,95 41,73" />
<polygon fill="#a6a6a9" fill-opacity="0.501961" points="156,30 165,28 173,32" />
<polygon fill="#818180" fill-opacity="0.501961" points="49,100 43,110 30,113" />
<polygon fill="#e7e4df" fill-opacity="0.501961" points="62,111 54,96 48,110" />
<polygon fill="#000000" fill-opacity="0.501961" points="-3,59 -16,-12 50,-16" />
<polygon fill="#ffddef" fill-opacity="0.501961" points="99,110 98,102 96,104" />
<polygon fill="#3a5087" fill-opacity="0.501961" points="172,127 178,132 164,130" />
<polygon fill="#bd9992" fill-opacity="0.501961" points="143,70 153,82 148,63" />
<polygon fill="#797981" fill-opacity="0.501961" points="195,36 192,31 192,47" />
<polygon fill="#000000" fill-opacity="0.501961" points="271,90 253,75 254,147" />
<polygon fill="#69959b" fill-opacity="0.501961" points="64,73 72,62 67,78" />
<polygon fill="#7e8baa" fill-opacity="0.501961" points="90,121 72,117 98,115" />
<polygon fill="#454046" fill-opacity="0.501961" points="106,108 117,95 118,101" />
<polygon fill="#e0e0de" fill-opacity="0.501961" points="195,20 187,32 189,40" />
<polygon fill="#b58f8b" fill-opacity="0.501961" points="128,87 127,103 117,89" />
<polygon fill="#a09492" fill-opacity="0.501961" points="145,94 141,90 138,110" />
<polygon fill="#263c72" fill-opacity="0.501961" points="95,125 97,121 86,123" />
<polygon fill="#272226" fill-opacity="0.501961" points="85,98 97,112 95,98" />
<polygon fill="#1b1113" fill-opacity="0.501961" points="197,111 233,108 227,78" />
<polygon fill="#000706" fill-opacity="0.501961" points="44,102 36,96 32,111" />
<polygon fill="#213b41" fill-opacity="0.501961" points="85,71 80,55 80,73" />
<polygon fill="#ffffff" fill-opacity="0.501961" points="110,65 114,77 108,68" />
<polygon fill="#000000" fill-opacity="0.501961" points="3,94 -16,108 4,150" />
<polygon fill="#556d74" fill-opacity="0.501961" points="73,32 84,27 80,46" />
<polygon fill="#d97d8c" fill-opacity="0.501961" points="65,48 77,38 64,43" />
<polygon fill="#6a2b2c" fill-opacity="0.501961" points="132,25 130,33 127,23" />
<polygon fill="#fff5e7" fill-opacity="0.501961" points="99,65 104,79 103,54" />
<polygon fill="#635b63" fill-opacity="0.501961" points="170,50 143,37 170,42" />
<polygon fill="#7d7a7e" fill-opacity="0.501961" points="53,91 57,97 56,89" />
<polygon fill="#95858c" fill-opacity="0.501961" points="158,45 167,51 183,44" />
<polygon fill="#d1cfcd" fill-opacity="0.501961" points="49,76 54,57 44,50" />
<polygon fill="#264889" fill-opacity="0.501961" points="46,122 52,124 57,122" />
<polygon fill="#6c4748" fill-opacity="0.501961" points="89,19 85,18 80,28" />
<polygon fill="#f7faf7" fill-opacity="0.501961" points="98,32 99,29 104,29" />
<polygon fill="#f8e7db" fill-opacity="0.501961" points="134,48 140,37 117,27" />
<polygon fill="#00124e" fill-opacity="0.501961" points="252,141 251,124 249,133" />
<polygon fill="#4b676d" fill-opacity="0.501961" points="79,64 85,68 83,50" />
<polygon fill="#8b95aa" fill-opacity="0.501961" points="132,116 143,115 136,120" />
<polygon fill="#2c0f14" fill-opacity="0.501961" points="53,84 50,88 44,76" />
<polygon fill="#40588e" fill-opacity="0.501961" points="86,110 83,123 74,112" />
<polygon fill="#496a6f" fill-opacity="0.501961" points="70,96 71,86 75,98" />
<polygon fill="#878786" fill-opacity="0.501961" points="194,16 193,32 200,14" />
<polygon fill="#969090" fill-opacity="0.501961" points="165,56 174,66 168,50" />
<polygon fill="#8f5b59" fill-opacity="0.501961" points="99,63 100,55 95,66" />
<polygon fill="#748388" fill-opacity="0.501961" points="70,85 78,61 76,108" />
<polygon fill="#070707" fill-opacity="0.501961" points="177,22 205,-3 135,22" />
<polygon fill="#a57a74" fill-opacity="0.501961" points="148,39 136,31 149,46" />
<polygon fill="#522d2b" fill-opacity="0.501961" points="107,44 104,40 107,39" />
<polygon fill="#b8b8b7" fill-opacity="0.501961" points="203,40 208,50 204,29" />
<polygon fill="#040a0c" fill-opacity="0.501961" points="117,14 142,-9 131,23" />
<polygon fill="#031f5a" fill-opacity="0.501961" points="51,143 4,141 5,114" />
<polygon fill="#443d3f" fill-opacity="0.501961" points="210,95 204,81 205,99" />
<polygon fill="#131f24" fill-opacity="0.501961" points="31,59 19,72 31,105" />
<polygon fill="#c6b5b3" fill-opacity="0.501961" points="135,47 150,41 138,41" />
<polygon fill="#ffffff" fill-opacity="0.501961" points="72,68 67,93 66,79" />
<polygon fill="#4a474d" fill-opacity="0.501961" points="139,84 136,87 139,97" />
<polygon fill="#b1aca9" fill-opacity="0.501961" points="135,80 140,85 145,83" />
<polygon fill="#4a4347" fill-opacity="0.501961" points="81,93 95,109 76,102" />
<polygon fill="#624547" fill-opacity="0.501961" points="95,40 94,42 97,39" />
<polygon fill="#fbe9dd" fill-opacity="0.501961" points="98,49 111,49 99,37" />
<polygon fill="#fff3e6" fill-opacity="0.501961" points="110,58 99,60 99,71" />
<polygon fill="#202b2f" fill-opacity="0.501961" points="119,75 115,66 124,69" />
<polygon fill="#8fa2c5" fill-opacity="0.501961" points="50,120 48,115 68,116" />
<polygon fill="#a19797" fill-opacity="0.501961" points="81,91 76,83 75,98" />
<polygon fill="#fcede2" fill-opacity="0.501961" points="121,34 139,52 126,29" />
<polygon fill="#557b7e" fill-opacity="0.501961" points="64,106 60,92 64,85" />
<polygon fill="#1d387b" fill-opacity="0.501961" points="169,143 183,138 197,143" />
<polygon fill="#8c8b8e" fill-opacity="0.501961" points="185,33 191,44 189,51" />
<polygon fill="#9b9a9c" fill-opacity="0.501961" points="118,107 128,99 125,96" />
<polygon fill="#ffffff" fill-opacity="0.501961" points="57,88 59,93 57,95" />
<polygon fill="#091316" fill-opacity="0.501961" points="27,16 83,-16 80,7" />
<polygon fill="#102b6b" fill-opacity="0.501961" points="111,143 106,125 160,143" />
<polygon fill="#837b82" fill-opacity="0.501961" points="89,112 92,107 88,102" />
<polygon fill="#594e51" fill-opacity="0.501961" points="159,84 173,89 163,95" />
<polygon fill="#443839" fill-opacity="0.501961" points="37,23 48,28 23,62" />
<polygon fill="#524b51" fill-opacity="0.501961" points="124,97 117,105 113,99" />
<polygon fill="#8b4d55" fill-opacity="0.501961" points="64,33 61,43 65,55" />
<polygon fill="#0e2f74" fill-opacity="0.501961" points="7,111 33,119 35,111" />
<polygon fill="#98908f" fill-opacity="0.501961" points="105,111 105,96 100,98" />
<polygon fill="#001246" fill-opacity="0.501961" points="60,142 67,131 82,132" />
<polygon fill="#cf7f8a" fill-opacity="0.501961" points="67,64 59,59 61,36" />
<polygon fill="#ffffff" fill-opacity="0.501961" points="120,60 125,65 124,69" />
<polygon fill="#002157" fill-opacity="0.501961" points="71,117 70,112 68,115" />
<polygon fill="#ada1a2" fill-opacity="0.501961" points="83,75 87,80 84,90" />
<polygon fill="#605157" fill-opacity="0.501961" points="161,50 167,40 176,41" />
<polygon fill="#100c09" fill-opacity="0.501961" points="150,56 143,59 150,58" />
<polygon fill="#743537" fill-opacity="0.501961" points="100,22 87,30 102,26" />
<polygon fill="#fffffc" fill-opacity="0.501961" points="160,28 169,29 178,22" />
<polygon fill="#ffffff" fill-opacity="0.501961" points="109,16 103,12 90,19" />
<polygon fill="#fbebde" fill-opacity="0.501961" points="93,73 101,80 95,68" />
<polygon fill="#8e888a" fill-opacity="0.501961" points="45,79 50,88 45,83" />
<polygon fill="#cfcecc" fill-opacity="0.501961" points="48,45 56,71 44,61" />
<polygon fill="#916765" fill-opacity="0.501961" points="92,69 86,58 91,62" />
</g>
</svg>