<svg xmlns="http://www.w3.org/2000/svg" version="1.1" width="1024" height="580">
<rect x="0" y="0" width="1024" height="580" fill="#373a47" />
<g transform="scale(4.000000) translate(0.5 0.5)">
<polygon fill="#ffffff" fill-opacity="0.501961" points="0,132 40,-16 80,130" />
<polygon fill="#070300" fill-opacity="0.501961" points="12,-16 117,131 271,1" />
<polygon fill="#ffffff" fill-opacity="0.501961" points="182,113 220,108 196,46" />
<polygon fill="#ffffff" fill-opacity="0.501961" points="29,33 76,62 31,120" />
<polygon fill="#000000" fill-opacity="0.501961" points="184,-9 258,-7 258,160" />
<polygon fill="#001b81" fill-opacity="0.501961" points="271,109 28,113 214,160" />
<polygon fill="#d5a9aa" fill-opacity="0.501961" points="211,46 208,121 181,57" />
<polygon fill="#000000" fill-opacity="0.501961" points="31,-16 5,63 -16,9" />
<polygon fill="#000000" fill-opacity="0.501961" points="58,50 85,-16 41,41" />
<polygon fill="#3962b5" fill-opacity="0.501961" points="91,129 2,160 4,103" />
<polygon fill="#faf3e7" fill-opacity="0.501961" points="52,131 15,92 45,4" />
<polygon fill="#000000" fill-opacity="0.501961" points="228,158 271,29 207,-16" />
<polygon fill="#122136" fill-opacity="0.501961" points="65,160 190,153 72,14" />
<polygon fill="#ffffff" fill-opacity="0.501961" points="71,102 67,51 29,57" />
<polygon fill="#ffffff" fill-opacity="0.501961" points="182,89 193,112 216,98" />
<polygon fill="#8e5262" fill-opacity="0.501961" points="-4,62 45,35 7,99" />
<polygon fill="#000000" fill-opacity="0.501961" points="0,-16 -16,48 32,37" />
<polygon fill="#757282" fill-opacity="0.501961" points="52,-16 21,8 51,27" />
<polygon fill="#000000" fill-opacity="0.501961" points="269,8 268,123 207,85" />
<polygon fill="#000000" fill-opacity="0.501961" points="51,106 59,114 54,84" />
<polygon fill="#0e1010" fill-opacity="0.501961" points="131,93 201,88 138,49" />
<polygon fill="#000000" fill-opacity="0.501961" points="55,24 78,85 69,-16" />
<polygon fill="#5b4f3d" fill-opacity="0.501961" points="76,52 80,-16 110,87" />
<polygon fill="#fffff8" fill-opacity="0.501961" points="68,110 65,59 54,100" />
<polygon fill="#002877" fill-opacity="0.501961" points="88,111 251,111 254,160" />
<polygon fill="#dbb7bd" fill-opacity="0.501961" points="124,65 129,83 132,66" />
<polygon fill="#000000" fill-opacity="0.501961" points="71,55 66,15 40,39" />
<polygon fill="#ffeac5" fill-opacity="0.501961" points="27,23 27,74 49,23" />
<polygon fill="#3b56a4" fill-opacity="0.501961" points="226,160 186,148 180,94" />
<polygon fill="#607ba4" fill-opacity="0.501961" points="36,111 102,117 88,131" />
<polygon fill="#fff6ed" fill-opacity="0.501961" points="184,95 200,116 217,91" />
<polygon fill="#201b13" fill-opacity="0.501961" points="67,118 124,29 74,45" />
<polygon fill="#3c253e" fill-opacity="0.501961" points="10,95 19,55 27,64" />
<polygon fill="#ead3bb" fill-opacity="0.501961" points="105,79 96,76 105,67" />
<polygon fill="#000f4d" fill-opacity="0.501961" points="184,160 179,101 64,139" />
<polygon fill="#71525f" fill-opacity="0.501961" points="213,78 214,55 191,63" />
<polygon fill="#939ab9" fill-opacity="0.501961" points="61,160 46,153 69,98" />
<polygon fill="#231f17" fill-opacity="0.501961" points="186,55 61,108 178,112" />
<polygon fill="#ffffff" fill-opacity="0.501961" points="9,97 48,91 58,56" />
<polygon fill="#000000" fill-opacity="0.501961" points="26,35 13,-16 -16,64" />
<polygon fill="#fffede" fill-opacity="0.501961" points="197,74 211,76 196,91" />
<polygon fill="#5981cd" fill-opacity="0.501961" points="32,125 8,97 29,99" />
<polygon fill="#645f66" fill-opacity="0.501961" points="49,-16 22,20 57,24" />
<polygon fill="#5ea7ff" fill-opacity="0.501961" points="239,139 245,130 249,137" />
<polygon fill="#061e57" fill-opacity="0.501961" points="204,135 257,160 216,96" />
<polygon fill="#8f5b7d" fill-opacity="0.501961" points="5,51 24,40 15,72" />
<polygon fill="#bd89ad" fill-opacity="0.501961" points="216,62 194,49 184,63" />
<polygon fill="#13161a" fill-opacity="0.501961" points="130,4 157,102 194,85" />
<polygon fill="#000000" fill-opacity="0.501961" points="-16,119 -2,160 3,109" />
<polygon fill="#0e2a69" fill-opacity="0.501961" points="9,133 42,160 28,124" />
<polygon fill="#0b0c07" fill-opacity="0.501961" points="192,49 144,-16 271,45" />
<polygon fill="#9bb0cf" fill-opacity="0.501961" points="71,115 29,134 34,116" />
<polygon fill="#a8a08b" fill-opacity="0.501961" points="55,50 32,34 36,56" />
<polygon fill="#ac766d" fill-opacity="0.501961" points="186,89 207,83 206,96" />
<polygon fill="#000000" fill-opacity="0.501961" points="-16,48 3,-12 30,37" />
<polygon fill="#011d5d" fill-opacity="0.501961" points="60,126 17,143 49,141" />
<polygon fill="#fffffe" fill-opacity="0.501961" points="68,72 55,107 60,50" />
<polygon fill="#1e2523" fill-opacity="0.501961" points="49,102 55,84 57,121" />
<polygon fill="#585048" fill-opacity="0.501961" points="76,89 81,11 90,53" />
<polygon fill="#f8f9ef" fill-opacity="0.501961" points="32,110 53,107 31,37" />
<polygon fill="#000000" fill-opacity="0.501961" points="271,160 200,-10 265,-5" />
<polygon fill="#224090" fill-opacity="0.501961" points="220,118 197,111 173,160" />
<polygon fill="#fdeee8" fill-opacity="0.501961" points="2,128 7,137 1,139" />
<polygon fill="#020302" fill-opacity="0.501961" points="100,45 96,100 82,77" />
<polygon fill="#00165a" fill-opacity="0.501961" points="65,133 58,160 147,122" />
<polygon fill="#fde1d1" fill-opacity="0.501961" points="22,22 36,39 45,23" />
<polygon fill="#4e443a" fill-opacity="0.501961" points="159,101 91,99 117,111" />
<polygon fill="#413d4a" fill-opacity="0.501961" points="181,67 197,76 193,65" />
<polygon fill="#050806" fill-opacity="0.501961" points="206,85 232,71 249,107" />
<polygon fill="#000000" fill-opacity="0.501961" points="67,-16 71,12 18,-16" />
<polygon fill="#615646" fill-opacity="0.501961" points="81,73 77,96 90,104" />
<polygon fill="#dcd3bb" fill-opacity="0.501961" points="43,47 26,67 22,40" />
<polygon fill="#000000" fill-opacity="0.501961" points="68,21 71,57 43,36" />
<polygon fill="#d3cbbb" fill-opacity="0.501961" points="58,118 63,87 71,101" />
<polygon fill="#171a1a" fill-opacity="0.501961" points="196,15 84,28 175,99" />
<polygon fill="#000000" fill-opacity="0.501961" points="0,63 -16,-12 31,-16" />
<polygon fill="#ffffff" fill-opacity="0.501961" points="44,96 21,77 18,97" />
<polygon fill="#f7fbff" fill-opacity="0.501961" points="188,89 202,103 181,97" />
<polygon fill="#666671" fill-opacity="0.501961" points="34,-12 53,13 19,25" />
<polygon fill="#fff5dd" fill-opacity="0.501961" points="200,86 190,77 205,71" />
<polygon fill="#000000" fill-opacity="0.501961" points="-6,130 -16,147 9,148" />
<polygon fill="#201e24" fill-opacity="0.501961" points="211,61 205,76 231,56" />
<polygon fill="#020e30" fill-opacity="0.501961" points="69,111 82,99 81,123" />
<polygon fill="#718cc4" fill-opacity="0.501961" points="7,100 21,137 28,97" />
<polygon fill="#88798e" fill-opacity="0.501961" points="203,48 217,57 187,52" />
<polygon fill="#5770aa" fill-opacity="0.501961" points="9,111 43,113 4,140" />
<polygon fill="#030303" fill-opacity="0.501961" points="-2,35 17,13 31,36" />
<polygon fill="#001e5d" fill-opacity="0.501961" points="81,143 181,142 111,113" />
<polygon fill="#faefe5" fill-opacity="0.501961" points="205,111 219,93 187,100" />
<polygon fill="#161615" fill-opacity="0.501961" points="134,49 102,102 107,63" />
<polygon fill="#94aad0" fill-opacity="0.501961" points="27,108 53,119 43,134" />
<polygon fill="#656ea7" fill-opacity="0.501961" points="204,112 218,105 216,112" />
<polygon fill="#816b73" fill-opacity="0.501961" points="185,77 184,62 220,58" />
<polygon fill="#000000" fill-opacity="0.501961" points="4,116 -16,99 -3,145" />
<polygon fill="#17191d" fill-opacity="0.501961" points="181,-5 184,98 126,98" />
<polygon fill="#70849b" fill-opacity="0.501961" points="49,94 58,126 47,130" />
<polygon fill="#f3f6ec" fill-opacity="0.501961" points="55,105 55,94 69,96" />
<polygon fill="#000000" fill-opacity="0.501961" points="5,95 -15,88 -16,123" />
<polygon fill="#010000" fill-opacity="0.501961" points="271,111 219,109 269,58" />
<polygon fill="#a0b3d5" fill-opacity="0.501961" points="26,110 4,111 20,97" />
<polygon fill="#191b1b" fill-opacity="0.501961" points="116,27 217,19 217,51" />
<polygon fill="#39213e" fill-opacity="0.501961" points="11,74 11,90 23,69" />
<polygon fill="#705956" fill-opacity="0.501961" points="53,27 48,16 49,34" />
<polygon fill="#08205d" fill-opacity="0.501961" points="30,139 20,138 26,122" />
<polygon fill="#807768" fill-opacity="0.501961" points="22,57 29,34 29,49" />
<polygon fill="#000000" fill-opacity="0.501961" points="92,76 84,60 82,87" />
<polygon fill="#b5a387" fill-opacity="0.501961" points="31,76 30,85 25,67" />
<polygon fill="#030000" fill-opacity="0.501961" points="261,160 271,143 212,143" />
<polygon fill="#000e40" fill-opacity="0.501961" points="53,104 60,114 52,115" />
<polygon fill="#000000" fill-opacity="0.501961" points="253,77 254,151 271,93" />
<polygon fill="#6b7cbb" fill-opacity="0.501961" points="181,142 206,143 189,147" />
<polygon fill="#fffffa" fill-opacity="0.501961" points="50,94 40,82 55,82" />
<polygon fill="#ac9f8c" fill-opacity="0.501961" points="100,82 106,79 100,64" />
<polygon fill="#56659a" fill-opacity="0.501961" points="181,110 183,92 191,116" />
<polygon fill="#001f59" fill-opacity="0.501961" points="84,113 87,123 69,123" />
<polygon fill="#00184d" fill-opacity="0.501961" points="107,112 176,143 189,124" />
<polygon fill="#fbfcf1" fill-opacity="0.501961" points="66,54 48,53 69,85" />
<polygon fill="#221a0f" fill-opacity="0.501961" points="85,112 69,64 70,90" />
<polygon fill="#dedef7" fill-opacity="0.501961" points="57,141 47,153 73,160" />
<polygon fill="#0e0f0f" fill-opacity="0.501961" points="233,52 209,84 236,110" />
<polygon fill="#fcffff" fill-opacity="0.501961" points="29,110 51,111 37,98" />
<polygon fill="#ffe3cf" fill-opacity="0.501961" points="201,85 209,80 194,65" />
<polygon fill="#000000" fill-opacity="0.501961" points="66,144 118,160 131,143" />
<polygon fill="#3864c0" fill-opacity="0.501961" points="45,115 31,111 58,111" />
<polygon fill="#59535a" fill-opacity="0.501961" points="41,13 34,25 57,7" />
<polygon fill="#ffa5c7" fill-opacity="0.501961" points="210,60 202,56 189,60" />
<polygon fill="#1b1611" fill-opacity="0.501961" points="85,45 71,71 66,51" />
<polygon fill="#60555f" fill-opacity="0.501961" points="193,77 201,57 203,66" />
<polygon fill="#a9a1b0" fill-opacity="0.501961" points="125,70 129,76 128,84" />
<polygon fill="#1a1c1d" fill-opacity="0.501961" points="89,69 173,60 89,-6" />
<polygon fill="#c18b81" fill-opacity="0.501961" points="197,97 192,87 210,92" />
<polygon fill="#211f18" fill-opacity="0.501961" points="172,-11 177,65 196,47" />
<polygon fill="#a2725c" fill-opacity="0.501961" points="46,41 37,42 29,37" />
<polygon fill="#6c6568" fill-opacity="0.501961" points="25,34 22,5 32,14" />
<polygon fill="#040000" fill-opacity="0.501961" points="142,160 87,143 179,143" />
<polygon fill="#ffffff" fill-opacity="0.501961" points="212,105 204,96 214,92" />
<polygon fill="#534d47" fill-opacity="0.501961" points="88,-4 78,36 89,49" />
<polygon fill="#abaf9d" fill-opacity="0.501961" points="55,83 50,70 55,74" />
<polygon fill="#545b89" fill-opacity="0.501961" points="210,111 219,111 218,92" />
<polygon fill="#070102" fill-opacity="0.501961" points="136,106 120,110 106,105" />
<polygon fill="#00184f" fill-opacity="0.501961" points="257,110 217,160 215,114" />
<polygon fill="#000000" fill-opacity="0.501961" points="35,-16 90,-16 61,11" />
<polygon fill="#4a638a" fill-opacity="0.501961" points="104,115 91,115 96,129" />
<polygon fill="#fff0dd" fill-opacity="0.501961" points="35,38 26,25 47,30" />
<polygon fill="#000000" fill-opacity="0.501961" points="65,-16 71,49 50,46" />
<polygon fill="#d3b9ae" fill-opacity="0.501961" points="199,109 201,98 187,112" />
<polygon fill="#000000" fill-opacity="0.501961" points="256,124 225,-16 271,-6" />
<polygon fill="#1c3b85" fill-opacity="0.501961" points="219,153 201,112 176,111" />
<polygon fill="#c1c0a8" fill-opacity="0.501961" points="41,101 51,96 53,110" />
<polygon fill="#001950" fill-opacity="0.501961" points="121,140 136,128 81,120" />
<polygon fill="#243d71" fill-opacity="0.501961" points="12,127 13,140 38,150" />
<polygon fill="#535256" fill-opacity="0.501961" points="105,68 95,61 108,62" />
<polygon fill="#3f5fa3" fill-opacity="0.501961" points="24,106 28,97 30,109" />
<polygon fill="#090b0a" fill-opacity="0.501961" points="215,-11 179,-14 236,96" />
<polygon fill="#dde7d4" fill-opacity="0.501961" points="8,97 23,97 11,93" />
<polygon fill="#8798bd" fill-opacity="0.501961" points="67,119 58,111 57,133" />
<polygon fill="#000000" fill-opacity="0.501961" points="-10,58 24,-9 18,41" />
<polygon fill="#5a3852" fill-opacity="0.501961" points="14,56 16,88 4,96" />
<polygon fill="#6e4460" fill-opacity="0.501961" points="23,52 23,71 -16,70" />
<polygon fill="#744f6c" fill-opacity="0.501961" points="3,71 6,49 22,41" />
<polygon fill="#000000" fill-opacity="0.501961" points="53,91 57,110 52,106" />
<polygon fill="#fbfff6" fill-opacity="0.501961" points="35,102 18,82 24,75" />
<polygon fill="#17181d" fill-opacity="0.501961" points="193,85 99,32 168,100" />
<polygon fill="#524b3a" fill-opacity="0.501961" points="179,98 152,102 179,106" />
<polygon fill="#ffe6d4" fill-opacity="0.501961" points="27,67 31,34 38,63" />
<polygon fill="#8c778a" fill-opacity="0.501961" points="201,51 213,54 186,57" />
<polygon fill="#000000" fill-opacity="0.501961" points="29,36 -5,51 8,14" />
<polygon fill="#323a83" fill-opacity="0.501961" points="10,101 2,113 4,96" />
<polygon fill="#a56a5f" fill-opacity="0.501961" points="208,102 209,108 207,107" />
<polygon fill="#a7ab98" fill-opacity="0.501961" points="59,97 68,86 69,93" />
<polygon fill="#7283a0" fill-opacity="0.501961" points="81,124 65,129 92,128" />
<polygon fill="#fff1dc" fill-opacity="0.501961" points="35,21 28,32 30,23" />
<polygon fill="#5188ff" fill-opacity="0.501961" points="246,129 247,139 243,131" />
<polygon fill="#d6b9a3" fill-opacity="0.501961" points="50,31 45,17 46,31" />
<polygon fill="#093281" fill-opacity="0.501961" points="68,112 75,117 91,111" />
<polygon fill="#364f7d" fill-opacity="0.501961" points="52,129 58,129 56,111" />
<polygon fill="#79696f" fill-opacity="0.501961" points="134,68 129,85 124,67" />
<polygon fill="#b890af" fill-opacity="0.501961" points="193,62 189,54 188,68" />
<polygon fill="#000000" fill-opacity="0.501961" points="0,76 0,101 -12,68" />
<polygon fill="#fbfdf6" fill-opacity="0.501961" points="62,52 56,50 57,73" />
<polygon fill="#ffffff" fill-opacity="0.501961" points="186,90 195,96 189,106" />
<polygon fill="#f6f8f2" fill-opacity="0.501961" points="56,53 51,88 19,97" />
<polygon fill="#072667" fill-opacity="0.501961" points="240,111 252,111 252,145" />
<polygon fill="#a7b7d3" fill-opacity="0.501961" points="33,117 44,128 52,116" />
<polygon fill="#262620" fill-opacity="0.501961" points="88,25 183,26 105,-12" />
<polygon fill="#000000" fill-opacity="0.501961" points="10,40 -16,55 -6,75" />
<polygon fill="#b4b7a5" fill-opacity="0.501961" points="64,60 69,68 68,75" />
<polygon fill="#fffff9" fill-opacity="0.501961" points="60,89 60,105 55,103" />
<polygon fill="#646572" fill-opacity="0.501961" points="24,4 45,-7 45,23" />
<polygon fill="#161719" fill-opacity="0.501961" points="147,98 113,72 90,96" />
<polygon fill="#56504a" fill-opacity="0.501961" points="75,58 86,63 86,47" />
<polygon fill="#001550" fill-opacity="0.501961" points="249,142 234,132 211,141" />
<polygon fill="#181108" fill-opacity="0.501961" points="163,104 135,104 157,110" />
<polygon fill="#000000" fill-opacity="0.501961" points="71,36 52,47 44,36" />
<polygon fill="#bcbba2" fill-opacity="0.501961" points="24,61 25,72 31,79" />
<polygon fill="#60545a" fill-opacity="0.501961" points="205,66 208,77 197,64" />
<polygon fill="#041f57" fill-opacity="0.501961" points="67,158 62,138 70,123" />
<polygon fill="#6b84b5" fill-opacity="0.501961" points="34,124 54,124 39,119" />
<polygon fill="#2a2728" fill-opacity="0.501961" points="94,89 108,87 94,69" />
<polygon fill="#020200" fill-opacity="0.501961" points="172,15 159,12 169,-16" />
<polygon fill="#000000" fill-opacity="0.501961" points="-11,137 6,146 -10,112" />
<polygon fill="#221912" fill-opacity="0.501961" points="73,24 68,62 77,41" />
<polygon fill="#1f1511" fill-opacity="0.501961" points="83,105 72,90 70,112" />
<polygon fill="#39301a" fill-opacity="0.501961" points="194,39 187,55 179,42" />
<polygon fill="#001752" fill-opacity="0.501961" points="66,132 98,129 63,142" />
<polygon fill="#6682c0" fill-opacity="0.501961" points="30,133 39,132 28,125" />
<polygon fill="#00174e" fill-opacity="0.501961" points="92,120 93,142 99,139" />
<polygon fill="#6a6d7d" fill-opacity="0.501961" points="51,3 56,9 55,14" />
<polygon fill="#12336b" fill-opacity="0.501961" points="137,111 156,116 176,110" />
<polygon fill="#274490" fill-opacity="0.501961" points="216,125 189,116 212,111" />
<polygon fill="#5a5346" fill-opacity="0.501961" points="84,101 108,102 96,105" />
<polygon fill="#ffffff" fill-opacity="0.501961" points="214,95 211,106 202,96" />
<polygon fill="#5a5046" fill-opacity="0.501961" points="87,105 77,87 88,90" />
<polygon fill="#9ba39a" fill-opacity="0.501961" points="35,45 34,56 40,55" />
<polygon fill="#9aa7ba" fill-opacity="0.501961" points="98,114 96,120 95,117" />
<polygon fill="#011c51" fill-opacity="0.501961" points="99,110 100,123 102,113" />
<polygon fill="#f2fcfb" fill-opacity="0.501961" points="38,44 44,44 39,52" />
<polygon fill="#504225" fill-opacity="0.501961" points="48,160 31,143 -16,145" />
<polygon fill="#687a9a" fill-opacity="0.501961" points="61,132 86,125 67,124" />
<polygon fill="#ffe7d5" fill-opacity="0.501961" points="34,36 45,28 29,21" />
<polygon fill="#1a1a0d" fill-opacity="0.501961" points="55,86 54,84 55,83" />
<polygon fill="#fff1dc" fill-opacity="0.501961" points="196,69 209,82 200,78" />
<polygon fill="#7d8c9f" fill-opacity="0.501961" points="76,117 73,115 69,120" />
<polygon fill="#11120e" fill-opacity="0.501961" points="235,99 228,106 213,86" />
<polygon fill="#000000" fill-opacity="0.501961" points="91,91 93,68 83,65" />
<polygon fill="#4a6aad" fill-opacity="0.501961" points="26,97 15,101 6,98" />
<polygon fill="#302c39" fill-opacity="0.501961" points="52,12 48,27 54,18" />
<polygon fill="#544f46" fill-opacity="0.501961" points="140,98 119,104 157,104" />
<polygon fill="#fefff9" fill-opacity="0.501961" points="24,90 18,96 19,78" />
<polygon fill="#9fa49b" fill-opacity="0.501961" points="7,93 14,94 15,98" />
<polygon fill="#131518" fill-opacity="0.501961" points="215,46 190,49 201,12" />
<polygon fill="#001850" fill-opacity="0.501961" points="169,112 108,113 149,142" />
<polygon fill="#221913" fill-opacity="0.501961" points="71,100 78,111 108,107" />
<polygon fill="#6875a2" fill-opacity="0.501961" points="186,105 182,113 181,97" />
<polygon fill="#7d415f" fill-opacity="0.501961" points="-16,114 1,110 4,102" />
<polygon fill="#90798a" fill-opacity="0.501961" points="190,52 215,59 201,48" />
<polygon fill="#001549" fill-opacity="0.501961" points="235,129 251,110 252,130" />
<polygon fill="#919b8b" fill-opacity="0.501961" points="43,47 46,42 50,50" />
<polygon fill="#a6b5cd" fill-opacity="0.501961" points="27,100 8,101 14,107" />
<polygon fill="#071f5d" fill-opacity="0.501961" points="48,137 55,130 32,136" />
<polygon fill="#724a65" fill-opacity="0.501961" points="5,55 3,92 22,39" />
<polygon fill="#fdfefa" fill-opacity="0.501961" points="56,79 67,58 61,51" />
<polygon fill="#fff2db" fill-opacity="0.501961" points="189,108 194,109 197,95" />
<polygon fill="#181a1d" fill-opacity="0.501961" points="90,65 117,53 88,-4" />
<polygon fill="#a2aa9b" fill-opacity="0.501961" points="48,52 43,50 45,39" />
<polygon fill="#000000" fill-opacity="0.501961" points="6,7 53,-7 -16,-7" />
<polygon fill="#000000" fill-opacity="0.501961" points="59,5 71,61 56,35" />
<polygon fill="#031f5d" fill-opacity="0.501961" points="205,121 198,127 220,132" />
<polygon fill="#9caecc" fill-opacity="0.501961" points="36,131 35,123 59,123" />
<polygon fill="#e695aa" fill-opacity="0.501961" points="208,60 204,55 196,60" />
<polygon fill="#667997" fill-opacity="0.501961" points="91,115 90,130 85,115" />
<polygon fill="#111313" fill-opacity="0.501961" points="218,94 228,67 213,26" />
<polygon fill="#102b5c" fill-opacity="0.501961" points="73,122 67,134 69,117" />
<polygon fill="#5b73ac" fill-opacity="0.501961" points="55,143 60,142 56,124" />
<polygon fill="#211b0d" fill-opacity="0.501961" points="183,111 173,103 157,110" />
<polygon fill="#000000" fill-opacity="0.501961" points="188,-16 271,7 201,14" />
<polygon fill="#6e405a" fill-opacity="0.501961" points="12,91 2,84 2,94" />
<polygon fill="#6f83be" fill-opacity="0.501961" points="9,135 4,138 4,122" />
<polygon fill="#fffffc" fill-opacity="0.501961" points="57,92 65,94 64,78" />
<polygon fill="#b5c3da" fill-opacity="0.501961" points="33,115 43,121 52,116" />
<polygon fill="#5270ad" fill-opacity="0.501961" points="10,107 20,110 28,106" />
<polygon fill="#c9cec3" fill-opacity="0.501961" points="26,91 27,81 31,83" />
<polygon fill="#c07044" fill-opacity="0.501961" points="61,108 67,106 67,110" />
<polygon fill="#1e1910" fill-opacity="0.501961" points="78,15 72,40 70,-6" />
<polygon fill="#17191b" fill-opacity="0.501961" points="179,100 185,47 108,99" />
<polygon fill="#182743" fill-opacity="0.501961" points="196,72 191,71 196,75" />
<polygon fill="#796775" fill-opacity="0.501961" points="199,59 183,66 210,62" />
<polygon fill="#fff3e5" fill-opacity="0.501961" points="46,26 41,24 40,37" />
<polygon fill="#4d84ff" fill-opacity="0.501961" points="247,133 241,130 243,137" />
<polygon fill="#18191b" fill-opacity="0.501961" points="111,66 126,75 103,97" />
<polygon fill="#000000" fill-opacity="0.501961" points="54,34 48,45 47,41" />
<polygon fill="#8494ad" fill-opacity="0.501961" points="74,130 70,122 71,128" />
<polygon fill="#a7735b" fill-opacity="0.501961" points="44,42 37,39 42,37" />
<polygon fill="#6f6566" fill-opacity="0.501961" points="42,8 45,24 38,18" />
<polygon fill="#001a52" fill-opacity="0.501961" points="239,136 253,116 212,141" />
<polygon fill="#001a50" fill-opacity="0.501961" points="177,108 150,142 185,130" />
<polygon fill="#5a6d8f" fill-opacity="0.501961" points="96,128 98,116 94,124" />
<polygon fill="#f3f6f1" fill-opacity="0.501961" points="30,76 30,106 52,52" />
<polygon fill="#001953" fill-opacity="0.501961" points="140,143 93,122 146,122" />
<polygon fill="#58534a" fill-opacity="0.501961" points="109,103 136,103 123,99" />
<polygon fill="#6e7f9d" fill-opacity="0.501961" points="81,120 81,118 86,122" />
<polygon fill="#203d86" fill-opacity="0.501961" points="208,120 198,125 183,108" />
<polygon fill="#644c4d" fill-opacity="0.501961" points="201,64 215,79 216,73" />
<polygon fill="#536997" fill-opacity="0.501961" points="11,142 33,155 28,143" />
<polygon fill="#62606a" fill-opacity="0.501961" points="53,6 38,9 35,25" />
<polygon fill="#bdcdbc" fill-opacity="0.501961" points="20,51 27,47 25,43" />
<polygon fill="#09090a" fill-opacity="0.501961" points="232,74 198,87 265,82" />
<polygon fill="#b58d89" fill-opacity="0.501961" points="199,85 210,89 191,89" />
<polygon fill="#caae95" fill-opacity="0.501961" points="49,22 39,18 46,18" />
<polygon fill="#a4b1bc" fill-opacity="0.501961" points="196,92 193,87 189,89" />
<polygon fill="#1a1614" fill-opacity="0.501961" points="123,105 110,110 93,104" />
<polygon fill="#060000" fill-opacity="0.501961" points="217,143 255,160 268,143" />
<polygon fill="#f7a0c4" fill-opacity="0.501961" points="206,58 196,57 188,61" />
<polygon fill="#b7bcac" fill-opacity="0.501961" points="70,103 68,83 62,104" />
<polygon fill="#fffffa" fill-opacity="0.501961" points="40,110 49,110 48,104" />
<polygon fill="#212019" fill-opacity="0.501961" points="87,101 101,99 89,84" />
<polygon fill="#f4f5f1" fill-opacity="0.501961" points="42,99 63,53 20,94" />
<polygon fill="#4a3049" fill-opacity="0.501961" points="14,76 16,86 -4,93" />
<polygon fill="#17160f" fill-opacity="0.501961" points="183,58 168,45 192,50" />
<polygon fill="#4e4347" fill-opacity="0.501961" points="55,24 44,33 51,32" />
<polygon fill="#191a1e" fill-opacity="0.501961" points="105,72 127,100 116,57" />
<polygon fill="#000000" fill-opacity="0.501961" points="24,4 -15,50 -2,-16" />
<polygon fill="#465b80" fill-opacity="0.501961" points="60,121 55,123 53,130" />
<polygon fill="#1a1a1f" fill-opacity="0.501961" points="171,69 196,86 173,85" />
<polygon fill="#3c331c" fill-opacity="0.501961" points="135,37 120,40 120,45" />
<polygon fill="#28479a" fill-opacity="0.501961" points="207,143 211,131 177,143" />
<polygon fill="#1e1d22" fill-opacity="0.501961" points="193,87 189,78 171,83" />
<polygon fill="#ccccbb" fill-opacity="0.501961" points="106,69 99,74 101,76" />
<polygon fill="#cebab2" fill-opacity="0.501961" points="129,71 128,73 123,74" />
<polygon fill="#533a39" fill-opacity="0.501961" points="133,73 133,67 126,67" />
<polygon fill="#939fab" fill-opacity="0.501961" points="204,86 210,94 213,90" />
<polygon fill="#c1bfc9" fill-opacity="0.501961" points="196,108 195,113 202,104" />
<polygon fill="#f4e5e1" fill-opacity="0.501961" points="203,110 202,105 196,111" />
<polygon fill="#000000" fill-opacity="0.501961" points="1,151 -14,99 1,116" />
<polygon fill="#4e6aa3" fill-opacity="0.501961" points="24,99 25,109 28,99" />
<polygon fill="#000000" fill-opacity="0.501961" points="61,50 69,38 70,53" />
<polygon fill="#667fb8" fill-opacity="0.501961" points="22,112 22,134 10,125" />
<polygon fill="#4c4641" fill-opacity="0.501961" points="86,47 77,15 87,-7" />
<polygon fill="#131008" fill-opacity="0.501961" points="51,90 56,89 57,86" />
<polygon fill="#f8f9f4" fill-opacity="0.501961" points="57,54 67,78 56,89" />
<polygon fill="#62719f" fill-opacity="0.501961" points="5,138 6,119 12,139" />
<polygon fill="#fcfef9" fill-opacity="0.501961" points="52,77 32,102 52,88" />
<polygon fill="#84707f" fill-opacity="0.501961" points="212,51 216,60 195,52" />
<polygon fill="#1f1b19" fill-opacity="0.501961" points="69,63 78,88 76,40" />
<polygon fill="#5170ba" fill-opacity="0.501961" points="66,111 63,117 58,111" />
<polygon fill="#052155" fill-opacity="0.501961" points="91,122 80,124 88,120" />
<polygon fill="#ffe6d4" fill-opacity="0.501961" points="192,81 203,76 200,84" />
<polygon fill="#f9e4d3" fill-opacity="0.501961" points="34,43 35,86 27,62" />
<polygon fill="#fedfc1" fill-opacity="0.501961" points="56,143 74,149 40,149" />
<polygon fill="#6e5b3b" fill-opacity="0.501961" points="54,143 64,157 32,143" />
<polygon fill="#0c0d0d" fill-opacity="0.501961" points="207,48 232,18 225,59" />
<polygon fill="#c4bdc2" fill-opacity="0.501961" points="130,77 127,76 125,72" />
<polygon fill="#6c485e" fill-opacity="0.501961" points="-5,66 24,68 23,51" />
<polygon fill="#b9d0f9" fill-opacity="0.501961" points="18,113 15,110 26,110" />
<polygon fill="#fff5dc" fill-opacity="0.501961" points="202,86 190,75 192,81" />
<polygon fill="#000008" fill-opacity="0.501961" points="30,143 60,150 40,156" />
<polygon fill="#000000" fill-opacity="0.501961" points="253,109 253,146 271,120" />
<polygon fill="#2a2519" fill-opacity="0.501961" points="219,106 231,101 221,100" />
<polygon fill="#5f79b2" fill-opacity="0.501961" points="5,111 10,122 36,114" />
<polygon fill="#15140f" fill-opacity="0.501961" points="194,1 193,21 142,20" />
<polygon fill="#1e4794" fill-opacity="0.501961" points="220,111 231,111 225,113" />
<polygon fill="#fde8e6" fill-opacity="0.501961" points="56,112 61,110 58,109" />
<polygon fill="#4d3e45" fill-opacity="0.501961" points="188,84 184,79 188,66" />
<polygon fill="#524c55" fill-opacity="0.501961" points="47,15 39,19 45,8" />
<polygon fill="#5b5449" fill-opacity="0.501961" points="177,101 181,104 168,103" />
<polygon fill="#101316" fill-opacity="0.501961" points="179,78 187,89 192,85" />
<polygon fill="#141010" fill-opacity="0.501961" points="82,103 67,110 71,103" />
<polygon fill="#072665" fill-opacity="0.501961" points="83,143 134,143 112,134" />
<polygon fill="#001952" fill-opacity="0.501961" points="160,142 63,142 171,112" />
<polygon fill="#163069" fill-opacity="0.501961" points="22,135 11,138 11,130" />
</g>
</svg>