<svg xmlns="http://www.w3.org/2000/svg" version="1.1" width="1024" height="580">
<rect x="0" y="0" width="1024" height="580" fill="#030915" />
<g transform="scale(4.000000) translate(0.5 0.5)">
<polygon fill="#204ca8" fill-opacity="0.501961" points="271,111 -16,112 125,160" />
<polygon fill="#7385a0" fill-opacity="0.501961" points="91,110 18,127 133,131" />
<polygon fill="#0a389c" fill-opacity="0.501961" points="251,160 166,148 252,118" />
<polygon fill="#000000" fill-opacity="0.501961" points="6,-16 271,48 -16,123" />
<polygon fill="#00257c" fill-opacity="0.501961" points="6,157 95,153 4,111" />
<polygon fill="#000000" fill-opacity="0.501961" points="-16,110 245,-16 271,110" />
<polygon fill="#000b46" fill-opacity="0.501961" points="269,112 121,113 147,160" />
<polygon fill="#000000" fill-opacity="0.501961" points="-16,10 255,-16 264,115" />
<polygon fill="#62a7ff" fill-opacity="0.501961" points="246,138 240,136 247,127" />
<polygon fill="#5a6d8e" fill-opacity="0.501961" points="38,110 107,130 43,130" />
<polygon fill="#000000" fill-opacity="0.501961" points="3,-16 -16,110 271,109" />
<polygon fill="#00164f" fill-opacity="0.501961" points="39,160 40,111 -1,110" />
<polygon fill="#001148" fill-opacity="0.501961" points="149,129 34,135 138,160" />
<polygon fill="#00053e" fill-opacity="0.501961" points="82,108 64,114 105,115" />
<polygon fill="#5f7191" fill-opacity="0.501961" points="117,115 69,130 40,116" />
<polygon fill="#8797ad" fill-opacity="0.501961" points="128,121 128,128 107,128" />
<polygon fill="#000000" fill-opacity="0.501961" points="-14,119 -16,-3 268,-2" />
<polygon fill="#263f6c" fill-opacity="0.501961" points="88,122 38,121 59,130" />
<polygon fill="#001a52" fill-opacity="0.501961" points="107,112 191,160 253,124" />
<polygon fill="#001d59" fill-opacity="0.501961" points="5,111 7,160 43,112" />
<polygon fill="#00114b" fill-opacity="0.501961" points="138,123 126,117 106,122" />
<polygon fill="#0a0000" fill-opacity="0.501961" points="163,144 260,143 223,160" />
<polygon fill="#95a3b5" fill-opacity="0.501961" points="106,115 92,120 86,115" />
<polygon fill="#6d7e99" fill-opacity="0.501961" points="39,131 66,126 41,123" />
<polygon fill="#080000" fill-opacity="0.501961" points="115,144 167,160 167,143" />
<polygon fill="#0c0000" fill-opacity="0.501961" points="35,160 16,143 95,144" />
<polygon fill="#00164c" fill-opacity="0.501961" points="90,123 100,125 106,121" />
<polygon fill="#0a2a6b" fill-opacity="0.501961" points="46,133 62,143 9,143" />
<polygon fill="#000000" fill-opacity="0.501961" points="223,32 254,-16 271,160" />
<polygon fill="#8795ac" fill-opacity="0.501961" points="92,124 106,129 104,124" />
<polygon fill="#7c8ba5" fill-opacity="0.501961" points="129,129 128,122 108,129" />
<polygon fill="#5c94ff" fill-opacity="0.501961" points="243,137 247,134 242,130" />
<polygon fill="#000000" fill-opacity="0.501961" points="3,84 -16,145 2,160" />
<polygon fill="#001a54" fill-opacity="0.501961" points="181,142 256,113 114,119" />
<polygon fill="#00154d" fill-opacity="0.501961" points="8,119 41,140 39,114" />
<polygon fill="#082358" fill-opacity="0.501961" points="53,120 63,123 42,124" />
<polygon fill="#7c8ca6" fill-opacity="0.501961" points="65,124 72,128 84,125" />
<polygon fill="#001750" fill-opacity="0.501961" points="252,114 228,125 250,131" />
<polygon fill="#001855" fill-opacity="0.501961" points="63,115 54,110 41,114" />
<polygon fill="#00164e" fill-opacity="0.501961" points="85,132 26,130 51,142" />
<polygon fill="#001950" fill-opacity="0.501961" points="74,122 85,125 94,122" />
<polygon fill="#000000" fill-opacity="0.501961" points="271,103 68,111 161,-16" />
<polygon fill="#001b53" fill-opacity="0.501961" points="124,113 119,114 123,129" />
<polygon fill="#627594" fill-opacity="0.501961" points="112,114 98,122 112,120" />
<polygon fill="#617393" fill-opacity="0.501961" points="68,130 48,130 61,125" />
<polygon fill="#060200" fill-opacity="0.501961" points="160,143 152,160 90,144" />
<polygon fill="#aeb8c7" fill-opacity="0.501961" points="111,128 107,129 109,124" />
<polygon fill="#617494" fill-opacity="0.501961" points="40,114 63,122 41,121" />
<polygon fill="#8090a9" fill-opacity="0.501961" points="83,128 79,129 82,116" />
<polygon fill="#000000" fill-opacity="0.501961" points="253,151 253,109 271,112" />
<polygon fill="#000743" fill-opacity="0.501961" points="68,129 70,129 69,122" />
<polygon fill="#001853" fill-opacity="0.501961" points="149,131 114,142 79,130" />
<polygon fill="#072967" fill-opacity="0.501961" points="172,143 126,143 145,134" />
<polygon fill="#062462" fill-opacity="0.501961" points="46,111 29,121 3,112" />
<polygon fill="#080300" fill-opacity="0.501961" points="-3,143 61,143 2,159" />
<polygon fill="#6f819d" fill-opacity="0.501961" points="55,120 71,116 45,115" />
<polygon fill="#00296d" fill-opacity="0.501961" points="83,116 88,112 70,111" />
<polygon fill="#bdc6d1" fill-opacity="0.501961" points="128,127 125,130 124,125" />
<polygon fill="#062256" fill-opacity="0.501961" points="48,129 47,119 45,131" />
<polygon fill="#00215e" fill-opacity="0.501961" points="80,130 104,142 64,143" />
<polygon fill="#001952" fill-opacity="0.501961" points="125,139 244,142 231,113" />
<polygon fill="#173262" fill-opacity="0.501961" points="112,124 114,128 115,119" />
<polygon fill="#060300" fill-opacity="0.501961" points="264,143 228,156 190,144" />
<polygon fill="#0c2759" fill-opacity="0.501961" points="63,123 54,119 60,124" />
<polygon fill="#001952" fill-opacity="0.501961" points="23,142 43,122 11,126" />
<polygon fill="#102c5e" fill-opacity="0.501961" points="92,116 90,118 93,123" />
<polygon fill="#8391a7" fill-opacity="0.501961" points="42,130 40,125 45,129" />
<polygon fill="#000000" fill-opacity="0.501961" points="232,110 271,-1 -16,0" />
<polygon fill="#0c285c" fill-opacity="0.501961" points="62,120 60,110 64,110" />
<polygon fill="#4b81ff" fill-opacity="0.501961" points="242,133 250,139 245,131" />
<polygon fill="#112e69" fill-opacity="0.501961" points="4,121 18,159 4,153" />
<polygon fill="#092662" fill-opacity="0.501961" points="228,143 201,133 167,142" />
<polygon fill="#001951" fill-opacity="0.501961" points="170,113 118,142 251,142" />
<polygon fill="#000000" fill-opacity="0.501961" points="-16,121 4,153 3,107" />
<polygon fill="#001850" fill-opacity="0.501961" points="5,113 6,142 43,112" />
<polygon fill="#031c52" fill-opacity="0.501961" points="77,125 80,144 75,142" />
<polygon fill="#02225c" fill-opacity="0.501961" points="98,117 98,114 106,111" />
<polygon fill="#7989a4" fill-opacity="0.501961" points="51,123 48,129 53,130" />
<polygon fill="#032053" fill-opacity="0.501961" points="106,131 110,121 106,126" />
<polygon fill="#1f4187" fill-opacity="0.501961" points="252,114 253,128 250,122" />
<polygon fill="#001a53" fill-opacity="0.501961" points="203,135 251,129 251,114" />
<polygon fill="#93a0b4" fill-opacity="0.501961" points="79,122 78,117 82,121" />
<polygon fill="#001a53" fill-opacity="0.501961" points="99,131 25,132 65,143" />
<polygon fill="#001a54" fill-opacity="0.501961" points="132,142 242,112 127,112" />
<polygon fill="#7788a1" fill-opacity="0.501961" points="110,119 111,115 113,118" />
<polygon fill="#040000" fill-opacity="0.501961" points="18,144 11,160 -10,143" />
<polygon fill="#7888a3" fill-opacity="0.501961" points="91,130 76,127 89,125" />
<polygon fill="#000a40" fill-opacity="0.501961" points="86,118 83,113 81,114" />
<polygon fill="#5086ff" fill-opacity="0.501961" points="245,131 240,138 248,136" />
<polygon fill="#000000" fill-opacity="0.501961" points="-3,109 270,110 -16,-16" />
<polygon fill="#6d7e9b" fill-opacity="0.501961" points="103,127 108,124 112,125" />
<polygon fill="#001b58" fill-opacity="0.501961" points="241,138 248,141 249,139" />
<polygon fill="#062458" fill-opacity="0.501961" points="67,124 75,123 69,121" />
<polygon fill="#001952" fill-opacity="0.501961" points="40,120 38,141 6,140" />
<polygon fill="#99a7b9" fill-opacity="0.501961" points="97,121 99,119 97,120" />
<polygon fill="#0c2967" fill-opacity="0.501961" points="68,136 87,143 49,143" />
<polygon fill="#00184f" fill-opacity="0.501961" points="85,133 84,127 78,142" />
<polygon fill="#031e54" fill-opacity="0.501961" points="92,122 91,132 95,138" />
<polygon fill="#00154d" fill-opacity="0.501961" points="85,132 92,142 51,140" />
<polygon fill="#1f458d" fill-opacity="0.501961" points="118,141 123,143 112,143" />
<polygon fill="#001a53" fill-opacity="0.501961" points="169,135 107,112 155,113" />
<polygon fill="#060604" fill-opacity="0.501961" points="141,143 63,143 123,160" />
<polygon fill="#000000" fill-opacity="0.501961" points="41,111 9,100 79,67" />
<polygon fill="#133474" fill-opacity="0.501961" points="5,116 4,111 16,112" />
<polygon fill="#001851" fill-opacity="0.501961" points="104,131 69,142 138,142" />
<polygon fill="#55688c" fill-opacity="0.501961" points="68,124 64,129 57,123" />
<polygon fill="#113064" fill-opacity="0.501961" points="69,116 89,110 64,110" />
<polygon fill="#001c53" fill-opacity="0.501961" points="122,127 119,136 125,135" />
<polygon fill="#001952" fill-opacity="0.501961" points="6,131 43,113 5,112" />
<polygon fill="#001953" fill-opacity="0.501961" points="114,117 136,112 145,130" />
<polygon fill="#8897ae" fill-opacity="0.501961" points="43,119 46,116 38,116" />
<polygon fill="#001a52" fill-opacity="0.501961" points="40,115 36,142 9,141" />
<polygon fill="#001850" fill-opacity="0.501961" points="250,134 250,121 241,122" />
<polygon fill="#253e6b" fill-opacity="0.501961" points="53,130 51,127 55,123" />
<polygon fill="#71819f" fill-opacity="0.501961" points="93,126 89,127 96,129" />
<polygon fill="#0f327d" fill-opacity="0.501961" points="62,111 71,114 77,111" />
<polygon fill="#153878" fill-opacity="0.501961" points="4,121 5,139 7,130" />
<polygon fill="#8f9db2" fill-opacity="0.501961" points="88,118 91,121 86,120" />
<polygon fill="#7586a1" fill-opacity="0.501961" points="65,125 53,127 58,124" />
<polygon fill="#0b275c" fill-opacity="0.501961" points="45,114 49,121 47,112" />
<polygon fill="#a4afc1" fill-opacity="0.501961" points="118,125 115,125 116,129" />
<polygon fill="#7c8ca5" fill-opacity="0.501961" points="75,115 73,118 71,116" />
<polygon fill="#102e6c" fill-opacity="0.501961" points="163,138 180,143 155,143" />
<polygon fill="#001952" fill-opacity="0.501961" points="117,141 230,142 186,122" />
<polygon fill="#00185c" fill-opacity="0.501961" points="94,114 98,111 85,113" />
<polygon fill="#4b6185" fill-opacity="0.501961" points="110,116 114,122 116,120" />
<polygon fill="#001a53" fill-opacity="0.501961" points="44,142 5,140 5,114" />
<polygon fill="#808fa8" fill-opacity="0.501961" points="90,115 104,116 107,121" />
<polygon fill="#000000" fill-opacity="0.501961" points="256,154 271,147 253,92" />
<polygon fill="#001b54" fill-opacity="0.501961" points="40,113 36,132 4,117" />
<polygon fill="#000000" fill-opacity="0.501961" points="5,105 -11,119 -3,160" />
<polygon fill="#7887a2" fill-opacity="0.501961" points="120,129 123,125 115,130" />
<polygon fill="#657796" fill-opacity="0.501961" points="105,128 105,123 96,130" />
<polygon fill="#153373" fill-opacity="0.501961" points="20,143 43,143 32,139" />
<polygon fill="#001952" fill-opacity="0.501961" points="11,142 9,114 58,141" />
<polygon fill="#8b98af" fill-opacity="0.501961" points="62,120 66,118 66,116" />
<polygon fill="#001349" fill-opacity="0.501961" points="247,140 250,134 251,141" />
<polygon fill="#1c3665" fill-opacity="0.501961" points="105,121 101,119 93,124" />
<polygon fill="#1c3565" fill-opacity="0.501961" points="58,122 63,129 62,119" />
<polygon fill="#080700" fill-opacity="0.501961" points="162,143 191,143 166,160" />
<polygon fill="#082559" fill-opacity="0.501961" points="95,114 104,116 103,113" />
<polygon fill="#001b53" fill-opacity="0.501961" points="41,120 6,135 5,119" />
<polygon fill="#020302" fill-opacity="0.501961" points="89,111 85,99 64,111" />
<polygon fill="#193c81" fill-opacity="0.501961" points="28,111 36,111 29,114" />
<polygon fill="#001a54" fill-opacity="0.501961" points="157,142 242,132 159,113" />
<polygon fill="#183568" fill-opacity="0.501961" points="160,110 169,113 179,110" />
<polygon fill="#001952" fill-opacity="0.501961" points="43,142 6,112 35,112" />
<polygon fill="#122f65" fill-opacity="0.501961" points="138,115 129,110 155,110" />
<polygon fill="#001a51" fill-opacity="0.501961" points="82,122 79,124 81,124" />
<polygon fill="#001a53" fill-opacity="0.501961" points="123,112 136,137 226,112" />
<polygon fill="#001a53" fill-opacity="0.501961" points="242,112 129,112 240,142" />
<polygon fill="#2f4771" fill-opacity="0.501961" points="82,121 81,116 89,123" />
<polygon fill="#070912" fill-opacity="0.501961" points="72,143 193,143 133,160" />
<polygon fill="#153778" fill-opacity="0.501961" points="25,111 17,112 27,114" />
<polygon fill="#143373" fill-opacity="0.501961" points="238,140 229,143 246,142" />
<polygon fill="#001950" fill-opacity="0.501961" points="32,112 10,112 29,122" />
<polygon fill="#8a99af" fill-opacity="0.501961" points="85,129 79,124 78,128" />
<polygon fill="#a1acbe" fill-opacity="0.501961" points="124,126 127,130 127,128" />
<polygon fill="#7888a3" fill-opacity="0.501961" points="90,116 88,122 86,117" />
<polygon fill="#001a52" fill-opacity="0.501961" points="69,142 88,129 42,140" />
<polygon fill="#00174e" fill-opacity="0.501961" points="223,142 232,135 245,142" />
<polygon fill="#001a53" fill-opacity="0.501961" points="103,130 87,142 128,135" />
<polygon fill="#143167" fill-opacity="0.501961" points="240,110 239,114 225,110" />
<polygon fill="#001a53" fill-opacity="0.501961" points="32,113 9,141 42,142" />
<polygon fill="#001952" fill-opacity="0.501961" points="252,112 233,112 251,133" />
<polygon fill="#052256" fill-opacity="0.501961" points="100,121 107,122 104,123" />
<polygon fill="#000000" fill-opacity="0.501961" points="113,81 166,111 241,105" />
<polygon fill="#052156" fill-opacity="0.501961" points="132,122 128,127 130,121" />
<polygon fill="#112f6e" fill-opacity="0.501961" points="105,143 71,143 89,138" />
<polygon fill="#001950" fill-opacity="0.501961" points="74,142 102,130 134,142" />
<polygon fill="#1b3565" fill-opacity="0.501961" points="112,119 110,117 109,124" />
<polygon fill="#00164e" fill-opacity="0.501961" points="59,112 66,112 63,115" />
<polygon fill="#011e54" fill-opacity="0.501961" points="70,115 59,114 70,112" />
<polygon fill="#001952" fill-opacity="0.501961" points="80,140 93,141 79,129" />
<polygon fill="#153880" fill-opacity="0.501961" points="253,141 252,133 248,132" />
<polygon fill="#001b54" fill-opacity="0.501961" points="24,142 17,132 42,122" />
<polygon fill="#001a53" fill-opacity="0.501961" points="236,114 241,141 142,142" />
<polygon fill="#1e4794" fill-opacity="0.501961" points="49,111 56,111 53,113" />
<polygon fill="#030300" fill-opacity="0.501961" points="36,147 -2,160 3,143" />
<polygon fill="#112f6d" fill-opacity="0.501961" points="179,143 188,138 190,143" />
<polygon fill="#001a53" fill-opacity="0.501961" points="188,142 116,119 236,113" />
<polygon fill="#001a52" fill-opacity="0.501961" points="118,142 85,131 50,141" />
<polygon fill="#00154a" fill-opacity="0.501961" points="252,138 250,141 249,132" />
<polygon fill="#55688a" fill-opacity="0.501961" points="105,117 99,121 113,119" />
<polygon fill="#566b8c" fill-opacity="0.501961" points="95,131 102,125 104,128" />
<polygon fill="#8393aa" fill-opacity="0.501961" points="126,128 124,124 128,125" />
<polygon fill="#28416e" fill-opacity="0.501961" points="89,114 92,116 92,120" />
<polygon fill="#001a52" fill-opacity="0.501961" points="153,140 192,142 200,127" />
<polygon fill="#667897" fill-opacity="0.501961" points="88,127 83,125 91,123" />
<polygon fill="#000000" fill-opacity="0.501961" points="267,108 205,-16 227,111" />
<polygon fill="#7f8fa8" fill-opacity="0.501961" points="95,129 94,126 96,127" />
<polygon fill="#001b53" fill-opacity="0.501961" points="110,141 242,129 165,115" />
<polygon fill="#001c52" fill-opacity="0.501961" points="112,135 114,128 116,131" />
<polygon fill="#143272" fill-opacity="0.501961" points="226,139 235,143 213,143" />
<polygon fill="#00174f" fill-opacity="0.501961" points="222,142 241,140 204,133" />
<polygon fill="#000000" fill-opacity="0.501961" points="55,110 -16,-16 271,4" />
<polygon fill="#133170" fill-opacity="0.501961" points="4,143 9,139 19,143" />
<polygon fill="#183778" fill-opacity="0.501961" points="73,143 57,143 64,140" />
<polygon fill="#001952" fill-opacity="0.501961" points="69,141 8,142 5,120" />
<polygon fill="#000a42" fill-opacity="0.501961" points="80,113 75,115 73,113" />
<polygon fill="#001a53" fill-opacity="0.501961" points="173,140 250,142 191,116" />
<polygon fill="#001951" fill-opacity="0.501961" points="66,130 56,142 68,141" />
<polygon fill="#00134b" fill-opacity="0.501961" points="46,112 39,112 42,114" />
<polygon fill="#133780" fill-opacity="0.501961" points="213,111 205,114 197,111" />
<polygon fill="#6d7d9b" fill-opacity="0.501961" points="110,121 106,115 103,115" />
<polygon fill="#00104a" fill-opacity="0.501961" points="106,117 107,117 106,120" />
<polygon fill="#001246" fill-opacity="0.501961" points="201,112 213,112 203,115" />
<polygon fill="#00154d" fill-opacity="0.501961" points="92,115 95,113 87,113" />
<polygon fill="#0a0f14" fill-opacity="0.501961" points="156,109 163,111 149,111" />
<polygon fill="#001a53" fill-opacity="0.501961" points="5,141 18,114 52,142" />
<polygon fill="#001a53" fill-opacity="0.501961" points="111,113 145,124 149,113" />
<polygon fill="#143171" fill-opacity="0.501961" points="194,139 204,143 185,143" />
<polygon fill="#00164d" fill-opacity="0.501961" points="202,135 204,142 185,141" />
<polygon fill="#71819e" fill-opacity="0.501961" points="54,124 49,124 53,130" />
<polygon fill="#001a53" fill-opacity="0.501961" points="244,142 200,113 181,142" />
<polygon fill="#001b54" fill-opacity="0.501961" points="252,112 240,133 216,114" />
<polygon fill="#0b2d70" fill-opacity="0.501961" points="60,111 48,111 49,114" />
<polygon fill="#122e65" fill-opacity="0.501961" points="118,110 95,110 113,115" />
<polygon fill="#000000" fill-opacity="0.501961" points="47,104 105,111 132,88" />
<polygon fill="#214188" fill-opacity="0.501961" points="252,129 251,133 253,138" />
<polygon fill="#001a53" fill-opacity="0.501961" points="38,131 99,132 64,142" />
<polygon fill="#070a0a" fill-opacity="0.501961" points="130,111 140,108 146,111" />
<polygon fill="#7c8ba6" fill-opacity="0.501961" points="42,129 46,123 41,123" />
<polygon fill="#2d4f9a" fill-opacity="0.501961" points="132,143 129,142 127,143" />
<polygon fill="#021e54" fill-opacity="0.501961" points="128,123 125,116 105,123" />
<polygon fill="#000000" fill-opacity="0.501961" points="163,110 101,35 35,109" />
<polygon fill="#001b54" fill-opacity="0.501961" points="9,129 5,114 44,123" />
<polygon fill="#001a53" fill-opacity="0.501961" points="248,115 193,142 199,113" />
<polygon fill="#001850" fill-opacity="0.501961" points="246,128 251,134 251,118" />
<polygon fill="#8694ab" fill-opacity="0.501961" points="113,130 111,130 112,124" />
<polygon fill="#7c8ca4" fill-opacity="0.501961" points="72,118 72,119 69,118" />
<polygon fill="#001a53" fill-opacity="0.501961" points="252,136 236,113 250,117" />
<polygon fill="#193879" fill-opacity="0.501961" points="150,140 148,143 143,143" />
<polygon fill="#001a53" fill-opacity="0.501961" points="133,120 212,141 127,142" />
<polygon fill="#001a53" fill-opacity="0.501961" points="11,139 7,112 36,112" />
<polygon fill="#001a53" fill-opacity="0.501961" points="153,122 178,142 106,141" />
<polygon fill="#8896ae" fill-opacity="0.501961" points="85,115 88,118 90,116" />
<polygon fill="#000000" fill-opacity="0.501961" points="26,58 25,111 38,91" />
<polygon fill="#021d55" fill-opacity="0.501961" points="56,129 28,139 44,139" />
<polygon fill="#204383" fill-opacity="0.501961" points="243,110 250,112 236,112" />
<polygon fill="#000000" fill-opacity="0.501961" points="250,106 243,107 242,110" />
<polygon fill="#000000" fill-opacity="0.501961" points="216,97 270,106 241,111" />
<polygon fill="#b5bfcc" fill-opacity="0.501961" points="97,115 94,115 95,118" />
<polygon fill="#000000" fill-opacity="0.501961" points="271,146 254,84 254,143" />
<polygon fill="#001a53" fill-opacity="0.501961" points="176,112 195,136 106,112" />
<polygon fill="#001a53" fill-opacity="0.501961" points="70,142 106,130 117,142" />
<polygon fill="#3e74e5" fill-opacity="0.501961" points="241,132 245,129 245,131" />
<polygon fill="#8896ad" fill-opacity="0.501961" points="71,124 72,130 74,127" />
<polygon fill="#001a4f" fill-opacity="0.501961" points="87,112 84,115 74,113" />
<polygon fill="#001a53" fill-opacity="0.501961" points="245,130 245,113 251,122" />
<polygon fill="#133881" fill-opacity="0.501961" points="119,114 130,111 108,111" />
<polygon fill="#001951" fill-opacity="0.501961" points="113,113 151,124 146,112" />
<polygon fill="#000000" fill-opacity="0.501961" points="3,104 -10,119 2,152" />
<polygon fill="#657896" fill-opacity="0.501961" points="61,126 62,129 57,124" />
<polygon fill="#001a53" fill-opacity="0.501961" points="145,112 113,112 147,135" />
<polygon fill="#062156" fill-opacity="0.501961" points="107,136 105,132 114,129" />
<polygon fill="#001b53" fill-opacity="0.501961" points="48,130 49,142 51,136" />
<polygon fill="#94a1b5" fill-opacity="0.501961" points="93,117 96,116 95,121" />
<polygon fill="#001a53" fill-opacity="0.501961" points="195,112 251,130 239,112" />
<polygon fill="#12377e" fill-opacity="0.501961" points="47,114 48,111 37,111" />
<polygon fill="#163575" fill-opacity="0.501961" points="227,143 248,143 237,140" />
<polygon fill="#001950" fill-opacity="0.501961" points="248,142 205,142 227,134" />
<polygon fill="#0e357e" fill-opacity="0.501961" points="105,111 83,111 94,114" />
<polygon fill="#001a53" fill-opacity="0.501961" points="223,130 185,142 243,141" />
<polygon fill="#173a7d" fill-opacity="0.501961" points="106,142 112,141 113,143" />
<polygon fill="#152f60" fill-opacity="0.501961" points="83,124 63,122 73,120" />
<polygon fill="#8a98af" fill-opacity="0.501961" points="103,120 105,118 103,122" />
<polygon fill="#001952" fill-opacity="0.501961" points="129,140 105,132 101,142" />
<polygon fill="#001b54" fill-opacity="0.501961" points="6,141 43,132 5,121" />
<polygon fill="#7989a2" fill-opacity="0.501961" points="48,119 51,119 50,121" />
<polygon fill="#001a54" fill-opacity="0.501961" points="223,118 232,140 149,137" />
<polygon fill="#001a52" fill-opacity="0.501961" points="122,130 81,140 133,142" />
<polygon fill="#394f78" fill-opacity="0.501961" points="117,120 112,120 111,123" />
<polygon fill="#294b94" fill-opacity="0.501961" points="180,143 177,142 174,143" />
<polygon fill="#677999" fill-opacity="0.501961" points="64,114 64,117 63,114" />
<polygon fill="#607292" fill-opacity="0.501961" points="76,131 72,130 75,125" />
<polygon fill="#001a53" fill-opacity="0.501961" points="126,139 179,142 135,118" />
<polygon fill="#001a53" fill-opacity="0.501961" points="14,125 10,136 44,122" />
<polygon fill="#001a53" fill-opacity="0.501961" points="58,131 72,142 24,136" />
<polygon fill="#062057" fill-opacity="0.501961" points="94,137 86,137 92,127" />
<polygon fill="#163676" fill-opacity="0.501961" points="133,143 146,143 135,140" />
<polygon fill="#001449" fill-opacity="0.501961" points="131,141 139,139 144,142" />
<polygon fill="#001a53" fill-opacity="0.501961" points="42,112 22,112 24,130" />
<polygon fill="#042256" fill-opacity="0.501961" points="94,122 95,125 103,122" />
<polygon fill="#12306f" fill-opacity="0.501961" points="48,139 39,143 50,143" />
<polygon fill="#5b6f90" fill-opacity="0.501961" points="73,121 70,118 59,121" />
<polygon fill="#001952" fill-opacity="0.501961" points="50,133 24,139 52,141" />
<polygon fill="#001a53" fill-opacity="0.501961" points="167,115 105,142 200,142" />
<polygon fill="#1d3664" fill-opacity="0.501961" points="115,129 113,131 113,124" />
<polygon fill="#001a52" fill-opacity="0.501961" points="112,125 130,116 120,117" />
<polygon fill="#001950" fill-opacity="0.501961" points="48,142 56,134 35,140" />
<polygon fill="#2850a0" fill-opacity="0.501961" points="115,112 112,111 118,111" />
<polygon fill="#001850" fill-opacity="0.501961" points="69,113 75,115 79,112" />
<polygon fill="#6e7f9b" fill-opacity="0.501961" points="78,115 79,118 82,117" />
<polygon fill="#00194e" fill-opacity="0.501961" points="100,115 92,114 101,112" />
<polygon fill="#55698b" fill-opacity="0.501961" points="117,130 113,129 110,126" />
<polygon fill="#001a53" fill-opacity="0.501961" points="122,123 151,116 112,113" />
<polygon fill="#18387a" fill-opacity="0.501961" points="131,143 125,141 120,143" />
<polygon fill="#2f519c" fill-opacity="0.501961" points="195,142 197,143 198,142" />
<polygon fill="#18356a" fill-opacity="0.501961" points="224,110 221,113 210,110" />
<polygon fill="#001a53" fill-opacity="0.501961" points="139,127 153,142 105,141" />
<polygon fill="#000000" fill-opacity="0.501961" points="211,111 271,106 182,69" />
<polygon fill="#001a53" fill-opacity="0.501961" points="123,142 66,142 91,132" />
<polygon fill="#00174a" fill-opacity="0.501961" points="43,112 50,113 37,115" />
<polygon fill="#00174c" fill-opacity="0.501961" points="62,112 60,115 53,112" />
<polygon fill="#001a53" fill-opacity="0.501961" points="122,114 117,112 123,126" />
<polygon fill="#001a53" fill-opacity="0.501961" points="53,132 30,141 54,142" />
<polygon fill="#001a53" fill-opacity="0.501961" points="249,129 197,112 245,112" />
<polygon fill="#001a52" fill-opacity="0.501961" points="117,114 133,121 119,123" />
<polygon fill="#001a53" fill-opacity="0.501961" points="161,113 139,142 121,142" />
<polygon fill="#55678a" fill-opacity="0.501961" points="47,119 55,121 60,116" />
<polygon fill="#031f56" fill-opacity="0.501961" points="79,139 82,137 76,127" />
<polygon fill="#3e547c" fill-opacity="0.501961" points="77,121 75,120 80,117" />
<polygon fill="#001a53" fill-opacity="0.501961" points="102,134 114,130 126,140" />
<polygon fill="#133271" fill-opacity="0.501961" points="149,142 158,143 159,140" />
<polygon fill="#183568" fill-opacity="0.501961" points="193,113 200,110 185,110" />
<polygon fill="#001952" fill-opacity="0.501961" points="182,140 151,142 132,129" />
<polygon fill="#000000" fill-opacity="0.501961" points="198,111 241,89 146,106" />
<polygon fill="#001a53" fill-opacity="0.501961" points="224,113 122,142 195,142" />
<polygon fill="#001b53" fill-opacity="0.501961" points="34,116 35,120 40,115" />
<polygon fill="#001a53" fill-opacity="0.501961" points="165,112 235,112 180,141" />
<polygon fill="#6a7b99" fill-opacity="0.501961" points="54,117 48,115 53,122" />
<polygon fill="#001951" fill-opacity="0.501961" points="238,136 242,142 220,140" />
<polygon fill="#596b8c" fill-opacity="0.501961" points="102,121 99,119 103,120" />
<polygon fill="#000000" fill-opacity="0.501961" points="222,12 271,64 225,111" />
<polygon fill="#001a54" fill-opacity="0.501961" points="162,122 111,138 165,140" />
<polygon fill="#2f4771" fill-opacity="0.501961" points="87,120 94,122 92,120" />
<polygon fill="#070a0b" fill-opacity="0.501961" points="106,111 107,108 118,111" />
<polygon fill="#002072" fill-opacity="0.501961" points="248,131 247,131 248,133" />
<polygon fill="#000000" fill-opacity="0.501961" points="135,110 35,109 206,64" />
<polygon fill="#193d85" fill-opacity="0.501961" points="210,111 204,113 201,111" />
<polygon fill="#001a53" fill-opacity="0.501961" points="184,136 125,112 250,112" />
<polygon fill="#001a54" fill-opacity="0.501961" points="142,114 116,118 155,125" />
<polygon fill="#001b54" fill-opacity="0.501961" points="230,124 249,120 252,112" />
<polygon fill="#909eb3" fill-opacity="0.501961" points="45,117 42,116 42,119" />
<polygon fill="#001952" fill-opacity="0.501961" points="76,141 73,131 100,132" />
<polygon fill="#011b54" fill-opacity="0.501961" points="31,127 40,126 25,133" />
<polygon fill="#001b54" fill-opacity="0.501961" points="251,128 252,112 240,129" />
<polygon fill="#00144f" fill-opacity="0.501961" points="105,114 99,112 94,114" />
<polygon fill="#000000" fill-opacity="0.501961" points="163,110 144,70 91,109" />
<polygon fill="#1b418c" fill-opacity="0.501961" points="58,113 62,111 56,111" />
<polygon fill="#011d54" fill-opacity="0.501961" points="49,112 54,115 59,114" />
<polygon fill="#1e3e82" fill-opacity="0.501961" points="103,141 110,143 99,143" />
<polygon fill="#8c99b0" fill-opacity="0.501961" points="117,130 120,127 116,126" />
<polygon fill="#001a52" fill-opacity="0.501961" points="87,142 114,141 111,131" />
<polygon fill="#001a53" fill-opacity="0.501961" points="166,117 111,113 138,125" />
<polygon fill="#000000" fill-opacity="0.501961" points="258,66 240,110 255,105" />
<polygon fill="#647695" fill-opacity="0.501961" points="116,123 115,123 116,125" />
<polygon fill="#001a53" fill-opacity="0.501961" points="236,141 242,112 173,112" />
<polygon fill="#13377f" fill-opacity="0.501961" points="146,111 132,111 137,114" />
</g>
</svg>