<svg xmlns="http://www.w3.org/2000/svg" version="1.1" width="1024" height="580">
<rect x="0" y="0" width="1024" height="580" fill="#0a0f1a" />
<g transform="scale(4.000000) translate(0.5 0.5)">
<polygon fill="#3661b6" fill-opacity="0.501961" points="254,112 -9,111 84,160" />
<polygon fill="#010000" fill-opacity="0.501961" points="267,121 -16,3 255,-16" />
<polygon fill="#001d6f" fill-opacity="0.501961" points="252,107 75,147 253,160" />
<polygon fill="#6f819d" fill-opacity="0.501961" points="145,115 36,116 90,143" />
<polygon fill="#000000" fill-opacity="0.501961" points="-16,142 120,76 5,-16" />
<polygon fill="#463f34" fill-opacity="0.501961" points="113,74 168,94 166,29" />
<polygon fill="#002581" fill-opacity="0.501961" points="49,142 5,108 3,145" />
<polygon fill="#000b42" fill-opacity="0.501961" points="164,112 102,160 260,112" />
<polygon fill="#9a8f8e" fill-opacity="0.501961" points="125,64 124,78 146,80" />
<polygon fill="#000000" fill-opacity="0.501961" points="241,-16 144,110 271,109" />
<polygon fill="#57a0ff" fill-opacity="0.501961" points="250,132 241,129 244,140" />
<polygon fill="#5f7290" fill-opacity="0.501961" points="145,118 92,139 139,139" />
<polygon fill="#6e809b" fill-opacity="0.501961" points="40,140 40,121 76,137" />
<polygon fill="#1d1c15" fill-opacity="0.501961" points="174,28 101,19 72,102" />
<polygon fill="#010000" fill-opacity="0.501961" points="168,110 -2,110 -2,-14" />
<polygon fill="#060909" fill-opacity="0.501961" points="156,7 125,90 154,56" />
<polygon fill="#001a57" fill-opacity="0.501961" points="183,160 264,119 137,110" />
<polygon fill="#000633" fill-opacity="0.501961" points="129,139 107,160 42,140" />
<polygon fill="#2f2a21" fill-opacity="0.501961" points="70,89 162,82 123,99" />
<polygon fill="#001558" fill-opacity="0.501961" points="38,160 7,111 40,112" />
<polygon fill="#000000" fill-opacity="0.501961" points="255,-16 258,50 8,1" />
<polygon fill="#000542" fill-opacity="0.501961" points="88,124 101,124 96,111" />
<polygon fill="#000000" fill-opacity="0.501961" points="-16,-5 -4,119 142,-13" />
<polygon fill="#efdfe2" fill-opacity="0.501961" points="129,70 125,74 128,80" />
<polygon fill="#191918" fill-opacity="0.501961" points="166,29 65,87 120,11" />
<polygon fill="#969b9a" fill-opacity="0.501961" points="144,76 137,71 137,83" />
<polygon fill="#7b8ba5" fill-opacity="0.501961" points="103,128 76,129 79,115" />
<polygon fill="#25241e" fill-opacity="0.501961" points="104,91 168,95 132,77" />
<polygon fill="#000000" fill-opacity="0.501961" points="178,110 271,109 170,-16" />
<polygon fill="#001d52" fill-opacity="0.501961" points="88,125 78,122 99,121" />
<polygon fill="#457dff" fill-opacity="0.501961" points="246,139 239,137 248,129" />
<polygon fill="#011d55" fill-opacity="0.501961" points="233,160 241,130 122,130" />
<polygon fill="#040000" fill-opacity="0.501961" points="13,143 60,160 123,143" />
<polygon fill="#000204" fill-opacity="0.501961" points="155,53 144,85 153,89" />
<polygon fill="#122c5e" fill-opacity="0.501961" points="128,124 107,118 98,124" />
<polygon fill="#bac2cf" fill-opacity="0.501961" points="125,120 123,116 136,115" />
<polygon fill="#0b0000" fill-opacity="0.501961" points="143,143 254,144 201,160" />
<polygon fill="#102b5c" fill-opacity="0.501961" points="41,132 60,126 74,132" />
<polygon fill="#022260" fill-opacity="0.501961" points="4,144 5,110 43,111" />
<polygon fill="#000000" fill-opacity="0.501961" points="175,110 55,110 115,92" />
<polygon fill="#7e8da5" fill-opacity="0.501961" points="136,132 117,132 135,137" />
<polygon fill="#0c0e0d" fill-opacity="0.501961" points="127,71 80,28 64,95" />
<polygon fill="#72839e" fill-opacity="0.501961" points="67,129 42,130 49,124" />
<polygon fill="#0b0c0e" fill-opacity="0.501961" points="132,75 138,10 150,69" />
<polygon fill="#001851" fill-opacity="0.501961" points="226,136 128,122 210,112" />
<polygon fill="#00144b" fill-opacity="0.501961" points="44,122 14,136 8,117" />
<polygon fill="#7f8fa9" fill-opacity="0.501961" points="142,123 145,129 130,123" />
<polygon fill="#07286c" fill-opacity="0.501961" points="252,143 242,116 253,119" />
<polygon fill="#1a3363" fill-opacity="0.501961" points="79,124 47,124 69,118" />
<polygon fill="#000d46" fill-opacity="0.501961" points="112,128 117,132 105,132" />
<polygon fill="#39332b" fill-opacity="0.501961" points="155,89 156,31 171,73" />
<polygon fill="#9b7f76" fill-opacity="0.501961" points="133,64 126,63 128,76" />
<polygon fill="#7a89a1" fill-opacity="0.501961" points="130,138 122,133 114,137" />
<polygon fill="#000000" fill-opacity="0.501961" points="253,109 271,143 254,160" />
<polygon fill="#001c55" fill-opacity="0.501961" points="246,140 193,111 123,143" />
<polygon fill="#8695ad" fill-opacity="0.501961" points="79,123 77,130 101,124" />
<polygon fill="#001452" fill-opacity="0.501961" points="90,110 106,113 95,120" />
<polygon fill="#70819e" fill-opacity="0.501961" points="113,130 133,126 108,124" />
<polygon fill="#96a4b7" fill-opacity="0.501961" points="82,115 74,120 92,118" />
<polygon fill="#070400" fill-opacity="0.501961" points="129,160 69,143 189,143" />
<polygon fill="#b4becb" fill-opacity="0.501961" points="56,133 61,133 58,138" />
<polygon fill="#29406d" fill-opacity="0.501961" points="102,130 70,129 84,136" />
<polygon fill="#000003" fill-opacity="0.501961" points="142,86 131,80 133,74" />
<polygon fill="#000b4b" fill-opacity="0.501961" points="98,137 86,141 99,142" />
<polygon fill="#72839e" fill-opacity="0.501961" points="62,132 82,138 100,133" />
<polygon fill="#000000" fill-opacity="0.501961" points="3,157 -16,90 3,86" />
<polygon fill="#22221d" fill-opacity="0.501961" points="95,45 135,44 132,13" />
<polygon fill="#001851" fill-opacity="0.501961" points="150,112 246,112 139,142" />
<polygon fill="#000000" fill-opacity="0.501961" points="259,-16 271,128 123,-16" />
<polygon fill="#0d2d6f" fill-opacity="0.501961" points="221,143 254,143 237,137" />
<polygon fill="#96a2b6" fill-opacity="0.501961" points="45,116 40,120 46,121" />
<polygon fill="#000000" fill-opacity="0.501961" points="1,-16 84,110 -11,109" />
<polygon fill="#001553" fill-opacity="0.501961" points="73,114 54,109 35,115" />
<polygon fill="#15120c" fill-opacity="0.501961" points="177,78 165,102 167,37" />
<polygon fill="#8d8f8f" fill-opacity="0.501961" points="136,79 142,73 144,81" />
<polygon fill="#012057" fill-opacity="0.501961" points="84,132 93,160 80,160" />
<polygon fill="#0d275a" fill-opacity="0.501961" points="129,116 128,123 132,131" />
<polygon fill="#30281e" fill-opacity="0.501961" points="137,69 143,63 124,68" />
<polygon fill="#7989a3" fill-opacity="0.501961" points="71,118 71,129 81,116" />
<polygon fill="#00184f" fill-opacity="0.501961" points="19,122 38,143 40,113" />
<polygon fill="#7484a0" fill-opacity="0.501961" points="58,126 56,116 61,117" />
<polygon fill="#8c9ab0" fill-opacity="0.501961" points="141,118 126,115 122,121" />
<polygon fill="#a19291" fill-opacity="0.501961" points="131,69 130,81 126,68" />
<polygon fill="#1d3867" fill-opacity="0.501961" points="96,116 95,124 70,124" />
<polygon fill="#1d1b17" fill-opacity="0.501961" points="92,98 60,87 113,85" />
<polygon fill="#010100" fill-opacity="0.501961" points="128,85 122,72 82,84" />
<polygon fill="#000000" fill-opacity="0.501961" points="176,-16 271,110 173,108" />
<polygon fill="#0a2458" fill-opacity="0.501961" points="68,121 68,134 72,123" />
<polygon fill="#7b8ba5" fill-opacity="0.501961" points="88,115 72,116 95,122" />
<polygon fill="#022055" fill-opacity="0.501961" points="115,130 117,151 109,160" />
<polygon fill="#2e2d2c" fill-opacity="0.501961" points="127,79 117,91 139,89" />
<polygon fill="#070400" fill-opacity="0.501961" points="20,160 4,143 68,143" />
<polygon fill="#001c53" fill-opacity="0.501961" points="91,120 99,110 101,125" />
<polygon fill="#001050" fill-opacity="0.501961" points="94,114 80,111 82,115" />
<polygon fill="#10110d" fill-opacity="0.501961" points="129,51 153,73 136,73" />
<polygon fill="#001a55" fill-opacity="0.501961" points="211,143 248,111 249,128" />
<polygon fill="#000000" fill-opacity="0.501961" points="118,-16 -16,-5 34,106" />
<polygon fill="#0f316f" fill-opacity="0.501961" points="39,137 48,143 17,143" />
<polygon fill="#00154a" fill-opacity="0.501961" points="132,108 151,115 110,114" />
<polygon fill="#000000" fill-opacity="0.501961" points="124,111 130,96 182,101" />
<polygon fill="#112e61" fill-opacity="0.501961" points="80,142 77,125 75,142" />
<polygon fill="#1c3e83" fill-opacity="0.501961" points="163,140 173,143 152,143" />
<polygon fill="#00164c" fill-opacity="0.501961" points="137,118 135,122 136,126" />
<polygon fill="#7989a4" fill-opacity="0.501961" points="104,122 108,118 102,116" />
<polygon fill="#0a255b" fill-opacity="0.501961" points="105,125 107,112 110,132" />
<polygon fill="#0d1011" fill-opacity="0.501961" points="153,87 123,86 132,79" />
<polygon fill="#062156" fill-opacity="0.501961" points="60,129 62,125 62,134" />
<polygon fill="#07307a" fill-opacity="0.501961" points="78,143 65,139 56,143" />
<polygon fill="#000241" fill-opacity="0.501961" points="78,115 69,112 81,112" />
<polygon fill="#001a52" fill-opacity="0.501961" points="45,131 8,140 7,124" />
<polygon fill="#00174f" fill-opacity="0.501961" points="132,130 151,131 147,140" />
<polygon fill="#0a2b6e" fill-opacity="0.501961" points="11,112 31,117 35,111" />
<polygon fill="#c6cdd7" fill-opacity="0.501961" points="79,124 82,128 78,128" />
<polygon fill="#00003b" fill-opacity="0.501961" points="84,132 98,132 91,130" />
<polygon fill="#8391a9" fill-opacity="0.501961" points="70,136 82,135 73,132" />
<polygon fill="#001a52" fill-opacity="0.501961" points="142,142 171,141 145,112" />
<polygon fill="#657695" fill-opacity="0.501961" points="119,130 125,124 107,123" />
<polygon fill="#7686a2" fill-opacity="0.501961" points="45,121 45,130 43,126" />
<polygon fill="#1b3564" fill-opacity="0.501961" points="113,129 113,117 117,121" />
<polygon fill="#393630" fill-opacity="0.501961" points="117,92 120,87 101,87" />
<polygon fill="#95a2b6" fill-opacity="0.501961" points="72,128 71,124 76,127" />
<polygon fill="#0a0906" fill-opacity="0.501961" points="165,11 170,28 120,21" />
<polygon fill="#09255b" fill-opacity="0.501961" points="63,131 60,143 64,142" />
<polygon fill="#0f1112" fill-opacity="0.501961" points="73,59 112,82 133,46" />
<polygon fill="#120f0a" fill-opacity="0.501961" points="142,101 170,94 114,91" />
<polygon fill="#002157" fill-opacity="0.501961" points="92,141 97,144 92,134" />
<polygon fill="#001953" fill-opacity="0.501961" points="252,113 245,114 250,139" />
<polygon fill="#0e3172" fill-opacity="0.501961" points="50,110 48,114 38,112" />
<polygon fill="#133071" fill-opacity="0.501961" points="177,143 196,143 182,138" />
<polygon fill="#001a53" fill-opacity="0.501961" points="250,111 236,142 140,141" />
<polygon fill="#7284a0" fill-opacity="0.501961" points="137,129 149,130 138,125" />
<polygon fill="#000000" fill-opacity="0.501961" points="43,111 113,103 -16,81" />
<polygon fill="#453836" fill-opacity="0.501961" points="122,69 129,68 122,64" />
<polygon fill="#5b93ff" fill-opacity="0.501961" points="239,136 247,136 247,131" />
<polygon fill="#353129" fill-opacity="0.501961" points="116,91 134,85 155,91" />
<polygon fill="#082456" fill-opacity="0.501961" points="132,139 130,131 128,142" />
<polygon fill="#12100e" fill-opacity="0.501961" points="117,98 71,98 101,87" />
<polygon fill="#434043" fill-opacity="0.501961" points="130,79 125,79 129,86" />
<polygon fill="#062155" fill-opacity="0.501961" points="83,122 74,125 74,122" />
<polygon fill="#193a79" fill-opacity="0.501961" points="7,127 4,118 5,135" />
<polygon fill="#8c99af" fill-opacity="0.501961" points="68,128 62,129 63,122" />
<polygon fill="#001750" fill-opacity="0.501961" points="45,113 7,112 4,127" />
<polygon fill="#00194f" fill-opacity="0.501961" points="114,126 118,133 114,131" />
<polygon fill="#00154d" fill-opacity="0.501961" points="61,113 62,122 65,123" />
<polygon fill="#94a1b3" fill-opacity="0.501961" points="127,134 127,139 123,137" />
<polygon fill="#132d5e" fill-opacity="0.501961" points="56,135 47,130 54,128" />
<polygon fill="#8292aa" fill-opacity="0.501961" points="103,136 104,133 94,136" />
<polygon fill="#00174e" fill-opacity="0.501961" points="39,142 11,142 39,130" />
<polygon fill="#20211b" fill-opacity="0.501961" points="95,29 101,44 137,40" />
<polygon fill="#233e6b" fill-opacity="0.501961" points="98,139 99,127 102,136" />
<polygon fill="#818fa7" fill-opacity="0.501961" points="50,116 48,118 54,120" />
<polygon fill="#273f6d" fill-opacity="0.501961" points="87,125 84,114 84,134" />
<polygon fill="#010100" fill-opacity="0.501961" points="105,-16 113,32 139,-16" />
<polygon fill="#0b0d0c" fill-opacity="0.501961" points="131,74 133,85 137,67" />
<polygon fill="#36322d" fill-opacity="0.501961" points="155,80 157,38 168,86" />
<polygon fill="#001a53" fill-opacity="0.501961" points="179,136 248,141 212,115" />
<polygon fill="#33322d" fill-opacity="0.501961" points="74,87 86,92 91,87" />
<polygon fill="#7d8da7" fill-opacity="0.501961" points="103,139 105,132 99,136" />
<polygon fill="#101213" fill-opacity="0.501961" points="129,60 144,21 155,81" />
<polygon fill="#000843" fill-opacity="0.501961" points="122,121 122,124 129,122" />
<polygon fill="#1f488f" fill-opacity="0.501961" points="126,143 114,143 120,141" />
<polygon fill="#041f55" fill-opacity="0.501961" points="123,131 120,132 121,121" />
<polygon fill="#25221d" fill-opacity="0.501961" points="166,28 155,43 155,23" />
<polygon fill="#102b5c" fill-opacity="0.501961" points="47,120 56,124 45,123" />
<polygon fill="#163674" fill-opacity="0.501961" points="247,112 252,110 253,128" />
<polygon fill="#000000" fill-opacity="0.501961" points="131,96 91,109 181,110" />
<polygon fill="#000000" fill-opacity="0.501961" points="254,85 253,160 271,142" />
<polygon fill="#6b7c9a" fill-opacity="0.501961" points="131,115 143,116 143,121" />
<polygon fill="#000000" fill-opacity="0.501961" points="4,74 -16,141 2,160" />
<polygon fill="#647595" fill-opacity="0.501961" points="106,117 96,129 103,130" />
<polygon fill="#5a6d8f" fill-opacity="0.501961" points="66,115 62,122 73,115" />
<polygon fill="#1b3766" fill-opacity="0.501961" points="105,128 107,140 108,133" />
<polygon fill="#100f0a" fill-opacity="0.501961" points="174,54 159,59 172,60" />
<polygon fill="#a2aebf" fill-opacity="0.501961" points="85,124 87,128 90,124" />
<polygon fill="#102e6c" fill-opacity="0.501961" points="225,143 198,142 210,138" />
<polygon fill="#29416f" fill-opacity="0.501961" points="82,142 77,128 77,136" />
<polygon fill="#0e2f64" fill-opacity="0.501961" points="99,132 94,143 100,140" />
<polygon fill="#b2bdcb" fill-opacity="0.501961" points="126,121 127,117 123,116" />
<polygon fill="#7c7e7d" fill-opacity="0.501961" points="139,79 146,81 144,74" />
<polygon fill="#001952" fill-opacity="0.501961" points="164,142 238,142 244,114" />
<polygon fill="#000000" fill-opacity="0.501961" points="271,-15 166,103 271,112" />
<polygon fill="#050503" fill-opacity="0.501961" points="71,68 136,87 96,87" />
<polygon fill="#001a53" fill-opacity="0.501961" points="45,141 5,142 5,119" />
<polygon fill="#6c7d99" fill-opacity="0.501961" points="40,133 44,139 55,133" />
<polygon fill="#101212" fill-opacity="0.501961" points="144,54 146,85 155,54" />
<polygon fill="#b5becb" fill-opacity="0.501961" points="78,124 83,125 83,128" />
<polygon fill="#0d0f10" fill-opacity="0.501961" points="126,73 81,41 80,72" />
<polygon fill="#080907" fill-opacity="0.501961" points="65,47 107,13 64,96" />
<polygon fill="#012161" fill-opacity="0.501961" points="250,142 244,143 250,130" />
<polygon fill="#00174f" fill-opacity="0.501961" points="241,113 252,114 251,138" />
<polygon fill="#092966" fill-opacity="0.501961" points="137,111 141,112 136,117" />
<polygon fill="#7685a1" fill-opacity="0.501961" points="118,120 117,115 110,116" />
<polygon fill="#11306a" fill-opacity="0.501961" points="150,142 138,137 122,143" />
<polygon fill="#022158" fill-opacity="0.501961" points="59,160 51,160 47,134" />
<polygon fill="#72829e" fill-opacity="0.501961" points="76,139 81,134 90,135" />
<polygon fill="#0c2454" fill-opacity="0.501961" points="56,155 67,152 70,133" />
<polygon fill="#05255a" fill-opacity="0.501961" points="77,116 79,113 69,116" />
<polygon fill="#687a98" fill-opacity="0.501961" points="66,136 72,132 55,132" />
<polygon fill="#403f3f" fill-opacity="0.501961" points="125,18 124,13 126,16" />
<polygon fill="#000000" fill-opacity="0.501961" points="134,17 246,6 115,-16" />
<polygon fill="#080605" fill-opacity="0.501961" points="132,160 148,143 89,143" />
<polygon fill="#07070b" fill-opacity="0.501961" points="-11,143 40,160 102,143" />
<polygon fill="#15120f" fill-opacity="0.501961" points="157,98 175,98 171,76" />
<polygon fill="#556889" fill-opacity="0.501961" points="115,134 119,139 126,138" />
<polygon fill="#242420" fill-opacity="0.501961" points="116,22 120,47 133,41" />
<polygon fill="#001953" fill-opacity="0.501961" points="152,114 188,142 144,127" />
<polygon fill="#032357" fill-opacity="0.501961" points="110,135 115,158 107,160" />
<polygon fill="#12367d" fill-opacity="0.501961" points="43,143 49,140 59,143" />
<polygon fill="#101111" fill-opacity="0.501961" points="124,74 115,30 98,70" />
<polygon fill="#2e4671" fill-opacity="0.501961" points="94,121 91,119 92,129" />
<polygon fill="#152f61" fill-opacity="0.501961" points="133,130 129,134 128,126" />
<polygon fill="#6f809c" fill-opacity="0.501961" points="42,124 52,128 61,125" />
<polygon fill="#000f4a" fill-opacity="0.501961" points="105,115 96,112 113,112" />
<polygon fill="#00184f" fill-opacity="0.501961" points="167,142 130,141 158,133" />
<polygon fill="#9d9e9a" fill-opacity="0.501961" points="138,75 137,74 138,76" />
<polygon fill="#103880" fill-opacity="0.501961" points="89,111 91,114 101,111" />
<polygon fill="#224996" fill-opacity="0.501961" points="37,113 38,111 33,111" />
<polygon fill="#7687a1" fill-opacity="0.501961" points="48,138 48,132 53,132" />
<polygon fill="#687a98" fill-opacity="0.501961" points="44,123 41,123 44,131" />
<polygon fill="#0e1112" fill-opacity="0.501961" points="131,81 137,89 136,74" />
<polygon fill="#00174e" fill-opacity="0.501961" points="121,134 121,128 122,131" />
<polygon fill="#001952" fill-opacity="0.501961" points="40,112 37,136 17,113" />
<polygon fill="#151510" fill-opacity="0.501961" points="160,98 152,91 127,98" />
<polygon fill="#001a53" fill-opacity="0.501961" points="218,112 219,142 138,112" />
<polygon fill="#5d6f91" fill-opacity="0.501961" points="47,118 50,122 54,120" />
<polygon fill="#4e6387" fill-opacity="0.501961" points="115,129 109,125 102,130" />
<polygon fill="#8392aa" fill-opacity="0.501961" points="115,124 115,128 126,124" />
<polygon fill="#132e5f" fill-opacity="0.501961" points="122,135 119,139 122,137" />
<polygon fill="#607292" fill-opacity="0.501961" points="70,123 76,123 75,126" />
<polygon fill="#282724" fill-opacity="0.501961" points="103,85 103,91 124,86" />
<polygon fill="#000000" fill-opacity="0.501961" points="134,98 174,109 187,98" />
<polygon fill="#07245d" fill-opacity="0.501961" points="84,136 89,143 83,139" />
<polygon fill="#00104b" fill-opacity="0.501961" points="47,140 55,142 60,139" />
<polygon fill="#796361" fill-opacity="0.501961" points="131,62 130,67 124,64" />
<polygon fill="#080601" fill-opacity="0.501961" points="180,143 218,160 237,143" />
<polygon fill="#0f1112" fill-opacity="0.501961" points="139,18 150,63 130,62" />
<polygon fill="#001b52" fill-opacity="0.501961" points="75,131 68,130 69,132" />
<polygon fill="#0e0c08" fill-opacity="0.501961" points="172,33 156,18 172,48" />
<polygon fill="#000000" fill-opacity="0.501961" points="7,111 -16,86 72,83" />
<polygon fill="#0c0f0f" fill-opacity="0.501961" points="97,57 70,70 98,23" />
<polygon fill="#021d52" fill-opacity="0.501961" points="106,127 108,121 105,125" />
<polygon fill="#002156" fill-opacity="0.501961" points="92,133 94,131 92,129" />
<polygon fill="#7d8ca6" fill-opacity="0.501961" points="136,118 130,119 133,121" />
<polygon fill="#00134d" fill-opacity="0.501961" points="97,139 75,139 86,142" />
<polygon fill="#3d3e40" fill-opacity="0.501961" points="132,16 125,16 130,18" />
<polygon fill="#0d0f12" fill-opacity="0.501961" points="141,88 131,84 145,81" />
<polygon fill="#000000" fill-opacity="0.501961" points="50,88 110,109 -14,110" />
<polygon fill="#0a2659" fill-opacity="0.501961" points="138,127 136,124 137,132" />
<polygon fill="#28281f" fill-opacity="0.501961" points="108,33 106,46 99,40" />
<polygon fill="#262114" fill-opacity="0.501961" points="134,65 149,62 132,72" />
<polygon fill="#103477" fill-opacity="0.501961" points="96,143 75,143 83,139" />
<polygon fill="#1c3e81" fill-opacity="0.501961" points="4,143 4,139 15,143" />
<polygon fill="#7988a3" fill-opacity="0.501961" points="140,116 141,118 138,121" />
<polygon fill="#677997" fill-opacity="0.501961" points="129,116 136,121 134,116" />
<polygon fill="#001951" fill-opacity="0.501961" points="6,142 5,129 48,141" />
<polygon fill="#6b7b99" fill-opacity="0.501961" points="67,118 76,119 76,115" />
<polygon fill="#312d28" fill-opacity="0.501961" points="158,30 160,62 166,49" />
<polygon fill="#09234f" fill-opacity="0.501961" points="57,115 54,120 54,108" />
<polygon fill="#0c306f" fill-opacity="0.501961" points="113,139 102,142 113,143" />
<polygon fill="#001448" fill-opacity="0.501961" points="114,138 123,142 106,142" />
<polygon fill="#b59d91" fill-opacity="0.501961" points="129,76 127,69 132,69" />
<polygon fill="#6d7d97" fill-opacity="0.501961" points="40,135 40,139 45,134" />
<polygon fill="#0f2f71" fill-opacity="0.501961" points="252,131 252,140 246,139" />
<polygon fill="#12120f" fill-opacity="0.501961" points="168,49 166,81 174,76" />
<polygon fill="#121310" fill-opacity="0.501961" points="88,98 112,91 137,98" />
<polygon fill="#888988" fill-opacity="0.501961" points="140,79 137,75 144,73" />
<polygon fill="#102b5d" fill-opacity="0.501961" points="48,124 49,130 46,133" />
<polygon fill="#0e100f" fill-opacity="0.501961" points="148,73 133,63 139,73" />
<polygon fill="#133677" fill-opacity="0.501961" points="95,143 106,140 109,143" />
<polygon fill="#0c285b" fill-opacity="0.501961" points="69,133 70,136 69,138" />
<polygon fill="#7484a0" fill-opacity="0.501961" points="123,134 130,133 134,138" />
<polygon fill="#d3d7e5" fill-opacity="0.501961" points="130,78 125,74 126,78" />
<polygon fill="#00154b" fill-opacity="0.501961" points="98,112 89,113 96,117" />
<polygon fill="#153061" fill-opacity="0.501961" points="111,121 107,124 101,122" />
<polygon fill="#020201" fill-opacity="0.501961" points="69,104 64,49 53,111" />
<polygon fill="#001b54" fill-opacity="0.501961" points="172,115 202,141 138,135" />
<polygon fill="#6a7b9a" fill-opacity="0.501961" points="121,137 109,132 115,132" />
<polygon fill="#0d0c0a" fill-opacity="0.501961" points="92,92 58,90 78,98" />
<polygon fill="#6f809d" fill-opacity="0.501961" points="131,124 130,130 133,127" />
<polygon fill="#1d396b" fill-opacity="0.501961" points="79,123 75,116 77,111" />
<polygon fill="#000000" fill-opacity="0.501961" points="257,110 173,108 179,-16" />
<polygon fill="#2b436f" fill-opacity="0.501961" points="103,130 100,133 99,126" />
<polygon fill="#020301" fill-opacity="0.501961" points="125,84 121,68 113,80" />
<polygon fill="#ccd3dc" fill-opacity="0.501961" points="87,133 88,135 85,133" />
<polygon fill="#050607" fill-opacity="0.501961" points="107,15 135,20 115,22" />
<polygon fill="#103d8d" fill-opacity="0.501961" points="85,111 73,111 79,113" />
<polygon fill="#343232" fill-opacity="0.501961" points="126,85 126,78 130,91" />
<polygon fill="#72829e" fill-opacity="0.501961" points="141,127 133,130 142,130" />
<polygon fill="#8e9bb2" fill-opacity="0.501961" points="47,130 49,128 49,124" />
<polygon fill="#032055" fill-opacity="0.501961" points="114,117 115,120 111,123" />
<polygon fill="#41577e" fill-opacity="0.501961" points="115,121 122,122 120,120" />
<polygon fill="#092558" fill-opacity="0.501961" points="122,124 114,120 119,121" />
<polygon fill="#00174e" fill-opacity="0.501961" points="252,134 243,141 250,142" />
<polygon fill="#343028" fill-opacity="0.501961" points="160,91 161,77 153,91" />
<polygon fill="#7b8ba4" fill-opacity="0.501961" points="106,129 94,130 93,125" />
<polygon fill="#062156" fill-opacity="0.501961" points="54,122 55,124 58,123" />
<polygon fill="#000c45" fill-opacity="0.501961" points="75,115 78,115 76,113" />
<polygon fill="#253f6b" fill-opacity="0.501961" points="61,119 62,121 68,117" />
<polygon fill="#0e1113" fill-opacity="0.501961" points="118,74 124,60 74,71" />
<polygon fill="#273f6b" fill-opacity="0.501961" points="84,121 82,141 87,129" />
<polygon fill="#929eb4" fill-opacity="0.501961" points="95,130 97,124 97,127" />
<polygon fill="#080809" fill-opacity="0.501961" points="158,21 136,32 154,31" />
<polygon fill="#011c55" fill-opacity="0.501961" points="134,128 152,142 149,134" />
<polygon fill="#00164a" fill-opacity="0.501961" points="134,142 139,135 129,142" />
<polygon fill="#7c8ba5" fill-opacity="0.501961" points="138,130 139,125 142,122" />
<polygon fill="#42587e" fill-opacity="0.501961" points="58,123 51,134 53,126" />
<polygon fill="#00194f" fill-opacity="0.501961" points="136,122 122,124 128,121" />
<polygon fill="#1f4282" fill-opacity="0.501961" points="156,110 154,112 163,112" />
<polygon fill="#0b3079" fill-opacity="0.501961" points="139,111 130,115 119,111" />
<polygon fill="#1a3363" fill-opacity="0.501961" points="51,134 53,129 61,131" />
<polygon fill="#26416d" fill-opacity="0.501961" points="118,136 115,129 110,128" />
<polygon fill="#000000" fill-opacity="0.501961" points="75,98 153,98 113,109" />
<polygon fill="#00144b" fill-opacity="0.501961" points="108,139 94,141 101,142" />
<polygon fill="#000b45" fill-opacity="0.501961" points="60,132 69,132 66,130" />
<polygon fill="#120f0f" fill-opacity="0.501961" points="91,84 90,95 105,86" />
<polygon fill="#8f9cb2" fill-opacity="0.501961" points="71,119 77,116 71,117" />
<polygon fill="#a3afbf" fill-opacity="0.501961" points="78,116 80,122 83,116" />
<polygon fill="#000000" fill-opacity="0.501961" points="158,111 140,103 180,97" />
<polygon fill="#4c82fc" fill-opacity="0.501961" points="247,132 240,133 247,137" />
<polygon fill="#617494" fill-opacity="0.501961" points="61,127 53,129 58,130" />
<polygon fill="#001b54" fill-opacity="0.501961" points="179,121 241,133 228,113" />
<polygon fill="#353129" fill-opacity="0.501961" points="135,88 147,92 155,88" />
<polygon fill="#000000" fill-opacity="0.501961" points="92,85 91,73 82,81" />
<polygon fill="#141311" fill-opacity="0.501961" points="134,63 86,47 132,46" />
<polygon fill="#141413" fill-opacity="0.501961" points="131,30 133,22 116,21" />
<polygon fill="#98a5ba" fill-opacity="0.501961" points="87,116 85,118 85,120" />
<polygon fill="#647795" fill-opacity="0.501961" points="46,124 40,123 42,131" />
<polygon fill="#001b54" fill-opacity="0.501961" points="17,134 44,120 23,140" />
<polygon fill="#0d2c5f" fill-opacity="0.501961" points="53,140 50,136 61,141" />
<polygon fill="#000000" fill-opacity="0.501961" points="253,75 256,160 271,126" />
<polygon fill="#37332d" fill-opacity="0.501961" points="116,91 118,88 106,90" />
<polygon fill="#2e3654" fill-opacity="0.501961" points="130,73 128,75 131,75" />
<polygon fill="#00124a" fill-opacity="0.501961" points="81,142 71,140 84,139" />
<polygon fill="#112c5e" fill-opacity="0.501961" points="78,137 71,137 65,141" />
<polygon fill="#475d82" fill-opacity="0.501961" points="122,125 126,125 122,127" />
<polygon fill="#506588" fill-opacity="0.501961" points="95,139 90,137 89,130" />
<polygon fill="#00134b" fill-opacity="0.501961" points="98,115 97,119 100,125" />
<polygon fill="#667896" fill-opacity="0.501961" points="63,126 66,126 67,124" />
<polygon fill="#000000" fill-opacity="0.501961" points="133,75 130,74 133,76" />
<polygon fill="#1a1917" fill-opacity="0.501961" points="102,27 114,56 111,24" />
<polygon fill="#00164e" fill-opacity="0.501961" points="147,132 137,131 138,136" />
<polygon fill="#001a52" fill-opacity="0.501961" points="215,122 174,142 246,141" />
<polygon fill="#6e7f9c" fill-opacity="0.501961" points="105,139 105,133 100,139" />
<polygon fill="#001e5b" fill-opacity="0.501961" points="248,131 249,142 251,133" />
<polygon fill="#001952" fill-opacity="0.501961" points="150,128 163,126 140,122" />
<polygon fill="#133577" fill-opacity="0.501961" points="13,115 5,111 25,111" />
<polygon fill="#001a53" fill-opacity="0.501961" points="37,114 9,112 8,142" />
<polygon fill="#121315" fill-opacity="0.501961" points="154,82 139,32 154,37" />
<polygon fill="#16408e" fill-opacity="0.501961" points="53,113 48,111 59,111" />
<polygon fill="#00194f" fill-opacity="0.501961" points="138,140 131,138 123,142" />
</g>
</svg>