<svg xmlns="http://www.w3.org/2000/svg" version="1.1" width="1024" height="580">
<rect x="0" y="0" width="1024" height="580" fill="#070d19" />
<g transform="scale(4.000000) translate(0.5 0.5)">
<polygon fill="#1945a2" fill-opacity="0.501961" points="271,111 125,160 -16,112" />
<polygon fill="#70829d" fill-opacity="0.501961" points="96,111 32,125 131,131" />
<polygon fill="#053396" fill-opacity="0.501961" points="271,143 178,142 267,115" />
<polygon fill="#403727" fill-opacity="0.501961" points="91,92 169,92 166,34" />
<polygon fill="#020000" fill-opacity="0.501961" points="-16,125 1,-16 271,2" />
<polygon fill="#000000" fill-opacity="0.501961" points="133,109 254,-16 264,110" />
<polygon fill="#002b89" fill-opacity="0.501961" points="2,160 72,143 5,120" />
<polygon fill="#e2cccc" fill-opacity="0.501961" points="129,81 133,62 125,74" />
<polygon fill="#000d48" fill-opacity="0.501961" points="122,160 271,115 131,111" />
<polygon fill="#26251e" fill-opacity="0.501961" points="83,32 161,20 175,102" />
<polygon fill="#677997" fill-opacity="0.501961" points="42,116 73,114 41,132" />
<polygon fill="#020000" fill-opacity="0.501961" points="-16,110 218,110 -12,31" />
<polygon fill="#000000" fill-opacity="0.501961" points="271,129 266,-16 123,0" />
<polygon fill="#a2a6a8" fill-opacity="0.501961" points="134,81 146,79 141,71" />
<polygon fill="#508eff" fill-opacity="0.501961" points="245,140 252,132 242,130" />
<polygon fill="#000000" fill-opacity="0.501961" points="-16,-4 13,106 149,-16" />
<polygon fill="#516588" fill-opacity="0.501961" points="116,114 132,130 60,129" />
<polygon fill="#001650" fill-opacity="0.501961" points="33,160 2,108 48,123" />
<polygon fill="#000000" fill-opacity="0.501961" points="253,96 271,143 254,160" />
<polygon fill="#b4a09f" fill-opacity="0.501961" points="124,65 127,80 129,63" />
<polygon fill="#001047" fill-opacity="0.501961" points="31,134 162,160 106,129" />
<polygon fill="#677997" fill-opacity="0.501961" points="68,129 60,114 43,130" />
<polygon fill="#000000" fill-opacity="0.501961" points="161,-16 180,104 271,112" />
<polygon fill="#292722" fill-opacity="0.501961" points="151,98 175,73 74,91" />
<polygon fill="#161712" fill-opacity="0.501961" points="133,3 59,90 115,99" />
<polygon fill="#000245" fill-opacity="0.501961" points="90,110 75,115 106,115" />
<polygon fill="#072256" fill-opacity="0.501961" points="79,125 51,123 71,119" />
<polygon fill="#07090b" fill-opacity="0.501961" points="153,87 154,11 128,54" />
<polygon fill="#38332c" fill-opacity="0.501961" points="154,24 169,36 161,86" />
<polygon fill="#00124a" fill-opacity="0.501961" points="111,119 99,123 120,124" />
<polygon fill="#8c99b0" fill-opacity="0.501961" points="73,131 75,124 62,127" />
<polygon fill="#001c53" fill-opacity="0.501961" points="99,123 92,122 99,145" />
<polygon fill="#000000" fill-opacity="0.501961" points="82,82 126,67 120,86" />
<polygon fill="#001851" fill-opacity="0.501961" points="249,142 89,142 189,112" />
<polygon fill="#070000" fill-opacity="0.501961" points="128,160 180,143 88,143" />
<polygon fill="#73b2ff" fill-opacity="0.501961" points="243,138 245,131 242,133" />
<polygon fill="#001e5c" fill-opacity="0.501961" points="253,138 232,115 252,111" />
<polygon fill="#000000" fill-opacity="0.501961" points="12,-16 -16,109 86,110" />
<polygon fill="#001953" fill-opacity="0.501961" points="47,160 38,114 2,111" />
<polygon fill="#000000" fill-opacity="0.501961" points="3,132 -16,104 4,111" />
<polygon fill="#000000" fill-opacity="0.501961" points="271,-3 96,-6 256,84" />
<polygon fill="#8190a9" fill-opacity="0.501961" points="93,115 73,119 103,121" />
<polygon fill="#23221e" fill-opacity="0.501961" points="131,15 93,45 134,44" />
<polygon fill="#021e53" fill-opacity="0.501961" points="84,118 85,136 78,146" />
<polygon fill="#b7c0cd" fill-opacity="0.501961" points="53,115 60,121 60,118" />
<polygon fill="#001a54" fill-opacity="0.501961" points="47,130 126,130 82,144" />
<polygon fill="#011c52" fill-opacity="0.501961" points="55,124 56,113 52,114" />
<polygon fill="#000000" fill-opacity="0.501961" points="271,105 158,-16 179,106" />
<polygon fill="#1a1812" fill-opacity="0.501961" points="173,36 155,14 172,78" />
<polygon fill="#abb6c6" fill-opacity="0.501961" points="64,124 63,130 68,125" />
<polygon fill="#000000" fill-opacity="0.501961" points="271,129 254,153 254,109" />
<polygon fill="#627794" fill-opacity="0.501961" points="45,128 42,115 40,129" />
<polygon fill="#516689" fill-opacity="0.501961" points="103,117 114,121 124,114" />
<polygon fill="#000000" fill-opacity="0.501961" points="125,92 161,110 88,107" />
<polygon fill="#090000" fill-opacity="0.501961" points="100,143 121,160 66,144" />
<polygon fill="#7a7c7c" fill-opacity="0.501961" points="139,72 136,76 147,75" />
<polygon fill="#11110f" fill-opacity="0.501961" points="155,72 137,73 126,43" />
<polygon fill="#000206" fill-opacity="0.501961" points="150,84 145,83 147,68" />
<polygon fill="#34332d" fill-opacity="0.501961" points="144,92 105,90 129,84" />
<polygon fill="#0a0000" fill-opacity="0.501961" points="-16,143 60,143 11,160" />
<polygon fill="#000000" fill-opacity="0.501961" points="-3,116 -16,-12 133,-16" />
<polygon fill="#001953" fill-opacity="0.501961" points="136,141 198,113 121,114" />
<polygon fill="#8f9091" fill-opacity="0.501961" points="142,81 146,79 138,76" />
<polygon fill="#3b3530" fill-opacity="0.501961" points="157,96 166,70 155,59" />
<polygon fill="#0e1112" fill-opacity="0.501961" points="136,59 137,90 129,83" />
<polygon fill="#0d0e0b" fill-opacity="0.501961" points="68,100 75,35 109,19" />
<polygon fill="#7788a2" fill-opacity="0.501961" points="113,128 116,124 129,125" />
<polygon fill="#8897ac" fill-opacity="0.501961" points="68,120 66,115 56,115" />
<polygon fill="#000000" fill-opacity="0.501961" points="3,144 3,92 -16,160" />
<polygon fill="#6d5751" fill-opacity="0.501961" points="123,64 125,70 128,62" />
<polygon fill="#142d5f" fill-opacity="0.501961" points="71,120 79,125 92,122" />
<polygon fill="#191916" fill-opacity="0.501961" points="139,93 150,70 164,99" />
<polygon fill="#00154f" fill-opacity="0.501961" points="118,135 122,123 124,142" />
<polygon fill="#102b5d" fill-opacity="0.501961" points="103,124 98,119 84,124" />
<polygon fill="#343129" fill-opacity="0.501961" points="70,89 93,87 86,92" />
<polygon fill="#6b7c9a" fill-opacity="0.501961" points="88,123 73,115 106,116" />
<polygon fill="#6a7b98" fill-opacity="0.501961" points="40,116 52,117 50,121" />
<polygon fill="#001955" fill-opacity="0.501961" points="81,116 58,114 68,111" />
<polygon fill="#001852" fill-opacity="0.501961" points="45,123 4,115 8,127" />
<polygon fill="#000000" fill-opacity="0.501961" points="43,110 89,96 139,109" />
<polygon fill="#0e0e0d" fill-opacity="0.501961" points="151,46 160,18 116,18" />
<polygon fill="#8594ac" fill-opacity="0.501961" points="86,124 98,131 86,128" />
<polygon fill="#27416c" fill-opacity="0.501961" points="105,131 92,131 91,124" />
<polygon fill="#00194d" fill-opacity="0.501961" points="60,144 62,127 67,153" />
<polygon fill="#0a2559" fill-opacity="0.501961" points="73,143 69,116 64,159" />
<polygon fill="#4279fa" fill-opacity="0.501961" points="248,135 244,139 240,132" />
<polygon fill="#00164e" fill-opacity="0.501961" points="236,142 246,139 229,138" />
<polygon fill="#001952" fill-opacity="0.501961" points="252,112 234,145 172,113" />
<polygon fill="#090300" fill-opacity="0.501961" points="72,144 13,160 34,143" />
<polygon fill="#062461" fill-opacity="0.501961" points="45,128 63,143 7,143" />
<polygon fill="#000f48" fill-opacity="0.501961" points="91,123 82,123 84,121" />
<polygon fill="#001a53" fill-opacity="0.501961" points="125,112 184,113 133,141" />
<polygon fill="#8291a9" fill-opacity="0.501961" points="100,125 117,124 111,128" />
<polygon fill="#122c5e" fill-opacity="0.501961" points="51,123 64,120 55,126" />
<polygon fill="#7e8ea8" fill-opacity="0.501961" points="66,123 65,130 75,123" />
<polygon fill="#858686" fill-opacity="0.501961" points="137,81 144,73 145,80" />
<polygon fill="#9ba9bb" fill-opacity="0.501961" points="80,122 80,118 78,119" />
<polygon fill="#0b0c0e" fill-opacity="0.501961" points="156,81 148,88 145,71" />
<polygon fill="#040605" fill-opacity="0.501961" points="70,65 60,83 135,87" />
<polygon fill="#0e1011" fill-opacity="0.501961" points="73,81 126,72 85,34" />
<polygon fill="#21201a" fill-opacity="0.501961" points="105,56 97,37 111,20" />
<polygon fill="#7d8ca6" fill-opacity="0.501961" points="46,132 53,128 53,124" />
<polygon fill="#afb8c8" fill-opacity="0.501961" points="111,117 111,116 109,118" />
<polygon fill="#0d0b08" fill-opacity="0.501961" points="175,76 167,94 167,48" />
<polygon fill="#54698a" fill-opacity="0.501961" points="63,120 75,115 77,120" />
<polygon fill="#34322b" fill-opacity="0.501961" points="162,85 160,91 139,89" />
<polygon fill="#00164e" fill-opacity="0.501961" points="43,130 83,142 10,142" />
<polygon fill="#131414" fill-opacity="0.501961" points="130,75 158,66 147,28" />
<polygon fill="#3e547c" fill-opacity="0.501961" points="86,121 96,122 101,118" />
<polygon fill="#cdc7cd" fill-opacity="0.501961" points="124,75 128,77 131,70" />
<polygon fill="#000000" fill-opacity="0.501961" points="253,45 271,94 253,160" />
<polygon fill="#463733" fill-opacity="0.501961" points="135,69 132,65 120,68" />
<polygon fill="#34302b" fill-opacity="0.501961" points="156,63 166,35 164,86" />
<polygon fill="#0e2a67" fill-opacity="0.501961" points="252,144 252,119 248,131" />
<polygon fill="#0c0f10" fill-opacity="0.501961" points="125,78 100,78 118,60" />
<polygon fill="#184189" fill-opacity="0.501961" points="131,111 140,114 150,111" />
<polygon fill="#070502" fill-opacity="0.501961" points="107,143 222,143 167,160" />
<polygon fill="#00154e" fill-opacity="0.501961" points="253,139 248,136 250,124" />
<polygon fill="#052360" fill-opacity="0.501961" points="92,129 72,143 137,143" />
<polygon fill="#4d4c52" fill-opacity="0.501961" points="129,82 125,78 127,84" />
<polygon fill="#00164e" fill-opacity="0.501961" points="105,130 140,141 66,141" />
<polygon fill="#000000" fill-opacity="0.501961" points="172,109 268,110 181,-16" />
<polygon fill="#112b5d" fill-opacity="0.501961" points="47,122 51,124 46,115" />
<polygon fill="#001d52" fill-opacity="0.501961" points="110,114 106,113 106,125" />
<polygon fill="#10357d" fill-opacity="0.501961" points="27,111 17,115 6,111" />
<polygon fill="#15120f" fill-opacity="0.501961" points="94,86 76,97 123,98" />
<polygon fill="#00144c" fill-opacity="0.501961" points="41,128 25,112 9,112" />
<polygon fill="#1a3a70" fill-opacity="0.501961" points="164,111 156,113 150,110" />
<polygon fill="#001a53" fill-opacity="0.501961" points="184,141 188,112 118,113" />
<polygon fill="#101112" fill-opacity="0.501961" points="114,22 103,79 123,70" />
<polygon fill="#001b53" fill-opacity="0.501961" points="75,141 76,125 84,136" />
<polygon fill="#080b0c" fill-opacity="0.501961" points="138,69 150,71 140,73" />
<polygon fill="#001952" fill-opacity="0.501961" points="127,140 114,129 108,142" />
<polygon fill="#13120e" fill-opacity="0.501961" points="147,98 173,97 173,78" />
<polygon fill="#0d2d6c" fill-opacity="0.501961" points="4,142 13,143 4,115" />
<polygon fill="#35302b" fill-opacity="0.501961" points="167,81 157,40 154,90" />
<polygon fill="#001953" fill-opacity="0.501961" points="41,123 4,143 9,112" />
<polygon fill="#5e7191" fill-opacity="0.501961" points="129,131 125,127 123,131" />
<polygon fill="#000000" fill-opacity="0.501961" points="-13,-2 193,-10 35,39" />
<polygon fill="#001a53" fill-opacity="0.501961" points="239,136 159,113 250,112" />
<polygon fill="#252620" fill-opacity="0.501961" points="117,23 124,46 134,40" />
<polygon fill="#9eabbd" fill-opacity="0.501961" points="80,128 82,125 80,124" />
<polygon fill="#100d0a" fill-opacity="0.501961" points="135,100 116,91 160,93" />
<polygon fill="#00053f" fill-opacity="0.501961" points="62,123 60,123 61,125" />
<polygon fill="#292928" fill-opacity="0.501961" points="134,17 126,15 117,19" />
<polygon fill="#040401" fill-opacity="0.501961" points="111,10 131,21 83,21" />
<polygon fill="#051f54" fill-opacity="0.501961" points="115,114 113,121 113,116" />
<polygon fill="#000000" fill-opacity="0.501961" points="189,94 160,111 117,106" />
<polygon fill="#000000" fill-opacity="0.501961" points="105,85 125,84 123,71" />
<polygon fill="#143373" fill-opacity="0.501961" points="239,143 225,143 239,139" />
<polygon fill="#173162" fill-opacity="0.501961" points="80,124 74,118 76,114" />
<polygon fill="#0f3271" fill-opacity="0.501961" points="168,143 149,142 157,139" />
<polygon fill="#111314" fill-opacity="0.501961" points="154,41 132,30 154,94" />
<polygon fill="#092458" fill-opacity="0.501961" points="66,118 64,124 58,122" />
<polygon fill="#322e2b" fill-opacity="0.501961" points="112,85 98,91 118,89" />
<polygon fill="#001a52" fill-opacity="0.501961" points="227,116 243,142 140,142" />
<polygon fill="#000000" fill-opacity="0.501961" points="-15,63 8,110 104,108" />
<polygon fill="#060500" fill-opacity="0.501961" points="-13,143 -3,160 37,143" />
<polygon fill="#082256" fill-opacity="0.501961" points="61,115 74,113 69,116" />
<polygon fill="#7b635f" fill-opacity="0.501961" points="130,70 130,63 125,63" />
<polygon fill="#b2bcca" fill-opacity="0.501961" points="88,119 89,116 91,120" />
<polygon fill="#39362e" fill-opacity="0.501961" points="145,91 137,87 134,91" />
<polygon fill="#7485a1" fill-opacity="0.501961" points="123,122 120,120 123,120" />
<polygon fill="#001952" fill-opacity="0.501961" points="6,137 43,113 8,113" />
<polygon fill="#000000" fill-opacity="0.501961" points="259,-4 190,-5 257,118" />
<polygon fill="#22438b" fill-opacity="0.501961" points="56,143 61,141 68,143" />
<polygon fill="#0f0d0a" fill-opacity="0.501961" points="174,60 159,59 171,56" />
<polygon fill="#516488" fill-opacity="0.501961" points="109,119 123,117 115,116" />
<polygon fill="#002058" fill-opacity="0.501961" points="77,115 104,115 94,110" />
<polygon fill="#001952" fill-opacity="0.501961" points="94,134 61,142 26,129" />
<polygon fill="#292417" fill-opacity="0.501961" points="144,63 126,68 144,68" />
<polygon fill="#5e7291" fill-opacity="0.501961" points="75,121 66,116 71,117" />
<polygon fill="#000000" fill-opacity="0.501961" points="3,94 -16,158 3,160" />
<polygon fill="#34302b" fill-opacity="0.501961" points="155,47 164,35 158,60" />
<polygon fill="#677998" fill-opacity="0.501961" points="108,115 105,121 95,121" />
<polygon fill="#131211" fill-opacity="0.501961" points="92,45 132,47 139,66" />
<polygon fill="#030201" fill-opacity="0.501961" points="61,73 106,9 62,33" />
<polygon fill="#0a0d0f" fill-opacity="0.501961" points="135,81 153,85 131,87" />
<polygon fill="#0e2d6b" fill-opacity="0.501961" points="178,137 167,143 197,143" />
<polygon fill="#001a52" fill-opacity="0.501961" points="137,114 231,141 123,142" />
<polygon fill="#030100" fill-opacity="0.501961" points="114,81 90,85 79,71" />
<polygon fill="#8695ad" fill-opacity="0.501961" points="53,126 48,127 52,129" />
<polygon fill="#bec5d1" fill-opacity="0.501961" points="89,128 90,126 89,125" />
<polygon fill="#001953" fill-opacity="0.501961" points="148,112 122,117 146,141" />
<polygon fill="#001851" fill-opacity="0.501961" points="102,134 96,127 95,142" />
<polygon fill="#001a53" fill-opacity="0.501961" points="146,127 136,114 124,123" />
<polygon fill="#0e275b" fill-opacity="0.501961" points="121,119 117,114 117,118" />
<polygon fill="#596c8e" fill-opacity="0.501961" points="110,128 123,129 114,125" />
<polygon fill="#00164c" fill-opacity="0.501961" points="117,124 114,120 112,123" />
<polygon fill="#00154b" fill-opacity="0.501961" points="124,122 124,124 117,122" />
<polygon fill="#697a98" fill-opacity="0.501961" points="44,122 44,115 39,119" />
<polygon fill="#080706" fill-opacity="0.501961" points="129,12 173,19 139,26" />
<polygon fill="#001a4f" fill-opacity="0.501961" points="91,119 91,125 94,125" />
<polygon fill="#17418f" fill-opacity="0.501961" points="87,111 94,113 100,111" />
<polygon fill="#2752a5" fill-opacity="0.501961" points="231,111 228,112 234,112" />
<polygon fill="#001a53" fill-opacity="0.501961" points="8,116 30,141 40,119" />
<polygon fill="#8293ac" fill-opacity="0.501961" points="109,122 112,119 111,118" />
<polygon fill="#161312" fill-opacity="0.501961" points="141,94 109,91 121,98" />
<polygon fill="#000000" fill-opacity="0.501961" points="254,116 271,130 252,154" />
<polygon fill="#171715" fill-opacity="0.501961" points="143,28 114,33 98,23" />
<polygon fill="#142f64" fill-opacity="0.501961" points="111,113 107,111 105,122" />
<polygon fill="#000000" fill-opacity="0.501961" points="160,98 119,110 103,99" />
<polygon fill="#080806" fill-opacity="0.501961" points="98,85 115,87 117,75" />
<polygon fill="#102f6d" fill-opacity="0.501961" points="115,138 97,143 133,143" />
<polygon fill="#001a53" fill-opacity="0.501961" points="41,112 5,113 7,142" />
<polygon fill="#4e89ff" fill-opacity="0.501961" points="249,135 246,130 243,131" />
<polygon fill="#070706" fill-opacity="0.501961" points="175,33 155,10 172,45" />
<polygon fill="#1f1d19" fill-opacity="0.501961" points="167,31 155,35 155,22" />
<polygon fill="#0f1112" fill-opacity="0.501961" points="121,73 71,73 124,56" />
<polygon fill="#afa8b0" fill-opacity="0.501961" points="130,78 127,74 124,79" />
<polygon fill="#1d3c7f" fill-opacity="0.501961" points="12,141 5,143 14,143" />
<polygon fill="#00184f" fill-opacity="0.501961" points="98,130 76,142 130,142" />
<polygon fill="#001a53" fill-opacity="0.501961" points="95,141 111,139 124,129" />
<polygon fill="#183779" fill-opacity="0.501961" points="57,143 49,140 41,143" />
<polygon fill="#04215d" fill-opacity="0.501961" points="114,111 122,115 104,115" />
<polygon fill="#001a52" fill-opacity="0.501961" points="5,114 7,142 56,141" />
<polygon fill="#173679" fill-opacity="0.501961" points="214,143 209,140 204,143" />
<polygon fill="#001a53" fill-opacity="0.501961" points="247,141 95,142 181,114" />
<polygon fill="#0b2758" fill-opacity="0.501961" points="70,127 69,126 69,130" />
<polygon fill="#001850" fill-opacity="0.501961" points="235,121 250,132 251,119" />
<polygon fill="#999997" fill-opacity="0.501961" points="143,76 137,74 140,78" />
<polygon fill="#22211d" fill-opacity="0.501961" points="134,45 117,26 119,47" />
<polygon fill="#71829e" fill-opacity="0.501961" points="102,131 100,127 105,127" />
<polygon fill="#302d2e" fill-opacity="0.501961" points="124,77 129,79 132,88" />
<polygon fill="#161612" fill-opacity="0.501961" points="83,82 76,93 64,90" />
<polygon fill="#afb9c8" fill-opacity="0.501961" points="59,116 53,121 59,120" />
<polygon fill="#001b54" fill-opacity="0.501961" points="42,128 33,118 5,128" />
<polygon fill="#0d1011" fill-opacity="0.501961" points="134,57 112,59 94,78" />
<polygon fill="#32302b" fill-opacity="0.501961" points="90,93 89,87 78,87" />
<polygon fill="#0d0f0f" fill-opacity="0.501961" points="145,74 154,89 146,86" />
<polygon fill="#598eff" fill-opacity="0.501961" points="246,137 242,136 248,135" />
<polygon fill="#b8c2cd" fill-opacity="0.501961" points="60,117 58,116 59,120" />
<polygon fill="#1b386a" fill-opacity="0.501961" points="5,110 4,114 18,110" />
<polygon fill="#131010" fill-opacity="0.501961" points="173,72 160,95 171,98" />
<polygon fill="#8e9db2" fill-opacity="0.501961" points="79,116 83,116 84,122" />
<polygon fill="#0f0e0c" fill-opacity="0.501961" points="67,98 106,97 100,88" />
<polygon fill="#020507" fill-opacity="0.501961" points="132,74 132,86 135,76" />
<polygon fill="#070401" fill-opacity="0.501961" points="80,160 59,143 80,143" />
<polygon fill="#4a5f82" fill-opacity="0.501961" points="52,127 58,124 57,127" />
<polygon fill="#000000" fill-opacity="0.501961" points="0,112 -16,64 31,104" />
<polygon fill="#36312c" fill-opacity="0.501961" points="156,78 166,85 157,47" />
<polygon fill="#0d2a66" fill-opacity="0.501961" points="246,129 252,110 252,135" />
<polygon fill="#001851" fill-opacity="0.501961" points="248,129 228,121 250,114" />
<polygon fill="#000000" fill-opacity="0.501961" points="66,98 94,111 126,99" />
<polygon fill="#393430" fill-opacity="0.501961" points="122,87 131,89 123,90" />
<polygon fill="#193564" fill-opacity="0.501961" points="87,111 85,121 84,110" />
<polygon fill="#040707" fill-opacity="0.501961" points="114,34 112,24 116,26" />
<polygon fill="#050708" fill-opacity="0.501961" points="95,27 86,27 99,51" />
<polygon fill="#312e27" fill-opacity="0.501961" points="154,87 144,90 165,91" />
<polygon fill="#0c285b" fill-opacity="0.501961" points="117,121 118,118 122,124" />
<polygon fill="#3f547b" fill-opacity="0.501961" points="90,127 94,131 97,123" />
<polygon fill="#000000" fill-opacity="0.501961" points="94,100 80,110 130,109" />
<polygon fill="#001a53" fill-opacity="0.501961" points="206,127 165,142 249,141" />
<polygon fill="#000101" fill-opacity="0.501961" points="20,109 5,99 9,111" />
<polygon fill="#0f2c6b" fill-opacity="0.501961" points="15,143 34,142 29,138" />
<polygon fill="#001850" fill-opacity="0.501961" points="67,142 49,132 12,142" />
<polygon fill="#011d55" fill-opacity="0.501961" points="98,137 112,132 96,129" />
<polygon fill="#070201" fill-opacity="0.501961" points="254,143 204,145 223,160" />
<polygon fill="#697b98" fill-opacity="0.501961" points="108,118 115,119 122,115" />
<polygon fill="#4f6488" fill-opacity="0.501961" points="113,129 115,124 112,126" />
<polygon fill="#000000" fill-opacity="0.501961" points="266,31 254,111 227,89" />
<polygon fill="#11306f" fill-opacity="0.501961" points="78,143 96,143 80,138" />
<polygon fill="#303030" fill-opacity="0.501961" points="134,18 124,17 123,13" />
<polygon fill="#001952" fill-opacity="0.501961" points="45,142 121,142 80,130" />
<polygon fill="#020201" fill-opacity="0.501961" points="119,4 83,21 147,10" />
<polygon fill="#070808" fill-opacity="0.501961" points="80,68 67,51 66,92" />
<polygon fill="#1f201c" fill-opacity="0.501961" points="126,36 134,34 132,23" />
<polygon fill="#1c1d1a" fill-opacity="0.501961" points="115,50 110,31 96,30" />
<polygon fill="#8695ad" fill-opacity="0.501961" points="89,115 91,120 82,117" />
<polygon fill="#092458" fill-opacity="0.501961" points="112,120 112,116 115,114" />
<polygon fill="#898989" fill-opacity="0.501961" points="140,77 137,81 137,78" />
<polygon fill="#001a52" fill-opacity="0.501961" points="87,130 76,142 117,135" />
<polygon fill="#98a5b9" fill-opacity="0.501961" points="91,129 86,127 90,126" />
<polygon fill="#001650" fill-opacity="0.501961" points="116,113 128,112 126,115" />
<polygon fill="#001a53" fill-opacity="0.501961" points="164,112 120,112 140,138" />
<polygon fill="#193c7e" fill-opacity="0.501961" points="145,143 134,143 138,140" />
<polygon fill="#001b54" fill-opacity="0.501961" points="121,122 181,133 148,114" />
<polygon fill="#001952" fill-opacity="0.501961" points="149,141 105,130 111,142" />
<polygon fill="#8090a8" fill-opacity="0.501961" points="49,115 50,121 47,122" />
<polygon fill="#07235a" fill-opacity="0.501961" points="46,120 51,111 46,110" />
<polygon fill="#191816" fill-opacity="0.501961" points="117,52 134,49 130,57" />
<polygon fill="#000945" fill-opacity="0.501961" points="58,123 56,123 55,121" />
<polygon fill="#2a59b4" fill-opacity="0.501961" points="184,112 181,111 186,111" />
<polygon fill="#001850" fill-opacity="0.501961" points="252,124 250,134 238,115" />
<polygon fill="#000000" fill-opacity="0.501961" points="2,109 -6,21 86,110" />
<polygon fill="#34312b" fill-opacity="0.501961" points="119,91 113,87 102,89" />
<polygon fill="#001b53" fill-opacity="0.501961" points="105,134 68,142 61,130" />
<polygon fill="#667896" fill-opacity="0.501961" points="126,124 124,125 129,128" />
<polygon fill="#5487ff" fill-opacity="0.501961" points="246,135 244,131 241,135" />
<polygon fill="#a1acbf" fill-opacity="0.501961" points="75,125 74,128 73,124" />
<polygon fill="#001851" fill-opacity="0.501961" points="40,117 31,115 37,133" />
<polygon fill="#052056" fill-opacity="0.501961" points="49,136 41,138 47,127" />
<polygon fill="#13100f" fill-opacity="0.501961" points="93,95 91,84 103,86" />
<polygon fill="#001952" fill-opacity="0.501961" points="94,129 70,136 87,142" />
<polygon fill="#183779" fill-opacity="0.501961" points="195,140 206,143 185,143" />
<polygon fill="#001a53" fill-opacity="0.501961" points="253,141 144,142 147,113" />
<polygon fill="#121312" fill-opacity="0.501961" points="142,68 153,88 155,76" />
<polygon fill="#2a2b21" fill-opacity="0.501961" points="108,45 104,34 101,45" />
<polygon fill="#3355a2" fill-opacity="0.501961" points="17,142 21,142 20,143" />
<polygon fill="#0d0f11" fill-opacity="0.501961" points="132,62 149,59 135,25" />
<polygon fill="#0e337d" fill-opacity="0.501961" points="57,111 41,111 48,114" />
<polygon fill="#001953" fill-opacity="0.501961" points="120,130 112,138 129,136" />
<polygon fill="#001a53" fill-opacity="0.501961" points="30,113 45,142 7,142" />
<polygon fill="#475c83" fill-opacity="0.501961" points="114,128 107,129 110,130" />
<polygon fill="#7a8aa5" fill-opacity="0.501961" points="67,130 74,130 73,124" />
<polygon fill="#001a53" fill-opacity="0.501961" points="140,139 140,116 128,127" />
<polygon fill="#000000" fill-opacity="0.501961" points="225,103 232,111 230,93" />
<polygon fill="#0a2a67" fill-opacity="0.501961" points="85,111 100,111 91,116" />
<polygon fill="#556a8c" fill-opacity="0.501961" points="93,121 98,118 89,116" />
<polygon fill="#041d53" fill-opacity="0.501961" points="131,128 127,127 132,131" />
<polygon fill="#001a52" fill-opacity="0.501961" points="124,139 158,134 141,142" />
<polygon fill="#120f0f" fill-opacity="0.501961" points="160,86 167,98 172,89" />
<polygon fill="#050404" fill-opacity="0.501961" points="99,16 122,19 125,10" />
<polygon fill="#011d52" fill-opacity="0.501961" points="69,117 66,123 69,121" />
<polygon fill="#111213" fill-opacity="0.501961" points="154,29 154,52 129,44" />
<polygon fill="#001a53" fill-opacity="0.501961" points="61,129 74,138 64,139" />
<polygon fill="#273f6c" fill-opacity="0.501961" points="97,117 96,124 99,131" />
<polygon fill="#6b7d9a" fill-opacity="0.501961" points="102,122 99,119 102,118" />
<polygon fill="#080806" fill-opacity="0.501961" points="62,87 66,97 86,98" />
<polygon fill="#8494aa" fill-opacity="0.501961" points="94,119 93,117 96,116" />
<polygon fill="#001a53" fill-opacity="0.501961" points="207,113 100,142 212,142" />
<polygon fill="#1e3f83" fill-opacity="0.501961" points="95,143 109,143 102,141" />
<polygon fill="#001a52" fill-opacity="0.501961" points="111,142 115,129 115,139" />
<polygon fill="#07090e" fill-opacity="0.501961" points="140,143 60,143 104,160" />
<polygon fill="#151512" fill-opacity="0.501961" points="102,62 100,43 109,51" />
<polygon fill="#001952" fill-opacity="0.501961" points="78,140 107,142 110,133" />
<polygon fill="#001b54" fill-opacity="0.501961" points="69,130 41,141 97,139" />
<polygon fill="#001750" fill-opacity="0.501961" points="47,114 34,115 39,112" />
<polygon fill="#0c0c0b" fill-opacity="0.501961" points="155,89 145,81 148,87" />
<polygon fill="#0f1113" fill-opacity="0.501961" points="123,74 113,54 82,69" />
<polygon fill="#000000" fill-opacity="0.501961" points="216,74 271,110 153,110" />
<polygon fill="#001a54" fill-opacity="0.501961" points="137,139 242,131 210,113" />
<polygon fill="#050505" fill-opacity="0.501961" points="169,44 166,29 174,25" />
<polygon fill="#001a53" fill-opacity="0.501961" points="8,122 43,122 9,141" />
<polygon fill="#163d89" fill-opacity="0.501961" points="213,113 216,111 219,111" />
<polygon fill="#8090a8" fill-opacity="0.501961" points="71,121 73,119 73,116" />
<polygon fill="#00124c" fill-opacity="0.501961" points="60,112 70,115 75,112" />
<polygon fill="#394e77" fill-opacity="0.501961" points="100,116 101,123 99,121" />
<polygon fill="#001a53" fill-opacity="0.501961" points="207,118 251,130 251,115" />
<polygon fill="#12120d" fill-opacity="0.501961" points="167,57 171,60 161,58" />
<polygon fill="#111314" fill-opacity="0.501961" points="145,81 135,87 122,86" />
<polygon fill="#00003d" fill-opacity="0.501961" points="50,122 53,122 51,123" />
<polygon fill="#222220" fill-opacity="0.501961" points="114,90 102,85 126,85" />
<polygon fill="#bdc6d4" fill-opacity="0.501961" points="128,77 124,73 125,76" />
<polygon fill="#031e55" fill-opacity="0.501961" points="106,126 104,142 109,139" />
<polygon fill="#000000" fill-opacity="0.501961" points="174,-16 174,94 271,113" />
<polygon fill="#010101" fill-opacity="0.501961" points="108,86 124,76 125,81" />
<polygon fill="#000d46" fill-opacity="0.501961" points="102,122 96,122 95,124" />
<polygon fill="#001a53" fill-opacity="0.501961" points="204,113 204,131 245,133" />
<polygon fill="#0e1011" fill-opacity="0.501961" points="90,60 125,73 113,52" />
</g>
</svg>