<svg xmlns="http://www.w3.org/2000/svg" version="1.1" width="1024" height="580">
<rect x="0" y="0" width="1024" height="580" fill="#0e1320" />
<g transform="scale(4.000000) translate(0.5 0.5)">
<polygon fill="#ffffff" fill-opacity="0.501961" points="1,97 47,94 16,53" />
<polygon fill="#13409c" fill-opacity="0.501961" points="115,160 -16,111 271,112" />
<polygon fill="#030000" fill-opacity="0.501961" points="-16,-16 271,4 65,113" />
<polygon fill="#b9a7a0" fill-opacity="0.501961" points="44,57 4,57 14,119" />
<polygon fill="#000000" fill-opacity="0.501961" points="123,111 271,108 247,-16" />
<polygon fill="#667a98" fill-opacity="0.501961" points="15,132 130,128 79,109" />
<polygon fill="#002f97" fill-opacity="0.501961" points="176,142 253,118 254,143" />
<polygon fill="#9f9489" fill-opacity="0.501961" points="126,59 125,77 149,82" />
<polygon fill="#dad2e4" fill-opacity="0.501961" points="2,96 42,96 42,67" />
<polygon fill="#00236f" fill-opacity="0.501961" points="6,160 66,144 2,90" />
<polygon fill="#000000" fill-opacity="0.501961" points="271,1 -3,61 0,-16" />
<polygon fill="#000000" fill-opacity="0.501961" points="120,110 44,109 35,-9" />
<polygon fill="#2b291f" fill-opacity="0.501961" points="89,24 165,23 169,105" />
<polygon fill="#000000" fill-opacity="0.501961" points="143,110 271,109 250,-16" />
<polygon fill="#000e48" fill-opacity="0.501961" points="92,160 271,117 135,110" />
<polygon fill="#72675d" fill-opacity="0.501961" points="5,55 3,83 44,63" />
<polygon fill="#596c8d" fill-opacity="0.501961" points="49,116 126,115 108,132" />
<polygon fill="#5697ff" fill-opacity="0.501961" points="250,140 238,135 246,130" />
<polygon fill="#ffffd5" fill-opacity="0.501961" points="15,89 29,74 34,85" />
<polygon fill="#000000" fill-opacity="0.501961" points="3,143 -16,70 4,92" />
<polygon fill="#000000" fill-opacity="0.501961" points="21,-16 -16,58 37,58" />
<polygon fill="#062563" fill-opacity="0.501961" points="30,97 3,96 28,160" />
<polygon fill="#000000" fill-opacity="0.501961" points="271,-4 111,-16 271,130" />
<polygon fill="#2b3c6f" fill-opacity="0.501961" points="42,56 33,77 43,87" />
<polygon fill="#d8cdd8" fill-opacity="0.501961" points="131,77 123,78 128,69" />
<polygon fill="#798eac" fill-opacity="0.501961" points="25,101 7,100 21,108" />
<polygon fill="#4057a7" fill-opacity="0.501961" points="18,88 4,70 3,89" />
<polygon fill="#000000" fill-opacity="0.501961" points="43,107 44,17 88,116" />
<polygon fill="#000000" fill-opacity="0.501961" points="137,85 130,75 136,63" />
<polygon fill="#433b32" fill-opacity="0.501961" points="157,26 155,99 169,68" />
<polygon fill="#282216" fill-opacity="0.501961" points="173,87 59,85 117,102" />
<polygon fill="#000000" fill-opacity="0.501961" points="178,110 69,109 130,91" />
<polygon fill="#506484" fill-opacity="0.501961" points="86,128 28,130 46,116" />
<polygon fill="#fff9d9" fill-opacity="0.501961" points="31,89 14,82 17,76" />
<polygon fill="#a4a8a7" fill-opacity="0.501961" points="147,73 137,82 138,73" />
<polygon fill="#031f54" fill-opacity="0.501961" points="63,109 61,132 49,122" />
<polygon fill="#5d7be2" fill-opacity="0.501961" points="42,88 30,91 41,78" />
<polygon fill="#cedaf7" fill-opacity="0.501961" points="5,95 4,83 25,96" />
<polygon fill="#43361e" fill-opacity="0.501961" points="15,71 22,79 24,75" />
<polygon fill="#00154d" fill-opacity="0.501961" points="168,132 4,130 67,160" />
<polygon fill="#867559" fill-opacity="0.501961" points="40,61 22,59 34,79" />
<polygon fill="#181a15" fill-opacity="0.501961" points="124,81 131,7 73,63" />
<polygon fill="#55422f" fill-opacity="0.501961" points="17,87 6,78 10,70" />
<polygon fill="#000000" fill-opacity="0.501961" points="-16,-1 174,-4 4,59" />
<polygon fill="#000000" fill-opacity="0.501961" points="3,103 -16,53 4,21" />
<polygon fill="#001750" fill-opacity="0.501961" points="244,112 238,147 110,114" />
<polygon fill="#080a0b" fill-opacity="0.501961" points="148,85 158,9 130,16" />
<polygon fill="#000000" fill-opacity="0.501961" points="271,111 177,107 169,-16" />
<polygon fill="#8696ad" fill-opacity="0.501961" points="120,131 121,123 107,123" />
<polygon fill="#c3ccd6" fill-opacity="0.501961" points="70,127 63,130 64,124" />
<polygon fill="#9f6535" fill-opacity="0.501961" points="28,92 28,96 16,88" />
<polygon fill="#00144b" fill-opacity="0.501961" points="5,113 27,160 35,112" />
<polygon fill="#fddcb9" fill-opacity="0.501961" points="20,72 21,67 28,75" />
<polygon fill="#183362" fill-opacity="0.501961" points="77,122 99,128 118,121" />
<polygon fill="#060000" fill-opacity="0.501961" points="83,144 187,143 145,160" />
<polygon fill="#a79898" fill-opacity="0.501961" points="131,67 124,74 129,82" />
<polygon fill="#002067" fill-opacity="0.501961" points="50,116 84,114 65,110" />
<polygon fill="#000000" fill-opacity="0.501961" points="253,44 253,160 271,97" />
<polygon fill="#958a7e" fill-opacity="0.501961" points="6,70 7,59 39,58" />
<polygon fill="#8393aa" fill-opacity="0.501961" points="99,115 113,120 93,119" />
<polygon fill="#080000" fill-opacity="0.501961" points="37,160 60,144 -2,143" />
<polygon fill="#ffe1d6" fill-opacity="0.501961" points="34,79 39,96 16,81" />
<polygon fill="#000000" fill-opacity="0.501961" points="49,88 31,110 129,110" />
<polygon fill="#685a47" fill-opacity="0.501961" points="27,60 12,78 5,72" />
<polygon fill="#000000" fill-opacity="0.501961" points="-15,121 2,78 4,160" />
<polygon fill="#352c15" fill-opacity="0.501961" points="34,74 42,67 39,75" />
<polygon fill="#0f0f0b" fill-opacity="0.501961" points="147,70 130,75 140,56" />
<polygon fill="#7c625e" fill-opacity="0.501961" points="125,71 122,67 130,62" />
<polygon fill="#73849e" fill-opacity="0.501961" points="22,103 11,108 10,104" />
<polygon fill="#526688" fill-opacity="0.501961" points="51,113 51,119 32,119" />
<polygon fill="#2b2a21" fill-opacity="0.501961" points="156,92 98,91 133,79" />
<polygon fill="#6c7e9b" fill-opacity="0.501961" points="80,130 108,130 87,124" />
<polygon fill="#6d7f9c" fill-opacity="0.501961" points="96,115 94,122 120,116" />
<polygon fill="#312415" fill-opacity="0.501961" points="26,72 22,75 21,74" />
<polygon fill="#ffe4ca" fill-opacity="0.501961" points="16,75 15,79 20,72" />
<polygon fill="#000f31" fill-opacity="0.501961" points="-13,96 5,102 20,96" />
<polygon fill="#000000" fill-opacity="0.501961" points="30,97 76,101 31,109" />
<polygon fill="#001248" fill-opacity="0.501961" points="251,132 243,146 250,139" />
<polygon fill="#010100" fill-opacity="0.501961" points="-11,55 63,58 153,-10" />
<polygon fill="#070100" fill-opacity="0.501961" points="0,143 95,143 34,160" />
<polygon fill="#6d7f9d" fill-opacity="0.501961" points="65,115 98,115 82,121" />
<polygon fill="#d7e8ff" fill-opacity="0.501961" points="40,88 37,96 41,96" />
<polygon fill="#fcd7bb" fill-opacity="0.501961" points="31,85 28,72 12,95" />
<polygon fill="#0c0f0f" fill-opacity="0.501961" points="83,39 77,120 69,79" />
<polygon fill="#334aa6" fill-opacity="0.501961" points="39,73 40,84 34,87" />
<polygon fill="#6da8ff" fill-opacity="0.501961" points="244,137 247,136 244,130" />
<polygon fill="#032364" fill-opacity="0.501961" points="4,123 70,143 6,142" />
<polygon fill="#001e5b" fill-opacity="0.501961" points="27,96 10,96 31,105" />
<polygon fill="#001f5e" fill-opacity="0.501961" points="71,109 87,113 55,115" />
<polygon fill="#000000" fill-opacity="0.501961" points="4,69 2,151 -16,128" />
<polygon fill="#0e0f10" fill-opacity="0.501961" points="143,63 163,20 110,60" />
<polygon fill="#001448" fill-opacity="0.501961" points="28,124 31,119 47,122" />
<polygon fill="#001052" fill-opacity="0.501961" points="99,111 100,115 85,114" />
<polygon fill="#17140d" fill-opacity="0.501961" points="166,44 175,71 168,101" />
<polygon fill="#001953" fill-opacity="0.501961" points="240,136 162,142 129,112" />
<polygon fill="#000000" fill-opacity="0.501961" points="112,93 49,110 171,110" />
<polygon fill="#163162" fill-opacity="0.501961" points="63,125 75,122 51,121" />
<polygon fill="#403c32" fill-opacity="0.501961" points="43,66 37,71 39,59" />
<polygon fill="#072357" fill-opacity="0.501961" points="93,121 81,125 74,122" />
<polygon fill="#020200" fill-opacity="0.501961" points="122,73 78,80 128,87" />
<polygon fill="#9e6f45" fill-opacity="0.501961" points="23,90 17,86 20,90" />
<polygon fill="#6d7d98" fill-opacity="0.501961" points="53,124 53,130 31,126" />
<polygon fill="#647d9a" fill-opacity="0.501961" points="128,126 126,124 122,126" />
<polygon fill="#22211d" fill-opacity="0.501961" points="105,46 93,35 149,26" />
<polygon fill="#a6b2c2" fill-opacity="0.501961" points="68,127 62,126 66,131" />
<polygon fill="#6179d0" fill-opacity="0.501961" points="15,90 5,78 4,89" />
<polygon fill="#112b5d" fill-opacity="0.501961" points="70,119 68,124 70,128" />
<polygon fill="#0e0f0f" fill-opacity="0.501961" points="155,82 143,89 153,49" />
<polygon fill="#8c9aaf" fill-opacity="0.501961" points="63,116 68,123 67,115" />
<polygon fill="#312f2a" fill-opacity="0.501961" points="89,86 67,90 90,92" />
<polygon fill="#001950" fill-opacity="0.501961" points="15,141 16,102 36,135" />
<polygon fill="#092763" fill-opacity="0.501961" points="28,107 41,118 5,108" />
<polygon fill="#000343" fill-opacity="0.501961" points="50,114 40,112 46,116" />
<polygon fill="#d4a076" fill-opacity="0.501961" points="13,81 10,77 15,76" />
<polygon fill="#2e4671" fill-opacity="0.501961" points="101,129 82,119 107,120" />
<polygon fill="#000000" fill-opacity="0.501961" points="183,110 271,11 164,-16" />
<polygon fill="#a8b4c4" fill-opacity="0.501961" points="73,128 73,124 75,125" />
<polygon fill="#f4f2ec" fill-opacity="0.501961" points="20,93 7,96 5,92" />
<polygon fill="#0e1012" fill-opacity="0.501961" points="137,17 131,84 148,50" />
<polygon fill="#576a8c" fill-opacity="0.501961" points="110,125 96,130 82,123" />
<polygon fill="#322e28" fill-opacity="0.501961" points="167,43 155,84 155,23" />
<polygon fill="#000000" fill-opacity="0.501961" points="253,160 254,104 271,160" />
<polygon fill="#001d56" fill-opacity="0.501961" points="251,132 252,109 230,122" />
<polygon fill="#8e9ec0" fill-opacity="0.501961" points="41,83 29,95 27,90" />
<polygon fill="#001952" fill-opacity="0.501961" points="142,142 222,141 117,112" />
<polygon fill="#001852" fill-opacity="0.501961" points="94,137 89,141 92,125" />
<polygon fill="#8d827a" fill-opacity="0.501961" points="27,58 9,58 37,73" />
<polygon fill="#5289ff" fill-opacity="0.501961" points="243,130 247,136 245,138" />
<polygon fill="#000000" fill-opacity="0.501961" points="44,53 79,102 42,110" />
<polygon fill="#ffecd1" fill-opacity="0.501961" points="33,83 35,78 27,79" />
<polygon fill="#7182a1" fill-opacity="0.501961" points="18,106 25,107 20,103" />
<polygon fill="#54688b" fill-opacity="0.501961" points="55,123 61,125 57,116" />
<polygon fill="#001a53" fill-opacity="0.501961" points="107,123 102,136 106,142" />
<polygon fill="#001952" fill-opacity="0.501961" points="92,115 93,119 86,111" />
<polygon fill="#00184d" fill-opacity="0.501961" points="117,117 115,123 114,115" />
<polygon fill="#4b3b34" fill-opacity="0.501961" points="132,63 136,68 125,69" />
<polygon fill="#c3cad5" fill-opacity="0.501961" points="94,120 96,117 96,120" />
<polygon fill="#534b44" fill-opacity="0.501961" points="35,64 32,61 30,75" />
<polygon fill="#020000" fill-opacity="0.501961" points="256,143 233,160 188,143" />
<polygon fill="#153473" fill-opacity="0.501961" points="78,111 57,111 77,118" />
<polygon fill="#082966" fill-opacity="0.501961" points="114,143 142,134 170,143" />
<polygon fill="#818fa8" fill-opacity="0.501961" points="111,130 106,125 118,126" />
<polygon fill="#001951" fill-opacity="0.501961" points="127,142 198,142 127,116" />
<polygon fill="#8090aa" fill-opacity="0.501961" points="49,118 41,116 43,120" />
<polygon fill="#0c0d0c" fill-opacity="0.501961" points="85,29 66,77 126,78" />
<polygon fill="#021e53" fill-opacity="0.501961" points="47,130 45,131 47,124" />
<polygon fill="#000000" fill-opacity="0.501961" points="271,109 271,22 149,110" />
<polygon fill="#0a2c68" fill-opacity="0.501961" points="153,117 171,110 136,112" />
<polygon fill="#9aa7b8" fill-opacity="0.501961" points="78,122 83,115 79,115" />
<polygon fill="#3e5bbd" fill-opacity="0.501961" points="42,74 36,83 42,85" />
<polygon fill="#373636" fill-opacity="0.501961" points="127,18 136,18 124,14" />
<polygon fill="#6e809c" fill-opacity="0.501961" points="119,115 119,121 115,122" />
<polygon fill="#aea197" fill-opacity="0.501961" points="7,69 7,58 12,58" />
<polygon fill="#f3f9fb" fill-opacity="0.501961" points="33,94 40,95 41,92" />
<polygon fill="#15130f" fill-opacity="0.501961" points="180,98 167,89 139,98" />
<polygon fill="#282518" fill-opacity="0.501961" points="34,73 35,74 30,75" />
<polygon fill="#ffeed8" fill-opacity="0.501961" points="16,84 28,90 17,77" />
<polygon fill="#00124b" fill-opacity="0.501961" points="57,137 56,126 52,143" />
<polygon fill="#42403b" fill-opacity="0.501961" points="12,64 11,73 8,74" />
<polygon fill="#39332f" fill-opacity="0.501961" points="153,88 166,85 164,64" />
<polygon fill="#534e4f" fill-opacity="0.501961" points="126,83 125,79 130,84" />
<polygon fill="#d8baa0" fill-opacity="0.501961" points="27,70 17,70 32,76" />
<polygon fill="#001953" fill-opacity="0.501961" points="139,113 243,142 232,112" />
<polygon fill="#0b0c0c" fill-opacity="0.501961" points="123,87 144,86 139,81" />
<polygon fill="#00000a" fill-opacity="0.501961" points="6,60 -16,56 -16,91" />
<polygon fill="#0b275a" fill-opacity="0.501961" points="114,124 114,119 127,119" />
<polygon fill="#16377b" fill-opacity="0.501961" points="169,140 158,143 177,143" />
<polygon fill="#7989a4" fill-opacity="0.501961" points="62,124 63,128 75,126" />
<polygon fill="#a9b0cf" fill-opacity="0.501961" points="11,85 17,92 5,90" />
<polygon fill="#141311" fill-opacity="0.501961" points="98,89 68,98 128,97" />
<polygon fill="#887a6c" fill-opacity="0.501961" points="22,80 6,65 12,60" />
<polygon fill="#0b2a6b" fill-opacity="0.501961" points="16,113 30,97 29,105" />
<polygon fill="#213a68" fill-opacity="0.501961" points="97,128 104,129 100,113" />
<polygon fill="#000000" fill-opacity="0.501961" points="67,56 9,-16 -16,57" />
<polygon fill="#001a53" fill-opacity="0.501961" points="166,113 248,140 94,142" />
<polygon fill="#000000" fill-opacity="0.501961" points="4,152 -16,97 3,26" />
<polygon fill="#36332d" fill-opacity="0.501961" points="143,85 133,91 154,91" />
<polygon fill="#929394" fill-opacity="0.501961" points="143,79 138,81 143,75" />
<polygon fill="#485e83" fill-opacity="0.501961" points="88,127 81,131 76,129" />
<polygon fill="#001650" fill-opacity="0.501961" points="25,142 66,131 105,142" />
<polygon fill="#ffe8d5" fill-opacity="0.501961" points="31,76 26,74 31,85" />
<polygon fill="#9ba6b6" fill-opacity="0.501961" points="8,103 10,101 15,101" />
<polygon fill="#122f67" fill-opacity="0.501961" points="4,112 5,96 14,96" />
<polygon fill="#092558" fill-opacity="0.501961" points="92,127 91,117 94,122" />
<polygon fill="#2b4678" fill-opacity="0.501961" points="15,110 28,109 25,112" />
<polygon fill="#919eb2" fill-opacity="0.501961" points="11,100 11,106 14,101" />
<polygon fill="#4278f4" fill-opacity="0.501961" points="247,132 240,138 249,135" />
<polygon fill="#1f4a96" fill-opacity="0.501961" points="168,113 164,111 172,111" />
<polygon fill="#2e468c" fill-opacity="0.501961" points="8,78 4,88 5,69" />
<polygon fill="#4f596c" fill-opacity="0.501961" points="4,60 4,73 10,76" />
<polygon fill="#0f1111" fill-opacity="0.501961" points="123,72 114,16 103,79" />
<polygon fill="#052055" fill-opacity="0.501961" points="46,119 49,124 60,122" />
<polygon fill="#383530" fill-opacity="0.501961" points="124,89 111,92 99,87" />
<polygon fill="#001043" fill-opacity="0.501961" points="66,115 59,113 74,112" />
<polygon fill="#262521" fill-opacity="0.501961" points="117,45 117,23 135,42" />
<polygon fill="#1d3b80" fill-opacity="0.501961" points="252,120 253,134 250,130" />
<polygon fill="#7b6561" fill-opacity="0.501961" points="124,64 131,63 126,71" />
<polygon fill="#adb7c5" fill-opacity="0.501961" points="58,120 58,121 60,120" />
<polygon fill="#ffe1b9" fill-opacity="0.501961" points="22,94 16,95 16,87" />
<polygon fill="#1b1814" fill-opacity="0.501961" points="169,36 154,18 158,36" />
<polygon fill="#7d6855" fill-opacity="0.501961" points="29,65 25,75 25,65" />
<polygon fill="#00144d" fill-opacity="0.501961" points="128,134 121,121 123,130" />
<polygon fill="#264989" fill-opacity="0.501961" points="4,108 7,112 4,101" />
<polygon fill="#163574" fill-opacity="0.501961" points="53,139 60,143 42,143" />
<polygon fill="#131412" fill-opacity="0.501961" points="152,49 130,83 136,55" />
<polygon fill="#080601" fill-opacity="0.501961" points="55,143 92,160 136,143" />
<polygon fill="#001851" fill-opacity="0.501961" points="9,112 39,112 4,138" />
<polygon fill="#6a5f54" fill-opacity="0.501961" points="18,61 11,76 25,63" />
<polygon fill="#bcceea" fill-opacity="0.501961" points="33,95 38,96 35,89" />
<polygon fill="#607292" fill-opacity="0.501961" points="100,124 100,130 118,129" />
<polygon fill="#000000" fill-opacity="0.501961" points="34,109 56,78 82,111" />
<polygon fill="#00154c" fill-opacity="0.501961" points="57,117 55,113 47,114" />
<polygon fill="#000000" fill-opacity="0.501961" points="96,98 122,110 155,99" />
<polygon fill="#000000" fill-opacity="0.501961" points="1,-3 140,-5 -16,65" />
<polygon fill="#000000" fill-opacity="0.501961" points="263,1 150,-16 132,18" />
<polygon fill="#102f6a" fill-opacity="0.501961" points="4,147 4,120 15,160" />
<polygon fill="#687a99" fill-opacity="0.501961" points="116,118 107,121 104,118" />
<polygon fill="#001850" fill-opacity="0.501961" points="7,142 39,131 75,141" />
<polygon fill="#001851" fill-opacity="0.501961" points="4,142 5,119 31,141" />
<polygon fill="#001a53" fill-opacity="0.501961" points="238,139 147,112 251,113" />
<polygon fill="#919fd0" fill-opacity="0.501961" points="26,91 41,84 42,90" />
<polygon fill="#001a54" fill-opacity="0.501961" points="111,142 114,130 156,132" />
<polygon fill="#111211" fill-opacity="0.501961" points="145,65 80,51 144,45" />
<polygon fill="#00174d" fill-opacity="0.501961" points="106,121 109,132 106,128" />
<polygon fill="#314ba4" fill-opacity="0.501961" points="13,84 6,77 5,80" />
<polygon fill="#000000" fill-opacity="0.501961" points="174,110 174,-16 271,8" />
<polygon fill="#001a52" fill-opacity="0.501961" points="4,142 33,120 30,141" />
<polygon fill="#102f6e" fill-opacity="0.501961" points="252,137 230,143 252,143" />
<polygon fill="#ffeed5" fill-opacity="0.501961" points="22,67 21,71 20,69" />
<polygon fill="#00174f" fill-opacity="0.501961" points="251,113 251,133 234,118" />
<polygon fill="#b28b6f" fill-opacity="0.501961" points="11,75 12,81 13,73" />
<polygon fill="#7e88c0" fill-opacity="0.501961" points="41,89 38,83 31,89" />
<polygon fill="#0f1214" fill-opacity="0.501961" points="77,72 126,72 108,57" />
<polygon fill="#6f7fc8" fill-opacity="0.501961" points="14,87 5,86 5,82" />
<polygon fill="#001b55" fill-opacity="0.501961" points="7,110 10,96 5,103" />
<polygon fill="#315fb9" fill-opacity="0.501961" points="250,111 253,113 252,111" />
<polygon fill="#7989a3" fill-opacity="0.501961" points="89,130 93,127 86,124" />
<polygon fill="#44413b" fill-opacity="0.501961" points="40,76 42,64 38,65" />
<polygon fill="#000f44" fill-opacity="0.501961" points="248,142 241,141 249,138" />
<polygon fill="#000000" fill-opacity="0.501961" points="32,110 36,97 30,103" />
<polygon fill="#13110e" fill-opacity="0.501961" points="147,91 133,99 107,91" />
<polygon fill="#243f70" fill-opacity="0.501961" points="16,110 5,109 6,112" />
<polygon fill="#070500" fill-opacity="0.501961" points="165,143 129,143 152,159" />
<polygon fill="#070703" fill-opacity="0.501961" points="175,59 161,59 182,50" />
<polygon fill="#000f49" fill-opacity="0.501961" points="42,122 43,120 43,123" />
<polygon fill="#ffe3d2" fill-opacity="0.501961" points="33,81 29,74 19,88" />
<polygon fill="#ffe8c9" fill-opacity="0.501961" points="25,90 26,87 31,88" />
<polygon fill="#23231b" fill-opacity="0.501961" points="96,33 107,39 104,55" />
<polygon fill="#1c4594" fill-opacity="0.501961" points="194,111 187,113 183,111" />
<polygon fill="#161614" fill-opacity="0.501961" points="152,47 130,75 153,67" />
<polygon fill="#001b54" fill-opacity="0.501961" points="250,119 250,139 242,110" />
<polygon fill="#001a53" fill-opacity="0.501961" points="132,131 126,112 198,112" />
<polygon fill="#42587b" fill-opacity="0.501961" points="32,131 39,130 42,124" />
<polygon fill="#092866" fill-opacity="0.501961" points="124,143 82,142 101,136" />
<polygon fill="#00164e" fill-opacity="0.501961" points="69,140 122,142 108,131" />
<polygon fill="#00154f" fill-opacity="0.501961" points="38,114 40,112 40,120" />
<polygon fill="#020000" fill-opacity="0.501961" points="1,143 16,154 16,144" />
<polygon fill="#92a2b8" fill-opacity="0.501961" points="22,101 19,101 18,103" />
<polygon fill="#39352f" fill-opacity="0.501961" points="138,89 131,92 122,88" />
<polygon fill="#dfc8ae" fill-opacity="0.501961" points="35,72 35,70 31,70" />
<polygon fill="#0e2b69" fill-opacity="0.501961" points="9,143 21,137 42,142" />
<polygon fill="#092e71" fill-opacity="0.501961" points="21,97 27,97 15,101" />
<polygon fill="#617390" fill-opacity="0.501961" points="31,124 38,125 39,128" />
<polygon fill="#7b8aa3" fill-opacity="0.501961" points="44,124 41,130 45,127" />
<polygon fill="#7f8fa7" fill-opacity="0.501961" points="64,122 69,121 66,116" />
<polygon fill="#8b827d" fill-opacity="0.501961" points="32,58 25,58 31,68" />
<polygon fill="#0b0c0a" fill-opacity="0.501961" points="122,19 103,15 82,39" />
<polygon fill="#001951" fill-opacity="0.501961" points="6,120 60,142 6,142" />
<polygon fill="#0f0d08" fill-opacity="0.501961" points="175,46 167,73 167,24" />
<polygon fill="#586b8e" fill-opacity="0.501961" points="51,121 42,117 53,118" />
<polygon fill="#877a6d" fill-opacity="0.501961" points="18,65 19,59 34,59" />
<polygon fill="#000a43" fill-opacity="0.501961" points="10,107 17,109 17,107" />
<polygon fill="#1b4087" fill-opacity="0.501961" points="5,57 2,60 8,57" />
<polygon fill="#141212" fill-opacity="0.501961" points="172,92 172,79 151,97" />
<polygon fill="#052157" fill-opacity="0.501961" points="68,147 74,149 70,126" />
<polygon fill="#000000" fill-opacity="0.501961" points="125,85 103,85 119,73" />
<polygon fill="#fbdcc9" fill-opacity="0.501961" points="15,76 16,83 32,87" />
<polygon fill="#001952" fill-opacity="0.501961" points="62,142 73,130 116,141" />
<polygon fill="#001a52" fill-opacity="0.501961" points="168,122 102,142 241,141" />
<polygon fill="#0f100f" fill-opacity="0.501961" points="150,86 156,77 132,87" />
<polygon fill="#001b52" fill-opacity="0.501961" points="39,123 24,115 21,124" />
<polygon fill="#364e76" fill-opacity="0.501961" points="71,119 65,121 72,121" />
<polygon fill="#19387b" fill-opacity="0.501961" points="184,143 195,140 196,143" />
<polygon fill="#95a2b5" fill-opacity="0.501961" points="86,121 87,117 89,116" />
<polygon fill="#8796ad" fill-opacity="0.501961" points="82,127 80,127 80,124" />
<polygon fill="#060605" fill-opacity="0.501961" points="63,101 96,18 62,56" />
<polygon fill="#001d59" fill-opacity="0.501961" points="18,108 29,106 29,109" />
<polygon fill="#0d1011" fill-opacity="0.501961" points="146,55 154,88 145,84" />
<polygon fill="#504132" fill-opacity="0.501961" points="23,78 20,79 20,75" />
<polygon fill="#706354" fill-opacity="0.501961" points="24,67 31,69 23,62" />
<polygon fill="#0a0907" fill-opacity="0.501961" points="124,20 154,30 163,15" />
<polygon fill="#a6b1c2" fill-opacity="0.501961" points="69,130 63,128 67,125" />
<polygon fill="#8f9db3" fill-opacity="0.501961" points="62,126 62,130 68,125" />
<polygon fill="#c3b9bc" fill-opacity="0.501961" points="131,70 126,76 128,79" />
<polygon fill="#00144e" fill-opacity="0.501961" points="61,126 58,139 62,135" />
<polygon fill="#181711" fill-opacity="0.501961" points="146,69 128,75 140,61" />
<polygon fill="#96897c" fill-opacity="0.501961" points="13,72 15,66 12,59" />
<polygon fill="#7787a2" fill-opacity="0.501961" points="98,126 94,128 93,126" />
<polygon fill="#04070a" fill-opacity="0.501961" points="138,84 132,81 133,72" />
<polygon fill="#c6aa99" fill-opacity="0.501961" points="25,85 30,86 29,87" />
<polygon fill="#6a5c50" fill-opacity="0.501961" points="27,71 26,67 32,70" />
<polygon fill="#163679" fill-opacity="0.501961" points="250,117 252,112 252,122" />
<polygon fill="#001a52" fill-opacity="0.501961" points="165,141 204,142 187,121" />
<polygon fill="#8796ac" fill-opacity="0.501961" points="109,121 113,116 110,115" />
<polygon fill="#8c7b68" fill-opacity="0.501961" points="7,69 11,76 7,72" />
<polygon fill="#110f0c" fill-opacity="0.501961" points="96,97 66,95 67,87" />
<polygon fill="#123881" fill-opacity="0.501961" points="121,111 130,114 135,111" />
<polygon fill="#133272" fill-opacity="0.501961" points="88,139 100,143 76,143" />
<polygon fill="#53678a" fill-opacity="0.501961" points="111,121 98,120 105,118" />
<polygon fill="#001951" fill-opacity="0.501961" points="58,142 94,132 95,142" />
<polygon fill="#001952" fill-opacity="0.501961" points="138,140 147,112 120,113" />
<polygon fill="#000000" fill-opacity="0.501961" points="121,110 44,88 42,109" />
<polygon fill="#31549f" fill-opacity="0.501961" points="246,143 243,142 246,142" />
<polygon fill="#000000" fill-opacity="0.501961" points="30,97 36,107 69,99" />
<polygon fill="#424552" fill-opacity="0.501961" points="8,81 4,69 14,84" />
<polygon fill="#00174e" fill-opacity="0.501961" points="248,122 251,111 251,133" />
<polygon fill="#122f6e" fill-opacity="0.501961" points="230,142 206,143 218,139" />
<polygon fill="#00174d" fill-opacity="0.501961" points="207,142 250,142 229,136" />
<polygon fill="#00164d" fill-opacity="0.501961" points="83,123 85,121 84,118" />
<polygon fill="#001a52" fill-opacity="0.501961" points="12,142 94,142 51,130" />
<polygon fill="#00144c" fill-opacity="0.501961" points="26,107 22,97 28,101" />
<polygon fill="#5389ff" fill-opacity="0.501961" points="246,137 243,132 241,136" />
<polygon fill="#000000" fill-opacity="0.501961" points="116,98 142,110 181,98" />
<polygon fill="#000000" fill-opacity="0.501961" points="-16,99 0,105 5,41" />
<polygon fill="#937f6e" fill-opacity="0.501961" points="25,64 19,61 28,71" />
<polygon fill="#0d3684" fill-opacity="0.501961" points="98,111 78,111 89,114" />
<polygon fill="#00104a" fill-opacity="0.501961" points="109,123 118,123 114,121" />
<polygon fill="#a9a8ab" fill-opacity="0.501961" points="16,87 17,91 13,93" />
<polygon fill="#335283" fill-opacity="0.501961" points="30,95 25,97 27,95" />
<polygon fill="#0f3880" fill-opacity="0.501961" points="36,111 47,114 47,111" />
<polygon fill="#262116" fill-opacity="0.501961" points="128,68 146,62 142,68" />
<polygon fill="#233e6b" fill-opacity="0.501961" points="123,119 119,129 123,125" />
<polygon fill="#181716" fill-opacity="0.501961" points="143,29 124,16 129,28" />
<polygon fill="#5d574e" fill-opacity="0.501961" points="13,73 20,62 18,70" />
<polygon fill="#070300" fill-opacity="0.501961" points="7,96 5,97 4,96" />
<polygon fill="#142f5f" fill-opacity="0.501961" points="65,121 62,125 63,122" />
<polygon fill="#72829f" fill-opacity="0.501961" points="119,118 119,117 116,118" />
<polygon fill="#8d8e8f" fill-opacity="0.501961" points="139,76 145,77 144,75" />
<polygon fill="#929fb5" fill-opacity="0.501961" points="120,127 117,125 115,126" />
<polygon fill="#112b5d" fill-opacity="0.501961" points="78,126 84,125 81,122" />
<polygon fill="#7b8aa4" fill-opacity="0.501961" points="20,103 21,100 16,105" />
<polygon fill="#465b81" fill-opacity="0.501961" points="115,126 109,123 117,131" />
<polygon fill="#000000" fill-opacity="0.501961" points="247,110 165,110 259,-16" />
<polygon fill="#35312c" fill-opacity="0.501961" points="156,77 168,83 158,53" />
<polygon fill="#00144f" fill-opacity="0.501961" points="46,113 54,115 53,112" />
<polygon fill="#0b0e0e" fill-opacity="0.501961" points="79,87 80,48 102,20" />
<polygon fill="#00184c" fill-opacity="0.501961" points="44,111 48,117 44,115" />
<polygon fill="#00124c" fill-opacity="0.501961" points="23,99 14,100 17,98" />
<polygon fill="#0f2b5e" fill-opacity="0.501961" points="113,115 116,117 115,123" />
<polygon fill="#302d28" fill-opacity="0.501961" points="158,59 167,50 159,34" />
</g>
</svg>