<svg xmlns="http://www.w3.org/2000/svg" version="1.1" width="1024" height="580">
<rect x="0" y="0" width="1024" height="580" fill="#2e313e" />
<g transform="scale(4.000000) translate(0.5 0.5)">
<polygon fill="#ffffff" fill-opacity="0.501961" points="54,10 17,103 83,158" />
<polygon fill="#f2cccd" fill-opacity="0.501961" points="210,19 218,119 235,27" />
<polygon fill="#000000" fill-opacity="0.501961" points="25,-12 156,115 256,-16" />
<polygon fill="#f8ffff" fill-opacity="0.501961" points="42,155 22,64 71,72" />
<polygon fill="#000000" fill-opacity="0.501961" points="-12,1 56,-16 1,127" />
<polygon fill="#00247b" fill-opacity="0.501961" points="271,157 6,141 222,94" />
<polygon fill="#000000" fill-opacity="0.501961" points="220,-16 255,153 271,-16" />
<polygon fill="#dcbc9d" fill-opacity="0.501961" points="34,16 44,98 66,18" />
<polygon fill="#000012" fill-opacity="0.501961" points="2,-16 -8,160 31,123" />
<polygon fill="#4368a7" fill-opacity="0.501961" points="125,137 146,111 30,111" />
<polygon fill="#a57a80" fill-opacity="0.501961" points="210,16 201,118 242,107" />
<polygon fill="#000000" fill-opacity="0.501961" points="117,114 73,28 56,56" />
<polygon fill="#000000" fill-opacity="0.501961" points="150,111 199,111 204,-16" />
<polygon fill="#6c6252" fill-opacity="0.501961" points="187,44 79,43 122,21" />
<polygon fill="#000000" fill-opacity="0.501961" points="-16,106 4,-14 42,52" />
<polygon fill="#ffffff" fill-opacity="0.501961" points="34,107 67,62 69,113" />
<polygon fill="#033188" fill-opacity="0.501961" points="4,92 52,124 6,160" />
<polygon fill="#ffffff" fill-opacity="0.501961" points="225,38 227,61 208,53" />
<polygon fill="#000000" fill-opacity="0.501961" points="150,-16 217,61 180,86" />
<polygon fill="#ffffff" fill-opacity="0.501961" points="31,117 23,77 54,37" />
<polygon fill="#000000" fill-opacity="0.501961" points="253,19 54,24 113,-16" />
<polygon fill="#110000" fill-opacity="0.501961" points="244,92 172,111 212,88" />
<polygon fill="#8b93ac" fill-opacity="0.501961" points="222,15 198,39 239,31" />
<polygon fill="#000000" fill-opacity="0.501961" points="264,93 223,60 271,29" />
<polygon fill="#736552" fill-opacity="0.501961" points="71,37 25,41 46,11" />
<polygon fill="#809ccf" fill-opacity="0.501961" points="51,138 34,117 101,116" />
<polygon fill="#ffffff" fill-opacity="0.501961" points="240,102 239,111 226,97" />
<polygon fill="#000000" fill-opacity="0.501961" points="57,57 77,70 90,-16" />
<polygon fill="#000000" fill-opacity="0.501961" points="271,28 102,-1 257,-16" />
<polygon fill="#000000" fill-opacity="0.501961" points="37,61 21,-16 -16,88" />
<polygon fill="#00104a" fill-opacity="0.501961" points="49,137 182,160 199,123" />
<polygon fill="#fdffff" fill-opacity="0.501961" points="227,79 222,96 222,63" />
<polygon fill="#000000" fill-opacity="0.501961" points="207,-16 106,24 -16,1" />
<polygon fill="#27251c" fill-opacity="0.501961" points="199,96 71,115 75,30" />
<polygon fill="#d8c2c1" fill-opacity="0.501961" points="98,77 105,64 105,80" />
<polygon fill="#a46883" fill-opacity="0.501961" points="242,92 222,67 241,71" />
<polygon fill="#ffffff" fill-opacity="0.501961" points="217,73 215,90 212,79" />
<polygon fill="#052877" fill-opacity="0.501961" points="253,112 151,111 252,156" />
<polygon fill="#b5a493" fill-opacity="0.501961" points="29,34 53,14 36,17" />
<polygon fill="#000000" fill-opacity="0.501961" points="-7,95 28,102 15,58" />
<polygon fill="#000000" fill-opacity="0.501961" points="256,134 271,-16 234,7" />
<polygon fill="#8d98a5" fill-opacity="0.501961" points="124,131 97,125 142,123" />
<polygon fill="#4b433d" fill-opacity="0.501961" points="170,40 151,22 150,90" />
<polygon fill="#805572" fill-opacity="0.501961" points="206,119 214,65 198,78" />
<polygon fill="#fff6d8" fill-opacity="0.501961" points="49,56 36,42 60,45" />
<polygon fill="#2d3c91" fill-opacity="0.501961" points="59,79 54,66 50,75" />
<polygon fill="#82564e" fill-opacity="0.501961" points="34,80 42,90 48,82" />
<polygon fill="#000000" fill-opacity="0.501961" points="-16,-4 90,-16 9,34" />
<polygon fill="#14030f" fill-opacity="0.501961" points="200,92 265,85 243,100" />
<polygon fill="#001951" fill-opacity="0.501961" points="122,111 166,123 123,124" />
<polygon fill="#000000" fill-opacity="0.501961" points="79,82 69,65 75,101" />
<polygon fill="#6eb4ff" fill-opacity="0.501961" points="246,136 239,137 246,129" />
<polygon fill="#000000" fill-opacity="0.501961" points="271,-8 52,-4 192,32" />
<polygon fill="#ffe8d1" fill-opacity="0.501961" points="232,49 206,45 224,60" />
<polygon fill="#ffffff" fill-opacity="0.501961" points="46,56 34,104 24,69" />
<polygon fill="#000000" fill-opacity="0.501961" points="193,68 204,108 180,110" />
<polygon fill="#63000b" fill-opacity="0.501961" points="218,69 223,88 217,97" />
<polygon fill="#9cafd2" fill-opacity="0.501961" points="76,129 34,130 33,114" />
<polygon fill="#423c33" fill-opacity="0.501961" points="103,24 78,87 79,42" />
<polygon fill="#fbfbfb" fill-opacity="0.501961" points="58,59 63,110 70,81" />
<polygon fill="#ffffee" fill-opacity="0.501961" points="243,105 233,98 230,105" />
<polygon fill="#000f49" fill-opacity="0.501961" points="23,93 9,144 40,160" />
<polygon fill="#59505c" fill-opacity="0.501961" points="225,45 238,53 236,27" />
<polygon fill="#73675a" fill-opacity="0.501961" points="41,26 64,20 60,41" />
<polygon fill="#5a6b85" fill-opacity="0.501961" points="74,130 115,130 74,117" />
<polygon fill="#28427c" fill-opacity="0.501961" points="37,160 122,160 32,128" />
<polygon fill="#000000" fill-opacity="0.501961" points="-8,77 36,62 21,-16" />
<polygon fill="#8d9fc5" fill-opacity="0.501961" points="74,119 68,86 63,137" />
<polygon fill="#6c0028" fill-opacity="0.501961" points="223,68 219,89 217,69" />
<polygon fill="#a0592b" fill-opacity="0.501961" points="49,60 50,54 42,53" />
<polygon fill="#070604" fill-opacity="0.501961" points="214,69 176,60 198,25" />
<polygon fill="#efd8c5" fill-opacity="0.501961" points="219,42 229,52 213,76" />
<polygon fill="#9e9ab5" fill-opacity="0.501961" points="198,117 210,113 209,101" />
<polygon fill="#1e1f1d" fill-opacity="0.501961" points="191,69 168,18 162,108" />
<polygon fill="#5d5e67" fill-opacity="0.501961" points="203,52 228,31 203,36" />
<polygon fill="#001a52" fill-opacity="0.501961" points="198,113 122,111 194,160" />
<polygon fill="#000000" fill-opacity="0.501961" points="-4,-16 3,89 40,53" />
<polygon fill="#0b1749" fill-opacity="0.501961" points="217,107 245,107 239,142" />
<polygon fill="#9391a6" fill-opacity="0.501961" points="235,25 226,19 207,29" />
<polygon fill="#000000" fill-opacity="0.501961" points="79,33 56,55 73,68" />
<polygon fill="#f7f8f8" fill-opacity="0.501961" points="57,61 67,74 66,63" />
<polygon fill="#000000" fill-opacity="0.501961" points="226,58 227,70 271,57" />
<polygon fill="#101315" fill-opacity="0.501961" points="110,60 167,54 101,93" />
<polygon fill="#000000" fill-opacity="0.501961" points="84,34 19,-16 125,-14" />
<polygon fill="#000000" fill-opacity="0.501961" points="240,101 257,-4 271,124" />
<polygon fill="#0e1827" fill-opacity="0.501961" points="90,126 110,103 98,77" />
<polygon fill="#ae8b96" fill-opacity="0.501961" points="154,79 154,68 149,70" />
<polygon fill="#ffffff" fill-opacity="0.501961" points="38,112 48,99 24,78" />
<polygon fill="#bdafa8" fill-opacity="0.501961" points="44,109 63,85 55,82" />
<polygon fill="#29448b" fill-opacity="0.501961" points="223,147 200,117 196,151" />
<polygon fill="#938678" fill-opacity="0.501961" points="58,16 32,25 68,26" />
<polygon fill="#6f5650" fill-opacity="0.501961" points="103,62 96,68 109,69" />
<polygon fill="#3867c1" fill-opacity="0.501961" points="25,103 28,98 32,116" />
<polygon fill="#f6e9df" fill-opacity="0.501961" points="35,63 55,96 65,88" />
<polygon fill="#617ebc" fill-opacity="0.501961" points="82,129 26,111 70,111" />
<polygon fill="#fff4dd" fill-opacity="0.501961" points="53,36 49,55 59,49" />
<polygon fill="#917d6a" fill-opacity="0.501961" points="31,40 32,25 40,45" />
<polygon fill="#733f4d" fill-opacity="0.501961" points="198,89 206,110 228,107" />
<polygon fill="#7383a4" fill-opacity="0.501961" points="37,142 15,158 68,143" />
<polygon fill="#919289" fill-opacity="0.501961" points="119,93 112,89 109,94" />
<polygon fill="#001446" fill-opacity="0.501961" points="83,145 76,119 75,149" />
<polygon fill="#000000" fill-opacity="0.501961" points="195,112 204,24 181,29" />
<polygon fill="#070000" fill-opacity="0.501961" points="197,143 151,156 128,143" />
<polygon fill="#8b6280" fill-opacity="0.501961" points="207,69 201,97 199,74" />
<polygon fill="#0d0d08" fill-opacity="0.501961" points="99,70 80,62 94,106" />
<polygon fill="#00154e" fill-opacity="0.501961" points="89,130 82,143 84,118" />
<polygon fill="#474239" fill-opacity="0.501961" points="151,23 163,51 99,23" />
<polygon fill="#393b31" fill-opacity="0.501961" points="127,84 136,109 149,90" />
<polygon fill="#ffffff" fill-opacity="0.501961" points="224,74 222,88 226,82" />
<polygon fill="#10326f" fill-opacity="0.501961" points="7,98 36,124 22,97" />
<polygon fill="#2c1a2b" fill-opacity="0.501961" points="207,100 203,89 240,97" />
<polygon fill="#000000" fill-opacity="0.501961" points="67,48 75,70 55,54" />
<polygon fill="#000000" fill-opacity="0.501961" points="15,20 -2,97 25,96" />
<polygon fill="#41392d" fill-opacity="0.501961" points="49,38 50,44 41,37" />
<polygon fill="#3f5784" fill-opacity="0.501961" points="129,119 83,109 98,122" />
<polygon fill="#fffde2" fill-opacity="0.501961" points="209,110 199,111 204,109" />
<polygon fill="#000000" fill-opacity="0.501961" points="214,58 190,62 213,68" />
<polygon fill="#a4a6ae" fill-opacity="0.501961" points="69,75 70,91 66,81" />
<polygon fill="#202017" fill-opacity="0.501961" points="188,110 176,88 99,109" />
<polygon fill="#000000" fill-opacity="0.501961" points="3,88 4,152 -16,160" />
<polygon fill="#ffffff" fill-opacity="0.501961" points="67,70 48,111 63,104" />
<polygon fill="#ffefd4" fill-opacity="0.501961" points="43,38 48,32 46,31" />
<polygon fill="#000000" fill-opacity="0.501961" points="107,12 258,21 243,-16" />
<polygon fill="#946e64" fill-opacity="0.501961" points="46,80 46,87 32,83" />
<polygon fill="#8596ae" fill-opacity="0.501961" points="137,129 123,124 123,130" />
<polygon fill="#91a4c4" fill-opacity="0.501961" points="67,129 62,112 82,129" />
<polygon fill="#fce2d3" fill-opacity="0.501961" points="215,48 226,54 226,38" />
<polygon fill="#fffffc" fill-opacity="0.501961" points="57,83 68,70 62,64" />
<polygon fill="#04205a" fill-opacity="0.501961" points="71,115 114,114 88,107" />
<polygon fill="#001b5d" fill-opacity="0.501961" points="252,112 252,129 200,119" />
<polygon fill="#030200" fill-opacity="0.501961" points="75,112 83,105 71,88" />
<polygon fill="#716456" fill-opacity="0.501961" points="43,26 67,25 61,42" />
<polygon fill="#f4fff8" fill-opacity="0.501961" points="216,71 212,80 217,92" />
<polygon fill="#e9b795" fill-opacity="0.501961" points="54,77 59,83 36,85" />
<polygon fill="#784861" fill-opacity="0.501961" points="218,92 241,79 242,89" />
<polygon fill="#4d454e" fill-opacity="0.501961" points="236,27 225,46 240,38" />
<polygon fill="#b2acb1" fill-opacity="0.501961" points="47,71 63,65 55,57" />
<polygon fill="#000000" fill-opacity="0.501961" points="240,71 271,88 241,-16" />
<polygon fill="#653f58" fill-opacity="0.501961" points="204,83 211,71 217,98" />
<polygon fill="#848a9f" fill-opacity="0.501961" points="206,29 221,20 238,33" />
<polygon fill="#ffffff" fill-opacity="0.501961" points="55,85 43,90 34,110" />
<polygon fill="#ffffff" fill-opacity="0.501961" points="26,69 44,61 44,79" />
<polygon fill="#001d54" fill-opacity="0.501961" points="128,146 71,132 128,130" />
<polygon fill="#431d28" fill-opacity="0.501961" points="233,63 231,57 220,60" />
<polygon fill="#000000" fill-opacity="0.501961" points="218,14 192,45 136,-9" />
<polygon fill="#000000" fill-opacity="0.501961" points="-3,62 34,-16 40,13" />
<polygon fill="#ffdbbc" fill-opacity="0.501961" points="53,37 49,32 45,35" />
<polygon fill="#473f32" fill-opacity="0.501961" points="94,111 78,66 81,104" />
<polygon fill="#4f4a45" fill-opacity="0.501961" points="98,42 104,25 167,45" />
<polygon fill="#fcd6b8" fill-opacity="0.501961" points="236,111 237,103 242,103" />
<polygon fill="#ffffff" fill-opacity="0.501961" points="25,70 23,79 42,78" />
<polygon fill="#ffffff" fill-opacity="0.501961" points="47,99 36,111 27,111" />
<polygon fill="#4f3b45" fill-opacity="0.501961" points="210,55 202,49 210,64" />
<polygon fill="#808da3" fill-opacity="0.501961" points="128,118 116,115 114,119" />
<polygon fill="#121518" fill-opacity="0.501961" points="119,66 131,94 104,74" />
<polygon fill="#5791ff" fill-opacity="0.501961" points="248,134 243,140 243,132" />
<polygon fill="#000000" fill-opacity="0.501961" points="271,111 238,109 258,97" />
<polygon fill="#f6d1b5" fill-opacity="0.501961" points="52,67 42,38 40,57" />
<polygon fill="#173269" fill-opacity="0.501961" points="109,111 147,126 173,110" />
<polygon fill="#37242a" fill-opacity="0.501961" points="39,88 50,85 43,85" />
<polygon fill="#4f5b7c" fill-opacity="0.501961" points="241,143 183,160 205,142" />
<polygon fill="#bbc4cc" fill-opacity="0.501961" points="36,96 38,80 32,78" />
<polygon fill="#232534" fill-opacity="0.501961" points="209,38 214,45 217,42" />
<polygon fill="#1b0900" fill-opacity="0.501961" points="118,160 69,144 126,143" />
<polygon fill="#444c8d" fill-opacity="0.501961" points="218,111 238,110 229,116" />
<polygon fill="#b49885" fill-opacity="0.501961" points="224,63 224,71 216,61" />
<polygon fill="#adb8c6" fill-opacity="0.501961" points="92,126 93,130 97,125" />
<polygon fill="#a9a3a1" fill-opacity="0.501961" points="49,100 57,92 57,84" />
<polygon fill="#0f0c09" fill-opacity="0.501961" points="75,93 68,66 77,56" />
<polygon fill="#000000" fill-opacity="0.501961" points="109,7 72,36 57,-1" />
<polygon fill="#000000" fill-opacity="0.501961" points="84,-16 75,14 -16,13" />
<polygon fill="#615448" fill-opacity="0.501961" points="38,40 33,35 50,30" />
<polygon fill="#ffffff" fill-opacity="0.501961" points="27,68 24,83 51,76" />
<polygon fill="#22221f" fill-opacity="0.501961" points="101,44 155,45 173,78" />
<polygon fill="#94606b" fill-opacity="0.501961" points="228,100 219,105 231,104" />
<polygon fill="#021028" fill-opacity="0.501961" points="244,139 235,147 271,147" />
<polygon fill="#926b54" fill-opacity="0.501961" points="44,52 51,56 44,58" />
<polygon fill="#062255" fill-opacity="0.501961" points="90,123 72,124 77,120" />
<polygon fill="#b5aaad" fill-opacity="0.501961" points="103,78 99,76 102,64" />
<polygon fill="#163784" fill-opacity="0.501961" points="38,113 42,111 41,115" />
<polygon fill="#f3f5f5" fill-opacity="0.501961" points="62,63 57,98 69,75" />
<polygon fill="#13120f" fill-opacity="0.501961" points="99,77 81,88 95,45" />
<polygon fill="#27241d" fill-opacity="0.501961" points="148,21 187,39 167,44" />
<polygon fill="#2d2922" fill-opacity="0.501961" points="73,43 103,21 137,22" />
<polygon fill="#020200" fill-opacity="0.501961" points="181,109 202,111 199,79" />
<polygon fill="#001954" fill-opacity="0.501961" points="5,123 35,140 25,99" />
<polygon fill="#000000" fill-opacity="0.501961" points="24,69 6,22 41,51" />
<polygon fill="#ded5d1" fill-opacity="0.501961" points="49,69 60,100 46,81" />
<polygon fill="#8b96ae" fill-opacity="0.501961" points="53,97 48,108 36,113" />
<polygon fill="#9a9da5" fill-opacity="0.501961" points="66,85 71,91 66,74" />
<polygon fill="#335cb2" fill-opacity="0.501961" points="77,111 70,116 60,111" />
<polygon fill="#ffe1cc" fill-opacity="0.501961" points="59,49 39,51 55,38" />
<polygon fill="#181a1c" fill-opacity="0.501961" points="147,77 101,68 155,49" />
<polygon fill="#fffff1" fill-opacity="0.501961" points="213,53 220,59 229,54" />
<polygon fill="#091d61" fill-opacity="0.501961" points="239,112 210,149 218,114" />
<polygon fill="#9b8979" fill-opacity="0.501961" points="59,16 42,14 28,30" />
<polygon fill="#02225e" fill-opacity="0.501961" points="197,143 138,122 137,142" />
<polygon fill="#ffffff" fill-opacity="0.501961" points="35,93 27,97 25,79" />
<polygon fill="#7989a2" fill-opacity="0.501961" points="105,116 98,117 103,122" />
<polygon fill="#4b453f" fill-opacity="0.501961" points="88,58 79,69 83,44" />
<polygon fill="#c3d0e1" fill-opacity="0.501961" points="44,115 54,115 52,120" />
<polygon fill="#7a87ba" fill-opacity="0.501961" points="46,65 57,77 52,79" />
<polygon fill="#183476" fill-opacity="0.501961" points="40,130 34,139 61,143" />
<polygon fill="#ba8a87" fill-opacity="0.501961" points="224,48 220,49 228,53" />
<polygon fill="#040000" fill-opacity="0.501961" points="-3,155 30,143 1,143" />
<polygon fill="#5e7cbb" fill-opacity="0.501961" points="71,132 39,129 57,137" />
<polygon fill="#2c1b2a" fill-opacity="0.501961" points="242,99 206,93 237,89" />
<polygon fill="#c7d4e7" fill-opacity="0.501961" points="64,116 64,121 68,115" />
<polygon fill="#212018" fill-opacity="0.501961" points="77,111 111,88 102,111" />
<polygon fill="#282229" fill-opacity="0.501961" points="239,36 227,44 242,46" />
<polygon fill="#d8b499" fill-opacity="0.501961" points="46,35 38,40 36,46" />
<polygon fill="#001245" fill-opacity="0.501961" points="239,113 251,132 242,126" />
<polygon fill="#000000" fill-opacity="0.501961" points="20,-16 -16,37 37,61" />
<polygon fill="#526799" fill-opacity="0.501961" points="74,131 76,156 68,160" />
<polygon fill="#14161b" fill-opacity="0.501961" points="140,72 180,111 151,108" />
<polygon fill="#000000" fill-opacity="0.501961" points="253,69 271,94 254,149" />
<polygon fill="#989da7" fill-opacity="0.501961" points="33,82 37,91 36,83" />
<polygon fill="#ffffff" fill-opacity="0.501961" points="47,109 60,91 54,110" />
<polygon fill="#687890" fill-opacity="0.501961" points="20,102 16,106 15,101" />
<polygon fill="#6e5c6a" fill-opacity="0.501961" points="157,67 152,64 153,84" />
<polygon fill="#323959" fill-opacity="0.501961" points="57,72 56,78 55,68" />
<polygon fill="#001951" fill-opacity="0.501961" points="201,142 119,141 189,113" />
<polygon fill="#203280" fill-opacity="0.501961" points="224,135 220,128 237,119" />
<polygon fill="#736974" fill-opacity="0.501961" points="217,35 238,34 231,23" />
<polygon fill="#16171a" fill-opacity="0.501961" points="181,46 154,73 171,111" />
<polygon fill="#001148" fill-opacity="0.501961" points="108,121 108,114 105,125" />
<polygon fill="#11100e" fill-opacity="0.501961" points="78,68 70,84 71,41" />
<polygon fill="#486ebd" fill-opacity="0.501961" points="199,111 206,115 219,111" />
<polygon fill="#825067" fill-opacity="0.501961" points="210,109 202,100 225,99" />
<polygon fill="#707689" fill-opacity="0.501961" points="203,40 206,30 221,30" />
<polygon fill="#edd1bc" fill-opacity="0.501961" points="213,38 216,41 218,39" />
<polygon fill="#52483d" fill-opacity="0.501961" points="43,28 37,42 46,31" />
<polygon fill="#50483b" fill-opacity="0.501961" points="56,42 66,40 70,25" />
<polygon fill="#000000" fill-opacity="0.501961" points="66,62 59,61 63,40" />
<polygon fill="#a5b5d0" fill-opacity="0.501961" points="38,130 39,121 34,127" />
<polygon fill="#000000" fill-opacity="0.501961" points="248,106 236,2 271,-4" />
<polygon fill="#7989a3" fill-opacity="0.501961" points="103,130 122,123 93,125" />
<polygon fill="#243c6c" fill-opacity="0.501961" points="102,131 93,118 99,115" />
<polygon fill="#a67b5d" fill-opacity="0.501961" points="43,54 56,67 52,56" />
<polygon fill="#daece1" fill-opacity="0.501961" points="222,68 225,86 227,71" />
<polygon fill="#835971" fill-opacity="0.501961" points="225,70 242,81 237,70" />
<polygon fill="#311b27" fill-opacity="0.501961" points="210,108 215,111 221,107" />
<polygon fill="#ffffff" fill-opacity="0.501961" points="222,90 222,77 225,83" />
<polygon fill="#30322b" fill-opacity="0.501961" points="146,85 147,111 110,88" />
<polygon fill="#000201" fill-opacity="0.501961" points="184,58 213,64 188,75" />
<polygon fill="#343036" fill-opacity="0.501961" points="209,45 212,57 204,56" />
<polygon fill="#121417" fill-opacity="0.501961" points="127,74 117,71 130,106" />
<polygon fill="#000000" fill-opacity="0.501961" points="271,108 271,81 238,111" />
<polygon fill="#0c285c" fill-opacity="0.501961" points="125,140 112,118 118,143" />
<polygon fill="#5d6164" fill-opacity="0.501961" points="98,34 102,43 108,37" />
<polygon fill="#ffefd9" fill-opacity="0.501961" points="238,108 235,101 230,102" />
<polygon fill="#908175" fill-opacity="0.501961" points="53,29 63,39 51,15" />
<polygon fill="#092662" fill-opacity="0.501961" points="71,149 71,132 65,138" />
<polygon fill="#8c96b8" fill-opacity="0.501961" points="224,20 206,30 212,23" />
<polygon fill="#fef4e8" fill-opacity="0.501961" points="37,62 42,55 53,64" />
<polygon fill="#001d58" fill-opacity="0.501961" points="8,135 35,122 4,97" />
<polygon fill="#271624" fill-opacity="0.501961" points="224,95 205,101 210,91" />
<polygon fill="#5f7db6" fill-opacity="0.501961" points="59,120 46,122 63,124" />
<polygon fill="#000000" fill-opacity="0.501961" points="67,-16 72,56 82,15" />
<polygon fill="#e9f0f3" fill-opacity="0.501961" points="51,65 38,81 49,76" />
<polygon fill="#a19183" fill-opacity="0.501961" points="38,33 40,16 49,14" />
<polygon fill="#000000" fill-opacity="0.501961" points="58,52 69,54 73,72" />
<polygon fill="#e9ccc3" fill-opacity="0.501961" points="210,45 213,47 213,52" />
<polygon fill="#f1f4f5" fill-opacity="0.501961" points="54,96 61,85 68,113" />
<polygon fill="#fff9e4" fill-opacity="0.501961" points="224,37 219,47 223,48" />
<polygon fill="#755469" fill-opacity="0.501961" points="202,87 201,98 212,112" />
<polygon fill="#808ea4" fill-opacity="0.501961" points="81,115 79,121 95,116" />
<polygon fill="#72485e" fill-opacity="0.501961" points="242,93 239,72 228,78" />
<polygon fill="#000000" fill-opacity="0.501961" points="20,-5 67,20 141,5" />
<polygon fill="#000000" fill-opacity="0.501961" points="4,155 3,94 -16,159" />
<polygon fill="#4f86ff" fill-opacity="0.501961" points="246,132 248,136 241,138" />
<polygon fill="#425e95" fill-opacity="0.501961" points="200,121 206,117 199,113" />
<polygon fill="#554f46" fill-opacity="0.501961" points="156,52 155,46 167,44" />
<polygon fill="#001751" fill-opacity="0.501961" points="5,122 7,141 38,132" />
<polygon fill="#fff1dd" fill-opacity="0.501961" points="50,82 46,95 57,84" />
<polygon fill="#0f295c" fill-opacity="0.501961" points="128,135 128,124 130,131" />
<polygon fill="#000000" fill-opacity="0.501961" points="19,68 25,97 -14,93" />
<polygon fill="#570020" fill-opacity="0.501961" points="218,72 222,70 221,76" />
<polygon fill="#91b4a9" fill-opacity="0.501961" points="222,70 224,65 225,71" />
<polygon fill="#7f98cd" fill-opacity="0.501961" points="26,96 29,108 33,107" />
<polygon fill="#776658" fill-opacity="0.501961" points="52,37 53,21 48,29" />
<polygon fill="#494137" fill-opacity="0.501961" points="59,42 60,26 57,34" />
<polygon fill="#736f6d" fill-opacity="0.501961" points="67,95 69,101 67,107" />
<polygon fill="#264070" fill-opacity="0.501961" points="15,113 2,110 23,109" />
<polygon fill="#756753" fill-opacity="0.501961" points="74,143 44,144 91,157" />
<polygon fill="#ffe3cf" fill-opacity="0.501961" points="40,47 60,45 53,55" />
<polygon fill="#d2a39b" fill-opacity="0.501961" points="211,50 218,52 219,48" />
<polygon fill="#938471" fill-opacity="0.501961" points="57,77 55,78 59,84" />
<polygon fill="#ffffff" fill-opacity="0.501961" points="66,67 57,71 68,71" />
<polygon fill="#000000" fill-opacity="0.501961" points="271,108 271,26 232,61" />
<polygon fill="#001a51" fill-opacity="0.501961" points="198,135 196,112 140,112" />
<polygon fill="#2b0a00" fill-opacity="0.501961" points="232,107 221,110 233,110" />
<polygon fill="#31241c" fill-opacity="0.501961" points="207,143 251,160 251,143" />
<polygon fill="#526ca3" fill-opacity="0.501961" points="67,123 72,124 78,120" />
<polygon fill="#9ba1b7" fill-opacity="0.501961" points="43,72 61,67 46,67" />
<polygon fill="#ffffff" fill-opacity="0.501961" points="66,92 64,111 59,81" />
<polygon fill="#364f88" fill-opacity="0.501961" points="199,140 189,160 271,152" />
<polygon fill="#775367" fill-opacity="0.501961" points="212,76 215,93 206,75" />
<polygon fill="#f8f8f5" fill-opacity="0.501961" points="31,109 30,88 40,106" />
<polygon fill="#0f0d09" fill-opacity="0.501961" points="160,16 125,15 187,36" />
<polygon fill="#000000" fill-opacity="0.501961" points="72,103 85,109 74,108" />
<polygon fill="#ffe9d9" fill-opacity="0.501961" points="225,37 217,48 225,46" />
<polygon fill="#0a2561" fill-opacity="0.501961" points="59,140 62,139 61,131" />
<polygon fill="#10337c" fill-opacity="0.501961" points="252,137 230,142 251,143" />
<polygon fill="#060600" fill-opacity="0.501961" points="135,160 78,143 188,143" />
<polygon fill="#173778" fill-opacity="0.501961" points="91,120 91,111 104,112" />
<polygon fill="#685450" fill-opacity="0.501961" points="97,69 111,63 97,63" />
<polygon fill="#7b7b77" fill-opacity="0.501961" points="114,95 113,92 121,94" />
<polygon fill="#aaaaac" fill-opacity="0.501961" points="31,105 32,110 34,102" />
<polygon fill="#0c2e73" fill-opacity="0.501961" points="247,115 252,133 252,111" />
<polygon fill="#000000" fill-opacity="0.501961" points="164,29 241,-11 233,17" />
<polygon fill="#081f5f" fill-opacity="0.501961" points="211,142 209,129 247,140" />
<polygon fill="#26437b" fill-opacity="0.501961" points="20,113 27,109 14,109" />
<polygon fill="#183364" fill-opacity="0.501961" points="121,122 121,130 123,123" />
<polygon fill="#7284a2" fill-opacity="0.501961" points="134,130 123,124 137,124" />
<polygon fill="#082662" fill-opacity="0.501961" points="88,143 108,129 134,143" />
<polygon fill="#33415f" fill-opacity="0.501961" points="89,111 82,122 88,102" />
<polygon fill="#140f23" fill-opacity="0.501961" points="198,111 201,107 204,108" />
<polygon fill="#000000" fill-opacity="0.501961" points="271,-10 225,15 252,38" />
<polygon fill="#000000" fill-opacity="0.501961" points="31,41 19,87 -8,-10" />
<polygon fill="#96897c" fill-opacity="0.501961" points="48,26 31,27 34,21" />
<polygon fill="#000000" fill-opacity="0.501961" points="204,59 194,33 196,87" />
<polygon fill="#191a1b" fill-opacity="0.501961" points="115,81 88,110 95,78" />
<polygon fill="#00154c" fill-opacity="0.501961" points="234,122 251,113 251,132" />
<polygon fill="#846281" fill-opacity="0.501961" points="204,70 199,81 206,73" />
<polygon fill="#304d8b" fill-opacity="0.501961" points="32,143 38,132 46,140" />
<polygon fill="#1c3380" fill-opacity="0.501961" points="196,136 216,134 215,125" />
<polygon fill="#ffffff" fill-opacity="0.501961" points="24,85 26,76 32,99" />
<polygon fill="#292a22" fill-opacity="0.501961" points="152,110 111,111 121,93" />
<polygon fill="#151819" fill-opacity="0.501961" points="153,45 142,83 99,89" />
<polygon fill="#5f5d67" fill-opacity="0.501961" points="213,28 207,43 215,38" />
<polygon fill="#07225b" fill-opacity="0.501961" points="181,113 135,139 138,124" />
<polygon fill="#aeadaf" fill-opacity="0.501961" points="64,106 73,109 69,99" />
<polygon fill="#1c1a14" fill-opacity="0.501961" points="75,55 79,31 105,17" />
<polygon fill="#000000" fill-opacity="0.501961" points="240,99 252,56 271,124" />
<polygon fill="#4c443c" fill-opacity="0.501961" points="77,89 88,89 88,108" />
<polygon fill="#14255f" fill-opacity="0.501961" points="209,114 208,125 204,121" />
<polygon fill="#0f0d07" fill-opacity="0.501961" points="98,90 78,85 91,83" />
<polygon fill="#637fb5" fill-opacity="0.501961" points="44,128 48,130 47,118" />
<polygon fill="#17191c" fill-opacity="0.501961" points="119,84 101,52 152,75" />
<polygon fill="#02246a" fill-opacity="0.501961" points="27,106 25,97 9,97" />
<polygon fill="#8489a0" fill-opacity="0.501961" points="204,33 230,29 214,22" />
<polygon fill="#d2b1b0" fill-opacity="0.501961" points="148,74 152,72 154,73" />
<polygon fill="#000000" fill-opacity="0.501961" points="21,64 23,76 8,95" />
<polygon fill="#52514b" fill-opacity="0.501961" points="29,36 38,27 35,37" />
<polygon fill="#9d8b7e" fill-opacity="0.501961" points="49,94 57,87 53,93" />
<polygon fill="#f8fdff" fill-opacity="0.501961" points="51,91 40,93 50,94" />
<polygon fill="#89827c" fill-opacity="0.501961" points="231,107 231,101 227,101" />
<polygon fill="#5873af" fill-opacity="0.501961" points="55,114 62,128 63,112" />
<polygon fill="#161817" fill-opacity="0.501961" points="169,73 184,60 166,43" />
</g>
</svg>