<svg xmlns="http://www.w3.org/2000/svg" version="1.1" width="1024" height="580">
<rect x="0" y="0" width="1024" height="580" fill="#151b26" />
<g transform="scale(4.000000) translate(0.5 0.5)">
<polygon fill="#1b47a5" fill-opacity="0.501961" points="271,112 127,160 -16,111" />
<polygon fill="#000000" fill-opacity="0.501961" points="-6,121 129,-5 -16,-6" />
<polygon fill="#625642" fill-opacity="0.501961" points="236,29 76,64 78,19" />
<polygon fill="#000000" fill-opacity="0.501961" points="65,3 253,-16 266,36" />
<polygon fill="#000000" fill-opacity="0.501961" points="103,79 -13,-16 36,114" />
<polygon fill="#6d809f" fill-opacity="0.501961" points="108,116 42,114 23,137" />
<polygon fill="#002982" fill-opacity="0.501961" points="254,149 166,152 249,110" />
<polygon fill="#c6aca1" fill-opacity="0.501961" points="118,61 117,83 109,80" />
<polygon fill="#001977" fill-opacity="0.501961" points="4,120 4,160 73,141" />
<polygon fill="#000000" fill-opacity="0.501961" points="227,1 270,-14 260,157" />
<polygon fill="#282316" fill-opacity="0.501961" points="232,12 248,111 71,111" />
<polygon fill="#28241d" fill-opacity="0.501961" points="140,45 71,43 74,112" />
<polygon fill="#001f69" fill-opacity="0.501961" points="-6,97 33,143 29,98" />
<polygon fill="#000000" fill-opacity="0.501961" points="-16,12 52,123 93,-16" />
<polygon fill="#b7c0c9" fill-opacity="0.501961" points="58,122 32,128 72,130" />
<polygon fill="#5395ff" fill-opacity="0.501961" points="250,138 241,137 240,128" />
<polygon fill="#051e55" fill-opacity="0.501961" points="70,129 207,160 269,109" />
<polygon fill="#625d53" fill-opacity="0.501961" points="173,21 176,47 204,23" />
<polygon fill="#826b79" fill-opacity="0.501961" points="166,85 162,63 171,67" />
<polygon fill="#5e584d" fill-opacity="0.501961" points="80,58 76,99 91,113" />
<polygon fill="#000000" fill-opacity="0.501961" points="74,113 65,-16 -16,81" />
<polygon fill="#677a99" fill-opacity="0.501961" points="130,124 127,113 95,118" />
<polygon fill="#000000" fill-opacity="0.501961" points="63,11 271,20 184,-16" />
<polygon fill="#56514a" fill-opacity="0.501961" points="99,22 179,39 71,46" />
<polygon fill="#141412" fill-opacity="0.501961" points="230,103 130,47 234,42" />
<polygon fill="#61635a" fill-opacity="0.501961" points="124,86 108,89 113,101" />
<polygon fill="#000000" fill-opacity="0.501961" points="4,26 -16,97 3,159" />
<polygon fill="#1d1d1b" fill-opacity="0.501961" points="69,44 141,76 182,45" />
<polygon fill="#000000" fill-opacity="0.501961" points="271,108 247,-6 240,110" />
<polygon fill="#504a42" fill-opacity="0.501961" points="164,67 166,37 141,22" />
<polygon fill="#433e38" fill-opacity="0.501961" points="80,76 71,19 96,33" />
<polygon fill="#102c61" fill-opacity="0.501961" points="80,124 8,99 26,122" />
<polygon fill="#00164c" fill-opacity="0.501961" points="16,130 51,160 83,131" />
<polygon fill="#2f312e" fill-opacity="0.501961" points="87,110 144,81 152,111" />
<polygon fill="#000000" fill-opacity="0.501961" points="75,110 30,110 31,-14" />
<polygon fill="#36372e" fill-opacity="0.501961" points="174,109 176,79 211,103" />
<polygon fill="#001249" fill-opacity="0.501961" points="5,114 31,112 32,160" />
<polygon fill="#19140a" fill-opacity="0.501961" points="71,24 112,10 157,20" />
<polygon fill="#5692ff" fill-opacity="0.501961" points="248,132 241,138 244,129" />
<polygon fill="#0d0e0c" fill-opacity="0.501961" points="84,64 113,81 83,88" />
<polygon fill="#363027" fill-opacity="0.501961" points="155,14 222,49 227,25" />
<polygon fill="#b5a7aa" fill-opacity="0.501961" points="117,84 110,79 116,69" />
<polygon fill="#bdc5ce" fill-opacity="0.501961" points="34,123 33,127 44,125" />
<polygon fill="#4d350e" fill-opacity="0.501961" points="128,160 74,143 138,143" />
<polygon fill="#000000" fill-opacity="0.501961" points="-2,-6 -12,116 102,-13" />
<polygon fill="#000000" fill-opacity="0.501961" points="254,71 253,149 271,96" />
<polygon fill="#7a80b1" fill-opacity="0.501961" points="98,139 103,160 132,160" />
<polygon fill="#15387b" fill-opacity="0.501961" points="6,113 4,97 29,97" />
<polygon fill="#000000" fill-opacity="0.501961" points="271,15 194,-16 97,13" />
<polygon fill="#0e2862" fill-opacity="0.501961" points="71,124 69,144 139,122" />
<polygon fill="#14130e" fill-opacity="0.501961" points="207,59 215,14 164,95" />
<polygon fill="#7b8ba5" fill-opacity="0.501961" points="132,117 124,121 117,114" />
<polygon fill="#151617" fill-opacity="0.501961" points="97,46 157,46 79,82" />
<polygon fill="#201c14" fill-opacity="0.501961" points="145,16 160,28 192,14" />
<polygon fill="#201d1b" fill-opacity="0.501961" points="70,14 71,38 99,16" />
<polygon fill="#2d1c00" fill-opacity="0.501961" points="215,143 138,143 186,160" />
<polygon fill="#586b8b" fill-opacity="0.501961" points="35,113 35,122 48,121" />
<polygon fill="#5f4b44" fill-opacity="0.501961" points="119,67 123,74 109,71" />
<polygon fill="#5d7092" fill-opacity="0.501961" points="90,123 117,114 80,116" />
<polygon fill="#001e65" fill-opacity="0.501961" points="47,117 49,110 71,112" />
<polygon fill="#121416" fill-opacity="0.501961" points="162,78 115,79 151,53" />
<polygon fill="#686a6c" fill-opacity="0.501961" points="185,31 172,31 183,45" />
<polygon fill="#bec7d1" fill-opacity="0.501961" points="58,126 70,127 66,124" />
<polygon fill="#142d5d" fill-opacity="0.501961" points="113,105 126,126 115,126" />
<polygon fill="#0f2b66" fill-opacity="0.501961" points="154,133 121,110 238,111" />
<polygon fill="#080000" fill-opacity="0.501961" points="-1,143 19,160 74,143" />
<polygon fill="#000000" fill-opacity="0.501961" points="4,154 3,44 -16,91" />
<polygon fill="#514b45" fill-opacity="0.501961" points="88,32 76,56 88,64" />
<polygon fill="#090c0f" fill-opacity="0.501961" points="226,55 223,111 204,63" />
<polygon fill="#041d55" fill-opacity="0.501961" points="254,111 251,130 204,129" />
<polygon fill="#393122" fill-opacity="0.501961" points="221,42 185,39 184,28" />
<polygon fill="#757572" fill-opacity="0.501961" points="119,94 107,95 115,90" />
<polygon fill="#2f2921" fill-opacity="0.501961" points="245,65 232,31 233,108" />
<polygon fill="#534f4a" fill-opacity="0.501961" points="86,115 80,86 89,90" />
<polygon fill="#252522" fill-opacity="0.501961" points="98,87 107,78 136,95" />
<polygon fill="#4e4942" fill-opacity="0.501961" points="154,24 165,51 109,24" />
<polygon fill="#636668" fill-opacity="0.501961" points="107,38 101,44 98,32" />
<polygon fill="#4e4843" fill-opacity="0.501961" points="197,35 166,22 203,24" />
<polygon fill="#deb1b0" fill-opacity="0.501961" points="164,71 168,73 163,73" />
<polygon fill="#0f2961" fill-opacity="0.501961" points="103,121 68,123 96,142" />
<polygon fill="#181a1a" fill-opacity="0.501961" points="167,77 188,34 226,93" />
<polygon fill="#718096" fill-opacity="0.501961" points="16,106 19,100 14,104" />
<polygon fill="#001148" fill-opacity="0.501961" points="30,122 43,120 38,123" />
<polygon fill="#121518" fill-opacity="0.501961" points="150,110 142,69 174,90" />
<polygon fill="#161311" fill-opacity="0.501961" points="77,18 77,61 67,51" />
<polygon fill="#021d57" fill-opacity="0.501961" points="151,141 179,112 148,112" />
<polygon fill="#102c66" fill-opacity="0.501961" points="107,134 90,146 108,112" />
<polygon fill="#0c317f" fill-opacity="0.501961" points="253,142 252,120 247,132" />
<polygon fill="#002260" fill-opacity="0.501961" points="57,143 7,123 5,143" />
<polygon fill="#000000" fill-opacity="0.501961" points="249,39 256,160 271,94" />
<polygon fill="#24201f" fill-opacity="0.501961" points="82,85 71,76 72,113" />
<polygon fill="#000000" fill-opacity="0.501961" points="-16,97 14,-16 66,96" />
<polygon fill="#160600" fill-opacity="0.501961" points="214,143 246,144 232,150" />
<polygon fill="#121414" fill-opacity="0.501961" points="109,111 111,91 82,83" />
<polygon fill="#12306d" fill-opacity="0.501961" points="224,143 185,132 158,143" />
<polygon fill="#2d4276" fill-opacity="0.501961" points="78,127 88,160 88,128" />
<polygon fill="#16306a" fill-opacity="0.501961" points="76,109 64,115 92,115" />
<polygon fill="#5f7190" fill-opacity="0.501961" points="67,132 55,120 59,117" />
<polygon fill="#09255b" fill-opacity="0.501961" points="106,130 100,134 98,108" />
<polygon fill="#000b49" fill-opacity="0.501961" points="49,118 55,123 63,123" />
<polygon fill="#2f2f27" fill-opacity="0.501961" points="205,111 188,85 214,89" />
<polygon fill="#3a3a31" fill-opacity="0.501961" points="146,87 131,85 136,109" />
<polygon fill="#5d96ff" fill-opacity="0.501961" points="248,134 243,130 245,137" />
<polygon fill="#99a6b9" fill-opacity="0.501961" points="67,123 57,124 68,129" />
<polygon fill="#222120" fill-opacity="0.501961" points="159,66 197,51 111,52" />
<polygon fill="#1d1812" fill-opacity="0.501961" points="213,15 214,28 180,14" />
<polygon fill="#041e56" fill-opacity="0.501961" points="240,137 209,113 245,113" />
<polygon fill="#8f9fb5" fill-opacity="0.501961" points="109,118 112,120 111,122" />
<polygon fill="#3d3934" fill-opacity="0.501961" points="215,30 229,42 211,46" />
<polygon fill="#001e58" fill-opacity="0.501961" points="66,143 55,140 54,126" />
<polygon fill="#262520" fill-opacity="0.501961" points="167,44 181,61 165,19" />
<polygon fill="#585551" fill-opacity="0.501961" points="169,31 171,43 184,42" />
<polygon fill="#15181b" fill-opacity="0.501961" points="107,110 92,43 111,61" />
<polygon fill="#000000" fill-opacity="0.501961" points="129,-16 271,38 269,-2" />
<polygon fill="#111213" fill-opacity="0.501961" points="210,107 231,107 232,40" />
<polygon fill="#000000" fill-opacity="0.501961" points="84,-16 53,16 195,8" />
<polygon fill="#151615" fill-opacity="0.501961" points="128,58 130,110 119,79" />
<polygon fill="#080a0e" fill-opacity="0.501961" points="191,93 193,106 197,82" />
<polygon fill="#7787a4" fill-opacity="0.501961" points="99,118 87,122 85,115" />
<polygon fill="#001851" fill-opacity="0.501961" points="72,143 73,130 25,132" />
<polygon fill="#001a53" fill-opacity="0.501961" points="31,119 5,140 6,96" />
<polygon fill="#1d1b16" fill-opacity="0.501961" points="240,29 214,46 244,56" />
<polygon fill="#d4dbe1" fill-opacity="0.501961" points="52,127 52,124 49,124" />
<polygon fill="#0c265f" fill-opacity="0.501961" points="93,118 85,131 96,142" />
<polygon fill="#000000" fill-opacity="0.501961" points="30,111 71,13 68,107" />
<polygon fill="#b2a2a3" fill-opacity="0.501961" points="112,74 117,80 114,84" />
<polygon fill="#373930" fill-opacity="0.501961" points="192,87 174,89 177,111" />
<polygon fill="#0a2557" fill-opacity="0.501961" points="121,114 117,109 126,115" />
<polygon fill="#08235c" fill-opacity="0.501961" points="213,120 159,140 250,143" />
<polygon fill="#6c7e99" fill-opacity="0.501961" points="61,115 61,122 55,117" />
<polygon fill="#2d2d26" fill-opacity="0.501961" points="187,40 176,58 182,69" />
<polygon fill="#111418" fill-opacity="0.501961" points="216,84 169,85 175,61" />
<polygon fill="#576788" fill-opacity="0.501961" points="86,142 77,142 96,152" />
<polygon fill="#040000" fill-opacity="0.501961" points="212,145 271,160 253,143" />
<polygon fill="#7a8aa4" fill-opacity="0.501961" points="135,118 127,116 117,120" />
<polygon fill="#072157" fill-opacity="0.501961" points="68,151 70,122 81,122" />
<polygon fill="#4f4840" fill-opacity="0.501961" points="88,91 78,86 78,107" />
<polygon fill="#8a706a" fill-opacity="0.501961" points="113,68 120,67 121,71" />
<polygon fill="#244482" fill-opacity="0.501961" points="34,112 20,108 16,112" />
<polygon fill="#0b265b" fill-opacity="0.501961" points="129,115 130,123 134,111" />
<polygon fill="#4c4d5b" fill-opacity="0.501961" points="165,72 163,64 169,66" />
<polygon fill="#00144e" fill-opacity="0.501961" points="48,122 54,123 57,113" />
<polygon fill="#001654" fill-opacity="0.501961" points="27,107 27,100 13,97" />
<polygon fill="#00144c" fill-opacity="0.501961" points="248,118 249,139 252,130" />
<polygon fill="#b1949a" fill-opacity="0.501961" points="166,71 168,78 162,72" />
<polygon fill="#16181a" fill-opacity="0.501961" points="104,58 164,91 155,56" />
<polygon fill="#001d59" fill-opacity="0.501961" points="45,109 35,113 58,117" />
<polygon fill="#8c9ab0" fill-opacity="0.501961" points="36,123 46,124 34,130" />
<polygon fill="#1d3b73" fill-opacity="0.501961" points="4,113 19,109 4,108" />
<polygon fill="#627291" fill-opacity="0.501961" points="78,115 65,118 83,119" />
<polygon fill="#180e13" fill-opacity="0.501961" points="173,76 165,77 173,68" />
<polygon fill="#1a1815" fill-opacity="0.501961" points="163,25 131,15 191,14" />
<polygon fill="#383230" fill-opacity="0.501961" points="113,81 107,83 113,86" />
<polygon fill="#233d72" fill-opacity="0.501961" points="115,117 106,110 127,110" />
<polygon fill="#18150c" fill-opacity="0.501961" points="199,34 180,51 204,65" />
<polygon fill="#16305d" fill-opacity="0.501961" points="70,114 66,121 71,122" />
<polygon fill="#001951" fill-opacity="0.501961" points="14,131 33,142 62,130" />
<polygon fill="#4f4a43" fill-opacity="0.501961" points="154,50 166,30 165,48" />
<polygon fill="#3f3b34" fill-opacity="0.501961" points="174,22 174,40 170,28" />
<polygon fill="#0d2b6a" fill-opacity="0.501961" points="33,143 57,136 74,143" />
<polygon fill="#3b4f85" fill-opacity="0.501961" points="97,148 113,158 99,129" />
<polygon fill="#050400" fill-opacity="0.501961" points="223,63 218,75 211,59" />
<polygon fill="#001349" fill-opacity="0.501961" points="71,142 64,134 40,141" />
<polygon fill="#596c8b" fill-opacity="0.501961" points="41,117 47,116 39,115" />
<polygon fill="#191b1c" fill-opacity="0.501961" points="153,44 101,46 170,110" />
<polygon fill="#203a70" fill-opacity="0.501961" points="85,115 86,111 74,118" />
<polygon fill="#181a1b" fill-opacity="0.501961" points="173,103 114,71 164,82" />
<polygon fill="#0e2961" fill-opacity="0.501961" points="121,117 125,139 119,128" />
<polygon fill="#4b4741" fill-opacity="0.501961" points="182,32 204,31 204,24" />
<polygon fill="#2b2a22" fill-opacity="0.501961" points="145,111 113,111 109,94" />
<polygon fill="#0c295b" fill-opacity="0.501961" points="38,122 41,124 40,115" />
<polygon fill="#44403a" fill-opacity="0.501961" points="101,32 81,53 77,28" />
<polygon fill="#16191c" fill-opacity="0.501961" points="112,72 96,110 95,57" />
<polygon fill="#0f2961" fill-opacity="0.501961" points="110,122 165,124 105,142" />
<polygon fill="#0d2b64" fill-opacity="0.501961" points="48,112 75,110 59,116" />
<polygon fill="#4e4840" fill-opacity="0.501961" points="83,86 82,71 78,73" />
<polygon fill="#0d0c05" fill-opacity="0.501961" points="83,87 84,64 95,88" />
<polygon fill="#132c62" fill-opacity="0.501961" points="211,140 169,114 209,113" />
<polygon fill="#334a79" fill-opacity="0.501961" points="86,108 81,120 90,111" />
<polygon fill="#1f1d1a" fill-opacity="0.501961" points="75,27 76,14 116,16" />
<polygon fill="#000000" fill-opacity="0.501961" points="3,83 3,160 -16,116" />
<polygon fill="#14171b" fill-opacity="0.501961" points="133,85 166,67 116,78" />
<polygon fill="#5e7191" fill-opacity="0.501961" points="45,122 35,116 39,115" />
<polygon fill="#0f2961" fill-opacity="0.501961" points="92,117 97,142 83,141" />
<polygon fill="#080700" fill-opacity="0.501961" points="72,143 17,160 18,143" />
<polygon fill="#12367c" fill-opacity="0.501961" points="30,112 29,98 27,107" />
<polygon fill="#00124d" fill-opacity="0.501961" points="29,101 28,108 15,109" />
<polygon fill="#000000" fill-opacity="0.501961" points="30,49 50,109 32,110" />
<polygon fill="#130f0b" fill-opacity="0.501961" points="221,15 207,35 204,18" />
<polygon fill="#041e57" fill-opacity="0.501961" points="245,127 209,117 233,142" />
<polygon fill="#7f8286" fill-opacity="0.501961" points="175,36 179,38 175,41" />
<polygon fill="#5f7395" fill-opacity="0.501961" points="118,117 120,120 119,114" />
<polygon fill="#777975" fill-opacity="0.501961" points="116,93 111,92 110,88" />
<polygon fill="#5b6f8e" fill-opacity="0.501961" points="55,115 57,121 72,115" />
<polygon fill="#0a0b0e" fill-opacity="0.501961" points="212,45 227,53 228,46" />
<polygon fill="#474645" fill-opacity="0.501961" points="179,31 176,42 183,45" />
<polygon fill="#26231c" fill-opacity="0.501961" points="157,22 135,15 115,23" />
<polygon fill="#0b2353" fill-opacity="0.501961" points="66,124 64,116 58,110" />
<polygon fill="#000000" fill-opacity="0.501961" points="255,135 244,-16 271,56" />
<polygon fill="#3f557c" fill-opacity="0.501961" points="39,130 40,117 44,122" />
<polygon fill="#000000" fill-opacity="0.501961" points="41,109 65,111 70,79" />
<polygon fill="#7a7a78" fill-opacity="0.501961" points="118,94 118,90 114,94" />
<polygon fill="#3e3e32" fill-opacity="0.501961" points="198,104 203,111 203,101" />
<polygon fill="#211d1b" fill-opacity="0.501961" points="71,71 71,26 79,53" />
<polygon fill="#16110e" fill-opacity="0.501961" points="76,110 72,102 76,88" />
<polygon fill="#1f4083" fill-opacity="0.501961" points="172,111 182,115 193,111" />
<polygon fill="#15171a" fill-opacity="0.501961" points="147,79 172,109 147,109" />
<polygon fill="#252525" fill-opacity="0.501961" points="127,56 96,55 96,45" />
<polygon fill="#27231d" fill-opacity="0.501961" points="241,111 232,109 242,77" />
<polygon fill="#112b61" fill-opacity="0.501961" points="216,113 169,112 183,136" />
<polygon fill="#2e4b83" fill-opacity="0.501961" points="91,110 99,111 92,112" />
<polygon fill="#14191c" fill-opacity="0.501961" points="141,143 108,143 128,160" />
<polygon fill="#001851" fill-opacity="0.501961" points="43,141 21,117 6,141" />
<polygon fill="#262623" fill-opacity="0.501961" points="161,106 171,104 164,81" />
<polygon fill="#0c0e0f" fill-opacity="0.501961" points="232,94 211,109 230,110" />
<polygon fill="#463a2e" fill-opacity="0.501961" points="116,143 99,150 78,143" />
<polygon fill="#112f6e" fill-opacity="0.501961" points="11,143 34,143 29,138" />
<polygon fill="#34322d" fill-opacity="0.501961" points="90,47 92,22 84,20" />
<polygon fill="#143471" fill-opacity="0.501961" points="127,142 139,137 151,143" />
<polygon fill="#07225a" fill-opacity="0.501961" points="175,124 109,140 147,142" />
<polygon fill="#16181b" fill-opacity="0.501961" points="210,63 195,71 208,96" />
<polygon fill="#393021" fill-opacity="0.501961" points="209,37 185,41 185,32" />
<polygon fill="#314672" fill-opacity="0.501961" points="212,142 191,148 169,142" />
<polygon fill="#12120c" fill-opacity="0.501961" points="255,143 210,160 161,143" />
<polygon fill="#001951" fill-opacity="0.501961" points="46,142 5,120 11,141" />
<polygon fill="#3a517a" fill-opacity="0.501961" points="61,122 64,128 62,128" />
<polygon fill="#56698a" fill-opacity="0.501961" points="33,114 32,120 38,116" />
<polygon fill="#294377" fill-opacity="0.501961" points="146,115 126,111 141,110" />
<polygon fill="#000000" fill-opacity="0.501961" points="70,91 4,97 22,-16" />
<polygon fill="#272623" fill-opacity="0.501961" points="149,45 158,68 167,61" />
<polygon fill="#4d4842" fill-opacity="0.501961" points="77,53 87,63 83,34" />
<polygon fill="#001a52" fill-opacity="0.501961" points="9,124 43,122 8,113" />
<polygon fill="#001751" fill-opacity="0.501961" points="34,118 31,112 13,114" />
<polygon fill="#111313" fill-opacity="0.501961" points="169,72 169,88 193,58" />
<polygon fill="#00124b" fill-opacity="0.501961" points="6,109 10,100 15,108" />
<polygon fill="#181b20" fill-opacity="0.501961" points="208,64 226,80 173,64" />
<polygon fill="#a9b5c5" fill-opacity="0.501961" points="35,117 35,115 36,115" />
<polygon fill="#1a1c1f" fill-opacity="0.501961" points="186,72 167,81 197,89" />
<polygon fill="#062057" fill-opacity="0.501961" points="64,121 79,124 76,128" />
<polygon fill="#20376d" fill-opacity="0.501961" points="76,127 90,122 86,142" />
<polygon fill="#94a0b7" fill-opacity="0.501961" points="122,121 123,117 126,118" />
<polygon fill="#0e1012" fill-opacity="0.501961" points="168,44 166,62 175,64" />
<polygon fill="#c2c2d3" fill-opacity="0.501961" points="115,74 115,78 109,78" />
<polygon fill="#1a1a19" fill-opacity="0.501961" points="98,86 113,74 86,63" />
<polygon fill="#34332c" fill-opacity="0.501961" points="118,81 126,92 121,99" />
<polygon fill="#7685a2" fill-opacity="0.501961" points="69,121 72,115 77,117" />
<polygon fill="#021e56" fill-opacity="0.501961" points="121,115 115,112 132,112" />
<polygon fill="#3a3631" fill-opacity="0.501961" points="213,24 226,43 211,44" />
<polygon fill="#818182" fill-opacity="0.501961" points="175,30 177,37 178,35" />
<polygon fill="#777a9e" fill-opacity="0.501961" points="99,142 118,150 109,158" />
<polygon fill="#95a1b9" fill-opacity="0.501961" points="85,117 82,121 90,118" />
<polygon fill="#031f57" fill-opacity="0.501961" points="86,122 103,128 116,123" />
<polygon fill="#47433d" fill-opacity="0.501961" points="171,31 172,24 193,31" />
<polygon fill="#151819" fill-opacity="0.501961" points="116,83 126,84 105,89" />
<polygon fill="#7a8aa6" fill-opacity="0.501961" points="98,115 99,122 93,117" />
<polygon fill="#001953" fill-opacity="0.501961" points="39,112 11,113 20,119" />
<polygon fill="#0b275f" fill-opacity="0.501961" points="99,127 100,113 92,136" />
<polygon fill="#122b61" fill-opacity="0.501961" points="145,117 95,134 148,135" />
<polygon fill="#4a453f" fill-opacity="0.501961" points="165,44 147,22 104,44" />
<polygon fill="#1b1c18" fill-opacity="0.501961" points="92,111 101,109 91,103" />
<polygon fill="#32342e" fill-opacity="0.501961" points="192,84 174,86 175,102" />
<polygon fill="#5488ff" fill-opacity="0.501961" points="246,137 247,133 242,135" />
<polygon fill="#0a2b68" fill-opacity="0.501961" points="4,101 5,132 10,120" />
<polygon fill="#050402" fill-opacity="0.501961" points="243,42 245,107 271,118" />
<polygon fill="#143476" fill-opacity="0.501961" points="232,139 221,143 246,143" />
<polygon fill="#061f56" fill-opacity="0.501961" points="239,141 246,112 184,142" />
<polygon fill="#97a4b7" fill-opacity="0.501961" points="68,125 51,129 55,124" />
<polygon fill="#0d0c0a" fill-opacity="0.501961" points="245,40 235,14 216,14" />
<polygon fill="#0f1009" fill-opacity="0.501961" points="187,44 213,49 210,40" />
<polygon fill="#b7c1ce" fill-opacity="0.501961" points="47,128 51,126 53,127" />
<polygon fill="#001853" fill-opacity="0.501961" points="50,111 46,119 57,116" />
<polygon fill="#133272" fill-opacity="0.501961" points="240,110 252,112 253,117" />
<polygon fill="#74526d" fill-opacity="0.501961" points="166,75 168,80 163,79" />
<polygon fill="#00174f" fill-opacity="0.501961" points="243,113 252,120 250,135" />
<polygon fill="#1e3966" fill-opacity="0.501961" points="41,115 28,126 40,121" />
<polygon fill="#aab5c4" fill-opacity="0.501961" points="39,130 35,128 35,126" />
<polygon fill="#333430" fill-opacity="0.501961" points="130,103 147,87 129,86" />
<polygon fill="#1d1918" fill-opacity="0.501961" points="71,15 91,18 75,33" />
<polygon fill="#08245e" fill-opacity="0.501961" points="79,115 65,114 72,111" />
<polygon fill="#16181b" fill-opacity="0.501961" points="164,76 136,86 153,62" />
<polygon fill="#062058" fill-opacity="0.501961" points="207,112 250,112 236,140" />
<polygon fill="#242423" fill-opacity="0.501961" points="135,58 108,54 151,48" />
<polygon fill="#2f2c26" fill-opacity="0.501961" points="221,25 225,43 230,38" />
<polygon fill="#112d64" fill-opacity="0.501961" points="103,139 118,129 116,116" />
<polygon fill="#00164f" fill-opacity="0.501961" points="5,115 18,116 7,127" />
<polygon fill="#183d7d" fill-opacity="0.501961" points="8,142 5,143 4,131" />
<polygon fill="#001a53" fill-opacity="0.501961" points="43,139 5,115 4,140" />
<polygon fill="#8190aa" fill-opacity="0.501961" points="103,115 103,120 101,121" />
<polygon fill="#001953" fill-opacity="0.501961" points="251,142 226,134 213,142" />
<polygon fill="#000000" fill-opacity="0.501961" points="-11,14 202,14 97,-16" />
<polygon fill="#4b4648" fill-opacity="0.501961" points="111,80 113,84 108,84" />
<polygon fill="#2e2f28" fill-opacity="0.501961" points="198,93 202,86 210,111" />
<polygon fill="#181818" fill-opacity="0.501961" points="108,44 93,46 90,59" />
<polygon fill="#16181c" fill-opacity="0.501961" points="105,103 112,56 94,64" />
<polygon fill="#09235b" fill-opacity="0.501961" points="106,124 111,141 111,122" />
<polygon fill="#2e2f2b" fill-opacity="0.501961" points="176,62 181,64 184,49" />
<polygon fill="#10295f" fill-opacity="0.501961" points="71,148 71,122 83,123" />
<polygon fill="#212224" fill-opacity="0.501961" points="180,32 177,33 180,34" />
<polygon fill="#30352e" fill-opacity="0.501961" points="110,93 111,88 105,94" />
<polygon fill="#211c18" fill-opacity="0.501961" points="71,104 75,111 85,106" />
<polygon fill="#31322e" fill-opacity="0.501961" points="205,99 209,107 213,87" />
<polygon fill="#05205b" fill-opacity="0.501961" points="101,120 110,127 102,133" />
<polygon fill="#474635" fill-opacity="0.501961" points="136,108 136,101 141,105" />
<polygon fill="#021e53" fill-opacity="0.501961" points="66,123 61,120 69,122" />
<polygon fill="#17160e" fill-opacity="0.501961" points="204,33 197,33 198,39" />
<polygon fill="#b6bfcd" fill-opacity="0.501961" points="63,129 68,125 65,124" />
<polygon fill="#1e1b1a" fill-opacity="0.501961" points="157,27 192,18 147,15" />
<polygon fill="#71716d" fill-opacity="0.501961" points="182,28 183,37 179,28" />
<polygon fill="#1e1c13" fill-opacity="0.501961" points="117,110 127,109 110,106" />
<polygon fill="#193365" fill-opacity="0.501961" points="126,121 137,115 131,114" />
<polygon fill="#2a477d" fill-opacity="0.501961" points="103,110 98,114 106,111" />
<polygon fill="#46423b" fill-opacity="0.501961" points="171,28 190,26 183,31" />
<polygon fill="#4c4740" fill-opacity="0.501961" points="142,43 89,26 154,24" />
<polygon fill="#1b1916" fill-opacity="0.501961" points="241,51 237,30 221,22" />
<polygon fill="#27251f" fill-opacity="0.501961" points="165,25 170,25 169,43" />
<polygon fill="#18191b" fill-opacity="0.501961" points="122,76 158,90 154,45" />
<polygon fill="#0a245c" fill-opacity="0.501961" points="166,123 100,142 199,141" />
<polygon fill="#2d2d26" fill-opacity="0.501961" points="178,108 187,93 191,111" />
<polygon fill="#4c6085" fill-opacity="0.501961" points="59,131 63,123 63,127" />
<polygon fill="#00174f" fill-opacity="0.501961" points="46,120 48,114 60,112" />
<polygon fill="#7282a0" fill-opacity="0.501961" points="61,116 56,117 57,121" />
<polygon fill="#453f36" fill-opacity="0.501961" points="169,45 170,40 184,44" />
<polygon fill="#161510" fill-opacity="0.501961" points="104,69 87,69 77,61" />
<polygon fill="#0f285e" fill-opacity="0.501961" points="243,113 233,113 232,136" />
<polygon fill="#1f1d16" fill-opacity="0.501961" points="200,62 217,45 204,47" />
<polygon fill="#203e7a" fill-opacity="0.501961" points="194,119 210,111 194,111" />
<polygon fill="#191a1b" fill-opacity="0.501961" points="186,46 170,64 169,45" />
<polygon fill="#1e3466" fill-opacity="0.501961" points="71,110 77,111 78,117" />
<polygon fill="#102a60" fill-opacity="0.501961" points="173,137 209,112 177,112" />
<polygon fill="#14171a" fill-opacity="0.501961" points="231,100 208,70 219,108" />
<polygon fill="#001a52" fill-opacity="0.501961" points="32,130 31,117 4,131" />
<polygon fill="#000000" fill-opacity="0.501961" points="67,-7 -16,-3 71,59" />
<polygon fill="#102b5f" fill-opacity="0.501961" points="87,125 92,124 80,119" />
<polygon fill="#2f2c27" fill-opacity="0.501961" points="232,56 233,102 239,78" />
<polygon fill="#080907" fill-opacity="0.501961" points="82,87 88,80 86,67" />
<polygon fill="#06235d" fill-opacity="0.501961" points="49,115 38,110 28,113" />
<polygon fill="#131518" fill-opacity="0.501961" points="128,99 123,85 129,80" />
<polygon fill="#120e0a" fill-opacity="0.501961" points="214,24 203,35 215,13" />
<polygon fill="#49453f" fill-opacity="0.501961" points="184,25 195,35 169,26" />
<polygon fill="#4a453e" fill-opacity="0.501961" points="164,30 164,43 127,42" />
<polygon fill="#44434c" fill-opacity="0.501961" points="162,69 169,70 170,64" />
<polygon fill="#1b3c7e" fill-opacity="0.501961" points="153,139 160,143 141,143" />
<polygon fill="#062159" fill-opacity="0.501961" points="160,141 150,132 134,142" />
<polygon fill="#2d2d29" fill-opacity="0.501961" points="110,95 117,111 124,95" />
<polygon fill="#191b1b" fill-opacity="0.501961" points="174,71 172,100 158,99" />
<polygon fill="#201c19" fill-opacity="0.501961" points="77,88 77,61 71,72" />
<polygon fill="#010201" fill-opacity="0.501961" points="52,111 30,111 37,92" />
<polygon fill="#47453e" fill-opacity="0.501961" points="184,45 183,41 186,36" />
<polygon fill="#050605" fill-opacity="0.501961" points="204,80 189,82 196,77" />
<polygon fill="#4e4842" fill-opacity="0.501961" points="165,50 159,51 158,42" />
</g>
</svg>