<svg xmlns="http://www.w3.org/2000/svg" version="1.1" width="1024" height="580">
<rect x="0" y="0" width="1024" height="580" fill="#4d0b0b" />
<g transform="scale(4.000000) translate(0.5 0.5)">
<polygon fill="#ff0c0a" fill-opacity="0.501961" points="153,160 71,23 199,12" />
<polygon fill="#ff1f1d" fill-opacity="0.501961" points="104,6 215,58 94,127" />
<polygon fill="#000000" fill-opacity="0.501961" points="0,73 -13,146 245,150" />
<polygon fill="#000808" fill-opacity="0.501961" points="161,155 271,143 249,-16" />
<polygon fill="#000d0d" fill-opacity="0.501961" points="132,-16 -8,-16 -11,132" />
<polygon fill="#6e7f7f" fill-opacity="0.501961" points="10,79 122,71 33,46" />
<polygon fill="#ff0d0c" fill-opacity="0.501961" points="124,145 87,89 133,3" />
<polygon fill="#938f8d" fill-opacity="0.501961" points="237,56 177,93 176,52" />
<polygon fill="#ff0000" fill-opacity="0.501961" points="198,49 155,5 65,33" />
<polygon fill="#000000" fill-opacity="0.501961" points="271,88 152,-13 263,-6" />
<polygon fill="#ff0e0d" fill-opacity="0.501961" points="188,47 175,114 99,102" />
<polygon fill="#320000" fill-opacity="0.501961" points="166,78 127,65 134,43" />
<polygon fill="#000000" fill-opacity="0.501961" points="-16,3 114,-16 36,57" />
<polygon fill="#000000" fill-opacity="0.501961" points="110,109 112,160 -16,101" />
<polygon fill="#000000" fill-opacity="0.501961" points="271,146 252,61 158,147" />
<polygon fill="#ff0000" fill-opacity="0.501961" points="150,114 144,155 161,160" />
<polygon fill="#002625" fill-opacity="0.501961" points="3,75 106,74 69,102" />
<polygon fill="#ff0000" fill-opacity="0.501961" points="174,58 69,33 195,18" />
<polygon fill="#000000" fill-opacity="0.501961" points="271,-14 134,2 258,35" />
<polygon fill="#000000" fill-opacity="0.501961" points="15,55 99,54 53,11" />
<polygon fill="#748b8b" fill-opacity="0.501961" points="229,53 210,73 246,74" />
<polygon fill="#000000" fill-opacity="0.501961" points="182,75 271,108 176,160" />
<polygon fill="#ffbdba" fill-opacity="0.501961" points="106,50 99,59 122,61" />
<polygon fill="#acc0bf" fill-opacity="0.501961" points="57,55 90,68 88,57" />
<polygon fill="#c9cdcd" fill-opacity="0.501961" points="29,64 27,55 49,56" />
<polygon fill="#ff0000" fill-opacity="0.501961" points="24,103 32,94 20,89" />
<polygon fill="#000000" fill-opacity="0.501961" points="138,152 -16,160 -16,82" />
<polygon fill="#ff1615" fill-opacity="0.501961" points="116,66 179,100 81,98" />
<polygon fill="#f7312f" fill-opacity="0.501961" points="177,132 177,31 158,65" />
<polygon fill="#ff0000" fill-opacity="0.501961" points="124,135 112,131 123,90" />
<polygon fill="#223433" fill-opacity="0.501961" points="193,58 194,89 240,89" />
<polygon fill="#000000" fill-opacity="0.501961" points="162,160 197,160 163,110" />
<polygon fill="#101a1a" fill-opacity="0.501961" points="44,73 80,60 29,61" />
<polygon fill="#ff0000" fill-opacity="0.501961" points="194,28 141,6 134,52" />
<polygon fill="#000000" fill-opacity="0.501961" points="148,134 147,102 139,131" />
<polygon fill="#000000" fill-opacity="0.501961" points="255,60 186,40 256,-16" />
<polygon fill="#000000" fill-opacity="0.501961" points="120,117 134,107 140,160" />
<polygon fill="#060000" fill-opacity="0.501961" points="156,59 146,44 156,74" />
<polygon fill="#afc7c7" fill-opacity="0.501961" points="11,54 21,49 16,43" />
<polygon fill="#ff0000" fill-opacity="0.501961" points="93,67 103,65 98,32" />
<polygon fill="#002624" fill-opacity="0.501961" points="176,76 168,78 167,89" />
<polygon fill="#8ad3d3" fill-opacity="0.501961" points="209,51 184,57 212,59" />
<polygon fill="#000000" fill-opacity="0.501961" points="217,54 200,49 182,54" />
<polygon fill="#ff0000" fill-opacity="0.501961" points="153,31 92,5 147,52" />
<polygon fill="#000000" fill-opacity="0.501961" points="-14,59 91,8 3,-16" />
<polygon fill="#ff0907" fill-opacity="0.501961" points="140,60 141,128 125,87" />
<polygon fill="#eef2f2" fill-opacity="0.501961" points="42,60 47,46 49,59" />
<polygon fill="#ff8883" fill-opacity="0.501961" points="163,42 188,71 177,47" />
<polygon fill="#997e7c" fill-opacity="0.501961" points="54,82 69,88 35,87" />
<polygon fill="#faffff" fill-opacity="0.501961" points="78,67 75,74 81,77" />
<polygon fill="#6b0000" fill-opacity="0.501961" points="206,35 206,68 200,46" />
<polygon fill="#ffcbc7" fill-opacity="0.501961" points="169,75 166,68 183,71" />
<polygon fill="#ff0000" fill-opacity="0.501961" points="112,124 120,83 127,143" />
<polygon fill="#000000" fill-opacity="0.501961" points="118,-16 128,10 111,15" />
<polygon fill="#000000" fill-opacity="0.501961" points="96,148 82,88 33,91" />
<polygon fill="#000000" fill-opacity="0.501961" points="61,15 106,13 99,25" />
<polygon fill="#ff0000" fill-opacity="0.501961" points="156,140 145,160 148,115" />
<polygon fill="#000000" fill-opacity="0.501961" points="259,0 112,-16 167,16" />
<polygon fill="#ff3e3b" fill-opacity="0.501961" points="108,53 151,89 103,87" />
<polygon fill="#090000" fill-opacity="0.501961" points="87,70 97,86 93,52" />
<polygon fill="#000000" fill-opacity="0.501961" points="49,55 37,14 97,52" />
<polygon fill="#000000" fill-opacity="0.501961" points="101,160 -16,126 113,110" />
<polygon fill="#000000" fill-opacity="0.501961" points="229,64 235,80 237,56" />
<polygon fill="#e6fefe" fill-opacity="0.501961" points="57,69 71,74 53,74" />
<polygon fill="#ff0000" fill-opacity="0.501961" points="194,52 210,37 190,47" />
<polygon fill="#ff0000" fill-opacity="0.501961" points="189,17 197,39 172,12" />
<polygon fill="#ff0302" fill-opacity="0.501961" points="98,121 92,86 104,86" />
<polygon fill="#000000" fill-opacity="0.501961" points="215,76 215,53 211,64" />
<polygon fill="#ff0000" fill-opacity="0.501961" points="35,129 39,125 43,130" />
<polygon fill="#ffffff" fill-opacity="0.501961" points="197,63 198,72 202,74" />
<polygon fill="#fcffff" fill-opacity="0.501961" points="217,54 220,66 216,66" />
<polygon fill="#ff0000" fill-opacity="0.501961" points="127,54 112,8 87,44" />
<polygon fill="#000000" fill-opacity="0.501961" points="136,67 127,63 133,43" />
<polygon fill="#ffffff" fill-opacity="0.501961" points="212,59 209,48 206,59" />
<polygon fill="#ffffff" fill-opacity="0.501961" points="241,66 238,74 238,61" />
<polygon fill="#070b0b" fill-opacity="0.501961" points="61,76 62,49 50,36" />
<polygon fill="#cbcbcb" fill-opacity="0.501961" points="57,49 53,50 56,62" />
<polygon fill="#f68883" fill-opacity="0.501961" points="88,89 88,83 103,86" />
<polygon fill="#000000" fill-opacity="0.501961" points="223,74 227,58 218,69" />
<polygon fill="#ffffff" fill-opacity="0.501961" points="232,54 231,60 227,59" />
<polygon fill="#000000" fill-opacity="0.501961" points="14,-13 10,159 -16,89" />
<polygon fill="#ffffff" fill-opacity="0.501961" points="64,64 62,57 67,55" />
<polygon fill="#ff0000" fill-opacity="0.501961" points="22,92 34,89 25,100" />
<polygon fill="#ff0000" fill-opacity="0.501961" points="149,89 179,88 149,128" />
<polygon fill="#000000" fill-opacity="0.501961" points="155,111 159,131 152,132" />
<polygon fill="#ff0000" fill-opacity="0.501961" points="143,14 109,63 109,21" />
<polygon fill="#7f8c8d" fill-opacity="0.501961" points="12,71 13,53 19,79" />
<polygon fill="#010000" fill-opacity="0.501961" points="126,-16 158,-16 136,15" />
<polygon fill="#000000" fill-opacity="0.501961" points="41,55 39,71 47,69" />
<polygon fill="#ffffff" fill-opacity="0.501961" points="191,64 187,66 187,58" />
<polygon fill="#ffffff" fill-opacity="0.501961" points="224,73 230,71 228,67" />
<polygon fill="#000000" fill-opacity="0.501961" points="196,59 198,83 191,78" />
<polygon fill="#8a8e8e" fill-opacity="0.501961" points="207,84 218,89 226,84" />
<polygon fill="#fdffff" fill-opacity="0.501961" points="38,75 30,71 40,72" />
<polygon fill="#dc7d78" fill-opacity="0.501961" points="176,90 163,85 189,84" />
<polygon fill="#000000" fill-opacity="0.501961" points="223,58 175,-3 264,-5" />
<polygon fill="#5e0000" fill-opacity="0.501961" points="104,66 86,66 106,77" />
<polygon fill="#000000" fill-opacity="0.501961" points="141,45 142,65 147,56" />
<polygon fill="#000000" fill-opacity="0.501961" points="-16,145 18,160 23,68" />
<polygon fill="#ffe4e0" fill-opacity="0.501961" points="107,50 105,68 103,57" />
<polygon fill="#000000" fill-opacity="0.501961" points="265,25 207,139 256,160" />
<polygon fill="#000000" fill-opacity="0.501961" points="182,58 186,50 190,52" />
<polygon fill="#ff0000" fill-opacity="0.501961" points="167,11 108,56 100,27" />
<polygon fill="#e20000" fill-opacity="0.501961" points="161,89 177,88 177,130" />
<polygon fill="#000000" fill-opacity="0.501961" points="173,106 163,136 172,160" />
<polygon fill="#ff0000" fill-opacity="0.501961" points="129,3 137,16 123,44" />
<polygon fill="#ff0000" fill-opacity="0.501961" points="134,107 139,132 142,99" />
<polygon fill="#ff0000" fill-opacity="0.501961" points="149,100 165,49 163,106" />
<polygon fill="#000000" fill-opacity="0.501961" points="237,35 229,24 210,63" />
<polygon fill="#000000" fill-opacity="0.501961" points="261,59 252,-14 232,65" />
<polygon fill="#000b0a" fill-opacity="0.501961" points="209,47 204,62 202,43" />
<polygon fill="#000000" fill-opacity="0.501961" points="181,90 238,88 219,160" />
<polygon fill="#f60000" fill-opacity="0.501961" points="152,81 121,62 123,84" />
<polygon fill="#000000" fill-opacity="0.501961" points="130,14 116,-16 112,13" />
<polygon fill="#000000" fill-opacity="0.501961" points="34,38 28,52 31,67" />
<polygon fill="#ff0000" fill-opacity="0.501961" points="92,91 113,111 171,89" />
<polygon fill="#000000" fill-opacity="0.501961" points="163,160 164,109 190,160" />
<polygon fill="#370000" fill-opacity="0.501961" points="196,49 195,66 191,48" />
<polygon fill="#96817e" fill-opacity="0.501961" points="200,84 190,89 175,84" />
<polygon fill="#ff0000" fill-opacity="0.501961" points="136,5 137,-10 140,-2" />
<polygon fill="#000000" fill-opacity="0.501961" points="80,39 86,40 81,62" />
<polygon fill="#120000" fill-opacity="0.501961" points="161,70 143,75 143,70" />
<polygon fill="#ff0000" fill-opacity="0.501961" points="135,63 135,42 148,30" />
<polygon fill="#fb0000" fill-opacity="0.501961" points="143,70 147,74 148,57" />
<polygon fill="#fe716e" fill-opacity="0.501961" points="120,80 118,54 110,69" />
<polygon fill="#ff0000" fill-opacity="0.501961" points="103,42 99,78 94,63" />
<polygon fill="#f9f8f8" fill-opacity="0.501961" points="35,64 32,54 38,57" />
<polygon fill="#778383" fill-opacity="0.501961" points="63,84 65,89 82,84" />
<polygon fill="#000000" fill-opacity="0.501961" points="52,82 61,85 49,67" />
<polygon fill="#d5d8d8" fill-opacity="0.501961" points="55,60 54,79 59,78" />
<polygon fill="#ff0000" fill-opacity="0.501961" points="76,26 72,21 86,25" />
<polygon fill="#040000" fill-opacity="0.501961" points="200,62 203,85 213,80" />
<polygon fill="#0a1110" fill-opacity="0.501961" points="38,75 91,75 69,84" />
<polygon fill="#ff0000" fill-opacity="0.501961" points="144,11 155,52 196,26" />
<polygon fill="#040000" fill-opacity="0.501961" points="136,160 150,159 141,119" />
<polygon fill="#ff0000" fill-opacity="0.501961" points="114,45 101,30 65,31" />
<polygon fill="#000000" fill-opacity="0.501961" points="34,88 15,144 49,94" />
<polygon fill="#000000" fill-opacity="0.501961" points="17,48 22,63 15,69" />
<polygon fill="#ff0000" fill-opacity="0.501961" points="153,102 161,131 161,98" />
<polygon fill="#ffffff" fill-opacity="0.501961" points="204,57 195,56 199,54" />
<polygon fill="#3b4342" fill-opacity="0.501961" points="249,72 232,78 255,78" />
<polygon fill="#feffff" fill-opacity="0.501961" points="27,55 29,59 24,60" />
<polygon fill="#000000" fill-opacity="0.501961" points="7,14 -16,45 89,27" />
<polygon fill="#d70000" fill-opacity="0.501961" points="139,129 139,146 135,135" />
<polygon fill="#d5e0e0" fill-opacity="0.501961" points="197,60 197,82 201,72" />
<polygon fill="#080c0c" fill-opacity="0.501961" points="25,70 34,72 26,57" />
<polygon fill="#ac0000" fill-opacity="0.501961" points="195,120 191,107 184,103" />
<polygon fill="#050000" fill-opacity="0.501961" points="68,34 83,37 70,59" />
<polygon fill="#000000" fill-opacity="0.501961" points="65,11 51,60 42,24" />
<polygon fill="#000000" fill-opacity="0.501961" points="168,18 203,-16 149,3" />
<polygon fill="#ff0000" fill-opacity="0.501961" points="175,52 168,67 175,75" />
<polygon fill="#ffffff" fill-opacity="0.501961" points="224,54 230,56 228,59" />
<polygon fill="#d50000" fill-opacity="0.501961" points="70,105 65,100 68,109" />
<polygon fill="#ff0000" fill-opacity="0.501961" points="114,96 82,97 88,88" />
<polygon fill="#fd0000" fill-opacity="0.501961" points="159,19 186,62 178,17" />
<polygon fill="#000000" fill-opacity="0.501961" points="126,137 136,158 136,123" />
<polygon fill="#fe0000" fill-opacity="0.501961" points="115,80 125,57 138,84" />
<polygon fill="#000000" fill-opacity="0.501961" points="80,71 84,77 81,63" />
<polygon fill="#fa807c" fill-opacity="0.501961" points="144,83 122,85 142,89" />
<polygon fill="#000000" fill-opacity="0.501961" points="94,96 102,159 -6,160" />
<polygon fill="#b30503" fill-opacity="0.501961" points="190,75 182,73 197,86" />
<polygon fill="#f60000" fill-opacity="0.501961" points="109,42 112,1 94,43" />
<polygon fill="#000000" fill-opacity="0.501961" points="42,58 -16,12 68,-16" />
<polygon fill="#000000" fill-opacity="0.501961" points="118,160 48,113 121,136" />
<polygon fill="#755b59" fill-opacity="0.501961" points="72,78 105,78 88,73" />
<polygon fill="#020000" fill-opacity="0.501961" points="235,-14 224,61 204,0" />
<polygon fill="#ffffff" fill-opacity="0.501961" points="82,70 85,63 83,61" />
<polygon fill="#8c8d8d" fill-opacity="0.501961" points="46,63 43,64 48,74" />
<polygon fill="#000000" fill-opacity="0.501961" points="42,91 76,88 94,115" />
<polygon fill="#000000" fill-opacity="0.501961" points="192,112 187,84 219,106" />
<polygon fill="#0b0100" fill-opacity="0.501961" points="185,51 192,48 182,61" />
<polygon fill="#aeb3b3" fill-opacity="0.501961" points="23,70 23,74 32,74" />
<polygon fill="#c9c8c4" fill-opacity="0.501961" points="192,73 174,74 185,70" />
<polygon fill="#cb0000" fill-opacity="0.501961" points="165,158 162,130 158,155" />
<polygon fill="#000000" fill-opacity="0.501961" points="142,121 145,105 150,114" />
<polygon fill="#0a0000" fill-opacity="0.501961" points="98,86 96,69 84,67" />
<polygon fill="#ff0605" fill-opacity="0.501961" points="173,117 158,104 160,69" />
<polygon fill="#000000" fill-opacity="0.501961" points="57,46 58,70 67,34" />
<polygon fill="#170000" fill-opacity="0.501961" points="135,72 130,77 134,58" />
<polygon fill="#453b3a" fill-opacity="0.501961" points="78,54 69,73 77,69" />
<polygon fill="#020000" fill-opacity="0.501961" points="210,55 210,18 241,53" />
<polygon fill="#000000" fill-opacity="0.501961" points="234,30 197,27 192,39" />
<polygon fill="#de1814" fill-opacity="0.501961" points="186,73 186,61 180,69" />
<polygon fill="#000909" fill-opacity="0.501961" points="15,51 24,52 14,68" />
<polygon fill="#770000" fill-opacity="0.501961" points="59,100 45,100 42,108" />
<polygon fill="#ff0000" fill-opacity="0.501961" points="100,114 96,117 99,119" />
<polygon fill="#ffffff" fill-opacity="0.501961" points="196,80 200,79 197,77" />
<polygon fill="#000000" fill-opacity="0.501961" points="87,-1 109,11 108,-9" />
<polygon fill="#000000" fill-opacity="0.501961" points="97,51 79,46 91,59" />
<polygon fill="#ee0000" fill-opacity="0.501961" points="210,71 204,69 206,62" />
<polygon fill="#ff0000" fill-opacity="0.501961" points="80,22 127,62 128,35" />
<polygon fill="#ffffff" fill-opacity="0.501961" points="19,47 20,54 18,55" />
<polygon fill="#000000" fill-opacity="0.501961" points="103,131 100,110 107,106" />
<polygon fill="#ffbfba" fill-opacity="0.501961" points="192,61 191,68 185,67" />
<polygon fill="#ff9d99" fill-opacity="0.501961" points="165,53 167,58 170,43" />
<polygon fill="#ff2929" fill-opacity="0.501961" points="119,73 159,76 138,80" />
<polygon fill="#f1edec" fill-opacity="0.501961" points="229,54 226,57 228,67" />
<polygon fill="#ff0000" fill-opacity="0.501961" points="151,64 154,70 153,60" />
<polygon fill="#000000" fill-opacity="0.501961" points="230,62 239,62 232,75" />
<polygon fill="#000000" fill-opacity="0.501961" points="105,13 75,4 101,25" />
<polygon fill="#000000" fill-opacity="0.501961" points="47,84 40,71 44,60" />
<polygon fill="#d6d3d1" fill-opacity="0.501961" points="75,74 73,64 72,75" />
<polygon fill="#000000" fill-opacity="0.501961" points="37,2 15,-9 32,65" />
<polygon fill="#230000" fill-opacity="0.501961" points="149,59 153,59 150,45" />
<polygon fill="#000000" fill-opacity="0.501961" points="55,73 53,60 47,62" />
<polygon fill="#ff9692" fill-opacity="0.501961" points="177,62 176,44 180,55" />
<polygon fill="#ff0000" fill-opacity="0.501961" points="167,43 157,80 157,54" />
<polygon fill="#ff0000" fill-opacity="0.501961" points="180,67 188,31 177,18" />
<polygon fill="#000000" fill-opacity="0.501961" points="241,42 242,77 271,72" />
<polygon fill="#140000" fill-opacity="0.501961" points="178,83 183,75 185,83" />
<polygon fill="#d4ddde" fill-opacity="0.501961" points="79,66 80,56 76,56" />
<polygon fill="#000000" fill-opacity="0.501961" points="132,107 139,155 124,123" />
<polygon fill="#000000" fill-opacity="0.501961" points="-16,-15 21,94 -8,160" />
<polygon fill="#000000" fill-opacity="0.501961" points="202,81 227,77 247,86" />
<polygon fill="#090000" fill-opacity="0.501961" points="50,82 29,73 21,84" />
<polygon fill="#ff0000" fill-opacity="0.501961" points="170,48 175,61 166,65" />
<polygon fill="#666565" fill-opacity="0.501961" points="10,77 -11,75 -1,79" />
<polygon fill="#ff0000" fill-opacity="0.501961" points="134,60 137,42 142,74" />
<polygon fill="#ff0000" fill-opacity="0.501961" points="131,15 127,0 134,12" />
<polygon fill="#ff0000" fill-opacity="0.501961" points="187,45 200,46 193,52" />
<polygon fill="#fe0000" fill-opacity="0.501961" points="114,14 198,25 177,45" />
<polygon fill="#535d5b" fill-opacity="0.501961" points="220,79 229,77 220,76" />
<polygon fill="#ff7f7b" fill-opacity="0.501961" points="170,70 184,58 179,55" />
<polygon fill="#ffffff" fill-opacity="0.501961" points="237,67 240,72 238,73" />
<polygon fill="#fc0000" fill-opacity="0.501961" points="129,26 146,22 150,59" />
<polygon fill="#000000" fill-opacity="0.501961" points="159,125 154,112 154,134" />
<polygon fill="#ffffff" fill-opacity="0.501961" points="86,59 86,56 82,60" />
<polygon fill="#000000" fill-opacity="0.501961" points="71,72 88,81 86,88" />
<polygon fill="#ffffff" fill-opacity="0.501961" points="114,72 112,73 114,70" />
<polygon fill="#1f0000" fill-opacity="0.501961" points="146,72 140,74 141,61" />
<polygon fill="#ff0000" fill-opacity="0.501961" points="148,59 143,69 143,60" />
<polygon fill="#595857" fill-opacity="0.501961" points="33,89 32,82 43,85" />
<polygon fill="#fc0000" fill-opacity="0.501961" points="113,66 119,67 116,60" />
<polygon fill="#e2e1e1" fill-opacity="0.501961" points="46,65 48,53 44,51" />
<polygon fill="#000000" fill-opacity="0.501961" points="62,78 63,60 56,55" />
<polygon fill="#e80000" fill-opacity="0.501961" points="173,130 179,129 175,110" />
<polygon fill="#6f0000" fill-opacity="0.501961" points="183,69 193,82 186,79" />
<polygon fill="#000000" fill-opacity="0.501961" points="79,12 48,54 44,1" />
<polygon fill="#020000" fill-opacity="0.501961" points="223,48 227,62 222,73" />
<polygon fill="#fffbf9" fill-opacity="0.501961" points="104,62 110,57 105,55" />
<polygon fill="#000000" fill-opacity="0.501961" points="66,111 64,84 33,148" />
<polygon fill="#000000" fill-opacity="0.501961" points="157,126 156,145 164,149" />
<polygon fill="#f0120f" fill-opacity="0.501961" points="110,63 99,57 117,84" />
<polygon fill="#000404" fill-opacity="0.501961" points="194,54 205,53 215,38" />
<polygon fill="#fb0000" fill-opacity="0.501961" points="111,61 134,23 109,12" />
<polygon fill="#000000" fill-opacity="0.501961" points="122,-16 93,-13 128,15" />
<polygon fill="#bdc7c5" fill-opacity="0.501961" points="62,61 64,70 65,60" />
<polygon fill="#ff0000" fill-opacity="0.501961" points="39,131 35,128 40,126" />
<polygon fill="#190000" fill-opacity="0.501961" points="86,37 81,66 77,37" />
<polygon fill="#000000" fill-opacity="0.501961" points="22,49 44,34 45,55" />
<polygon fill="#020000" fill-opacity="0.501961" points="200,75 207,94 205,69" />
<polygon fill="#ff2d2a" fill-opacity="0.501961" points="157,81 165,88 133,89" />
<polygon fill="#ffffff" fill-opacity="0.501961" points="29,65 31,66 29,60" />
<polygon fill="#ffc6c2" fill-opacity="0.501961" points="115,55 113,61 120,52" />
<polygon fill="#000000" fill-opacity="0.501961" points="63,65 60,46 57,71" />
<polygon fill="#ff0200" fill-opacity="0.501961" points="123,56 89,43 114,16" />
<polygon fill="#ff0000" fill-opacity="0.501961" points="191,18 194,36 139,16" />
<polygon fill="#fe0000" fill-opacity="0.501961" points="140,98 123,114 84,91" />
<polygon fill="#181312" fill-opacity="0.501961" points="198,67 188,67 190,70" />
<polygon fill="#000000" fill-opacity="0.501961" points="56,-3 55,33 74,64" />
<polygon fill="#0b0000" fill-opacity="0.501961" points="174,108 171,116 171,105" />
<polygon fill="#def3f4" fill-opacity="0.501961" points="197,52 202,59 197,61" />
<polygon fill="#970703" fill-opacity="0.501961" points="91,59 86,63 85,59" />
<polygon fill="#1e1717" fill-opacity="0.501961" points="88,75 37,75 56,84" />
<polygon fill="#000000" fill-opacity="0.501961" points="83,23 65,14 94,4" />
<polygon fill="#1e1e1e" fill-opacity="0.501961" points="38,60 33,67 39,72" />
<polygon fill="#000000" fill-opacity="0.501961" points="238,76 233,76 230,60" />
<polygon fill="#000000" fill-opacity="0.501961" points="188,39 194,46 210,26" />
<polygon fill="#90908c" fill-opacity="0.501961" points="48,87 55,86 42,84" />
<polygon fill="#a1a1a1" fill-opacity="0.501961" points="33,73 40,78 33,61" />
<polygon fill="#000000" fill-opacity="0.501961" points="46,83 40,125 33,109" />
<polygon fill="#ff0100" fill-opacity="0.501961" points="150,128 142,160 157,137" />
<polygon fill="#000000" fill-opacity="0.501961" points="106,153 78,132 112,111" />
<polygon fill="#979b9b" fill-opacity="0.501961" points="27,59 24,56 22,66" />
<polygon fill="#fe0100" fill-opacity="0.501961" points="178,28 119,44 146,6" />
<polygon fill="#000000" fill-opacity="0.501961" points="177,160 197,139 179,93" />
<polygon fill="#a9b4b5" fill-opacity="0.501961" points="216,54 222,57 223,61" />
<polygon fill="#f9302d" fill-opacity="0.501961" points="75,60 71,67 70,65" />
<polygon fill="#150000" fill-opacity="0.501961" points="233,53 211,38 211,55" />
<polygon fill="#feffff" fill-opacity="0.501961" points="172,73 169,73 173,69" />
<polygon fill="#ff0000" fill-opacity="0.501961" points="145,122 159,98 159,111" />
<polygon fill="#e8302d" fill-opacity="0.501961" points="97,74 93,77 102,78" />
<polygon fill="#fb0000" fill-opacity="0.501961" points="180,89 129,88 175,102" />
<polygon fill="#000000" fill-opacity="0.501961" points="190,78 197,81 198,85" />
<polygon fill="#000000" fill-opacity="0.501961" points="48,91 31,92 27,148" />
<polygon fill="#ae0000" fill-opacity="0.501961" points="171,81 184,84 173,73" />
<polygon fill="#000000" fill-opacity="0.501961" points="110,132 102,108 111,111" />
<polygon fill="#292f2f" fill-opacity="0.501961" points="203,76 215,87 199,59" />
<polygon fill="#fd0605" fill-opacity="0.501961" points="125,69 143,84 106,81" />
<polygon fill="#bcbbb8" fill-opacity="0.501961" points="222,72 218,72 219,77" />
<polygon fill="#b5b6b6" fill-opacity="0.501961" points="57,65 54,57 56,52" />
<polygon fill="#000000" fill-opacity="0.501961" points="70,74 71,69 73,73" />
<polygon fill="#000000" fill-opacity="0.501961" points="133,52 137,65 133,59" />
<polygon fill="#a5baba" fill-opacity="0.501961" points="87,72 86,74 82,68" />
<polygon fill="#da0000" fill-opacity="0.501961" points="83,52 77,51 79,50" />
<polygon fill="#000000" fill-opacity="0.501961" points="246,85 263,113 213,73" />
<polygon fill="#000000" fill-opacity="0.501961" points="77,37 72,51 52,56" />
<polygon fill="#000000" fill-opacity="0.501961" points="133,46 135,70 129,60" />
<polygon fill="#4c4a49" fill-opacity="0.501961" points="48,73 32,77 55,78" />
<polygon fill="#000000" fill-opacity="0.501961" points="-12,78 58,78 12,91" />
<polygon fill="#201c1b" fill-opacity="0.501961" points="212,84 199,68 209,72" />
<polygon fill="#c8736f" fill-opacity="0.501961" points="112,75 105,73 106,64" />
<polygon fill="#3e0000" fill-opacity="0.501961" points="100,72 104,77 104,67" />
<polygon fill="#000000" fill-opacity="0.501961" points="22,60 25,83 20,74" />
<polygon fill="#e40000" fill-opacity="0.501961" points="163,11 163,16 158,16" />
<polygon fill="#000000" fill-opacity="0.501961" points="216,86 271,146 187,150" />
<polygon fill="#fe0000" fill-opacity="0.501961" points="144,89 173,116 164,92" />
<polygon fill="#ffffff" fill-opacity="0.501961" points="18,73 20,75 16,74" />
<polygon fill="#ff0000" fill-opacity="0.501961" points="85,42 109,34 101,50" />
<polygon fill="#ff3635" fill-opacity="0.501961" points="121,78 141,78 141,72" />
<polygon fill="#fc0100" fill-opacity="0.501961" points="169,29 148,47 101,10" />
<polygon fill="#ab9c99" fill-opacity="0.501961" points="69,60 70,66 68,66" />
<polygon fill="#fd0000" fill-opacity="0.501961" points="101,67 93,71 103,44" />
<polygon fill="#c1b6b3" fill-opacity="0.501961" points="192,64 190,68 193,73" />
<polygon fill="#280000" fill-opacity="0.501961" points="96,105 79,114 98,111" />
<polygon fill="#000000" fill-opacity="0.501961" points="143,119 147,131 139,148" />
<polygon fill="#ff0000" fill-opacity="0.501961" points="204,42 203,39 205,36" />
<polygon fill="#fcffff" fill-opacity="0.501961" points="162,86 162,88 161,86" />
<polygon fill="#ee0301" fill-opacity="0.501961" points="111,55 113,76 106,69" />
<polygon fill="#000f0e" fill-opacity="0.501961" points="98,82 84,84 90,71" />
<polygon fill="#ff0000" fill-opacity="0.501961" points="111,131 115,110 125,135" />
<polygon fill="#f0faf9" fill-opacity="0.501961" points="73,71 76,74 78,70" />
<polygon fill="#000000" fill-opacity="0.501961" points="135,138 127,158 126,113" />
<polygon fill="#ffffff" fill-opacity="0.501961" points="89,65 84,65 82,63" />
<polygon fill="#ff0c0a" fill-opacity="0.501961" points="92,59 98,64 106,48" />
<polygon fill="#7c0000" fill-opacity="0.501961" points="135,114 128,118 126,126" />
<polygon fill="#feb5b1" fill-opacity="0.501961" points="177,50 172,50 170,43" />
<polygon fill="#ffffff" fill-opacity="0.501961" points="231,55 227,56 234,58" />
<polygon fill="#ffeeec" fill-opacity="0.501961" points="189,58 188,63 187,54" />
<polygon fill="#ab0000" fill-opacity="0.501961" points="190,112 197,124 190,118" />
<polygon fill="#ffffff" fill-opacity="0.501961" points="49,58 43,56 45,59" />
<polygon fill="#000000" fill-opacity="0.501961" points="16,72 16,48 20,62" />
<polygon fill="#fc0000" fill-opacity="0.501961" points="106,53 129,55 129,22" />
<polygon fill="#fdb2ae" fill-opacity="0.501961" points="113,65 112,75 116,75" />
<polygon fill="#fd0000" fill-opacity="0.501961" points="136,3 137,6 139,-2" />
<polygon fill="#ffffff" fill-opacity="0.501961" points="217,66 214,67 217,58" />
<polygon fill="#ff0000" fill-opacity="0.501961" points="26,101 31,89 23,95" />
<polygon fill="#fe1211" fill-opacity="0.501961" points="107,74 99,85 136,74" />
<polygon fill="#c4c3c3" fill-opacity="0.501961" points="223,66 223,61 219,64" />
<polygon fill="#000201" fill-opacity="0.501961" points="168,80 167,83 174,84" />
<polygon fill="#010000" fill-opacity="0.501961" points="219,62 246,27 246,-3" />
<polygon fill="#000000" fill-opacity="0.501961" points="230,61 229,70 234,66" />
<polygon fill="#ffffff" fill-opacity="0.501961" points="78,74 74,72 80,73" />
<polygon fill="#ff8581" fill-opacity="0.501961" points="168,66 165,57 165,69" />
<polygon fill="#fb0000" fill-opacity="0.501961" points="151,41 201,48 155,23" />
<polygon fill="#fffcf8" fill-opacity="0.501961" points="119,63 118,58 116,58" />
<polygon fill="#000000" fill-opacity="0.501961" points="222,75 227,66 223,50" />
<polygon fill="#ff0201" fill-opacity="0.501961" points="156,85 168,77 161,51" />
<polygon fill="#ff0000" fill-opacity="0.501961" points="148,93 126,89 140,119" />
<polygon fill="#ffffff" fill-opacity="0.501961" points="211,57 208,62 208,54" />
</g>
</svg>