<svg xmlns="http://www.w3.org/2000/svg" version="1.1" width="1024" height="580">
<rect x="0" y="0" width="1024" height="580" fill="#0f141b" />
<g transform="scale(4.000000) translate(0.5 0.5)">
<polygon fill="#ffffff" fill-opacity="0.501961" points="44,70 -1,54 14,4" />
<polygon fill="#ffffff" fill-opacity="0.501961" points="116,53 95,60 111,22" />
<polygon fill="#174297" fill-opacity="0.501961" points="59,71 165,42 271,70" />
<polygon fill="#1d468f" fill-opacity="0.501961" points="77,70 -16,72 67,34" />
<polygon fill="#ffffff" fill-opacity="0.501961" points="36,49 2,48 14,21" />
<polygon fill="#000000" fill-opacity="0.501961" points="235,160 271,71 -16,73" />
<polygon fill="#33444b" fill-opacity="0.501961" points="141,33 204,66 197,-16" />
<polygon fill="#000000" fill-opacity="0.501961" points="-16,65 271,132 5,160" />
<polygon fill="#f2d1d0" fill-opacity="0.501961" points="119,52 100,54 105,23" />
<polygon fill="#424d4d" fill-opacity="0.501961" points="85,91 63,135 45,94" />
<polygon fill="#000000" fill-opacity="0.501961" points="271,35 201,60 203,-16" />
<polygon fill="#000000" fill-opacity="0.501961" points="153,-5 132,86 100,-15" />
<polygon fill="#2b3c46" fill-opacity="0.501961" points="84,70 22,29 65,-16" />
<polygon fill="#6e8ab8" fill-opacity="0.501961" points="137,55 192,58 162,66" />
<polygon fill="#bbbace" fill-opacity="0.501961" points="10,65 29,67 18,4" />
<polygon fill="#001d6d" fill-opacity="0.501961" points="96,49 128,70 22,70" />
<polygon fill="#000000" fill-opacity="0.501961" points="121,-16 70,2 87,65" />
<polygon fill="#000000" fill-opacity="0.501961" points="271,65 0,143 271,160" />
<polygon fill="#a08465" fill-opacity="0.501961" points="24,9 7,27 8,7" />
<polygon fill="#9d7881" fill-opacity="0.501961" points="100,29 119,24 103,45" />
<polygon fill="#09254c" fill-opacity="0.501961" points="24,72 43,69 43,27" />
<polygon fill="#000000" fill-opacity="0.501961" points="11,28 -9,-16 -16,47" />
<polygon fill="#000000" fill-opacity="0.501961" points="163,-14 271,68 252,-16" />
<polygon fill="#fffeff" fill-opacity="0.501961" points="66,109 64,112 59,107" />
<polygon fill="#fbf8f5" fill-opacity="0.501961" points="12,28 30,61 1,38" />
<polygon fill="#000000" fill-opacity="0.501961" points="74,55 105,42 74,-15" />
<polygon fill="#000000" fill-opacity="0.501961" points="22,74 271,160 260,72" />
<polygon fill="#234999" fill-opacity="0.501961" points="59,55 15,71 -2,55" />
<polygon fill="#000000" fill-opacity="0.501961" points="136,32 111,42 150,61" />
<polygon fill="#00196b" fill-opacity="0.501961" points="241,71 188,56 271,55" />
<polygon fill="#000000" fill-opacity="0.501961" points="57,144 -9,38 -16,157" />
<polygon fill="#000000" fill-opacity="0.501961" points="38,9 -10,3 39,-16" />
<polygon fill="#273028" fill-opacity="0.501961" points="203,54 141,22 141,55" />
<polygon fill="#000000" fill-opacity="0.501961" points="140,34 62,5 172,-16" />
<polygon fill="#0d2e79" fill-opacity="0.501961" points="129,55 111,72 52,55" />
<polygon fill="#a38e78" fill-opacity="0.501961" points="23,8 20,37 6,8" />
<polygon fill="#6f6d5a" fill-opacity="0.501961" points="74,15 57,43 73,30" />
<polygon fill="#1d201c" fill-opacity="0.501961" points="69,54 30,54 56,28" />
<polygon fill="#73776a" fill-opacity="0.501961" points="195,17 191,41 202,21" />
<polygon fill="#1d3141" fill-opacity="0.501961" points="81,114 43,110 62,132" />
<polygon fill="#ffffff" fill-opacity="0.501961" points="117,46 110,56 99,46" />
<polygon fill="#304996" fill-opacity="0.501961" points="100,70 121,46 110,72" />
<polygon fill="#000000" fill-opacity="0.501961" points="1,16 5,147 -16,80" />
<polygon fill="#0b2d76" fill-opacity="0.501961" points="12,74 8,45 1,66" />
<polygon fill="#000000" fill-opacity="0.501961" points="264,53 201,54 245,-16" />
<polygon fill="#000000" fill-opacity="0.501961" points="-16,-1 -3,43 11,25" />
<polygon fill="#6589cd" fill-opacity="0.501961" points="14,48 20,70 2,50" />
<polygon fill="#997286" fill-opacity="0.501961" points="114,24 116,39 102,26" />
<polygon fill="#28302a" fill-opacity="0.501961" points="21,28 38,31 23,6" />
<polygon fill="#000000" fill-opacity="0.501961" points="98,66 74,31 102,-16" />
<polygon fill="#545e51" fill-opacity="0.501961" points="147,22 141,32 161,36" />
<polygon fill="#5d759e" fill-opacity="0.501961" points="146,65 150,57 175,64" />
<polygon fill="#000000" fill-opacity="0.501961" points="161,-12 106,-3 128,63" />
<polygon fill="#06275f" fill-opacity="0.501961" points="37,71 26,52 100,66" />
<polygon fill="#000000" fill-opacity="0.501961" points="-2,160 178,73 271,144" />
<polygon fill="#805950" fill-opacity="0.501961" points="8,40 14,44 16,40" />
<polygon fill="#000000" fill-opacity="0.501961" points="15,160 60,74 -16,71" />
<polygon fill="#ffe0c0" fill-opacity="0.501961" points="23,18 13,32 14,21" />
<polygon fill="#002574" fill-opacity="0.501961" points="159,56 130,71 130,55" />
<polygon fill="#ffffff" fill-opacity="0.501961" points="1,51 5,32 13,34" />
<polygon fill="#393930" fill-opacity="0.501961" points="49,91 47,113 70,105" />
<polygon fill="#f0e7db" fill-opacity="0.501961" points="33,50 14,52 24,33" />
<polygon fill="#22323c" fill-opacity="0.501961" points="20,16 40,59 54,18" />
<polygon fill="#202827" fill-opacity="0.501961" points="69,132 86,111 65,85" />
<polygon fill="#7f7368" fill-opacity="0.501961" points="11,6 25,16 4,20" />
<polygon fill="#000000" fill-opacity="0.501961" points="3,30 8,32 9,29" />
<polygon fill="#001551" fill-opacity="0.501961" points="178,69 240,54 247,71" />
<polygon fill="#182735" fill-opacity="0.501961" points="142,55 195,-16 196,31" />
<polygon fill="#1a3c8a" fill-opacity="0.501961" points="128,69 88,55 112,55" />
<polygon fill="#526d9c" fill-opacity="0.501961" points="193,58 179,66 159,55" />
<polygon fill="#000000" fill-opacity="0.501961" points="119,54 138,55 115,-7" />
<polygon fill="#000000" fill-opacity="0.501961" points="-2,-16 -15,17 51,-10" />
<polygon fill="#133165" fill-opacity="0.501961" points="75,59 54,71 24,50" />
<polygon fill="#00144d" fill-opacity="0.501961" points="98,55 100,71 63,70" />
<polygon fill="#000000" fill-opacity="0.501961" points="207,50 271,1 199,-14" />
<polygon fill="#a89496" fill-opacity="0.501961" points="192,33 189,35 192,41" />
<polygon fill="#000000" fill-opacity="0.501961" points="76,57 105,42 78,27" />
<polygon fill="#fffcf6" fill-opacity="0.501961" points="17,56 24,51 13,46" />
<polygon fill="#7c8c7b" fill-opacity="0.501961" points="71,29 73,20 68,18" />
<polygon fill="#bd9c9e" fill-opacity="0.501961" points="108,24 100,29 110,48" />
<polygon fill="#000000" fill-opacity="0.501961" points="117,9 81,52 71,-16" />
<polygon fill="#000000" fill-opacity="0.501961" points="271,73 72,74 105,160" />
<polygon fill="#171811" fill-opacity="0.501961" points="46,91 74,108 73,87" />
<polygon fill="#768fbf" fill-opacity="0.501961" points="16,58 19,68 32,59" />
<polygon fill="#000000" fill-opacity="0.501961" points="-4,81 6,2 -16,17" />
<polygon fill="#1c1e16" fill-opacity="0.501961" points="65,29 75,28 69,53" />
<polygon fill="#fcffff" fill-opacity="0.501961" points="18,39 26,36 24,31" />
<polygon fill="#99afdd" fill-opacity="0.501961" points="18,53 -2,51 7,56" />
<polygon fill="#f4d9c6" fill-opacity="0.501961" points="13,26 21,20 10,19" />
<polygon fill="#233a5e" fill-opacity="0.501961" points="24,48 52,65 31,59" />
<polygon fill="#837667" fill-opacity="0.501961" points="21,16 7,22 6,9" />
<polygon fill="#1a2a36" fill-opacity="0.501961" points="64,29 18,27 73,-16" />
<polygon fill="#fdffff" fill-opacity="0.501961" points="15,36 5,34 3,48" />
<polygon fill="#9090a9" fill-opacity="0.501961" points="21,46 14,33 20,31" />
<polygon fill="#346edd" fill-opacity="0.501961" points="249,64 254,64 247,70" />
<polygon fill="#000000" fill-opacity="0.501961" points="-5,-16 -14,28 10,30" />
<polygon fill="#1f1317" fill-opacity="0.501961" points="181,38 201,48 178,24" />
<polygon fill="#020100" fill-opacity="0.501961" points="6,-1 32,13 36,2" />
<polygon fill="#7789a5" fill-opacity="0.501961" points="160,64 148,57 149,64" />
<polygon fill="#463b43" fill-opacity="0.501961" points="117,35 107,32 116,30" />
<polygon fill="#000000" fill-opacity="0.501961" points="6,11 -16,0 21,-16" />
<polygon fill="#0b3276" fill-opacity="0.501961" points="194,71 205,57 155,70" />
<polygon fill="#3a73e4" fill-opacity="0.501961" points="123,67 120,69 123,62" />
<polygon fill="#ffffe8" fill-opacity="0.501961" points="106,41 111,39 107,35" />
<polygon fill="#001042" fill-opacity="0.501961" points="115,70 115,57 130,55" />
<polygon fill="#000000" fill-opacity="0.501961" points="251,-12 271,-3 256,69" />
<polygon fill="#000000" fill-opacity="0.501961" points="114,41 125,55 150,-2" />
<polygon fill="#16293c" fill-opacity="0.501961" points="197,54 163,57 155,27" />
<polygon fill="#001143" fill-opacity="0.501961" points="-16,56 10,70 9,56" />
<polygon fill="#000000" fill-opacity="0.501961" points="271,54 199,-16 206,54" />
<polygon fill="#fffffc" fill-opacity="0.501961" points="104,54 101,45 110,49" />
<polygon fill="#000000" fill-opacity="0.501961" points="41,-16 171,6 116,25" />
<polygon fill="#394b4a" fill-opacity="0.501961" points="204,47 202,35 198,58" />
<polygon fill="#515a4c" fill-opacity="0.501961" points="157,40 143,22 155,27" />
<polygon fill="#5b6959" fill-opacity="0.501961" points="201,29 202,15 193,29" />
<polygon fill="#1a2936" fill-opacity="0.501961" points="200,37 182,-16 158,21" />
<polygon fill="#00164e" fill-opacity="0.501961" points="199,70 249,69 203,54" />
<polygon fill="#0c2e72" fill-opacity="0.501961" points="60,57 54,71 16,70" />
<polygon fill="#000000" fill-opacity="0.501961" points="-16,73 53,72 34,160" />
<polygon fill="#514f44" fill-opacity="0.501961" points="50,100 53,95 68,109" />
<polygon fill="#1b2a36" fill-opacity="0.501961" points="78,125 50,125 45,99" />
<polygon fill="#001b5d" fill-opacity="0.501961" points="136,65 171,65 145,72" />
<polygon fill="#303430" fill-opacity="0.501961" points="79,94 81,122 67,89" />
<polygon fill="#244173" fill-opacity="0.501961" points="167,62 149,60 155,57" />
<polygon fill="#5a73a6" fill-opacity="0.501961" points="2,48 10,48 19,56" />
<polygon fill="#ffe7cf" fill-opacity="0.501961" points="111,41 101,36 109,37" />
<polygon fill="#b09492" fill-opacity="0.501961" points="65,39 65,31 62,33" />
<polygon fill="#ffffff" fill-opacity="0.501961" points="30,45 26,50 33,48" />
<polygon fill="#000000" fill-opacity="0.501961" points="2,69 -16,55 -3,-7" />
<polygon fill="#212c30" fill-opacity="0.501961" points="71,52 78,41 62,21" />
<polygon fill="#000000" fill-opacity="0.501961" points="76,44 97,54 102,9" />
<polygon fill="#929ba8" fill-opacity="0.501961" points="27,36 32,44 26,42" />
<polygon fill="#151715" fill-opacity="0.501961" points="59,109 66,95 55,92" />
<polygon fill="#001f5b" fill-opacity="0.501961" points="248,70 249,56 223,55" />
<polygon fill="#1e2d34" fill-opacity="0.501961" points="75,35 29,54 65,55" />
<polygon fill="#6f7c6e" fill-opacity="0.501961" points="74,55 72,49 69,56" />
<polygon fill="#030402" fill-opacity="0.501961" points="143,7 178,-2 114,43" />
<polygon fill="#887b6e" fill-opacity="0.501961" points="14,22 11,6 21,6" />
<polygon fill="#6d85ba" fill-opacity="0.501961" points="9,63 31,56 25,67" />
<polygon fill="#395891" fill-opacity="0.501961" points="30,61 44,59 38,56" />
<polygon fill="#001651" fill-opacity="0.501961" points="75,71 99,59 74,55" />
<polygon fill="#000000" fill-opacity="0.501961" points="27,14 6,-8 19,-10" />
<polygon fill="#1e2523" fill-opacity="0.501961" points="162,55 142,52 152,31" />
<polygon fill="#ddc8b3" fill-opacity="0.501961" points="27,39 13,39 25,49" />
<polygon fill="#6a6954" fill-opacity="0.501961" points="15,28 32,30 23,26" />
<polygon fill="#2f4890" fill-opacity="0.501961" points="115,72 100,49 103,71" />
<polygon fill="#23251c" fill-opacity="0.501961" points="158,18 155,0 151,29" />
<polygon fill="#785855" fill-opacity="0.501961" points="63,108 66,105 62,102" />
<polygon fill="#244384" fill-opacity="0.501961" points="12,67 2,70 21,71" />
<polygon fill="#758278" fill-opacity="0.501961" points="198,51 201,51 201,56" />
<polygon fill="#efd5c3" fill-opacity="0.501961" points="108,54 108,47 102,55" />
<polygon fill="#22221a" fill-opacity="0.501961" points="30,37 23,16 29,-1" />
<polygon fill="#6e5f66" fill-opacity="0.501961" points="113,37 105,31 113,30" />
<polygon fill="#20211a" fill-opacity="0.501961" points="75,19 66,-14 46,-10" />
<polygon fill="#123067" fill-opacity="0.501961" points="199,69 199,60 175,61" />
<polygon fill="#8899b4" fill-opacity="0.501961" points="183,57 185,60 191,59" />
<polygon fill="#24070c" fill-opacity="0.501961" points="61,40 53,40 50,25" />
<polygon fill="#7184a2" fill-opacity="0.501961" points="162,57 176,58 177,65" />
<polygon fill="#5e6b80" fill-opacity="0.501961" points="6,55 10,54 8,40" />
<polygon fill="#d2cee1" fill-opacity="0.501961" points="63,111 60,111 63,108" />
<polygon fill="#000000" fill-opacity="0.501961" points="102,-8 98,54 77,55" />
<polygon fill="#001a55" fill-opacity="0.501961" points="135,55 131,71 155,69" />
<polygon fill="#a99d8e" fill-opacity="0.501961" points="10,13 4,15 10,8" />
<polygon fill="#c19071" fill-opacity="0.501961" points="12,26 19,32 18,28" />
<polygon fill="#000000" fill-opacity="0.501961" points="260,72 37,72 137,119" />
<polygon fill="#15315e" fill-opacity="0.501961" points="175,50 189,57 149,57" />
<polygon fill="#1e2a2f" fill-opacity="0.501961" points="195,39 156,53 200,54" />
<polygon fill="#222824" fill-opacity="0.501961" points="204,19 191,-16 161,-16" />
<polygon fill="#1e221e" fill-opacity="0.501961" points="143,37 141,20 148,19" />
<polygon fill="#63545c" fill-opacity="0.501961" points="105,32 101,40 101,33" />
<polygon fill="#89a4d8" fill-opacity="0.501961" points="8,57 3,48 12,53" />
<polygon fill="#000000" fill-opacity="0.501961" points="130,83 124,80 129,59" />
<polygon fill="#022260" fill-opacity="0.501961" points="120,58 127,71 126,55" />
<polygon fill="#fdfaf4" fill-opacity="0.501961" points="20,53 14,55 16,36" />
<polygon fill="#062764" fill-opacity="0.501961" points="30,59 28,70 70,68" />
<polygon fill="#6774b6" fill-opacity="0.501961" points="19,39 19,32 16,32" />
<polygon fill="#366bd6" fill-opacity="0.501961" points="251,63 248,70 251,68" />
<polygon fill="#fefffe" fill-opacity="0.501961" points="1,43 13,30 10,41" />
<polygon fill="#c6c1b9" fill-opacity="0.501961" points="13,32 27,33 17,28" />
<polygon fill="#3b5185" fill-opacity="0.501961" points="18,60 10,59 16,56" />
<polygon fill="#00215b" fill-opacity="0.501961" points="254,55 254,68 246,55" />
<polygon fill="#000000" fill-opacity="0.501961" points="144,55 120,55 112,-16" />
<polygon fill="#343028" fill-opacity="0.501961" points="195,26 190,32 206,39" />
<polygon fill="#565f91" fill-opacity="0.501961" points="114,55 117,54 115,51" />
<polygon fill="#000000" fill-opacity="0.501961" points="6,-6 -16,34 5,32" />
<polygon fill="#e9ceb6" fill-opacity="0.501961" points="25,53 18,55 19,51" />
<polygon fill="#bf7d6e" fill-opacity="0.501961" points="105,44 112,46 110,41" />
<polygon fill="#000000" fill-opacity="0.501961" points="112,42 137,33 142,54" />
<polygon fill="#2c2c25" fill-opacity="0.501961" points="60,111 63,98 46,104" />
<polygon fill="#1a2a38" fill-opacity="0.501961" points="50,120 67,128 84,103" />
<polygon fill="#0f1e28" fill-opacity="0.501961" points="205,36 197,34 203,51" />
<polygon fill="#796e61" fill-opacity="0.501961" points="22,22 18,7 15,12" />
<polygon fill="#304980" fill-opacity="0.501961" points="19,67 29,71 10,71" />
<polygon fill="#001e5c" fill-opacity="0.501961" points="3,71 2,57 11,58" />
<polygon fill="#001c55" fill-opacity="0.501961" points="214,56 254,70 196,71" />
<polygon fill="#1a2a38" fill-opacity="0.501961" points="45,54 60,-16 27,25" />
<polygon fill="#000000" fill-opacity="0.501961" points="116,20 74,-16 75,36" />
<polygon fill="#7c625c" fill-opacity="0.501961" points="191,33 190,31 197,31" />
<polygon fill="#5d6d62" fill-opacity="0.501961" points="55,100 51,95 49,99" />
<polygon fill="#10150f" fill-opacity="0.501961" points="73,129 85,114 85,94" />
<polygon fill="#270909" fill-opacity="0.501961" points="187,38 181,31 179,41" />
<polygon fill="#0f2f68" fill-opacity="0.501961" points="166,60 176,60 171,62" />
<polygon fill="#000000" fill-opacity="0.501961" points="10,26 -12,51 -8,6" />
<polygon fill="#717c72" fill-opacity="0.501961" points="200,27 195,28 200,19" />
<polygon fill="#1c2934" fill-opacity="0.501961" points="28,53 74,41 52,39" />
<polygon fill="#000000" fill-opacity="0.501961" points="-15,10 27,-16 24,4" />
<polygon fill="#111411" fill-opacity="0.501961" points="70,104 50,91 75,98" />
<polygon fill="#001a53" fill-opacity="0.501961" points="79,71 76,56 103,63" />
<polygon fill="#505f8c" fill-opacity="0.501961" points="99,51 100,45 105,59" />
<polygon fill="#000000" fill-opacity="0.501961" points="253,148 255,47 271,87" />
<polygon fill="#e895b8" fill-opacity="0.501961" points="104,29 110,27 115,30" />
<polygon fill="#1b2b3a" fill-opacity="0.501961" points="197,35 188,-1 168,5" />
<polygon fill="#4d87fb" fill-opacity="0.501961" points="123,68 124,65 121,69" />
<polygon fill="#18367d" fill-opacity="0.501961" points="117,57 98,56 114,67" />
<polygon fill="#ffffff" fill-opacity="0.501961" points="5,48 2,46 6,40" />
<polygon fill="#5f78b0" fill-opacity="0.501961" points="24,68 32,58 14,65" />
<polygon fill="#030303" fill-opacity="0.501961" points="104,71 96,79 120,71" />
<polygon fill="#ffe7d2" fill-opacity="0.501961" points="19,21 14,25 16,17" />
<polygon fill="#000000" fill-opacity="0.501961" points="202,50 242,55 264,-16" />
<polygon fill="#000000" fill-opacity="0.501961" points="78,39 74,53 105,42" />
<polygon fill="#000000" fill-opacity="0.501961" points="271,72 260,147 5,148" />
<polygon fill="#71675b" fill-opacity="0.501961" points="24,12 18,10 21,19" />
<polygon fill="#000000" fill-opacity="0.501961" points="-16,51 -2,24 3,83" />
<polygon fill="#1a2b39" fill-opacity="0.501961" points="146,51 174,35 196,45" />
<polygon fill="#0f2e64" fill-opacity="0.501961" points="179,71 166,65 149,72" />
<polygon fill="#58616a" fill-opacity="0.501961" points="107,37 104,33 105,36" />
<polygon fill="#1c2b3c" fill-opacity="0.501961" points="59,0 41,5 69,31" />
<polygon fill="#000000" fill-opacity="0.501961" points="25,87 -16,139 70,160" />
<polygon fill="#0c0d0d" fill-opacity="0.501961" points="-6,41 -13,76 1,48" />
<polygon fill="#f4ede0" fill-opacity="0.501961" points="105,54 115,46 105,50" />
<polygon fill="#000000" fill-opacity="0.501961" points="134,-6 129,66 120,20" />
<polygon fill="#172b47" fill-opacity="0.501961" points="26,50 28,57 40,57" />
<polygon fill="#57524a" fill-opacity="0.501961" points="11,19 8,19 13,13" />
<polygon fill="#173772" fill-opacity="0.501961" points="190,65 194,54 201,56" />
<polygon fill="#ffdcc4" fill-opacity="0.501961" points="104,42 110,35 111,40" />
<polygon fill="#001650" fill-opacity="0.501961" points="5,68 8,70 11,65" />
<polygon fill="#beabaa" fill-opacity="0.501961" points="191,33 192,38 190,39" />
<polygon fill="#000000" fill-opacity="0.501961" points="98,54 99,46 75,39" />
<polygon fill="#011d56" fill-opacity="0.501961" points="202,56 245,55 247,69" />
<polygon fill="#a78290" fill-opacity="0.501961" points="114,26 114,31 109,26" />
<polygon fill="#001a54" fill-opacity="0.501961" points="123,61 128,65 110,63" />
<polygon fill="#000000" fill-opacity="0.501961" points="271,3 202,-7 203,37" />
<polygon fill="#53679c" fill-opacity="0.501961" points="22,64 22,55 18,55" />
<polygon fill="#221f15" fill-opacity="0.501961" points="22,20 26,11 25,27" />
<polygon fill="#7789cd" fill-opacity="0.501961" points="17,35 18,38 15,39" />
<polygon fill="#596359" fill-opacity="0.501961" points="157,35 148,29 150,23" />
<polygon fill="#3b5298" fill-opacity="0.501961" points="116,62 112,56 103,55" />
<polygon fill="#000000" fill-opacity="0.501961" points="8,7 -14,50 -16,-5" />
<polygon fill="#000000" fill-opacity="0.501961" points="10,24 -4,25 -14,50" />
<polygon fill="#2b3e4d" fill-opacity="0.501961" points="28,34 35,47 33,38" />
<polygon fill="#886864" fill-opacity="0.501961" points="10,40 15,40 15,45" />
<polygon fill="#20221c" fill-opacity="0.501961" points="155,40 149,49 152,32" />
<polygon fill="#e2ccbf" fill-opacity="0.501961" points="107,51 113,52 105,55" />
<polygon fill="#fffffe" fill-opacity="0.501961" points="13,29 14,37 7,36" />
<polygon fill="#3f352f" fill-opacity="0.501961" points="60,108 52,102 67,108" />
<polygon fill="#080f11" fill-opacity="0.501961" points="61,11 67,9 63,1" />
<polygon fill="#4e5747" fill-opacity="0.501961" points="27,23 23,27 29,36" />
<polygon fill="#e7c4b2" fill-opacity="0.501961" points="112,40 107,39 116,36" />
<polygon fill="#f8d9c1" fill-opacity="0.501961" points="11,20 13,23 9,22" />
<polygon fill="#503f44" fill-opacity="0.501961" points="115,31 111,34 117,38" />
<polygon fill="#161915" fill-opacity="0.501961" points="23,26 28,24 26,14" />
<polygon fill="#72796d" fill-opacity="0.501961" points="149,35 148,30 150,30" />
<polygon fill="#6098ff" fill-opacity="0.501961" points="249,67 250,65 251,68" />
<polygon fill="#091317" fill-opacity="0.501961" points="74,128 60,132 47,124" />
<polygon fill="#234091" fill-opacity="0.501961" points="103,62 115,69 101,69" />
<polygon fill="#484537" fill-opacity="0.501961" points="74,101 76,105 77,96" />
<polygon fill="#fcffff" fill-opacity="0.501961" points="16,50 17,47 25,51" />
<polygon fill="#1c2c38" fill-opacity="0.501961" points="59,54 35,51 43,7" />
<polygon fill="#938374" fill-opacity="0.501961" points="17,18 11,10 18,8" />
<polygon fill="#a0a7b2" fill-opacity="0.501961" points="24,43 26,38 28,38" />
<polygon fill="#5374ba" fill-opacity="0.501961" points="2,56 6,51 2,51" />
<polygon fill="#ffeede" fill-opacity="0.501961" points="26,46 24,36 23,44" />
<polygon fill="#000000" fill-opacity="0.501961" points="56,-15 154,20 151,-16" />
<polygon fill="#001a56" fill-opacity="0.501961" points="244,57 253,56 254,67" />
<polygon fill="#000000" fill-opacity="0.501961" points="207,44 227,53 202,55" />
<polygon fill="#ffffff" fill-opacity="0.501961" points="16,44 10,46 20,47" />
<polygon fill="#838484" fill-opacity="0.501961" points="23,33 16,28 21,25" />
<polygon fill="#050d10" fill-opacity="0.501961" points="195,10 189,9 192,0" />
<polygon fill="#1b2a38" fill-opacity="0.501961" points="55,106 75,126 47,118" />
<polygon fill="#a3b7d6" fill-opacity="0.501961" points="27,58 28,61 24,60" />
<polygon fill="#1b2a35" fill-opacity="0.501961" points="33,14 47,8 65,34" />
<polygon fill="#191912" fill-opacity="0.501961" points="84,108 75,108 84,96" />
<polygon fill="#4f4930" fill-opacity="0.501961" points="171,-16 213,-16 189,1" />
<polygon fill="#1c2b34" fill-opacity="0.501961" points="203,36 205,48 179,48" />
<polygon fill="#090a0b" fill-opacity="0.501961" points="100,40 94,44 105,42" />
<polygon fill="#8d8987" fill-opacity="0.501961" points="25,51 21,44 27,50" />
<polygon fill="#1b2c39" fill-opacity="0.501961" points="178,-5 189,38 190,7" />
<polygon fill="#fde3cd" fill-opacity="0.501961" points="105,38 110,37 104,41" />
<polygon fill="#ffffff" fill-opacity="0.501961" points="15,45 20,48 11,47" />
<polygon fill="#000000" fill-opacity="0.501961" points="136,11 151,13 116,36" />
<polygon fill="#5d6b60" fill-opacity="0.501961" points="68,26 72,25 67,18" />
<polygon fill="#252820" fill-opacity="0.501961" points="66,45 68,51 76,47" />
<polygon fill="#313731" fill-opacity="0.501961" points="68,90 74,90 68,98" />
<polygon fill="#000000" fill-opacity="0.501961" points="26,7 -16,2 20,-6" />
<polygon fill="#282b22" fill-opacity="0.501961" points="68,18 75,12 67,6" />
<polygon fill="#6f7b70" fill-opacity="0.501961" points="153,31 155,33 154,28" />
<polygon fill="#c1c4c7" fill-opacity="0.501961" points="5,42 8,40 7,42" />
<polygon fill="#867566" fill-opacity="0.501961" points="24,18 9,15 17,14" />
<polygon fill="#1b2b37" fill-opacity="0.501961" points="46,17 67,31 67,9" />
<polygon fill="#6a83b9" fill-opacity="0.501961" points="19,56 20,67 12,64" />
<polygon fill="#083283" fill-opacity="0.501961" points="31,57 38,55 44,57" />
<polygon fill="#152635" fill-opacity="0.501961" points="156,34 174,10 161,11" />
<polygon fill="#14202d" fill-opacity="0.501961" points="62,39 49,26 59,27" />
<polygon fill="#000000" fill-opacity="0.501961" points="9,31 6,21 -2,29" />
<polygon fill="#000000" fill-opacity="0.501961" points="27,-16 25,12 12,-16" />
<polygon fill="#1c2d3b" fill-opacity="0.501961" points="55,9 32,11 67,19" />
<polygon fill="#0d2c67" fill-opacity="0.501961" points="74,71 70,56 18,69" />
<polygon fill="#bb7f74" fill-opacity="0.501961" points="107,41 112,47 107,47" />
<polygon fill="#e7e6df" fill-opacity="0.501961" points="17,33 16,40 13,41" />
<polygon fill="#a18d7b" fill-opacity="0.501961" points="15,18 14,15 8,20" />
<polygon fill="#ffffff" fill-opacity="0.501961" points="113,50 113,47 109,49" />
<polygon fill="#2f478a" fill-opacity="0.501961" points="100,72 109,67 111,72" />
<polygon fill="#ffffff" fill-opacity="0.501961" points="6,39 14,37 8,32" />
<polygon fill="#030402" fill-opacity="0.501961" points="145,75 140,71 157,71" />
<polygon fill="#000000" fill-opacity="0.501961" points="3,34 -16,17 -1,49" />
<polygon fill="#010101" fill-opacity="0.501961" points="86,55 90,40 104,40" />
<polygon fill="#545747" fill-opacity="0.501961" points="155,28 153,42 157,43" />
<polygon fill="#1d1d15" fill-opacity="0.501961" points="144,41 157,40 142,31" />
<polygon fill="#062a6a" fill-opacity="0.501961" points="158,71 178,65 145,65" />
<polygon fill="#000000" fill-opacity="0.501961" points="71,6 114,5 100,29" />
<polygon fill="#f7d4be" fill-opacity="0.501961" points="20,24 14,26 11,23" />
<polygon fill="#29302e" fill-opacity="0.501961" points="33,23 19,27 30,27" />
<polygon fill="#5b534b" fill-opacity="0.501961" points="20,13 24,15 17,17" />
<polygon fill="#2e2e22" fill-opacity="0.501961" points="191,28 200,29 198,35" />
<polygon fill="#fefef9" fill-opacity="0.501961" points="115,48 113,47 111,52" />
<polygon fill="#152432" fill-opacity="0.501961" points="153,51 149,39 142,55" />
<polygon fill="#262921" fill-opacity="0.501961" points="202,42 196,54 194,41" />
<polygon fill="#2d372e" fill-opacity="0.501961" points="54,91 50,94 54,95" />
<polygon fill="#000000" fill-opacity="0.501961" points="97,71 75,71 100,139" />
<polygon fill="#20221a" fill-opacity="0.501961" points="155,27 157,12 151,26" />
<polygon fill="#001b52" fill-opacity="0.501961" points="148,61 137,71 136,55" />
<polygon fill="#415e85" fill-opacity="0.501961" points="71,59 70,58 72,54" />
<polygon fill="#eadfd5" fill-opacity="0.501961" points="20,39 26,47 33,46" />
<polygon fill="#1c1e19" fill-opacity="0.501961" points="48,123 49,109 45,110" />
<polygon fill="#192c3f" fill-opacity="0.501961" points="82,113 70,114 67,107" />
<polygon fill="#4b452f" fill-opacity="0.501961" points="59,1 96,-16 53,-16" />
<polygon fill="#ced1d3" fill-opacity="0.501961" points="26,36 30,41 27,40" />
<polygon fill="#637065" fill-opacity="0.501961" points="69,18 74,28 68,27" />
<polygon fill="#506992" fill-opacity="0.501961" points="158,60 164,57 150,59" />
<polygon fill="#10326c" fill-opacity="0.501961" points="155,59 151,61 160,61" />
<polygon fill="#080c05" fill-opacity="0.501961" points="44,4 36,-16 60,-16" />
<polygon fill="#00174c" fill-opacity="0.501961" points="103,62 99,67 91,69" />
<polygon fill="#001a52" fill-opacity="0.501961" points="120,59 121,69 113,70" />
<polygon fill="#000000" fill-opacity="0.501961" points="38,9 29,0 28,10" />
<polygon fill="#fafbf9" fill-opacity="0.501961" points="9,40 15,30 6,34" />
<polygon fill="#5f779c" fill-opacity="0.501961" points="178,66 179,61 180,63" />
<polygon fill="#000000" fill-opacity="0.501961" points="70,-16 131,29 72,9" />
<polygon fill="#000000" fill-opacity="0.501961" points="271,21 199,9 199,-16" />
<polygon fill="#000000" fill-opacity="0.501961" points="46,88 -16,120 42,134" />
<polygon fill="#212c31" fill-opacity="0.501961" points="174,54 152,53 157,38" />
</g>
</svg>