<svg xmlns="http://www.w3.org/2000/svg" version="1.1" width="1024" height="580">
<rect x="0" y="0" width="1024" height="580" fill="#23242c" />
<g transform="scale(4.000000) translate(0.5 0.5)">
<polygon fill="#e2dfd7" fill-opacity="0.501961" points="79,63 80,3 17,31" />
<polygon fill="#ebe9dd" fill-opacity="0.501961" points="208,59 207,-2 150,36" />
<polygon fill="#000000" fill-opacity="0.501961" points="245,160 -4,72 271,71" />
<polygon fill="#000000" fill-opacity="0.501961" points="271,74 76,73 148,160" />
<polygon fill="#8d826d" fill-opacity="0.501961" points="55,85 7,102 109,99" />
<polygon fill="#495b7e" fill-opacity="0.501961" points="95,72 27,7 21,69" />
<polygon fill="#4c5d81" fill-opacity="0.501961" points="155,7 150,70 217,72" />
<polygon fill="#c6c4b9" fill-opacity="0.501961" points="48,3 89,29 49,52" />
<polygon fill="#b7b6ab" fill-opacity="0.501961" points="179,-2 211,52 171,50" />
<polygon fill="#083489" fill-opacity="0.501961" points="82,119 172,160 -16,138" />
<polygon fill="#000000" fill-opacity="0.501961" points="161,-3 95,-16 127,65" />
<polygon fill="#0c0a0b" fill-opacity="0.501961" points="0,-16 47,19 0,144" />
<polygon fill="#191e29" fill-opacity="0.501961" points="175,18 103,73 175,48" />
<polygon fill="#000000" fill-opacity="0.501961" points="255,160 265,65 84,123" />
<polygon fill="#754339" fill-opacity="0.501961" points="195,-9 229,58 240,24" />
<polygon fill="#837b6c" fill-opacity="0.501961" points="95,133 97,87 78,87" />
<polygon fill="#7b4f47" fill-opacity="0.501961" points="103,60 68,1 107,16" />
<polygon fill="#000000" fill-opacity="0.501961" points="220,-16 271,99 267,-16" />
<polygon fill="#002578" fill-opacity="0.501961" points="104,73 47,53 165,56" />
<polygon fill="#3f61a8" fill-opacity="0.501961" points="64,55 48,72 -1,56" />
<polygon fill="#6e665d" fill-opacity="0.501961" points="28,52 19,16 78,2" />
<polygon fill="#002376" fill-opacity="0.501961" points="184,74 189,51 271,65" />
<polygon fill="#d1d2ce" fill-opacity="0.501961" points="211,33 206,10 191,55" />
<polygon fill="#1e1202" fill-opacity="0.501961" points="45,26 34,-3 39,58" />
<polygon fill="#5a75ac" fill-opacity="0.501961" points="188,65 146,69 148,56" />
<polygon fill="#c5c4bc" fill-opacity="0.501961" points="79,48 45,52 77,19" />
<polygon fill="#000000" fill-opacity="0.501961" points="271,71 173,160 69,72" />
<polygon fill="#000000" fill-opacity="0.501961" points="-6,127 -4,71 41,125" />
<polygon fill="#080200" fill-opacity="0.501961" points="153,54 102,55 129,-16" />
<polygon fill="#001d71" fill-opacity="0.501961" points="-3,54 2,71 49,71" />
<polygon fill="#6f5142" fill-opacity="0.501961" points="143,21 157,50 177,12" />
<polygon fill="#607bab" fill-opacity="0.501961" points="11,128 24,137 50,131" />
<polygon fill="#010000" fill-opacity="0.501961" points="-7,78 -16,-7 37,-16" />
<polygon fill="#322d20" fill-opacity="0.501961" points="100,124 59,128 62,81" />
<polygon fill="#000000" fill-opacity="0.501961" points="219,-16 149,1 269,5" />
<polygon fill="#72736e" fill-opacity="0.501961" points="174,2 208,3 185,31" />
<polygon fill="#241805" fill-opacity="0.501961" points="174,53 162,58 167,12" />
<polygon fill="#d0cdc3" fill-opacity="0.501961" points="176,53 189,48 175,28" />
<polygon fill="#757674" fill-opacity="0.501961" points="50,3 67,7 60,64" />
<polygon fill="#847b6f" fill-opacity="0.501961" points="19,104 29,89 75,91" />
<polygon fill="#000000" fill-opacity="0.501961" points="264,70 271,141 88,160" />
<polygon fill="#000000" fill-opacity="0.501961" points="48,90 114,73 24,72" />
<polygon fill="#d2d1ce" fill-opacity="0.501961" points="208,50 206,18 193,20" />
<polygon fill="#092c78" fill-opacity="0.501961" points="255,71 252,55 195,57" />
<polygon fill="#692720" fill-opacity="0.501961" points="120,23 95,57 84,24" />
<polygon fill="#5e6d72" fill-opacity="0.501961" points="235,17 223,38 222,7" />
<polygon fill="#758fbe" fill-opacity="0.501961" points="176,66 180,56 166,58" />
<polygon fill="#691d15" fill-opacity="0.501961" points="30,39 14,36 19,8" />
<polygon fill="#002068" fill-opacity="0.501961" points="125,127 56,130 128,160" />
<polygon fill="#000000" fill-opacity="0.501961" points="140,17 210,-12 59,-3" />
<polygon fill="#00125b" fill-opacity="0.501961" points="-5,128 19,160 20,127" />
<polygon fill="#938695" fill-opacity="0.501961" points="65,119 65,102 60,120" />
<polygon fill="#c7c8c3" fill-opacity="0.501961" points="64,51 78,14 80,53" />
<polygon fill="#bfc2be" fill-opacity="0.501961" points="52,8 52,50 45,24" />
<polygon fill="#070200" fill-opacity="0.501961" points="271,55 248,-15 235,55" />
<polygon fill="#0c296b" fill-opacity="0.501961" points="54,71 71,52 125,71" />
<polygon fill="#7684a0" fill-opacity="0.501961" points="64,65 41,56 20,63" />
<polygon fill="#000000" fill-opacity="0.501961" points="99,-8 -16,-16 -15,15" />
<polygon fill="#061642" fill-opacity="0.501961" points="181,53 207,54 183,71" />
<polygon fill="#586d73" fill-opacity="0.501961" points="92,32 95,3 104,28" />
<polygon fill="#4c493f" fill-opacity="0.501961" points="23,71 34,108 17,111" />
<polygon fill="#000000" fill-opacity="0.501961" points="99,131 101,78 201,71" />
<polygon fill="#672218" fill-opacity="0.501961" points="235,55 215,55 215,20" />
<polygon fill="#586667" fill-opacity="0.501961" points="214,29 207,3 207,50" />
<polygon fill="#222423" fill-opacity="0.501961" points="67,59 85,52 43,52" />
<polygon fill="#3b3f3b" fill-opacity="0.501961" points="48,6 46,59 36,38" />
<polygon fill="#151512" fill-opacity="0.501961" points="74,126 62,94 81,95" />
<polygon fill="#989a99" fill-opacity="0.501961" points="207,53 178,6 172,20" />
<polygon fill="#221d14" fill-opacity="0.501961" points="69,-13 88,-8 95,34" />
<polygon fill="#666059" fill-opacity="0.501961" points="85,90 93,133 98,86" />
<polygon fill="#001c6b" fill-opacity="0.501961" points="109,67 146,72 150,61" />
<polygon fill="#466299" fill-opacity="0.501961" points="200,56 201,72 215,55" />
<polygon fill="#09130a" fill-opacity="0.501961" points="231,-16 196,-10 218,16" />
<polygon fill="#3e4948" fill-opacity="0.501961" points="91,48 81,6 80,37" />
<polygon fill="#4e1c12" fill-opacity="0.501961" points="145,5 139,55 156,29" />
<polygon fill="#000000" fill-opacity="0.501961" points="-16,67 -8,160 20,76" />
<polygon fill="#707278" fill-opacity="0.501961" points="25,26 33,49 35,15" />
<polygon fill="#1c1f1f" fill-opacity="0.501961" points="89,125 90,99 55,125" />
<polygon fill="#627174" fill-opacity="0.501961" points="161,48 164,19 151,12" />
<polygon fill="#425d94" fill-opacity="0.501961" points="81,55 80,73 70,64" />
<polygon fill="#000000" fill-opacity="0.501961" points="128,147 158,160 127,56" />
<polygon fill="#000000" fill-opacity="0.501961" points="19,118 36,109 42,124" />
<polygon fill="#acaca8" fill-opacity="0.501961" points="78,7 74,52 61,53" />
<polygon fill="#201c1a" fill-opacity="0.501961" points="48,57 40,32 33,56" />
<polygon fill="#807d78" fill-opacity="0.501961" points="190,56 182,38 193,15" />
<polygon fill="#b3b3af" fill-opacity="0.501961" points="192,54 207,44 193,8" />
<polygon fill="#3a1c11" fill-opacity="0.501961" points="248,37 232,49 234,10" />
<polygon fill="#6a7773" fill-opacity="0.501961" points="62,4 84,17 79,1" />
<polygon fill="#000000" fill-opacity="0.501961" points="102,-16 129,58 144,-16" />
<polygon fill="#001952" fill-opacity="0.501961" points="263,57 233,54 230,73" />
<polygon fill="#001752" fill-opacity="0.501961" points="91,129 124,128 114,153" />
<polygon fill="#000000" fill-opacity="0.501961" points="100,85 254,124 100,127" />
<polygon fill="#4f8bff" fill-opacity="0.501961" points="121,139 123,137 121,144" />
<polygon fill="#163373" fill-opacity="0.501961" points="181,71 195,55 161,72" />
<polygon fill="#031f58" fill-opacity="0.501961" points="48,66 3,64 24,72" />
<polygon fill="#762928" fill-opacity="0.501961" points="230,28 243,23 220,57" />
<polygon fill="#532119" fill-opacity="0.501961" points="86,14 107,55 85,55" />
<polygon fill="#5c5b57" fill-opacity="0.501961" points="183,23 197,3 184,10" />
<polygon fill="#306ad5" fill-opacity="0.501961" points="120,68 125,64 123,70" />
<polygon fill="#112139" fill-opacity="0.501961" points="157,57 187,56 162,47" />
<polygon fill="#8d8b87" fill-opacity="0.501961" points="69,33 72,51 78,44" />
<polygon fill="#dbdad4" fill-opacity="0.501961" points="48,31 55,51 49,50" />
<polygon fill="#011a56" fill-opacity="0.501961" points="72,72 70,58 50,68" />
<polygon fill="#2b251f" fill-opacity="0.501961" points="86,84 66,90 102,89" />
<polygon fill="#687694" fill-opacity="0.501961" points="147,59 162,56 159,69" />
<polygon fill="#282b23" fill-opacity="0.501961" points="171,4 146,10 171,24" />
<polygon fill="#1f1b0c" fill-opacity="0.501961" points="120,55 119,13 105,48" />
<polygon fill="#2d65cc" fill-opacity="0.501961" points="247,65 253,66 255,71" />
<polygon fill="#0a2258" fill-opacity="0.501961" points="215,71 255,70 210,51" />
<polygon fill="#bbbab6" fill-opacity="0.501961" points="178,37 176,7 182,17" />
<polygon fill="#001546" fill-opacity="0.501961" points="29,52 -7,59 19,62" />
<polygon fill="#000000" fill-opacity="0.501961" points="-7,3 16,-8 -3,79" />
<polygon fill="#031544" fill-opacity="0.501961" points="162,67 167,64 165,48" />
<polygon fill="#617294" fill-opacity="0.501961" points="62,57 17,57 44,67" />
<polygon fill="#898378" fill-opacity="0.501961" points="71,89 63,93 80,94" />
<polygon fill="#000000" fill-opacity="0.501961" points="94,84 25,86 44,72" />
<polygon fill="#dbdbd9" fill-opacity="0.501961" points="71,38 80,40 78,21" />
<polygon fill="#7e756c" fill-opacity="0.501961" points="59,100 22,100 32,90" />
<polygon fill="#131609" fill-opacity="0.501961" points="209,53 208,47 220,54" />
<polygon fill="#042467" fill-opacity="0.501961" points="4,142 69,143 39,133" />
<polygon fill="#1e1707" fill-opacity="0.501961" points="24,53 8,50 11,10" />
<polygon fill="#7a7166" fill-opacity="0.501961" points="95,117 85,92 95,98" />
<polygon fill="#788aa9" fill-opacity="0.501961" points="33,129 47,133 47,129" />
<polygon fill="#dadad6" fill-opacity="0.501961" points="177,36 183,52 178,52" />
<polygon fill="#566162" fill-opacity="0.501961" points="170,28 176,43 174,13" />
<polygon fill="#908e8b" fill-opacity="0.501961" points="196,38 202,51 200,25" />
<polygon fill="#251e1a" fill-opacity="0.501961" points="96,115 96,86 102,99" />
<polygon fill="#2d3a38" fill-opacity="0.501961" points="92,5 104,4 110,25" />
<polygon fill="#24261f" fill-opacity="0.501961" points="60,111 30,127 65,127" />
<polygon fill="#47608f" fill-opacity="0.501961" points="19,127 44,127 22,137" />
<polygon fill="#2b2e2c" fill-opacity="0.501961" points="24,100 57,100 21,114" />
<polygon fill="#24272e" fill-opacity="0.501961" points="196,58 213,52 187,54" />
<polygon fill="#0e0e04" fill-opacity="0.501961" points="23,-16 46,-2 43,16" />
<polygon fill="#000000" fill-opacity="0.501961" points="215,-16 258,30 271,6" />
<polygon fill="#7a2f2f" fill-opacity="0.501961" points="103,50 91,56 105,22" />
<polygon fill="#000000" fill-opacity="0.501961" points="261,160 269,77 88,157" />
<polygon fill="#555758" fill-opacity="0.501961" points="26,47 20,36 30,39" />
<polygon fill="#060702" fill-opacity="0.501961" points="114,2 52,-16 28,1" />
<polygon fill="#c9cbc9" fill-opacity="0.501961" points="198,32 193,49 193,19" />
<polygon fill="#57676f" fill-opacity="0.501961" points="80,28 85,30 83,10" />
<polygon fill="#adaeac" fill-opacity="0.501961" points="65,29 67,7 79,48" />
<polygon fill="#585951" fill-opacity="0.501961" points="61,16 69,3 48,2" />
<polygon fill="#364973" fill-opacity="0.501961" points="98,125 84,160 95,160" />
<polygon fill="#0a2254" fill-opacity="0.501961" points="45,71 34,70 42,62" />
<polygon fill="#dedddb" fill-opacity="0.501961" points="205,22 200,29 208,39" />
<polygon fill="#312e28" fill-opacity="0.501961" points="91,102 62,97 52,110" />
<polygon fill="#000000" fill-opacity="0.501961" points="271,21 253,26 257,86" />
<polygon fill="#312b27" fill-opacity="0.501961" points="28,96 28,69 18,80" />
<polygon fill="#66737a" fill-opacity="0.501961" points="42,23 46,38 47,27" />
<polygon fill="#b6b6b2" fill-opacity="0.501961" points="48,30 56,35 49,9" />
<polygon fill="#842928" fill-opacity="0.501961" points="157,37 152,20 148,37" />
<polygon fill="#50656b" fill-opacity="0.501961" points="231,22 219,11 227,34" />
<polygon fill="#425b91" fill-opacity="0.501961" points="74,54 85,58 73,69" />
<polygon fill="#88767b" fill-opacity="0.501961" points="64,119 61,112 66,108" />
<polygon fill="#001d54" fill-opacity="0.501961" points="19,126 2,131 14,160" />
<polygon fill="#1f180e" fill-opacity="0.501961" points="164,-5 164,30 174,5" />
<polygon fill="#36322b" fill-opacity="0.501961" points="42,84 55,89 30,90" />
<polygon fill="#712927" fill-opacity="0.501961" points="224,55 220,25 232,47" />
<polygon fill="#152019" fill-opacity="0.501961" points="82,56 93,48 85,32" />
<polygon fill="#746d60" fill-opacity="0.501961" points="90,128 95,118 90,104" />
<polygon fill="#1a1d12" fill-opacity="0.501961" points="159,55 137,54 138,23" />
<polygon fill="#000000" fill-opacity="0.501961" points="33,87 34,72 87,72" />
<polygon fill="#878783" fill-opacity="0.501961" points="50,9 64,51 64,21" />
<polygon fill="#626d71" fill-opacity="0.501961" points="162,10 162,48 156,28" />
<polygon fill="#42585b" fill-opacity="0.501961" points="215,19 209,4 208,29" />
<polygon fill="#30302c" fill-opacity="0.501961" points="65,116 27,101 51,102" />
<polygon fill="#364445" fill-opacity="0.501961" points="36,18 21,13 34,7" />
<polygon fill="#1a1609" fill-opacity="0.501961" points="213,19 219,21 219,2" />
<polygon fill="#001957" fill-opacity="0.501961" points="130,70 134,58 153,72" />
<polygon fill="#5b5c58" fill-opacity="0.501961" points="194,2 187,12 208,2" />
<polygon fill="#c3c4c0" fill-opacity="0.501961" points="54,42 54,52 45,50" />
<polygon fill="#4e5e63" fill-opacity="0.501961" points="104,13 93,8 99,37" />
<polygon fill="#353e3c" fill-opacity="0.501961" points="219,7 234,16 232,5" />
<polygon fill="#13140e" fill-opacity="0.501961" points="90,15 109,-16 71,-16" />
<polygon fill="#001d5d" fill-opacity="0.501961" points="2,57 22,56 2,71" />
<polygon fill="#262c2c" fill-opacity="0.501961" points="38,43 56,57 19,48" />
<polygon fill="#5f6769" fill-opacity="0.501961" points="170,40 175,23 176,54" />
<polygon fill="#0c2761" fill-opacity="0.501961" points="52,133 107,127 74,156" />
<polygon fill="#011a52" fill-opacity="0.501961" points="112,60 124,71 80,69" />
<polygon fill="#832320" fill-opacity="0.501961" points="25,24 28,35 20,38" />
<polygon fill="#3c4644" fill-opacity="0.501961" points="148,37 168,49 154,51" />
<polygon fill="#162e6e" fill-opacity="0.501961" points="80,55 111,55 100,62" />
<polygon fill="#030300" fill-opacity="0.501961" points="38,126 37,108 20,118" />
<polygon fill="#110e09" fill-opacity="0.501961" points="65,97 62,98 61,90" />
<polygon fill="#96938e" fill-opacity="0.501961" points="205,26 204,11 193,8" />
<polygon fill="#4f595d" fill-opacity="0.501961" points="80,43 85,34 80,28" />
<polygon fill="#647ba7" fill-opacity="0.501961" points="181,59 178,71 175,58" />
<polygon fill="#000000" fill-opacity="0.501961" points="0,152 -12,143 1,98" />
<polygon fill="#122a68" fill-opacity="0.501961" points="204,55 187,55 175,71" />
<polygon fill="#010100" fill-opacity="0.501961" points="112,-5 132,-16 129,64" />
<polygon fill="#23366a" fill-opacity="0.501961" points="50,66 67,56 73,62" />
<polygon fill="#372819" fill-opacity="0.501961" points="174,54 164,53 168,18" />
<polygon fill="#1b190b" fill-opacity="0.501961" points="233,53 249,55 246,11" />
<polygon fill="#000000" fill-opacity="0.501961" points="90,71 247,73 264,160" />
<polygon fill="#adafac" fill-opacity="0.501961" points="76,7 65,41 80,18" />
<polygon fill="#99a4b7" fill-opacity="0.501961" points="22,137 20,131 20,137" />
<polygon fill="#67615c" fill-opacity="0.501961" points="72,44 74,50 71,49" />
<polygon fill="#0a2158" fill-opacity="0.501961" points="178,71 202,68 185,57" />
<polygon fill="#0a2f78" fill-opacity="0.501961" points="127,158 118,160 126,127" />
<polygon fill="#848075" fill-opacity="0.501961" points="183,51 191,53 192,44" />
<polygon fill="#2c2f33" fill-opacity="0.501961" points="27,117 17,105 31,105" />
<polygon fill="#c5c7c5" fill-opacity="0.501961" points="69,26 65,19 66,38" />
<polygon fill="#6a6358" fill-opacity="0.501961" points="18,106 26,100 21,93" />
<polygon fill="#090b07" fill-opacity="0.501961" points="67,101 78,96 64,95" />
<polygon fill="#202224" fill-opacity="0.501961" points="88,102 86,127 64,114" />
<polygon fill="#000000" fill-opacity="0.501961" points="16,90 -16,116 -6,59" />
<polygon fill="#102a64" fill-opacity="0.501961" points="31,133 14,151 84,135" />
<polygon fill="#1b2e63" fill-opacity="0.501961" points="204,72 237,56 214,55" />
<polygon fill="#682827" fill-opacity="0.501961" points="84,28 107,46 89,21" />
<polygon fill="#433e34" fill-opacity="0.501961" points="85,93 75,86 63,88" />
<polygon fill="#c1bfb5" fill-opacity="0.501961" points="195,52 191,47 203,53" />
<polygon fill="#000000" fill-opacity="0.501961" points="-16,-11 1,69 6,-16" />
<polygon fill="#545a5e" fill-opacity="0.501961" points="208,37 212,34 211,21" />
<polygon fill="#313a3d" fill-opacity="0.501961" points="156,5 163,10 151,22" />
<polygon fill="#5c6971" fill-opacity="0.501961" points="45,29 47,15 43,14" />
<polygon fill="#969fad" fill-opacity="0.501961" points="154,57 150,58 149,61" />
<polygon fill="#000000" fill-opacity="0.501961" points="100,73 179,153 100,114" />
<polygon fill="#001855" fill-opacity="0.501961" points="103,66 125,64 121,56" />
<polygon fill="#3d4a4e" fill-opacity="0.501961" points="85,7 84,19 78,5" />
<polygon fill="#83c7ff" fill-opacity="0.501961" points="122,67 121,66 120,68" />
<polygon fill="#050200" fill-opacity="0.501961" points="82,118 70,115 66,120" />
<polygon fill="#182123" fill-opacity="0.501961" points="181,56 170,52 187,53" />
<polygon fill="#7e756b" fill-opacity="0.501961" points="88,91 80,90 81,101" />
<polygon fill="#80766c" fill-opacity="0.501961" points="42,93 61,100 59,94" />
<polygon fill="#8d8c89" fill-opacity="0.501961" points="72,15 72,28 65,7" />
<polygon fill="#000000" fill-opacity="0.501961" points="133,89 121,119 128,59" />
<polygon fill="#1c150a" fill-opacity="0.501961" points="106,5 122,23 106,24" />
<polygon fill="#0c0a03" fill-opacity="0.501961" points="31,53 3,54 -16,35" />
<polygon fill="#d6d5d2" fill-opacity="0.501961" points="74,41 74,16 79,28" />
<polygon fill="#c4c2be" fill-opacity="0.501961" points="175,52 182,47 180,30" />
<polygon fill="#4c493f" fill-opacity="0.501961" points="26,85 20,76 20,86" />
<polygon fill="#565f65" fill-opacity="0.501961" points="155,44 163,44 152,37" />
<polygon fill="#001548" fill-opacity="0.501961" points="252,71 255,64 252,59" />
<polygon fill="#001b52" fill-opacity="0.501961" points="102,127 99,160 126,127" />
<polygon fill="#020000" fill-opacity="0.501961" points="150,10 156,-16 123,15" />
<polygon fill="#898987" fill-opacity="0.501961" points="191,26 181,16 186,47" />
<polygon fill="#435153" fill-opacity="0.501961" points="171,23 177,7 171,7" />
<polygon fill="#36271b" fill-opacity="0.501961" points="35,43 43,40 41,13" />
<polygon fill="#0f3788" fill-opacity="0.501961" points="49,55 30,55 39,58" />
<polygon fill="#647176" fill-opacity="0.501961" points="26,23 36,31 32,15" />
<polygon fill="#657493" fill-opacity="0.501961" points="21,59 20,65 36,57" />
<polygon fill="#425b8e" fill-opacity="0.501961" points="209,63 202,73 202,53" />
<polygon fill="#001c56" fill-opacity="0.501961" points="132,57 146,72 148,55" />
<polygon fill="#0d1d11" fill-opacity="0.501961" points="220,53 220,46 214,45" />
<polygon fill="#0b2358" fill-opacity="0.501961" points="22,61 14,59 27,54" />
<polygon fill="#b9b7b1" fill-opacity="0.501961" points="57,39 48,37 52,44" />
<polygon fill="#847c74" fill-opacity="0.501961" points="76,49 76,40 79,49" />
<polygon fill="#16326e" fill-opacity="0.501961" points="85,127 44,128 66,135" />
<polygon fill="#1a1e1d" fill-opacity="0.501961" points="20,115 7,110 18,92" />
<polygon fill="#4a211b" fill-opacity="0.501961" points="216,11 213,35 224,42" />
<polygon fill="#413426" fill-opacity="0.501961" points="98,114 99,127 95,127" />
<polygon fill="#0e0e0a" fill-opacity="0.501961" points="231,1 173,2 170,-16" />
<polygon fill="#172f6a" fill-opacity="0.501961" points="186,62 181,55 201,56" />
<polygon fill="#2a1b13" fill-opacity="0.501961" points="9,50 16,13 20,47" />
<polygon fill="#7b3634" fill-opacity="0.501961" points="92,19 92,29 98,37" />
<polygon fill="#8c3631" fill-opacity="0.501961" points="231,35 233,24 224,41" />
<polygon fill="#cfd0cc" fill-opacity="0.501961" points="67,38 64,53 69,50" />
<polygon fill="#978f88" fill-opacity="0.501961" points="76,21 75,29 77,25" />
<polygon fill="#071b44" fill-opacity="0.501961" points="38,124 22,128 40,129" />
<polygon fill="#5f7295" fill-opacity="0.501961" points="168,60 165,69 179,62" />
<polygon fill="#8c8b88" fill-opacity="0.501961" points="64,24 53,31 64,49" />
<polygon fill="#76849f" fill-opacity="0.501961" points="167,65 169,68 159,68" />
<polygon fill="#382b22" fill-opacity="0.501961" points="172,32 167,10 164,32" />
<polygon fill="#314678" fill-opacity="0.501961" points="168,55 162,61 149,61" />
<polygon fill="#000000" fill-opacity="0.501961" points="38,127 30,109 39,110" />
<polygon fill="#413124" fill-opacity="0.501961" points="46,49 36,51 39,36" />
<polygon fill="#5d2624" fill-opacity="0.501961" points="104,55 105,37 97,45" />
<polygon fill="#3b1c1b" fill-opacity="0.501961" points="151,27 154,9 138,28" />
<polygon fill="#2d2e2c" fill-opacity="0.501961" points="81,127 90,108 88,126" />
<polygon fill="#292218" fill-opacity="0.501961" points="61,8 74,-16 57,-16" />
<polygon fill="#241c19" fill-opacity="0.501961" points="38,86 22,93 22,88" />
<polygon fill="#334570" fill-opacity="0.501961" points="45,60 27,60 38,63" />
<polygon fill="#25221e" fill-opacity="0.501961" points="80,90 78,106 66,119" />
<polygon fill="#423a24" fill-opacity="0.501961" points="32,116 35,125 32,123" />
<polygon fill="#011c56" fill-opacity="0.501961" points="256,57 223,70 241,71" />
<polygon fill="#01215d" fill-opacity="0.501961" points="2,127 17,128 2,148" />
<polygon fill="#575e63" fill-opacity="0.501961" points="23,38 36,50 33,34" />
<polygon fill="#00144c" fill-opacity="0.501961" points="122,68 126,68 120,71" />
<polygon fill="#403e35" fill-opacity="0.501961" points="180,4 184,8 191,7" />
<polygon fill="#000000" fill-opacity="0.501961" points="249,-5 248,55 271,46" />
<polygon fill="#244280" fill-opacity="0.501961" points="174,71 179,67 168,65" />
<polygon fill="#9c9c99" fill-opacity="0.501961" points="72,34 61,29 73,42" />
<polygon fill="#4a5b7e" fill-opacity="0.501961" points="96,141 91,160 45,160" />
<polygon fill="#000000" fill-opacity="0.501961" points="83,78 232,160 212,72" />
<polygon fill="#7b8280" fill-opacity="0.501961" points="200,14 204,3 207,13" />
<polygon fill="#55211e" fill-opacity="0.501961" points="240,26 221,48 233,45" />
<polygon fill="#0c2156" fill-opacity="0.501961" points="74,53 71,65 59,70" />
<polygon fill="#5a2321" fill-opacity="0.501961" points="27,29 22,39 14,20" />
<polygon fill="#637190" fill-opacity="0.501961" points="60,64 47,57 62,57" />
<polygon fill="#e9e9e8" fill-opacity="0.501961" points="72,29 78,30 71,32" />
<polygon fill="#82817d" fill-opacity="0.501961" points="75,6 76,19 79,9" />
<polygon fill="#1b1817" fill-opacity="0.501961" points="16,19 16,10 33,4" />
<polygon fill="#babbb9" fill-opacity="0.501961" points="69,43 70,25 64,28" />
<polygon fill="#5a656a" fill-opacity="0.501961" points="97,29 104,20 94,18" />
<polygon fill="#d7d7d4" fill-opacity="0.501961" points="206,36 202,19 201,38" />
<polygon fill="#d1d3d0" fill-opacity="0.501961" points="52,44 56,45 52,34" />
<polygon fill="#2a2e33" fill-opacity="0.501961" points="70,114 83,100 87,114" />
<polygon fill="#000000" fill-opacity="0.501961" points="31,86 28,72 81,83" />
<polygon fill="#00185b" fill-opacity="0.501961" points="147,69 153,72 161,69" />
<polygon fill="#181d1e" fill-opacity="0.501961" points="52,55 39,50 21,55" />
<polygon fill="#9e9f9d" fill-opacity="0.501961" points="200,27 196,12 192,20" />
<polygon fill="#72726f" fill-opacity="0.501961" points="52,4 65,22 55,16" />
<polygon fill="#70726e" fill-opacity="0.501961" points="46,10 48,2 55,9" />
<polygon fill="#bdbeba" fill-opacity="0.501961" points="181,39 176,23 176,50" />
<polygon fill="#1c1207" fill-opacity="0.501961" points="136,52 136,12 148,8" />
<polygon fill="#0d245c" fill-opacity="0.501961" points="247,71 213,56 216,71" />
<polygon fill="#000000" fill-opacity="0.501961" points="80,86 80,72 35,76" />
<polygon fill="#171812" fill-opacity="0.501961" points="236,27 241,16 234,8" />
<polygon fill="#000000" fill-opacity="0.501961" points="100,82 183,125 101,127" />
<polygon fill="#292a2c" fill-opacity="0.501961" points="58,127 63,99 43,126" />
<polygon fill="#73757c" fill-opacity="0.501961" points="93,125 97,128 90,127" />
<polygon fill="#071011" fill-opacity="0.501961" points="86,47 79,55 87,55" />
<polygon fill="#364244" fill-opacity="0.501961" points="93,4 92,21 98,7" />
<polygon fill="#a9b2c1" fill-opacity="0.501961" points="148,59 151,58 150,60" />
<polygon fill="#6d7d9a" fill-opacity="0.501961" points="22,129 28,137 20,135" />
<polygon fill="#4a271d" fill-opacity="0.501961" points="94,34 87,30 87,53" />
<polygon fill="#27334b" fill-opacity="0.501961" points="89,143 53,160 9,143" />
<polygon fill="#303c41" fill-opacity="0.501961" points="85,29 80,44 85,42" />
<polygon fill="#8f9bb4" fill-opacity="0.501961" points="49,57 53,60 44,57" />
<polygon fill="#484349" fill-opacity="0.501961" points="58,111 63,110 64,100" />
<polygon fill="#bfc0be" fill-opacity="0.501961" points="202,33 191,32 194,26" />
<polygon fill="#262a23" fill-opacity="0.501961" points="226,5 213,13 215,22" />
<polygon fill="#030400" fill-opacity="0.501961" points="118,53 123,41 151,54" />
<polygon fill="#243d7d" fill-opacity="0.501961" points="72,55 62,55 65,60" />
<polygon fill="#050601" fill-opacity="0.501961" points="36,127 40,119 33,123" />
<polygon fill="#1b1c1b" fill-opacity="0.501961" points="169,48 149,54 173,55" />
<polygon fill="#384d74" fill-opacity="0.501961" points="79,72 71,68 68,71" />
<polygon fill="#0e2257" fill-opacity="0.501961" points="86,68 122,60 83,58" />
<polygon fill="#001854" fill-opacity="0.501961" points="118,128 101,137 125,136" />
<polygon fill="#bdbbb8" fill-opacity="0.501961" points="207,45 202,50 208,51" />
<polygon fill="#84807d" fill-opacity="0.501961" points="201,45 198,36 199,53" />
<polygon fill="#3362c3" fill-opacity="0.501961" points="251,68 251,65 244,66" />
<polygon fill="#00174e" fill-opacity="0.501961" points="232,69 250,71 245,63" />
<polygon fill="#32221d" fill-opacity="0.501961" points="57,53 60,56 69,54" />
<polygon fill="#e5e5e3" fill-opacity="0.501961" points="200,32 207,33 206,28" />
<polygon fill="#001b52" fill-opacity="0.501961" points="248,66 233,62 256,55" />
<polygon fill="#1a233a" fill-opacity="0.501961" points="79,160 100,143 124,144" />
<polygon fill="#a2a3a1" fill-opacity="0.501961" points="72,23 64,8 68,27" />
<polygon fill="#6e7c98" fill-opacity="0.501961" points="43,61 32,65 30,61" />
<polygon fill="#3d5b94" fill-opacity="0.501961" points="206,71 205,66 208,65" />
<polygon fill="#64728f" fill-opacity="0.501961" points="162,57 158,61 149,57" />
<polygon fill="#000002" fill-opacity="0.501961" points="28,115 21,115 22,129" />
<polygon fill="#2c3e6b" fill-opacity="0.501961" points="53,61 59,60 54,64" />
<polygon fill="#7c7b77" fill-opacity="0.501961" points="176,3 183,24 193,17" />
<polygon fill="#7586a1" fill-opacity="0.501961" points="151,69 148,69 148,58" />
<polygon fill="#101211" fill-opacity="0.501961" points="81,5 77,-8 105,5" />
<polygon fill="#2e2826" fill-opacity="0.501961" points="99,86 77,86 101,94" />
<polygon fill="#000000" fill-opacity="0.501961" points="127,160 271,143 127,70" />
<polygon fill="#c4c6c2" fill-opacity="0.501961" points="80,52 73,52 74,42" />
<polygon fill="#d3d4d2" fill-opacity="0.501961" points="73,24 80,42 78,22" />
</g>
</svg>