<svg xmlns="http://www.w3.org/2000/svg" version="1.1" width="1024" height="576">
<rect x="0" y="0" width="1024" height="576" fill="#846679" />
<g transform="scale(4.000000) translate(0.5 0.5)">
<polygon fill="#0f0016" fill-opacity="0.501961" points="271,23 123,-16 235,159" />
<polygon fill="#f4ffe7" fill-opacity="0.501961" points="185,159 70,134 173,51" />
<polygon fill="#f2aae4" fill-opacity="0.501961" points="1,-2 133,-16 -16,145" />
<polygon fill="#55283b" fill-opacity="0.501961" points="10,159 151,64 150,-16" />
<polygon fill="#000000" fill-opacity="0.501961" points="99,126 65,113 106,112" />
<polygon fill="#2d243a" fill-opacity="0.501961" points="193,159 271,138 208,-16" />
<polygon fill="#f6f2cf" fill-opacity="0.501961" points="126,76 92,108 190,97" />
<polygon fill="#8ebca7" fill-opacity="0.501961" points="8,4 20,159 -16,126" />
<polygon fill="#002515" fill-opacity="0.501961" points="115,75 147,74 147,35" />
<polygon fill="#a84d81" fill-opacity="0.501961" points="115,-12 202,-16 0,121" />
<polygon fill="#fea4df" fill-opacity="0.501961" points="44,12 4,87 118,-16" />
<polygon fill="#000000" fill-opacity="0.501961" points="174,136 175,152 204,144" />
<polygon fill="#dad6b7" fill-opacity="0.501961" points="122,134 191,103 158,48" />
<polygon fill="#6b4051" fill-opacity="0.501961" points="171,61 226,-16 123,16" />
<polygon fill="#713754" fill-opacity="0.501961" points="158,11 40,159 11,114" />
<polygon fill="#35467a" fill-opacity="0.501961" points="271,37 251,159 216,74" />
<polygon fill="#6da992" fill-opacity="0.501961" points="32,0 -6,-16 -16,95" />
<polygon fill="#68357d" fill-opacity="0.501961" points="80,-16 54,-16 18,37" />
<polygon fill="#acb2d2" fill-opacity="0.501961" points="271,2 199,-8 265,24" />
<polygon fill="#4e2930" fill-opacity="0.501961" points="254,146 216,159 158,33" />
<polygon fill="#002317" fill-opacity="0.501961" points="97,127 72,113 99,108" />
<polygon fill="#d7dcb7" fill-opacity="0.501961" points="189,25 174,17 192,36" />
<polygon fill="#d2c7b3" fill-opacity="0.501961" points="183,139 181,69 87,105" />
<polygon fill="#2c1d1e" fill-opacity="0.501961" points="268,37 213,70 179,13" />
<polygon fill="#2c091c" fill-opacity="0.501961" points="36,138 114,159 96,138" />
<polygon fill="#91acc9" fill-opacity="0.501961" points="206,129 159,144 108,129" />
<polygon fill="#ddf2ed" fill-opacity="0.501961" points="143,47 154,58 150,46" />
<polygon fill="#bbb6bb" fill-opacity="0.501961" points="29,152 9,110 -16,144" />
<polygon fill="#9b7b4b" fill-opacity="0.501961" points="182,127 209,143 184,87" />
<polygon fill="#d5d0bf" fill-opacity="0.501961" points="122,74 183,103 97,131" />
<polygon fill="#894b88" fill-opacity="0.501961" points="13,88 23,32 10,59" />
<polygon fill="#b65a91" fill-opacity="0.501961" points="17,79 105,25 18,118" />
<polygon fill="#051e15" fill-opacity="0.501961" points="178,18 152,-16 146,-3" />
<polygon fill="#a89781" fill-opacity="0.501961" points="99,105 87,111 63,83" />
<polygon fill="#d277b1" fill-opacity="0.501961" points="98,-16 19,82 140,-6" />
<polygon fill="#6d74a9" fill-opacity="0.501961" points="249,49 252,91 271,52" />
<polygon fill="#8cb4d9" fill-opacity="0.501961" points="61,128 98,131 62,139" />
<polygon fill="#63374e" fill-opacity="0.501961" points="254,20 191,-9 154,17" />
<polygon fill="#513045" fill-opacity="0.501961" points="32,158 73,122 56,101" />
<polygon fill="#f5ceef" fill-opacity="0.501961" points="16,32 42,2 37,-16" />
<polygon fill="#2c2137" fill-opacity="0.501961" points="249,159 251,102 203,129" />
<polygon fill="#607076" fill-opacity="0.501961" points="-9,92 -2,78 21,122" />
<polygon fill="#c9d4ce" fill-opacity="0.501961" points="-6,59 14,105 10,65" />
<polygon fill="#d6cbba" fill-opacity="0.501961" points="171,120 103,115 125,71" />
<polygon fill="#74533c" fill-opacity="0.501961" points="182,115 189,127 177,129" />
<polygon fill="#f0addd" fill-opacity="0.501961" points="15,62 33,26 72,7" />
<polygon fill="#002018" fill-opacity="0.501961" points="148,53 149,74 123,70" />
<polygon fill="#573043" fill-opacity="0.501961" points="143,31 218,115 206,65" />
<polygon fill="#8ea8bf" fill-opacity="0.501961" points="76,138 74,116 126,137" />
<polygon fill="#d4c8b3" fill-opacity="0.501961" points="186,86 153,129 156,46" />
<polygon fill="#add2f0" fill-opacity="0.501961" points="194,129 181,134 195,139" />
<polygon fill="#0d1f18" fill-opacity="0.501961" points="79,119 95,126 87,108" />
<polygon fill="#805a80" fill-opacity="0.501961" points="35,25 21,46 -15,51" />
<polygon fill="#6d4159" fill-opacity="0.501961" points="159,14 108,32 188,54" />
<polygon fill="#8f8170" fill-opacity="0.501961" points="149,54 127,50 117,35" />
<polygon fill="#188260" fill-opacity="0.501961" points="154,68 151,55 135,80" />
<polygon fill="#051f1d" fill-opacity="0.501961" points="82,122 95,108 103,121" />
<polygon fill="#2b263f" fill-opacity="0.501961" points="174,137 206,139 164,159" />
<polygon fill="#fbc1e9" fill-opacity="0.501961" points="253,-11 271,28 253,12" />
<polygon fill="#e8d7ae" fill-opacity="0.501961" points="155,138 192,159 102,142" />
<polygon fill="#e9a8d6" fill-opacity="0.501961" points="70,24 102,-16 56,6" />
<polygon fill="#683652" fill-opacity="0.501961" points="51,89 22,133 72,128" />
<polygon fill="#9e5b84" fill-opacity="0.501961" points="85,27 145,13 147,-10" />
<polygon fill="#87486a" fill-opacity="0.501961" points="116,62 17,113 110,28" />
<polygon fill="#5e394d" fill-opacity="0.501961" points="123,72 93,52 104,99" />
<polygon fill="#f0cde8" fill-opacity="0.501961" points="22,26 15,43 14,34" />
<polygon fill="#81c6b7" fill-opacity="0.501961" points="154,59 144,81 158,74" />
<polygon fill="#dcd3bd" fill-opacity="0.501961" points="166,82 153,45 170,63" />
<polygon fill="#dc87be" fill-opacity="0.501961" points="11,89 22,46 62,41" />
<polygon fill="#25262c" fill-opacity="0.501961" points="101,118 91,112 87,101" />
<polygon fill="#674b85" fill-opacity="0.501961" points="240,-3 248,-16 253,20" />
<polygon fill="#623a51" fill-opacity="0.501961" points="224,3 208,32 149,-9" />
<polygon fill="#11191b" fill-opacity="0.501961" points="124,70 142,74 138,45" />
<polygon fill="#33212d" fill-opacity="0.501961" points="52,135 69,145 53,127" />
<polygon fill="#312229" fill-opacity="0.501961" points="235,60 199,15 271,33" />
<polygon fill="#522e40" fill-opacity="0.501961" points="201,125 171,46 224,101" />
<polygon fill="#6c4357" fill-opacity="0.501961" points="54,115 92,111 42,79" />
<polygon fill="#98a8c2" fill-opacity="0.501961" points="157,139 182,129 191,137" />
<polygon fill="#ddd4bf" fill-opacity="0.501961" points="188,32 174,18 183,21" />
<polygon fill="#eae3cb" fill-opacity="0.501961" points="84,96 98,105 93,106" />
<polygon fill="#543f4a" fill-opacity="0.501961" points="162,45 137,48 106,26" />
<polygon fill="#4b3741" fill-opacity="0.501961" points="56,123 56,114 83,127" />
<polygon fill="#ffffff" fill-opacity="0.501961" points="141,51 144,53 140,52" />
<polygon fill="#d4d5d2" fill-opacity="0.501961" points="101,128 78,121 82,130" />
<polygon fill="#dad0b9" fill-opacity="0.501961" points="126,130 122,83 96,107" />
<polygon fill="#8fa4a4" fill-opacity="0.501961" points="5,40 -16,-1 44,-16" />
<polygon fill="#323557" fill-opacity="0.501961" points="252,86 217,84 250,159" />
<polygon fill="#94755b" fill-opacity="0.501961" points="183,119 203,139 183,78" />
<polygon fill="#603d4d" fill-opacity="0.501961" points="96,102 121,81 119,46" />
<polygon fill="#1f1d20" fill-opacity="0.501961" points="76,101 80,114 92,117" />
<polygon fill="#2e292c" fill-opacity="0.501961" points="170,8 186,25 182,15" />
<polygon fill="#afaaad" fill-opacity="0.501961" points="31,159 -16,108 1,94" />
<polygon fill="#ad6391" fill-opacity="0.501961" points="125,-12 97,43 45,76" />
<polygon fill="#7d8d8b" fill-opacity="0.501961" points="10,59 -7,60 17,29" />
<polygon fill="#a8b6ca" fill-opacity="0.501961" points="81,129 69,136 60,130" />
<polygon fill="#152023" fill-opacity="0.501961" points="147,71 145,51 136,73" />
<polygon fill="#ce9cbb" fill-opacity="0.501961" points="12,104 13,87 21,114" />
<polygon fill="#503443" fill-opacity="0.501961" points="205,68 176,70 157,41" />
<polygon fill="#51bb92" fill-opacity="0.501961" points="103,122 91,123 98,127" />
<polygon fill="#40406d" fill-opacity="0.501961" points="226,107 214,71 241,67" />
<polygon fill="#162826" fill-opacity="0.501961" points="143,48 143,70 151,55" />
<polygon fill="#693250" fill-opacity="0.501961" points="79,91 86,103 67,85" />
<polygon fill="#a88d67" fill-opacity="0.501961" points="175,66 184,92 184,79" />
<polygon fill="#134d3c" fill-opacity="0.501961" points="136,79 139,70 124,70" />
<polygon fill="#3b2932" fill-opacity="0.501961" points="208,48 181,39 163,15" />
<polygon fill="#6d3c56" fill-opacity="0.501961" points="24,111 25,138 67,146" />
<polygon fill="#a1b2b8" fill-opacity="0.501961" points="242,-16 227,7 242,14" />
<polygon fill="#66645d" fill-opacity="0.501961" points="14,46 -4,45 3,39" />
<polygon fill="#32232c" fill-opacity="0.501961" points="270,35 191,40 211,75" />
<polygon fill="#5e3548" fill-opacity="0.501961" points="219,25 271,22 212,6" />
<polygon fill="#b4ddda" fill-opacity="0.501961" points="127,81 152,73 138,87" />
<polygon fill="#230a0f" fill-opacity="0.501961" points="178,139 154,159 219,151" />
<polygon fill="#82cfb9" fill-opacity="0.501961" points="103,128 102,111 111,123" />
<polygon fill="#61354f" fill-opacity="0.501961" points="96,104 80,88 109,74" />
<polygon fill="#a6abb1" fill-opacity="0.501961" points="13,38 -6,-4 -16,42" />
<polygon fill="#d3cdbf" fill-opacity="0.501961" points="165,60 172,83 147,49" />
<polygon fill="#4a2734" fill-opacity="0.501961" points="221,159 192,107 230,123" />
<polygon fill="#854b8c" fill-opacity="0.501961" points="18,43 27,21 43,14" />
<polygon fill="#eaafdb" fill-opacity="0.501961" points="63,16 45,15 90,-16" />
<polygon fill="#d8c093" fill-opacity="0.501961" points="158,138 172,138 165,159" />
<polygon fill="#934973" fill-opacity="0.501961" points="32,79 17,122 44,114" />
<polygon fill="#493544" fill-opacity="0.501961" points="102,22 116,33 111,25" />
<polygon fill="#d2d0db" fill-opacity="0.501961" points="122,71 135,81 131,88" />
<polygon fill="#3c2935" fill-opacity="0.501961" points="205,51 233,38 182,18" />
<polygon fill="#a19e8b" fill-opacity="0.501961" points="89,112 79,99 91,108" />
<polygon fill="#20242a" fill-opacity="0.501961" points="95,107 86,107 77,114" />
<polygon fill="#d1c5b1" fill-opacity="0.501961" points="98,127 174,128 180,81" />
<polygon fill="#978467" fill-opacity="0.501961" points="64,112 74,117 58,102" />
<polygon fill="#73898b" fill-opacity="0.501961" points="14,106 8,112 21,132" />
<polygon fill="#b05f91" fill-opacity="0.501961" points="23,108 43,69 14,97" />
<polygon fill="#733a77" fill-opacity="0.501961" points="13,66 14,54 20,48" />
<polygon fill="#b8bbbd" fill-opacity="0.501961" points="12,57 -5,70 8,88" />
<polygon fill="#804a69" fill-opacity="0.501961" points="163,27 114,21 148,1" />
<polygon fill="#693854" fill-opacity="0.501961" points="191,42 145,13 182,65" />
<polygon fill="#45af82" fill-opacity="0.501961" points="149,67 155,66 153,59" />
<polygon fill="#603c50" fill-opacity="0.501961" points="134,51 111,37 121,74" />
<polygon fill="#2b2d31" fill-opacity="0.501961" points="74,112 68,129 64,125" />
<polygon fill="#f3bbe5" fill-opacity="0.501961" points="26,16 56,-10 41,-13" />
<polygon fill="#72554d" fill-opacity="0.501961" points="184,128 178,130 186,110" />
<polygon fill="#362434" fill-opacity="0.501961" points="117,159 63,149 88,137" />
<polygon fill="#829494" fill-opacity="0.501961" points="12,29 26,-16 44,-16" />
<polygon fill="#2b2e2f" fill-opacity="0.501961" points="142,38 153,49 150,40" />
<polygon fill="#dbd4bb" fill-opacity="0.501961" points="99,138 119,159 131,138" />
<polygon fill="#844e69" fill-opacity="0.501961" points="142,43 109,25 130,21" />
<polygon fill="#47493c" fill-opacity="0.501961" points="39,140 27,125 35,145" />
<polygon fill="#412c39" fill-opacity="0.501961" points="202,78 161,44 191,88" />
<polygon fill="#9da9c2" fill-opacity="0.501961" points="80,129 124,130 99,141" />
<polygon fill="#192624" fill-opacity="0.501961" points="147,53 144,76 127,55" />
<polygon fill="#2f232b" fill-opacity="0.501961" points="190,10 202,14 205,22" />
<polygon fill="#c871a9" fill-opacity="0.501961" points="28,61 13,91 77,44" />
<polygon fill="#302027" fill-opacity="0.501961" points="218,94 231,159 243,144" />
<polygon fill="#d68bbe" fill-opacity="0.501961" points="75,9 44,52 116,-5" />
<polygon fill="#5b3247" fill-opacity="0.501961" points="189,42 213,85 200,121" />
<polygon fill="#e79ed2" fill-opacity="0.501961" points="21,68 31,32 19,52" />
<polygon fill="#50527c" fill-opacity="0.501961" points="251,147 253,67 271,133" />
<polygon fill="#184b3f" fill-opacity="0.501961" points="84,124 102,117 99,123" />
<polygon fill="#35bf7e" fill-opacity="0.501961" points="141,77 139,80 135,75" />
<polygon fill="#7f897b" fill-opacity="0.501961" points="218,-16 230,8 193,-15" />
<polygon fill="#844588" fill-opacity="0.501961" points="16,58 18,40 26,33" />
<polygon fill="#9f5781" fill-opacity="0.501961" points="58,91 37,80 56,66" />
<polygon fill="#cabfa7" fill-opacity="0.501961" points="177,128 183,97 151,117" />
<polygon fill="#d7a8cb" fill-opacity="0.501961" points="15,51 11,56 14,44" />
<polygon fill="#80634e" fill-opacity="0.501961" points="197,122 200,138 215,149" />
<polygon fill="#71435d" fill-opacity="0.501961" points="183,14 201,-14 140,-16" />
<polygon fill="#96a7c4" fill-opacity="0.501961" points="192,130 136,129 160,139" />
<polygon fill="#b9c3bd" fill-opacity="0.501961" points="71,122 74,121 74,119" />
<polygon fill="#c35aac" fill-opacity="0.501961" points="251,5 243,-6 260,-14" />
<polygon fill="#3a4075" fill-opacity="0.501961" points="194,138 184,159 231,159" />
<polygon fill="#d6cbb9" fill-opacity="0.501961" points="121,80 142,127 101,111" />
<polygon fill="#e299cc" fill-opacity="0.501961" points="42,37 19,53 14,75" />
<polygon fill="#7d4364" fill-opacity="0.501961" points="96,76 111,77 90,51" />
<polygon fill="#3d3437" fill-opacity="0.501961" points="113,69 119,72 120,82" />
<polygon fill="#784c61" fill-opacity="0.501961" points="120,71 97,55 117,41" />
<polygon fill="#57374c" fill-opacity="0.501961" points="51,99 71,135 68,116" />
<polygon fill="#8f4870" fill-opacity="0.501961" points="57,109 43,84 39,101" />
<polygon fill="#663953" fill-opacity="0.501961" points="163,39 182,48 188,75" />
<polygon fill="#dd98c5" fill-opacity="0.501961" points="40,86 37,86 39,92" />
<polygon fill="#98a7c2" fill-opacity="0.501961" points="66,138 95,137 61,129" />
<polygon fill="#9194a2" fill-opacity="0.501961" points="126,85 125,73 121,75" />
<polygon fill="#d5cab8" fill-opacity="0.501961" points="145,128 175,78 96,104" />
<polygon fill="#876d89" fill-opacity="0.501961" points="10,74 14,68 13,86" />
<polygon fill="#cdcfd7" fill-opacity="0.501961" points="145,46 149,46 153,56" />
<polygon fill="#a48871" fill-opacity="0.501961" points="131,42 116,35 133,50" />
<polygon fill="#6b3f57" fill-opacity="0.501961" points="173,33 128,44 155,8" />
<polygon fill="#4c3441" fill-opacity="0.501961" points="130,36 133,44 112,31" />
<polygon fill="#6a727e" fill-opacity="0.501961" points="-9,78 13,110 6,90" />
<polygon fill="#c276a5" fill-opacity="0.501961" points="50,82 54,72 47,80" />
<polygon fill="#753e5c" fill-opacity="0.501961" points="21,128 65,117 50,98" />
<polygon fill="#3f2a37" fill-opacity="0.501961" points="200,72 186,48 189,81" />
<polygon fill="#4b3240" fill-opacity="0.501961" points="153,35 159,47 142,32" />
<polygon fill="#b96c9c" fill-opacity="0.501961" points="108,24 115,17 103,8" />
<polygon fill="#bfc6c2" fill-opacity="0.501961" points="7,91 11,73 14,93" />
<polygon fill="#b2bfce" fill-opacity="0.501961" points="61,130 68,139 67,132" />
<polygon fill="#61374e" fill-opacity="0.501961" points="245,29 190,9 217,2" />
<polygon fill="#9c649d" fill-opacity="0.501961" points="28,18 37,14 39,6" />
<polygon fill="#151a19" fill-opacity="0.501961" points="147,52 130,76 125,64" />
<polygon fill="#d3c7b6" fill-opacity="0.501961" points="142,103 163,54 181,83" />
<polygon fill="#bbbab7" fill-opacity="0.501961" points="71,133 73,127 84,128" />
<polygon fill="#1e7759" fill-opacity="0.501961" points="102,120 105,116 98,112" />
<polygon fill="#aaa8b6" fill-opacity="0.501961" points="-14,61 -7,49 15,49" />
<polygon fill="#844368" fill-opacity="0.501961" points="55,95 57,71 69,102" />
<polygon fill="#7ca761" fill-opacity="0.501961" points="35,137 52,159 43,159" />
<polygon fill="#b3ebd0" fill-opacity="0.501961" points="153,64 153,72 147,78" />
<polygon fill="#353455" fill-opacity="0.501961" points="223,98 236,131 249,100" />
<polygon fill="#523546" fill-opacity="0.501961" points="101,80 103,90 83,70" />
<polygon fill="#4a293a" fill-opacity="0.501961" points="238,156 195,116 222,110" />
<polygon fill="#1a2224" fill-opacity="0.501961" points="148,-6 157,-7 170,14" />
<polygon fill="#382936" fill-opacity="0.501961" points="77,159 40,159 66,137" />
<polygon fill="#5f384e" fill-opacity="0.501961" points="185,17 204,20 217,34" />
<polygon fill="#61374f" fill-opacity="0.501961" points="80,108 73,113 64,85" />
<polygon fill="#b86b9c" fill-opacity="0.501961" points="71,47 97,16 80,53" />
<polygon fill="#97a7c2" fill-opacity="0.501961" points="104,138 124,128 161,138" />
<polygon fill="#d8d0b9" fill-opacity="0.501961" points="164,65 153,47 165,58" />
<polygon fill="#d9d3d4" fill-opacity="0.501961" points="122,87 148,83 127,78" />
<polygon fill="#5a354a" fill-opacity="0.501961" points="53,98 67,115 61,131" />
<polygon fill="#aca9ad" fill-opacity="0.501961" points="1,98 12,119 -16,140" />
<polygon fill="#6bc39d" fill-opacity="0.501961" points="146,74 147,80 144,79" />
<polygon fill="#885087" fill-opacity="0.501961" points="11,70 17,59 14,51" />
<polygon fill="#301f20" fill-opacity="0.501961" points="224,104 214,92 213,76" />
<polygon fill="#5c6090" fill-opacity="0.501961" points="270,46 254,46 249,73" />
<polygon fill="#5c4362" fill-opacity="0.501961" points="79,133 90,159 79,154" />
<polygon fill="#e6a9d6" fill-opacity="0.501961" points="29,32 55,7 66,21" />
<polygon fill="#764d5d" fill-opacity="0.501961" points="145,41 128,38 124,19" />
<polygon fill="#be9d7a" fill-opacity="0.501961" points="77,94 79,99 73,94" />
<polygon fill="#728b87" fill-opacity="0.501961" points="31,159 20,133 41,159" />
<polygon fill="#36262f" fill-opacity="0.501961" points="197,17 217,33 255,31" />
<polygon fill="#9b8068" fill-opacity="0.501961" points="189,107 182,129 190,128" />
<polygon fill="#bd7ab3" fill-opacity="0.501961" points="250,8 271,26 271,43" />
<polygon fill="#a9bbbb" fill-opacity="0.501961" points="89,112 85,110 91,110" />
<polygon fill="#d3c9b6" fill-opacity="0.501961" points="176,74 160,73 153,43" />
<polygon fill="#d5cbb8" fill-opacity="0.501961" points="131,125 117,83 109,110" />
<polygon fill="#e29acb" fill-opacity="0.501961" points="22,53 69,26 91,-16" />
<polygon fill="#d0d7dd" fill-opacity="0.501961" points="189,129 187,131 190,136" />
<polygon fill="#d684ba" fill-opacity="0.501961" points="49,45 16,66 14,90" />
<polygon fill="#613950" fill-opacity="0.501961" points="164,42 156,46 147,31" />
<polygon fill="#91a0bc" fill-opacity="0.501961" points="170,136 175,129 187,138" />
<polygon fill="#7b4b67" fill-opacity="0.501961" points="103,26 97,20 113,25" />
<polygon fill="#171716" fill-opacity="0.501961" points="87,122 86,109 78,118" />
<polygon fill="#ced3d6" fill-opacity="0.501961" points="171,140 170,129 168,134" />
<polygon fill="#342f35" fill-opacity="0.501961" points="97,108 100,112 90,108" />
<polygon fill="#717a8d" fill-opacity="0.501961" points="8,55 -13,54 -16,71" />
<polygon fill="#95a5bf" fill-opacity="0.501961" points="71,138 68,129 60,138" />
<polygon fill="#335e52" fill-opacity="0.501961" points="86,123 96,121 91,125" />
<polygon fill="#694154" fill-opacity="0.501961" points="130,50 119,39 115,79" />
<polygon fill="#6d3c56" fill-opacity="0.501961" points="82,86 102,100 104,75" />
<polygon fill="#8d4c70" fill-opacity="0.501961" points="89,52 99,63 53,84" />
<polygon fill="#b1cbc6" fill-opacity="0.501961" points="100,124 112,119 107,129" />
<polygon fill="#a15581" fill-opacity="0.501961" points="62,75 88,52 76,51" />
<polygon fill="#5a3348" fill-opacity="0.501961" points="195,69 202,63 216,95" />
<polygon fill="#d0cccd" fill-opacity="0.501961" points="95,129 77,118 83,128" />
<polygon fill="#1d5548" fill-opacity="0.501961" points="152,59 148,57 144,61" />
<polygon fill="#d6cebd" fill-opacity="0.501961" points="104,98 102,112 119,127" />
<polygon fill="#b76b9b" fill-opacity="0.501961" points="100,12 97,35 88,36" />
<polygon fill="#a68474" fill-opacity="0.501961" points="72,93 61,82 70,86" />
<polygon fill="#513c45" fill-opacity="0.501961" points="117,78 115,67 97,58" />
<polygon fill="#a8ab96" fill-opacity="0.501961" points="151,45 155,46 151,43" />
<polygon fill="#6a3854" fill-opacity="0.501961" points="69,159 37,137 52,130" />
<polygon fill="#6d706f" fill-opacity="0.501961" points="8,47 13,42 -6,39" />
<polygon fill="#824885" fill-opacity="0.501961" points="19,50 20,41 13,52" />
<polygon fill="#372732" fill-opacity="0.501961" points="183,16 229,43 193,34" />
<polygon fill="#c770a6" fill-opacity="0.501961" points="14,80 14,101 23,81" />
<polygon fill="#2f2e4c" fill-opacity="0.501961" points="231,119 248,149 253,106" />
<polygon fill="#25292b" fill-opacity="0.501961" points="74,114 68,117 68,120" />
<polygon fill="#909fa1" fill-opacity="0.501961" points="24,14 -7,-2 12,39" />
<polygon fill="#3f2d36" fill-opacity="0.501961" points="165,44 162,52 180,67" />
<polygon fill="#5f384f" fill-opacity="0.501961" points="211,15 228,10 191,-16" />
<polygon fill="#392731" fill-opacity="0.501961" points="194,99 183,77 190,77" />
<polygon fill="#c27da8" fill-opacity="0.501961" points="24,105 22,99 27,102" />
<polygon fill="#71435b" fill-opacity="0.501961" points="80,85 79,97 67,83" />
<polygon fill="#9f5680" fill-opacity="0.501961" points="115,17 109,24 124,29" />
<polygon fill="#574148" fill-opacity="0.501961" points="128,58 111,40 129,51" />
<polygon fill="#a19c9b" fill-opacity="0.501961" points="83,129 71,120 79,119" />
<polygon fill="#ecaedd" fill-opacity="0.501961" points="25,14 19,32 29,17" />
<polygon fill="#23282a" fill-opacity="0.501961" points="123,67 129,65 120,73" />
<polygon fill="#824366" fill-opacity="0.501961" points="50,100 19,127 20,112" />
<polygon fill="#9d9f99" fill-opacity="0.501961" points="225,6 207,-16 194,-16" />
<polygon fill="#6e3d58" fill-opacity="0.501961" points="79,138 84,146 63,138" />
<polygon fill="#532f41" fill-opacity="0.501961" points="241,22 268,15 271,41" />
<polygon fill="#d3cfd4" fill-opacity="0.501961" points="127,89 146,86 143,79" />
<polygon fill="#c9d2d6" fill-opacity="0.501961" points="163,133 158,130 162,135" />
<polygon fill="#4f3745" fill-opacity="0.501961" points="134,26 146,37 147,32" />
<polygon fill="#928b7c" fill-opacity="0.501961" points="176,15 173,15 176,22" />
<polygon fill="#2f2a30" fill-opacity="0.501961" points="169,17 176,16 171,9" />
<polygon fill="#192f2d" fill-opacity="0.501961" points="133,72 139,59 150,69" />
<polygon fill="#673f53" fill-opacity="0.501961" points="94,106 82,98 88,105" />
<polygon fill="#573045" fill-opacity="0.501961" points="192,76 195,113 211,110" />
<polygon fill="#955378" fill-opacity="0.501961" points="117,17 131,21 142,-7" />
<polygon fill="#693b56" fill-opacity="0.501961" points="54,129 49,88 63,121" />
<polygon fill="#784562" fill-opacity="0.501961" points="132,21 153,3 153,36" />
<polygon fill="#aeb6b7" fill-opacity="0.501961" points="4,89 15,107 11,93" />
<polygon fill="#122420" fill-opacity="0.501961" points="97,123 91,109 97,111" />
<polygon fill="#e2dae2" fill-opacity="0.501961" points="255,3 257,19 271,5" />
<polygon fill="#d5ccb7" fill-opacity="0.501961" points="120,80 127,104 143,94" />
<polygon fill="#45aa7e" fill-opacity="0.501961" points="149,59 155,64 151,65" />
<polygon fill="#9f9aa2" fill-opacity="0.501961" points="-16,135 -2,111 16,154" />
<polygon fill="#47313b" fill-opacity="0.501961" points="123,37 137,49 138,44" />
<polygon fill="#8e5e94" fill-opacity="0.501961" points="78,-11 32,22 53,-16" />
<polygon fill="#cfc5b1" fill-opacity="0.501961" points="168,60 159,51 168,72" />
<polygon fill="#83496c" fill-opacity="0.501961" points="59,92 44,85 40,76" />
<polygon fill="#343252" fill-opacity="0.501961" points="247,60 252,109 236,121" />
<polygon fill="#3e3238" fill-opacity="0.501961" points="65,127 72,129 70,118" />
<polygon fill="#5b374c" fill-opacity="0.501961" points="81,104 75,116 65,106" />
<polygon fill="#494b6e" fill-opacity="0.501961" points="245,159 252,132 271,159" />
<polygon fill="#b79570" fill-opacity="0.501961" points="83,104 76,98 81,100" />
<polygon fill="#b89e7d" fill-opacity="0.501961" points="125,42 132,49 134,46" />
<polygon fill="#413a41" fill-opacity="0.501961" points="147,42 149,30 154,52" />
<polygon fill="#643952" fill-opacity="0.501961" points="192,62 141,30 171,34" />
<polygon fill="#a2a7b8" fill-opacity="0.501961" points="208,-16 246,15 234,-16" />
<polygon fill="#ada292" fill-opacity="0.501961" points="151,157 176,136 164,154" />
<polygon fill="#968e9f" fill-opacity="0.501961" points="11,104 17,111 15,113" />
<polygon fill="#2d1f25" fill-opacity="0.501961" points="85,139 87,152 102,145" />
<polygon fill="#99527c" fill-opacity="0.501961" points="81,44 88,50 109,30" />
<polygon fill="#93acac" fill-opacity="0.501961" points="-16,54 17,-11 -16,-1" />
<polygon fill="#cec2ab" fill-opacity="0.501961" points="90,105 86,108 84,105" />
<polygon fill="#915c94" fill-opacity="0.501961" points="35,12 21,30 35,25" />
<polygon fill="#ca7baf" fill-opacity="0.501961" points="83,14 72,37 103,9" />
<polygon fill="#2c2028" fill-opacity="0.501961" points="271,33 239,30 229,63" />
<polygon fill="#834b6b" fill-opacity="0.501961" points="148,-1 116,28 126,36" />
<polygon fill="#d6ccb9" fill-opacity="0.501961" points="131,110 94,107 116,92" />
<polygon fill="#221a1e" fill-opacity="0.501961" points="233,127 238,145 250,152" />
<polygon fill="#bbc2d1" fill-opacity="0.501961" points="72,139 74,128 77,133" />
<polygon fill="#342b38" fill-opacity="0.501961" points="145,50 138,45 133,46" />
<polygon fill="#d6c9b1" fill-opacity="0.501961" points="114,140 97,138 110,147" />
<polygon fill="#da97c1" fill-opacity="0.501961" points="18,100 19,110 14,103" />
<polygon fill="#53557f" fill-opacity="0.501961" points="270,94 249,65 256,120" />
<polygon fill="#2e1d24" fill-opacity="0.501961" points="190,139 205,159 175,140" />
<polygon fill="#76415d" fill-opacity="0.501961" points="60,104 69,97 62,80" />
<polygon fill="#d0c7b5" fill-opacity="0.501961" points="162,150 107,141 137,138" />
<polygon fill="#42406f" fill-opacity="0.501961" points="221,85 215,73 237,62" />
<polygon fill="#d9ceb3" fill-opacity="0.501961" points="127,134 133,148 139,148" />
<polygon fill="#6e6b6a" fill-opacity="0.501961" points="154,54 154,55 156,53" />
<polygon fill="#3f2532" fill-opacity="0.501961" points="249,159 209,135 228,125" />
<polygon fill="#a1a0a7" fill-opacity="0.501961" points="155,69 150,81 158,72" />
<polygon fill="#d0c7b8" fill-opacity="0.501961" points="132,99 153,93 154,76" />
<polygon fill="#7d4b64" fill-opacity="0.501961" points="110,50 114,66 88,49" />
<polygon fill="#cdcfd3" fill-opacity="0.501961" points="152,53 157,67 157,59" />
<polygon fill="#9b9aa0" fill-opacity="0.501961" points="146,47 149,48 148,45" />
<polygon fill="#372631" fill-opacity="0.501961" points="212,70 217,51 185,34" />
<polygon fill="#655a78" fill-opacity="0.501961" points="68,140 76,137 69,137" />
<polygon fill="#8594aa" fill-opacity="0.501961" points="244,13 252,17 239,-5" />
<polygon fill="#7f6b63" fill-opacity="0.501961" points="194,128 199,135 197,139" />
<polygon fill="#73455d" fill-opacity="0.501961" points="127,36 137,45 132,17" />
<polygon fill="#744661" fill-opacity="0.501961" points="116,48 104,36 122,41" />
<polygon fill="#512b42" fill-opacity="0.501961" points="29,130 48,159 33,148" />
<polygon fill="#162624" fill-opacity="0.501961" points="101,121 99,113 80,119" />
<polygon fill="#a6b5cb" fill-opacity="0.501961" points="61,137 69,132 61,131" />
<polygon fill="#a15984" fill-opacity="0.501961" points="23,109 21,93 16,97" />
<polygon fill="#30222a" fill-opacity="0.501961" points="57,133 60,138 57,138" />
<polygon fill="#378d6b" fill-opacity="0.501961" points="135,74 139,75 135,79" />
<polygon fill="#babbbe" fill-opacity="0.501961" points="-9,60 14,100 9,62" />
</g>
</svg>