<svg xmlns="http://www.w3.org/2000/svg" version="1.1" width="1024" height="576">
<rect x="0" y="0" width="1024" height="576" fill="#75878e" />
<g transform="scale(4.000000) translate(0.5 0.5)">
<polygon fill="#3a2800" fill-opacity="0.501961" points="254,159 59,116 261,58" />
<polygon fill="#c1f2ff" fill-opacity="0.501961" points="271,-10 249,63 0,61" />
<polygon fill="#0077ff" fill-opacity="0.501961" points="-16,59 13,-16 70,41" />
<polygon fill="#f2c0ab" fill-opacity="0.501961" points="147,15 160,126 55,17" />
<polygon fill="#006cf2" fill-opacity="0.501961" points="65,-16 199,43 216,-16" />
<polygon fill="#ffffff" fill-opacity="0.501961" points="-16,61 56,100 -16,102" />
<polygon fill="#654f46" fill-opacity="0.501961" points="-9,159 186,159 96,54" />
<polygon fill="#090000" fill-opacity="0.501961" points="205,100 255,134 165,146" />
<polygon fill="#50a84b" fill-opacity="0.501961" points="266,55 212,53 226,128" />
<polygon fill="#ded2b1" fill-opacity="0.501961" points="39,61 111,38 19,131" />
<polygon fill="#ebffff" fill-opacity="0.501961" points="184,75 271,25 222,4" />
<polygon fill="#aeacba" fill-opacity="0.501961" points="183,134 88,139 125,113" />
<polygon fill="#462f47" fill-opacity="0.501961" points="184,55 182,151 148,46" />
<polygon fill="#bcffff" fill-opacity="0.501961" points="2,44 28,63 -16,82" />
<polygon fill="#000000" fill-opacity="0.501961" points="32,59 36,76 9,78" />
<polygon fill="#f5ffff" fill-opacity="0.501961" points="155,43 109,61 110,88" />
<polygon fill="#1f204a" fill-opacity="0.501961" points="96,41 99,-16 77,12" />
<polygon fill="#287ae5" fill-opacity="0.501961" points="41,70 -16,3 65,-16" />
<polygon fill="#0d0000" fill-opacity="0.501961" points="49,83 60,108 72,95" />
<polygon fill="#426c25" fill-opacity="0.501961" points="-16,159 169,159 -16,109" />
<polygon fill="#aa967e" fill-opacity="0.501961" points="159,52 153,-4 118,44" />
<polygon fill="#2f9aea" fill-opacity="0.501961" points="216,32 182,7 153,60" />
<polygon fill="#301c4c" fill-opacity="0.501961" points="82,50 101,132 129,103" />
<polygon fill="#adebff" fill-opacity="0.501961" points="39,49 34,89 59,82" />
<polygon fill="#417640" fill-opacity="0.501961" points="172,111 271,47 207,62" />
<polygon fill="#ffebdb" fill-opacity="0.501961" points="133,88 155,74 139,116" />
<polygon fill="#722e2f" fill-opacity="0.501961" points="111,103 226,102 133,128" />
<polygon fill="#6f3968" fill-opacity="0.501961" points="159,67 135,65 111,102" />
<polygon fill="#f4e3b4" fill-opacity="0.501961" points="59,19 78,11 87,59" />
<polygon fill="#0d51c6" fill-opacity="0.501961" points="116,-16 67,9 142,10" />
<polygon fill="#d2fcf6" fill-opacity="0.501961" points="266,58 192,16 271,8" />
<polygon fill="#74b275" fill-opacity="0.501961" points="232,105 271,32 209,92" />
<polygon fill="#af9d81" fill-opacity="0.501961" points="101,53 45,38 67,97" />
<polygon fill="#2296fa" fill-opacity="0.501961" points="227,-16 183,6 271,7" />
<polygon fill="#d9ffff" fill-opacity="0.501961" points="-16,119 -16,47 24,90" />
<polygon fill="#f4ffff" fill-opacity="0.501961" points="181,66 216,54 192,75" />
<polygon fill="#546264" fill-opacity="0.501961" points="143,33 122,56 127,29" />
<polygon fill="#eae5d9" fill-opacity="0.501961" points="122,79 158,29 146,12" />
<polygon fill="#fbffff" fill-opacity="0.501961" points="99,29 118,51 87,59" />
<polygon fill="#321d14" fill-opacity="0.501961" points="115,159 189,138 41,139" />
<polygon fill="#221a15" fill-opacity="0.501961" points="212,124 160,100 159,129" />
<polygon fill="#afb3ff" fill-opacity="0.501961" points="57,-1 46,21 94,-13" />
<polygon fill="#a5c2d9" fill-opacity="0.501961" points="85,140 70,127 126,133" />
<polygon fill="#71a05c" fill-opacity="0.501961" points="81,98 80,133 -16,138" />
<polygon fill="#b9bcaf" fill-opacity="0.501961" points="137,132 123,115 103,159" />
<polygon fill="#625277" fill-opacity="0.501961" points="61,76 132,98 66,100" />
<polygon fill="#2368c4" fill-opacity="0.501961" points="70,63 48,-1 13,-16" />
<polygon fill="#cbb783" fill-opacity="0.501961" points="94,13 156,41 121,9" />
<polygon fill="#8a5027" fill-opacity="0.501961" points="80,32 87,14 98,44" />
<polygon fill="#271714" fill-opacity="0.501961" points="131,94 78,129 112,126" />
<polygon fill="#e4e1d8" fill-opacity="0.501961" points="54,101 48,78 24,118" />
<polygon fill="#2f8ce5" fill-opacity="0.501961" points="57,62 -3,49 -16,8" />
<polygon fill="#5fc5fa" fill-opacity="0.501961" points="171,45 206,32 190,65" />
<polygon fill="#376337" fill-opacity="0.501961" points="212,56 245,89 196,83" />
<polygon fill="#9d2946" fill-opacity="0.501961" points="131,96 117,109 117,75" />
<polygon fill="#9194ae" fill-opacity="0.501961" points="151,35 131,77 171,51" />
<polygon fill="#913d09" fill-opacity="0.501961" points="210,93 183,107 227,111" />
<polygon fill="#98e784" fill-opacity="0.501961" points="245,114 248,124 271,108" />
<polygon fill="#141615" fill-opacity="0.501961" points="161,159 189,117 259,106" />
<polygon fill="#5f6176" fill-opacity="0.501961" points="171,117 200,86 161,52" />
<polygon fill="#210f16" fill-opacity="0.501961" points="169,102 162,68 156,79" />
<polygon fill="#1a1616" fill-opacity="0.501961" points="78,107 55,83 54,97" />
<polygon fill="#404577" fill-opacity="0.501961" points="110,61 92,108 84,61" />
<polygon fill="#fff4bc" fill-opacity="0.501961" points="168,30 157,55 159,25" />
<polygon fill="#538855" fill-opacity="0.501961" points="22,105 -16,106 31,139" />
<polygon fill="#96b1d3" fill-opacity="0.501961" points="142,136 179,137 170,129" />
<polygon fill="#403b20" fill-opacity="0.501961" points="90,87 83,95 59,77" />
<polygon fill="#8b6f61" fill-opacity="0.501961" points="40,104 25,103 27,82" />
<polygon fill="#6c5132" fill-opacity="0.501961" points="160,37 150,52 151,34" />
<polygon fill="#da9293" fill-opacity="0.501961" points="160,92 154,68 138,118" />
<polygon fill="#fdfff5" fill-opacity="0.501961" points="53,69 38,72 35,59" />
<polygon fill="#12040f" fill-opacity="0.501961" points="12,70 37,65 16,80" />
<polygon fill="#a5edfb" fill-opacity="0.501961" points="-16,56 30,50 -7,91" />
<polygon fill="#f0c990" fill-opacity="0.501961" points="45,43 55,41 58,67" />
<polygon fill="#ae3456" fill-opacity="0.501961" points="94,107 84,101 78,134" />
<polygon fill="#b2ecef" fill-opacity="0.501961" points="225,52 265,50 204,7" />
<polygon fill="#287ed7" fill-opacity="0.501961" points="168,46 227,-16 166,-5" />
<polygon fill="#3d4550" fill-opacity="0.501961" points="56,69 44,73 38,81" />
<polygon fill="#3e7144" fill-opacity="0.501961" points="219,137 271,73 237,86" />
<polygon fill="#ebfffa" fill-opacity="0.501961" points="203,68 189,75 183,59" />
<polygon fill="#443136" fill-opacity="0.501961" points="89,23 95,10 71,8" />
<polygon fill="#5f584f" fill-opacity="0.501961" points="140,27 144,35 117,37" />
<polygon fill="#b97757" fill-opacity="0.501961" points="54,99 25,122 62,107" />
<polygon fill="#c4e4eb" fill-opacity="0.501961" points="19,100 47,92 62,65" />
<polygon fill="#d1faf8" fill-opacity="0.501961" points="-16,112 22,78 22,98" />
<polygon fill="#9de691" fill-opacity="0.501961" points="212,89 235,87 216,98" />
<polygon fill="#423527" fill-opacity="0.501961" points="271,154 254,127 192,140" />
<polygon fill="#cfc28d" fill-opacity="0.501961" points="128,41 95,8 121,56" />
<polygon fill="#dce7f7" fill-opacity="0.501961" points="132,46 153,50 137,35" />
<polygon fill="#676eaf" fill-opacity="0.501961" points="88,103 73,95 117,93" />
<polygon fill="#2d8de0" fill-opacity="0.501961" points="30,61 45,30 48,60" />
<polygon fill="#794245" fill-opacity="0.501961" points="152,104 152,131 125,127" />
<polygon fill="#3d3b65" fill-opacity="0.501961" points="157,11 145,6 154,23" />
<polygon fill="#fde3c8" fill-opacity="0.501961" points="27,121 23,107 44,101" />
<polygon fill="#e1d4bc" fill-opacity="0.501961" points="73,10 59,22 78,46" />
<polygon fill="#cbb888" fill-opacity="0.501961" points="86,90 70,24 67,70" />
<polygon fill="#1b88f1" fill-opacity="0.501961" points="58,44 67,36 66,60" />
<polygon fill="#8578a5" fill-opacity="0.501961" points="53,27 48,13 78,4" />
<polygon fill="#def1ec" fill-opacity="0.501961" points="239,3 201,14 271,36" />
<polygon fill="#86c57d" fill-opacity="0.501961" points="271,67 250,79 227,68" />
<polygon fill="#5dbce7" fill-opacity="0.501961" points="227,34 195,14 204,35" />
<polygon fill="#a6baff" fill-opacity="0.501961" points="140,69 137,61 159,57" />
<polygon fill="#2168c2" fill-opacity="0.501961" points="53,-2 -16,18 45,34" />
<polygon fill="#e2e7ec" fill-opacity="0.501961" points="116,84 151,46 110,63" />
<polygon fill="#211a1e" fill-opacity="0.501961" points="113,148 112,138 79,138" />
<polygon fill="#caf2f1" fill-opacity="0.501961" points="210,63 221,32 191,49" />
<polygon fill="#cea891" fill-opacity="0.501961" points="158,2 159,11 147,8" />
<polygon fill="#69abe4" fill-opacity="0.501961" points="10,9 -16,-13 29,4" />
<polygon fill="#435262" fill-opacity="0.501961" points="125,54 132,49 133,34" />
<polygon fill="#a89677" fill-opacity="0.501961" points="117,132 147,102 115,118" />
<polygon fill="#797384" fill-opacity="0.501961" points="150,52 196,96 177,48" />
<polygon fill="#29346a" fill-opacity="0.501961" points="58,24 70,37 55,31" />
<polygon fill="#1860c1" fill-opacity="0.501961" points="95,10 164,2 67,-16" />
<polygon fill="#9395b6" fill-opacity="0.501961" points="79,92 60,91 57,77" />
<polygon fill="#dc496a" fill-opacity="0.501961" points="121,103 114,91 121,86" />
<polygon fill="#4da9e9" fill-opacity="0.501961" points="163,44 202,62 185,25" />
<polygon fill="#434233" fill-opacity="0.501961" points="25,159 83,148 56,123" />
<polygon fill="#c4b38c" fill-opacity="0.501961" points="47,47 87,74 53,72" />
<polygon fill="#f2f5db" fill-opacity="0.501961" points="133,100 157,84 136,85" />
<polygon fill="#d2c8a0" fill-opacity="0.501961" points="112,8 138,28 115,36" />
<polygon fill="#1e1710" fill-opacity="0.501961" points="206,135 181,120 175,138" />
<polygon fill="#41131e" fill-opacity="0.501961" points="123,94 124,83 137,107" />
<polygon fill="#54505c" fill-opacity="0.501961" points="161,55 167,66 141,77" />
<polygon fill="#cd4f7e" fill-opacity="0.501961" points="158,104 149,122 155,126" />
<polygon fill="#362d2f" fill-opacity="0.501961" points="110,129 118,92 79,127" />
<polygon fill="#efecd2" fill-opacity="0.501961" points="89,39 106,61 87,56" />
<polygon fill="#568c47" fill-opacity="0.501961" points="220,55 236,53 226,77" />
<polygon fill="#241f2a" fill-opacity="0.501961" points="63,94 52,86 56,81" />
<polygon fill="#663810" fill-opacity="0.501961" points="190,117 205,87 161,132" />
<polygon fill="#40a9eb" fill-opacity="0.501961" points="-13,66 14,67 -16,46" />
<polygon fill="#8abc7e" fill-opacity="0.501961" points="38,129 64,106 71,113" />
<polygon fill="#abbeda" fill-opacity="0.501961" points="127,126 110,136 139,137" />
<polygon fill="#2c3c25" fill-opacity="0.501961" points="230,118 221,159 256,92" />
<polygon fill="#3f3c4f" fill-opacity="0.501961" points="76,72 117,88 89,89" />
<polygon fill="#ae4268" fill-opacity="0.501961" points="151,121 135,102 129,111" />
<polygon fill="#eeedef" fill-opacity="0.501961" points="113,59 125,83 131,61" />
<polygon fill="#bef4f0" fill-opacity="0.501961" points="32,59 -8,48 18,66" />
<polygon fill="#1b6cca" fill-opacity="0.501961" points="152,19 166,28 186,-16" />
<polygon fill="#ebe0bf" fill-opacity="0.501961" points="70,12 78,37 84,23" />
<polygon fill="#6dccef" fill-opacity="0.501961" points="240,-1 207,9 269,10" />
<polygon fill="#0d101a" fill-opacity="0.501961" points="167,93 160,91 161,118" />
<polygon fill="#9bacc9" fill-opacity="0.501961" points="77,129 118,130 85,138" />
<polygon fill="#6f544b" fill-opacity="0.501961" points="37,97 30,89 24,91" />
<polygon fill="#a9b7ea" fill-opacity="0.501961" points="55,17 74,-16 50,8" />
<polygon fill="#1e5fb9" fill-opacity="0.501961" points="149,-7 140,17 88,-5" />
<polygon fill="#8893a8" fill-opacity="0.501961" points="155,123 148,137 171,137" />
<polygon fill="#cfcab3" fill-opacity="0.501961" points="159,97 156,104 147,94" />
<polygon fill="#ebeff5" fill-opacity="0.501961" points="85,38 90,50 122,54" />
<polygon fill="#f3e1b2" fill-opacity="0.501961" points="166,38 136,28 157,24" />
<polygon fill="#e5f8f2" fill-opacity="0.501961" points="49,63 36,65 43,76" />
<polygon fill="#3a8fe1" fill-opacity="0.501961" points="5,42 32,61 49,37" />
<polygon fill="#080010" fill-opacity="0.501961" points="26,101 34,102 27,104" />
<polygon fill="#6c74ad" fill-opacity="0.501961" points="94,62 88,71 105,67" />
<polygon fill="#f8debd" fill-opacity="0.501961" points="146,3 149,7 157,6" />
<polygon fill="#570d24" fill-opacity="0.501961" points="94,37 86,34 94,41" />
<polygon fill="#a1dbe4" fill-opacity="0.501961" points="205,65 218,51 188,49" />
<polygon fill="#464351" fill-opacity="0.501961" points="191,94 163,120 169,88" />
<polygon fill="#dae6fd" fill-opacity="0.501961" points="174,130 175,138 169,134" />
<polygon fill="#292018" fill-opacity="0.501961" points="4,159 29,130 18,159" />
<polygon fill="#cdedec" fill-opacity="0.501961" points="197,37 244,54 256,32" />
<polygon fill="#494477" fill-opacity="0.501961" points="149,51 141,60 158,51" />
<polygon fill="#35313e" fill-opacity="0.501961" points="94,21 97,10 77,7" />
<polygon fill="#f7f9fd" fill-opacity="0.501961" points="149,15 149,20 141,16" />
<polygon fill="#436544" fill-opacity="0.501961" points="248,51 271,51 248,64" />
<polygon fill="#121315" fill-opacity="0.501961" points="162,116 165,135 167,120" />
<polygon fill="#80ad70" fill-opacity="0.501961" points="56,120 19,120 46,132" />
<polygon fill="#271620" fill-opacity="0.501961" points="30,62 36,65 25,80" />
<polygon fill="#7d6e85" fill-opacity="0.501961" points="112,99 119,70 122,81" />
<polygon fill="#f8ebe9" fill-opacity="0.501961" points="226,16 254,29 271,8" />
<polygon fill="#228fff" fill-opacity="0.501961" points="130,37 131,43 136,35" />
<polygon fill="#111715" fill-opacity="0.501961" points="105,128 113,106 127,107" />
<polygon fill="#3f3e6b" fill-opacity="0.501961" points="111,58 99,97 87,80" />
<polygon fill="#3f7642" fill-opacity="0.501961" points="193,93 225,54 210,94" />
<polygon fill="#5ea46c" fill-opacity="0.501961" points="198,75 187,76 197,97" />
<polygon fill="#8bf4ff" fill-opacity="0.501961" points="157,55 162,47 168,46" />
<polygon fill="#34562b" fill-opacity="0.501961" points="220,62 197,84 204,64" />
<polygon fill="#9d754a" fill-opacity="0.501961" points="94,31 85,35 82,13" />
<polygon fill="#56754d" fill-opacity="0.501961" points="59,139 74,116 41,116" />
<polygon fill="#333431" fill-opacity="0.501961" points="189,159 156,132 154,150" />
<polygon fill="#d2eeea" fill-opacity="0.501961" points="-16,72 3,99 25,81" />
<polygon fill="#d6c69c" fill-opacity="0.501961" points="73,61 86,78 79,27" />
<polygon fill="#faeed6" fill-opacity="0.501961" points="27,100 32,95 18,92" />
<polygon fill="#c7c2a7" fill-opacity="0.501961" points="137,105 144,107 131,94" />
<polygon fill="#a5ceab" fill-opacity="0.501961" points="7,116 -16,123 -16,107" />
<polygon fill="#b3e2f1" fill-opacity="0.501961" points="60,74 38,101 36,86" />
<polygon fill="#a5725c" fill-opacity="0.501961" points="137,26 145,20 127,13" />
<polygon fill="#c5ab98" fill-opacity="0.501961" points="33,80 38,99 26,86" />
<polygon fill="#297edb" fill-opacity="0.501961" points="230,3 249,-16 196,5" />
<polygon fill="#6c73ac" fill-opacity="0.501961" points="112,99 92,94 107,88" />
<polygon fill="#589a58" fill-opacity="0.501961" points="247,98 217,87 267,86" />
<polygon fill="#645028" fill-opacity="0.501961" points="87,59 88,69 82,56" />
<polygon fill="#abefec" fill-opacity="0.501961" points="225,8 202,11 200,25" />
<polygon fill="#a78c6f" fill-opacity="0.501961" points="88,45 89,53 72,47" />
<polygon fill="#765d48" fill-opacity="0.501961" points="110,15 110,30 114,28" />
<polygon fill="#826e49" fill-opacity="0.501961" points="72,91 78,107 63,91" />
<polygon fill="#7e6450" fill-opacity="0.501961" points="114,31 110,27 99,29" />
<polygon fill="#6d6fae" fill-opacity="0.501961" points="51,17 77,-5 86,5" />
<polygon fill="#2a2d56" fill-opacity="0.501961" points="113,95 93,77 109,77" />
<polygon fill="#3b3220" fill-opacity="0.501961" points="10,153 53,142 -13,141" />
<polygon fill="#615144" fill-opacity="0.501961" points="139,30 129,32 151,38" />
<polygon fill="#e9ece8" fill-opacity="0.501961" points="123,61 113,86 109,69" />
<polygon fill="#0f030d" fill-opacity="0.501961" points="30,88 32,85 33,86" />
<polygon fill="#605770" fill-opacity="0.501961" points="56,16 68,19 67,15" />
<polygon fill="#466a59" fill-opacity="0.501961" points="-2,132 17,101 24,108" />
<polygon fill="#c8e5e5" fill-opacity="0.501961" points="11,105 -6,105 32,83" />
<polygon fill="#2b76d3" fill-opacity="0.501961" points="15,32 1,-16 -16,66" />
<polygon fill="#cbbd98" fill-opacity="0.501961" points="118,45 131,19 123,11" />
<polygon fill="#514630" fill-opacity="0.501961" points="59,74 71,87 84,87" />
<polygon fill="#1f0800" fill-opacity="0.501961" points="131,159 120,139 135,151" />
<polygon fill="#346736" fill-opacity="0.501961" points="146,124 148,136 139,123" />
<polygon fill="#848ba5" fill-opacity="0.501961" points="147,47 151,33 152,61" />
<polygon fill="#943d4e" fill-opacity="0.501961" points="95,103 84,130 82,104" />
<polygon fill="#9fa0a6" fill-opacity="0.501961" points="105,59 93,53 111,56" />
<polygon fill="#99e0e5" fill-opacity="0.501961" points="226,37 237,27 204,20" />
<polygon fill="#607c52" fill-opacity="0.501961" points="82,102 69,103 79,140" />
<polygon fill="#2d85de" fill-opacity="0.501961" points="245,-16 251,10 265,-9" />
<polygon fill="#87314a" fill-opacity="0.501961" points="161,95 144,122 158,110" />
<polygon fill="#429be4" fill-opacity="0.501961" points="162,46 212,33 189,12" />
<polygon fill="#d6f0e8" fill-opacity="0.501961" points="209,56 190,76 187,60" />
<polygon fill="#5a6278" fill-opacity="0.501961" points="55,55 58,40 60,52" />
<polygon fill="#165bc0" fill-opacity="0.501961" points="36,-16 83,-16 36,13" />
<polygon fill="#1d1f25" fill-opacity="0.501961" points="15,69 18,80 11,76" />
<polygon fill="#e7deb7" fill-opacity="0.501961" points="85,55 103,60 89,45" />
<polygon fill="#a0add1" fill-opacity="0.501961" points="69,91 77,94 69,86" />
<polygon fill="#d9cea6" fill-opacity="0.501961" points="98,15 101,28 111,10" />
<polygon fill="#2a212b" fill-opacity="0.501961" points="35,63 25,66 34,79" />
<polygon fill="#175bbd" fill-opacity="0.501961" points="151,4 186,4 155,-16" />
<polygon fill="#2267c1" fill-opacity="0.501961" points="101,11 134,7 68,-8" />
<polygon fill="#6d573b" fill-opacity="0.501961" points="132,45 123,38 128,34" />
<polygon fill="#ce5086" fill-opacity="0.501961" points="154,70 148,76 161,88" />
<polygon fill="#ceeeea" fill-opacity="0.501961" points="-16,73 7,68 24,104" />
<polygon fill="#342e34" fill-opacity="0.501961" points="37,69 34,62 30,74" />
<polygon fill="#5d5c79" fill-opacity="0.501961" points="156,62 135,72 183,67" />
<polygon fill="#dfcea6" fill-opacity="0.501961" points="119,50 125,51 128,37" />
<polygon fill="#2f7fd2" fill-opacity="0.501961" points="34,35 72,34 58,41" />
<polygon fill="#459651" fill-opacity="0.501961" points="130,111 132,128 126,117" />
<polygon fill="#88cb7f" fill-opacity="0.501961" points="234,91 233,100 212,90" />
<polygon fill="#a9c3ce" fill-opacity="0.501961" points="167,47 154,61 142,61" />
<polygon fill="#431723" fill-opacity="0.501961" points="124,114 124,83 132,103" />
<polygon fill="#c0b38b" fill-opacity="0.501961" points="54,70 71,61 85,85" />
<polygon fill="#d6f1e6" fill-opacity="0.501961" points="200,75 192,72 194,61" />
<polygon fill="#8bc07f" fill-opacity="0.501961" points="53,122 44,130 33,128" />
<polygon fill="#88673f" fill-opacity="0.501961" points="155,55 150,56 156,43" />
<polygon fill="#9d9db9" fill-opacity="0.501961" points="134,137 139,139 144,129" />
<polygon fill="#d6cbb0" fill-opacity="0.501961" points="147,8 152,34 140,35" />
<polygon fill="#58578f" fill-opacity="0.501961" points="151,52 136,61 143,61" />
<polygon fill="#85451e" fill-opacity="0.501961" points="195,96 196,112 218,98" />
<polygon fill="#e7f2e9" fill-opacity="0.501961" points="189,51 237,38 210,36" />
<polygon fill="#4e573d" fill-opacity="0.501961" points="228,125 239,105 221,103" />
<polygon fill="#a97661" fill-opacity="0.501961" points="48,112 32,114 29,125" />
<polygon fill="#8182b1" fill-opacity="0.501961" points="129,86 133,72 134,102" />
<polygon fill="#292028" fill-opacity="0.501961" points="29,63 25,81 24,70" />
<polygon fill="#607b50" fill-opacity="0.501961" points="30,148 62,125 27,135" />
<polygon fill="#eeefd1" fill-opacity="0.501961" points="141,79 154,84 148,94" />
<polygon fill="#356f9e" fill-opacity="0.501961" points="38,83 34,78 43,77" />
<polygon fill="#67a15e" fill-opacity="0.501961" points="232,77 215,57 250,61" />
<polygon fill="#d1d5dd" fill-opacity="0.501961" points="148,39 134,37 129,59" />
<polygon fill="#a98b69" fill-opacity="0.501961" points="108,129 131,128 121,114" />
<polygon fill="#e8dac6" fill-opacity="0.501961" points="24,106 26,119 42,104" />
<polygon fill="#383032" fill-opacity="0.501961" points="89,115 102,101 117,130" />
<polygon fill="#453e2f" fill-opacity="0.501961" points="249,123 185,146 271,147" />
<polygon fill="#2161b9" fill-opacity="0.501961" points="148,-16 141,18 132,15" />
<polygon fill="#335134" fill-opacity="0.501961" points="221,71 223,81 238,87" />
<polygon fill="#c8ba99" fill-opacity="0.501961" points="120,40 111,19 140,19" />
<polygon fill="#e0ede6" fill-opacity="0.501961" points="45,73 40,67 57,65" />
<polygon fill="#84b572" fill-opacity="0.501961" points="77,129 80,117 64,131" />
<polygon fill="#bf3f5f" fill-opacity="0.501961" points="116,87 124,96 119,105" />
<polygon fill="#91a2c1" fill-opacity="0.501961" points="154,140 159,137 160,133" />
<polygon fill="#615439" fill-opacity="0.501961" points="90,90 83,88 87,67" />
<polygon fill="#81324a" fill-opacity="0.501961" points="113,105 114,88 123,83" />
<polygon fill="#0f1114" fill-opacity="0.501961" points="69,100 56,92 64,106" />
<polygon fill="#595a64" fill-opacity="0.501961" points="209,95 161,64 165,84" />
<polygon fill="#7071ae" fill-opacity="0.501961" points="95,89 89,79 89,88" />
<polygon fill="#af4c61" fill-opacity="0.501961" points="151,92 159,86 159,97" />
<polygon fill="#4f5082" fill-opacity="0.501961" points="159,15 143,12 145,4" />
<polygon fill="#3084dc" fill-opacity="0.501961" points="69,38 48,33 66,48" />
<polygon fill="#4f5155" fill-opacity="0.501961" points="131,82 137,85 141,78" />
<polygon fill="#cfe4e4" fill-opacity="0.501961" points="44,87 37,80 31,81" />
<polygon fill="#6b9e5f" fill-opacity="0.501961" points="242,125 271,120 270,71" />
<polygon fill="#2d4a2f" fill-opacity="0.501961" points="247,90 238,92 234,102" />
<polygon fill="#7ba46c" fill-opacity="0.501961" points="25,123 -3,137 14,139" />
<polygon fill="#456840" fill-opacity="0.501961" points="-5,118 -3,129 23,125" />
<polygon fill="#45436a" fill-opacity="0.501961" points="84,3 76,9 79,17" />
<polygon fill="#221a11" fill-opacity="0.501961" points="159,138 174,159 188,141" />
<polygon fill="#e0c69c" fill-opacity="0.501961" points="46,47 54,41 58,53" />
<polygon fill="#e2cdb3" fill-opacity="0.501961" points="55,99 48,92 26,114" />
<polygon fill="#2f2d20" fill-opacity="0.501961" points="250,137 234,108 240,141" />
<polygon fill="#b9e995" fill-opacity="0.501961" points="240,63 237,61 242,59" />
<polygon fill="#2f3647" fill-opacity="0.501961" points="98,130 103,142 98,141" />
<polygon fill="#ebeeef" fill-opacity="0.501961" points="117,56 103,55 101,34" />
<polygon fill="#203f29" fill-opacity="0.501961" points="255,109 251,96 242,112" />
<polygon fill="#c0f4a3" fill-opacity="0.501961" points="241,72 250,71 245,69" />
<polygon fill="#b5a589" fill-opacity="0.501961" points="56,48 48,60 59,76" />
<polygon fill="#99b988" fill-opacity="0.501961" points="58,116 71,112 65,105" />
<polygon fill="#bc996b" fill-opacity="0.501961" points="137,80 149,69 144,69" />
<polygon fill="#c4e8e9" fill-opacity="0.501961" points="24,98 -9,83 23,79" />
<polygon fill="#a4cfca" fill-opacity="0.501961" points="192,76 187,80 191,80" />
<polygon fill="#636a53" fill-opacity="0.501961" points="55,105 49,115 70,106" />
<polygon fill="#af9f87" fill-opacity="0.501961" points="122,159 107,159 118,134" />
<polygon fill="#837772" fill-opacity="0.501961" points="119,58 128,51 119,52" />
<polygon fill="#2d3c56" fill-opacity="0.501961" points="155,11 153,22 152,11" />
<polygon fill="#62b9e8" fill-opacity="0.501961" points="195,16 202,17 208,6" />
<polygon fill="#cfefee" fill-opacity="0.501961" points="59,81 56,72 48,75" />
<polygon fill="#38572f" fill-opacity="0.501961" points="214,57 211,68 221,63" />
<polygon fill="#272229" fill-opacity="0.501961" points="174,89 177,95 191,95" />
<polygon fill="#d4c4b4" fill-opacity="0.501961" points="150,1 145,5 154,7" />
<polygon fill="#9aadbe" fill-opacity="0.501961" points="155,134 144,139 159,122" />
<polygon fill="#8b82a2" fill-opacity="0.501961" points="165,56 187,61 175,50" />
<polygon fill="#7f6f5d" fill-opacity="0.501961" points="156,41 145,36 161,34" />
<polygon fill="#709773" fill-opacity="0.501961" points="4,105 -16,114 13,121" />
<polygon fill="#66b6e5" fill-opacity="0.501961" points="184,52 204,56 182,62" />
<polygon fill="#f3f2fa" fill-opacity="0.501961" points="146,13 146,18 143,13" />
<polygon fill="#503f2c" fill-opacity="0.501961" points="125,140 140,159 160,138" />
<polygon fill="#282529" fill-opacity="0.501961" points="157,85 160,65 164,84" />
<polygon fill="#1e1919" fill-opacity="0.501961" points="177,159 176,128 225,115" />
<polygon fill="#50844e" fill-opacity="0.501961" points="233,57 222,52 220,64" />
<polygon fill="#f7bdb5" fill-opacity="0.501961" points="255,113 271,134 260,145" />
<polygon fill="#86bfe9" fill-opacity="0.501961" points="32,-16 -7,-15 15,4" />
<polygon fill="#cfbb93" fill-opacity="0.501961" points="79,31 71,33 68,50" />
<polygon fill="#90a3dd" fill-opacity="0.501961" points="54,13 49,8 53,21" />
<polygon fill="#bb5873" fill-opacity="0.501961" points="158,101 154,105 159,112" />
<polygon fill="#afe0ea" fill-opacity="0.501961" points="209,54 261,28 254,49" />
<polygon fill="#bbdce7" fill-opacity="0.501961" points="51,84 40,96 29,90" />
<polygon fill="#f3ebd0" fill-opacity="0.501961" points="156,25 162,42 165,31" />
<polygon fill="#864b50" fill-opacity="0.501961" points="142,136 135,140 143,144" />
<polygon fill="#639d63" fill-opacity="0.501961" points="232,117 227,111 231,106" />
<polygon fill="#cfdbea" fill-opacity="0.501961" points="137,130 132,130 133,138" />
<polygon fill="#e8e8e7" fill-opacity="0.501961" points="119,73 146,53 144,37" />
<polygon fill="#acadb3" fill-opacity="0.501961" points="127,58 135,43 135,50" />
<polygon fill="#76572f" fill-opacity="0.501961" points="125,50 128,52 129,46" />
<polygon fill="#d7f0e9" fill-opacity="0.501961" points="9,56 22,53 19,61" />
<polygon fill="#66a163" fill-opacity="0.501961" points="242,79 248,81 250,95" />
<polygon fill="#b4a487" fill-opacity="0.501961" points="130,130 114,122 122,113" />
<polygon fill="#5b904e" fill-opacity="0.501961" points="241,57 229,68 234,51" />
<polygon fill="#685546" fill-opacity="0.501961" points="85,60 97,59 96,62" />
<polygon fill="#c6b198" fill-opacity="0.501961" points="145,108 133,94 135,105" />
<polygon fill="#596548" fill-opacity="0.501961" points="219,132 227,119 232,125" />
<polygon fill="#323638" fill-opacity="0.501961" points="103,100 100,127 117,101" />
<polygon fill="#2d75cb" fill-opacity="0.501961" points="56,32 14,-15 43,45" />
<polygon fill="#3f2221" fill-opacity="0.501961" points="27,81 25,83 26,84" />
<polygon fill="#5d5980" fill-opacity="0.501961" points="97,12 85,8 79,-4" />
<polygon fill="#525a62" fill-opacity="0.501961" points="40,95 35,95 29,100" />
<polygon fill="#f7f9da" fill-opacity="0.501961" points="157,49 156,45 164,40" />
<polygon fill="#af8c7a" fill-opacity="0.501961" points="32,78 31,89 26,77" />
<polygon fill="#ebe2d0" fill-opacity="0.501961" points="77,21 64,12 75,12" />
<polygon fill="#907f53" fill-opacity="0.501961" points="146,114 143,108 151,99" />
<polygon fill="#a1a1e6" fill-opacity="0.501961" points="143,59 151,54 153,62" />
<polygon fill="#d9d5ba" fill-opacity="0.501961" points="122,57 118,42 98,28" />
<polygon fill="#e2e4e7" fill-opacity="0.501961" points="90,47 107,50 82,35" />
<polygon fill="#378cde" fill-opacity="0.501961" points="43,38 -16,46 48,56" />
</g>
</svg>