<svg xmlns="http://www.w3.org/2000/svg" version="1.1" width="1024" height="576">
<rect x="0" y="0" width="1024" height="576" fill="#435762" />
<g transform="scale(4.000000) translate(0.5 0.5)">
<polygon fill="#f4ffff" fill-opacity="0.501961" points="-16,-3 100,54 103,-16" />
<polygon fill="#11171a" fill-opacity="0.501961" points="-16,140 60,63 271,117" />
<polygon fill="#d0dcd0" fill-opacity="0.501961" points="80,55 39,44 100,-16" />
<polygon fill="#7292ae" fill-opacity="0.501961" points="166,110 91,-4 176,29" />
<polygon fill="#16191b" fill-opacity="0.501961" points="175,62 197,159 271,133" />
<polygon fill="#396c80" fill-opacity="0.501961" points="-16,6 61,12 53,107" />
<polygon fill="#060500" fill-opacity="0.501961" points="-16,101 118,159 4,152" />
<polygon fill="#cdd5f5" fill-opacity="0.501961" points="123,129 195,129 161,140" />
<polygon fill="#c5cff0" fill-opacity="0.501961" points="98,138 144,136 103,126" />
<polygon fill="#000000" fill-opacity="0.501961" points="134,159 210,138 58,138" />
<polygon fill="#c3cfef" fill-opacity="0.501961" points="67,128 63,139 100,132" />
<polygon fill="#314b59" fill-opacity="0.501961" points="-9,88 119,29 169,107" />
<polygon fill="#e4f4fd" fill-opacity="0.501961" points="60,-16 89,10 -16,4" />
<polygon fill="#708d93" fill-opacity="0.501961" points="230,55 248,85 253,-16" />
<polygon fill="#1f2b3d" fill-opacity="0.501961" points="139,0 248,-16 214,29" />
<polygon fill="#262e35" fill-opacity="0.501961" points="47,128 224,74 271,129" />
<polygon fill="#d5c1c1" fill-opacity="0.501961" points="156,92 165,54 148,77" />
<polygon fill="#c3ac9f" fill-opacity="0.501961" points="137,12 143,57 150,19" />
<polygon fill="#889993" fill-opacity="0.501961" points="74,59 8,38 115,36" />
<polygon fill="#395d76" fill-opacity="0.501961" points="147,-9 175,82 271,92" />
<polygon fill="#111b20" fill-opacity="0.501961" points="132,129 49,127 94,86" />
<polygon fill="#417190" fill-opacity="0.501961" points="102,-16 161,71 103,39" />
<polygon fill="#d4dee1" fill-opacity="0.501961" points="59,27 98,25 60,-3" />
<polygon fill="#3e7f9b" fill-opacity="0.501961" points="-16,11 57,7 54,33" />
<polygon fill="#1b1e20" fill-opacity="0.501961" points="217,159 175,115 271,134" />
<polygon fill="#2d424f" fill-opacity="0.501961" points="148,84 57,64 152,58" />
<polygon fill="#545882" fill-opacity="0.501961" points="140,108 163,90 171,110" />
<polygon fill="#adb9d2" fill-opacity="0.501961" points="190,129 156,131 189,139" />
<polygon fill="#4d7593" fill-opacity="0.501961" points="4,35 25,69 -15,70" />
<polygon fill="#1d2426" fill-opacity="0.501961" points="93,152 1,159 -16,94" />
<polygon fill="#111417" fill-opacity="0.501961" points="80,157 98,159 91,105" />
<polygon fill="#b1dbf8" fill-opacity="0.501961" points="165,49 154,51 169,56" />
<polygon fill="#c3b4b6" fill-opacity="0.501961" points="163,75 172,70 161,91" />
<polygon fill="#374349" fill-opacity="0.501961" points="226,87 188,70 191,139" />
<polygon fill="#1a3242" fill-opacity="0.501961" points="105,91 84,102 87,38" />
<polygon fill="#afbcd1" fill-opacity="0.501961" points="84,133 99,130 106,137" />
<polygon fill="#1b394b" fill-opacity="0.501961" points="101,69 43,89 -16,73" />
<polygon fill="#4f6764" fill-opacity="0.501961" points="67,100 5,93 54,83" />
<polygon fill="#2c383d" fill-opacity="0.501961" points="271,79 232,111 235,151" />
<polygon fill="#516a74" fill-opacity="0.501961" points="-13,38 104,53 65,71" />
<polygon fill="#bec2b7" fill-opacity="0.501961" points="56,46 71,38 36,38" />
<polygon fill="#b5c4dc" fill-opacity="0.501961" points="71,137 64,130 83,131" />
<polygon fill="#121618" fill-opacity="0.501961" points="-16,144 64,127 71,159" />
<polygon fill="#6090a9" fill-opacity="0.501961" points="98,9 147,39 97,33" />
<polygon fill="#795b6c" fill-opacity="0.501961" points="177,89 156,83 160,73" />
<polygon fill="#2d3b38" fill-opacity="0.501961" points="-16,110 54,135 63,96" />
<polygon fill="#c0cdcf" fill-opacity="0.501961" points="48,-16 95,7 96,44" />
<polygon fill="#305472" fill-opacity="0.501961" points="81,-16 123,18 168,10" />
<polygon fill="#40617a" fill-opacity="0.501961" points="150,40 214,79 242,39" />
<polygon fill="#c2c8be" fill-opacity="0.501961" points="85,53 61,40 82,4" />
<polygon fill="#2e5564" fill-opacity="0.501961" points="58,35 -16,39 40,17" />
<polygon fill="#22292c" fill-opacity="0.501961" points="180,75 197,130 165,126" />
<polygon fill="#244050" fill-opacity="0.501961" points="46,103 29,80 31,36" />
<polygon fill="#f4f7fa" fill-opacity="0.501961" points="158,70 150,77 155,78" />
<polygon fill="#cedae1" fill-opacity="0.501961" points="-16,-11 59,1 -2,9" />
<polygon fill="#70aac9" fill-opacity="0.501961" points="59,7 60,20 22,7" />
<polygon fill="#9e9896" fill-opacity="0.501961" points="143,58 150,15 135,27" />
<polygon fill="#ffffff" fill-opacity="0.501961" points="162,63 159,61 156,64" />
<polygon fill="#425f71" fill-opacity="0.501961" points="162,67 130,71 105,30" />
<polygon fill="#9faec6" fill-opacity="0.501961" points="148,130 111,131 138,139" />
<polygon fill="#6e807e" fill-opacity="0.501961" points="257,-16 236,-16 240,62" />
<polygon fill="#232c31" fill-opacity="0.501961" points="145,102 152,130 70,95" />
<polygon fill="#2f363e" fill-opacity="0.501961" points="180,-8 229,27 238,-10" />
<polygon fill="#c9d2e8" fill-opacity="0.501961" points="100,131 100,136 94,138" />
<polygon fill="#5c7881" fill-opacity="0.501961" points="241,103 232,63 249,52" />
<polygon fill="#434543" fill-opacity="0.501961" points="162,112 161,131 181,107" />
<polygon fill="#305b77" fill-opacity="0.501961" points="171,37 141,61 149,39" />
<polygon fill="#34495a" fill-opacity="0.501961" points="249,16 199,33 128,0" />
<polygon fill="#1c2023" fill-opacity="0.501961" points="195,159 232,132 150,144" />
<polygon fill="#243843" fill-opacity="0.501961" points="124,69 58,119 107,51" />
<polygon fill="#8d9db7" fill-opacity="0.501961" points="122,139 139,129 94,129" />
<polygon fill="#4e626d" fill-opacity="0.501961" points="226,61 200,104 224,5" />
<polygon fill="#151c20" fill-opacity="0.501961" points="248,124 260,144 257,93" />
<polygon fill="#384b52" fill-opacity="0.501961" points="235,116 260,118 222,59" />
<polygon fill="#1f2b33" fill-opacity="0.501961" points="182,150 227,127 229,75" />
<polygon fill="#1e2427" fill-opacity="0.501961" points="133,130 81,125 119,105" />
<polygon fill="#708c8a" fill-opacity="0.501961" points="101,46 91,66 97,23" />
<polygon fill="#1a1a18" fill-opacity="0.501961" points="98,159 168,139 85,138" />
<polygon fill="#60797f" fill-opacity="0.501961" points="53,97 63,88 41,91" />
<polygon fill="#bcc7e5" fill-opacity="0.501961" points="84,138 79,131 76,138" />
<polygon fill="#344449" fill-opacity="0.501961" points="271,64 248,31 257,-6" />
<polygon fill="#385465" fill-opacity="0.501961" points="210,78 160,68 178,53" />
<polygon fill="#afb8c1" fill-opacity="0.501961" points="163,80 167,69 173,78" />
<polygon fill="#28353e" fill-opacity="0.501961" points="102,129 104,125 104,136" />
<polygon fill="#e0e2df" fill-opacity="0.501961" points="149,80 157,78 152,72" />
<polygon fill="#151e1f" fill-opacity="0.501961" points="83,129 74,112 98,134" />
<polygon fill="#1c2227" fill-opacity="0.501961" points="181,130 199,110 178,102" />
<polygon fill="#a3b2d0" fill-opacity="0.501961" points="143,137 152,138 144,133" />
<polygon fill="#a1afc4" fill-opacity="0.501961" points="178,130 153,135 177,139" />
<polygon fill="#264958" fill-opacity="0.501961" points="-5,36 -16,19 38,38" />
<polygon fill="#75818b" fill-opacity="0.501961" points="137,34 133,15 150,13" />
<polygon fill="#ffffe5" fill-opacity="0.501961" points="162,60 157,60 159,65" />
<polygon fill="#3f4f55" fill-opacity="0.501961" points="241,9 229,68 224,3" />
<polygon fill="#395d7a" fill-opacity="0.501961" points="175,26 150,12 154,33" />
<polygon fill="#1f2426" fill-opacity="0.501961" points="144,159 224,139 168,138" />
<polygon fill="#4e5571" fill-opacity="0.501961" points="165,106 152,83 154,113" />
<polygon fill="#99908a" fill-opacity="0.501961" points="165,92 174,85 159,84" />
<polygon fill="#2f3f44" fill-opacity="0.501961" points="171,71 192,75 175,98" />
<polygon fill="#4d7f93" fill-opacity="0.501961" points="-9,8 41,11 61,33" />
<polygon fill="#284556" fill-opacity="0.501961" points="-12,72 25,69 -16,115" />
<polygon fill="#466070" fill-opacity="0.501961" points="34,50 35,70 81,69" />
<polygon fill="#c8d4d7" fill-opacity="0.501961" points="64,34 94,14 58,1" />
<polygon fill="#487594" fill-opacity="0.501961" points="140,11 115,40 105,10" />
<polygon fill="#1b3141" fill-opacity="0.501961" points="82,83 89,44 96,100" />
<polygon fill="#9ab9bd" fill-opacity="0.501961" points="101,6 102,48 95,27" />
<polygon fill="#2c3737" fill-opacity="0.501961" points="-16,146 18,117 -16,76" />
<polygon fill="#7f938f" fill-opacity="0.501961" points="40,39 55,50 81,49" />
<polygon fill="#333d41" fill-opacity="0.501961" points="165,93 108,115 100,88" />
<polygon fill="#374b54" fill-opacity="0.501961" points="148,88 123,96 151,61" />
<polygon fill="#273034" fill-opacity="0.501961" points="150,102 113,98 143,131" />
<polygon fill="#335867" fill-opacity="0.501961" points="87,51 91,41 88,34" />
<polygon fill="#33596f" fill-opacity="0.501961" points="141,46 105,52 102,35" />
<polygon fill="#0f1214" fill-opacity="0.501961" points="79,141 91,134 107,159" />
<polygon fill="#bcc6d7" fill-opacity="0.501961" points="95,135 101,134 97,130" />
<polygon fill="#bdcbcd" fill-opacity="0.501961" points="96,43 94,10 44,-16" />
<polygon fill="#526d85" fill-opacity="0.501961" points="177,37 176,63 158,78" />
<polygon fill="#3f5a4f" fill-opacity="0.501961" points="31,112 10,115 31,118" />
<polygon fill="#417385" fill-opacity="0.501961" points="103,-16 96,10 96,-16" />
<polygon fill="#6d98b9" fill-opacity="0.501961" points="172,59 162,52 149,52" />
<polygon fill="#152132" fill-opacity="0.501961" points="40,112 25,104 44,99" />
<polygon fill="#2b4850" fill-opacity="0.501961" points="73,103 53,104 70,74" />
<polygon fill="#1d201f" fill-opacity="0.501961" points="107,136 117,159 98,150" />
<polygon fill="#1d2a2c" fill-opacity="0.501961" points="80,113 56,109 75,131" />
<polygon fill="#19252f" fill-opacity="0.501961" points="122,81 123,119 110,123" />
<polygon fill="#676372" fill-opacity="0.501961" points="168,87 150,82 176,79" />
<polygon fill="#d2d0c9" fill-opacity="0.501961" points="156,60 166,59 157,64" />
<polygon fill="#44464a" fill-opacity="0.501961" points="158,108 155,129 147,104" />
<polygon fill="#8092b0" fill-opacity="0.501961" points="127,129 138,134 132,139" />
<polygon fill="#405969" fill-opacity="0.501961" points="125,84 158,65 123,53" />
<polygon fill="#40565d" fill-opacity="0.501961" points="90,64 98,48 104,69" />
<polygon fill="#222728" fill-opacity="0.501961" points="102,107 103,128 174,127" />
<polygon fill="#b1aca8" fill-opacity="0.501961" points="146,44 150,27 144,26" />
<polygon fill="#416c7c" fill-opacity="0.501961" points="51,36 3,16 55,22" />
<polygon fill="#273241" fill-opacity="0.501961" points="250,-16 212,16 180,6" />
<polygon fill="#b8c4d7" fill-opacity="0.501961" points="160,132 152,134 157,138" />
<polygon fill="#516b82" fill-opacity="0.501961" points="155,59 177,61 164,55" />
<polygon fill="#25313d" fill-opacity="0.501961" points="171,133 180,92 169,96" />
<polygon fill="#455e67" fill-opacity="0.501961" points="177,64 174,91 168,54" />
<polygon fill="#151d23" fill-opacity="0.501961" points="223,132 224,103 198,155" />
<polygon fill="#666f6d" fill-opacity="0.501961" points="235,3 235,26 247,-16" />
<polygon fill="#a1afcc" fill-opacity="0.501961" points="177,136 188,130 185,136" />
<polygon fill="#363d2a" fill-opacity="0.501961" points="53,129 28,117 58,116" />
<polygon fill="#9fa89a" fill-opacity="0.501961" points="91,52 95,39 95,56" />
<polygon fill="#4e6b80" fill-opacity="0.501961" points="-16,34 29,44 30,67" />
<polygon fill="#27414f" fill-opacity="0.501961" points="66,70 5,83 77,90" />
<polygon fill="#21272a" fill-opacity="0.501961" points="134,158 142,135 142,155" />
<polygon fill="#2a3337" fill-opacity="0.501961" points="125,114 132,131 151,99" />
<polygon fill="#292e32" fill-opacity="0.501961" points="197,158 207,133 182,88" />
<polygon fill="#151c22" fill-opacity="0.501961" points="161,137 165,159 190,153" />
<polygon fill="#232e3e" fill-opacity="0.501961" points="152,133 154,143 147,150" />
<polygon fill="#243a48" fill-opacity="0.501961" points="121,48 115,84 125,83" />
<polygon fill="#394b52" fill-opacity="0.501961" points="117,62 119,104 104,100" />
<polygon fill="#41473d" fill-opacity="0.501961" points="268,159 246,128 254,154" />
<polygon fill="#35464f" fill-opacity="0.501961" points="203,87 229,78 195,118" />
<polygon fill="#3e5966" fill-opacity="0.501961" points="251,31 247,91 271,97" />
<polygon fill="#809082" fill-opacity="0.501961" points="68,49 85,47 84,57" />
<polygon fill="#42637f" fill-opacity="0.501961" points="184,32 185,60 230,64" />
<polygon fill="#344c63" fill-opacity="0.501961" points="162,3 207,42 221,28" />
<polygon fill="#9790a0" fill-opacity="0.501961" points="163,78 165,71 159,64" />
<polygon fill="#d4dae0" fill-opacity="0.501961" points="139,137 139,132 135,131" />
<polygon fill="#385b69" fill-opacity="0.501961" points="90,52 85,37 91,37" />
<polygon fill="#1b2c36" fill-opacity="0.501961" points="268,103 254,112 249,91" />
<polygon fill="#857a71" fill-opacity="0.501961" points="143,61 139,55 141,47" />
<polygon fill="#b4b9a7" fill-opacity="0.501961" points="93,29 85,30 96,48" />
<polygon fill="#2a506c" fill-opacity="0.501961" points="177,22 187,38 179,68" />
<polygon fill="#37484b" fill-opacity="0.501961" points="23,108 26,89 15,107" />
<polygon fill="#556e7f" fill-opacity="0.501961" points="217,41 218,67 207,70" />
<polygon fill="#466980" fill-opacity="0.501961" points="141,46 119,29 128,66" />
<polygon fill="#c7d1da" fill-opacity="0.501961" points="95,130 102,130 101,133" />
<polygon fill="#2c3940" fill-opacity="0.501961" points="235,97 218,95 240,129" />
<polygon fill="#63635c" fill-opacity="0.501961" points="151,99 142,94 142,97" />
<polygon fill="#91a0bb" fill-opacity="0.501961" points="69,128 68,137 84,136" />
<polygon fill="#161e24" fill-opacity="0.501961" points="89,110 58,130 109,122" />
<polygon fill="#385567" fill-opacity="0.501961" points="234,43 230,72 202,90" />
<polygon fill="#294b59" fill-opacity="0.501961" points="35,45 30,32 31,57" />
<polygon fill="#355970" fill-opacity="0.501961" points="102,-16 103,11 116,-5" />
<polygon fill="#5b93ae" fill-opacity="0.501961" points="54,18 16,10 44,8" />
<polygon fill="#516e77" fill-opacity="0.501961" points="93,58 100,57 98,33" />
<polygon fill="#3d5c73" fill-opacity="0.501961" points="143,66 151,48 157,68" />
<polygon fill="#454644" fill-opacity="0.501961" points="170,124 165,104 163,127" />
<polygon fill="#576088" fill-opacity="0.501961" points="169,97 151,97 149,104" />
<polygon fill="#37525f" fill-opacity="0.501961" points="-15,86 30,77 -14,74" />
<polygon fill="#1b2423" fill-opacity="0.501961" points="53,107 64,140 65,120" />
<polygon fill="#833c5d" fill-opacity="0.501961" points="161,86 162,75 159,78" />
<polygon fill="#161c21" fill-opacity="0.501961" points="187,124 180,111 179,130" />
<polygon fill="#3c5059" fill-opacity="0.501961" points="252,77 263,90 239,105" />
<polygon fill="#5c829c" fill-opacity="0.501961" points="122,38 126,16 138,36" />
<polygon fill="#314151" fill-opacity="0.501961" points="164,-13 219,19 125,-3" />
<polygon fill="#6f888e" fill-opacity="0.501961" points="249,89 265,98 271,94" />
<polygon fill="#3e6078" fill-opacity="0.501961" points="133,17 103,2 143,10" />
<polygon fill="#546767" fill-opacity="0.501961" points="-16,92 17,93 14,102" />
<polygon fill="#c0cbd7" fill-opacity="0.501961" points="175,137 178,131 178,137" />
<polygon fill="#42555e" fill-opacity="0.501961" points="43,102 58,100 42,90" />
<polygon fill="#4d748b" fill-opacity="0.501961" points="150,22 149,39 173,36" />
<polygon fill="#181d1f" fill-opacity="0.501961" points="85,147 -4,150 12,119" />
<polygon fill="#a3b1b5" fill-opacity="0.501961" points="161,90 165,89 164,83" />
<polygon fill="#c2cbd6" fill-opacity="0.501961" points="131,137 127,131 127,135" />
<polygon fill="#15191c" fill-opacity="0.501961" points="167,138 182,159 111,148" />
<polygon fill="#1e2d36" fill-opacity="0.501961" points="179,110 177,80 188,81" />
<polygon fill="#50597d" fill-opacity="0.501961" points="158,73 161,72 163,80" />
<polygon fill="#b9b7be" fill-opacity="0.501961" points="159,70 153,73 160,66" />
<polygon fill="#1a242b" fill-opacity="0.501961" points="120,100 122,115 113,131" />
<polygon fill="#627e8b" fill-opacity="0.501961" points="240,83 251,62 245,54" />
<polygon fill="#9eadc5" fill-opacity="0.501961" points="119,137 120,130 95,137" />
<polygon fill="#13181a" fill-opacity="0.501961" points="76,151 95,133 91,144" />
<polygon fill="#465d68" fill-opacity="0.501961" points="232,67 228,99 237,83" />
<polygon fill="#897e86" fill-opacity="0.501961" points="152,80 149,87 162,80" />
<polygon fill="#1a3345" fill-opacity="0.501961" points="87,86 92,76 57,83" />
<polygon fill="#7b8e90" fill-opacity="0.501961" points="35,38 54,45 41,46" />
<polygon fill="#819791" fill-opacity="0.501961" points="98,47 101,40 102,56" />
<polygon fill="#2b3336" fill-opacity="0.501961" points="57,120 62,128 31,137" />
<polygon fill="#4b5e7d" fill-opacity="0.501961" points="182,135 181,129 179,137" />
<polygon fill="#1b3343" fill-opacity="0.501961" points="-16,81 -9,88 12,81" />
<polygon fill="#a7b2a7" fill-opacity="0.501961" points="46,40 80,48 88,35" />
<polygon fill="#0b0f15" fill-opacity="0.501961" points="254,120 261,140 251,133" />
<polygon fill="#335e7a" fill-opacity="0.501961" points="171,39 144,47 175,48" />
<polygon fill="#395174" fill-opacity="0.501961" points="170,135 172,139 171,134" />
<polygon fill="#273e4b" fill-opacity="0.501961" points="90,84 102,85 98,54" />
<polygon fill="#3e4649" fill-opacity="0.501961" points="236,4 224,3 233,30" />
<polygon fill="#181f25" fill-opacity="0.501961" points="71,138 126,159 27,159" />
<polygon fill="#83abbe" fill-opacity="0.501961" points="57,27 60,11 55,5" />
<polygon fill="#7e90ae" fill-opacity="0.501961" points="120,133 128,129 125,139" />
<polygon fill="#cdd0c8" fill-opacity="0.501961" points="60,37 79,30 61,10" />
<polygon fill="#293338" fill-opacity="0.501961" points="123,131 151,98 124,106" />
<polygon fill="#718b8d" fill-opacity="0.501961" points="244,42 250,15 243,26" />
<polygon fill="#658390" fill-opacity="0.501961" points="60,29 56,33 58,19" />
<polygon fill="#2e373b" fill-opacity="0.501961" points="161,113 164,124 161,133" />
<polygon fill="#4d6269" fill-opacity="0.501961" points="237,76 248,85 238,100" />
<polygon fill="#c7d4db" fill-opacity="0.501961" points="58,1 64,20 90,16" />
<polygon fill="#477686" fill-opacity="0.501961" points="9,23 -16,11 38,17" />
<polygon fill="#545247" fill-opacity="0.501961" points="162,117 164,125 169,114" />
<polygon fill="#334d4e" fill-opacity="0.501961" points="81,90 63,88 37,113" />
<polygon fill="#adbacf" fill-opacity="0.501961" points="108,129 108,137 105,129" />
<polygon fill="#6498aa" fill-opacity="0.501961" points="19,7 4,8 13,12" />
<polygon fill="#374953" fill-opacity="0.501961" points="126,105 123,74 147,74" />
<polygon fill="#aeb9cd" fill-opacity="0.501961" points="182,131 184,136 188,133" />
<polygon fill="#4b7793" fill-opacity="0.501961" points="101,-2 121,42 104,35" />
<polygon fill="#98a9c2" fill-opacity="0.501961" points="63,138 77,130 73,136" />
<polygon fill="#232d31" fill-opacity="0.501961" points="256,120 240,130 246,111" />
<polygon fill="#b1c3cb" fill-opacity="0.501961" points="94,-16 55,-16 96,19" />
<polygon fill="#46616d" fill-opacity="0.501961" points="80,59 32,70 46,50" />
<polygon fill="#4c4a3e" fill-opacity="0.501961" points="150,115 157,116 154,128" />
<polygon fill="#3a4a50" fill-opacity="0.501961" points="204,92 185,82 206,65" />
<polygon fill="#cfdbe2" fill-opacity="0.501961" points="9,-9 22,6 60,6" />
<polygon fill="#3b4461" fill-opacity="0.501961" points="147,110 150,101 181,112" />
<polygon fill="#4d5452" fill-opacity="0.501961" points="262,136 250,109 267,127" />
<polygon fill="#263d4c" fill-opacity="0.501961" points="182,59 177,74 190,90" />
<polygon fill="#e6e8dc" fill-opacity="0.501961" points="165,63 158,62 165,61" />
<polygon fill="#242a2e" fill-opacity="0.501961" points="228,121 271,155 215,152" />
<polygon fill="#9bbfd6" fill-opacity="0.501961" points="167,53 159,49 153,52" />
<polygon fill="#27302e" fill-opacity="0.501961" points="11,108 11,133 -16,110" />
<polygon fill="#23333a" fill-opacity="0.501961" points="41,92 49,113 28,101" />
<polygon fill="#949393" fill-opacity="0.501961" points="158,87 170,91 153,90" />
<polygon fill="#25404f" fill-opacity="0.501961" points="230,67 229,88 213,100" />
<polygon fill="#5b6289" fill-opacity="0.501961" points="162,104 160,98 166,94" />
<polygon fill="#3b5871" fill-opacity="0.501961" points="173,20 208,53 215,39" />
<polygon fill="#4d7083" fill-opacity="0.501961" points="175,32 165,63 175,63" />
<polygon fill="#5b7378" fill-opacity="0.501961" points="57,89 46,93 51,100" />
<polygon fill="#131a1e" fill-opacity="0.501961" points="85,131 106,126 84,115" />
<polygon fill="#cdcfd0" fill-opacity="0.501961" points="158,76 151,76 150,82" />
<polygon fill="#161b21" fill-opacity="0.501961" points="147,116 153,129 140,125" />
<polygon fill="#2c4655" fill-opacity="0.501961" points="102,55 103,48 121,55" />
<polygon fill="#436071" fill-opacity="0.501961" points="234,35 211,71 226,67" />
<polygon fill="#aec8ce" fill-opacity="0.501961" points="102,20 100,8 98,25" />
<polygon fill="#152330" fill-opacity="0.501961" points="86,89 86,112 106,115" />
<polygon fill="#242d32" fill-opacity="0.501961" points="233,131 234,97 219,143" />
<polygon fill="#5d869f" fill-opacity="0.501961" points="117,38 112,29 117,11" />
<polygon fill="#1e2428" fill-opacity="0.501961" points="101,127 99,110 150,128" />
<polygon fill="#4d8099" fill-opacity="0.501961" points="56,28 24,13 54,13" />
<polygon fill="#4e6381" fill-opacity="0.501961" points="75,136 76,130 74,130" />
<polygon fill="#141b2c" fill-opacity="0.501961" points="-16,90 -16,114 8,114" />
<polygon fill="#c1c8bd" fill-opacity="0.501961" points="91,25 60,34 92,36" />
<polygon fill="#465d4d" fill-opacity="0.501961" points="42,89 19,92 32,97" />
<polygon fill="#9aa9c0" fill-opacity="0.501961" points="92,133 107,130 99,134" />
<polygon fill="#bdc2c8" fill-opacity="0.501961" points="162,78 166,79 167,72" />
<polygon fill="#becfda" fill-opacity="0.501961" points="51,-5 75,6 37,8" />
<polygon fill="#434a68" fill-opacity="0.501961" points="147,109 162,84 156,107" />
<polygon fill="#242c34" fill-opacity="0.501961" points="235,2 207,3 235,-16" />
<polygon fill="#3e5563" fill-opacity="0.501961" points="130,72 123,63 159,67" />
<polygon fill="#151a1b" fill-opacity="0.501961" points="38,159 101,156 92,135" />
<polygon fill="#94a6c2" fill-opacity="0.501961" points="147,130 162,131 139,136" />
<polygon fill="#a5b0c8" fill-opacity="0.501961" points="184,133 178,137 185,136" />
<polygon fill="#4b6775" fill-opacity="0.501961" points="250,50 254,67 243,86" />
<polygon fill="#375167" fill-opacity="0.501961" points="144,13 174,21 124,-16" />
<polygon fill="#394e57" fill-opacity="0.501961" points="96,62 94,79 91,61" />
<polygon fill="#2b3330" fill-opacity="0.501961" points="172,145 161,147 180,138" />
<polygon fill="#3b5c70" fill-opacity="0.501961" points="170,69 169,48 176,68" />
<polygon fill="#1f2c38" fill-opacity="0.501961" points="151,96 147,88 146,107" />
<polygon fill="#1d2734" fill-opacity="0.501961" points="187,119 168,101 168,87" />
<polygon fill="#6d848e" fill-opacity="0.501961" points="16,38 31,42 30,37" />
<polygon fill="#5b757c" fill-opacity="0.501961" points="57,94 60,91 49,87" />
<polygon fill="#6297af" fill-opacity="0.501961" points="98,25 99,18 96,16" />
<polygon fill="#3f5867" fill-opacity="0.501961" points="242,46 224,48 217,37" />
<polygon fill="#908c8b" fill-opacity="0.501961" points="149,14 142,14 141,31" />
<polygon fill="#5c7074" fill-opacity="0.501961" points="98,53 101,62 101,53" />
<polygon fill="#1c2327" fill-opacity="0.501961" points="156,128 158,110 162,127" />
<polygon fill="#6f7c7c" fill-opacity="0.501961" points="246,1 241,16 247,10" />
<polygon fill="#3c5561" fill-opacity="0.501961" points="52,66 86,70 84,61" />
<polygon fill="#2c373e" fill-opacity="0.501961" points="221,91 196,115 211,117" />
<polygon fill="#8e9d93" fill-opacity="0.501961" points="68,46 79,51 81,45" />
<polygon fill="#1a1d1c" fill-opacity="0.501961" points="96,159 107,137 105,159" />
<polygon fill="#738e94" fill-opacity="0.501961" points="55,27 55,38 59,35" />
<polygon fill="#20425a" fill-opacity="0.501961" points="15,77 32,70 -5,72" />
<polygon fill="#c9d3d7" fill-opacity="0.501961" points="1,7 -16,1 20,-16" />
<polygon fill="#396370" fill-opacity="0.501961" points="41,36 54,37 54,27" />
<polygon fill="#272b31" fill-opacity="0.501961" points="173,112 157,117 150,112" />
<polygon fill="#1b2827" fill-opacity="0.501961" points="103,133 102,134 102,135" />
<polygon fill="#647f8c" fill-opacity="0.501961" points="235,48 237,76 243,48" />
<polygon fill="#3c6276" fill-opacity="0.501961" points="104,32 103,43 121,41" />
<polygon fill="#3e4b53" fill-opacity="0.501961" points="-16,115 12,84 -16,86" />
<polygon fill="#1c3043" fill-opacity="0.501961" points="62,95 67,92 66,109" />
<polygon fill="#304a57" fill-opacity="0.501961" points="38,81 37,72 69,80" />
<polygon fill="#1e2f3c" fill-opacity="0.501961" points="96,96 97,69 109,120" />
<polygon fill="#2f393e" fill-opacity="0.501961" points="242,127 253,98 232,121" />
<polygon fill="#4b616a" fill-opacity="0.501961" points="244,48 252,22 254,39" />
<polygon fill="#799fbf" fill-opacity="0.501961" points="155,52 161,54 151,56" />
<polygon fill="#41637e" fill-opacity="0.501961" points="183,54 185,32 200,56" />
<polygon fill="#577584" fill-opacity="0.501961" points="18,39 19,46 -6,38" />
<polygon fill="#394a51" fill-opacity="0.501961" points="242,116 236,106 254,83" />
<polygon fill="#101a24" fill-opacity="0.501961" points="253,110 263,60 271,125" />
<polygon fill="#545d7e" fill-opacity="0.501961" points="155,105 161,97 149,100" />
<polygon fill="#445057" fill-opacity="0.501961" points="219,24 226,40 227,3" />
<polygon fill="#bbc6d4" fill-opacity="0.501961" points="159,132 157,130 151,138" />
<polygon fill="#496b82" fill-opacity="0.501961" points="159,47 144,59 145,46" />
<polygon fill="#6f7c7e" fill-opacity="0.501961" points="247,26 246,17 241,19" />
<polygon fill="#3b4951" fill-opacity="0.501961" points="232,95 228,83 228,109" />
<polygon fill="#293032" fill-opacity="0.501961" points="187,97 199,96 192,141" />
<polygon fill="#738eaa" fill-opacity="0.501961" points="164,59 169,63 167,55" />
<polygon fill="#a6b2c9" fill-opacity="0.501961" points="116,129 124,137 115,135" />
<polygon fill="#3d474e" fill-opacity="0.501961" points="176,84 176,102 173,95" />
<polygon fill="#486f87" fill-opacity="0.501961" points="103,4 120,15 116,7" />
<polygon fill="#3a5561" fill-opacity="0.501961" points="3,79 30,81 21,75" />
<polygon fill="#354a56" fill-opacity="0.501961" points="136,76 156,84 125,83" />
<polygon fill="#16191b" fill-opacity="0.501961" points="100,142 -16,132 5,159" />
<polygon fill="#43636d" fill-opacity="0.501961" points="165,78 165,86 168,83" />
<polygon fill="#9faec5" fill-opacity="0.501961" points="68,138 65,134 68,129" />
<polygon fill="#a7beb8" fill-opacity="0.501961" points="104,-16 100,9 98,-10" />
<polygon fill="#596c86" fill-opacity="0.501961" points="152,129 149,138 149,131" />
<polygon fill="#324f64" fill-opacity="0.501961" points="119,5 63,-16 158,-16" />
<polygon fill="#577891" fill-opacity="0.501961" points="130,35 140,43 132,21" />
<polygon fill="#66737d" fill-opacity="0.501961" points="142,49 138,49 137,37" />
<polygon fill="#2d3f49" fill-opacity="0.501961" points="99,79 115,55 114,87" />
<polygon fill="#39576d" fill-opacity="0.501961" points="205,73 165,66 211,57" />
<polygon fill="#415760" fill-opacity="0.501961" points="190,77 182,69 201,71" />
<polygon fill="#3c4a4a" fill-opacity="0.501961" points="53,115 42,114 54,119" />
<polygon fill="#949aa2" fill-opacity="0.501961" points="143,24 137,31 146,39" />
<polygon fill="#572f45" fill-opacity="0.501961" points="160,76 159,81 161,78" />
<polygon fill="#325262" fill-opacity="0.501961" points="89,51 89,39 87,45" />
<polygon fill="#516a8a" fill-opacity="0.501961" points="149,66 156,73 154,68" />
<polygon fill="#538596" fill-opacity="0.501961" points="19,12 -16,5 -16,16" />
</g>
</svg>