<svg xmlns="http://www.w3.org/2000/svg" version="1.1" width="1024" height="576">
<rect x="0" y="0" width="1024" height="576" fill="#9299ac" />
<g transform="scale(4.000000) translate(0.5 0.5)">
<polygon fill="#220919" fill-opacity="0.501961" points="142,159 85,139 149,-16" />
<polygon fill="#0027af" fill-opacity="0.501961" points="27,52 180,2 -16,-6" />
<polygon fill="#fffdd3" fill-opacity="0.501961" points="259,144 169,42 138,149" />
<polygon fill="#feedcb" fill-opacity="0.501961" points="-16,61 103,48 46,159" />
<polygon fill="#628dd2" fill-opacity="0.501961" points="271,40 146,-16 118,58" />
<polygon fill="#7e2d3f" fill-opacity="0.501961" points="132,61 65,63 109,104" />
<polygon fill="#e3e8e5" fill-opacity="0.501961" points="271,51 171,123 139,58" />
<polygon fill="#caccb2" fill-opacity="0.501961" points="93,76 -16,133 88,159" />
<polygon fill="#ffffff" fill-opacity="0.501961" points="123,110 114,92 108,111" />
<polygon fill="#1e0f0a" fill-opacity="0.501961" points="85,102 112,159 144,121" />
<polygon fill="#5c8463" fill-opacity="0.501961" points="219,130 217,83 271,121" />
<polygon fill="#fffae0" fill-opacity="0.501961" points="112,62 144,49 97,35" />
<polygon fill="#5d615e" fill-opacity="0.501961" points="84,92 52,106 3,94" />
<polygon fill="#e6e7e0" fill-opacity="0.501961" points="98,88 0,33 15,99" />
<polygon fill="#3a4964" fill-opacity="0.501961" points="177,40 110,34 169,60" />
<polygon fill="#1f48a2" fill-opacity="0.501961" points="-16,-3 84,40 165,-16" />
<polygon fill="#ffc380" fill-opacity="0.501961" points="62,36 80,33 74,62" />
<polygon fill="#43172c" fill-opacity="0.501961" points="112,98 90,159 96,69" />
<polygon fill="#f2e8cb" fill-opacity="0.501961" points="-13,95 9,97 14,150" />
<polygon fill="#789cd7" fill-opacity="0.501961" points="270,0 108,-16 271,71" />
<polygon fill="#c64132" fill-opacity="0.501961" points="70,48 88,68 72,73" />
<polygon fill="#436abf" fill-opacity="0.501961" points="91,5 166,53 167,9" />
<polygon fill="#f3ebdc" fill-opacity="0.501961" points="146,66 161,66 148,120" />
<polygon fill="#3d3330" fill-opacity="0.501961" points="185,99 181,93 162,94" />
<polygon fill="#ffffff" fill-opacity="0.501961" points="94,34 130,32 110,24" />
<polygon fill="#1a5bca" fill-opacity="0.501961" points="96,47 105,18 73,49" />
<polygon fill="#254ba8" fill-opacity="0.501961" points="8,41 90,1 -16,-16" />
<polygon fill="#fff9cc" fill-opacity="0.501961" points="226,159 218,129 271,128" />
<polygon fill="#568271" fill-opacity="0.501961" points="56,84 41,98 51,130" />
<polygon fill="#f1eadf" fill-opacity="0.501961" points="89,146 83,97 57,97" />
<polygon fill="#3c2a39" fill-opacity="0.501961" points="123,71 150,115 119,159" />
<polygon fill="#c6e4fa" fill-opacity="0.501961" points="271,61 192,49 253,80" />
<polygon fill="#e3dcbb" fill-opacity="0.501961" points="32,46 23,38 2,54" />
<polygon fill="#fffffc" fill-opacity="0.501961" points="113,93 111,117 120,98" />
<polygon fill="#140a0e" fill-opacity="0.501961" points="103,58 109,72 120,64" />
<polygon fill="#e8e7e1" fill-opacity="0.501961" points="58,83 -16,94 79,44" />
<polygon fill="#483545" fill-opacity="0.501961" points="118,86 121,98 159,97" />
<polygon fill="#bddbfb" fill-opacity="0.501961" points="91,68 75,49 107,48" />
<polygon fill="#28282c" fill-opacity="0.501961" points="144,109 66,156 139,159" />
<polygon fill="#5178bd" fill-opacity="0.501961" points="74,23 19,4 54,53" />
<polygon fill="#8a7a6e" fill-opacity="0.501961" points="31,131 24,103 37,117" />
<polygon fill="#9a9ea5" fill-opacity="0.501961" points="156,64 163,45 219,62" />
<polygon fill="#cdc2c1" fill-opacity="0.501961" points="172,98 242,83 205,110" />
<polygon fill="#69412c" fill-opacity="0.501961" points="84,37 60,32 77,25" />
<polygon fill="#5b514a" fill-opacity="0.501961" points="27,98 3,92 23,91" />
<polygon fill="#1a141f" fill-opacity="0.501961" points="70,91 84,95 60,96" />
<polygon fill="#60726b" fill-opacity="0.501961" points="213,113 244,87 255,111" />
<polygon fill="#ab6c60" fill-opacity="0.501961" points="202,95 196,116 203,122" />
<polygon fill="#f0ede9" fill-opacity="0.501961" points="244,86 146,85 164,62" />
<polygon fill="#d9d0ca" fill-opacity="0.501961" points="139,61 101,34 139,48" />
<polygon fill="#c290ac" fill-opacity="0.501961" points="117,82 98,84 115,71" />
<polygon fill="#4d4637" fill-opacity="0.501961" points="114,33 163,60 144,37" />
<polygon fill="#3e3e47" fill-opacity="0.501961" points="119,49 131,55 139,79" />
<polygon fill="#e3dac9" fill-opacity="0.501961" points="61,154 54,103 84,146" />
<polygon fill="#6d5041" fill-opacity="0.501961" points="18,27 18,44 6,40" />
<polygon fill="#501336" fill-opacity="0.501961" points="116,83 97,66 86,69" />
<polygon fill="#f3f7f8" fill-opacity="0.501961" points="61,87 57,50 84,90" />
<polygon fill="#fbf5e7" fill-opacity="0.501961" points="120,97 120,114 112,94" />
<polygon fill="#b9bbcd" fill-opacity="0.501961" points="80,92 91,55 96,100" />
<polygon fill="#918276" fill-opacity="0.501961" points="-11,58 8,51 26,61" />
<polygon fill="#4f7dc5" fill-opacity="0.501961" points="71,57 55,26 -7,25" />
<polygon fill="#a6a19a" fill-opacity="0.501961" points="177,159 161,110 176,107" />
<polygon fill="#5791e4" fill-opacity="0.501961" points="167,59 169,28 154,68" />
<polygon fill="#e5d3b2" fill-opacity="0.501961" points="177,46 194,78 167,51" />
<polygon fill="#848377" fill-opacity="0.501961" points="13,106 6,135 15,124" />
<polygon fill="#8cb5c8" fill-opacity="0.501961" points="198,72 264,65 268,96" />
<polygon fill="#3d5fad" fill-opacity="0.501961" points="103,-16 133,36 92,4" />
<polygon fill="#576995" fill-opacity="0.501961" points="176,39 200,51 185,59" />
<polygon fill="#ece9e2" fill-opacity="0.501961" points="23,61 -10,86 48,99" />
<polygon fill="#cfc1b2" fill-opacity="0.501961" points="27,58 59,101 60,80" />
<polygon fill="#3d6a69" fill-opacity="0.501961" points="48,114 55,97 45,90" />
<polygon fill="#e6e2d4" fill-opacity="0.501961" points="-3,121 28,99 -16,96" />
<polygon fill="#4f5068" fill-opacity="0.501961" points="144,66 148,124 120,62" />
<polygon fill="#736f63" fill-opacity="0.501961" points="190,99 201,96 182,95" />
<polygon fill="#81a4d4" fill-opacity="0.501961" points="152,13 193,53 271,52" />
<polygon fill="#bc634e" fill-opacity="0.501961" points="64,43 87,67 84,86" />
<polygon fill="#dde4c4" fill-opacity="0.501961" points="252,118 271,125 233,122" />
<polygon fill="#654e47" fill-opacity="0.501961" points="33,42 43,50 26,53" />
<polygon fill="#ab8e94" fill-opacity="0.501961" points="132,28 150,35 123,34" />
<polygon fill="#709c7e" fill-opacity="0.501961" points="92,102 94,125 79,93" />
<polygon fill="#909385" fill-opacity="0.501961" points="150,112 150,128 141,124" />
<polygon fill="#e1e0cf" fill-opacity="0.501961" points="188,60 207,118 209,65" />
<polygon fill="#e2e0d4" fill-opacity="0.501961" points="161,98 195,97 177,142" />
<polygon fill="#929289" fill-opacity="0.501961" points="68,135 76,112 69,107" />
<polygon fill="#3b2b2f" fill-opacity="0.501961" points="101,157 131,114 92,111" />
<polygon fill="#b6adb4" fill-opacity="0.501961" points="139,55 90,50 106,42" />
<polygon fill="#5b8788" fill-opacity="0.501961" points="215,77 241,77 251,87" />
<polygon fill="#8d8199" fill-opacity="0.501961" points="251,96 206,96 223,105" />
<polygon fill="#57213c" fill-opacity="0.501961" points="100,80 92,116 110,110" />
<polygon fill="#ebecd9" fill-opacity="0.501961" points="211,119 233,121 207,126" />
<polygon fill="#4f72bb" fill-opacity="0.501961" points="164,49 145,50 149,-16" />
<polygon fill="#abdefe" fill-opacity="0.501961" points="28,45 21,37 22,62" />
<polygon fill="#f9ecd7" fill-opacity="0.501961" points="79,43 71,50 62,39" />
<polygon fill="#dde3e7" fill-opacity="0.501961" points="217,67 261,63 211,49" />
<polygon fill="#d3c7b7" fill-opacity="0.501961" points="14,116 22,159 29,84" />
<polygon fill="#d6d1c1" fill-opacity="0.501961" points="87,148 42,128 91,128" />
<polygon fill="#ecf1f0" fill-opacity="0.501961" points="79,54 52,54 45,73" />
<polygon fill="#f5ede3" fill-opacity="0.501961" points="111,63 124,58 113,47" />
<polygon fill="#a4b3cc" fill-opacity="0.501961" points="218,-5 186,9 155,3" />
<polygon fill="#8080a3" fill-opacity="0.501961" points="93,76 99,87 89,111" />
<polygon fill="#1f43a5" fill-opacity="0.501961" points="138,29 -3,3 44,-16" />
<polygon fill="#4b3a59" fill-opacity="0.501961" points="235,98 243,89 230,91" />
<polygon fill="#ebebec" fill-opacity="0.501961" points="89,95 90,74 83,82" />
<polygon fill="#f6e4e2" fill-opacity="0.501961" points="251,83 248,91 269,89" />
<polygon fill="#fff0c1" fill-opacity="0.501961" points="142,49 134,44 135,56" />
<polygon fill="#639b68" fill-opacity="0.501961" points="271,99 270,122 216,114" />
<polygon fill="#fdeccb" fill-opacity="0.501961" points="39,50 33,65 31,50" />
<polygon fill="#6c8bc3" fill-opacity="0.501961" points="271,34 198,47 242,1" />
<polygon fill="#746c7b" fill-opacity="0.501961" points="207,56 216,66 200,64" />
<polygon fill="#fffef7" fill-opacity="0.501961" points="239,87 239,82 231,83" />
<polygon fill="#a0b0bf" fill-opacity="0.501961" points="13,54 47,65 38,71" />
<polygon fill="#e6e7d9" fill-opacity="0.501961" points="195,126 257,129 198,142" />
<polygon fill="#574052" fill-opacity="0.501961" points="185,49 180,40 170,44" />
<polygon fill="#615572" fill-opacity="0.501961" points="147,73 117,91 139,56" />
<polygon fill="#4377c7" fill-opacity="0.501961" points="84,26 86,48 98,52" />
<polygon fill="#8a3434" fill-opacity="0.501961" points="202,106 199,114 203,120" />
<polygon fill="#e6ede2" fill-opacity="0.501961" points="196,101 201,130 192,127" />
<polygon fill="#d4d6ec" fill-opacity="0.501961" points="100,36 95,48 124,42" />
<polygon fill="#436069" fill-opacity="0.501961" points="242,123 227,128 222,123" />
<polygon fill="#d1ab83" fill-opacity="0.501961" points="12,62 22,39 4,40" />
<polygon fill="#264aa6" fill-opacity="0.501961" points="158,28 108,2 125,-14" />
<polygon fill="#7d8eab" fill-opacity="0.501961" points="138,54 156,70 143,66" />
<polygon fill="#f8fbf7" fill-opacity="0.501961" points="127,34 115,24 104,31" />
<polygon fill="#bd9f76" fill-opacity="0.501961" points="61,52 68,56 80,47" />
<polygon fill="#dbdbc7" fill-opacity="0.501961" points="94,120 68,138 82,113" />
<polygon fill="#2f222b" fill-opacity="0.501961" points="4,40 10,34 20,39" />
<polygon fill="#a0a095" fill-opacity="0.501961" points="174,127 178,103 171,112" />
<polygon fill="#546d70" fill-opacity="0.501961" points="56,125 44,128 49,123" />
<polygon fill="#355cb4" fill-opacity="0.501961" points="102,12 131,24 68,27" />
<polygon fill="#dec5a2" fill-opacity="0.501961" points="271,135 205,140 220,159" />
<polygon fill="#d8d5cf" fill-opacity="0.501961" points="70,117 38,120 62,126" />
<polygon fill="#181c20" fill-opacity="0.501961" points="140,64 124,61 127,55" />
<polygon fill="#6c3450" fill-opacity="0.501961" points="127,74 97,91 131,96" />
<polygon fill="#eae8e3" fill-opacity="0.501961" points="148,94 215,77 147,69" />
<polygon fill="#7e7c77" fill-opacity="0.501961" points="33,117 39,133 26,116" />
<polygon fill="#7a7984" fill-opacity="0.501961" points="186,159 175,159 166,123" />
<polygon fill="#ded4c1" fill-opacity="0.501961" points="162,92 159,132 147,112" />
<polygon fill="#dfebe6" fill-opacity="0.501961" points="207,63 201,70 230,69" />
<polygon fill="#5a2440" fill-opacity="0.501961" points="100,62 90,73 109,80" />
<polygon fill="#d7d8ce" fill-opacity="0.501961" points="215,91 184,159 215,128" />
<polygon fill="#d5d0c5" fill-opacity="0.501961" points="206,51 182,93 186,63" />
<polygon fill="#bad5ef" fill-opacity="0.501961" points="1,45 7,30 -16,31" />
<polygon fill="#96868a" fill-opacity="0.501961" points="116,45 98,55 106,46" />
<polygon fill="#3b3d4f" fill-opacity="0.501961" points="130,115 144,89 141,159" />
<polygon fill="#7b858f" fill-opacity="0.501961" points="82,91 85,84 86,102" />
<polygon fill="#8e7e77" fill-opacity="0.501961" points="4,66 11,75 6,75" />
<polygon fill="#b28661" fill-opacity="0.501961" points="86,38 63,38 65,32" />
<polygon fill="#f2e0c1" fill-opacity="0.501961" points="6,64 -6,53 2,92" />
<polygon fill="#d6e6ec" fill-opacity="0.501961" points="101,62 84,49 87,67" />
<polygon fill="#483d3d" fill-opacity="0.501961" points="29,97 44,101 33,102" />
<polygon fill="#b4a5a6" fill-opacity="0.501961" points="246,90 271,100 243,101" />
<polygon fill="#6d8cc4" fill-opacity="0.501961" points="157,38 162,23 215,50" />
<polygon fill="#2e2929" fill-opacity="0.501961" points="85,157 94,119 145,144" />
<polygon fill="#a5819a" fill-opacity="0.501961" points="121,65 108,84 120,75" />
<polygon fill="#6d9cd0" fill-opacity="0.501961" points="242,43 245,58 271,59" />
<polygon fill="#c44e43" fill-opacity="0.501961" points="68,62 80,59 89,78" />
<polygon fill="#d2baca" fill-opacity="0.501961" points="102,65 107,76 112,77" />
<polygon fill="#d2b490" fill-opacity="0.501961" points="23,100 27,78 32,116" />
<polygon fill="#a0abac" fill-opacity="0.501961" points="53,78 61,66 56,90" />
<polygon fill="#dfd9d2" fill-opacity="0.501961" points="56,98 73,97 67,123" />
<polygon fill="#7e6f5e" fill-opacity="0.501961" points="165,112 161,114 166,122" />
<polygon fill="#6384be" fill-opacity="0.501961" points="135,16 127,25 100,3" />
<polygon fill="#e4e0d1" fill-opacity="0.501961" points="144,125 171,96 191,98" />
<polygon fill="#6595d2" fill-opacity="0.501961" points="62,44 36,37 51,56" />
<polygon fill="#524d4c" fill-opacity="0.501961" points="179,91 183,96 164,94" />
<polygon fill="#3058b1" fill-opacity="0.501961" points="100,38 52,9 99,21" />
<polygon fill="#dfdad5" fill-opacity="0.501961" points="46,114 27,111 42,102" />
<polygon fill="#e7e4d3" fill-opacity="0.501961" points="216,78 198,93 157,91" />
<polygon fill="#bd855d" fill-opacity="0.501961" points="160,61 153,53 146,53" />
<polygon fill="#f1e6d5" fill-opacity="0.501961" points="123,53 102,57 106,49" />
<polygon fill="#bab6c9" fill-opacity="0.501961" points="97,47 103,47 104,66" />
<polygon fill="#5e4d4e" fill-opacity="0.501961" points="35,47 41,56 44,50" />
<polygon fill="#651c40" fill-opacity="0.501961" points="120,91 111,73 110,82" />
<polygon fill="#bdb6aa" fill-opacity="0.501961" points="6,122 12,156 -16,134" />
<polygon fill="#f6e7c4" fill-opacity="0.501961" points="44,157 30,150 30,127" />
<polygon fill="#e8e9e7" fill-opacity="0.501961" points="47,77 20,61 -8,96" />
<polygon fill="#3a5fb4" fill-opacity="0.501961" points="22,37 47,7 -16,19" />
<polygon fill="#70756c" fill-opacity="0.501961" points="71,113 68,128 74,126" />
<polygon fill="#3e4437" fill-opacity="0.501961" points="134,46 145,40 118,36" />
<polygon fill="#ded0ca" fill-opacity="0.501961" points="120,109 108,113 111,107" />
<polygon fill="#fae0c2" fill-opacity="0.501961" points="61,96 41,86 43,75" />
<polygon fill="#ab988d" fill-opacity="0.501961" points="185,72 186,66 197,71" />
<polygon fill="#3d342b" fill-opacity="0.501961" points="-2,97 11,94 -16,92" />
<polygon fill="#212448" fill-opacity="0.501961" points="65,36 61,36 66,30" />
<polygon fill="#736168" fill-opacity="0.501961" points="183,60 197,55 189,50" />
<polygon fill="#e8cb97" fill-opacity="0.501961" points="171,48 183,49 173,64" />
<polygon fill="#8ba1ca" fill-opacity="0.501961" points="240,28 188,37 236,-16" />
<polygon fill="#446763" fill-opacity="0.501961" points="243,123 234,127 255,127" />
<polygon fill="#bfd7ea" fill-opacity="0.501961" points="183,69 178,55 185,53" />
<polygon fill="#6c83b6" fill-opacity="0.501961" points="154,18 144,-12 183,17" />
<polygon fill="#e6e7e8" fill-opacity="0.501961" points="144,83 203,76 163,61" />
<polygon fill="#dbd3bf" fill-opacity="0.501961" points="145,154 160,149 143,121" />
<polygon fill="#bad2ee" fill-opacity="0.501961" points="256,77 212,77 232,70" />
<polygon fill="#4b5e62" fill-opacity="0.501961" points="10,122 9,127 15,128" />
<polygon fill="#464150" fill-opacity="0.501961" points="146,121 147,96 117,87" />
<polygon fill="#739e7e" fill-opacity="0.501961" points="255,119 215,102 217,114" />
<polygon fill="#dddcd3" fill-opacity="0.501961" points="180,154 152,131 154,108" />
<polygon fill="#5e5470" fill-opacity="0.501961" points="182,40 170,41 168,50" />
<polygon fill="#878077" fill-opacity="0.501961" points="46,159 37,153 36,132" />
<polygon fill="#595455" fill-opacity="0.501961" points="17,90 21,96 -1,96" />
<polygon fill="#e5e3d5" fill-opacity="0.501961" points="67,92 85,78 79,90" />
<polygon fill="#afa9b3" fill-opacity="0.501961" points="136,64 136,71 134,68" />
<polygon fill="#231017" fill-opacity="0.501961" points="112,67 107,57 104,61" />
<polygon fill="#4d2339" fill-opacity="0.501961" points="98,93 116,119 94,110" />
<polygon fill="#508486" fill-opacity="0.501961" points="259,81 242,84 235,78" />
<polygon fill="#fefcdf" fill-opacity="0.501961" points="245,129 269,148 264,128" />
<polygon fill="#4368b6" fill-opacity="0.501961" points="93,44 104,24 77,39" />
<polygon fill="#dfd8c9" fill-opacity="0.501961" points="10,90 22,92 30,76" />
<polygon fill="#e3d9b2" fill-opacity="0.501961" points="166,73 156,77 159,100" />
<polygon fill="#5d203b" fill-opacity="0.501961" points="130,121 120,116 126,98" />
<polygon fill="#b0aea3" fill-opacity="0.501961" points="195,122 185,144 191,107" />
<polygon fill="#938e8b" fill-opacity="0.501961" points="146,50 137,42 123,43" />
<polygon fill="#c6bed2" fill-opacity="0.501961" points="224,99 233,81 223,85" />
<polygon fill="#d1ccbd" fill-opacity="0.501961" points="148,113 146,99 173,115" />
<polygon fill="#ffffff" fill-opacity="0.501961" points="102,81 103,83 107,81" />
<polygon fill="#e8ebdd" fill-opacity="0.501961" points="214,109 214,100 184,98" />
<polygon fill="#0d0e26" fill-opacity="0.501961" points="117,35 130,41 124,36" />
<polygon fill="#6d6d64" fill-opacity="0.501961" points="200,99 208,96 216,99" />
<polygon fill="#5e91d5" fill-opacity="0.501961" points="188,42 181,54 195,49" />
<polygon fill="#b1c4dc" fill-opacity="0.501961" points="227,2 191,-10 183,0" />
<polygon fill="#5889cd" fill-opacity="0.501961" points="162,32 169,58 158,62" />
<polygon fill="#629c77" fill-opacity="0.501961" points="90,115 95,102 84,103" />
<polygon fill="#d7d6cd" fill-opacity="0.501961" points="2,95 14,95 1,113" />
<polygon fill="#a0b2d0" fill-opacity="0.501961" points="201,40 170,25 189,24" />
<polygon fill="#3b4350" fill-opacity="0.501961" points="4,60 -12,43 -16,13" />
<polygon fill="#cad1d1" fill-opacity="0.501961" points="61,53 45,51 32,66" />
<polygon fill="#5179c2" fill-opacity="0.501961" points="43,50 65,11 58,52" />
<polygon fill="#f2d0a0" fill-opacity="0.501961" points="147,69 147,57 157,61" />
<polygon fill="#3c3d42" fill-opacity="0.501961" points="140,93 141,97 155,96" />
<polygon fill="#83312c" fill-opacity="0.501961" points="75,75 82,75 71,71" />
<polygon fill="#524942" fill-opacity="0.501961" points="168,96 167,93 161,95" />
<polygon fill="#eae6e1" fill-opacity="0.501961" points="119,112 119,99 111,96" />
<polygon fill="#2d272d" fill-opacity="0.501961" points="112,63 116,61 118,71" />
<polygon fill="#6c501f" fill-opacity="0.501961" points="110,47 107,51 111,49" />
<polygon fill="#485d88" fill-opacity="0.501961" points="150,47 132,60 145,57" />
<polygon fill="#dddad3" fill-opacity="0.501961" points="83,99 60,100 90,135" />
<polygon fill="#a6c9e2" fill-opacity="0.501961" points="20,51 31,69 25,38" />
<polygon fill="#aa9379" fill-opacity="0.501961" points="173,65 180,63 169,55" />
<polygon fill="#693b52" fill-opacity="0.501961" points="109,83 109,60 114,67" />
<polygon fill="#464553" fill-opacity="0.501961" points="109,33 121,34 117,38" />
<polygon fill="#443d45" fill-opacity="0.501961" points="74,91 83,97 72,96" />
<polygon fill="#1a3b9d" fill-opacity="0.501961" points="-16,-14 61,15 85,-7" />
<polygon fill="#e4e4dd" fill-opacity="0.501961" points="164,110 171,130 171,100" />
<polygon fill="#a9a5c3" fill-opacity="0.501961" points="117,43 118,37 129,43" />
<polygon fill="#9b738e" fill-opacity="0.501961" points="106,94 101,94 111,89" />
<polygon fill="#626b80" fill-opacity="0.501961" points="231,108 234,98 271,109" />
<polygon fill="#8badd6" fill-opacity="0.501961" points="206,44 260,45 230,55" />
<polygon fill="#f2bc80" fill-opacity="0.501961" points="199,61 188,58 191,56" />
<polygon fill="#d6d4c9" fill-opacity="0.501961" points="39,101 28,101 32,114" />
<polygon fill="#5776b9" fill-opacity="0.501961" points="224,-16 249,15 237,-16" />
<polygon fill="#3e6259" fill-opacity="0.501961" points="251,123 266,134 265,123" />
<polygon fill="#bfbbb2" fill-opacity="0.501961" points="74,141 54,150 53,123" />
<polygon fill="#c15041" fill-opacity="0.501961" points="70,60 72,67 67,62" />
<polygon fill="#385cb2" fill-opacity="0.501961" points="42,36 40,8 -16,12" />
<polygon fill="#e7e1e7" fill-opacity="0.501961" points="109,75 104,67 104,71" />
<polygon fill="#66a373" fill-opacity="0.501961" points="54,121 46,111 53,99" />
<polygon fill="#dbd9e1" fill-opacity="0.501961" points="108,39 116,37 117,56" />
<polygon fill="#938879" fill-opacity="0.501961" points="16,149 18,137 13,126" />
<polygon fill="#7d758d" fill-opacity="0.501961" points="144,30 151,40 126,32" />
<polygon fill="#c9e1f5" fill-opacity="0.501961" points="200,67 194,72 201,52" />
<polygon fill="#d8dcdf" fill-opacity="0.501961" points="239,87 236,89 227,81" />
<polygon fill="#7b749e" fill-opacity="0.501961" points="225,93 215,90 221,85" />
<polygon fill="#e2e1d4" fill-opacity="0.501961" points="181,80 219,81 214,96" />
<polygon fill="#f0f1f3" fill-opacity="0.501961" points="60,67 37,70 54,74" />
<polygon fill="#5f314b" fill-opacity="0.501961" points="101,61 109,79 96,67" />
<polygon fill="#e5e2e2" fill-opacity="0.501961" points="116,58 106,56 99,42" />
<polygon fill="#565566" fill-opacity="0.501961" points="6,71 11,75 7,74" />
<polygon fill="#4a6fbb" fill-opacity="0.501961" points="147,18 161,13 147,49" />
<polygon fill="#ecedf2" fill-opacity="0.501961" points="9,72 7,61 37,77" />
<polygon fill="#6188c5" fill-opacity="0.501961" points="62,44 37,36 26,43" />
<polygon fill="#ccad8e" fill-opacity="0.501961" points="27,64 36,70 37,62" />
<polygon fill="#716f6d" fill-opacity="0.501961" points="182,98 193,95 197,98" />
<polygon fill="#649ae2" fill-opacity="0.501961" points="144,51 141,60 145,65" />
<polygon fill="#484260" fill-opacity="0.501961" points="88,36 62,29 73,24" />
<polygon fill="#e3d5c6" fill-opacity="0.501961" points="77,54 61,37 72,40" />
<polygon fill="#fdf6d3" fill-opacity="0.501961" points="53,133 51,144 48,128" />
<polygon fill="#5e79b7" fill-opacity="0.501961" points="204,26 190,6 195,26" />
<polygon fill="#bb8f7c" fill-opacity="0.501961" points="55,108 59,104 55,100" />
<polygon fill="#e8e5ce" fill-opacity="0.501961" points="228,124 242,120 229,120" />
<polygon fill="#baac92" fill-opacity="0.501961" points="162,104 150,112 161,98" />
<polygon fill="#4d7ac1" fill-opacity="0.501961" points="93,44 78,51 84,27" />
<polygon fill="#aa9b8b" fill-opacity="0.501961" points="30,95 34,96 25,100" />
<polygon fill="#ebe8db" fill-opacity="0.501961" points="161,100 149,99 148,106" />
<polygon fill="#4a676d" fill-opacity="0.501961" points="218,127 219,122 224,125" />
<polygon fill="#e7eaea" fill-opacity="0.501961" points="216,50 226,57 206,56" />
<polygon fill="#b7b2ab" fill-opacity="0.501961" points="30,122 31,141 3,159" />
<polygon fill="#47405f" fill-opacity="0.501961" points="29,46 39,44 43,52" />
<polygon fill="#84a9d5" fill-opacity="0.501961" points="201,47 222,49 196,54" />
<polygon fill="#8f908c" fill-opacity="0.501961" points="27,121 34,129 38,111" />
<polygon fill="#5d6a97" fill-opacity="0.501961" points="194,46 192,53 198,58" />
<polygon fill="#98b0d2" fill-opacity="0.501961" points="128,23 129,15 133,18" />
<polygon fill="#8d85a3" fill-opacity="0.501961" points="101,58 101,49 94,66" />
<polygon fill="#96bde1" fill-opacity="0.501961" points="39,64 45,71 45,59" />
<polygon fill="#99958d" fill-opacity="0.501961" points="75,115 64,113 75,112" />
<polygon fill="#47454c" fill-opacity="0.501961" points="163,116 166,120 165,123" />
<polygon fill="#dddbd0" fill-opacity="0.501961" points="185,114 167,96 207,99" />
<polygon fill="#fffad1" fill-opacity="0.501961" points="134,47 133,55 131,51" />
<polygon fill="#927b94" fill-opacity="0.501961" points="91,89 92,68 96,84" />
<polygon fill="#e9e7dd" fill-opacity="0.501961" points="45,100 42,87 27,86" />
<polygon fill="#2f1824" fill-opacity="0.501961" points="109,59 111,72 105,66" />
<polygon fill="#b49e8d" fill-opacity="0.501961" points="153,70 147,67 154,63" />
<polygon fill="#6277b9" fill-opacity="0.501961" points="76,26 45,29 56,20" />
<polygon fill="#abaeae" fill-opacity="0.501961" points="208,78 213,74 194,69" />
<polygon fill="#656281" fill-opacity="0.501961" points="211,57 211,65 204,57" />
<polygon fill="#d7d7c5" fill-opacity="0.501961" points="248,124 236,120 262,120" />
<polygon fill="#6482bc" fill-opacity="0.501961" points="47,-16 100,-16 103,4" />
<polygon fill="#dcd3d2" fill-opacity="0.501961" points="112,73 116,80 115,73" />
<polygon fill="#efd8b4" fill-opacity="0.501961" points="14,40 8,46 13,54" />
<polygon fill="#e8faff" fill-opacity="0.501961" points="-13,43 0,57 -1,71" />
<polygon fill="#eaeae6" fill-opacity="0.501961" points="59,89 65,58 82,92" />
<polygon fill="#2b2f38" fill-opacity="0.501961" points="125,57 141,65 123,64" />
<polygon fill="#6687c2" fill-opacity="0.501961" points="231,40 213,27 271,27" />
<polygon fill="#729e71" fill-opacity="0.501961" points="249,109 271,120 236,119" />
<polygon fill="#3055ae" fill-opacity="0.501961" points="115,9 120,25 72,23" />
<polygon fill="#484443" fill-opacity="0.501961" points="156,97 153,94 152,95" />
<polygon fill="#647a76" fill-opacity="0.501961" points="46,121 48,128 51,127" />
<polygon fill="#bf5550" fill-opacity="0.501961" points="89,71 80,56 69,65" />
<polygon fill="#4067bb" fill-opacity="0.501961" points="148,13 152,29 122,28" />
<polygon fill="#b0a48f" fill-opacity="0.501961" points="80,56 64,44 71,57" />
<polygon fill="#756f75" fill-opacity="0.501961" points="111,87 125,96 114,95" />
<polygon fill="#98b1c9" fill-opacity="0.501961" points="9,55 4,40 -12,44" />
<polygon fill="#d4d2bf" fill-opacity="0.501961" points="189,132 182,159 229,135" />
<polygon fill="#564f75" fill-opacity="0.501961" points="146,46 139,57 158,50" />
<polygon fill="#a7cae2" fill-opacity="0.501961" points="28,60 23,40 16,60" />
<polygon fill="#6d89c0" fill-opacity="0.501961" points="248,10 207,11 242,20" />
<polygon fill="#7f7986" fill-opacity="0.501961" points="264,101 243,92 271,94" />
<polygon fill="#334130" fill-opacity="0.501961" points="124,37 147,45 144,38" />
<polygon fill="#9e8564" fill-opacity="0.501961" points="120,53 114,49 120,51" />
<polygon fill="#5f6c7d" fill-opacity="0.501961" points="44,103 47,89 49,95" />
<polygon fill="#4460a3" fill-opacity="0.501961" points="5,46 11,28 5,14" />
<polygon fill="#98b8de" fill-opacity="0.501961" points="271,77 216,72 271,62" />
<polygon fill="#f9ebbb" fill-opacity="0.501961" points="71,130 78,142 68,153" />
<polygon fill="#bdbaba" fill-opacity="0.501961" points="41,148 47,138 35,117" />
<polygon fill="#e6eae0" fill-opacity="0.501961" points="193,119 198,109 196,128" />
<polygon fill="#a5a8a8" fill-opacity="0.501961" points="166,124 175,138 174,122" />
<polygon fill="#848995" fill-opacity="0.501961" points="215,110 221,97 240,95" />
<polygon fill="#cfd4c7" fill-opacity="0.501961" points="197,126 225,120 203,133" />
<polygon fill="#bdb9b0" fill-opacity="0.501961" points="98,154 74,125 82,155" />
<polygon fill="#dbdce8" fill-opacity="0.501961" points="98,41 102,40 97,52" />
<polygon fill="#bda082" fill-opacity="0.501961" points="30,121 29,103 24,105" />
<polygon fill="#ebe7df" fill-opacity="0.501961" points="116,48 111,50 120,56" />
<polygon fill="#592841" fill-opacity="0.501961" points="107,75 90,69 100,64" />
<polygon fill="#eef4f7" fill-opacity="0.501961" points="198,74 196,94 192,73" />
<polygon fill="#eaeaed" fill-opacity="0.501961" points="193,74 160,62 167,87" />
<polygon fill="#2f2f3e" fill-opacity="0.501961" points="72,31 79,28 84,35" />
<polygon fill="#d0d1cd" fill-opacity="0.501961" points="22,99 28,138 16,121" />
<polygon fill="#416bbb" fill-opacity="0.501961" points="18,30 61,29 62,41" />
<polygon fill="#74a577" fill-opacity="0.501961" points="221,119 252,114 216,108" />
<polygon fill="#f2f4ef" fill-opacity="0.501961" points="115,27 111,34 105,28" />
<polygon fill="#5c5268" fill-opacity="0.501961" points="244,91 226,94 241,97" />
</g>
</svg>