<svg xmlns="http://www.w3.org/2000/svg" version="1.1" width="1024" height="576">
<rect x="0" y="0" width="1024" height="576" fill="#633c33" />
<g transform="scale(4.000000) translate(0.5 0.5)">
<polygon fill="#ff7e49" fill-opacity="0.501961" points="125,48 -16,2 271,-13" />
<polygon fill="#000002" fill-opacity="0.501961" points="2,159 90,47 -16,52" />
<polygon fill="#010d18" fill-opacity="0.501961" points="271,158 236,18 152,93" />
<polygon fill="#98bbeb" fill-opacity="0.501961" points="79,125 83,148 168,132" />
<polygon fill="#ffb872" fill-opacity="0.501961" points="35,-16 18,39 -16,7" />
<polygon fill="#9d8fa8" fill-opacity="0.501961" points="175,153 155,132 186,96" />
<polygon fill="#fb8361" fill-opacity="0.501961" points="87,133 59,84 82,81" />
<polygon fill="#2a1817" fill-opacity="0.501961" points="160,23 179,99 197,0" />
<polygon fill="#cd9891" fill-opacity="0.501961" points="194,4 219,34 244,-16" />
<polygon fill="#ffa779" fill-opacity="0.501961" points="37,112 47,117 22,147" />
<polygon fill="#f2d7f3" fill-opacity="0.501961" points="158,5 108,4 122,-8" />
<polygon fill="#8a80a1" fill-opacity="0.501961" points="123,134 111,95 71,137" />
<polygon fill="#00040b" fill-opacity="0.501961" points="109,97 76,68 94,113" />
<polygon fill="#1f1619" fill-opacity="0.501961" points="9,159 75,104 76,159" />
<polygon fill="#1d1b26" fill-opacity="0.501961" points="129,159 54,140 204,137" />
<polygon fill="#812e1c" fill-opacity="0.501961" points="176,43 26,13 -16,56" />
<polygon fill="#e9692f" fill-opacity="0.501961" points="140,-7 -16,36 41,-16" />
<polygon fill="#fef6c4" fill-opacity="0.501961" points="13,-16 -10,-16 11,26" />
<polygon fill="#1e1918" fill-opacity="0.501961" points="-16,141 93,61 36,31" />
<polygon fill="#8d4431" fill-opacity="0.501961" points="122,115 85,70 212,-16" />
<polygon fill="#8296b7" fill-opacity="0.501961" points="138,129 169,152 182,129" />
<polygon fill="#0c1113" fill-opacity="0.501961" points="174,115 211,27 154,99" />
<polygon fill="#a25341" fill-opacity="0.501961" points="176,105 196,93 206,123" />
<polygon fill="#d3988d" fill-opacity="0.501961" points="217,2 193,45 206,-7" />
<polygon fill="#1f1b1e" fill-opacity="0.501961" points="202,50 177,159 239,108" />
<polygon fill="#0d1117" fill-opacity="0.501961" points="60,117 53,89 -16,99" />
<polygon fill="#e9806c" fill-opacity="0.501961" points="215,127 210,148 224,128" />
<polygon fill="#d9a5bc" fill-opacity="0.501961" points="103,115 108,98 92,118" />
<polygon fill="#ebb9c7" fill-opacity="0.501961" points="95,16 98,7 120,2" />
<polygon fill="#ffff97" fill-opacity="0.501961" points="82,101 73,81 82,87" />
<polygon fill="#3c2f38" fill-opacity="0.501961" points="107,129 193,129 138,108" />
<polygon fill="#623838" fill-opacity="0.501961" points="224,39 214,7 188,51" />
<polygon fill="#d56232" fill-opacity="0.501961" points="99,14 155,19 92,52" />
<polygon fill="#a23b36" fill-opacity="0.501961" points="86,133 53,88 73,79" />
<polygon fill="#6c5b75" fill-opacity="0.501961" points="169,113 154,109 151,159" />
<polygon fill="#b7d1e3" fill-opacity="0.501961" points="114,130 153,131 129,137" />
<polygon fill="#3c2119" fill-opacity="0.501961" points="21,57 88,85 86,23" />
<polygon fill="#eb8c6b" fill-opacity="0.501961" points="166,82 155,85 172,70" />
<polygon fill="#422f30" fill-opacity="0.501961" points="243,-16 219,44 271,159" />
<polygon fill="#0c1217" fill-opacity="0.501961" points="-16,22 31,129 4,159" />
<polygon fill="#9fbed4" fill-opacity="0.501961" points="69,138 88,127 104,134" />
<polygon fill="#c36e53" fill-opacity="0.501961" points="108,92 88,75 90,56" />
<polygon fill="#694e61" fill-opacity="0.501961" points="92,113 71,131 124,124" />
<polygon fill="#a64b41" fill-opacity="0.501961" points="123,94 160,79 151,102" />
<polygon fill="#a63b26" fill-opacity="0.501961" points="71,6 -14,32 94,29" />
<polygon fill="#050f12" fill-opacity="0.501961" points="87,74 96,111 84,114" />
<polygon fill="#f8d3d3" fill-opacity="0.501961" points="225,20 241,-12 232,-16" />
<polygon fill="#f97e4b" fill-opacity="0.501961" points="179,124 186,99 177,107" />
<polygon fill="#783f39" fill-opacity="0.501961" points="197,94 204,111 170,129" />
<polygon fill="#2b1e1f" fill-opacity="0.501961" points="203,140 114,138 131,158" />
<polygon fill="#684857" fill-opacity="0.501961" points="100,121 119,87 111,153" />
<polygon fill="#1b191c" fill-opacity="0.501961" points="234,108 177,91 163,25" />
<polygon fill="#9a4326" fill-opacity="0.501961" points="136,-5 200,26 207,-16" />
<polygon fill="#1c1a1d" fill-opacity="0.501961" points="152,58 157,47 138,45" />
<polygon fill="#3c2823" fill-opacity="0.501961" points="80,106 33,133 70,154" />
<polygon fill="#6a2a24" fill-opacity="0.501961" points="166,22 156,9 133,9" />
<polygon fill="#de8066" fill-opacity="0.501961" points="20,46 12,9 1,15" />
<polygon fill="#e4973f" fill-opacity="0.501961" points="26,7 84,0 -16,-16" />
<polygon fill="#ffb176" fill-opacity="0.501961" points="36,124 33,115 43,117" />
<polygon fill="#151718" fill-opacity="0.501961" points="177,66 178,113 157,108" />
<polygon fill="#50322e" fill-opacity="0.501961" points="195,11 168,28 165,63" />
<polygon fill="#b85230" fill-opacity="0.501961" points="119,4 142,4 165,41" />
<polygon fill="#be798b" fill-opacity="0.501961" points="89,35 97,8 88,20" />
<polygon fill="#282328" fill-opacity="0.501961" points="256,159 271,136 184,141" />
<polygon fill="#b87a8e" fill-opacity="0.501961" points="170,23 163,7 153,4" />
<polygon fill="#170f12" fill-opacity="0.501961" points="109,44 106,54 117,56" />
<polygon fill="#1e191a" fill-opacity="0.501961" points="7,42 0,146 58,94" />
<polygon fill="#9fbad7" fill-opacity="0.501961" points="179,129 181,138 154,133" />
<polygon fill="#f7e2d7" fill-opacity="0.501961" points="206,12 225,-16 215,-16" />
<polygon fill="#b586a6" fill-opacity="0.501961" points="165,119 155,109 179,118" />
<polygon fill="#703632" fill-opacity="0.501961" points="80,103 56,102 58,131" />
<polygon fill="#723527" fill-opacity="0.501961" points="100,19 88,41 18,39" />
<polygon fill="#6e423d" fill-opacity="0.501961" points="204,28 230,-5 209,58" />
<polygon fill="#c6838e" fill-opacity="0.501961" points="80,123 79,118 97,114" />
<polygon fill="#191717" fill-opacity="0.501961" points="84,60 65,72 92,90" />
<polygon fill="#cda5b8" fill-opacity="0.501961" points="101,102 109,103 100,113" />
<polygon fill="#824239" fill-opacity="0.501961" points="120,78 85,28 91,70" />
<polygon fill="#1a1614" fill-opacity="0.501961" points="18,159 62,132 111,155" />
<polygon fill="#e14f40" fill-opacity="0.501961" points="57,88 80,96 71,81" />
<polygon fill="#eaeee3" fill-opacity="0.501961" points="4,-5 8,17 -2,-3" />
<polygon fill="#342423" fill-opacity="0.501961" points="220,17 185,63 210,45" />
<polygon fill="#9f482f" fill-opacity="0.501961" points="170,31 94,35 131,56" />
<polygon fill="#b46a53" fill-opacity="0.501961" points="230,6 227,-16 202,26" />
<polygon fill="#694e5c" fill-opacity="0.501961" points="98,110 76,129 104,128" />
<polygon fill="#6c4c53" fill-opacity="0.501961" points="165,127 153,132 152,92" />
<polygon fill="#9fb8d0" fill-opacity="0.501961" points="151,137 139,139 134,132" />
<polygon fill="#fa8765" fill-opacity="0.501961" points="81,117 79,97 84,107" />
<polygon fill="#d4a5b2" fill-opacity="0.501961" points="160,11 147,-1 122,-3" />
<polygon fill="#3b241e" fill-opacity="0.501961" points="156,128 129,102 120,128" />
<polygon fill="#7c5a74" fill-opacity="0.501961" points="32,159 125,159 112,135" />
<polygon fill="#95bfe7" fill-opacity="0.501961" points="75,135 82,129 75,129" />
<polygon fill="#db8863" fill-opacity="0.501961" points="89,73 101,85 94,85" />
<polygon fill="#f2a069" fill-opacity="0.501961" points="34,119 51,121 44,113" />
<polygon fill="#ba411e" fill-opacity="0.501961" points="91,8 39,20 88,22" />
<polygon fill="#181717" fill-opacity="0.501961" points="34,94 54,122 55,81" />
<polygon fill="#4e322d" fill-opacity="0.501961" points="210,132 181,130 184,103" />
<polygon fill="#0f1518" fill-opacity="0.501961" points="84,115 101,106 99,84" />
<polygon fill="#d47038" fill-opacity="0.501961" points="170,31 146,15 104,18" />
<polygon fill="#a24434" fill-opacity="0.501961" points="145,15 97,14 129,2" />
<polygon fill="#4c2e2a" fill-opacity="0.501961" points="73,132 35,130 55,115" />
<polygon fill="#ddbbc2" fill-opacity="0.501961" points="142,-12 101,6 142,1" />
<polygon fill="#60576a" fill-opacity="0.501961" points="202,128 212,136 216,130" />
<polygon fill="#e4b85d" fill-opacity="0.501961" points="9,9 8,-16 18,13" />
<polygon fill="#a5c0d9" fill-opacity="0.501961" points="111,139 122,136 117,131" />
<polygon fill="#60403f" fill-opacity="0.501961" points="107,104 123,82 124,134" />
<polygon fill="#352a35" fill-opacity="0.501961" points="93,58 92,32 83,70" />
<polygon fill="#945d68" fill-opacity="0.501961" points="89,50 92,20 85,33" />
<polygon fill="#b2c0d4" fill-opacity="0.501961" points="87,137 103,137 89,129" />
<polygon fill="#7d4637" fill-opacity="0.501961" points="156,38 170,69 147,99" />
<polygon fill="#17181c" fill-opacity="0.501961" points="203,125 214,131 223,85" />
<polygon fill="#7d413c" fill-opacity="0.501961" points="202,122 186,97 201,99" />
<polygon fill="#1c1b1b" fill-opacity="0.501961" points="106,92 85,77 96,114" />
<polygon fill="#1e1a1a" fill-opacity="0.501961" points="230,41 155,91 209,99" />
<polygon fill="#c66c5a" fill-opacity="0.501961" points="215,130 223,126 211,150" />
<polygon fill="#713331" fill-opacity="0.501961" points="6,22 -16,36 28,57" />
<polygon fill="#483436" fill-opacity="0.501961" points="236,30 250,123 271,65" />
<polygon fill="#a94439" fill-opacity="0.501961" points="57,87 59,106 75,92" />
<polygon fill="#663f45" fill-opacity="0.501961" points="154,9 170,24 173,41" />
<polygon fill="#5f5266" fill-opacity="0.501961" points="155,101 160,144 167,119" />
<polygon fill="#c15532" fill-opacity="0.501961" points="96,28 129,40 161,25" />
<polygon fill="#9b6a71" fill-opacity="0.501961" points="215,30 223,19 216,41" />
<polygon fill="#cb532f" fill-opacity="0.501961" points="15,23 20,7 75,8" />
<polygon fill="#864d4c" fill-opacity="0.501961" points="-16,35 -9,12 8,58" />
<polygon fill="#753a26" fill-opacity="0.501961" points="197,38 194,10 164,9" />
<polygon fill="#16140e" fill-opacity="0.501961" points="147,138 133,159 117,140" />
<polygon fill="#a15041" fill-opacity="0.501961" points="151,92 147,110 157,102" />
<polygon fill="#f4b86e" fill-opacity="0.501961" points="84,104 83,91 80,98" />
<polygon fill="#daa69c" fill-opacity="0.501961" points="202,13 213,-1 200,31" />
<polygon fill="#251c1e" fill-opacity="0.501961" points="140,45 146,57 153,52" />
<polygon fill="#765665" fill-opacity="0.501961" points="118,121 108,81 102,156" />
<polygon fill="#402b22" fill-opacity="0.501961" points="229,15 215,46 265,-7" />
<polygon fill="#443031" fill-opacity="0.501961" points="84,142 93,138 73,138" />
<polygon fill="#d38276" fill-opacity="0.501961" points="92,10 109,1 89,27" />
<polygon fill="#d9a9b9" fill-opacity="0.501961" points="99,111 109,99 104,100" />
<polygon fill="#774c3f" fill-opacity="0.501961" points="263,-16 271,39 242,26" />
<polygon fill="#7e3430" fill-opacity="0.501961" points="95,17 108,15 95,22" />
<polygon fill="#562a1c" fill-opacity="0.501961" points="87,60 45,27 21,42" />
<polygon fill="#614c5e" fill-opacity="0.501961" points="151,132 203,159 159,159" />
<polygon fill="#ca8f8c" fill-opacity="0.501961" points="220,20 223,26 229,5" />
<polygon fill="#3f3335" fill-opacity="0.501961" points="217,137 224,131 247,147" />
<polygon fill="#bc532a" fill-opacity="0.501961" points="145,0 171,12 174,-6" />
<polygon fill="#462622" fill-opacity="0.501961" points="19,48 1,35 8,56" />
<polygon fill="#6d3c32" fill-opacity="0.501961" points="108,72 106,100 165,69" />
<polygon fill="#101214" fill-opacity="0.501961" points="31,107 1,130 16,159" />
<polygon fill="#d6573a" fill-opacity="0.501961" points="-16,-15 -11,27 11,28" />
<polygon fill="#e38d69" fill-opacity="0.501961" points="180,115 186,100 178,105" />
<polygon fill="#8c422e" fill-opacity="0.501961" points="92,78 121,66 94,47" />
<polygon fill="#c07a5a" fill-opacity="0.501961" points="208,-16 199,3 204,15" />
<polygon fill="#843721" fill-opacity="0.501961" points="39,37 86,22 20,25" />
<polygon fill="#fab667" fill-opacity="0.501961" points="6,14 -2,1 -16,10" />
<polygon fill="#e46558" fill-opacity="0.501961" points="34,119 38,125 27,138" />
<polygon fill="#211a19" fill-opacity="0.501961" points="190,92 182,38 166,92" />
<polygon fill="#d56831" fill-opacity="0.501961" points="20,11 114,-16 96,10" />
<polygon fill="#282025" fill-opacity="0.501961" points="250,159 200,67 227,33" />
<polygon fill="#6a3c31" fill-opacity="0.501961" points="153,88 127,81 163,46" />
<polygon fill="#d9733a" fill-opacity="0.501961" points="99,28 114,14 153,17" />
<polygon fill="#624751" fill-opacity="0.501961" points="194,46 188,59 187,51" />
<polygon fill="#705669" fill-opacity="0.501961" points="118,159 100,122 107,102" />
<polygon fill="#191717" fill-opacity="0.501961" points="156,97 177,115 166,81" />
<polygon fill="#cd664e" fill-opacity="0.501961" points="177,116 181,121 179,128" />
<polygon fill="#f4cce9" fill-opacity="0.501961" points="103,104 100,114 103,111" />
<polygon fill="#362a28" fill-opacity="0.501961" points="210,133 217,159 178,141" />
<polygon fill="#58454f" fill-opacity="0.501961" points="207,61 215,41 204,54" />
<polygon fill="#5a342e" fill-opacity="0.501961" points="62,128 79,125 76,99" />
<polygon fill="#4b302a" fill-opacity="0.501961" points="155,132 153,111 132,113" />
<polygon fill="#be95b6" fill-opacity="0.501961" points="89,115 88,119 84,117" />
<polygon fill="#864331" fill-opacity="0.501961" points="107,45 143,44 139,63" />
<polygon fill="#9f4c30" fill-opacity="0.501961" points="162,24 166,49 149,43" />
<polygon fill="#8e4132" fill-opacity="0.501961" points="153,7 127,12 166,17" />
<polygon fill="#6a5166" fill-opacity="0.501961" points="93,136 86,142 110,157" />
<polygon fill="#f8a567" fill-opacity="0.501961" points="79,83 67,84 72,81" />
<polygon fill="#1f1b1c" fill-opacity="0.501961" points="173,115 209,43 155,100" />
<polygon fill="#944f4a" fill-opacity="0.501961" points="21,34 23,58 17,43" />
<polygon fill="#614e61" fill-opacity="0.501961" points="180,124 156,112 156,131" />
<polygon fill="#8c9cb7" fill-opacity="0.501961" points="162,138 164,128 181,136" />
<polygon fill="#281c1b" fill-opacity="0.501961" points="54,98 -16,62 64,66" />
<polygon fill="#653323" fill-opacity="0.501961" points="138,38 147,34 156,38" />
<polygon fill="#41241c" fill-opacity="0.501961" points="22,46 52,62 84,44" />
<polygon fill="#a7534b" fill-opacity="0.501961" points="26,159 30,131 18,150" />
<polygon fill="#5a4658" fill-opacity="0.501961" points="177,139 184,150 148,138" />
<polygon fill="#f7ffa0" fill-opacity="0.501961" points="78,84 81,86 80,93" />
<polygon fill="#945652" fill-opacity="0.501961" points="196,43 195,4 204,12" />
<polygon fill="#231e1f" fill-opacity="0.501961" points="98,102 84,107 101,109" />
<polygon fill="#412d31" fill-opacity="0.501961" points="167,60 164,22 178,53" />
<polygon fill="#7a4339" fill-opacity="0.501961" points="222,13 208,18 215,33" />
<polygon fill="#9d473d" fill-opacity="0.501961" points="133,85 122,100 148,89" />
<polygon fill="#251b19" fill-opacity="0.501961" points="75,135 52,159 69,128" />
<polygon fill="#d6dbe0" fill-opacity="0.501961" points="135,130 139,130 135,137" />
<polygon fill="#8b555f" fill-opacity="0.501961" points="173,35 169,12 165,20" />
<polygon fill="#583939" fill-opacity="0.501961" points="188,36 199,20 190,51" />
<polygon fill="#9aaac3" fill-opacity="0.501961" points="100,139 104,129 83,130" />
<polygon fill="#2b1e1c" fill-opacity="0.501961" points="-6,87 17,82 -16,22" />
<polygon fill="#d64d40" fill-opacity="0.501961" points="75,86 66,84 79,94" />
<polygon fill="#6a3632" fill-opacity="0.501961" points="154,107 116,118 134,93" />
<polygon fill="#d19fc6" fill-opacity="0.501961" points="167,113 165,116 172,116" />
<polygon fill="#58484d" fill-opacity="0.501961" points="210,141 219,125 207,134" />
<polygon fill="#813a29" fill-opacity="0.501961" points="104,36 118,35 119,40" />
<polygon fill="#743832" fill-opacity="0.501961" points="53,116 78,105 58,100" />
<polygon fill="#281c1a" fill-opacity="0.501961" points="88,80 6,77 86,56" />
<polygon fill="#e7c79a" fill-opacity="0.501961" points="10,20 4,14 7,-2" />
<polygon fill="#a24a31" fill-opacity="0.501961" points="145,39 124,41 115,58" />
<polygon fill="#ced5d9" fill-opacity="0.501961" points="83,135 89,130 91,133" />
<polygon fill="#984125" fill-opacity="0.501961" points="162,6 172,17 199,2" />
<polygon fill="#5f3328" fill-opacity="0.501961" points="119,41 116,49 110,46" />
<polygon fill="#201a1d" fill-opacity="0.501961" points="208,59 243,145 165,57" />
<polygon fill="#643c2a" fill-opacity="0.501961" points="80,82 84,82 85,92" />
<polygon fill="#a56351" fill-opacity="0.501961" points="163,78 161,73 154,89" />
<polygon fill="#a93d2a" fill-opacity="0.501961" points="20,24 55,26 21,14" />
<polygon fill="#ba5633" fill-opacity="0.501961" points="154,35 102,33 159,19" />
<polygon fill="#b36b54" fill-opacity="0.501961" points="169,78 166,63 171,66" />
<polygon fill="#41251a" fill-opacity="0.501961" points="173,22 187,43 172,56" />
<polygon fill="#ac4a31" fill-opacity="0.501961" points="135,39 95,47 92,36" />
<polygon fill="#a9bdd2" fill-opacity="0.501961" points="116,129 115,133 128,133" />
<polygon fill="#37292e" fill-opacity="0.501961" points="259,71 231,56 233,113" />
<polygon fill="#e2a24a" fill-opacity="0.501961" points="63,-12 14,-1 39,2" />
<polygon fill="#3e2a24" fill-opacity="0.501961" points="178,153 185,115 195,134" />
<polygon fill="#c5755a" fill-opacity="0.501961" points="179,125 177,104 184,98" />
<polygon fill="#c64e41" fill-opacity="0.501961" points="73,80 58,86 62,96" />
<polygon fill="#58332b" fill-opacity="0.501961" points="30,159 43,121 28,141" />
<polygon fill="#97adcd" fill-opacity="0.501961" points="86,130 75,136 78,138" />
<polygon fill="#211e1d" fill-opacity="0.501961" points="194,86 186,81 171,112" />
<polygon fill="#96a6bf" fill-opacity="0.501961" points="150,137 140,133 145,129" />
<polygon fill="#9f3d23" fill-opacity="0.501961" points="86,28 89,15 58,22" />
<polygon fill="#4a3029" fill-opacity="0.501961" points="221,146 234,149 224,123" />
<polygon fill="#5b342d" fill-opacity="0.501961" points="199,109 182,110 181,122" />
<polygon fill="#7389ac" fill-opacity="0.501961" points="134,136 132,131 128,138" />
<polygon fill="#2e211b" fill-opacity="0.501961" points="216,41 243,21 221,53" />
<polygon fill="#d57838" fill-opacity="0.501961" points="121,-1 86,-12 40,5" />
<polygon fill="#3a2828" fill-opacity="0.501961" points="193,55 218,24 205,55" />
<polygon fill="#e9a17f" fill-opacity="0.501961" points="11,21 15,31 10,27" />
<polygon fill="#1e181a" fill-opacity="0.501961" points="50,113 59,75 -11,101" />
<polygon fill="#4f2f28" fill-opacity="0.501961" points="138,42 158,49 138,49" />
<polygon fill="#71586c" fill-opacity="0.501961" points="89,114 112,141 115,118" />
<polygon fill="#dc725f" fill-opacity="0.501961" points="223,127 215,139 215,132" />
<polygon fill="#edc27a" fill-opacity="0.501961" points="43,116 40,122 37,115" />
<polygon fill="#e5c3b5" fill-opacity="0.501961" points="208,14 219,-16 209,-16" />
<polygon fill="#583a35" fill-opacity="0.501961" points="271,75 235,38 245,20" />
<polygon fill="#9ca9c1" fill-opacity="0.501961" points="176,130 183,136 161,131" />
<polygon fill="#764336" fill-opacity="0.501961" points="161,80 152,47 169,70" />
<polygon fill="#e4a658" fill-opacity="0.501961" points="20,-5 9,5 12,17" />
<polygon fill="#553f4e" fill-opacity="0.501961" points="172,32 169,42 172,52" />
<polygon fill="#7c4134" fill-opacity="0.501961" points="120,49 99,76 116,107" />
<polygon fill="#c5522b" fill-opacity="0.501961" points="50,10 85,17 95,7" />
<polygon fill="#1f1a1a" fill-opacity="0.501961" points="105,99 83,82 89,107" />
<polygon fill="#903f36" fill-opacity="0.501961" points="79,108 79,101 57,95" />
<polygon fill="#b56260" fill-opacity="0.501961" points="89,34 98,14 88,14" />
<polygon fill="#1b191a" fill-opacity="0.501961" points="159,109 155,91 215,74" />
<polygon fill="#b3c0d4" fill-opacity="0.501961" points="129,129 129,136 123,137" />
<polygon fill="#342924" fill-opacity="0.501961" points="149,127 118,129 123,121" />
<polygon fill="#c5847f" fill-opacity="0.501961" points="155,9 166,11 147,1" />
<polygon fill="#5d5266" fill-opacity="0.501961" points="84,133 89,159 99,159" />
<polygon fill="#5b576f" fill-opacity="0.501961" points="169,157 176,156 171,131" />
<polygon fill="#4a2a26" fill-opacity="0.501961" points="13,41 26,58 5,50" />
<polygon fill="#7b4739" fill-opacity="0.501961" points="220,139 209,145 224,129" />
<polygon fill="#38302e" fill-opacity="0.501961" points="153,135 153,149 146,154" />
<polygon fill="#9e3e30" fill-opacity="0.501961" points="-6,17 16,36 -9,30" />
<polygon fill="#65321f" fill-opacity="0.501961" points="171,19 195,16 177,34" />
<polygon fill="#382724" fill-opacity="0.501961" points="159,156 203,125 216,158" />
<polygon fill="#b0c0d2" fill-opacity="0.501961" points="146,136 148,137 150,129" />
<polygon fill="#d79f9c" fill-opacity="0.501961" points="109,2 102,9 125,3" />
<polygon fill="#76321d" fill-opacity="0.501961" points="36,32 85,37 85,24" />
<polygon fill="#1a1c1c" fill-opacity="0.501961" points="104,92 100,86 100,102" />
<polygon fill="#b27059" fill-opacity="0.501961" points="211,18 235,-6 215,-3" />
<polygon fill="#d79c98" fill-opacity="0.501961" points="107,6 97,8 92,14" />
<polygon fill="#2e1d1b" fill-opacity="0.501961" points="106,47 111,57 115,50" />
<polygon fill="#705055" fill-opacity="0.501961" points="211,47 217,39 217,25" />
<polygon fill="#705567" fill-opacity="0.501961" points="120,120 105,136 103,109" />
<polygon fill="#37211c" fill-opacity="0.501961" points="85,49 88,64 35,60" />
<polygon fill="#523327" fill-opacity="0.501961" points="271,-16 232,-16 241,10" />
<polygon fill="#672f2a" fill-opacity="0.501961" points="18,30 25,52 26,37" />
<polygon fill="#583d48" fill-opacity="0.501961" points="92,48 90,63 86,37" />
<polygon fill="#956873" fill-opacity="0.501961" points="215,132 215,135 206,130" />
<polygon fill="#81443c" fill-opacity="0.501961" points="196,96 187,96 184,106" />
<polygon fill="#965343" fill-opacity="0.501961" points="108,97 105,85 110,91" />
<polygon fill="#261c18" fill-opacity="0.501961" points="188,69 171,71 172,45" />
<polygon fill="#773834" fill-opacity="0.501961" points="152,102 146,93 128,102" />
<polygon fill="#d8946a" fill-opacity="0.501961" points="181,107 180,101 185,98" />
<polygon fill="#b9684b" fill-opacity="0.501961" points="96,67 90,65 91,61" />
<polygon fill="#e6c373" fill-opacity="0.501961" points="15,10 14,-4 -5,-16" />
<polygon fill="#8c432f" fill-opacity="0.501961" points="126,53 122,64 105,61" />
<polygon fill="#e28860" fill-opacity="0.501961" points="98,84 90,77 88,67" />
<polygon fill="#6d586d" fill-opacity="0.501961" points="89,138 110,138 120,159" />
<polygon fill="#d26c31" fill-opacity="0.501961" points="109,3 78,-2 121,-16" />
<polygon fill="#462d28" fill-opacity="0.501961" points="36,133 81,127 57,120" />
<polygon fill="#311f1a" fill-opacity="0.501961" points="93,61 67,68 64,54" />
<polygon fill="#5c4e60" fill-opacity="0.501961" points="152,132 156,121 168,128" />
<polygon fill="#ea7f5e" fill-opacity="0.501961" points="33,132 39,123 36,118" />
<polygon fill="#7e3f30" fill-opacity="0.501961" points="94,74 89,68 97,66" />
<polygon fill="#a47076" fill-opacity="0.501961" points="218,28 217,36 222,26" />
<polygon fill="#c65d34" fill-opacity="0.501961" points="93,38 98,24 142,22" />
<polygon fill="#3a3041" fill-opacity="0.501961" points="170,48 165,63 173,55" />
<polygon fill="#2f251e" fill-opacity="0.501961" points="85,159 77,138 83,138" />
<polygon fill="#2a2127" fill-opacity="0.501961" points="215,90 244,159 237,69" />
<polygon fill="#19191a" fill-opacity="0.501961" points="210,96 216,130 203,110" />
<polygon fill="#51281b" fill-opacity="0.501961" points="72,50 83,38 29,40" />
<polygon fill="#1b181a" fill-opacity="0.501961" points="88,115 99,104 87,85" />
<polygon fill="#412c26" fill-opacity="0.501961" points="86,107 84,109 86,114" />
<polygon fill="#6a5262" fill-opacity="0.501961" points="94,121 113,113 93,131" />
<polygon fill="#794c45" fill-opacity="0.501961" points="35,119 35,114 29,124" />
<polygon fill="#6b3d35" fill-opacity="0.501961" points="110,80 129,82 116,115" />
<polygon fill="#171617" fill-opacity="0.501961" points="17,145 -14,116 38,105" />
<polygon fill="#d3a49c" fill-opacity="0.501961" points="228,16 231,3 225,9" />
<polygon fill="#614f63" fill-opacity="0.501961" points="160,135 142,156 181,159" />
<polygon fill="#3c2829" fill-opacity="0.501961" points="189,54 182,49 193,34" />
<polygon fill="#613630" fill-opacity="0.501961" points="132,89 138,80 121,77" />
<polygon fill="#7b412d" fill-opacity="0.501961" points="154,66 166,37 165,64" />
<polygon fill="#604c5e" fill-opacity="0.501961" points="155,127 179,128 165,115" />
<polygon fill="#38292d" fill-opacity="0.501961" points="230,82 271,134 251,133" />
<polygon fill="#573531" fill-opacity="0.501961" points="202,105 203,124 187,120" />
<polygon fill="#e6684c" fill-opacity="0.501961" points="70,83 74,81 80,94" />
<polygon fill="#6e4b53" fill-opacity="0.501961" points="196,45 188,55 195,35" />
<polygon fill="#755e75" fill-opacity="0.501961" points="109,130 119,128 118,121" />
<polygon fill="#79596c" fill-opacity="0.501961" points="85,120 90,129 99,113" />
<polygon fill="#d6683a" fill-opacity="0.501961" points="12,18 22,6 48,5" />
<polygon fill="#422d2e" fill-opacity="0.501961" points="203,46 205,31 190,50" />
<polygon fill="#5f2c1e" fill-opacity="0.501961" points="84,35 25,31 26,47" />
<polygon fill="#663839" fill-opacity="0.501961" points="88,36 94,28 92,40" />
<polygon fill="#c16036" fill-opacity="0.501961" points="155,18 143,26 161,25" />
<polygon fill="#9d492f" fill-opacity="0.501961" points="99,57 95,70 94,47" />
<polygon fill="#5f2e1e" fill-opacity="0.501961" points="166,22 167,34 159,17" />
<polygon fill="#b87960" fill-opacity="0.501961" points="221,-9 233,-8 208,14" />
<polygon fill="#da8566" fill-opacity="0.501961" points="170,75 168,73 163,81" />
<polygon fill="#ad5b4b" fill-opacity="0.501961" points="128,91 124,98 129,102" />
<polygon fill="#221c1c" fill-opacity="0.501961" points="180,63 182,101 161,91" />
<polygon fill="#7e4741" fill-opacity="0.501961" points="194,28 191,27 194,17" />
<polygon fill="#56302c" fill-opacity="0.501961" points="127,97 128,117 152,116" />
<polygon fill="#8a99b9" fill-opacity="0.501961" points="166,136 155,133 166,131" />
<polygon fill="#5a3128" fill-opacity="0.501961" points="112,46 94,55 103,47" />
<polygon fill="#64453c" fill-opacity="0.501961" points="32,130 29,127 31,123" />
<polygon fill="#bf654d" fill-opacity="0.501961" points="124,3 114,7 129,7" />
<polygon fill="#c67f5d" fill-opacity="0.501961" points="198,8 206,-16 217,-9" />
<polygon fill="#9a4529" fill-opacity="0.501961" points="197,8 179,-6 202,-16" />
<polygon fill="#332622" fill-opacity="0.501961" points="69,128 25,159 33,140" />
<polygon fill="#e6864c" fill-opacity="0.501961" points="5,14 -11,4 -16,32" />
<polygon fill="#645061" fill-opacity="0.501961" points="165,116 161,132 157,123" />
<polygon fill="#dbb9cb" fill-opacity="0.501961" points="131,2 105,-8 166,-7" />
<polygon fill="#864c49" fill-opacity="0.501961" points="20,51 22,45 25,56" />
<polygon fill="#b9483c" fill-opacity="0.501961" points="63,82 59,88 80,101" />
<polygon fill="#663430" fill-opacity="0.501961" points="58,108 52,124 77,105" />
<polygon fill="#231b1a" fill-opacity="0.501961" points="100,158 174,152 120,138" />
<polygon fill="#bd4c40" fill-opacity="0.501961" points="74,88 71,100 81,100" />
<polygon fill="#4b3637" fill-opacity="0.501961" points="268,157 247,91 268,61" />
<polygon fill="#db804b" fill-opacity="0.501961" points="24,4 11,19 11,10" />
<polygon fill="#2b1c18" fill-opacity="0.501961" points="16,75 36,64 30,48" />
<polygon fill="#452d2b" fill-opacity="0.501961" points="232,24 216,41 227,20" />
<polygon fill="#b8614a" fill-opacity="0.501961" points="95,69 97,80 103,84" />
<polygon fill="#19130d" fill-opacity="0.501961" points="178,55 183,46 183,62" />
<polygon fill="#cf6447" fill-opacity="0.501961" points="80,112 80,127 83,121" />
<polygon fill="#7c4339" fill-opacity="0.501961" points="145,111 156,112 149,96" />
<polygon fill="#8c4031" fill-opacity="0.501961" points="96,27 103,16 100,14" />
</g>
</svg>