<svg xmlns="http://www.w3.org/2000/svg" version="1.1" width="1024" height="576">
<rect x="0" y="0" width="1024" height="576" fill="#5a5354" />
<g transform="scale(4.000000) translate(0.5 0.5)">
<polygon fill="#fffffe" fill-opacity="0.501961" points="141,159 61,74 162,28" />
<polygon fill="#000000" fill-opacity="0.501961" points="163,117 267,159 271,-1" />
<polygon fill="#1c1219" fill-opacity="0.501961" points="-16,-15 98,33 9,159" />
<polygon fill="#ffe4c6" fill-opacity="0.501961" points="159,105 91,118 115,4" />
<polygon fill="#ffffda" fill-opacity="0.501961" points="94,30 79,88 101,94" />
<polygon fill="#768fb2" fill-opacity="0.501961" points="217,130 127,155 35,129" />
<polygon fill="#000000" fill-opacity="0.501961" points="191,139 49,138 116,159" />
<polygon fill="#806360" fill-opacity="0.501961" points="171,32 126,56 95,-16" />
<polygon fill="#281e25" fill-opacity="0.501961" points="71,69 -16,143 87,122" />
<polygon fill="#0f1712" fill-opacity="0.501961" points="139,129 169,81 186,126" />
<polygon fill="#fcf2dc" fill-opacity="0.501961" points="151,39 153,116 110,78" />
<polygon fill="#bcc2da" fill-opacity="0.501961" points="131,-16 142,1 71,24" />
<polygon fill="#f7dba8" fill-opacity="0.501961" points="184,66 181,102 194,73" />
<polygon fill="#0c0a15" fill-opacity="0.501961" points="253,159 185,116 271,19" />
<polygon fill="#5c0000" fill-opacity="0.501961" points="141,51 120,48 130,29" />
<polygon fill="#403d3e" fill-opacity="0.501961" points="172,97 206,-4 141,7" />
<polygon fill="#caddf8" fill-opacity="0.501961" points="95,137 43,136 68,128" />
<polygon fill="#312c2d" fill-opacity="0.501961" points="224,73 166,129 121,129" />
<polygon fill="#101114" fill-opacity="0.501961" points="76,102 60,129 112,127" />
<polygon fill="#ccae8f" fill-opacity="0.501961" points="74,45 77,98 119,133" />
<polygon fill="#f2e9dd" fill-opacity="0.501961" points="139,74 157,74 142,13" />
<polygon fill="#2f2831" fill-opacity="0.501961" points="-10,93 92,-5 -16,-16" />
<polygon fill="#a9bcd9" fill-opacity="0.501961" points="168,128 141,138 204,138" />
<polygon fill="#050509" fill-opacity="0.501961" points="235,138 120,138 158,159" />
<polygon fill="#f8f6ea" fill-opacity="0.501961" points="123,39 108,97 104,52" />
<polygon fill="#ffecbb" fill-opacity="0.501961" points="106,114 152,107 118,127" />
<polygon fill="#393d52" fill-opacity="0.501961" points="147,-10 33,36 26,-5" />
<polygon fill="#ffffe3" fill-opacity="0.501961" points="116,35 125,11 123,32" />
<polygon fill="#f0ddc3" fill-opacity="0.501961" points="81,77 102,94 95,32" />
<polygon fill="#3c343b" fill-opacity="0.501961" points="61,4 80,108 -5,159" />
<polygon fill="#24241d" fill-opacity="0.501961" points="101,32 61,36 136,4" />
<polygon fill="#3c3242" fill-opacity="0.501961" points="185,58 201,96 271,-4" />
<polygon fill="#22131d" fill-opacity="0.501961" points="157,31 160,44 139,31" />
<polygon fill="#231d24" fill-opacity="0.501961" points="62,146 -7,110 2,159" />
<polygon fill="#fffff7" fill-opacity="0.501961" points="137,23 135,31 134,15" />
<polygon fill="#834e50" fill-opacity="0.501961" points="137,91 122,96 129,102" />
<polygon fill="#a2b5d0" fill-opacity="0.501961" points="71,135 128,137 101,128" />
<polygon fill="#1d2622" fill-opacity="0.501961" points="152,122 179,129 163,66" />
<polygon fill="#6f6470" fill-opacity="0.501961" points="205,68 254,-16 195,19" />
<polygon fill="#555153" fill-opacity="0.501961" points="7,58 8,94 77,130" />
<polygon fill="#a8b8cf" fill-opacity="0.501961" points="50,139 80,131 39,129" />
<polygon fill="#b50015" fill-opacity="0.501961" points="126,47 140,42 138,54" />
<polygon fill="#acbcd8" fill-opacity="0.501961" points="174,130 204,140 203,131" />
<polygon fill="#2c3020" fill-opacity="0.501961" points="100,47 98,67 103,58" />
<polygon fill="#f3f5f4" fill-opacity="0.501961" points="131,0 109,8 124,7" />
<polygon fill="#f9e9c7" fill-opacity="0.501961" points="105,48 114,37 111,20" />
<polygon fill="#f4f7f9" fill-opacity="0.501961" points="134,34 156,62 153,43" />
<polygon fill="#6a494f" fill-opacity="0.501961" points="84,70 87,53 73,64" />
<polygon fill="#423b45" fill-opacity="0.501961" points="108,49 121,37 114,33" />
<polygon fill="#b97f81" fill-opacity="0.501961" points="90,99 136,94 113,109" />
<polygon fill="#f9f7fa" fill-opacity="0.501961" points="126,-9 138,5 153,-16" />
<polygon fill="#aa9670" fill-opacity="0.501961" points="184,77 173,100 181,96" />
<polygon fill="#494845" fill-opacity="0.501961" points="98,14 151,1 193,19" />
<polygon fill="#b88e69" fill-opacity="0.501961" points="140,127 152,115 150,108" />
<polygon fill="#e7ddca" fill-opacity="0.501961" points="128,93 77,98 126,47" />
<polygon fill="#2b3528" fill-opacity="0.501961" points="179,61 181,87 153,108" />
<polygon fill="#121219" fill-opacity="0.501961" points="268,152 252,125 159,149" />
<polygon fill="#423737" fill-opacity="0.501961" points="135,49 122,46 132,-1" />
<polygon fill="#c9b99e" fill-opacity="0.501961" points="80,99 120,130 73,63" />
<polygon fill="#7e7e86" fill-opacity="0.501961" points="79,10 73,33 67,27" />
<polygon fill="#e7192e" fill-opacity="0.501961" points="125,44 123,49 138,56" />
<polygon fill="#e5d4b8" fill-opacity="0.501961" points="109,105 150,110 158,89" />
<polygon fill="#dae7f7" fill-opacity="0.501961" points="149,131 147,137 155,130" />
<polygon fill="#ba9270" fill-opacity="0.501961" points="163,45 160,17 157,35" />
<polygon fill="#1a1d1b" fill-opacity="0.501961" points="69,53 45,50 97,20" />
<polygon fill="#e4caa1" fill-opacity="0.501961" points="119,34 122,8 128,31" />
<polygon fill="#2f252b" fill-opacity="0.501961" points="56,155 -16,138 -16,54" />
<polygon fill="#373946" fill-opacity="0.501961" points="180,127 202,71 165,121" />
<polygon fill="#1f1d21" fill-opacity="0.501961" points="85,140 149,159 147,137" />
<polygon fill="#1f2125" fill-opacity="0.501961" points="82,129 82,109 117,129" />
<polygon fill="#cdc9c9" fill-opacity="0.501961" points="102,7 87,16 109,10" />
<polygon fill="#53363f" fill-opacity="0.501961" points="97,102 88,98 98,97" />
<polygon fill="#5b5278" fill-opacity="0.501961" points="90,11 134,-1 75,-16" />
<polygon fill="#ddcbab" fill-opacity="0.501961" points="115,37 107,41 114,14" />
<polygon fill="#fff6d5" fill-opacity="0.501961" points="192,73 181,69 186,67" />
<polygon fill="#454041" fill-opacity="0.501961" points="115,21 137,5 89,18" />
<polygon fill="#90a6cd" fill-opacity="0.501961" points="205,135 216,135 211,132" />
<polygon fill="#232c26" fill-opacity="0.501961" points="100,54 98,20 109,17" />
<polygon fill="#cea572" fill-opacity="0.501961" points="143,23 148,33 144,11" />
<polygon fill="#e6d6b9" fill-opacity="0.501961" points="160,47 138,65 151,101" />
<polygon fill="#99a8c0" fill-opacity="0.501961" points="114,131 93,138 70,128" />
<polygon fill="#574c74" fill-opacity="0.501961" points="189,18 122,-9 178,-16" />
<polygon fill="#363d33" fill-opacity="0.501961" points="164,110 155,70 183,63" />
<polygon fill="#493336" fill-opacity="0.501961" points="42,94 83,104 14,-13" />
<polygon fill="#e9e8e7" fill-opacity="0.501961" points="104,55 119,39 124,71" />
<polygon fill="#848e9d" fill-opacity="0.501961" points="118,129 118,146 104,121" />
<polygon fill="#ecdec8" fill-opacity="0.501961" points="102,76 87,73 92,38" />
<polygon fill="#b5c9e7" fill-opacity="0.501961" points="42,133 48,129 45,139" />
<polygon fill="#282630" fill-opacity="0.501961" points="184,95 162,130 194,126" />
<polygon fill="#1a181c" fill-opacity="0.501961" points="64,17 94,-16 67,-16" />
<polygon fill="#291b24" fill-opacity="0.501961" points="148,31 137,32 152,36" />
<polygon fill="#323b2f" fill-opacity="0.501961" points="196,87 199,47 185,51" />
<polygon fill="#221b1f" fill-opacity="0.501961" points="114,141 55,159 40,138" />
<polygon fill="#362f32" fill-opacity="0.501961" points="74,80 86,129 56,126" />
<polygon fill="#4b4b3e" fill-opacity="0.501961" points="97,40 104,52 100,67" />
<polygon fill="#392736" fill-opacity="0.501961" points="250,56 259,-5 213,60" />
<polygon fill="#d5c5ad" fill-opacity="0.501961" points="76,80 91,109 87,61" />
<polygon fill="#2f2323" fill-opacity="0.501961" points="38,63 -16,57 0,-16" />
<polygon fill="#e7dbc4" fill-opacity="0.501961" points="98,86 144,90 105,48" />
<polygon fill="#372f34" fill-opacity="0.501961" points="-5,159 43,84 42,130" />
<polygon fill="#ef4f58" fill-opacity="0.501961" points="131,58 139,44 141,51" />
<polygon fill="#555250" fill-opacity="0.501961" points="154,49 216,60 178,11" />
<polygon fill="#e7dbc0" fill-opacity="0.501961" points="142,116 101,111 156,97" />
<polygon fill="#ffffe6" fill-opacity="0.501961" points="144,23 141,30 140,23" />
<polygon fill="#644a52" fill-opacity="0.501961" points="71,83 72,99 55,77" />
<polygon fill="#5b5242" fill-opacity="0.501961" points="97,33 114,34 92,25" />
<polygon fill="#715c54" fill-opacity="0.501961" points="82,45 69,58 81,70" />
<polygon fill="#393b38" fill-opacity="0.501961" points="158,14 142,1 157,48" />
<polygon fill="#36253a" fill-opacity="0.501961" points="182,-16 204,15 192,18" />
<polygon fill="#585759" fill-opacity="0.501961" points="137,35 120,37 131,25" />
<polygon fill="#6f616a" fill-opacity="0.501961" points="218,26 263,-14 196,-1" />
<polygon fill="#fff8d5" fill-opacity="0.501961" points="174,95 173,99 178,95" />
<polygon fill="#232623" fill-opacity="0.501961" points="74,81 57,60 65,33" />
<polygon fill="#eff4ff" fill-opacity="0.501961" points="123,64 125,50 119,53" />
<polygon fill="#9d7244" fill-opacity="0.501961" points="139,127 151,111 126,126" />
<polygon fill="#e4d4b2" fill-opacity="0.501961" points="154,107 157,92 129,123" />
<polygon fill="#3d3f4a" fill-opacity="0.501961" points="188,137 185,159 147,137" />
<polygon fill="#cbb494" fill-opacity="0.501961" points="188,68 188,88 182,67" />
<polygon fill="#171d15" fill-opacity="0.501961" points="119,17 117,25 114,15" />
<polygon fill="#ab8768" fill-opacity="0.501961" points="158,9 159,25 162,20" />
<polygon fill="#b9956b" fill-opacity="0.501961" points="94,36 98,41 97,27" />
<polygon fill="#37382f" fill-opacity="0.501961" points="150,5 138,4 136,25" />
<polygon fill="#131517" fill-opacity="0.501961" points="101,159 110,134 86,159" />
<polygon fill="#2a3932" fill-opacity="0.501961" points="117,32 115,23 118,17" />
<polygon fill="#e8effb" fill-opacity="0.501961" points="113,57 153,57 131,63" />
<polygon fill="#1d1c22" fill-opacity="0.501961" points="138,128 210,127 222,104" />
<polygon fill="#dcd5dc" fill-opacity="0.501961" points="77,78 80,73 74,62" />
<polygon fill="#27334a" fill-opacity="0.501961" points="85,31 37,23 44,39" />
<polygon fill="#18171b" fill-opacity="0.501961" points="242,132 205,132 190,117" />
<polygon fill="#454c4f" fill-opacity="0.501961" points="207,47 180,105 208,72" />
<polygon fill="#262622" fill-opacity="0.501961" points="179,65 192,67 186,58" />
<polygon fill="#4f4c4f" fill-opacity="0.501961" points="34,111 33,74 7,88" />
<polygon fill="#acbbd4" fill-opacity="0.501961" points="136,131 156,138 155,132" />
<polygon fill="#454d43" fill-opacity="0.501961" points="86,61 76,64 90,41" />
<polygon fill="#161612" fill-opacity="0.501961" points="86,127 89,111 75,99" />
<polygon fill="#99acc9" fill-opacity="0.501961" points="107,131 137,139 133,129" />
<polygon fill="#373842" fill-opacity="0.501961" points="173,111 187,129 164,128" />
<polygon fill="#2a3329" fill-opacity="0.501961" points="130,26 124,8 134,8" />
<polygon fill="#ddc99c" fill-opacity="0.501961" points="135,23 137,13 134,9" />
<polygon fill="#383e4c" fill-opacity="0.501961" points="57,28 26,4 78,19" />
<polygon fill="#88736c" fill-opacity="0.501961" points="138,91 129,100 131,92" />
<polygon fill="#687a95" fill-opacity="0.501961" points="60,139 59,127 63,138" />
<polygon fill="#151316" fill-opacity="0.501961" points="213,142 241,86 219,88" />
<polygon fill="#2b2a2f" fill-opacity="0.501961" points="180,122 178,94 185,113" />
<polygon fill="#e0d4bf" fill-opacity="0.501961" points="135,94 82,65 89,93" />
<polygon fill="#a6a3b1" fill-opacity="0.501961" points="136,4 131,0 124,9" />
<polygon fill="#faf4e1" fill-opacity="0.501961" points="118,33 121,19 122,31" />
<polygon fill="#221e1b" fill-opacity="0.501961" points="158,95 160,73 164,81" />
<polygon fill="#3a3d34" fill-opacity="0.501961" points="115,37 116,27 119,38" />
<polygon fill="#cfc19f" fill-opacity="0.501961" points="79,95 112,116 89,110" />
<polygon fill="#4f4e55" fill-opacity="0.501961" points="76,24 90,22 69,34" />
<polygon fill="#c4cfdf" fill-opacity="0.501961" points="171,131 175,137 167,136" />
<polygon fill="#552329" fill-opacity="0.501961" points="130,51 125,37 140,43" />
<polygon fill="#f0938d" fill-opacity="0.501961" points="137,57 126,51 128,56" />
<polygon fill="#7a5b3d" fill-opacity="0.501961" points="187,73 186,77 180,75" />
<polygon fill="#141415" fill-opacity="0.501961" points="102,137 94,159 144,159" />
<polygon fill="#4d465c" fill-opacity="0.501961" points="79,17 82,0 104,7" />
<polygon fill="#3e403f" fill-opacity="0.501961" points="65,159 21,159 6,123" />
<polygon fill="#4a3836" fill-opacity="0.501961" points="7,52 4,23 15,3" />
<polygon fill="#84808f" fill-opacity="0.501961" points="131,34 123,37 135,37" />
<polygon fill="#e6e7e9" fill-opacity="0.501961" points="154,44 148,67 140,36" />
<polygon fill="#21181c" fill-opacity="0.501961" points="3,43 0,148 -16,83" />
<polygon fill="#4e4d4e" fill-opacity="0.501961" points="44,119 59,97 62,131" />
<polygon fill="#dedfdd" fill-opacity="0.501961" points="122,6 111,5 100,13" />
<polygon fill="#505257" fill-opacity="0.501961" points="120,129 105,125 99,130" />
<polygon fill="#cb1126" fill-opacity="0.501961" points="121,43 127,47 123,48" />
<polygon fill="#34322a" fill-opacity="0.501961" points="182,65 180,92 170,93" />
<polygon fill="#e5d3b1" fill-opacity="0.501961" points="135,29 136,17 133,25" />
<polygon fill="#d6b8a6" fill-opacity="0.501961" points="95,101 126,98 113,127" />
<polygon fill="#493444" fill-opacity="0.501961" points="271,-8 230,49 233,18" />
<polygon fill="#eae0cb" fill-opacity="0.501961" points="155,51 135,95 154,77" />
<polygon fill="#241e26" fill-opacity="0.501961" points="183,106 250,66 258,28" />
<polygon fill="#bebac2" fill-opacity="0.501961" points="136,42 143,36 135,34" />
<polygon fill="#1e2119" fill-opacity="0.501961" points="152,117 160,93 158,130" />
<polygon fill="#553e44" fill-opacity="0.501961" points="40,58 53,76 57,50" />
<polygon fill="#c3c2c9" fill-opacity="0.501961" points="78,72 76,60 74,70" />
<polygon fill="#444244" fill-opacity="0.501961" points="72,121 70,132 67,115" />
<polygon fill="#292128" fill-opacity="0.501961" points="38,58 12,13 24,76" />
<polygon fill="#74000f" fill-opacity="0.501961" points="81,69 78,67 78,60" />
<polygon fill="#58534a" fill-opacity="0.501961" points="130,-1 139,23 143,17" />
<polygon fill="#7e6d5c" fill-opacity="0.501961" points="128,130 131,125 113,128" />
<polygon fill="#a7b1c3" fill-opacity="0.501961" points="68,138 58,130 91,130" />
<polygon fill="#271a24" fill-opacity="0.501961" points="40,125 52,130 39,116" />
<polygon fill="#2c302b" fill-opacity="0.501961" points="76,29 94,26 84,59" />
<polygon fill="#bab4b4" fill-opacity="0.501961" points="75,19 78,16 77,14" />
<polygon fill="#776247" fill-opacity="0.501961" points="160,86 157,61 152,95" />
<polygon fill="#9faec8" fill-opacity="0.501961" points="42,132 43,138 57,130" />
<polygon fill="#e4d8c1" fill-opacity="0.501961" points="94,34 89,45 98,60" />
<polygon fill="#dcceb0" fill-opacity="0.501961" points="181,97 180,92 187,88" />
<polygon fill="#987756" fill-opacity="0.501961" points="150,118 155,104 141,123" />
<polygon fill="#2f242c" fill-opacity="0.501961" points="47,127 25,136 -16,70" />
<polygon fill="#2e3a51" fill-opacity="0.501961" points="158,135 156,133 155,136" />
<polygon fill="#1d2419" fill-opacity="0.501961" points="176,103 184,94 179,106" />
<polygon fill="#cacac4" fill-opacity="0.501961" points="96,93 111,94 92,98" />
<polygon fill="#1d1a1b" fill-opacity="0.501961" points="185,141 126,139 109,159" />
<polygon fill="#ac885b" fill-opacity="0.501961" points="127,15 121,14 126,25" />
<polygon fill="#3f433e" fill-opacity="0.501961" points="157,73 194,45 167,93" />
<polygon fill="#2b2631" fill-opacity="0.501961" points="188,98 175,131 210,85" />
<polygon fill="#e4d5b5" fill-opacity="0.501961" points="189,83 191,74 185,82" />
<polygon fill="#19171d" fill-opacity="0.501961" points="221,132 271,145 160,155" />
<polygon fill="#f9eed0" fill-opacity="0.501961" points="113,22 109,24 113,28" />
<polygon fill="#303531" fill-opacity="0.501961" points="189,92 195,62 199,74" />
<polygon fill="#303744" fill-opacity="0.501961" points="100,132 86,154 97,146" />
<polygon fill="#1f2022" fill-opacity="0.501961" points="42,53 49,42 73,41" />
<polygon fill="#92a0b9" fill-opacity="0.501961" points="84,138 105,130 68,133" />
<polygon fill="#d0bea0" fill-opacity="0.501961" points="112,36 108,27 114,19" />
<polygon fill="#55513f" fill-opacity="0.501961" points="78,47 68,59 75,41" />
<polygon fill="#e5d9c1" fill-opacity="0.501961" points="139,119 146,89 114,112" />
<polygon fill="#e0ceab" fill-opacity="0.501961" points="139,31 144,26 143,14" />
<polygon fill="#202024" fill-opacity="0.501961" points="100,155 83,157 89,136" />
<polygon fill="#dfd2bc" fill-opacity="0.501961" points="85,59 99,67 92,86" />
<polygon fill="#4d4947" fill-opacity="0.501961" points="52,39 69,35 76,24" />
<polygon fill="#483030" fill-opacity="0.501961" points="24,-16 46,69 9,4" />
<polygon fill="#2b3247" fill-opacity="0.501961" points="78,17 36,17 45,41" />
<polygon fill="#e6dcca" fill-opacity="0.501961" points="97,82 152,57 128,95" />
<polygon fill="#d4c39f" fill-opacity="0.501961" points="136,120 116,128 106,118" />
<polygon fill="#17161a" fill-opacity="0.501961" points="192,111 195,133 202,109" />
<polygon fill="#99a9c5" fill-opacity="0.501961" points="114,129 121,139 104,134" />
<polygon fill="#232523" fill-opacity="0.501961" points="76,110 81,104 73,86" />
<polygon fill="#9cabc4" fill-opacity="0.501961" points="168,132 180,138 199,130" />
<polygon fill="#58535b" fill-opacity="0.501961" points="201,40 200,79 244,4" />
<polygon fill="#6e534a" fill-opacity="0.501961" points="91,101 98,105 91,97" />
<polygon fill="#3e463b" fill-opacity="0.501961" points="96,34 107,32 102,50" />
<polygon fill="#716667" fill-opacity="0.501961" points="120,13 119,8 130,6" />
<polygon fill="#866348" fill-opacity="0.501961" points="183,82 180,92 188,83" />
<polygon fill="#8c8479" fill-opacity="0.501961" points="78,51 74,58 82,63" />
<polygon fill="#29232d" fill-opacity="0.501961" points="219,58 211,129 201,80" />
<polygon fill="#90a0bd" fill-opacity="0.501961" points="210,133 199,135 201,132" />
<polygon fill="#262b33" fill-opacity="0.501961" points="147,134 144,148 150,159" />
<polygon fill="#414348" fill-opacity="0.501961" points="27,12 57,16 80,-8" />
<polygon fill="#40323b" fill-opacity="0.501961" points="119,38 109,46 113,38" />
<polygon fill="#252426" fill-opacity="0.501961" points="143,6 136,13 136,5" />
<polygon fill="#635e7b" fill-opacity="0.501961" points="100,8 133,-1 88,-5" />
<polygon fill="#b2c0d1" fill-opacity="0.501961" points="96,131 99,139 90,133" />
<polygon fill="#585351" fill-opacity="0.501961" points="165,29 198,33 157,60" />
<polygon fill="#ad1627" fill-opacity="0.501961" points="140,50 141,43 133,43" />
<polygon fill="#cda09b" fill-opacity="0.501961" points="87,101 127,102 109,108" />
<polygon fill="#25262a" fill-opacity="0.501961" points="138,139 96,138 63,159" />
<polygon fill="#2a303c" fill-opacity="0.501961" points="89,133 90,127 88,126" />
<polygon fill="#e9e7eb" fill-opacity="0.501961" points="145,62 150,43 133,59" />
<polygon fill="#2d2632" fill-opacity="0.501961" points="58,84 45,66 41,88" />
<polygon fill="#c7ced9" fill-opacity="0.501961" points="128,137 131,131 134,133" />
<polygon fill="#211e20" fill-opacity="0.501961" points="100,21 98,31 111,18" />
<polygon fill="#191b18" fill-opacity="0.501961" points="173,90 171,116 165,111" />
<polygon fill="#969596" fill-opacity="0.501961" points="73,21 65,27 77,23" />
<polygon fill="#22242a" fill-opacity="0.501961" points="195,137 238,159 194,152" />
<polygon fill="#d6d6da" fill-opacity="0.501961" points="142,4 125,4 141,-1" />
<polygon fill="#504c6e" fill-opacity="0.501961" points="133,5 119,-16 131,-6" />
<polygon fill="#565a6c" fill-opacity="0.501961" points="140,128 149,121 137,124" />
<polygon fill="#1c1e22" fill-opacity="0.501961" points="109,129 97,129 94,122" />
<polygon fill="#443544" fill-opacity="0.501961" points="194,23 178,20 200,8" />
<polygon fill="#4e4d49" fill-opacity="0.501961" points="182,71 161,63 161,14" />
<polygon fill="#130f10" fill-opacity="0.501961" points="255,-1 271,59 254,109" />
<polygon fill="#332c2d" fill-opacity="0.501961" points="77,58 67,58 68,68" />
<polygon fill="#cb1e2d" fill-opacity="0.501961" points="128,51 138,46 133,53" />
<polygon fill="#4f4047" fill-opacity="0.501961" points="67,102 56,110 66,71" />
<polygon fill="#5e5977" fill-opacity="0.501961" points="159,0 147,4 126,-10" />
<polygon fill="#e5e5e4" fill-opacity="0.501961" points="105,57 116,60 123,38" />
<polygon fill="#232021" fill-opacity="0.501961" points="59,40 98,21 86,38" />
<polygon fill="#8f7e8d" fill-opacity="0.501961" points="153,52 156,46 153,40" />
<polygon fill="#464444" fill-opacity="0.501961" points="71,125 78,128 80,116" />
<polygon fill="#31302d" fill-opacity="0.501961" points="152,14 144,4 151,33" />
<polygon fill="#9caeca" fill-opacity="0.501961" points="157,138 158,130 163,137" />
<polygon fill="#40313e" fill-opacity="0.501961" points="117,37 130,32 122,38" />
<polygon fill="#4c4746" fill-opacity="0.501961" points="156,36 142,36 156,16" />
<polygon fill="#5a4254" fill-opacity="0.501961" points="260,-4 249,16 233,15" />
<polygon fill="#3a343b" fill-opacity="0.501961" points="48,138 78,140 90,154" />
<polygon fill="#e6dcc7" fill-opacity="0.501961" points="146,104 155,70 140,72" />
<polygon fill="#53495c" fill-opacity="0.501961" points="179,22 166,-16 192,10" />
<polygon fill="#42333a" fill-opacity="0.501961" points="34,66 46,86 35,129" />
<polygon fill="#272625" fill-opacity="0.501961" points="164,86 158,89 162,69" />
<polygon fill="#e19b90" fill-opacity="0.501961" points="130,57 123,54 137,53" />
<polygon fill="#321f1e" fill-opacity="0.501961" points="94,102 90,98 93,99" />
<polygon fill="#b39877" fill-opacity="0.501961" points="181,82 184,74 185,82" />
<polygon fill="#c2d3f4" fill-opacity="0.501961" points="212,134 212,133 211,134" />
<polygon fill="#423f37" fill-opacity="0.501961" points="86,67 83,62 84,58" />
<polygon fill="#6e6068" fill-opacity="0.501961" points="214,3 192,31 264,-5" />
<polygon fill="#9c7d5f" fill-opacity="0.501961" points="114,32 108,34 112,30" />
<polygon fill="#434f6a" fill-opacity="0.501961" points="168,137 165,134 165,131" />
<polygon fill="#9f7c63" fill-opacity="0.501961" points="93,34 97,25 97,30" />
<polygon fill="#2f2a2d" fill-opacity="0.501961" points="149,16 140,4 145,3" />
<polygon fill="#4d4c54" fill-opacity="0.501961" points="81,21 73,32 95,17" />
<polygon fill="#292628" fill-opacity="0.501961" points="-16,-3 12,-3 -6,90" />
<polygon fill="#ddceb2" fill-opacity="0.501961" points="190,77 183,80 188,82" />
<polygon fill="#e5dbc5" fill-opacity="0.501961" points="133,104 154,106 153,100" />
<polygon fill="#1c1c1f" fill-opacity="0.501961" points="188,114 186,130 179,126" />
<polygon fill="#e7e7e6" fill-opacity="0.501961" points="129,6 117,5 125,2" />
<polygon fill="#dfd2b9" fill-opacity="0.501961" points="121,16 126,33 118,32" />
<polygon fill="#524a4c" fill-opacity="0.501961" points="45,120 40,96 58,111" />
<polygon fill="#1a1e1b" fill-opacity="0.501961" points="160,128 144,128 176,102" />
<polygon fill="#343934" fill-opacity="0.501961" points="133,15 125,9 131,22" />
<polygon fill="#756c6f" fill-opacity="0.501961" points="112,17 116,10 109,11" />
<polygon fill="#363840" fill-opacity="0.501961" points="182,104 166,128 167,114" />
<polygon fill="#94a2ba" fill-opacity="0.501961" points="91,129 69,133 72,139" />
<polygon fill="#3e1c21" fill-opacity="0.501961" points="124,40 135,38 129,46" />
<polygon fill="#e6dac5" fill-opacity="0.501961" points="106,48 128,94 98,89" />
<polygon fill="#cebcaa" fill-opacity="0.501961" points="87,86 79,75 85,66" />
<polygon fill="#373634" fill-opacity="0.501961" points="157,77 165,87 164,59" />
<polygon fill="#232225" fill-opacity="0.501961" points="219,159 151,145 190,138" />
<polygon fill="#23211f" fill-opacity="0.501961" points="121,14 118,12 114,18" />
<polygon fill="#505c75" fill-opacity="0.501961" points="109,128 109,134 108,131" />
<polygon fill="#494358" fill-opacity="0.501961" points="83,17 83,0 77,11" />
<polygon fill="#7184a6" fill-opacity="0.501961" points="120,139 116,139 117,130" />
<polygon fill="#d9d6d2" fill-opacity="0.501961" points="78,14 77,16 75,14" />
<polygon fill="#e4d8c1" fill-opacity="0.501961" points="140,117 153,94 125,104" />
<polygon fill="#1a181c" fill-opacity="0.501961" points="66,6 66,14 62,12" />
<polygon fill="#4c5157" fill-opacity="0.501961" points="55,54 49,52 57,48" />
<polygon fill="#886d54" fill-opacity="0.501961" points="176,89 178,90 173,96" />
<polygon fill="#3d413a" fill-opacity="0.501961" points="84,62 92,33 81,38" />
<polygon fill="#382934" fill-opacity="0.501961" points="143,33 131,34 135,31" />
<polygon fill="#4a4f51" fill-opacity="0.501961" points="63,129 49,120 55,129" />
<polygon fill="#d2c5ad" fill-opacity="0.501961" points="182,69 190,70 181,73" />
<polygon fill="#18171b" fill-opacity="0.501961" points="206,122 188,129 212,85" />
<polygon fill="#32364a" fill-opacity="0.501961" points="51,156 50,131 59,159" />
<polygon fill="#4d4c56" fill-opacity="0.501961" points="110,15 85,25 97,16" />
<polygon fill="#a2846e" fill-opacity="0.501961" points="156,39 159,22 161,38" />
<polygon fill="#d44756" fill-opacity="0.501961" points="82,67 77,66 80,72" />
<polygon fill="#c7c6c5" fill-opacity="0.501961" points="109,10 100,9 89,16" />
<polygon fill="#e6e1dc" fill-opacity="0.501961" points="126,66 124,49 119,64" />
<polygon fill="#a2b4d0" fill-opacity="0.501961" points="147,134 148,129 152,130" />
<polygon fill="#424850" fill-opacity="0.501961" points="197,72 189,93 213,61" />
<polygon fill="#323431" fill-opacity="0.501961" points="53,57 66,86 63,50" />
<polygon fill="#dccdba" fill-opacity="0.501961" points="89,69 76,69 101,95" />
<polygon fill="#21171c" fill-opacity="0.501961" points="50,154 47,138 103,159" />
<polygon fill="#313d33" fill-opacity="0.501961" points="163,88 156,124 168,100" />
<polygon fill="#bca37e" fill-opacity="0.501961" points="74,54 77,57 75,50" />
<polygon fill="#56454d" fill-opacity="0.501961" points="65,67 66,97 73,90" />
<polygon fill="#e7dcc8" fill-opacity="0.501961" points="156,52 122,84 150,94" />
<polygon fill="#916b69" fill-opacity="0.501961" points="127,98 136,92 121,97" />
<polygon fill="#534f64" fill-opacity="0.501961" points="82,2 112,4 90,13" />
<polygon fill="#4a373a" fill-opacity="0.501961" points="38,52 51,43 22,27" />
<polygon fill="#adbccf" fill-opacity="0.501961" points="56,129 51,130 56,132" />
<polygon fill="#e7dbc5" fill-opacity="0.501961" points="88,72 98,65 93,38" />
<polygon fill="#232c44" fill-opacity="0.501961" points="37,20 48,44 55,38" />
<polygon fill="#2f2632" fill-opacity="0.501961" points="198,-10 151,-16 189,3" />
<polygon fill="#8e9eba" fill-opacity="0.501961" points="191,129 177,138 177,132" />
<polygon fill="#bfc2ce" fill-opacity="0.501961" points="145,43 152,41 149,38" />
<polygon fill="#59282b" fill-opacity="0.501961" points="123,41 139,42 130,46" />
<polygon fill="#2e2c2a" fill-opacity="0.501961" points="197,66 184,65 185,61" />
<polygon fill="#333e39" fill-opacity="0.501961" points="139,24 141,10 138,17" />
<polygon fill="#c6b595" fill-opacity="0.501961" points="100,114 84,105 77,88" />
<polygon fill="#433e4d" fill-opacity="0.501961" points="58,20 81,2 75,16" />
<polygon fill="#4e4146" fill-opacity="0.501961" points="64,95 73,65 74,88" />
<polygon fill="#b08b6a" fill-opacity="0.501961" points="146,21 143,19 144,12" />
<polygon fill="#4a4848" fill-opacity="0.501961" points="24,78 8,57 6,75" />
<polygon fill="#af906a" fill-opacity="0.501961" points="155,96 154,90 158,84" />
<polygon fill="#352a37" fill-opacity="0.501961" points="231,31 235,55 200,88" />
<polygon fill="#42453e" fill-opacity="0.501961" points="105,39 97,27 100,64" />
<polygon fill="#e8e8e9" fill-opacity="0.501961" points="138,62 154,46 145,40" />
<polygon fill="#b9c5d4" fill-opacity="0.501961" points="190,131 188,138 187,136" />
</g>
</svg>