<svg xmlns="http://www.w3.org/2000/svg" version="1.1" width="1024" height="576">
<rect x="0" y="0" width="1024" height="576" fill="#9b989b" />
<g transform="scale(4.000000) translate(0.5 0.5)">
<polygon fill="#000000" fill-opacity="0.501961" points="79,-16 196,21 101,159" />
<polygon fill="#ffffff" fill-opacity="0.501961" points="15,-16 -16,159 112,98" />
<polygon fill="#ffffff" fill-opacity="0.501961" points="263,-16 182,-2 199,159" />
<polygon fill="#020610" fill-opacity="0.501961" points="187,94 68,123 171,159" />
<polygon fill="#fefcf7" fill-opacity="0.501961" points="-16,3 64,159 79,-15" />
<polygon fill="#ede5e4" fill-opacity="0.501961" points="271,159 184,159 195,-16" />
<polygon fill="#211f30" fill-opacity="0.501961" points="152,-16 71,59 195,53" />
<polygon fill="#323238" fill-opacity="0.501961" points="66,159 105,60 177,124" />
<polygon fill="#c8defb" fill-opacity="0.501961" points="82,129 133,130 119,141" />
<polygon fill="#f9f1ef" fill-opacity="0.501961" points="165,110 141,87 170,71" />
<polygon fill="#ffffff" fill-opacity="0.501961" points="55,33 103,-13 18,-16" />
<polygon fill="#222126" fill-opacity="0.501961" points="130,-16 78,15 84,69" />
<polygon fill="#777188" fill-opacity="0.501961" points="246,12 221,46 271,115" />
<polygon fill="#cac0be" fill-opacity="0.501961" points="94,112 26,69 24,159" />
<polygon fill="#302931" fill-opacity="0.501961" points="192,103 173,106 172,74" />
<polygon fill="#cdc5c2" fill-opacity="0.501961" points="173,110 271,89 212,159" />
<polygon fill="#f1f1f5" fill-opacity="0.501961" points="225,46 181,34 196,-16" />
<polygon fill="#000000" fill-opacity="0.501961" points="98,159 169,141 85,138" />
<polygon fill="#131012" fill-opacity="0.501961" points="84,127 129,93 180,128" />
<polygon fill="#aec4e0" fill-opacity="0.501961" points="140,129 139,139 175,131" />
<polygon fill="#3a3744" fill-opacity="0.501961" points="75,9 163,-16 183,62" />
<polygon fill="#343239" fill-opacity="0.501961" points="143,106 160,-16 77,50" />
<polygon fill="#7e788f" fill-opacity="0.501961" points="164,12 184,6 192,48" />
<polygon fill="#e2e1dd" fill-opacity="0.501961" points="-12,-16 93,74 7,108" />
<polygon fill="#635f67" fill-opacity="0.501961" points="232,83 271,24 264,96" />
<polygon fill="#eeedef" fill-opacity="0.501961" points="-2,70 60,-16 82,44" />
<polygon fill="#0c0b0c" fill-opacity="0.501961" points="72,133 87,154 80,124" />
<polygon fill="#a7bcdc" fill-opacity="0.501961" points="82,131 82,140 116,133" />
<polygon fill="#a79d90" fill-opacity="0.501961" points="116,99 100,90 103,113" />
<polygon fill="#0b0b0c" fill-opacity="0.501961" points="139,119 139,150 124,119" />
<polygon fill="#e4e1e3" fill-opacity="0.501961" points="184,84 244,64 191,43" />
<polygon fill="#e9e8ed" fill-opacity="0.501961" points="241,2 171,6 169,-16" />
<polygon fill="#132321" fill-opacity="0.501961" points="255,-16 271,-16 256,41" />
<polygon fill="#dbd6d7" fill-opacity="0.501961" points="174,102 146,79 146,100" />
<polygon fill="#b9cce6" fill-opacity="0.501961" points="172,136 154,138 164,129" />
<polygon fill="#dad2cf" fill-opacity="0.501961" points="183,58 180,71 151,78" />
<polygon fill="#e4e2e4" fill-opacity="0.501961" points="74,-6 87,2 87,12" />
<polygon fill="#c5bcb8" fill-opacity="0.501961" points="-14,85 105,159 -10,155" />
<polygon fill="#ebeaea" fill-opacity="0.501961" points="227,19 181,25 207,62" />
<polygon fill="#49474a" fill-opacity="0.501961" points="85,8 79,27 74,12" />
<polygon fill="#a49da0" fill-opacity="0.501961" points="89,64 98,78 75,59" />
<polygon fill="#d4cfcf" fill-opacity="0.501961" points="181,80 267,96 202,127" />
<polygon fill="#b6aeb0" fill-opacity="0.501961" points="172,99 160,73 161,118" />
<polygon fill="#b5b0ae" fill-opacity="0.501961" points="117,81 115,91 110,80" />
<polygon fill="#69656f" fill-opacity="0.501961" points="141,63 128,44 118,64" />
<polygon fill="#1c1c1e" fill-opacity="0.501961" points="186,137 111,139 118,159" />
<polygon fill="#b0b1c4" fill-opacity="0.501961" points="227,28 253,49 254,-14" />
<polygon fill="#3c3a48" fill-opacity="0.501961" points="181,61 190,41 123,5" />
<polygon fill="#121310" fill-opacity="0.501961" points="271,121 256,143 255,117" />
<polygon fill="#83766e" fill-opacity="0.501961" points="160,81 173,55 151,77" />
<polygon fill="#d7d0d0" fill-opacity="0.501961" points="-16,95 94,76 89,114" />
<polygon fill="#bfb7b5" fill-opacity="0.501961" points="198,159 188,98 271,155" />
<polygon fill="#cad8ec" fill-opacity="0.501961" points="128,138 129,129 113,131" />
<polygon fill="#c6dcad" fill-opacity="0.501961" points="-16,78 -16,2 26,-6" />
<polygon fill="#3f3a52" fill-opacity="0.501961" points="173,30 187,17 180,7" />
<polygon fill="#1c1c21" fill-opacity="0.501961" points="124,116 155,113 160,136" />
<polygon fill="#2a292b" fill-opacity="0.501961" points="76,10 136,85 94,69" />
<polygon fill="#2d292b" fill-opacity="0.501961" points="176,142 171,112 182,131" />
<polygon fill="#a5ada9" fill-opacity="0.501961" points="139,21 142,12 136,12" />
<polygon fill="#282627" fill-opacity="0.501961" points="119,118 87,128 93,101" />
<polygon fill="#423d44" fill-opacity="0.501961" points="178,74 178,85 164,91" />
<polygon fill="#c6d3ce" fill-opacity="0.501961" points="114,13 113,18 119,17" />
<polygon fill="#e4e1e3" fill-opacity="0.501961" points="77,84 -16,50 76,24" />
<polygon fill="#383542" fill-opacity="0.501961" points="137,93 186,39 142,-16" />
<polygon fill="#dad7dd" fill-opacity="0.501961" points="174,20 176,13 171,3" />
<polygon fill="#1f1d1d" fill-opacity="0.501961" points="126,140 78,138 97,149" />
<polygon fill="#1a2218" fill-opacity="0.501961" points="255,73 254,116 266,115" />
<polygon fill="#4d4644" fill-opacity="0.501961" points="130,93 105,86 110,112" />
<polygon fill="#aa9dad" fill-opacity="0.501961" points="220,70 228,85 241,80" />
<polygon fill="#b2aeaf" fill-opacity="0.501961" points="109,110 103,84 101,98" />
<polygon fill="#625b67" fill-opacity="0.501961" points="188,69 182,62 179,74" />
<polygon fill="#353439" fill-opacity="0.501961" points="147,-16 120,63 78,64" />
<polygon fill="#4a464c" fill-opacity="0.501961" points="189,96 186,88 165,104" />
<polygon fill="#d8d4d5" fill-opacity="0.501961" points="258,97 173,69 210,112" />
<polygon fill="#c5bebd" fill-opacity="0.501961" points="-16,146 65,140 76,94" />
<polygon fill="#929599" fill-opacity="0.501961" points="254,28 225,54 255,75" />
<polygon fill="#cddbef" fill-opacity="0.501961" points="144,138 148,132 139,130" />
<polygon fill="#121b19" fill-opacity="0.501961" points="255,75 271,40 256,32" />
<polygon fill="#151618" fill-opacity="0.501961" points="104,157 109,135 125,159" />
<polygon fill="#080705" fill-opacity="0.501961" points="149,136 150,126 154,126" />
<polygon fill="#e0dcde" fill-opacity="0.501961" points="170,88 159,80 153,99" />
<polygon fill="#93998e" fill-opacity="0.501961" points="0,-5 -16,45 -1,74" />
<polygon fill="#d1cccb" fill-opacity="0.501961" points="254,97 179,110 254,131" />
<polygon fill="#282523" fill-opacity="0.501961" points="72,129 93,118 79,131" />
<polygon fill="#d8d6d8" fill-opacity="0.501961" points="81,-16 69,20 95,-16" />
<polygon fill="#cecdd0" fill-opacity="0.501961" points="164,65 166,84 177,67" />
<polygon fill="#887a67" fill-opacity="0.501961" points="149,75 164,81 163,70" />
<polygon fill="#9dadc5" fill-opacity="0.501961" points="154,134 171,133 165,138" />
<polygon fill="#ccc9ce" fill-opacity="0.501961" points="195,39 192,74 186,58" />
<polygon fill="#b0bfd6" fill-opacity="0.501961" points="83,130 99,131 86,138" />
<polygon fill="#95938e" fill-opacity="0.501961" points="2,159 -1,78 -16,109" />
<polygon fill="#38353b" fill-opacity="0.501961" points="115,100 117,71 166,119" />
<polygon fill="#302e31" fill-opacity="0.501961" points="130,76 97,41 96,87" />
<polygon fill="#272327" fill-opacity="0.501961" points="159,127 176,100 173,122" />
<polygon fill="#9d9395" fill-opacity="0.501961" points="185,123 177,114 185,143" />
<polygon fill="#c4bcb7" fill-opacity="0.501961" points="188,144 180,109 228,159" />
<polygon fill="#bbb5b6" fill-opacity="0.501961" points="152,104 159,100 145,93" />
<polygon fill="#dcd7d8" fill-opacity="0.501961" points="96,73 36,60 65,120" />
<polygon fill="#292930" fill-opacity="0.501961" points="173,157 169,132 167,144" />
<polygon fill="#1b1b1e" fill-opacity="0.501961" points="101,116 111,133 110,120" />
<polygon fill="#cdc4d1" fill-opacity="0.501961" points="231,64 222,39 210,46" />
<polygon fill="#262529" fill-opacity="0.501961" points="123,110 145,103 136,151" />
<polygon fill="#333136" fill-opacity="0.501961" points="141,3 88,23 97,-16" />
<polygon fill="#bbae8b" fill-opacity="0.501961" points="118,97 103,99 110,102" />
<polygon fill="#63556e" fill-opacity="0.501961" points="238,79 255,84 246,92" />
<polygon fill="#7b8ba5" fill-opacity="0.501961" points="108,134 88,134 101,138" />
<polygon fill="#36343b" fill-opacity="0.501961" points="104,94 118,90 109,97" />
<polygon fill="#504c57" fill-opacity="0.501961" points="168,64 144,81 160,56" />
<polygon fill="#252427" fill-opacity="0.501961" points="101,131 115,111 108,105" />
<polygon fill="#c8c3c5" fill-opacity="0.501961" points="71,50 74,63 87,73" />
<polygon fill="#aca5a1" fill-opacity="0.501961" points="93,79 91,114 84,105" />
<polygon fill="#463f41" fill-opacity="0.501961" points="99,76 99,93 93,94" />
<polygon fill="#302e35" fill-opacity="0.501961" points="156,59 157,24 117,98" />
<polygon fill="#a18daa" fill-opacity="0.501961" points="249,25 231,62 222,39" />
<polygon fill="#d2cccb" fill-opacity="0.501961" points="-16,116 76,121 76,86" />
<polygon fill="#524e54" fill-opacity="0.501961" points="180,77 170,97 171,76" />
<polygon fill="#403d3e" fill-opacity="0.501961" points="93,31 82,61 77,53" />
<polygon fill="#a9a3a4" fill-opacity="0.501961" points="89,60 91,76 87,69" />
<polygon fill="#bfb9cd" fill-opacity="0.501961" points="210,13 255,25 254,6" />
<polygon fill="#29272a" fill-opacity="0.501961" points="158,135 160,103 150,107" />
<polygon fill="#575166" fill-opacity="0.501961" points="177,9 178,20 187,14" />
<polygon fill="#b2a89d" fill-opacity="0.501961" points="5,152 -3,137 17,135" />
<polygon fill="#e3dee3" fill-opacity="0.501961" points="222,1 186,37 187,13" />
<polygon fill="#47434a" fill-opacity="0.501961" points="144,111 133,106 146,74" />
<polygon fill="#ebebeb" fill-opacity="0.501961" points="8,51 77,40 40,-16" />
<polygon fill="#6f686b" fill-opacity="0.501961" points="93,112 87,112 86,120" />
<polygon fill="#b0aaaf" fill-opacity="0.501961" points="166,91 172,94 162,114" />
<polygon fill="#60595b" fill-opacity="0.501961" points="76,136 76,140 67,136" />
<polygon fill="#d6d6d5" fill-opacity="0.501961" points="254,102 228,100 254,91" />
<polygon fill="#716a6b" fill-opacity="0.501961" points="92,91 99,103 96,72" />
<polygon fill="#e0dcdd" fill-opacity="0.501961" points="209,74 236,57 234,73" />
<polygon fill="#d4d7dd" fill-opacity="0.501961" points="250,5 203,6 267,-16" />
<polygon fill="#444246" fill-opacity="0.501961" points="91,13 77,8 85,46" />
<polygon fill="#34323d" fill-opacity="0.501961" points="182,57 143,53 183,44" />
<polygon fill="#c0cddf" fill-opacity="0.501961" points="110,137 118,136 116,129" />
<polygon fill="#e9e8e8" fill-opacity="0.501961" points="191,61 230,29 198,15" />
<polygon fill="#605c65" fill-opacity="0.501961" points="131,67 118,48 134,51" />
<polygon fill="#b2aeb7" fill-opacity="0.501961" points="175,2 167,11 177,21" />
<polygon fill="#8b847d" fill-opacity="0.501961" points="161,156 177,155 184,132" />
<polygon fill="#c3cbc3" fill-opacity="0.501961" points="117,14 115,21 115,13" />
<polygon fill="#afaaa9" fill-opacity="0.501961" points="100,95 110,100 93,98" />
<polygon fill="#cfcac9" fill-opacity="0.501961" points="191,96 222,96 198,135" />
<polygon fill="#afa4a0" fill-opacity="0.501961" points="213,136 195,137 210,159" />
<polygon fill="#34333b" fill-opacity="0.501961" points="173,47 101,50 113,16" />
<polygon fill="#3e3b4a" fill-opacity="0.501961" points="173,31 109,-5 168,3" />
<polygon fill="#202023" fill-opacity="0.501961" points="104,142 124,137 157,159" />
<polygon fill="#e3e1e5" fill-opacity="0.501961" points="181,1 174,6 163,-16" />
<polygon fill="#c4bec1" fill-opacity="0.501961" points="115,88 115,84 111,87" />
<polygon fill="#a498a4" fill-opacity="0.501961" points="246,93 224,83 237,81" />
<polygon fill="#605f61" fill-opacity="0.501961" points="105,46 102,43 115,42" />
<polygon fill="#a69c9b" fill-opacity="0.501961" points="65,139 74,143 71,114" />
<polygon fill="#dcd8da" fill-opacity="0.501961" points="147,90 157,78 165,102" />
<polygon fill="#b6b1b7" fill-opacity="0.501961" points="181,87 179,65 190,91" />
<polygon fill="#e2ddde" fill-opacity="0.501961" points="35,73 1,97 3,38" />
<polygon fill="#7c7685" fill-opacity="0.501961" points="181,36 187,40 181,22" />
<polygon fill="#2b2a2c" fill-opacity="0.501961" points="175,133 172,121 181,137" />
<polygon fill="#7e817f" fill-opacity="0.501961" points="252,60 237,66 252,77" />
<polygon fill="#212326" fill-opacity="0.501961" points="97,118 91,134 92,117" />
<polygon fill="#837f79" fill-opacity="0.501961" points="3,31 -8,28 -16,54" />
<polygon fill="#b6c4d9" fill-opacity="0.501961" points="149,138 146,131 140,130" />
<polygon fill="#a3937e" fill-opacity="0.501961" points="159,72 150,80 159,80" />
<polygon fill="#959194" fill-opacity="0.501961" points="160,115 159,105 176,93" />
<polygon fill="#222125" fill-opacity="0.501961" points="123,130 92,120 130,100" />
<polygon fill="#9f979c" fill-opacity="0.501961" points="183,106 192,108 174,110" />
<polygon fill="#aa9e9f" fill-opacity="0.501961" points="223,126 223,137 217,116" />
<polygon fill="#1d1d20" fill-opacity="0.501961" points="168,129 159,114 134,126" />
<polygon fill="#b2a69e" fill-opacity="0.501961" points="233,137 252,136 251,142" />
<polygon fill="#b4adb2" fill-opacity="0.501961" points="54,137 59,113 52,125" />
<polygon fill="#b0aaa9" fill-opacity="0.501961" points="173,74 163,80 166,95" />
<polygon fill="#2e2e32" fill-opacity="0.501961" points="100,71 140,20 109,43" />
<polygon fill="#736d75" fill-opacity="0.501961" points="190,62 183,75 181,65" />
<polygon fill="#1a1a1c" fill-opacity="0.501961" points="143,124 129,150 131,121" />
<polygon fill="#474249" fill-opacity="0.501961" points="111,77 95,70 111,98" />
<polygon fill="#b4b0b1" fill-opacity="0.501961" points="101,86 102,100 105,88" />
<polygon fill="#b1a3b4" fill-opacity="0.501961" points="236,13 241,26 224,42" />
<polygon fill="#d4d3d3" fill-opacity="0.501961" points="52,136 43,134 56,118" />
<polygon fill="#a4b8d7" fill-opacity="0.501961" points="172,129 162,130 174,133" />
<polygon fill="#a9b8d1" fill-opacity="0.501961" points="91,138 99,135 94,132" />
<polygon fill="#8f8c8d" fill-opacity="0.501961" points="82,43 80,36 80,49" />
<polygon fill="#2b2d34" fill-opacity="0.501961" points="113,159 122,156 104,134" />
<polygon fill="#454249" fill-opacity="0.501961" points="115,88 122,106 121,79" />
<polygon fill="#97bcf3" fill-opacity="0.501961" points="148,138 148,137 150,137" />
<polygon fill="#d4d1d7" fill-opacity="0.501961" points="172,62 166,75 179,62" />
<polygon fill="#5f5b62" fill-opacity="0.501961" points="96,100 105,112 108,109" />
<polygon fill="#99a9c0" fill-opacity="0.501961" points="150,130 158,138 155,131" />
<polygon fill="#47444f" fill-opacity="0.501961" points="163,73 150,66 162,59" />
<polygon fill="#bfbdc0" fill-opacity="0.501961" points="193,34 193,43 184,33" />
<polygon fill="#242327" fill-opacity="0.501961" points="126,111 125,95 153,131" />
<polygon fill="#e8e8e8" fill-opacity="0.501961" points="18,-6 110,-16 80,4" />
<polygon fill="#6c6a6e" fill-opacity="0.501961" points="83,14 89,14 91,-3" />
<polygon fill="#1f2022" fill-opacity="0.501961" points="129,138 165,138 125,159" />
<polygon fill="#242528" fill-opacity="0.501961" points="97,107 101,136 103,121" />
<polygon fill="#4a475a" fill-opacity="0.501961" points="182,44 182,30 172,25" />
<polygon fill="#aebccf" fill-opacity="0.501961" points="100,130 93,129 99,138" />
<polygon fill="#171616" fill-opacity="0.501961" points="152,136 150,134 151,131" />
<polygon fill="#dcd8d9" fill-opacity="0.501961" points="91,101 33,89 85,67" />
<polygon fill="#baafb2" fill-opacity="0.501961" points="48,109 40,128 45,131" />
<polygon fill="#484346" fill-opacity="0.501961" points="171,99 169,111 178,108" />
<polygon fill="#7c8eaa" fill-opacity="0.501961" points="173,138 169,128 172,129" />
<polygon fill="#dad5d5" fill-opacity="0.501961" points="20,63 36,98 1,113" />
<polygon fill="#b9b7ba" fill-opacity="0.501961" points="73,19 76,2 80,5" />
<polygon fill="#b9c3d2" fill-opacity="0.501961" points="168,136 162,129 159,130" />
<polygon fill="#d1cbcd" fill-opacity="0.501961" points="195,112 187,126 181,110" />
<polygon fill="#333336" fill-opacity="0.501961" points="104,-3 78,29 113,44" />
<polygon fill="#cfc9c7" fill-opacity="0.501961" points="41,101 22,136 -5,90" />
<polygon fill="#908197" fill-opacity="0.501961" points="230,55 240,57 234,41" />
<polygon fill="#979899" fill-opacity="0.501961" points="76,19 76,30 79,20" />
<polygon fill="#4e484a" fill-opacity="0.501961" points="89,108 98,97 102,106" />
<polygon fill="#2f2c2d" fill-opacity="0.501961" points="74,136 107,159 146,157" />
<polygon fill="#cecbcc" fill-opacity="0.501961" points="187,57 198,71 190,78" />
<polygon fill="#38343d" fill-opacity="0.501961" points="176,-16 113,-1 120,19" />
<polygon fill="#6e6677" fill-opacity="0.501961" points="255,72 240,84 244,92" />
<polygon fill="#23262c" fill-opacity="0.501961" points="119,135 137,157 127,154" />
<polygon fill="#bfb6b8" fill-opacity="0.501961" points="83,111 92,100 89,74" />
<polygon fill="#d6c9d5" fill-opacity="0.501961" points="203,13 212,-5 233,22" />
<polygon fill="#a9a7a4" fill-opacity="0.501961" points="116,81 111,87 111,82" />
<polygon fill="#e1e7d3" fill-opacity="0.501961" points="2,20 15,24 29,-9" />
<polygon fill="#a098a0" fill-opacity="0.501961" points="191,97 185,98 186,87" />
<polygon fill="#2f2d34" fill-opacity="0.501961" points="182,101 182,94 168,105" />
<polygon fill="#212226" fill-opacity="0.501961" points="176,129 147,127 170,116" />
<polygon fill="#c5cfc5" fill-opacity="0.501961" points="141,18 136,18 139,14" />
<polygon fill="#363540" fill-opacity="0.501961" points="152,15 122,23 170,60" />
<polygon fill="#5a5450" fill-opacity="0.501961" points="83,119 80,127 70,129" />
<polygon fill="#c4bfc2" fill-opacity="0.501961" points="169,97 165,105 151,95" />
<polygon fill="#b3a8a3" fill-opacity="0.501961" points="55,136 54,143 32,136" />
<polygon fill="#403c41" fill-opacity="0.501961" points="148,20 139,9 142,24" />
<polygon fill="#646264" fill-opacity="0.501961" points="84,6 77,8 77,18" />
<polygon fill="#dedadb" fill-opacity="0.501961" points="200,95 186,77 242,95" />
<polygon fill="#ccc4c1" fill-opacity="0.501961" points="219,116 234,112 233,159" />
<polygon fill="#706b7f" fill-opacity="0.501961" points="145,-8 157,-16 171,6" />
<polygon fill="#464148" fill-opacity="0.501961" points="111,78 105,88 113,94" />
<polygon fill="#cac5c7" fill-opacity="0.501961" points="225,69 228,93 217,82" />
<polygon fill="#393843" fill-opacity="0.501961" points="136,23 138,1 112,23" />
<polygon fill="#7c778b" fill-opacity="0.501961" points="180,6 185,10 187,17" />
<polygon fill="#4d4951" fill-opacity="0.501961" points="118,68 118,49 129,67" />
<polygon fill="#a49b95" fill-opacity="0.501961" points="69,133 78,121 63,128" />
<polygon fill="#98a5a8" fill-opacity="0.501961" points="252,44 242,31 237,50" />
<polygon fill="#726d7a" fill-opacity="0.501961" points="190,39 180,35 192,46" />
<polygon fill="#27252a" fill-opacity="0.501961" points="153,136 194,159 153,159" />
<polygon fill="#b9b0b3" fill-opacity="0.501961" points="212,123 203,110 209,133" />
<polygon fill="#1e2021" fill-opacity="0.501961" points="109,134 107,146 114,157" />
<polygon fill="#cfc8c4" fill-opacity="0.501961" points="207,116 218,152 218,114" />
<polygon fill="#888288" fill-opacity="0.501961" points="177,128 181,128 183,118" />
<polygon fill="#888283" fill-opacity="0.501961" points="90,106 100,95 92,95" />
<polygon fill="#252527" fill-opacity="0.501961" points="74,136 78,127 88,123" />
<polygon fill="#332f34" fill-opacity="0.501961" points="148,111 123,83 135,115" />
<polygon fill="#454144" fill-opacity="0.501961" points="71,137 75,133 74,138" />
<polygon fill="#ceccd3" fill-opacity="0.501961" points="189,13 184,-7 177,-2" />
<polygon fill="#c9c2bf" fill-opacity="0.501961" points="73,142 60,135 39,159" />
<polygon fill="#2f2f31" fill-opacity="0.501961" points="88,25 113,63 85,60" />
<polygon fill="#433e47" fill-opacity="0.501961" points="179,83 170,86 173,91" />
<polygon fill="#807b7c" fill-opacity="0.501961" points="82,59 76,52 81,66" />
<polygon fill="#857090" fill-opacity="0.501961" points="241,65 245,81 234,69" />
<polygon fill="#e7e5e6" fill-opacity="0.501961" points="220,53 191,61 220,73" />
<polygon fill="#cfcac8" fill-opacity="0.501961" points="35,151 25,146 40,127" />
<polygon fill="#1d1c1d" fill-opacity="0.501961" points="95,116 106,120 101,131" />
<polygon fill="#423f44" fill-opacity="0.501961" points="117,76 115,94 122,105" />
<polygon fill="#1a1b19" fill-opacity="0.501961" points="115,126 113,124 108,131" />
<polygon fill="#bbb6b7" fill-opacity="0.501961" points="83,70 76,59 97,76" />
<polygon fill="#725043" fill-opacity="0.501961" points="117,13 116,9 112,14" />
<polygon fill="#d3d2d4" fill-opacity="0.501961" points="87,9 70,-16 81,-16" />
<polygon fill="#787478" fill-opacity="0.501961" points="102,107 107,102 106,108" />
<polygon fill="#201f23" fill-opacity="0.501961" points="147,113 152,134 154,124" />
<polygon fill="#464348" fill-opacity="0.501961" points="135,79 151,71 134,101" />
<polygon fill="#c2bbbd" fill-opacity="0.501961" points="216,99 215,111 210,90" />
<polygon fill="#ada4aa" fill-opacity="0.501961" points="25,150 31,128 25,137" />
<polygon fill="#1f1f22" fill-opacity="0.501961" points="156,132 161,117 166,126" />
<polygon fill="#534d57" fill-opacity="0.501961" points="179,83 173,74 177,76" />
<polygon fill="#423f41" fill-opacity="0.501961" points="79,56 81,48 84,63" />
<polygon fill="#e8e7e7" fill-opacity="0.501961" points="14,42 76,-11 71,50" />
<polygon fill="#ada6a8" fill-opacity="0.501961" points="245,62 228,58 241,65" />
<polygon fill="#dcd7d7" fill-opacity="0.501961" points="16,102 37,102 40,65" />
<polygon fill="#a1979a" fill-opacity="0.501961" points="40,143 42,132 35,145" />
<polygon fill="#c5bdba" fill-opacity="0.501961" points="30,93 24,115 16,116" />
<polygon fill="#a0aec7" fill-opacity="0.501961" points="107,133 100,135 96,132" />
<polygon fill="#4c4850" fill-opacity="0.501961" points="140,59 132,71 135,49" />
<polygon fill="#b0a7a6" fill-opacity="0.501961" points="-5,139 1,141 8,120" />
<polygon fill="#b8c8e1" fill-opacity="0.501961" points="155,128 153,128 154,133" />
<polygon fill="#b8afa0" fill-opacity="0.501961" points="188,159 179,144 183,137" />
<polygon fill="#867f82" fill-opacity="0.501961" points="178,116 179,120 174,113" />
<polygon fill="#b5abac" fill-opacity="0.501961" points="237,133 230,118 230,125" />
<polygon fill="#6c6669" fill-opacity="0.501961" points="156,102 162,107 154,105" />
<polygon fill="#635f61" fill-opacity="0.501961" points="74,137 87,159 101,159" />
<polygon fill="#d4d2d3" fill-opacity="0.501961" points="-13,67 14,31 5,55" />
<polygon fill="#5e6158" fill-opacity="0.501961" points="255,100 257,78 271,90" />
<polygon fill="#c5babb" fill-opacity="0.501961" points="242,109 234,97 242,124" />
<polygon fill="#a6a1a4" fill-opacity="0.501961" points="184,75 175,73 187,71" />
<polygon fill="#e0ddde" fill-opacity="0.501961" points="163,84 163,95 153,87" />
<polygon fill="#3c393a" fill-opacity="0.501961" points="102,113 123,106 119,97" />
<polygon fill="#c3c2c3" fill-opacity="0.501961" points="81,38 74,38 74,24" />
<polygon fill="#e4e1e1" fill-opacity="0.501961" points="42,39 14,78 89,79" />
<polygon fill="#464254" fill-opacity="0.501961" points="176,28 161,18 179,20" />
<polygon fill="#1d1e1f" fill-opacity="0.501961" points="154,136 145,159 167,159" />
<polygon fill="#504d5a" fill-opacity="0.501961" points="161,67 170,61 170,56" />
<polygon fill="#9a8d95" fill-opacity="0.501961" points="205,152 197,143 197,135" />
<polygon fill="#adbcd3" fill-opacity="0.501961" points="124,135 129,130 128,137" />
<polygon fill="#3d393b" fill-opacity="0.501961" points="164,159 178,136 124,157" />
<polygon fill="#eae9e9" fill-opacity="0.501961" points="190,33 222,42 190,-4" />
<polygon fill="#d8d3d2" fill-opacity="0.501961" points="44,131 60,102 58,67" />
<polygon fill="#d9d7d9" fill-opacity="0.501961" points="195,56 197,38 187,24" />
<polygon fill="#aab8ca" fill-opacity="0.501961" points="121,137 112,130 111,134" />
<polygon fill="#59575a" fill-opacity="0.501961" points="80,12 76,12 79,24" />
<polygon fill="#5d596c" fill-opacity="0.501961" points="176,17 177,8 184,11" />
<polygon fill="#bcb4b5" fill-opacity="0.501961" points="46,113 50,96 51,107" />
<polygon fill="#6f6a7c" fill-opacity="0.501961" points="185,20 178,27 183,16" />
<polygon fill="#bebbb8" fill-opacity="0.501961" points="92,83 90,73 95,77" />
<polygon fill="#484447" fill-opacity="0.501961" points="141,98 148,107 163,109" />
<polygon fill="#d0cccd" fill-opacity="0.501961" points="146,84 147,100 152,95" />
<polygon fill="#b7b3b3" fill-opacity="0.501961" points="251,106 246,92 244,96" />
<polygon fill="#cdc7c7" fill-opacity="0.501961" points="201,159 195,132 185,133" />
<polygon fill="#8b868b" fill-opacity="0.501961" points="160,104 166,111 163,116" />
<polygon fill="#878286" fill-opacity="0.501961" points="250,54 247,64 237,51" />
<polygon fill="#cfc8b7" fill-opacity="0.501961" points="210,140 202,157 200,137" />
<polygon fill="#b9c4d6" fill-opacity="0.501961" points="166,132 165,138 159,132" />
<polygon fill="#323134" fill-opacity="0.501961" points="177,126 171,141 178,138" />
<polygon fill="#bdb7bd" fill-opacity="0.501961" points="189,58 191,50 179,64" />
<polygon fill="#706f73" fill-opacity="0.501961" points="105,46 102,46 107,42" />
<polygon fill="#d0cab5" fill-opacity="0.501961" points="26,151 51,146 50,137" />
<polygon fill="#cac2cf" fill-opacity="0.501961" points="222,46 228,56 211,47" />
<polygon fill="#b6aeb4" fill-opacity="0.501961" points="243,122 249,138 249,129" />
<polygon fill="#1e1e22" fill-opacity="0.501961" points="113,123 142,132 117,115" />
<polygon fill="#c7cfdd" fill-opacity="0.501961" points="86,135 90,135 88,131" />
<polygon fill="#9e95af" fill-opacity="0.501961" points="230,32 248,24 247,38" />
<polygon fill="#b5aaa9" fill-opacity="0.501961" points="192,123 192,127 201,131" />
<polygon fill="#4a464a" fill-opacity="0.501961" points="100,91 98,81 95,94" />
<polygon fill="#dddadb" fill-opacity="0.501961" points="205,69 181,78 236,98" />
<polygon fill="#d6d1d0" fill-opacity="0.501961" points="190,96 199,79 198,126" />
<polygon fill="#747475" fill-opacity="0.501961" points="0,139 -8,159 -12,105" />
<polygon fill="#cbc8c5" fill-opacity="0.501961" points="112,82 112,87 115,84" />
<polygon fill="#d3dccc" fill-opacity="0.501961" points="0,19 20,3 8,-16" />
<polygon fill="#d3d4d4" fill-opacity="0.501961" points="254,112 254,98 250,106" />
<polygon fill="#c8c0c2" fill-opacity="0.501961" points="74,122 79,116 63,114" />
<polygon fill="#2d2c30" fill-opacity="0.501961" points="101,43 99,79 122,65" />
<polygon fill="#dcd8d9" fill-opacity="0.501961" points="80,80 82,114 74,104" />
<polygon fill="#796c7f" fill-opacity="0.501961" points="240,83 251,63 237,74" />
<polygon fill="#232325" fill-opacity="0.501961" points="164,140 94,138 104,159" />
<polygon fill="#312f37" fill-opacity="0.501961" points="143,74 157,61 140,31" />
<polygon fill="#aba4ae" fill-opacity="0.501961" points="178,60 178,61 181,61" />
<polygon fill="#1f2023" fill-opacity="0.501961" points="110,134 114,159 107,154" />
<polygon fill="#888888" fill-opacity="0.501961" points="86,3 107,-16 95,-15" />
<polygon fill="#1e1e21" fill-opacity="0.501961" points="125,110 83,127 156,128" />
<polygon fill="#c2dba1" fill-opacity="0.501961" points="2,42 -2,37 8,27" />
<polygon fill="#cfc8c5" fill-opacity="0.501961" points="77,96 59,111 61,95" />
<polygon fill="#c7beaf" fill-opacity="0.501961" points="271,159 211,159 245,137" />
<polygon fill="#dbd8d7" fill-opacity="0.501961" points="24,101 24,108 4,108" />
<polygon fill="#a39ca0" fill-opacity="0.501961" points="183,117 179,109 175,117" />
<polygon fill="#25252a" fill-opacity="0.501961" points="185,159 147,138 149,159" />
<polygon fill="#d1cecd" fill-opacity="0.501961" points="34,103 26,135 15,136" />
<polygon fill="#544f60" fill-opacity="0.501961" points="187,39 181,37 191,48" />
<polygon fill="#dbd9da" fill-opacity="0.501961" points="76,8 109,-16 79,-16" />
</g>
</svg>