<svg xmlns="http://www.w3.org/2000/svg" version="1.1" width="1024" height="576">
<rect x="0" y="0" width="1024" height="576" fill="#878684" />
<g transform="scale(4.000000) translate(0.5 0.5)">
<polygon fill="#000000" fill-opacity="0.501961" points="143,9 29,110 234,159" />
<polygon fill="#ffffff" fill-opacity="0.501961" points="271,121 105,0 252,-16" />
<polygon fill="#fff5ef" fill-opacity="0.501961" points="117,-9 39,140 -7,-1" />
<polygon fill="#000000" fill-opacity="0.501961" points="227,77 155,159 47,70" />
<polygon fill="#feffff" fill-opacity="0.501961" points="266,103 248,-16 202,137" />
<polygon fill="#000000" fill-opacity="0.501961" points="57,81 222,92 125,18" />
<polygon fill="#dbd4c3" fill-opacity="0.501961" points="88,154 39,27 -15,105" />
<polygon fill="#f0f7f8" fill-opacity="0.501961" points="253,50 254,-16 60,10" />
<polygon fill="#050405" fill-opacity="0.501961" points="218,159 153,22 71,127" />
<polygon fill="#ffffff" fill-opacity="0.501961" points="7,-16 -9,27 70,72" />
<polygon fill="#f9fafb" fill-opacity="0.501961" points="214,73 128,10 251,51" />
<polygon fill="#0b0b0c" fill-opacity="0.501961" points="182,159 90,52 223,78" />
<polygon fill="#978284" fill-opacity="0.501961" points="84,106 25,102 5,38" />
<polygon fill="#84807a" fill-opacity="0.501961" points="50,-16 16,-4 82,65" />
<polygon fill="#ffffff" fill-opacity="0.501961" points="50,-3 79,-15 87,55" />
<polygon fill="#dbe2ec" fill-opacity="0.501961" points="219,88 207,159 226,159" />
<polygon fill="#fefff4" fill-opacity="0.501961" points="-3,90 62,131 -16,107" />
<polygon fill="#70625c" fill-opacity="0.501961" points="104,35 86,15 96,-10" />
<polygon fill="#e6edeb" fill-opacity="0.501961" points="105,32 158,8 100,-7" />
<polygon fill="#1f1c1f" fill-opacity="0.501961" points="137,25 160,31 175,61" />
<polygon fill="#5c5539" fill-opacity="0.501961" points="-16,154 91,159 -16,111" />
<polygon fill="#fffffd" fill-opacity="0.501961" points="119,148 60,130 101,159" />
<polygon fill="#6a5b56" fill-opacity="0.501961" points="-16,55 32,65 -10,19" />
<polygon fill="#f3fefd" fill-opacity="0.501961" points="223,86 207,128 244,107" />
<polygon fill="#5e5752" fill-opacity="0.501961" points="42,33 46,-14 58,9" />
<polygon fill="#8e8484" fill-opacity="0.501961" points="82,105 73,134 49,72" />
<polygon fill="#edeef1" fill-opacity="0.501961" points="50,90 49,41 -9,8" />
<polygon fill="#e7e7e8" fill-opacity="0.501961" points="192,72 271,46 154,17" />
<polygon fill="#202325" fill-opacity="0.501961" points="255,-14 256,85 271,31" />
<polygon fill="#5d6571" fill-opacity="0.501961" points="260,68 271,159 245,142" />
<polygon fill="#d5d0be" fill-opacity="0.501961" points="138,42 146,45 143,50" />
<polygon fill="#7e7a7c" fill-opacity="0.501961" points="80,67 48,78 93,43" />
<polygon fill="#443c36" fill-opacity="0.501961" points="70,129 111,142 93,111" />
<polygon fill="#111111" fill-opacity="0.501961" points="194,159 214,84 58,82" />
<polygon fill="#bcabab" fill-opacity="0.501961" points="112,134 109,159 128,138" />
<polygon fill="#c2caca" fill-opacity="0.501961" points="135,19 168,39 200,-16" />
<polygon fill="#e7f6d8" fill-opacity="0.501961" points="74,138 37,125 57,119" />
<polygon fill="#ece9e7" fill-opacity="0.501961" points="81,52 45,-16 97,38" />
<polygon fill="#171617" fill-opacity="0.501961" points="105,32 147,155 68,83" />
<polygon fill="#c9bfbb" fill-opacity="0.501961" points="80,48 47,22 60,72" />
<polygon fill="#9f9772" fill-opacity="0.501961" points="23,134 36,126 64,143" />
<polygon fill="#dae3e6" fill-opacity="0.501961" points="116,53 112,53 114,47" />
<polygon fill="#110a0b" fill-opacity="0.501961" points="137,25 94,50 149,44" />
<polygon fill="#9aa5a3" fill-opacity="0.501961" points="227,81 212,91 212,103" />
<polygon fill="#c4babc" fill-opacity="0.501961" points="-16,57 54,79 21,87" />
<polygon fill="#917c6d" fill-opacity="0.501961" points="23,108 41,80 13,100" />
<polygon fill="#a2a8b9" fill-opacity="0.501961" points="233,133 207,149 263,133" />
<polygon fill="#5e6474" fill-opacity="0.501961" points="215,137 271,97 264,127" />
<polygon fill="#221f21" fill-opacity="0.501961" points="130,135 54,75 81,69" />
<polygon fill="#1f1d1f" fill-opacity="0.501961" points="86,135 114,94 121,129" />
<polygon fill="#52393c" fill-opacity="0.501961" points="64,121 72,103 58,116" />
<polygon fill="#dfdace" fill-opacity="0.501961" points="71,52 108,11 82,26" />
<polygon fill="#6c6662" fill-opacity="0.501961" points="56,8 35,25 60,21" />
<polygon fill="#e5e8e8" fill-opacity="0.501961" points="258,-8 187,-13 236,70" />
<polygon fill="#ebede8" fill-opacity="0.501961" points="108,29 98,11 122,14" />
<polygon fill="#424044" fill-opacity="0.501961" points="199,127 211,147 211,135" />
<polygon fill="#323530" fill-opacity="0.501961" points="255,154 271,130 255,71" />
<polygon fill="#8a7b74" fill-opacity="0.501961" points="86,138 81,131 96,111" />
<polygon fill="#bccba5" fill-opacity="0.501961" points="-16,90 23,81 21,103" />
<polygon fill="#e7e6e6" fill-opacity="0.501961" points="58,88 22,-2 -16,12" />
<polygon fill="#bbb5b3" fill-opacity="0.501961" points="27,77 77,102 47,70" />
<polygon fill="#afbd9a" fill-opacity="0.501961" points="53,122 21,107 60,104" />
<polygon fill="#a8a8ae" fill-opacity="0.501961" points="202,126 210,113 226,145" />
<polygon fill="#857a76" fill-opacity="0.501961" points="36,67 -16,61 5,38" />
<polygon fill="#111010" fill-opacity="0.501961" points="167,53 136,159 215,90" />
<polygon fill="#646466" fill-opacity="0.501961" points="200,74 224,75 213,79" />
<polygon fill="#e0eaea" fill-opacity="0.501961" points="260,98 207,126 233,75" />
<polygon fill="#403c3f" fill-opacity="0.501961" points="148,26 143,33 119,23" />
<polygon fill="#595552" fill-opacity="0.501961" points="76,50 84,58 79,64" />
<polygon fill="#1a1818" fill-opacity="0.501961" points="165,35 153,75 141,28" />
<polygon fill="#939193" fill-opacity="0.501961" points="165,31 154,28 174,53" />
<polygon fill="#b6b9b0" fill-opacity="0.501961" points="92,-16 89,23 71,-16" />
<polygon fill="#0d0e0e" fill-opacity="0.501961" points="158,159 129,47 83,63" />
<polygon fill="#918481" fill-opacity="0.501961" points="67,97 54,73 51,110" />
<polygon fill="#a89795" fill-opacity="0.501961" points="76,103 79,119 69,118" />
<polygon fill="#948c88" fill-opacity="0.501961" points="47,31 37,26 47,1" />
<polygon fill="#c7c7c4" fill-opacity="0.501961" points="35,38 54,22 65,36" />
<polygon fill="#a8a078" fill-opacity="0.501961" points="25,122 -13,104 -16,116" />
<polygon fill="#a9969a" fill-opacity="0.501961" points="3,81 1,51 21,92" />
<polygon fill="#484543" fill-opacity="0.501961" points="6,60 20,55 15,50" />
<polygon fill="#6e5b5c" fill-opacity="0.501961" points="93,0 94,17 99,6" />
<polygon fill="#b4bfbb" fill-opacity="0.501961" points="49,9 33,16 39,-5" />
<polygon fill="#6c645d" fill-opacity="0.501961" points="108,34 96,32 100,21" />
<polygon fill="#9697b0" fill-opacity="0.501961" points="257,100 243,119 217,128" />
<polygon fill="#dbbeb7" fill-opacity="0.501961" points="54,61 25,111 51,86" />
<polygon fill="#d2dada" fill-opacity="0.501961" points="230,21 91,-16 128,23" />
<polygon fill="#3f3c3e" fill-opacity="0.501961" points="68,72 69,64 84,79" />
<polygon fill="#9a9c9f" fill-opacity="0.501961" points="169,51 193,71 185,58" />
<polygon fill="#c6d5aa" fill-opacity="0.501961" points="96,137 35,150 141,159" />
<polygon fill="#302a2c" fill-opacity="0.501961" points="106,142 123,123 117,104" />
<polygon fill="#e3e6e6" fill-opacity="0.501961" points="200,-16 252,103 255,-16" />
<polygon fill="#eef0e4" fill-opacity="0.501961" points="7,112 46,124 8,100" />
<polygon fill="#cac39a" fill-opacity="0.501961" points="42,135 92,149 67,134" />
<polygon fill="#141214" fill-opacity="0.501961" points="95,106 82,84 84,127" />
<polygon fill="#101010" fill-opacity="0.501961" points="119,34 222,159 139,159" />
<polygon fill="#e3e7dc" fill-opacity="0.501961" points="140,47 142,45 149,49" />
<polygon fill="#857f7b" fill-opacity="0.501961" points="43,29 52,20 34,17" />
<polygon fill="#101010" fill-opacity="0.501961" points="146,34 142,109 207,110" />
<polygon fill="#a79f9b" fill-opacity="0.501961" points="0,29 -16,43 -1,-16" />
<polygon fill="#999d9d" fill-opacity="0.501961" points="115,19 106,35 126,21" />
<polygon fill="#cdeba7" fill-opacity="0.501961" points="7,96 -6,81 14,89" />
<polygon fill="#eeeae9" fill-opacity="0.501961" points="79,138 98,159 131,150" />
<polygon fill="#d7cebf" fill-opacity="0.501961" points="110,51 118,50 115,48" />
<polygon fill="#a2a9a8" fill-opacity="0.501961" points="224,76 213,97 227,82" />
<polygon fill="#b0d8a1" fill-opacity="0.501961" points="59,127 76,129 45,112" />
<polygon fill="#110e0f" fill-opacity="0.501961" points="149,38 120,57 113,34" />
<polygon fill="#5f5751" fill-opacity="0.501961" points="45,-1 51,18 59,15" />
<polygon fill="#647e5f" fill-opacity="0.501961" points="72,124 82,135 70,130" />
<polygon fill="#b3b7b8" fill-opacity="0.501961" points="93,28 98,34 87,53" />
<polygon fill="#eaeaeb" fill-opacity="0.501961" points="57,3 88,28 75,-12" />
<polygon fill="#88816a" fill-opacity="0.501961" points="30,140 -8,114 47,132" />
<polygon fill="#222022" fill-opacity="0.501961" points="64,89 92,82 56,73" />
<polygon fill="#e9eaea" fill-opacity="0.501961" points="166,27 241,26 201,72" />
<polygon fill="#c3bdbc" fill-opacity="0.501961" points="66,62 59,41 80,63" />
<polygon fill="#9cbba1" fill-opacity="0.501961" points="19,96 -9,87 19,106" />
<polygon fill="#9b8f8e" fill-opacity="0.501961" points="58,56 74,42 68,36" />
<polygon fill="#2a2729" fill-opacity="0.501961" points="124,23 129,32 92,44" />
<polygon fill="#5e5a51" fill-opacity="0.501961" points="-16,115 -16,159 51,159" />
<polygon fill="#b8c8ad" fill-opacity="0.501961" points="31,112 49,122 47,100" />
<polygon fill="#5c616a" fill-opacity="0.501961" points="225,127 242,118 232,137" />
<polygon fill="#8a8c95" fill-opacity="0.501961" points="262,113 243,121 239,132" />
<polygon fill="#e1e5e3" fill-opacity="0.501961" points="144,7 106,27 94,-15" />
<polygon fill="#4a4e4d" fill-opacity="0.501961" points="258,136 255,89 271,118" />
<polygon fill="#935d62" fill-opacity="0.501961" points="36,87 25,97 30,99" />
<polygon fill="#a4acb7" fill-opacity="0.501961" points="235,139 240,131 259,131" />
<polygon fill="#a3a1a4" fill-opacity="0.501961" points="125,25 147,25 123,18" />
<polygon fill="#464244" fill-opacity="0.501961" points="185,68 194,77 210,79" />
<polygon fill="#eeede6" fill-opacity="0.501961" points="45,121 60,134 72,133" />
<polygon fill="#d6c2ba" fill-opacity="0.501961" points="64,70 43,72 73,48" />
<polygon fill="#211e20" fill-opacity="0.501961" points="88,130 121,114 102,136" />
<polygon fill="#c5bdbd" fill-opacity="0.501961" points="62,88 33,67 15,80" />
<polygon fill="#1c2649" fill-opacity="0.501961" points="142,56 138,51 148,48" />
<polygon fill="#a4a7aa" fill-opacity="0.501961" points="193,71 216,71 211,76" />
<polygon fill="#725554" fill-opacity="0.501961" points="2,81 4,74 -9,74" />
<polygon fill="#89867d" fill-opacity="0.501961" points="1,112 -16,118 0,59" />
<polygon fill="#7d886c" fill-opacity="0.501961" points="95,133 86,139 102,138" />
<polygon fill="#a09f9d" fill-opacity="0.501961" points="65,87 78,101 45,87" />
<polygon fill="#e4e0e0" fill-opacity="0.501961" points="41,30 59,57 44,74" />
<polygon fill="#715c5d" fill-opacity="0.501961" points="77,106 66,113 63,95" />
<polygon fill="#e9e9e9" fill-opacity="0.501961" points="70,34 48,-16 81,5" />
<polygon fill="#302d2e" fill-opacity="0.501961" points="203,107 201,130 208,113" />
<polygon fill="#eeeef0" fill-opacity="0.501961" points="18,107 3,95 -16,93" />
<polygon fill="#90929c" fill-opacity="0.501961" points="203,129 238,156 244,141" />
<polygon fill="#67615d" fill-opacity="0.501961" points="102,23 95,27 105,38" />
<polygon fill="#7b7c7d" fill-opacity="0.501961" points="271,36 256,90 255,-1" />
<polygon fill="#a99c9b" fill-opacity="0.501961" points="28,57 6,67 18,69" />
<polygon fill="#bfa0a4" fill-opacity="0.501961" points="48,101 58,117 30,100" />
<polygon fill="#cad0d2" fill-opacity="0.501961" points="238,70 225,89 224,74" />
<polygon fill="#b0a3a2" fill-opacity="0.501961" points="147,159 122,136 75,159" />
<polygon fill="#1f1d1e" fill-opacity="0.501961" points="189,74 216,79 213,93" />
<polygon fill="#502b21" fill-opacity="0.501961" points="110,49 118,48 113,44" />
<polygon fill="#e1e8e8" fill-opacity="0.501961" points="209,129 254,100 254,31" />
<polygon fill="#d0d4d4" fill-opacity="0.501961" points="124,-12 178,51 147,-16" />
<polygon fill="#b9b5b2" fill-opacity="0.501961" points="68,31 42,29 61,58" />
<polygon fill="#2b272a" fill-opacity="0.501961" points="75,127 89,120 81,112" />
<polygon fill="#e4ddd6" fill-opacity="0.501961" points="83,54 71,34 89,26" />
<polygon fill="#4e4c4a" fill-opacity="0.501961" points="50,3 19,-15 58,-16" />
<polygon fill="#dbdfde" fill-opacity="0.501961" points="167,25 98,16 148,8" />
<polygon fill="#e9e9e9" fill-opacity="0.501961" points="-3,24 40,36 45,74" />
<polygon fill="#dce0df" fill-opacity="0.501961" points="254,22 229,47 247,-16" />
<polygon fill="#a0a1ad" fill-opacity="0.501961" points="202,130 228,125 217,134" />
<polygon fill="#6c615f" fill-opacity="0.501961" points="118,135 106,141 112,133" />
<polygon fill="#313434" fill-opacity="0.501961" points="255,108 255,146 262,133" />
<polygon fill="#a18b87" fill-opacity="0.501961" points="1,62 14,45 1,46" />
<polygon fill="#527d90" fill-opacity="0.501961" points="143,50 145,48 137,48" />
<polygon fill="#dcb9a3" fill-opacity="0.501961" points="25,105 34,110 39,91" />
<polygon fill="#dcdbdd" fill-opacity="0.501961" points="50,44 13,15 18,-4" />
<polygon fill="#101010" fill-opacity="0.501961" points="118,126 208,138 118,31" />
<polygon fill="#afa6a1" fill-opacity="0.501961" points="50,20 41,33 61,21" />
<polygon fill="#413c3e" fill-opacity="0.501961" points="85,65 74,72 91,50" />
<polygon fill="#c2c6c8" fill-opacity="0.501961" points="185,57 172,48 181,59" />
<polygon fill="#afaebc" fill-opacity="0.501961" points="249,107 259,107 249,112" />
<polygon fill="#e8eaea" fill-opacity="0.501961" points="234,69 204,72 210,23" />
<polygon fill="#c3b6b7" fill-opacity="0.501961" points="20,93 39,69 8,73" />
<polygon fill="#97817c" fill-opacity="0.501961" points="63,109 69,97 50,90" />
<polygon fill="#ccd3d2" fill-opacity="0.501961" points="209,121 219,112 220,88" />
<polygon fill="#121212" fill-opacity="0.501961" points="120,29 138,70 141,31" />
<polygon fill="#282627" fill-opacity="0.501961" points="81,77 98,104 120,112" />
<polygon fill="#a6c5a5" fill-opacity="0.501961" points="26,110 66,128 48,112" />
<polygon fill="#a1918a" fill-opacity="0.501961" points="42,18 46,4 54,4" />
<polygon fill="#c8e3a6" fill-opacity="0.501961" points="39,116 30,104 52,116" />
<polygon fill="#c3bd9a" fill-opacity="0.501961" points="60,133 23,120 47,138" />
<polygon fill="#c6d1d0" fill-opacity="0.501961" points="111,21 111,9 143,22" />
<polygon fill="#cad5d5" fill-opacity="0.501961" points="212,24 144,8 184,-3" />
<polygon fill="#bfc3d1" fill-opacity="0.501961" points="232,117 211,127 219,129" />
<polygon fill="#9d7a78" fill-opacity="0.501961" points="22,107 22,94 39,85" />
<polygon fill="#241b1b" fill-opacity="0.501961" points="163,39 136,46 143,28" />
<polygon fill="#bfb9ba" fill-opacity="0.501961" points="161,29 142,25 154,23" />
<polygon fill="#0f0f0f" fill-opacity="0.501961" points="86,81 101,43 177,159" />
<polygon fill="#d7d4bc" fill-opacity="0.501961" points="-1,110 -8,92 28,121" />
<polygon fill="#c2c3bc" fill-opacity="0.501961" points="90,7 86,21 73,-16" />
<polygon fill="#a4958a" fill-opacity="0.501961" points="36,108 42,92 55,86" />
<polygon fill="#726e6b" fill-opacity="0.501961" points="45,23 37,21 45,29" />
<polygon fill="#2f2d2f" fill-opacity="0.501961" points="171,52 160,39 171,64" />
<polygon fill="#8f8c8e" fill-opacity="0.501961" points="64,71 78,65 68,63" />
<polygon fill="#555656" fill-opacity="0.501961" points="118,25 116,29 127,24" />
<polygon fill="#746f61" fill-opacity="0.501961" points="34,135 12,136 -16,108" />
<polygon fill="#686564" fill-opacity="0.501961" points="96,38 101,36 93,48" />
<polygon fill="#433f40" fill-opacity="0.501961" points="117,126 116,132 131,140" />
<polygon fill="#c9cecf" fill-opacity="0.501961" points="226,69 206,70 229,77" />
<polygon fill="#af918f" fill-opacity="0.501961" points="49,113 44,109 56,95" />
<polygon fill="#8e827f" fill-opacity="0.501961" points="68,-16 88,-16 101,9" />
<polygon fill="#1a1818" fill-opacity="0.501961" points="88,109 82,70 64,79" />
<polygon fill="#6d6564" fill-opacity="0.501961" points="15,63 20,56 6,61" />
<polygon fill="#9d8b8b" fill-opacity="0.501961" points="65,117 78,103 71,127" />
<polygon fill="#749975" fill-opacity="0.501961" points="70,130 62,128 74,127" />
<polygon fill="#312f2f" fill-opacity="0.501961" points="215,89 213,75 219,75" />
<polygon fill="#111111" fill-opacity="0.501961" points="133,89 150,36 201,88" />
<polygon fill="#7b7a80" fill-opacity="0.501961" points="212,137 202,156 227,159" />
<polygon fill="#5f5252" fill-opacity="0.501961" points="59,119 70,101 71,110" />
<polygon fill="#80828c" fill-opacity="0.501961" points="242,116 245,141 253,141" />
<polygon fill="#dee1e0" fill-opacity="0.501961" points="158,27 188,23 138,14" />
<polygon fill="#4b494c" fill-opacity="0.501961" points="211,133 207,131 207,145" />
<polygon fill="#1b1719" fill-opacity="0.501961" points="95,49 114,45 120,28" />
<polygon fill="#373133" fill-opacity="0.501961" points="84,134 92,129 106,133" />
<polygon fill="#514e51" fill-opacity="0.501961" points="153,30 142,27 146,31" />
<polygon fill="#171517" fill-opacity="0.501961" points="96,98 112,118 95,130" />
<polygon fill="#a89c9a" fill-opacity="0.501961" points="4,81 19,94 0,57" />
<polygon fill="#524c4b" fill-opacity="0.501961" points="78,53 81,67 83,60" />
<polygon fill="#8ca799" fill-opacity="0.501961" points="38,111 29,111 45,117" />
<polygon fill="#6f6667" fill-opacity="0.501961" points="95,119 94,109 88,128" />
<polygon fill="#ab9f9a" fill-opacity="0.501961" points="64,72 52,70 64,67" />
<polygon fill="#9c8e8c" fill-opacity="0.501961" points="88,24 91,10 100,9" />
<polygon fill="#bfbbb8" fill-opacity="0.501961" points="55,51 71,52 36,25" />
<polygon fill="#e7e8ea" fill-opacity="0.501961" points="134,1 149,21 109,-6" />
<polygon fill="#928c83" fill-opacity="0.501961" points="62,22 52,18 70,36" />
<polygon fill="#cee7a7" fill-opacity="0.501961" points="0,83 2,92 18,96" />
<polygon fill="#2a2829" fill-opacity="0.501961" points="208,88 208,103 215,84" />
<polygon fill="#4a494a" fill-opacity="0.501961" points="207,120 209,105 205,113" />
<polygon fill="#bbbcbe" fill-opacity="0.501961" points="80,51 84,57 91,43" />
<polygon fill="#a9a6a4" fill-opacity="0.501961" points="62,90 51,72 56,93" />
<polygon fill="#655558" fill-opacity="0.501961" points="1,78 -16,115 -10,27" />
<polygon fill="#acb3ba" fill-opacity="0.501961" points="245,140 237,135 228,138" />
<polygon fill="#685e5c" fill-opacity="0.501961" points="92,4 95,9 95,1" />
<polygon fill="#cfcbbb" fill-opacity="0.501961" points="43,116 47,102 41,102" />
<polygon fill="#575f6c" fill-opacity="0.501961" points="236,134 243,127 230,129" />
<polygon fill="#908b74" fill-opacity="0.501961" points="30,128 46,133 40,128" />
<polygon fill="#e7e7cd" fill-opacity="0.501961" points="18,115 36,122 30,124" />
<polygon fill="#151415" fill-opacity="0.501961" points="87,110 105,112 69,74" />
<polygon fill="#eeffff" fill-opacity="0.501961" points="116,52 112,49 115,49" />
<polygon fill="#c2acab" fill-opacity="0.501961" points="54,107 51,116 63,105" />
<polygon fill="#524c4b" fill-opacity="0.501961" points="79,108 82,115 73,130" />
<polygon fill="#191d3f" fill-opacity="0.501961" points="108,49 116,59 117,55" />
<polygon fill="#111011" fill-opacity="0.501961" points="119,133 159,124 119,52" />
<polygon fill="#101010" fill-opacity="0.501961" points="96,90 190,159 212,82" />
<polygon fill="#bbc1bd" fill-opacity="0.501961" points="99,38 91,34 95,28" />
<polygon fill="#e9d1c4" fill-opacity="0.501961" points="1,8 3,-16 30,-16" />
<polygon fill="#8d8876" fill-opacity="0.501961" points="32,138 30,130 51,141" />
<polygon fill="#312d30" fill-opacity="0.501961" points="178,67 173,56 187,67" />
<polygon fill="#272426" fill-opacity="0.501961" points="196,131 201,119 207,144" />
<polygon fill="#d9dbdc" fill-opacity="0.501961" points="220,107 234,108 252,87" />
<polygon fill="#ece8e1" fill-opacity="0.501961" points="111,28 100,10 103,-16" />
<polygon fill="#a4a6a5" fill-opacity="0.501961" points="79,65 73,53 73,65" />
<polygon fill="#dededf" fill-opacity="0.501961" points="188,25 192,47 211,22" />
<polygon fill="#8b7a77" fill-opacity="0.501961" points="58,90 62,112 68,97" />
<polygon fill="#3d3c3e" fill-opacity="0.501961" points="73,91 64,85 67,91" />
<polygon fill="#b6c1bc" fill-opacity="0.501961" points="30,14 39,14 42,2" />
<polygon fill="#938b8a" fill-opacity="0.501961" points="20,61 3,64 11,69" />
<polygon fill="#806864" fill-opacity="0.501961" points="84,128 77,128 88,134" />
<polygon fill="#b3ac93" fill-opacity="0.501961" points="72,139 72,149 106,151" />
<polygon fill="#a59591" fill-opacity="0.501961" points="19,103 35,82 22,91" />
<polygon fill="#b6adab" fill-opacity="0.501961" points="21,62 16,92 10,69" />
<polygon fill="#9c9793" fill-opacity="0.501961" points="48,34 41,27 50,18" />
<polygon fill="#3f3838" fill-opacity="0.501961" points="135,140 137,147 127,138" />
<polygon fill="#d1e1b6" fill-opacity="0.501961" points="61,125 73,127 52,117" />
<polygon fill="#c2bfba" fill-opacity="0.501961" points="57,20 44,34 63,45" />
<polygon fill="#988880" fill-opacity="0.501961" points="104,27 102,24 102,33" />
<polygon fill="#98a7a8" fill-opacity="0.501961" points="-1,93 15,101 6,93" />
<polygon fill="#776d6a" fill-opacity="0.501961" points="99,34 104,31 103,35" />
<polygon fill="#686a6b" fill-opacity="0.501961" points="209,109 212,103 211,97" />
<polygon fill="#dfdcd9" fill-opacity="0.501961" points="80,2 78,36 89,35" />
<polygon fill="#e8e8e8" fill-opacity="0.501961" points="8,0 50,63 14,45" />
<polygon fill="#898791" fill-opacity="0.501961" points="234,145 223,130 220,159" />
<polygon fill="#7a7d7d" fill-opacity="0.501961" points="257,102 271,94 255,45" />
<polygon fill="#afac8d" fill-opacity="0.501961" points="53,138 67,138 52,133" />
<polygon fill="#292628" fill-opacity="0.501961" points="71,78 83,66 75,69" />
<polygon fill="#9b958b" fill-opacity="0.501961" points="57,9 69,37 58,24" />
<polygon fill="#653c21" fill-opacity="0.501961" points="146,41 139,45 145,44" />
<polygon fill="#716e6e" fill-opacity="0.501961" points="114,139 116,132 124,136" />
<polygon fill="#aaacaa" fill-opacity="0.501961" points="68,95 73,100 73,93" />
<polygon fill="#96b280" fill-opacity="0.501961" points="107,149 131,151 93,137" />
<polygon fill="#2a2728" fill-opacity="0.501961" points="113,117 130,137 117,132" />
<polygon fill="#b2a9a9" fill-opacity="0.501961" points="55,41 65,52 63,57" />
<polygon fill="#2d2b2c" fill-opacity="0.501961" points="77,90 77,96 62,83" />
<polygon fill="#8b846a" fill-opacity="0.501961" points="31,159 53,140 81,147" />
<polygon fill="#bfb9b6" fill-opacity="0.501961" points="66,33 55,49 57,27" />
<polygon fill="#575455" fill-opacity="0.501961" points="138,25 126,24 130,27" />
<polygon fill="#2c292a" fill-opacity="0.501961" points="204,134 207,148 209,134" />
<polygon fill="#9c9f9e" fill-opacity="0.501961" points="227,79 221,86 222,75" />
<polygon fill="#1a1618" fill-opacity="0.501961" points="133,28 146,29 153,51" />
<polygon fill="#211f1f" fill-opacity="0.501961" points="93,109 82,110 81,126" />
<polygon fill="#ccc3c2" fill-opacity="0.501961" points="44,73 56,82 42,90" />
<polygon fill="#b9bec8" fill-opacity="0.501961" points="254,101 254,107 239,110" />
<polygon fill="#232121" fill-opacity="0.501961" points="90,128 114,135 99,110" />
<polygon fill="#c3d1d0" fill-opacity="0.501961" points="211,104 220,98 225,85" />
<polygon fill="#979795" fill-opacity="0.501961" points="95,44 91,44 97,35" />
<polygon fill="#b8b6a9" fill-opacity="0.501961" points="97,13 102,23 94,23" />
<polygon fill="#9b9391" fill-opacity="0.501961" points="67,47 63,39 72,39" />
<polygon fill="#393b3b" fill-opacity="0.501961" points="255,117 268,103 256,106" />
<polygon fill="#a9aeaf" fill-opacity="0.501961" points="214,110 208,114 213,98" />
<polygon fill="#a29ea0" fill-opacity="0.501961" points="89,51 90,50 85,49" />
<polygon fill="#a9a59f" fill-opacity="0.501961" points="15,-13 53,-16 31,14" />
<polygon fill="#d3dada" fill-opacity="0.501961" points="164,21 224,25 204,11" />
<polygon fill="#e7eceb" fill-opacity="0.501961" points="17,105 26,117 39,119" />
<polygon fill="#62646b" fill-opacity="0.501961" points="248,130 245,124 254,123" />
<polygon fill="#c6d6d2" fill-opacity="0.501961" points="108,6 114,7 110,-14" />
<polygon fill="#7c7878" fill-opacity="0.501961" points="71,125 78,102 78,118" />
<polygon fill="#2f2c2d" fill-opacity="0.501961" points="221,84 203,78 219,77" />
<polygon fill="#4b4946" fill-opacity="0.501961" points="54,9 50,12 55,17" />
<polygon fill="#2d2b2c" fill-opacity="0.501961" points="118,124 111,106 118,108" />
<polygon fill="#b8b5b7" fill-opacity="0.501961" points="172,42 164,28 156,28" />
<polygon fill="#bcbcb4" fill-opacity="0.501961" points="92,5 75,-14 86,15" />
<polygon fill="#939492" fill-opacity="0.501961" points="249,121 254,119 253,123" />
<polygon fill="#87888c" fill-opacity="0.501961" points="215,133 203,131 202,127" />
<polygon fill="#a89894" fill-opacity="0.501961" points="53,100 52,82 61,92" />
<polygon fill="#80776f" fill-opacity="0.501961" points="-16,71 11,44 -8,22" />
<polygon fill="#a8abb4" fill-opacity="0.501961" points="227,159 218,152 220,130" />
<polygon fill="#9a9492" fill-opacity="0.501961" points="119,136 130,151 125,136" />
<polygon fill="#886c63" fill-opacity="0.501961" points="26,101 19,104 29,96" />
<polygon fill="#8c8f8f" fill-opacity="0.501961" points="223,82 219,89 218,86" />
<polygon fill="#dadfe1" fill-opacity="0.501961" points="195,68 202,61 179,49" />
<polygon fill="#c9d3d1" fill-opacity="0.501961" points="145,12 158,9 138,-16" />
<polygon fill="#d9dad3" fill-opacity="0.501961" points="83,137 79,159 136,158" />
<polygon fill="#a0938a" fill-opacity="0.501961" points="43,94 51,91 37,108" />
<polygon fill="#969598" fill-opacity="0.501961" points="148,26 137,23 139,26" />
<polygon fill="#433e41" fill-opacity="0.501961" points="201,76 187,71 195,71" />
<polygon fill="#a4837a" fill-opacity="0.501961" points="58,119 57,115 60,109" />
<polygon fill="#c2c5c4" fill-opacity="0.501961" points="106,30 122,20 110,22" />
<polygon fill="#caa5a2" fill-opacity="0.501961" points="39,82 32,106 41,99" />
<polygon fill="#1f1b1c" fill-opacity="0.501961" points="94,52 120,44 93,44" />
<polygon fill="#6c6a69" fill-opacity="0.501961" points="94,116 96,112 91,114" />
<polygon fill="#b6b294" fill-opacity="0.501961" points="16,115 22,124 7,115" />
<polygon fill="#b5b3b2" fill-opacity="0.501961" points="14,82 30,69 5,73" />
<polygon fill="#c1c2c5" fill-opacity="0.501961" points="184,59 199,72 207,70" />
<polygon fill="#e8e7e9" fill-opacity="0.501961" points="194,1 240,22 225,0" />
<polygon fill="#e9e7e3" fill-opacity="0.501961" points="99,-6 114,20 105,26" />
<polygon fill="#6f7276" fill-opacity="0.501961" points="255,135 246,143 249,136" />
<polygon fill="#cfada9" fill-opacity="0.501961" points="16,93 25,86 17,83" />
<polygon fill="#969074" fill-opacity="0.501961" points="87,136 80,134 85,131" />
<polygon fill="#e9ebeb" fill-opacity="0.501961" points="230,71 252,43 197,66" />
<polygon fill="#8d919d" fill-opacity="0.501961" points="243,128 245,121 242,118" />
<polygon fill="#5f5a58" fill-opacity="0.501961" points="97,26 100,24 100,37" />
<polygon fill="#655c5a" fill-opacity="0.501961" points="14,50 7,59 13,60" />
<polygon fill="#e1e4e4" fill-opacity="0.501961" points="254,-16 220,60 254,27" />
<polygon fill="#101010" fill-opacity="0.501961" points="109,43 81,74 124,113" />
<polygon fill="#9cb499" fill-opacity="0.501961" points="14,95 11,100 28,110" />
<polygon fill="#ddeae9" fill-opacity="0.501961" points="213,111 222,92 256,82" />
<polygon fill="#dbdbdb" fill-opacity="0.501961" points="32,35 22,5 55,51" />
<polygon fill="#c5b6b9" fill-opacity="0.501961" points="88,159 119,140 132,159" />
<polygon fill="#504d4b" fill-opacity="0.501961" points="55,77 68,72 55,73" />
</g>
</svg>