<svg xmlns="http://www.w3.org/2000/svg" version="1.1" width="1024" height="576">
<rect x="0" y="0" width="1024" height="576" fill="#4d4446" />
<g transform="scale(4.000000) translate(0.5 0.5)">
<polygon fill="#c2dffd" fill-opacity="0.501961" points="44,71 -16,3 102,-16" />
<polygon fill="#0e100f" fill-opacity="0.501961" points="213,159 178,31 84,43" />
<polygon fill="#e46858" fill-opacity="0.501961" points="52,89 150,110 116,68" />
<polygon fill="#2c1210" fill-opacity="0.501961" points="271,135 -16,88 31,159" />
<polygon fill="#667187" fill-opacity="0.501961" points="96,22 -16,26 20,92" />
<polygon fill="#ffffff" fill-opacity="0.501961" points="9,15 6,-16 119,-11" />
<polygon fill="#a5a5b1" fill-opacity="0.501961" points="189,50 212,53 202,103" />
<polygon fill="#eeffff" fill-opacity="0.501961" points="172,78 162,73 164,93" />
<polygon fill="#33261b" fill-opacity="0.501961" points="271,135 226,-16 195,159" />
<polygon fill="#8e4640" fill-opacity="0.501961" points="144,119 65,57 69,126" />
<polygon fill="#28282b" fill-opacity="0.501961" points="82,-11 94,70 192,78" />
<polygon fill="#a8afaa" fill-opacity="0.501961" points="48,59 87,10 83,34" />
<polygon fill="#f19d8a" fill-opacity="0.501961" points="139,87 107,71 77,76" />
<polygon fill="#241d19" fill-opacity="0.501961" points="142,159 139,79 245,131" />
<polygon fill="#3e4a74" fill-opacity="0.501961" points="-16,3 8,105 33,40" />
<polygon fill="#0c0600" fill-opacity="0.501961" points="155,85 85,65 152,63" />
<polygon fill="#624332" fill-opacity="0.501961" points="197,68 255,95 249,159" />
<polygon fill="#bd9e6e" fill-opacity="0.501961" points="17,122 5,148 1,135" />
<polygon fill="#799997" fill-opacity="0.501961" points="56,76 84,57 86,41" />
<polygon fill="#27303c" fill-opacity="0.501961" points="62,53 -5,100 45,159" />
<polygon fill="#747dc2" fill-opacity="0.501961" points="5,56 31,93 29,72" />
<polygon fill="#a8a7bc" fill-opacity="0.501961" points="211,53 189,55 191,75" />
<polygon fill="#6c7472" fill-opacity="0.501961" points="212,19 180,49 200,-16" />
<polygon fill="#d1dce6" fill-opacity="0.501961" points="34,8 39,45 8,-16" />
<polygon fill="#110e0c" fill-opacity="0.501961" points="228,71 265,110 258,66" />
<polygon fill="#20242b" fill-opacity="0.501961" points="152,61 217,30 170,78" />
<polygon fill="#0e1518" fill-opacity="0.501961" points="194,24 165,19 171,45" />
<polygon fill="#5a2d2a" fill-opacity="0.501961" points="47,126 59,76 131,132" />
<polygon fill="#3e3d41" fill-opacity="0.501961" points="158,61 157,-16 78,44" />
<polygon fill="#2d3137" fill-opacity="0.501961" points="220,-16 205,51 271,67" />
<polygon fill="#b6b3a6" fill-opacity="0.501961" points="42,63 30,73 36,36" />
<polygon fill="#748080" fill-opacity="0.501961" points="159,32 158,5 179,4" />
<polygon fill="#4e565a" fill-opacity="0.501961" points="52,29 42,70 39,29" />
<polygon fill="#556065" fill-opacity="0.501961" points="81,66 57,-1 62,76" />
<polygon fill="#c26d61" fill-opacity="0.501961" points="138,89 96,92 79,69" />
<polygon fill="#a2b4cd" fill-opacity="0.501961" points="5,18 70,13 99,-16" />
<polygon fill="#e2fefb" fill-opacity="0.501961" points="170,85 158,83 168,78" />
<polygon fill="#b6b9b8" fill-opacity="0.501961" points="82,29 66,47 66,32" />
<polygon fill="#121829" fill-opacity="0.501961" points="24,110 -16,61 -16,141" />
<polygon fill="#484b46" fill-opacity="0.501961" points="-12,49 32,41 28,65" />
<polygon fill="#1a1d22" fill-opacity="0.501961" points="177,79 241,140 169,159" />
<polygon fill="#5f5b5e" fill-opacity="0.501961" points="187,76 217,54 200,117" />
<polygon fill="#2f1f1e" fill-opacity="0.501961" points="-5,149 62,113 169,157" />
<polygon fill="#e2cb9b" fill-opacity="0.501961" points="181,42 186,34 189,43" />
<polygon fill="#83413d" fill-opacity="0.501961" points="70,94 134,104 134,130" />
<polygon fill="#452c22" fill-opacity="0.501961" points="117,138 159,76 174,147" />
<polygon fill="#44361f" fill-opacity="0.501961" points="74,72 101,70 112,28" />
<polygon fill="#6d7c9a" fill-opacity="0.501961" points="-16,-7 7,41 29,30" />
<polygon fill="#e6edef" fill-opacity="0.501961" points="6,9 36,-16 52,5" />
<polygon fill="#3e3a3e" fill-opacity="0.501961" points="216,57 178,29 271,45" />
<polygon fill="#313237" fill-opacity="0.501961" points="83,-16 88,61 121,-16" />
<polygon fill="#262529" fill-opacity="0.501961" points="190,-16 227,0 152,4" />
<polygon fill="#a19e95" fill-opacity="0.501961" points="46,44 58,53 20,80" />
<polygon fill="#d0cddc" fill-opacity="0.501961" points="206,51 212,58 196,53" />
<polygon fill="#e39281" fill-opacity="0.501961" points="136,89 136,101 118,76" />
<polygon fill="#592928" fill-opacity="0.501961" points="130,99 113,81 123,85" />
<polygon fill="#32396b" fill-opacity="0.501961" points="-8,49 41,102 4,94" />
<polygon fill="#161211" fill-opacity="0.501961" points="122,63 100,65 150,93" />
<polygon fill="#7e7f67" fill-opacity="0.501961" points="161,92 171,89 163,84" />
<polygon fill="#65483a" fill-opacity="0.501961" points="257,105 210,93 218,61" />
<polygon fill="#2a201a" fill-opacity="0.501961" points="158,64 134,85 157,127" />
<polygon fill="#646b87" fill-opacity="0.501961" points="55,-1 62,-8 64,26" />
<polygon fill="#393841" fill-opacity="0.501961" points="62,42 76,51 59,69" />
<polygon fill="#444a4b" fill-opacity="0.501961" points="224,31 271,22 235,-16" />
<polygon fill="#1f1f20" fill-opacity="0.501961" points="257,29 222,30 271,43" />
<polygon fill="#988f88" fill-opacity="0.501961" points="191,75 208,86 205,96" />
<polygon fill="#07090b" fill-opacity="0.501961" points="195,118 212,118 212,103" />
<polygon fill="#a8b2c2" fill-opacity="0.501961" points="56,4 59,36 44,8" />
<polygon fill="#4d4946" fill-opacity="0.501961" points="61,53 37,106 27,77" />
<polygon fill="#353333" fill-opacity="0.501961" points="183,116 218,120 218,146" />
<polygon fill="#252123" fill-opacity="0.501961" points="211,38 216,-16 228,8" />
<polygon fill="#626569" fill-opacity="0.501961" points="211,30 188,33 192,-4" />
<polygon fill="#2d2d35" fill-opacity="0.501961" points="190,36 174,25 189,-16" />
<polygon fill="#563230" fill-opacity="0.501961" points="77,138 136,123 46,94" />
<polygon fill="#7e7059" fill-opacity="0.501961" points="28,73 35,54 17,63" />
<polygon fill="#74857e" fill-opacity="0.501961" points="57,71 73,57 72,69" />
<polygon fill="#2c4754" fill-opacity="0.501961" points="186,71 175,72 166,91" />
<polygon fill="#6b8580" fill-opacity="0.501961" points="154,86 173,89 165,83" />
<polygon fill="#d07d6f" fill-opacity="0.501961" points="125,92 100,71 85,76" />
<polygon fill="#151f18" fill-opacity="0.501961" points="71,76 56,86 57,77" />
<polygon fill="#7b403d" fill-opacity="0.501961" points="102,116 73,73 52,96" />
<polygon fill="#a6b0be" fill-opacity="0.501961" points="35,-14 36,50 26,18" />
<polygon fill="#17171e" fill-opacity="0.501961" points="186,141 172,82 189,72" />
<polygon fill="#c36f63" fill-opacity="0.501961" points="84,72 71,77 105,79" />
<polygon fill="#413f45" fill-opacity="0.501961" points="112,-16 106,45 172,47" />
<polygon fill="#71787f" fill-opacity="0.501961" points="86,5 74,28 83,-16" />
<polygon fill="#7e97bd" fill-opacity="0.501961" points="1,11 31,30 28,14" />
<polygon fill="#26262b" fill-opacity="0.501961" points="97,-16 110,47 92,42" />
<polygon fill="#746147" fill-opacity="0.501961" points="-5,159 -16,149 12,122" />
<polygon fill="#0f1110" fill-opacity="0.501961" points="117,65 121,72 104,72" />
<polygon fill="#763c3b" fill-opacity="0.501961" points="129,96 127,130 143,105" />
<polygon fill="#b7bfc6" fill-opacity="0.501961" points="73,-16 60,-16 72,27" />
<polygon fill="#2d2d37" fill-opacity="0.501961" points="200,78 209,78 200,65" />
<polygon fill="#a08f6f" fill-opacity="0.501961" points="14,132 9,135 14,121" />
<polygon fill="#3c4d66" fill-opacity="0.501961" points="38,36 51,29 52,42" />
<polygon fill="#f3ae9a" fill-opacity="0.501961" points="122,78 99,76 109,73" />
<polygon fill="#49484b" fill-opacity="0.501961" points="86,1 96,25 85,61" />
<polygon fill="#402f25" fill-opacity="0.501961" points="271,49 271,74 204,63" />
<polygon fill="#838081" fill-opacity="0.501961" points="44,70 32,74 28,82" />
<polygon fill="#3e3a3c" fill-opacity="0.501961" points="261,48 186,51 192,32" />
<polygon fill="#101419" fill-opacity="0.501961" points="168,87 173,158 193,159" />
<polygon fill="#5c655c" fill-opacity="0.501961" points="69,76 46,74 86,59" />
<polygon fill="#262421" fill-opacity="0.501961" points="195,56 173,48 165,22" />
<polygon fill="#464e83" fill-opacity="0.501961" points="13,68 29,105 33,89" />
<polygon fill="#22283f" fill-opacity="0.501961" points="29,108 4,99 22,83" />
<polygon fill="#6b7ca0" fill-opacity="0.501961" points="4,-2 14,31 -16,-10" />
<polygon fill="#4c6277" fill-opacity="0.501961" points="214,103 218,115 213,116" />
<polygon fill="#dde7eb" fill-opacity="0.501961" points="36,13 3,-16 9,8" />
<polygon fill="#282d2c" fill-opacity="0.501961" points="24,112 5,150 51,142" />
<polygon fill="#6a6b81" fill-opacity="0.501961" points="192,89 198,81 193,67" />
<polygon fill="#606366" fill-opacity="0.501961" points="213,2 209,35 189,2" />
<polygon fill="#0b0f12" fill-opacity="0.501961" points="237,154 222,146 224,118" />
<polygon fill="#493521" fill-opacity="0.501961" points="112,47 89,42 87,72" />
<polygon fill="#231716" fill-opacity="0.501961" points="48,125 103,157 44,159" />
<polygon fill="#413f3f" fill-opacity="0.501961" points="188,89 196,111 212,102" />
<polygon fill="#5c68af" fill-opacity="0.501961" points="6,61 32,90 23,71" />
<polygon fill="#493529" fill-opacity="0.501961" points="249,159 223,112 270,102" />
<polygon fill="#42464f" fill-opacity="0.501961" points="93,28 72,42 78,51" />
<polygon fill="#453026" fill-opacity="0.501961" points="163,159 171,120 133,109" />
<polygon fill="#989995" fill-opacity="0.501961" points="60,42 53,21 54,53" />
<polygon fill="#ecf4f1" fill-opacity="0.501961" points="164,82 166,76 170,86" />
<polygon fill="#27140c" fill-opacity="0.501961" points="184,135 196,154 211,122" />
<polygon fill="#231619" fill-opacity="0.501961" points="146,125 136,116 134,141" />
<polygon fill="#b3afbf" fill-opacity="0.501961" points="197,59 203,51 213,58" />
<polygon fill="#cdbb9c" fill-opacity="0.501961" points="188,37 184,46 185,38" />
<polygon fill="#1c2126" fill-opacity="0.501961" points="233,60 233,50 260,58" />
<polygon fill="#888f94" fill-opacity="0.501961" points="74,38 82,1 85,32" />
<polygon fill="#474246" fill-opacity="0.501961" points="261,54 204,51 271,33" />
<polygon fill="#373436" fill-opacity="0.501961" points="220,25 197,39 225,69" />
<polygon fill="#b8635a" fill-opacity="0.501961" points="110,79 105,94 130,99" />
<polygon fill="#504f5a" fill-opacity="0.501961" points="60,42 64,28 65,52" />
<polygon fill="#303132" fill-opacity="0.501961" points="163,40 168,78 138,39" />
<polygon fill="#5f6372" fill-opacity="0.501961" points="21,42 -16,4 9,50" />
<polygon fill="#525050" fill-opacity="0.501961" points="226,29 256,28 230,17" />
<polygon fill="#6c7172" fill-opacity="0.501961" points="177,14 166,18 178,8" />
<polygon fill="#343432" fill-opacity="0.501961" points="60,81 30,98 22,150" />
<polygon fill="#303939" fill-opacity="0.501961" points="157,60 162,81 164,50" />
<polygon fill="#ac9e7e" fill-opacity="0.501961" points="181,39 182,35 190,41" />
<polygon fill="#6a6e6e" fill-opacity="0.501961" points="166,31 157,31 163,7" />
<polygon fill="#241916" fill-opacity="0.501961" points="141,93 124,76 159,70" />
<polygon fill="#1d1e22" fill-opacity="0.501961" points="173,51 166,20 177,17" />
<polygon fill="#1c1d1e" fill-opacity="0.501961" points="7,121 -16,144 -3,56" />
<polygon fill="#4e3930" fill-opacity="0.501961" points="214,59 207,88 244,59" />
<polygon fill="#9daec5" fill-opacity="0.501961" points="71,-16 79,-8 78,14" />
<polygon fill="#191a1d" fill-opacity="0.501961" points="179,72 167,75 153,55" />
<polygon fill="#fffffb" fill-opacity="0.501961" points="97,-16 62,2 64,-11" />
<polygon fill="#151b1a" fill-opacity="0.501961" points="255,55 270,42 255,-11" />
<polygon fill="#435161" fill-opacity="0.501961" points="8,47 31,38 33,55" />
<polygon fill="#839190" fill-opacity="0.501961" points="84,46 78,54 83,61" />
<polygon fill="#8b8898" fill-opacity="0.501961" points="189,61 201,51 197,78" />
<polygon fill="#984e49" fill-opacity="0.501961" points="92,92 135,116 130,101" />
<polygon fill="#33393d" fill-opacity="0.501961" points="212,145 222,139 201,122" />
<polygon fill="#5a6977" fill-opacity="0.501961" points="75,29 82,15 75,19" />
<polygon fill="#9a9087" fill-opacity="0.501961" points="200,78 203,93 206,78" />
<polygon fill="#8d4a46" fill-opacity="0.501961" points="86,97 71,76 63,84" />
<polygon fill="#9b9182" fill-opacity="0.501961" points="211,70 203,75 207,68" />
<polygon fill="#315b60" fill-opacity="0.501961" points="169,87 175,97 172,77" />
<polygon fill="#6974b4" fill-opacity="0.501961" points="6,56 22,71 16,61" />
<polygon fill="#1d1c1b" fill-opacity="0.501961" points="271,92 269,70 222,68" />
<polygon fill="#717379" fill-opacity="0.501961" points="70,43 69,48 79,40" />
<polygon fill="#e39b89" fill-opacity="0.501961" points="113,75 127,89 125,81" />
<polygon fill="#413630" fill-opacity="0.501961" points="187,130 203,123 187,117" />
<polygon fill="#636255" fill-opacity="0.501961" points="137,159 120,159 140,137" />
<polygon fill="#39393b" fill-opacity="0.501961" points="240,23 228,-11 248,9" />
<polygon fill="#1e1e24" fill-opacity="0.501961" points="170,85 187,69 194,123" />
<polygon fill="#555f6d" fill-opacity="0.501961" points="41,58 48,39 40,32" />
<polygon fill="#333652" fill-opacity="0.501961" points="6,106 -3,63 10,88" />
<polygon fill="#2b2935" fill-opacity="0.501961" points="190,86 188,45 171,50" />
<polygon fill="#b6b8b6" fill-opacity="0.501961" points="52,54 45,64 44,58" />
<polygon fill="#7c90b4" fill-opacity="0.501961" points="38,21 34,6 59,26" />
<polygon fill="#464c82" fill-opacity="0.501961" points="25,84 4,57 10,83" />
<polygon fill="#9ea4a6" fill-opacity="0.501961" points="67,41 80,36 71,20" />
<polygon fill="#dce4e8" fill-opacity="0.501961" points="8,-13 10,13 29,6" />
<polygon fill="#191410" fill-opacity="0.501961" points="271,112 256,158 255,66" />
<polygon fill="#9a9ea5" fill-opacity="0.501961" points="31,48 42,70 36,21" />
<polygon fill="#4a6d79" fill-opacity="0.501961" points="182,73 174,73 170,80" />
<polygon fill="#686157" fill-opacity="0.501961" points="25,72 17,63 34,65" />
<polygon fill="#587d80" fill-opacity="0.501961" points="157,68 165,75 161,68" />
<polygon fill="#8a8580" fill-opacity="0.501961" points="60,51 32,56 51,43" />
<polygon fill="#322e32" fill-opacity="0.501961" points="104,63 125,41 167,60" />
<polygon fill="#a18569" fill-opacity="0.501961" points="166,87 162,89 164,94" />
<polygon fill="#3f3e49" fill-opacity="0.501961" points="204,64 195,82 204,73" />
<polygon fill="#99b2cf" fill-opacity="0.501961" points="15,12 11,1 11,23" />
<polygon fill="#1b1615" fill-opacity="0.501961" points="96,61 127,79 159,69" />
<polygon fill="#595e6c" fill-opacity="0.501961" points="59,24 67,22 63,51" />
<polygon fill="#353c47" fill-opacity="0.501961" points="224,115 232,135 231,124" />
<polygon fill="#6f7f9e" fill-opacity="0.501961" points="28,19 31,35 3,26" />
<polygon fill="#05080c" fill-opacity="0.501961" points="213,102 211,95 209,103" />
<polygon fill="#1b211a" fill-opacity="0.501961" points="166,30 189,29 166,42" />
<polygon fill="#4c484c" fill-opacity="0.501961" points="51,82 70,52 30,88" />
<polygon fill="#a7b6cd" fill-opacity="0.501961" points="53,8 58,-4 40,13" />
<polygon fill="#f1f1ef" fill-opacity="0.501961" points="47,5 36,3 54,-16" />
<polygon fill="#462828" fill-opacity="0.501961" points="48,108 131,132 77,139" />
<polygon fill="#272525" fill-opacity="0.501961" points="39,82 30,83 41,73" />
<polygon fill="#6d5e49" fill-opacity="0.501961" points="12,125 10,119 1,133" />
<polygon fill="#4e545a" fill-opacity="0.501961" points="1,43 -16,67 -1,1" />
<polygon fill="#292729" fill-opacity="0.501961" points="230,2 190,0 224,-16" />
<polygon fill="#a8a3b4" fill-opacity="0.501961" points="202,60 198,51 211,59" />
<polygon fill="#2d231e" fill-opacity="0.501961" points="141,93 147,114 163,84" />
<polygon fill="#4b484d" fill-opacity="0.501961" points="126,-16 109,20 127,31" />
<polygon fill="#484957" fill-opacity="0.501961" points="88,31 92,8 84,0" />
<polygon fill="#222022" fill-opacity="0.501961" points="34,80 47,69 45,75" />
<polygon fill="#3d2d1d" fill-opacity="0.501961" points="92,74 103,60 87,68" />
<polygon fill="#abbbcf" fill-opacity="0.501961" points="23,10 50,5 29,17" />
<polygon fill="#8ab0a8" fill-opacity="0.501961" points="166,83 171,87 159,83" />
<polygon fill="#46483a" fill-opacity="0.501961" points="72,75 86,68 75,61" />
<polygon fill="#584339" fill-opacity="0.501961" points="207,83 213,60 245,90" />
<polygon fill="#5e2f2b" fill-opacity="0.501961" points="65,86 82,77 73,78" />
<polygon fill="#525a5d" fill-opacity="0.501961" points="254,24 244,-16 255,-7" />
<polygon fill="#633633" fill-opacity="0.501961" points="55,89 113,117 54,106" />
<polygon fill="#4b484e" fill-opacity="0.501961" points="49,70 33,85 31,102" />
<polygon fill="#464146" fill-opacity="0.501961" points="235,47 210,41 230,61" />
<polygon fill="#3c2c23" fill-opacity="0.501961" points="267,104 271,79 239,83" />
<polygon fill="#66779a" fill-opacity="0.501961" points="50,22 37,20 41,35" />
<polygon fill="#b1a286" fill-opacity="0.501961" points="187,36 181,42 186,45" />
<polygon fill="#566678" fill-opacity="0.501961" points="27,45 34,53 30,29" />
<polygon fill="#1b1c21" fill-opacity="0.501961" points="181,70 173,76 159,63" />
<polygon fill="#b16159" fill-opacity="0.501961" points="103,80 92,90 79,73" />
<polygon fill="#553b2b" fill-opacity="0.501961" points="250,60 231,67 271,68" />
<polygon fill="#171618" fill-opacity="0.501961" points="209,119 211,109 172,113" />
<polygon fill="#19110f" fill-opacity="0.501961" points="107,154 119,159 112,130" />
<polygon fill="#3a3638" fill-opacity="0.501961" points="191,52 249,38 189,33" />
<polygon fill="#25262a" fill-opacity="0.501961" points="100,1 101,51 92,23" />
<polygon fill="#252526" fill-opacity="0.501961" points="218,1 231,-16 224,35" />
<polygon fill="#97504a" fill-opacity="0.501961" points="132,105 141,102 137,94" />
<polygon fill="#1a1d2a" fill-opacity="0.501961" points="21,91 20,126 12,107" />
<polygon fill="#403c3f" fill-opacity="0.501961" points="221,-16 139,2 185,5" />
<polygon fill="#7a8fb5" fill-opacity="0.501961" points="7,6 4,-16 -16,7" />
<polygon fill="#6c6a78" fill-opacity="0.501961" points="198,91 197,70 190,74" />
<polygon fill="#653836" fill-opacity="0.501961" points="134,116 85,107 134,135" />
<polygon fill="#3c393d" fill-opacity="0.501961" points="167,37 100,14 112,57" />
<polygon fill="#4f3f2e" fill-opacity="0.501961" points="104,52 97,62 81,43" />
<polygon fill="#444143" fill-opacity="0.501961" points="58,87 41,59 46,77" />
<polygon fill="#434349" fill-opacity="0.501961" points="61,56 87,43 46,80" />
<polygon fill="#3f3d3e" fill-opacity="0.501961" points="56,81 38,107 30,83" />
<polygon fill="#626364" fill-opacity="0.501961" points="178,7 178,16 154,19" />
<polygon fill="#572f2d" fill-opacity="0.501961" points="129,98 137,114 149,120" />
<polygon fill="#6b3431" fill-opacity="0.501961" points="124,87 117,86 113,80" />
<polygon fill="#5d645f" fill-opacity="0.501961" points="85,48 78,66 85,63" />
<polygon fill="#f9fcfb" fill-opacity="0.501961" points="164,81 169,82 164,76" />
<polygon fill="#a8abb3" fill-opacity="0.501961" points="29,71 25,79 26,74" />
<polygon fill="#1f2129" fill-opacity="0.501961" points="175,101 167,109 167,88" />
<polygon fill="#313c49" fill-opacity="0.501961" points="217,106 227,119 216,119" />
<polygon fill="#5d5e60" fill-opacity="0.501961" points="213,2 206,32 187,27" />
<polygon fill="#c8766a" fill-opacity="0.501961" points="120,88 101,74 99,84" />
<polygon fill="#3c4855" fill-opacity="0.501961" points="30,40 17,63 16,46" />
<polygon fill="#e09786" fill-opacity="0.501961" points="117,76 99,72 102,78" />
<polygon fill="#afb2b4" fill-opacity="0.501961" points="50,59 52,50 57,53" />
<polygon fill="#202428" fill-opacity="0.501961" points="224,59 218,51 213,59" />
<polygon fill="#151717" fill-opacity="0.501961" points="156,63 161,73 149,63" />
<polygon fill="#3d3022" fill-opacity="0.501961" points="81,71 98,53 100,71" />
<polygon fill="#a58d6e" fill-opacity="0.501961" points="6,136 6,144 10,135" />
<polygon fill="#778180" fill-opacity="0.501961" points="74,70 64,66 73,58" />
<polygon fill="#33231c" fill-opacity="0.501961" points="164,94 153,129 137,86" />
<polygon fill="#412e25" fill-opacity="0.501961" points="160,159 142,121 152,97" />
<polygon fill="#797775" fill-opacity="0.501961" points="34,51 31,67 26,61" />
<polygon fill="#1f1f21" fill-opacity="0.501961" points="222,115 229,131 206,128" />
<polygon fill="#413e43" fill-opacity="0.501961" points="7,56 -16,6 -16,45" />
<polygon fill="#242621" fill-opacity="0.501961" points="161,37 184,35 180,30" />
<polygon fill="#5a503f" fill-opacity="0.501961" points="2,108 -7,106 -12,128" />
<polygon fill="#292929" fill-opacity="0.501961" points="127,27 126,62 132,47" />
<polygon fill="#a0978a" fill-opacity="0.501961" points="206,69 211,70 210,67" />
<polygon fill="#b2635a" fill-opacity="0.501961" points="132,98 136,106 136,91" />
<polygon fill="#222222" fill-opacity="0.501961" points="36,72 32,73 29,76" />
<polygon fill="#d88a7a" fill-opacity="0.501961" points="126,88 126,81 138,92" />
<polygon fill="#231f22" fill-opacity="0.501961" points="229,37 224,31 250,32" />
<polygon fill="#f0f0eb" fill-opacity="0.501961" points="12,-16 16,11 23,8" />
<polygon fill="#1a1110" fill-opacity="0.501961" points="126,158 121,133 118,146" />
<polygon fill="#868788" fill-opacity="0.501961" points="79,27 75,28 76,38" />
<polygon fill="#94929f" fill-opacity="0.501961" points="190,72 199,51 190,61" />
<polygon fill="#34302f" fill-opacity="0.501961" points="190,122 205,129 199,114" />
<polygon fill="#575c5e" fill-opacity="0.501961" points="166,27 165,37 162,29" />
<polygon fill="#393636" fill-opacity="0.501961" points="184,45 199,46 190,56" />
<polygon fill="#512f2d" fill-opacity="0.501961" points="52,99 51,119 109,126" />
<polygon fill="#9ca0a0" fill-opacity="0.501961" points="44,64 49,60 43,54" />
<polygon fill="#5e5a56" fill-opacity="0.501961" points="209,104 207,92 200,97" />
<polygon fill="#c5c9d2" fill-opacity="0.501961" points="34,8 31,22 28,-2" />
<polygon fill="#3b2423" fill-opacity="0.501961" points="104,139 46,114 50,136" />
<polygon fill="#56636c" fill-opacity="0.501961" points="53,38 47,45 52,30" />
<polygon fill="#6e777f" fill-opacity="0.501961" points="79,17 83,18 82,32" />
<polygon fill="#8192b4" fill-opacity="0.501961" points="14,28 25,21 8,15" />
<polygon fill="#434145" fill-opacity="0.501961" points="161,1 130,2 129,50" />
<polygon fill="#30312a" fill-opacity="0.501961" points="33,74 28,76 27,79" />
<polygon fill="#151112" fill-opacity="0.501961" points="62,153 61,126 71,153" />
<polygon fill="#503e39" fill-opacity="0.501961" points="218,59 214,101 206,77" />
<polygon fill="#aeb5b7" fill-opacity="0.501961" points="73,37 67,45 71,32" />
<polygon fill="#914c46" fill-opacity="0.501961" points="111,82 118,81 105,79" />
<polygon fill="#2e2c2e" fill-opacity="0.501961" points="169,45 163,63 114,64" />
<polygon fill="#656d77" fill-opacity="0.501961" points="74,12 77,19 75,22" />
<polygon fill="#969ca5" fill-opacity="0.501961" points="71,-8 77,11 71,26" />
<polygon fill="#4e3a2d" fill-opacity="0.501961" points="254,107 255,159 233,131" />
<polygon fill="#c78172" fill-opacity="0.501961" points="91,74 82,72 76,75" />
<polygon fill="#2d2d2c" fill-opacity="0.501961" points="10,139 38,154 54,91" />
<polygon fill="#949ba8" fill-opacity="0.501961" points="58,25 48,13 58,40" />
<polygon fill="#1b2023" fill-opacity="0.501961" points="176,104 171,80 179,77" />
<polygon fill="#68728c" fill-opacity="0.501961" points="-7,15 32,35 5,33" />
<polygon fill="#221d29" fill-opacity="0.501961" points="200,75 204,77 199,77" />
<polygon fill="#3d3d46" fill-opacity="0.501961" points="64,59 70,44 64,48" />
<polygon fill="#9ab4ce" fill-opacity="0.501961" points="27,11 15,11 14,18" />
<polygon fill="#505e72" fill-opacity="0.501961" points="46,40 38,29 40,44" />
<polygon fill="#1c1c20" fill-opacity="0.501961" points="231,59 251,54 235,53" />
<polygon fill="#604535" fill-opacity="0.501961" points="228,74 246,94 214,102" />
<polygon fill="#201e1a" fill-opacity="0.501961" points="100,68 106,72 110,46" />
<polygon fill="#1c2627" fill-opacity="0.501961" points="168,69 157,61 169,78" />
<polygon fill="#2c2b34" fill-opacity="0.501961" points="72,49 59,60 65,51" />
<polygon fill="#7486a4" fill-opacity="0.501961" points="37,20 35,9 44,27" />
<polygon fill="#1e1d14" fill-opacity="0.501961" points="63,80 70,77 54,77" />
<polygon fill="#639793" fill-opacity="0.501961" points="162,78 164,79 163,72" />
<polygon fill="#0c1115" fill-opacity="0.501961" points="255,76 239,81 234,76" />
<polygon fill="#84818f" fill-opacity="0.501961" points="204,62 195,56 190,72" />
<polygon fill="#914c47" fill-opacity="0.501961" points="90,79 74,75 86,83" />
<polygon fill="#686c67" fill-opacity="0.501961" points="59,69 58,76 73,68" />
<polygon fill="#1a1210" fill-opacity="0.501961" points="104,156 104,135 93,158" />
<polygon fill="#4b4c50" fill-opacity="0.501961" points="66,66 72,50 52,67" />
<polygon fill="#464349" fill-opacity="0.501961" points="113,34 111,-16 127,35" />
<polygon fill="#663939" fill-opacity="0.501961" points="137,99 148,114 140,110" />
<polygon fill="#626466" fill-opacity="0.501961" points="191,2 210,9 189,20" />
<polygon fill="#1a1b18" fill-opacity="0.501961" points="171,48 167,36 182,43" />
<polygon fill="#2d2925" fill-opacity="0.501961" points="233,71 253,78 258,70" />
<polygon fill="#2e323e" fill-opacity="0.501961" points="33,105 28,119 29,92" />
<polygon fill="#2f2c3b" fill-opacity="0.501961" points="162,24 176,17 189,23" />
<polygon fill="#64939b" fill-opacity="0.501961" points="162,81 161,79 160,84" />
<polygon fill="#1f1915" fill-opacity="0.501961" points="155,70 162,76 151,84" />
<polygon fill="#6f758a" fill-opacity="0.501961" points="62,7 58,10 62,22" />
<polygon fill="#3a373a" fill-opacity="0.501961" points="172,50 164,34 162,49" />
<polygon fill="#232630" fill-opacity="0.501961" points="196,89 188,99 192,101" />
<polygon fill="#838181" fill-opacity="0.501961" points="52,41 63,51 44,48" />
<polygon fill="#181717" fill-opacity="0.501961" points="255,57 256,93 271,107" />
<polygon fill="#9ca0a5" fill-opacity="0.501961" points="37,67 33,52 38,36" />
<polygon fill="#251617" fill-opacity="0.501961" points="128,131 132,151 126,149" />
<polygon fill="#4c474a" fill-opacity="0.501961" points="228,52 251,44 254,51" />
<polygon fill="#3c3b42" fill-opacity="0.501961" points="89,32 93,42 70,48" />
<polygon fill="#474a50" fill-opacity="0.501961" points="25,54 17,62 2,47" />
<polygon fill="#352c22" fill-opacity="0.501961" points="12,124 10,117 12,111" />
<polygon fill="#d28475" fill-opacity="0.501961" points="90,77 116,79 97,72" />
<polygon fill="#95a9c4" fill-opacity="0.501961" points="68,10 68,20 63,3" />
<polygon fill="#858e91" fill-opacity="0.501961" points="69,27 66,38 65,31" />
<polygon fill="#a25450" fill-opacity="0.501961" points="88,81 116,97 83,89" />
<polygon fill="#434454" fill-opacity="0.501961" points="209,61 204,65 215,62" />
<polygon fill="#6f8d93" fill-opacity="0.501961" points="157,84 163,85 164,83" />
<polygon fill="#9da1a0" fill-opacity="0.501961" points="81,35 80,24 74,40" />
<polygon fill="#e5a38f" fill-opacity="0.501961" points="113,74 114,79 120,79" />
<polygon fill="#9a9eb0" fill-opacity="0.501961" points="61,10 59,8 60,2" />
<polygon fill="#47575c" fill-opacity="0.501961" points="148,89 157,86 158,82" />
<polygon fill="#884542" fill-opacity="0.501961" points="90,101 79,86 120,107" />
<polygon fill="#58609b" fill-opacity="0.501961" points="27,82 26,91 24,81" />
<polygon fill="#555560" fill-opacity="0.501961" points="3,50 17,52 0,35" />
<polygon fill="#594b3d" fill-opacity="0.501961" points="3,132 -16,121 2,145" />
<polygon fill="#33385a" fill-opacity="0.501961" points="19,84 16,78 21,80" />
<polygon fill="#4b4d50" fill-opacity="0.501961" points="73,48 76,62 77,46" />
</g>
</svg>