<svg xmlns="http://www.w3.org/2000/svg" version="1.1" width="1024" height="576">
<rect x="0" y="0" width="1024" height="576" fill="#5a5a5d" />
<g transform="scale(4.000000) translate(0.5 0.5)">
<polygon fill="#b7bdc7" fill-opacity="0.501961" points="92,111 106,33 271,56" />
<polygon fill="#ffffff" fill-opacity="0.501961" points="99,58 146,45 140,78" />
<polygon fill="#060a1e" fill-opacity="0.501961" points="165,89 271,142 130,159" />
<polygon fill="#090800" fill-opacity="0.501961" points="-15,2 -16,45 145,6" />
<polygon fill="#d8f5ff" fill-opacity="0.501961" points="238,87 268,13 271,109" />
<polygon fill="#364258" fill-opacity="0.501961" points="136,4 151,99 257,-8" />
<polygon fill="#d19681" fill-opacity="0.501961" points="66,36 40,23 59,112" />
<polygon fill="#e6f6ff" fill-opacity="0.501961" points="191,81 180,95 178,40" />
<polygon fill="#191f29" fill-opacity="0.501961" points="184,108 186,20 209,103" />
<polygon fill="#3b331d" fill-opacity="0.501961" points="-2,159 -16,88 167,156" />
<polygon fill="#e1c59c" fill-opacity="0.501961" points="190,43 222,87 241,48" />
<polygon fill="#d9d2da" fill-opacity="0.501961" points="214,106 225,102 219,141" />
<polygon fill="#151a34" fill-opacity="0.501961" points="271,91 245,159 225,98" />
<polygon fill="#bdd7fe" fill-opacity="0.501961" points="110,139 120,127 144,135" />
<polygon fill="#dcdeda" fill-opacity="0.501961" points="50,87 47,119 39,76" />
<polygon fill="#12202f" fill-opacity="0.501961" points="238,28 253,24 244,75" />
<polygon fill="#272a2f" fill-opacity="0.501961" points="82,36 197,6 -16,2" />
<polygon fill="#e5e6eb" fill-opacity="0.501961" points="132,46 101,98 151,70" />
<polygon fill="#532522" fill-opacity="0.501961" points="85,54 39,58 31,38" />
<polygon fill="#61686e" fill-opacity="0.501961" points="111,121 186,93 122,75" />
<polygon fill="#313037" fill-opacity="0.501961" points="177,-14 184,64 228,25" />
<polygon fill="#89abcd" fill-opacity="0.501961" points="39,61 24,73 24,41" />
<polygon fill="#f9f6f8" fill-opacity="0.501961" points="212,15 222,10 219,2" />
<polygon fill="#ffb09b" fill-opacity="0.501961" points="71,46 40,29 66,31" />
<polygon fill="#52659b" fill-opacity="0.501961" points="157,28 84,32 115,55" />
<polygon fill="#92a1bb" fill-opacity="0.501961" points="63,3 165,3 128,-16" />
<polygon fill="#c2c7d0" fill-opacity="0.501961" points="100,71 121,97 109,115" />
<polygon fill="#191a23" fill-opacity="0.501961" points="145,106 257,159 142,144" />
<polygon fill="#6b624b" fill-opacity="0.501961" points="67,66 54,142 116,109" />
<polygon fill="#423d28" fill-opacity="0.501961" points="-8,72 71,9 -16,39" />
<polygon fill="#6d6041" fill-opacity="0.501961" points="53,149 40,78 -16,64" />
<polygon fill="#c9d3db" fill-opacity="0.501961" points="190,84 178,33 176,93" />
<polygon fill="#5b5b63" fill-opacity="0.501961" points="61,49 110,75 117,60" />
<polygon fill="#fefefc" fill-opacity="0.501961" points="144,59 115,68 125,45" />
<polygon fill="#ac987b" fill-opacity="0.501961" points="226,87 189,37 196,65" />
<polygon fill="#2b373c" fill-opacity="0.501961" points="201,76 179,39 188,81" />
<polygon fill="#314869" fill-opacity="0.501961" points="164,30 177,79 163,110" />
<polygon fill="#768ba2" fill-opacity="0.501961" points="141,32 147,83 167,65" />
<polygon fill="#c1d6ea" fill-opacity="0.501961" points="252,9 252,23 267,37" />
<polygon fill="#2d344b" fill-opacity="0.501961" points="247,51 233,105 216,104" />
<polygon fill="#dcdeba" fill-opacity="0.501961" points="44,64 55,57 66,67" />
<polygon fill="#a2acbb" fill-opacity="0.501961" points="178,29 180,14 173,8" />
<polygon fill="#7c91de" fill-opacity="0.501961" points="103,29 125,37 94,41" />
<polygon fill="#ffffff" fill-opacity="0.501961" points="242,76 249,72 243,90" />
<polygon fill="#a8bebc" fill-opacity="0.501961" points="54,80 65,92 57,107" />
<polygon fill="#2d2e2f" fill-opacity="0.501961" points="138,159 80,106 90,159" />
<polygon fill="#071833" fill-opacity="0.501961" points="48,124 59,135 53,88" />
<polygon fill="#c6b9a4" fill-opacity="0.501961" points="206,49 231,74 243,43" />
<polygon fill="#212229" fill-opacity="0.501961" points="233,48 246,32 216,31" />
<polygon fill="#211c20" fill-opacity="0.501961" points="-16,33 7,-16 1,109" />
<polygon fill="#d06259" fill-opacity="0.501961" points="75,46 38,31 37,46" />
<polygon fill="#5f6085" fill-opacity="0.501961" points="219,2 234,31 271,-9" />
<polygon fill="#6b6b5f" fill-opacity="0.501961" points="93,62 102,88 25,76" />
<polygon fill="#4b4a44" fill-opacity="0.501961" points="116,128 146,130 136,83" />
<polygon fill="#3d3b32" fill-opacity="0.501961" points="93,38 26,22 106,14" />
<polygon fill="#333e51" fill-opacity="0.501961" points="181,-16 171,47 152,11" />
<polygon fill="#afc0d8" fill-opacity="0.501961" points="140,130 133,129 141,144" />
<polygon fill="#849ec3" fill-opacity="0.501961" points="271,30 251,45 248,98" />
<polygon fill="#0d0a12" fill-opacity="0.501961" points="2,159 -16,144 3,102" />
<polygon fill="#756259" fill-opacity="0.501961" points="212,86 227,99 225,76" />
<polygon fill="#73859f" fill-opacity="0.501961" points="57,-13 2,3 76,2" />
<polygon fill="#2d2e2f" fill-opacity="0.501961" points="256,115 271,84 255,29" />
<polygon fill="#545669" fill-opacity="0.501961" points="271,2 189,19 229,25" />
<polygon fill="#87795e" fill-opacity="0.501961" points="29,106 36,66 49,121" />
<polygon fill="#f5f5f4" fill-opacity="0.501961" points="142,48 142,79 125,46" />
<polygon fill="#1b2123" fill-opacity="0.501961" points="181,19 182,47 205,34" />
<polygon fill="#3b497c" fill-opacity="0.501961" points="129,46 95,37 90,54" />
<polygon fill="#807359" fill-opacity="0.501961" points="84,112 59,102 63,63" />
<polygon fill="#2f303e" fill-opacity="0.501961" points="224,111 217,159 271,120" />
<polygon fill="#d3b99e" fill-opacity="0.501961" points="101,53 109,65 119,52" />
<polygon fill="#212022" fill-opacity="0.501961" points="124,141 139,159 183,132" />
<polygon fill="#81838a" fill-opacity="0.501961" points="227,26 203,20 247,19" />
<polygon fill="#586065" fill-opacity="0.501961" points="120,44 121,21 176,38" />
<polygon fill="#fffffd" fill-opacity="0.501961" points="185,87 181,60 177,87" />
<polygon fill="#2c2e3f" fill-opacity="0.501961" points="137,117 210,81 208,121" />
<polygon fill="#f3f3f6" fill-opacity="0.501961" points="247,70 240,88 250,88" />
<polygon fill="#766253" fill-opacity="0.501961" points="195,82 203,71 230,90" />
<polygon fill="#938976" fill-opacity="0.501961" points="85,82 96,64 106,104" />
<polygon fill="#eff7ff" fill-opacity="0.501961" points="211,102 213,109 215,107" />
<polygon fill="#767d8c" fill-opacity="0.501961" points="122,96 102,107 116,134" />
<polygon fill="#cdc0ab" fill-opacity="0.501961" points="233,51 224,42 206,69" />
<polygon fill="#544f3d" fill-opacity="0.501961" points="8,19 -1,98 32,135" />
<polygon fill="#8598ac" fill-opacity="0.501961" points="33,48 24,49 22,74" />
<polygon fill="#546476" fill-opacity="0.501961" points="141,93 174,48 179,100" />
<polygon fill="#444648" fill-opacity="0.501961" points="32,67 51,82 63,72" />
<polygon fill="#8f8988" fill-opacity="0.501961" points="120,100 133,78 117,70" />
<polygon fill="#403f37" fill-opacity="0.501961" points="63,14 64,33 95,47" />
<polygon fill="#543e5a" fill-opacity="0.501961" points="95,61 110,66 113,83" />
<polygon fill="#5d6576" fill-opacity="0.501961" points="59,148 59,127 46,141" />
<polygon fill="#bfc7d0" fill-opacity="0.501961" points="43,77 47,104 50,84" />
<polygon fill="#5d91bb" fill-opacity="0.501961" points="189,74 182,92 189,87" />
<polygon fill="#504a3e" fill-opacity="0.501961" points="77,105 49,159 104,103" />
<polygon fill="#748497" fill-opacity="0.501961" points="142,86 144,42 165,84" />
<polygon fill="#432e2b" fill-opacity="0.501961" points="60,51 41,45 38,61" />
<polygon fill="#313346" fill-opacity="0.501961" points="271,135 221,124 238,87" />
<polygon fill="#7d97b7" fill-opacity="0.501961" points="244,92 258,100 250,82" />
<polygon fill="#d8dce2" fill-opacity="0.501961" points="112,91 102,92 104,76" />
<polygon fill="#e4e4e1" fill-opacity="0.501961" points="220,13 214,9 222,6" />
<polygon fill="#a39784" fill-opacity="0.501961" points="227,78 193,60 193,39" />
<polygon fill="#3d3d45" fill-opacity="0.501961" points="236,33 211,10 217,43" />
<polygon fill="#ffffff" fill-opacity="0.501961" points="177,24 178,18 179,24" />
<polygon fill="#bcb191" fill-opacity="0.501961" points="41,57 52,71 60,63" />
<polygon fill="#373d4a" fill-opacity="0.501961" points="92,4 120,34 199,3" />
<polygon fill="#2c343d" fill-opacity="0.501961" points="244,45 248,59 234,81" />
<polygon fill="#4d493a" fill-opacity="0.501961" points="4,51 51,26 4,27" />
<polygon fill="#232117" fill-opacity="0.501961" points="-16,14 38,19 -11,-11" />
<polygon fill="#2b2d2f" fill-opacity="0.501961" points="180,32 210,27 206,47" />
<polygon fill="#f3b19f" fill-opacity="0.501961" points="72,39 55,29 40,35" />
<polygon fill="#6e6663" fill-opacity="0.501961" points="243,75 208,101 221,77" />
<polygon fill="#b0b1b4" fill-opacity="0.501961" points="192,70 194,75 192,80" />
<polygon fill="#babfca" fill-opacity="0.501961" points="107,98 120,101 116,67" />
<polygon fill="#51514c" fill-opacity="0.501961" points="81,63 96,25 55,56" />
<polygon fill="#f7f7f4" fill-opacity="0.501961" points="142,78 138,61 116,66" />
<polygon fill="#34374f" fill-opacity="0.501961" points="211,19 251,16 235,9" />
<polygon fill="#c0b29c" fill-opacity="0.501961" points="203,70 217,81 232,70" />
<polygon fill="#b1abb1" fill-opacity="0.501961" points="228,99 217,124 218,108" />
<polygon fill="#313656" fill-opacity="0.501961" points="201,97 222,107 217,96" />
<polygon fill="#676769" fill-opacity="0.501961" points="127,88 117,114 168,83" />
<polygon fill="#7892ac" fill-opacity="0.501961" points="26,69 34,50 38,67" />
<polygon fill="#667080" fill-opacity="0.501961" points="163,45 129,47 149,32" />
<polygon fill="#70728d" fill-opacity="0.501961" points="116,57 108,70 117,72" />
<polygon fill="#a3b4ce" fill-opacity="0.501961" points="140,129 113,131 143,138" />
<polygon fill="#9d9083" fill-opacity="0.501961" points="244,51 239,37 238,60" />
<polygon fill="#7f7da7" fill-opacity="0.501961" points="205,-16 244,4 271,-2" />
<polygon fill="#525860" fill-opacity="0.501961" points="123,113 105,121 106,145" />
<polygon fill="#3e3726" fill-opacity="0.501961" points="3,124 4,159 78,159" />
<polygon fill="#45536e" fill-opacity="0.501961" points="176,96 158,34 176,37" />
<polygon fill="#95aae3" fill-opacity="0.501961" points="113,31 105,30 121,39" />
<polygon fill="#343646" fill-opacity="0.501961" points="218,123 191,75 190,120" />
<polygon fill="#2d2526" fill-opacity="0.501961" points="43,59 39,53 39,71" />
<polygon fill="#2a3540" fill-opacity="0.501961" points="260,38 227,33 249,23" />
<polygon fill="#202229" fill-opacity="0.501961" points="142,159 157,104 142,123" />
<polygon fill="#373c40" fill-opacity="0.501961" points="255,30 271,18 255,-16" />
<polygon fill="#fcf8f4" fill-opacity="0.501961" points="179,55 184,69 178,68" />
<polygon fill="#b0a48f" fill-opacity="0.501961" points="201,50 216,41 206,71" />
<polygon fill="#cbb7a1" fill-opacity="0.501961" points="112,55 99,53 109,66" />
<polygon fill="#1f201f" fill-opacity="0.501961" points="50,21 -4,3 83,6" />
<polygon fill="#4e5258" fill-opacity="0.501961" points="95,29 176,34 142,16" />
<polygon fill="#b8b2b3" fill-opacity="0.501961" points="219,129 223,106 217,110" />
<polygon fill="#798faa" fill-opacity="0.501961" points="242,76 251,45 252,61" />
<polygon fill="#88826e" fill-opacity="0.501961" points="58,64 70,87 58,121" />
<polygon fill="#1b1a18" fill-opacity="0.501961" points="99,149 82,152 87,127" />
<polygon fill="#afbfd1" fill-opacity="0.501961" points="57,79 53,88 59,103" />
<polygon fill="#68717b" fill-opacity="0.501961" points="162,103 164,60 129,91" />
<polygon fill="#50516c" fill-opacity="0.501961" points="236,-16 185,-16 254,24" />
<polygon fill="#28282c" fill-opacity="0.501961" points="86,15 83,-3 81,9" />
<polygon fill="#6577b6" fill-opacity="0.501961" points="102,30 131,46 93,41" />
<polygon fill="#904a48" fill-opacity="0.501961" points="71,47 41,49 32,39" />
<polygon fill="#2c2d39" fill-opacity="0.501961" points="163,102 193,91 199,159" />
<polygon fill="#363327" fill-opacity="0.501961" points="55,29 -16,24 55,9" />
<polygon fill="#f0eff0" fill-opacity="0.501961" points="178,23 178,13 180,17" />
<polygon fill="#2c3b5a" fill-opacity="0.501961" points="95,64 93,40 103,65" />
<polygon fill="#a1a5ab" fill-opacity="0.501961" points="106,109 100,84 112,105" />
<polygon fill="#384055" fill-opacity="0.501961" points="220,104 244,89 231,83" />
<polygon fill="#2b2c38" fill-opacity="0.501961" points="174,130 216,123 220,146" />
<polygon fill="#565e6b" fill-opacity="0.501961" points="56,155 44,159 48,118" />
<polygon fill="#655c49" fill-opacity="0.501961" points="9,86 48,77 37,67" />
<polygon fill="#99917d" fill-opacity="0.501961" points="49,113 42,89 35,96" />
<polygon fill="#262c2f" fill-opacity="0.501961" points="182,21 199,75 182,55" />
<polygon fill="#596466" fill-opacity="0.501961" points="76,46 61,70 105,69" />
<polygon fill="#2d3134" fill-opacity="0.501961" points="216,48 223,34 220,26" />
<polygon fill="#cabda7" fill-opacity="0.501961" points="219,43 232,56 215,67" />
<polygon fill="#f2f0ee" fill-opacity="0.501961" points="248,69 247,86 239,87" />
<polygon fill="#364154" fill-opacity="0.501961" points="176,-8 176,29 162,0" />
<polygon fill="#7b7f89" fill-opacity="0.501961" points="214,21 246,19 241,27" />
<polygon fill="#798793" fill-opacity="0.501961" points="35,47 23,47 21,77" />
<polygon fill="#5b5d5b" fill-opacity="0.501961" points="165,102 139,91 131,114" />
<polygon fill="#cf7b6e" fill-opacity="0.501961" points="41,41 42,31 69,42" />
<polygon fill="#6a5c54" fill-opacity="0.501961" points="231,85 203,85 199,74" />
<polygon fill="#adbed1" fill-opacity="0.501961" points="255,82 244,74 254,52" />
<polygon fill="#afa18a" fill-opacity="0.501961" points="231,45 239,60 233,71" />
<polygon fill="#8c8171" fill-opacity="0.501961" points="192,46 206,49 192,58" />
<polygon fill="#4d4a3e" fill-opacity="0.501961" points="12,33 28,47 42,29" />
<polygon fill="#25374e" fill-opacity="0.501961" points="50,108 52,83 55,97" />
<polygon fill="#605f4e" fill-opacity="0.501961" points="6,50 21,40 23,104" />
<polygon fill="#6284a7" fill-opacity="0.501961" points="254,85 251,71 250,83" />
<polygon fill="#272931" fill-opacity="0.501961" points="211,151 266,108 271,150" />
<polygon fill="#3a3952" fill-opacity="0.501961" points="200,-16 178,12 217,16" />
<polygon fill="#e5e4e7" fill-opacity="0.501961" points="214,9 219,5 215,5" />
<polygon fill="#605c52" fill-opacity="0.501961" points="63,86 105,130 80,56" />
<polygon fill="#ebebeb" fill-opacity="0.501961" points="142,50 134,78 117,59" />
<polygon fill="#27313e" fill-opacity="0.501961" points="244,58 242,33 251,38" />
<polygon fill="#40424d" fill-opacity="0.501961" points="248,44 209,22 228,22" />
<polygon fill="#4b4a44" fill-opacity="0.501961" points="121,107 120,128 141,129" />
<polygon fill="#7790ae" fill-opacity="0.501961" points="174,93 191,83 180,96" />
<polygon fill="#6b768a" fill-opacity="0.501961" points="225,89 219,92 227,99" />
<polygon fill="#30353e" fill-opacity="0.501961" points="248,62 242,73 240,57" />
<polygon fill="#bbb29d" fill-opacity="0.501961" points="64,70 52,55 47,64" />
<polygon fill="#7b705b" fill-opacity="0.501961" points="77,88 63,117 70,71" />
<polygon fill="#595141" fill-opacity="0.501961" points="51,118 1,77 7,115" />
<polygon fill="#799bbb" fill-opacity="0.501961" points="251,62 248,50 252,42" />
<polygon fill="#4d5265" fill-opacity="0.501961" points="82,35 93,53 120,50" />
<polygon fill="#3c282e" fill-opacity="0.501961" points="64,61 70,52 63,50" />
<polygon fill="#464641" fill-opacity="0.501961" points="108,25 77,44 62,28" />
<polygon fill="#1e2631" fill-opacity="0.501961" points="229,41 238,40 236,48" />
<polygon fill="#a1b0c8" fill-opacity="0.501961" points="115,130 141,131 114,138" />
<polygon fill="#8d9296" fill-opacity="0.501961" points="222,145 216,159 219,128" />
<polygon fill="#d7e4f3" fill-opacity="0.501961" points="254,80 252,83 254,85" />
<polygon fill="#a79b8b" fill-opacity="0.501961" points="241,57 229,76 239,41" />
<polygon fill="#5e375b" fill-opacity="0.501961" points="112,85 104,71 109,71" />
<polygon fill="#778ba5" fill-opacity="0.501961" points="156,71 146,82 143,41" />
<polygon fill="#3d4044" fill-opacity="0.501961" points="115,152 107,138 134,139" />
<polygon fill="#161a22" fill-opacity="0.501961" points="256,63 254,151 271,93" />
<polygon fill="#514a42" fill-opacity="0.501961" points="189,35 218,34 209,40" />
<polygon fill="#3d414c" fill-opacity="0.501961" points="52,86 49,75 55,77" />
<polygon fill="#906e6c" fill-opacity="0.501961" points="222,67 219,71 210,67" />
<polygon fill="#3a3c4c" fill-opacity="0.501961" points="227,97 238,136 239,78" />
<polygon fill="#373848" fill-opacity="0.501961" points="205,131 180,97 214,113" />
<polygon fill="#b1b3b8" fill-opacity="0.501961" points="109,79 102,76 99,69" />
<polygon fill="#756e61" fill-opacity="0.501961" points="78,75 94,72 104,114" />
<polygon fill="#443c35" fill-opacity="0.501961" points="206,76 195,79 196,68" />
<polygon fill="#4a4435" fill-opacity="0.501961" points="22,107 17,135 66,159" />
<polygon fill="#948d7a" fill-opacity="0.501961" points="101,72 96,67 98,83" />
<polygon fill="#435670" fill-opacity="0.501961" points="164,55 178,97 163,94" />
<polygon fill="#71654e" fill-opacity="0.501961" points="40,123 20,75 35,68" />
<polygon fill="#8e939e" fill-opacity="0.501961" points="107,99 119,114 118,101" />
<polygon fill="#131218" fill-opacity="0.501961" points="1,89 -15,52 -1,5" />
<polygon fill="#232841" fill-opacity="0.501961" points="226,94 218,104 214,98" />
<polygon fill="#73656a" fill-opacity="0.501961" points="221,122 220,106 226,123" />
<polygon fill="#49453c" fill-opacity="0.501961" points="100,140 81,113 103,112" />
<polygon fill="#b0b7c2" fill-opacity="0.501961" points="216,110 212,105 212,98" />
<polygon fill="#564c48" fill-opacity="0.501961" points="42,61 44,77 54,80" />
<polygon fill="#725e4e" fill-opacity="0.501961" points="224,92 234,70 211,90" />
<polygon fill="#292c37" fill-opacity="0.501961" points="151,111 195,88 174,131" />
<polygon fill="#c7cbd2" fill-opacity="0.501961" points="115,76 104,97 117,86" />
<polygon fill="#bec5cf" fill-opacity="0.501961" points="228,104 223,106 225,109" />
<polygon fill="#393b4e" fill-opacity="0.501961" points="245,110 228,126 227,96" />
<polygon fill="#3a3c4f" fill-opacity="0.501961" points="223,132 223,111 237,102" />
<polygon fill="#262e34" fill-opacity="0.501961" points="195,39 179,39 181,24" />
<polygon fill="#6991ae" fill-opacity="0.501961" points="186,71 190,87 185,87" />
<polygon fill="#83878a" fill-opacity="0.501961" points="225,43 230,49 236,47" />
<polygon fill="#3f3331" fill-opacity="0.501961" points="40,56 49,46 56,56" />
<polygon fill="#7b828e" fill-opacity="0.501961" points="182,63 185,64 187,72" />
<polygon fill="#8797ac" fill-opacity="0.501961" points="178,-16 124,2 160,1" />
<polygon fill="#5a6168" fill-opacity="0.501961" points="113,27 125,40 160,32" />
<polygon fill="#413d32" fill-opacity="0.501961" points="66,135 73,114 72,144" />
<polygon fill="#ccbea7" fill-opacity="0.501961" points="207,66 228,65 214,51" />
<polygon fill="#c4b79d" fill-opacity="0.501961" points="45,60 60,65 62,58" />
<polygon fill="#5e656f" fill-opacity="0.501961" points="225,84 246,68 239,82" />
<polygon fill="#b09c8b" fill-opacity="0.501961" points="100,60 107,63 100,52" />
<polygon fill="#9fafc5" fill-opacity="0.501961" points="255,97 250,97 253,90" />
<polygon fill="#2f334b" fill-opacity="0.501961" points="222,95 223,105 210,101" />
<polygon fill="#2d3038" fill-opacity="0.501961" points="108,23 127,3 75,3" />
<polygon fill="#1a2029" fill-opacity="0.501961" points="49,125 56,109 53,132" />
<polygon fill="#787698" fill-opacity="0.501961" points="261,-1 229,1 203,-16" />
<polygon fill="#c0cdd5" fill-opacity="0.501961" points="254,12 267,19 252,21" />
<polygon fill="#575c5b" fill-opacity="0.501961" points="92,36 80,84 63,69" />
<polygon fill="#353747" fill-opacity="0.501961" points="182,2 180,17 225,19" />
<polygon fill="#858a95" fill-opacity="0.501961" points="245,24 229,20 248,18" />
<polygon fill="#42484e" fill-opacity="0.501961" points="191,79 188,74 204,79" />
<polygon fill="#6376a3" fill-opacity="0.501961" points="120,38 127,44 116,55" />
<polygon fill="#383c45" fill-opacity="0.501961" points="255,23 271,-4 255,-16" />
<polygon fill="#282935" fill-opacity="0.501961" points="203,156 271,150 229,133" />
<polygon fill="#2c3542" fill-opacity="0.501961" points="250,37 242,54 245,67" />
<polygon fill="#52524d" fill-opacity="0.501961" points="131,135 131,110 150,102" />
<polygon fill="#97a7c0" fill-opacity="0.501961" points="114,136 114,128 141,138" />
<polygon fill="#2f3944" fill-opacity="0.501961" points="240,26 246,68 252,22" />
<polygon fill="#6e7d91" fill-opacity="0.501961" points="132,91 157,75 129,81" />
<polygon fill="#706a60" fill-opacity="0.501961" points="130,96 124,117 119,97" />
<polygon fill="#21262c" fill-opacity="0.501961" points="217,32 223,32 218,44" />
<polygon fill="#4f545a" fill-opacity="0.501961" points="124,134 123,116 117,121" />
<polygon fill="#8294cd" fill-opacity="0.501961" points="96,34 122,38 112,30" />
<polygon fill="#656976" fill-opacity="0.501961" points="232,31 248,21 227,22" />
<polygon fill="#736f73" fill-opacity="0.501961" points="114,65 98,72 92,68" />
<polygon fill="#3d475c" fill-opacity="0.501961" points="160,5 173,61 177,11" />
<polygon fill="#455266" fill-opacity="0.501961" points="42,80 47,75 38,59" />
<polygon fill="#323842" fill-opacity="0.501961" points="242,72 242,60 228,82" />
<polygon fill="#131a20" fill-opacity="0.501961" points="203,30 205,46 201,44" />
<polygon fill="#9f5453" fill-opacity="0.501961" points="55,48 56,55 61,43" />
<polygon fill="#6584a7" fill-opacity="0.501961" points="249,73 251,64 252,80" />
<polygon fill="#78808c" fill-opacity="0.501961" points="26,3 11,2 10,-6" />
<polygon fill="#708196" fill-opacity="0.501961" points="125,47 150,46 127,37" />
<polygon fill="#323646" fill-opacity="0.501961" points="235,86 257,104 239,136" />
<polygon fill="#616b83" fill-opacity="0.501961" points="209,95 222,91 226,96" />
<polygon fill="#8f9497" fill-opacity="0.501961" points="191,67 191,72 195,73" />
<polygon fill="#524a42" fill-opacity="0.501961" points="224,34 213,43 237,35" />
<polygon fill="#4f4c47" fill-opacity="0.501961" points="10,65 7,101 -6,83" />
<polygon fill="#1e1c22" fill-opacity="0.501961" points="-16,9 8,-5 8,9" />
<polygon fill="#bcb19b" fill-opacity="0.501961" points="216,75 223,72 210,68" />
<polygon fill="#322d26" fill-opacity="0.501961" points="23,113 26,104 26,110" />
<polygon fill="#e79d8f" fill-opacity="0.501961" points="67,41 64,34 71,41" />
<polygon fill="#d8d8d7" fill-opacity="0.501961" points="244,71 250,71 240,85" />
<polygon fill="#252632" fill-opacity="0.501961" points="208,144 210,115 219,141" />
<polygon fill="#323444" fill-opacity="0.501961" points="190,81 205,135 210,87" />
<polygon fill="#3b3c4d" fill-opacity="0.501961" points="203,91 217,121 198,104" />
<polygon fill="#848588" fill-opacity="0.501961" points="204,19 197,19 198,21" />
<polygon fill="#353430" fill-opacity="0.501961" points="109,12 63,32 50,16" />
<polygon fill="#68707b" fill-opacity="0.501961" points="134,36 164,61 160,38" />
<polygon fill="#ebebeb" fill-opacity="0.501961" points="136,78 124,47 140,47" />
<polygon fill="#717370" fill-opacity="0.501961" points="49,111 40,101 48,123" />
<polygon fill="#74899f" fill-opacity="0.501961" points="33,48 39,64 26,72" />
<polygon fill="#b06058" fill-opacity="0.501961" points="40,36 55,44 35,40" />
<polygon fill="#2c3038" fill-opacity="0.501961" points="233,31 233,46 251,22" />
<polygon fill="#5d5648" fill-opacity="0.501961" points="79,151 84,102 72,127" />
<polygon fill="#48475f" fill-opacity="0.501961" points="211,8 226,-2 182,-4" />
<polygon fill="#293136" fill-opacity="0.501961" points="183,59 189,39 192,49" />
<polygon fill="#1b191e" fill-opacity="0.501961" points="2,159 -16,127 -1,78" />
<polygon fill="#a2927d" fill-opacity="0.501961" points="198,67 200,49 210,76" />
<polygon fill="#646c76" fill-opacity="0.501961" points="204,84 195,79 204,80" />
<polygon fill="#f0eeed" fill-opacity="0.501961" points="183,72 180,86 178,67" />
<polygon fill="#a08e74" fill-opacity="0.501961" points="46,56 43,63 48,67" />
<polygon fill="#8e9ba8" fill-opacity="0.501961" points="178,36 178,28 176,34" />
<polygon fill="#595c60" fill-opacity="0.501961" points="46,149 63,146 46,123" />
<polygon fill="#7d8c9d" fill-opacity="0.501961" points="60,105 58,116 57,105" />
<polygon fill="#7c7c80" fill-opacity="0.501961" points="186,20 196,19 190,18" />
<polygon fill="#59375d" fill-opacity="0.501961" points="112,69 109,74 110,81" />
<polygon fill="#3f3d33" fill-opacity="0.501961" points="133,138 172,159 100,147" />
<polygon fill="#54667f" fill-opacity="0.501961" points="239,74 238,71 235,77" />
<polygon fill="#76818b" fill-opacity="0.501961" points="268,16 254,30 259,6" />
<polygon fill="#3f3b31" fill-opacity="0.501961" points="34,35 55,23 2,23" />
<polygon fill="#908d8f" fill-opacity="0.501961" points="127,78 115,68 121,91" />
<polygon fill="#323943" fill-opacity="0.501961" points="138,22 166,6 102,4" />
<polygon fill="#422a26" fill-opacity="0.501961" points="46,47 37,50 41,62" />
<polygon fill="#5e6970" fill-opacity="0.501961" points="88,43 89,71 97,68" />
<polygon fill="#908576" fill-opacity="0.501961" points="196,40 203,75 194,59" />
<polygon fill="#303856" fill-opacity="0.501961" points="94,51 105,51 98,45" />
<polygon fill="#b5bbbf" fill-opacity="0.501961" points="218,124 220,135 221,129" />
<polygon fill="#ccd1e3" fill-opacity="0.501961" points="245,-16 255,1 251,-16" />
<polygon fill="#b3b6bb" fill-opacity="0.501961" points="44,82 43,98 50,99" />
<polygon fill="#faf4f2" fill-opacity="0.501961" points="181,54 180,60 179,52" />
<polygon fill="#575346" fill-opacity="0.501961" points="37,45 11,47 33,34" />
<polygon fill="#3f4154" fill-opacity="0.501961" points="227,6 240,19 220,18" />
<polygon fill="#50514b" fill-opacity="0.501961" points="70,38 96,34 78,52" />
<polygon fill="#2e363b" fill-opacity="0.501961" points="183,52 194,71 188,48" />
<polygon fill="#6a3c3d" fill-opacity="0.501961" points="72,49 61,46 50,55" />
<polygon fill="#766d5b" fill-opacity="0.501961" points="76,98 59,69 77,77" />
<polygon fill="#94a8c1" fill-opacity="0.501961" points="177,89 180,94 184,88" />
<polygon fill="#695b51" fill-opacity="0.501961" points="217,82 199,71 201,83" />
<polygon fill="#8196b1" fill-opacity="0.501961" points="260,96 239,86 246,94" />
<polygon fill="#8d8160" fill-opacity="0.501961" points="41,93 35,81 39,75" />
<polygon fill="#507896" fill-opacity="0.501961" points="188,89 187,82 190,78" />
<polygon fill="#424d63" fill-opacity="0.501961" points="163,41 175,47 177,20" />
<polygon fill="#4c5157" fill-opacity="0.501961" points="113,124 104,148 114,135" />
<polygon fill="#262833" fill-opacity="0.501961" points="150,108 142,135 163,104" />
<polygon fill="#757c88" fill-opacity="0.501961" points="104,117 106,103 119,108" />
<polygon fill="#605341" fill-opacity="0.501961" points="67,90 61,90 59,86" />
<polygon fill="#333648" fill-opacity="0.501961" points="234,84 228,84 227,104" />
<polygon fill="#293241" fill-opacity="0.501961" points="59,123 50,115 52,87" />
<polygon fill="#717888" fill-opacity="0.501961" points="44,-5 69,3 108,-16" />
<polygon fill="#a55454" fill-opacity="0.501961" points="70,46 62,49 70,41" />
<polygon fill="#514d48" fill-opacity="0.501961" points="77,99 77,72 83,92" />
<polygon fill="#6a634d" fill-opacity="0.501961" points="45,113 24,114 33,100" />
<polygon fill="#616468" fill-opacity="0.501961" points="163,99 120,84 149,108" />
<polygon fill="#6c604a" fill-opacity="0.501961" points="23,105 41,89 14,83" />
<polygon fill="#756a71" fill-opacity="0.501961" points="112,72 113,63 99,68" />
<polygon fill="#c5b7a7" fill-opacity="0.501961" points="105,62 114,60 104,49" />
<polygon fill="#504a47" fill-opacity="0.501961" points="224,37 226,44 235,29" />
<polygon fill="#7d8c9a" fill-opacity="0.501961" points="252,40 271,75 271,53" />
<polygon fill="#525e93" fill-opacity="0.501961" points="103,39 94,36 91,49" />
<polygon fill="#262731" fill-opacity="0.501961" points="141,136 145,114 182,124" />
</g>
</svg>