<svg xmlns="http://www.w3.org/2000/svg" version="1.1" width="1024" height="576">
<rect x="0" y="0" width="1024" height="576" fill="#4d4446" />
<g transform="scale(4.000000) translate(0.5 0.5)">
<polygon fill="#c3e0fe" fill-opacity="0.501961" points="-16,0 43,70 99,-9" />
<polygon fill="#0c0b08" fill-opacity="0.501961" points="169,148 271,158 73,-16" />
<polygon fill="#d06658" fill-opacity="0.501961" points="134,79 134,139 55,64" />
<polygon fill="#ffffff" fill-opacity="0.501961" points="8,15 9,-8 76,-2" />
<polygon fill="#2e1515" fill-opacity="0.501961" points="-15,90 34,159 164,117" />
<polygon fill="#69758a" fill-opacity="0.501961" points="-16,24 22,90 98,19" />
<polygon fill="#9c9da9" fill-opacity="0.501961" points="213,50 188,57 199,111" />
<polygon fill="#181616" fill-opacity="0.501961" points="203,159 177,12 129,80" />
<polygon fill="#201e1b" fill-opacity="0.501961" points="225,-16 271,117 204,45" />
<polygon fill="#accbee" fill-opacity="0.501961" points="121,138 139,136 115,125" />
<polygon fill="#1d1911" fill-opacity="0.501961" points="149,88 86,62 89,17" />
<polygon fill="#b5bdb9" fill-opacity="0.501961" points="83,16 55,53 85,31" />
<polygon fill="#ee9682" fill-opacity="0.501961" points="74,72 142,94 114,73" />
<polygon fill="#363739" fill-opacity="0.501961" points="87,74 191,53 84,-16" />
<polygon fill="#6d322d" fill-opacity="0.501961" points="119,106 117,159 32,71" />
<polygon fill="#32406e" fill-opacity="0.501961" points="30,38 12,111 -15,42" />
<polygon fill="#57361e" fill-opacity="0.501961" points="199,68 271,100 249,159" />
<polygon fill="#64847c" fill-opacity="0.501961" points="59,71 77,77 88,43" />
<polygon fill="#371c0f" fill-opacity="0.501961" points="189,144 143,159 133,103" />
<polygon fill="#b7b7cb" fill-opacity="0.501961" points="197,49 213,58 189,67" />
<polygon fill="#6f7975" fill-opacity="0.501961" points="181,50 195,0 214,8" />
<polygon fill="#231f21" fill-opacity="0.501961" points="-16,91 40,150 159,152" />
<polygon fill="#cfdbe5" fill-opacity="0.501961" points="39,47 32,-16 10,-10" />
<polygon fill="#bc9f70" fill-opacity="0.501961" points="7,124 17,124 0,154" />
<polygon fill="#8b8884" fill-opacity="0.501961" points="33,78 7,70 81,25" />
<polygon fill="#88433e" fill-opacity="0.501961" points="139,119 72,67 53,105" />
<polygon fill="#758181" fill-opacity="0.501961" points="158,8 179,3 158,32" />
<polygon fill="#3d4954" fill-opacity="0.501961" points="39,33 54,29 41,57" />
<polygon fill="#968774" fill-opacity="0.501961" points="161,95 163,77 168,88" />
<polygon fill="#28323e" fill-opacity="0.501961" points="52,59 45,149 -16,110" />
<polygon fill="#636ebd" fill-opacity="0.501961" points="24,68 34,98 4,54" />
<polygon fill="#be665b" fill-opacity="0.501961" points="75,85 127,81 144,101" />
<polygon fill="#9db0cb" fill-opacity="0.501961" points="53,18 3,15 93,-5" />
<polygon fill="#495059" fill-opacity="0.501961" points="58,80 70,46 61,6" />
<polygon fill="#120d09" fill-opacity="0.501961" points="85,63 131,79 177,65" />
<polygon fill="#21242c" fill-opacity="0.501961" points="207,47 164,22 183,15" />
<polygon fill="#4d5355" fill-opacity="0.501961" points="34,62 30,30 -16,51" />
<polygon fill="#424141" fill-opacity="0.501961" points="212,100 197,116 189,85" />
<polygon fill="#5e6f93" fill-opacity="0.501961" points="31,39 -16,-15 11,44" />
<polygon fill="#3e3a38" fill-opacity="0.501961" points="165,-16 60,79 144,52" />
<polygon fill="#1b140f" fill-opacity="0.501961" points="271,67 267,114 226,67" />
<polygon fill="#96bcdc" fill-opacity="0.501961" points="125,137 139,133 130,127" />
<polygon fill="#3a3b3f" fill-opacity="0.501961" points="271,54 189,50 238,-4" />
<polygon fill="#e4cc9c" fill-opacity="0.501961" points="188,43 185,34 181,42" />
<polygon fill="#1e1c1f" fill-opacity="0.501961" points="174,28 190,59 142,101" />
<polygon fill="#7c3e3a" fill-opacity="0.501961" points="144,109 115,134 117,80" />
<polygon fill="#512d2a" fill-opacity="0.501961" points="54,136 48,91 136,127" />
<polygon fill="#151725" fill-opacity="0.501961" points="20,105 -16,67 -16,150" />
<polygon fill="#a1a19c" fill-opacity="0.501961" points="29,73 35,50 65,49" />
<polygon fill="#cb7467" fill-opacity="0.501961" points="129,99 72,73 109,75" />
<polygon fill="#3f2a1f" fill-opacity="0.501961" points="136,159 176,114 139,92" />
<polygon fill="#6e7690" fill-opacity="0.501961" points="61,23 54,-1 61,-7" />
<polygon fill="#e5edef" fill-opacity="0.501961" points="98,-12 2,-16 10,11" />
<polygon fill="#424149" fill-opacity="0.501961" points="157,20 98,-16 113,53" />
<polygon fill="#b6bcbb" fill-opacity="0.501961" points="65,31 67,46 75,32" />
<polygon fill="#3a4041" fill-opacity="0.501961" points="50,103 69,45 41,69" />
<polygon fill="#616768" fill-opacity="0.501961" points="210,29 212,12 180,37" />
<polygon fill="#3b427f" fill-opacity="0.501961" points="-11,62 36,103 9,60" />
<polygon fill="#282420" fill-opacity="0.501961" points="79,135 22,119 -2,159" />
<polygon fill="#9a9082" fill-opacity="0.501961" points="201,81 208,87 203,103" />
<polygon fill="#292d3d" fill-opacity="0.501961" points="202,77 197,76 205,61" />
<polygon fill="#000000" fill-opacity="0.501961" points="212,105 208,93 212,97" />
<polygon fill="#e79e8c" fill-opacity="0.501961" points="104,80 97,70 123,79" />
<polygon fill="#2a1613" fill-opacity="0.501961" points="44,140 86,158 141,138" />
<polygon fill="#473224" fill-opacity="0.501961" points="267,52 204,63 271,74" />
<polygon fill="#3d2c17" fill-opacity="0.501961" points="102,29 85,72 104,70" />
<polygon fill="#6d7774" fill-opacity="0.501961" points="86,47 86,62 49,77" />
<polygon fill="#b6bfc6" fill-opacity="0.501961" points="57,-16 73,-16 74,33" />
<polygon fill="#b3b0c0" fill-opacity="0.501961" points="189,59 201,51 207,53" />
<polygon fill="#adb5c2" fill-opacity="0.501961" points="47,11 56,35 56,-16" />
<polygon fill="#212224" fill-opacity="0.501961" points="223,36 230,-3 206,-16" />
<polygon fill="#564d3d" fill-opacity="0.501961" points="24,70 30,64 2,48" />
<polygon fill="#7b91b8" fill-opacity="0.501961" points="7,15 30,17 30,35" />
<polygon fill="#141b13" fill-opacity="0.501961" points="54,86 57,77 71,76" />
<polygon fill="#222021" fill-opacity="0.501961" points="235,40 217,28 271,32" />
<polygon fill="#45362d" fill-opacity="0.501961" points="210,109 264,103 260,159" />
<polygon fill="#2c2e33" fill-opacity="0.501961" points="174,-16 184,36 193,-10" />
<polygon fill="#473326" fill-opacity="0.501961" points="145,159 165,92 171,149" />
<polygon fill="#f1ad97" fill-opacity="0.501961" points="125,79 136,88 116,79" />
<polygon fill="#666a69" fill-opacity="0.501961" points="159,16 187,17 160,4" />
<polygon fill="#161a1e" fill-opacity="0.501961" points="178,99 225,121 247,159" />
<polygon fill="#c67167" fill-opacity="0.501961" points="128,92 144,108 135,88" />
<polygon fill="#191817" fill-opacity="0.501961" points="137,86 111,50 98,63" />
<polygon fill="#887154" fill-opacity="0.501961" points="18,118 -10,141 1,159" />
<polygon fill="#1a181a" fill-opacity="0.501961" points="167,73 171,144 221,159" />
<polygon fill="#2e2d31" fill-opacity="0.501961" points="181,47 213,38 185,59" />
<polygon fill="#505251" fill-opacity="0.501961" points="271,30 230,11 227,27" />
<polygon fill="#4f1f21" fill-opacity="0.501961" points="110,80 115,80 121,85" />
<polygon fill="#6c777e" fill-opacity="0.501961" points="82,29 86,12 73,20" />
<polygon fill="#604333" fill-opacity="0.501961" points="255,103 215,103 215,58" />
<polygon fill="#252630" fill-opacity="0.501961" points="141,47 188,55 191,84" />
<polygon fill="#717083" fill-opacity="0.501961" points="192,92 193,53 202,64" />
<polygon fill="#463e39" fill-opacity="0.501961" points="189,129 187,119 210,121" />
<polygon fill="#423b3f" fill-opacity="0.501961" points="179,32 227,56 271,39" />
<polygon fill="#adaeae" fill-opacity="0.501961" points="35,52 38,36 32,34" />
<polygon fill="#3c2322" fill-opacity="0.501961" points="119,128 46,124 106,159" />
<polygon fill="#292f52" fill-opacity="0.501961" points="-4,68 5,102 34,103" />
<polygon fill="#24262e" fill-opacity="0.501961" points="92,-9 97,45 112,-16" />
<polygon fill="#4c3924" fill-opacity="0.501961" points="86,44 112,49 83,70" />
<polygon fill="#2e2d31" fill-opacity="0.501961" points="232,0 148,4 209,-16" />
<polygon fill="#494c59" fill-opacity="0.501961" points="92,30 93,3 79,-16" />
<polygon fill="#9f514c" fill-opacity="0.501961" points="69,92 81,76 139,104" />
<polygon fill="#2b1d16" fill-opacity="0.501961" points="132,67 141,101 164,81" />
<polygon fill="#717779" fill-opacity="0.501961" points="160,21 166,27 163,33" />
<polygon fill="#323a41" fill-opacity="0.501961" points="213,104 210,146 226,117" />
<polygon fill="#291d1d" fill-opacity="0.501961" points="148,131 143,153 135,112" />
<polygon fill="#565865" fill-opacity="0.501961" points="63,50 58,15 66,33" />
<polygon fill="#161c19" fill-opacity="0.501961" points="171,53 166,19 181,33" />
<polygon fill="#b9c0cb" fill-opacity="0.501961" points="39,-13 31,23 28,-8" />
<polygon fill="#7f433e" fill-opacity="0.501961" points="75,71 55,92 94,101" />
<polygon fill="#7b7d8f" fill-opacity="0.501961" points="30,82 17,85 40,72" />
<polygon fill="#633837" fill-opacity="0.501961" points="65,112 97,102 135,129" />
<polygon fill="#5f6467" fill-opacity="0.501961" points="204,34 188,7 214,2" />
<polygon fill="#474446" fill-opacity="0.501961" points="70,51 32,86 33,111" />
<polygon fill="#1c1e29" fill-opacity="0.501961" points="20,122 22,84 0,116" />
<polygon fill="#abc0d8" fill-opacity="0.501961" points="138,130 137,137 126,130" />
<polygon fill="#171f24" fill-opacity="0.501961" points="233,55 266,53 271,65" />
<polygon fill="#819397" fill-opacity="0.501961" points="77,60 82,48 84,58" />
<polygon fill="#30312f" fill-opacity="0.501961" points="3,150 57,75 36,159" />
<polygon fill="#ab987c" fill-opacity="0.501961" points="164,93 167,85 161,89" />
<polygon fill="#36251f" fill-opacity="0.501961" points="137,136 143,79 172,101" />
<polygon fill="#3c3839" fill-opacity="0.501961" points="232,48 227,67 182,29" />
<polygon fill="#5e5c5c" fill-opacity="0.501961" points="40,73 44,68 41,58" />
<polygon fill="#eff4f1" fill-opacity="0.501961" points="37,5 30,-16 51,6" />
<polygon fill="#d0bd9c" fill-opacity="0.501961" points="183,42 186,43 187,36" />
<polygon fill="#45403d" fill-opacity="0.501961" points="200,110 214,92 190,103" />
<polygon fill="#a4b0c8" fill-opacity="0.501961" points="119,138 132,133 119,130" />
<polygon fill="#444334" fill-opacity="0.501961" points="82,70 75,53 76,74" />
<polygon fill="#131111" fill-opacity="0.501961" points="203,113 211,104 218,127" />
<polygon fill="#5a675c" fill-opacity="0.501961" points="70,77 56,73 77,64" />
<polygon fill="#888796" fill-opacity="0.501961" points="208,59 192,65 190,76" />
<polygon fill="#3f4a54" fill-opacity="0.501961" points="28,38 30,54 2,55" />
<polygon fill="#757d84" fill-opacity="0.501961" points="76,44 67,48 82,34" />
<polygon fill="#5f6981" fill-opacity="0.501961" points="-14,9 11,47 -1,-1" />
<polygon fill="#cdcdd8" fill-opacity="0.501961" points="209,54 201,52 209,58" />
<polygon fill="#787976" fill-opacity="0.501961" points="41,49 54,36 43,64" />
<polygon fill="#4e3828" fill-opacity="0.501961" points="253,63 211,71 218,59" />
<polygon fill="#3f4675" fill-opacity="0.501961" points="6,83 33,94 8,66" />
<polygon fill="#b7bbbd" fill-opacity="0.501961" points="44,57 55,54 43,64" />
<polygon fill="#48474a" fill-opacity="0.501961" points="93,35 85,9 86,63" />
<polygon fill="#36333a" fill-opacity="0.501961" points="189,-2 176,20 189,34" />
<polygon fill="#a4a8a9" fill-opacity="0.501961" points="66,33 69,43 84,32" />
<polygon fill="#554837" fill-opacity="0.501961" points="-12,152 -16,138 17,118" />
<polygon fill="#8ba3c3" fill-opacity="0.501961" points="11,23 13,5 18,27" />
<polygon fill="#979fb6" fill-opacity="0.501961" points="22,80 22,74 33,70" />
<polygon fill="#7a7b7c" fill-opacity="0.501961" points="81,15 90,-15 77,-16" />
<polygon fill="#323033" fill-opacity="0.501961" points="167,31 164,64 102,60" />
<polygon fill="#8d4642" fill-opacity="0.501961" points="139,100 118,105 144,108" />
<polygon fill="#9b9fa4" fill-opacity="0.501961" points="60,48 52,28 57,10" />
<polygon fill="#626566" fill-opacity="0.501961" points="177,17 177,5 157,4" />
<polygon fill="#7487ac" fill-opacity="0.501961" points="50,14 36,19 55,29" />
<polygon fill="#636566" fill-opacity="0.501961" points="199,10 191,-1 189,35" />
<polygon fill="#181d1b" fill-opacity="0.501961" points="271,5 255,-16 255,63" />
<polygon fill="#596676" fill-opacity="0.501961" points="216,116 214,107 218,114" />
<polygon fill="#52302f" fill-opacity="0.501961" points="132,102 135,119 152,123" />
<polygon fill="#4a454a" fill-opacity="0.501961" points="128,34 126,-16 105,33" />
<polygon fill="#889696" fill-opacity="0.501961" points="70,68 72,60 68,63" />
<polygon fill="#4a4a59" fill-opacity="0.501961" points="190,95 197,89 193,71" />
<polygon fill="#aea692" fill-opacity="0.501961" points="207,73 206,66 210,66" />
<polygon fill="#e8a08d" fill-opacity="0.501961" points="103,77 124,80 110,73" />
<polygon fill="#2a1911" fill-opacity="0.501961" points="190,145 215,123 183,130" />
<polygon fill="#181a20" fill-opacity="0.501961" points="189,73 166,69 173,149" />
<polygon fill="#be6b60" fill-opacity="0.501961" points="92,75 118,80 86,86" />
<polygon fill="#465670" fill-opacity="0.501961" points="38,31 50,29 45,44" />
<polygon fill="#9e9aa9" fill-opacity="0.501961" points="190,57 208,56 189,63" />
<polygon fill="#5a63a1" fill-opacity="0.501961" points="13,56 17,70 1,56" />
<polygon fill="#a7b6cb" fill-opacity="0.501961" points="136,132 126,130 136,138" />
<polygon fill="#201d1b" fill-opacity="0.501961" points="7,124 -1,75 -16,135" />
<polygon fill="#111111" fill-opacity="0.501961" points="222,145 233,143 222,115" />
<polygon fill="#140e0a" fill-opacity="0.501961" points="257,159 267,128 255,112" />
<polygon fill="#4d5b5c" fill-opacity="0.501961" points="255,-16 254,27 243,-16" />
<polygon fill="#181412" fill-opacity="0.501961" points="113,128 117,153 108,149" />
<polygon fill="#4a4649" fill-opacity="0.501961" points="216,50 254,52 253,42" />
<polygon fill="#4b2c2b" fill-opacity="0.501961" points="55,105 87,147 108,126" />
<polygon fill="#a09273" fill-opacity="0.501961" points="181,43 184,40 181,35" />
<polygon fill="#3a3539" fill-opacity="0.501961" points="198,80 201,66 202,76" />
<polygon fill="#131711" fill-opacity="0.501961" points="188,30 177,33 178,28" />
<polygon fill="#f3f3f0" fill-opacity="0.501961" points="17,11 23,7 9,-15" />
<polygon fill="#3e311f" fill-opacity="0.501961" points="107,56 93,73 79,69" />
<polygon fill="#32385c" fill-opacity="0.501961" points="29,95 28,109 15,77" />
<polygon fill="#46474e" fill-opacity="0.501961" points="-16,57 26,56 -4,44" />
<polygon fill="#9ba9bd" fill-opacity="0.501961" points="64,-16 78,-3 79,16" />
<polygon fill="#553c2d" fill-opacity="0.501961" points="248,60 271,67 230,68" />
<polygon fill="#2c292c" fill-opacity="0.501961" points="94,16 94,42 117,59" />
<polygon fill="#522826" fill-opacity="0.501961" points="127,95 118,86 124,89" />
<polygon fill="#717d99" fill-opacity="0.501961" points="51,-8 61,-3 63,10" />
<polygon fill="#4e2927" fill-opacity="0.501961" points="86,78 74,78 69,83" />
<polygon fill="#a4a6aa" fill-opacity="0.501961" points="33,40 36,65 39,48" />
<polygon fill="#6e6b67" fill-opacity="0.501961" points="33,63 22,76 32,45" />
<polygon fill="#4a3b36" fill-opacity="0.501961" points="207,61 228,59 219,81" />
<polygon fill="#605c4c" fill-opacity="0.501961" points="136,142 143,150 139,137" />
<polygon fill="#ad9876" fill-opacity="0.501961" points="7,138 12,133 13,126" />
<polygon fill="#444443" fill-opacity="0.501961" points="232,-7 246,29 225,30" />
<polygon fill="#ae5e55" fill-opacity="0.501961" points="91,84 129,106 123,92" />
<polygon fill="#959b9c" fill-opacity="0.501961" points="66,35 73,21 82,35" />
<polygon fill="#6d7b9a" fill-opacity="0.501961" points="29,33 9,24 29,23" />
<polygon fill="#412e25" fill-opacity="0.501961" points="171,123 170,159 140,107" />
<polygon fill="#3a383c" fill-opacity="0.501961" points="107,-7 116,62 101,32" />
<polygon fill="#5d5f60" fill-opacity="0.501961" points="208,3 190,31 211,32" />
<polygon fill="#b9665d" fill-opacity="0.501961" points="131,95 136,106 136,94" />
<polygon fill="#abbed3" fill-opacity="0.501961" points="52,2 37,10 56,11" />
<polygon fill="#5561a6" fill-opacity="0.501961" points="18,78 7,59 29,80" />
<polygon fill="#363d49" fill-opacity="0.501961" points="79,49 59,58 86,35" />
<polygon fill="#373536" fill-opacity="0.501961" points="213,31 190,36 189,57" />
<polygon fill="#4f606f" fill-opacity="0.501961" points="62,23 66,32 69,22" />
<polygon fill="#4f2f2d" fill-opacity="0.501961" points="52,110 90,131 136,128" />
<polygon fill="#323a3d" fill-opacity="0.501961" points="204,127 214,147 222,138" />
<polygon fill="#4f392c" fill-opacity="0.501961" points="248,102 250,155 217,105" />
<polygon fill="#332a27" fill-opacity="0.501961" points="160,96 158,75 163,79" />
<polygon fill="#98abc1" fill-opacity="0.501961" points="33,-7 37,10 22,-16" />
<polygon fill="#484649" fill-opacity="0.501961" points="59,87 53,67 34,84" />
<polygon fill="#eefbf6" fill-opacity="0.501961" points="62,2 62,-16 71,-2" />
<polygon fill="#5d657b" fill-opacity="0.501961" points="31,37 11,47 -16,19" />
<polygon fill="#9b8466" fill-opacity="0.501961" points="14,123 14,130 11,132" />
<polygon fill="#41434c" fill-opacity="0.501961" points="59,70 61,45 74,54" />
<polygon fill="#251c17" fill-opacity="0.501961" points="131,78 154,69 148,111" />
<polygon fill="#5f4638" fill-opacity="0.501961" points="209,91 226,73 252,99" />
<polygon fill="#202126" fill-opacity="0.501961" points="160,92 169,107 192,109" />
<polygon fill="#2e2529" fill-opacity="0.501961" points="200,78 201,72 203,77" />
<polygon fill="#2c2e32" fill-opacity="0.501961" points="225,56 198,42 217,60" />
<polygon fill="#191413" fill-opacity="0.501961" points="137,86 108,67 138,62" />
<polygon fill="#757c8f" fill-opacity="0.501961" points="56,9 62,34 63,8" />
<polygon fill="#464146" fill-opacity="0.501961" points="237,47 212,43 229,60" />
<polygon fill="#545762" fill-opacity="0.501961" points="9,53 -16,21 17,45" />
<polygon fill="#0c1117" fill-opacity="0.501961" points="233,76 249,82 268,76" />
<polygon fill="#171110" fill-opacity="0.501961" points="62,159 61,129 73,149" />
<polygon fill="#66799a" fill-opacity="0.501961" points="36,13 46,31 40,32" />
<polygon fill="#121418" fill-opacity="0.501961" points="171,118 193,159 171,159" />
<polygon fill="#2f2b2e" fill-opacity="0.501961" points="226,25 211,32 216,-16" />
<polygon fill="#3f3e43" fill-opacity="0.501961" points="158,-14 132,-12 156,47" />
<polygon fill="#d78c7e" fill-opacity="0.501961" points="104,76 98,72 93,74" />
<polygon fill="#171314" fill-opacity="0.501961" points="271,61 255,113 256,51" />
<polygon fill="#2b292c" fill-opacity="0.501961" points="133,56 124,64 128,25" />
<polygon fill="#8095b5" fill-opacity="0.501961" points="26,13 15,20 30,27" />
<polygon fill="#613634" fill-opacity="0.501961" points="86,107 60,87 53,110" />
<polygon fill="#d08474" fill-opacity="0.501961" points="124,83 134,99 134,87" />
<polygon fill="#605e5e" fill-opacity="0.501961" points="42,63 37,76 50,65" />
<polygon fill="#3e393b" fill-opacity="0.501961" points="211,-15 183,8 146,-15" />
<polygon fill="#7388b0" fill-opacity="0.501961" points="-9,-16 3,-16 10,20" />
<polygon fill="#b5b3c0" fill-opacity="0.501961" points="202,51 210,55 203,57" />
<polygon fill="#323650" fill-opacity="0.501961" points="-16,51 9,105 -3,32" />
<polygon fill="#6f3b38" fill-opacity="0.501961" points="136,109 124,91 148,112" />
<polygon fill="#323537" fill-opacity="0.501961" points="204,120 188,116 188,125" />
<polygon fill="#141414" fill-opacity="0.501961" points="109,63 96,71 109,71" />
<polygon fill="#8e9da0" fill-opacity="0.501961" points="82,53 84,47 78,52" />
<polygon fill="#8e877f" fill-opacity="0.501961" points="204,89 194,78 206,79" />
<polygon fill="#13171a" fill-opacity="0.501961" points="241,53 233,57 241,59" />
<polygon fill="#383638" fill-opacity="0.501961" points="165,33 174,52 118,47" />
<polygon fill="#4c596d" fill-opacity="0.501961" points="52,29 52,43 44,32" />
<polygon fill="#8b8782" fill-opacity="0.501961" points="58,42 46,58 45,46" />
<polygon fill="#1b1a1a" fill-opacity="0.501961" points="209,110 213,97 214,119" />
<polygon fill="#404768" fill-opacity="0.501961" points="32,95 27,87 27,109" />
<polygon fill="#3e2d24" fill-opacity="0.501961" points="254,82 237,83 271,104" />
<polygon fill="#504a36" fill-opacity="0.501961" points="-15,134 2,109 -16,91" />
<polygon fill="#453523" fill-opacity="0.501961" points="101,60 112,45 83,43" />
<polygon fill="#55423d" fill-opacity="0.501961" points="214,71 205,75 214,99" />
<polygon fill="#212129" fill-opacity="0.501961" points="176,110 191,101 188,77" />
<polygon fill="#b5bdc6" fill-opacity="0.501961" points="50,5 54,-16 57,14" />
<polygon fill="#56616d" fill-opacity="0.501961" points="38,34 46,34 41,56" />
<polygon fill="#8e4a45" fill-opacity="0.501961" points="130,102 135,116 97,97" />
<polygon fill="#616364" fill-opacity="0.501961" points="191,2 190,29 213,2" />
<polygon fill="#65737b" fill-opacity="0.501961" points="82,16 75,19 75,31" />
<polygon fill="#904e47" fill-opacity="0.501961" points="71,77 56,90 67,85" />
<polygon fill="#474d80" fill-opacity="0.501961" points="18,74 15,85 -2,53" />
<polygon fill="#a95a51" fill-opacity="0.501961" points="84,80 70,86 76,81" />
<polygon fill="#c9d1d8" fill-opacity="0.501961" points="30,21 35,-16 27,-2" />
<polygon fill="#3d3c3e" fill-opacity="0.501961" points="200,111 195,89 192,107" />
<polygon fill="#9e524d" fill-opacity="0.501961" points="129,95 140,101 136,105" />
<polygon fill="#202538" fill-opacity="0.501961" points="19,106 24,89 28,107" />
<polygon fill="#484955" fill-opacity="0.501961" points="91,3 86,21 84,0" />
<polygon fill="#808c9c" fill-opacity="0.501961" points="73,13 73,0 80,19" />
<polygon fill="#95adc8" fill-opacity="0.501961" points="21,12 10,15 27,18" />
<polygon fill="#747081" fill-opacity="0.501961" points="193,53 196,53 193,63" />
<polygon fill="#2f2f30" fill-opacity="0.501961" points="39,113 17,123 9,159" />
<polygon fill="#4c484c" fill-opacity="0.501961" points="263,60 249,47 259,64" />
<polygon fill="#7b3f3c" fill-opacity="0.501961" points="108,79 122,87 116,79" />
<polygon fill="#1f1d1b" fill-opacity="0.501961" points="59,85 64,81 58,77" />
<polygon fill="#cc7c6e" fill-opacity="0.501961" points="115,87 86,73 109,77" />
<polygon fill="#69615b" fill-opacity="0.501961" points="203,102 207,96 196,87" />
<polygon fill="#6f7893" fill-opacity="0.501961" points="126,136 128,129 128,138" />
<polygon fill="#3e3c44" fill-opacity="0.501961" points="67,53 62,64 65,43" />
<polygon fill="#383538" fill-opacity="0.501961" points="227,122 234,143 235,121" />
<polygon fill="#6b6257" fill-opacity="0.501961" points="18,63 25,74 27,57" />
<polygon fill="#656869" fill-opacity="0.501961" points="166,30 155,33 162,15" />
<polygon fill="#27140e" fill-opacity="0.501961" points="207,139 195,126 191,159" />
<polygon fill="#6e7674" fill-opacity="0.501961" points="59,77 66,68 60,71" />
<polygon fill="#252424" fill-opacity="0.501961" points="44,70 38,78 54,66" />
<polygon fill="#bbaa8c" fill-opacity="0.501961" points="186,44 186,35 183,42" />
<polygon fill="#b96960" fill-opacity="0.501961" points="82,73 73,79 77,73" />
<polygon fill="#3f3124" fill-opacity="0.501961" points="92,74 104,57 87,62" />
<polygon fill="#3c383b" fill-opacity="0.501961" points="182,32 246,39 215,54" />
<polygon fill="#353437" fill-opacity="0.501961" points="29,95 30,116 50,99" />
<polygon fill="#6d7bbb" fill-opacity="0.501961" points="19,67 23,79 25,75" />
<polygon fill="#81888e" fill-opacity="0.501961" points="85,35 83,-1 77,21" />
<polygon fill="#616566" fill-opacity="0.501961" points="178,15 160,20 178,7" />
<polygon fill="#3d4040" fill-opacity="0.501961" points="236,26 225,-16 252,8" />
<polygon fill="#4b5163" fill-opacity="0.501961" points="211,65 209,60 203,64" />
<polygon fill="#c1b093" fill-opacity="0.501961" points="188,38 183,40 189,41" />
<polygon fill="#3d3b40" fill-opacity="0.501961" points="154,23 161,40 127,43" />
<polygon fill="#1b211a" fill-opacity="0.501961" points="167,40 167,29 188,31" />
<polygon fill="#4d3f33" fill-opacity="0.501961" points="11,113 6,127 13,123" />
<polygon fill="#5762a4" fill-opacity="0.501961" points="30,85 30,90 22,79" />
<polygon fill="#989c9c" fill-opacity="0.501961" points="82,34 74,40 79,23" />
<polygon fill="#67718b" fill-opacity="0.501961" points="-9,18 7,14 16,40" />
<polygon fill="#121212" fill-opacity="0.501961" points="48,132 59,159 47,144" />
<polygon fill="#242526" fill-opacity="0.501961" points="210,120 221,139 224,117" />
<polygon fill="#2a2f49" fill-opacity="0.501961" points="21,89 11,101 18,82" />
<polygon fill="#4c382c" fill-opacity="0.501961" points="248,159 253,119 227,117" />
<polygon fill="#4b5158" fill-opacity="0.501961" points="77,41 76,39 83,36" />
<polygon fill="#868582" fill-opacity="0.501961" points="52,44 45,58 41,48" />
<polygon fill="#2e2b37" fill-opacity="0.501961" points="175,17 174,30 166,21" />
<polygon fill="#4f525a" fill-opacity="0.501961" points="77,56 62,59 76,46" />
<polygon fill="#512e2b" fill-opacity="0.501961" points="54,97 89,120 47,121" />
<polygon fill="#afc9df" fill-opacity="0.501961" points="13,9 9,-8 14,-2" />
<polygon fill="#29282f" fill-opacity="0.501961" points="189,71 177,85 178,32" />
<polygon fill="#262526" fill-opacity="0.501961" points="224,29 225,38 258,32" />
<polygon fill="#9da0a7" fill-opacity="0.501961" points="54,51 61,51 54,56" />
<polygon fill="#4f4c4f" fill-opacity="0.501961" points="34,84 44,84 55,65" />
<polygon fill="#868a8f" fill-opacity="0.501961" points="52,44 55,28 58,52" />
<polygon fill="#3d393d" fill-opacity="0.501961" points="188,21 177,18 188,-11" />
<polygon fill="#3e424c" fill-opacity="0.501961" points="-2,78 0,21 -16,69" />
<polygon fill="#743d3a" fill-opacity="0.501961" points="77,91 84,83 67,92" />
<polygon fill="#301e1c" fill-opacity="0.501961" points="102,145 137,138 127,154" />
<polygon fill="#525251" fill-opacity="0.501961" points="255,29 254,21 226,28" />
<polygon fill="#4a4543" fill-opacity="0.501961" points="197,102 209,101 202,109" />
<polygon fill="#adaab6" fill-opacity="0.501961" points="206,59 195,52 209,52" />
<polygon fill="#9ba1aa" fill-opacity="0.501961" points="30,28 37,53 39,38" />
<polygon fill="#3e2a1e" fill-opacity="0.501961" points="201,123 201,129 185,122" />
<polygon fill="#7d7c78" fill-opacity="0.501961" points="33,68 33,51 29,59" />
<polygon fill="#3c2b22" fill-opacity="0.501961" points="150,96 172,159 144,124" />
<polygon fill="#2a2825" fill-opacity="0.501961" points="30,84 40,80 41,73" />
<polygon fill="#8698ba" fill-opacity="0.501961" points="38,24 51,12 38,14" />
<polygon fill="#191513" fill-opacity="0.501961" points="106,159 94,159 104,134" />
<polygon fill="#92a6c4" fill-opacity="0.501961" points="70,17 63,3 66,18" />
<polygon fill="#8495ad" fill-opacity="0.501961" points="64,20 63,12 72,21" />
<polygon fill="#110f11" fill-opacity="0.501961" points="211,106 206,119 200,114" />
<polygon fill="#201715" fill-opacity="0.501961" points="118,73 165,80 160,67" />
<polygon fill="#363135" fill-opacity="0.501961" points="209,37 226,38 215,8" />
<polygon fill="#464345" fill-opacity="0.501961" points="37,81 57,74 32,95" />
<polygon fill="#9d9fa2" fill-opacity="0.501961" points="42,67 39,46 35,66" />
<polygon fill="#495083" fill-opacity="0.501961" points="24,88 28,84 29,101" />
<polygon fill="#908981" fill-opacity="0.501961" points="205,66 207,73 210,68" />
<polygon fill="#2e201d" fill-opacity="0.501961" points="138,136 139,123 152,147" />
<polygon fill="#8b9ab3" fill-opacity="0.501961" points="136,138 122,130 118,135" />
<polygon fill="#683734" fill-opacity="0.501961" points="125,87 118,84 127,94" />
<polygon fill="#2c282b" fill-opacity="0.501961" points="191,1 225,1 213,-5" />
<polygon fill="#25211e" fill-opacity="0.501961" points="223,68 271,68 256,80" />
<polygon fill="#657491" fill-opacity="0.501961" points="32,39 27,28 6,28" />
<polygon fill="#3e4047" fill-opacity="0.501961" points="89,25 93,40 79,47" />
<polygon fill="#2d2d37" fill-opacity="0.501961" points="93,21 92,0 104,-16" />
</g>
</svg>