<svg xmlns="http://www.w3.org/2000/svg" version="1.1" width="1024" height="576">
<rect x="0" y="0" width="1024" height="576" fill="#4f5052" />
<g transform="scale(4.000000) translate(0.5 0.5)">
<polygon fill="#000000" fill-opacity="0.501961" points="252,-16 271,159 106,61" />
<polygon fill="#b5bdc1" fill-opacity="0.501961" points="166,119 -14,159 91,55" />
<polygon fill="#ffffff" fill-opacity="0.501961" points="-16,50 6,-16 74,5" />
<polygon fill="#bbb9c3" fill-opacity="0.501961" points="194,-16 138,50 0,-13" />
<polygon fill="#000000" fill-opacity="0.501961" points="78,13 14,31 54,127" />
<polygon fill="#ffffff" fill-opacity="0.501961" points="6,42 -3,78 28,72" />
<polygon fill="#000000" fill-opacity="0.501961" points="182,-16 150,127 271,34" />
<polygon fill="#d0cfc6" fill-opacity="0.501961" points="123,151 17,154 27,98" />
<polygon fill="#8d8c8a" fill-opacity="0.501961" points="134,159 271,95 199,102" />
<polygon fill="#000411" fill-opacity="0.501961" points="107,81 95,110 60,88" />
<polygon fill="#d3d4dd" fill-opacity="0.501961" points="171,-16 116,-16 157,40" />
<polygon fill="#c1cbd7" fill-opacity="0.501961" points="141,114 151,87 81,62" />
<polygon fill="#090809" fill-opacity="0.501961" points="109,50 1,112 45,15" />
<polygon fill="#373535" fill-opacity="0.501961" points="174,54 135,55 89,-16" />
<polygon fill="#d9dae5" fill-opacity="0.501961" points="3,-16 66,-5 -3,49" />
<polygon fill="#f1ffff" fill-opacity="0.501961" points="96,64 110,75 57,79" />
<polygon fill="#2d261e" fill-opacity="0.501961" points="99,136 140,105 111,110" />
<polygon fill="#a6a7af" fill-opacity="0.501961" points="97,48 123,34 77,-16" />
<polygon fill="#f5f4f8" fill-opacity="0.501961" points="35,98 45,120 13,109" />
<polygon fill="#c6c8c2" fill-opacity="0.501961" points="-16,102 10,159 2,103" />
<polygon fill="#121215" fill-opacity="0.501961" points="128,95 139,47 108,44" />
<polygon fill="#000000" fill-opacity="0.501961" points="-5,80 10,115 16,77" />
<polygon fill="#010101" fill-opacity="0.501961" points="57,55 -6,49 33,34" />
<polygon fill="#15120f" fill-opacity="0.501961" points="204,121 190,159 271,130" />
<polygon fill="#d8dce0" fill-opacity="0.501961" points="98,119 136,91 91,108" />
<polygon fill="#86868a" fill-opacity="0.501961" points="213,127 243,79 245,104" />
<polygon fill="#8f9199" fill-opacity="0.501961" points="52,94 68,123 89,46" />
<polygon fill="#484542" fill-opacity="0.501961" points="45,140 62,102 31,136" />
<polygon fill="#cbcbd6" fill-opacity="0.501961" points="-16,60 39,80 16,53" />
<polygon fill="#0a0909" fill-opacity="0.501961" points="200,-5 269,5 258,117" />
<polygon fill="#263440" fill-opacity="0.501961" points="76,112 64,85 109,79" />
<polygon fill="#b8b9c0" fill-opacity="0.501961" points="199,124 214,97 187,117" />
<polygon fill="#b8b9c1" fill-opacity="0.501961" points="90,33 87,15 63,8" />
<polygon fill="#272423" fill-opacity="0.501961" points="248,88 149,126 147,86" />
<polygon fill="#efe8e9" fill-opacity="0.501961" points="107,78 109,110 121,76" />
<polygon fill="#141313" fill-opacity="0.501961" points="76,70 87,30 21,19" />
<polygon fill="#383939" fill-opacity="0.501961" points="154,155 119,82 133,159" />
<polygon fill="#151312" fill-opacity="0.501961" points="236,100 232,76 203,123" />
<polygon fill="#b8c8cc" fill-opacity="0.501961" points="105,156 85,159 84,98" />
<polygon fill="#78746d" fill-opacity="0.501961" points="105,89 95,159 139,159" />
<polygon fill="#5d5b5f" fill-opacity="0.501961" points="110,37 68,-16 65,4" />
<polygon fill="#e1eae5" fill-opacity="0.501961" points="182,46 186,42 184,53" />
<polygon fill="#101010" fill-opacity="0.501961" points="159,23 271,90 215,-16" />
<polygon fill="#e2f6ff" fill-opacity="0.501961" points="80,69 75,92 93,65" />
<polygon fill="#cac7c7" fill-opacity="0.501961" points="75,128 72,99 54,97" />
<polygon fill="#535e63" fill-opacity="0.501961" points="80,108 71,155 93,115" />
<polygon fill="#101214" fill-opacity="0.501961" points="103,61 17,38 21,67" />
<polygon fill="#9da1a6" fill-opacity="0.501961" points="147,136 121,86 150,77" />
<polygon fill="#5a5752" fill-opacity="0.501961" points="-11,155 28,133 18,122" />
<polygon fill="#dce3dc" fill-opacity="0.501961" points="70,125 48,127 62,158" />
<polygon fill="#181414" fill-opacity="0.501961" points="40,105 64,120 28,54" />
<polygon fill="#7e7d84" fill-opacity="0.501961" points="165,14 131,40 158,41" />
<polygon fill="#000000" fill-opacity="0.501961" points="56,96 65,87 70,91" />
<polygon fill="#505256" fill-opacity="0.501961" points="154,81 137,68 151,122" />
<polygon fill="#1a1819" fill-opacity="0.501961" points="120,42 109,75 176,63" />
<polygon fill="#111010" fill-opacity="0.501961" points="269,115 243,159 231,108" />
<polygon fill="#767578" fill-opacity="0.501961" points="240,77 248,97 215,128" />
<polygon fill="#96969c" fill-opacity="0.501961" points="23,16 7,41 47,15" />
<polygon fill="#e5f1f7" fill-opacity="0.501961" points="139,85 121,99 139,97" />
<polygon fill="#7f7e7a" fill-opacity="0.501961" points="184,107 172,159 149,136" />
<polygon fill="#1a191a" fill-opacity="0.501961" points="128,65 231,102 245,34" />
<polygon fill="#37424f" fill-opacity="0.501961" points="104,79 104,102 88,76" />
<polygon fill="#d6dbd6" fill-opacity="0.501961" points="94,125 85,119 90,153" />
<polygon fill="#181717" fill-opacity="0.501961" points="120,86 131,53 176,30" />
<polygon fill="#322e29" fill-opacity="0.501961" points="171,157 189,115 185,159" />
<polygon fill="#a4a5ae" fill-opacity="0.501961" points="106,17 124,29 98,47" />
<polygon fill="#bbbcc2" fill-opacity="0.501961" points="199,-16 160,19 108,-6" />
<polygon fill="#484547" fill-opacity="0.501961" points="133,36 79,-16 124,4" />
<polygon fill="#dfe0e3" fill-opacity="0.501961" points="10,17 74,-16 -16,2" />
<polygon fill="#1b1a19" fill-opacity="0.501961" points="182,104 216,72 186,121" />
<polygon fill="#373332" fill-opacity="0.501961" points="23,117 22,111 26,105" />
<polygon fill="#100d0e" fill-opacity="0.501961" points="24,74 37,94 18,105" />
<polygon fill="#929088" fill-opacity="0.501961" points="112,133 123,137 136,111" />
<polygon fill="#868986" fill-opacity="0.501961" points="180,126 200,122 194,140" />
<polygon fill="#181717" fill-opacity="0.501961" points="109,53 61,14 40,38" />
<polygon fill="#e9e8e9" fill-opacity="0.501961" points="45,121 24,119 48,109" />
<polygon fill="#1a1818" fill-opacity="0.501961" points="49,15 -2,51 69,37" />
<polygon fill="#66666a" fill-opacity="0.501961" points="134,6 152,37 128,53" />
<polygon fill="#92939a" fill-opacity="0.501961" points="123,19 113,-6 100,-8" />
<polygon fill="#a5ab9e" fill-opacity="0.501961" points="41,35 37,40 43,40" />
<polygon fill="#d0d1db" fill-opacity="0.501961" points="18,77 10,51 -16,66" />
<polygon fill="#c8cdc6" fill-opacity="0.501961" points="29,159 11,133 69,154" />
<polygon fill="#b0b1b6" fill-opacity="0.501961" points="214,104 192,114 191,126" />
<polygon fill="#b1b2bb" fill-opacity="0.501961" points="57,-6 12,-13 92,25" />
<polygon fill="#1e1a1a" fill-opacity="0.501961" points="20,128 5,83 4,112" />
<polygon fill="#cecac8" fill-opacity="0.501961" points="105,119 119,76 120,101" />
<polygon fill="#b5b7bf" fill-opacity="0.501961" points="83,9 64,-16 104,11" />
<polygon fill="#9e9da1" fill-opacity="0.501961" points="33,86 31,68 26,70" />
<polygon fill="#747476" fill-opacity="0.501961" points="162,12 159,29 185,-3" />
<polygon fill="#545755" fill-opacity="0.501961" points="129,128 86,117 103,133" />
<polygon fill="#a7a8a7" fill-opacity="0.501961" points="-16,129 12,120 -16,113" />
<polygon fill="#2e2a24" fill-opacity="0.501961" points="10,136 -16,156 30,159" />
<polygon fill="#305776" fill-opacity="0.501961" points="113,67 101,56 74,63" />
<polygon fill="#989599" fill-opacity="0.501961" points="55,97 62,75 77,70" />
<polygon fill="#302e30" fill-opacity="0.501961" points="150,53 118,40 68,63" />
<polygon fill="#121011" fill-opacity="0.501961" points="241,134 271,118 256,47" />
<polygon fill="#acb0af" fill-opacity="0.501961" points="6,140 1,98 -16,131" />
<polygon fill="#3a4046" fill-opacity="0.501961" points="131,99 131,115 109,115" />
<polygon fill="#1f1d1e" fill-opacity="0.501961" points="225,109 240,87 174,46" />
<polygon fill="#141313" fill-opacity="0.501961" points="64,84 36,90 36,34" />
<polygon fill="#162025" fill-opacity="0.501961" points="95,89 78,93 98,107" />
<polygon fill="#191514" fill-opacity="0.501961" points="58,91 60,98 75,83" />
<polygon fill="#080505" fill-opacity="0.501961" points="-7,103 5,75 13,81" />
<polygon fill="#4b4746" fill-opacity="0.501961" points="64,94 59,117 40,132" />
<polygon fill="#4d4844" fill-opacity="0.501961" points="144,139 178,115 151,115" />
<polygon fill="#232121" fill-opacity="0.501961" points="212,145 249,159 238,101" />
<polygon fill="#c6cdc8" fill-opacity="0.501961" points="46,136 46,126 58,123" />
<polygon fill="#0e0d0d" fill-opacity="0.501961" points="215,47 216,-16 160,29" />
<polygon fill="#9ca19f" fill-opacity="0.501961" points="26,140 25,104 39,133" />
<polygon fill="#97979e" fill-opacity="0.501961" points="233,83 243,79 235,87" />
<polygon fill="#a3a5a9" fill-opacity="0.501961" points="174,122 181,121 182,107" />
<polygon fill="#94959c" fill-opacity="0.501961" points="135,7 161,36 151,40" />
<polygon fill="#cfcfce" fill-opacity="0.501961" points="21,115 13,111 16,106" />
<polygon fill="#9a9ba0" fill-opacity="0.501961" points="247,110 236,101 240,90" />
<polygon fill="#c6c7cd" fill-opacity="0.501961" points="82,118 63,105 65,95" />
<polygon fill="#312c29" fill-opacity="0.501961" points="124,131 137,121 153,159" />
<polygon fill="#436f92" fill-opacity="0.501961" points="88,75 103,76 69,95" />
<polygon fill="#909097" fill-opacity="0.501961" points="100,44 84,28 137,37" />
<polygon fill="#6c6b63" fill-opacity="0.501961" points="159,50 168,57 165,43" />
<polygon fill="#262d34" fill-opacity="0.501961" points="80,115 86,91 70,93" />
<polygon fill="#9f9e9a" fill-opacity="0.501961" points="75,126 82,115 58,117" />
<polygon fill="#5c5c5f" fill-opacity="0.501961" points="99,34 104,26 88,13" />
<polygon fill="#1a191a" fill-opacity="0.501961" points="190,97 151,113 156,47" />
<polygon fill="#9a9a94" fill-opacity="0.501961" points="117,125 133,148 127,159" />
<polygon fill="#484442" fill-opacity="0.501961" points="110,109 131,107 115,124" />
<polygon fill="#d5dfe8" fill-opacity="0.501961" points="101,108 99,116 87,110" />
<polygon fill="#c6cfd8" fill-opacity="0.501961" points="136,89 123,97 142,106" />
<polygon fill="#373232" fill-opacity="0.501961" points="70,-9 52,-16 80,12" />
<polygon fill="#84847a" fill-opacity="0.501961" points="63,43 63,33 66,36" />
<polygon fill="#cbccd3" fill-opacity="0.501961" points="37,20 6,-16 58,8" />
<polygon fill="#909093" fill-opacity="0.501961" points="214,104 207,98 195,125" />
<polygon fill="#81a3bf" fill-opacity="0.501961" points="82,120 88,108 86,97" />
<polygon fill="#908f94" fill-opacity="0.501961" points="77,58 91,51 83,50" />
<polygon fill="#141414" fill-opacity="0.501961" points="39,108 35,68 88,37" />
<polygon fill="#3a4a56" fill-opacity="0.501961" points="155,82 127,81 144,73" />
<polygon fill="#0e0d0c" fill-opacity="0.501961" points="73,26 25,40 65,14" />
<polygon fill="#8b8d91" fill-opacity="0.501961" points="226,116 213,125 216,115" />
<polygon fill="#edeef0" fill-opacity="0.501961" points="118,75 117,82 107,77" />
<polygon fill="#4a6374" fill-opacity="0.501961" points="117,99 119,90 129,92" />
<polygon fill="#e6e7e7" fill-opacity="0.501961" points="30,122 30,103 46,119" />
<polygon fill="#bbbab0" fill-opacity="0.501961" points="82,149 82,127 100,136" />
<polygon fill="#d9d6dd" fill-opacity="0.501961" points="106,93 109,74 119,102" />
<polygon fill="#99999c" fill-opacity="0.501961" points="130,124 140,87 151,96" />
<polygon fill="#454045" fill-opacity="0.501961" points="89,93 108,102 111,97" />
<polygon fill="#504f50" fill-opacity="0.501961" points="214,118 227,128 191,124" />
<polygon fill="#b9bac2" fill-opacity="0.501961" points="-15,28 26,16 5,46" />
<polygon fill="#aaacb4" fill-opacity="0.501961" points="99,48 109,40 96,36" />
<polygon fill="#545b6d" fill-opacity="0.501961" points="103,95 109,71 101,79" />
<polygon fill="#0e0d0d" fill-opacity="0.501961" points="165,87 200,99 239,70" />
<polygon fill="#2c2728" fill-opacity="0.501961" points="6,51 2,54 -7,40" />
<polygon fill="#323030" fill-opacity="0.501961" points="14,115 1,119 9,101" />
<polygon fill="#8f8c88" fill-opacity="0.501961" points="16,89 21,87 16,84" />
<polygon fill="#353235" fill-opacity="0.501961" points="134,21 112,16 131,33" />
<polygon fill="#f5f2f2" fill-opacity="0.501961" points="77,74 105,71 92,65" />
<polygon fill="#7f7974" fill-opacity="0.501961" points="181,55 183,40 190,38" />
<polygon fill="#3b536c" fill-opacity="0.501961" points="93,120 92,112 81,113" />
<polygon fill="#11100f" fill-opacity="0.501961" points="195,37 201,-16 154,50" />
<polygon fill="#cbd0cb" fill-opacity="0.501961" points="72,127 45,132 78,137" />
<polygon fill="#645f5b" fill-opacity="0.501961" points="51,141 43,142 40,129" />
<polygon fill="#484643" fill-opacity="0.501961" points="105,154 109,131 101,117" />
<polygon fill="#0f0f0f" fill-opacity="0.501961" points="96,39 15,45 30,70" />
<polygon fill="#5f584d" fill-opacity="0.501961" points="77,125 79,139 85,138" />
<polygon fill="#696263" fill-opacity="0.501961" points="38,105 34,96 49,110" />
<polygon fill="#0a1116" fill-opacity="0.501961" points="108,61 113,73 132,75" />
<polygon fill="#b0b3b3" fill-opacity="0.501961" points="227,104 231,111 233,105" />
<polygon fill="#a9aab1" fill-opacity="0.501961" points="78,73 65,75 57,92" />
<polygon fill="#2b2724" fill-opacity="0.501961" points="18,125 6,126 24,110" />
<polygon fill="#a8a2a1" fill-opacity="0.501961" points="123,89 106,101 114,85" />
<polygon fill="#bcbabc" fill-opacity="0.501961" points="138,101 150,121 138,115" />
<polygon fill="#2f2d2d" fill-opacity="0.501961" points="216,118 218,100 212,92" />
<polygon fill="#c5c6ce" fill-opacity="0.501961" points="137,-16 144,14 170,9" />
<polygon fill="#c4c3c6" fill-opacity="0.501961" points="65,112 56,103 56,93" />
<polygon fill="#e7e4ea" fill-opacity="0.501961" points="103,104 102,112 99,100" />
<polygon fill="#252222" fill-opacity="0.501961" points="13,78 23,72 38,90" />
<polygon fill="#a9b1b1" fill-opacity="0.501961" points="163,55 166,53 163,48" />
<polygon fill="#2c2f34" fill-opacity="0.501961" points="81,48 84,65 61,76" />
<polygon fill="#2d292b" fill-opacity="0.501961" points="200,61 239,67 197,75" />
<polygon fill="#252122" fill-opacity="0.501961" points="95,46 84,25 63,34" />
<polygon fill="#1a1a1b" fill-opacity="0.501961" points="141,46 191,63 146,79" />
<polygon fill="#88878c" fill-opacity="0.501961" points="21,15 36,20 22,31" />
<polygon fill="#302e2e" fill-opacity="0.501961" points="148,102 152,118 190,105" />
<polygon fill="#dadddd" fill-opacity="0.501961" points="108,106 118,98 121,107" />
<polygon fill="#767776" fill-opacity="0.501961" points="7,134 30,120 25,132" />
<polygon fill="#1a1f23" fill-opacity="0.501961" points="133,78 124,74 121,86" />
<polygon fill="#0f0f10" fill-opacity="0.501961" points="196,29 166,83 196,91" />
<polygon fill="#9b9da2" fill-opacity="0.501961" points="121,4 132,15 137,3" />
<polygon fill="#302d2c" fill-opacity="0.501961" points="55,117 31,90 60,106" />
<polygon fill="#2a2829" fill-opacity="0.501961" points="194,57 235,52 219,45" />
<polygon fill="#44413f" fill-opacity="0.501961" points="181,159 184,101 191,130" />
<polygon fill="#f8f6f6" fill-opacity="0.501961" points="108,117 106,116 105,121" />
<polygon fill="#0f0f0f" fill-opacity="0.501961" points="271,82 184,3 271,6" />
<polygon fill="#5f686e" fill-opacity="0.501961" points="118,60 119,64 124,57" />
<polygon fill="#a5a5ac" fill-opacity="0.501961" points="79,15 79,29 72,11" />
<polygon fill="#636567" fill-opacity="0.501961" points="149,82 154,103 136,76" />
<polygon fill="#2b292a" fill-opacity="0.501961" points="89,55 96,44 93,36" />
<polygon fill="#494540" fill-opacity="0.501961" points="170,146 142,159 146,135" />
<polygon fill="#32393e" fill-opacity="0.501961" points="120,105 127,117 130,104" />
<polygon fill="#929695" fill-opacity="0.501961" points="197,136 188,137 201,113" />
<polygon fill="#3b3737" fill-opacity="0.501961" points="26,27 21,33 38,26" />
<polygon fill="#2c282a" fill-opacity="0.501961" points="250,96 250,83 241,86" />
<polygon fill="#eaeaee" fill-opacity="0.501961" points="116,74 107,96 109,77" />
<polygon fill="#b5b5b6" fill-opacity="0.501961" points="18,105 18,112 36,97" />
<polygon fill="#c4c4cc" fill-opacity="0.501961" points="63,94 63,111 71,94" />
<polygon fill="#c0c1c9" fill-opacity="0.501961" points="12,71 10,56 30,72" />
<polygon fill="#89888c" fill-opacity="0.501961" points="-16,98 5,108 -11,154" />
<polygon fill="#111011" fill-opacity="0.501961" points="31,100 -16,74 -8,96" />
<polygon fill="#454141" fill-opacity="0.501961" points="47,58 51,72 51,58" />
<polygon fill="#2e2c2a" fill-opacity="0.501961" points="248,159 248,134 180,141" />
<polygon fill="#c9d8e3" fill-opacity="0.501961" points="136,92 117,100 133,99" />
<polygon fill="#b4b8b5" fill-opacity="0.501961" points="37,120 40,136 22,113" />
<polygon fill="#909196" fill-opacity="0.501961" points="238,91 244,111 244,91" />
<polygon fill="#56534f" fill-opacity="0.501961" points="42,129 39,124 58,117" />
<polygon fill="#979894" fill-opacity="0.501961" points="69,112 71,128 52,123" />
<polygon fill="#5e90b7" fill-opacity="0.501961" points="108,69 90,64 100,61" />
<polygon fill="#434a4c" fill-opacity="0.501961" points="75,131 85,122 83,118" />
<polygon fill="#262929" fill-opacity="0.501961" points="99,104 91,108 95,91" />
<polygon fill="#706f6f" fill-opacity="0.501961" points="172,11 182,1 172,-16" />
<polygon fill="#c9c9cc" fill-opacity="0.501961" points="3,101 -10,96 -6,106" />
<polygon fill="#e6e5e4" fill-opacity="0.501961" points="35,114 47,112 48,121" />
<polygon fill="#9a9ba3" fill-opacity="0.501961" points="86,29 80,13 106,38" />
<polygon fill="#6d6d71" fill-opacity="0.501961" points="145,35 121,31 134,48" />
<polygon fill="#141313" fill-opacity="0.501961" points="199,10 174,9 180,51" />
<polygon fill="#909194" fill-opacity="0.501961" points="1,41 -16,61 -1,-4" />
<polygon fill="#414b56" fill-opacity="0.501961" points="93,55 110,60 110,72" />
<polygon fill="#bbbcc5" fill-opacity="0.501961" points="55,17 64,3 32,4" />
<polygon fill="#0c0c0c" fill-opacity="0.501961" points="26,73 21,82 31,94" />
<polygon fill="#454342" fill-opacity="0.501961" points="160,111 150,125 175,126" />
<polygon fill="#aeb4c0" fill-opacity="0.501961" points="64,77 70,83 81,74" />
<polygon fill="#898b8b" fill-opacity="0.501961" points="179,121 173,138 186,123" />
<polygon fill="#312d2e" fill-opacity="0.501961" points="100,-4 121,22 109,17" />
<polygon fill="#0c0b0b" fill-opacity="0.501961" points="130,58 121,55 122,76" />
<polygon fill="#5e5c60" fill-opacity="0.501961" points="134,8 130,38 142,30" />
<polygon fill="#4e7a9c" fill-opacity="0.501961" points="82,80 92,76 79,88" />
<polygon fill="#606170" fill-opacity="0.501961" points="101,101 110,95 111,103" />
<polygon fill="#b9beb7" fill-opacity="0.501961" points="7,133 -16,119 -16,156" />
<polygon fill="#aaa8ad" fill-opacity="0.501961" points="34,80 31,79 28,81" />
<polygon fill="#585556" fill-opacity="0.501961" points="74,108 69,91 77,95" />
<polygon fill="#9b9ca3" fill-opacity="0.501961" points="115,42 118,28 127,32" />
<polygon fill="#393435" fill-opacity="0.501961" points="123,41 148,62 106,43" />
<polygon fill="#8c8d89" fill-opacity="0.501961" points="173,159 158,137 163,129" />
<polygon fill="#3b3735" fill-opacity="0.501961" points="161,35 158,56 164,47" />
<polygon fill="#313030" fill-opacity="0.501961" points="194,114 180,104 193,98" />
<polygon fill="#afbdc1" fill-opacity="0.501961" points="102,128 81,131 87,121" />
<polygon fill="#eef2f5" fill-opacity="0.501961" points="106,74 103,76 94,68" />
<polygon fill="#8f8c7f" fill-opacity="0.501961" points="108,134 114,123 138,118" />
<polygon fill="#acacaa" fill-opacity="0.501961" points="150,118 134,105 145,127" />
<polygon fill="#363232" fill-opacity="0.501961" points="32,66 20,59 32,72" />
<polygon fill="#dce5eb" fill-opacity="0.501961" points="89,65 78,83 99,67" />
<polygon fill="#615e5f" fill-opacity="0.501961" points="19,116 27,104 26,112" />
<polygon fill="#919592" fill-opacity="0.501961" points="9,119 -16,152 -4,118" />
<polygon fill="#3b4855" fill-opacity="0.501961" points="92,78 86,95 100,82" />
<polygon fill="#dce0e2" fill-opacity="0.501961" points="30,112 26,102 35,101" />
<polygon fill="#262424" fill-opacity="0.501961" points="231,125 221,143 201,128" />
<polygon fill="#262425" fill-opacity="0.501961" points="245,87 216,84 198,103" />
<polygon fill="#ababb3" fill-opacity="0.501961" points="63,-16 103,20 92,-15" />
<polygon fill="#484546" fill-opacity="0.501961" points="247,111 234,113 246,106" />
<polygon fill="#747577" fill-opacity="0.501961" points="215,127 215,117 231,117" />
<polygon fill="#837d7d" fill-opacity="0.501961" points="50,111 43,111 42,107" />
<polygon fill="#6d6d70" fill-opacity="0.501961" points="119,-11 124,22 97,-10" />
<polygon fill="#312d2f" fill-opacity="0.501961" points="66,30 82,28 78,37" />
<polygon fill="#182431" fill-opacity="0.501961" points="79,105 88,89 84,81" />
<polygon fill="#212021" fill-opacity="0.501961" points="101,53 104,44 111,66" />
<polygon fill="#a7a6ad" fill-opacity="0.501961" points="32,78 21,66 26,66" />
<polygon fill="#0f0f10" fill-opacity="0.501961" points="17,46 72,65 85,38" />
<polygon fill="#464142" fill-opacity="0.501961" points="15,34 12,41 24,31" />
<polygon fill="#484444" fill-opacity="0.501961" points="191,109 200,102 205,106" />
<polygon fill="#383435" fill-opacity="0.501961" points="160,62 147,40 152,59" />
<polygon fill="#3d3a3b" fill-opacity="0.501961" points="34,22 40,22 32,27" />
<polygon fill="#87888e" fill-opacity="0.501961" points="70,11 78,9 60,-1" />
<polygon fill="#464240" fill-opacity="0.501961" points="111,111 116,116 106,129" />
<polygon fill="#c0c9cf" fill-opacity="0.501961" points="139,84 137,102 133,85" />
<polygon fill="#0e0e0f" fill-opacity="0.501961" points="51,21 32,59 66,33" />
<polygon fill="#8b8a85" fill-opacity="0.501961" points="77,137 60,153 64,142" />
<polygon fill="#5388ad" fill-opacity="0.501961" points="75,70 91,64 86,62" />
<polygon fill="#222020" fill-opacity="0.501961" points="231,102 236,94 230,75" />
<polygon fill="#464240" fill-opacity="0.501961" points="10,85 20,83 17,94" />
<polygon fill="#18191b" fill-opacity="0.501961" points="59,94 66,86 74,88" />
<polygon fill="#bdbec6" fill-opacity="0.501961" points="200,120 189,118 199,113" />
<polygon fill="#888a88" fill-opacity="0.501961" points="29,114 29,133 21,138" />
<polygon fill="#77767b" fill-opacity="0.501961" points="109,36 104,43 128,40" />
<polygon fill="#444240" fill-opacity="0.501961" points="201,122 217,113 194,146" />
<polygon fill="#64635f" fill-opacity="0.501961" points="148,117 173,159 149,137" />
<polygon fill="#77a9cb" fill-opacity="0.501961" points="87,74 79,82 99,74" />
<polygon fill="#557897" fill-opacity="0.501961" points="122,101 127,99 134,106" />
<polygon fill="#121212" fill-opacity="0.501961" points="271,117 228,118 230,133" />
<polygon fill="#3d3a3b" fill-opacity="0.501961" points="34,75 39,98 32,96" />
<polygon fill="#cdcdd5" fill-opacity="0.501961" points="20,62 -2,59 15,52" />
<polygon fill="#a6c4ca" fill-opacity="0.501961" points="41,37 39,39 42,41" />
<polygon fill="#656265" fill-opacity="0.501961" points="252,2 249,-5 271,-15" />
<polygon fill="#747579" fill-opacity="0.501961" points="112,16 99,7 117,29" />
<polygon fill="#383535" fill-opacity="0.501961" points="60,113 47,105 53,121" />
<polygon fill="#b4b4b8" fill-opacity="0.501961" points="206,108 211,108 211,100" />
<polygon fill="#262323" fill-opacity="0.501961" points="39,104 57,80 49,105" />
<polygon fill="#bfbfc8" fill-opacity="0.501961" points="155,29 144,11 153,-5" />
<polygon fill="#3b3738" fill-opacity="0.501961" points="6,110 1,105 19,100" />
<polygon fill="#0f1010" fill-opacity="0.501961" points="48,90 43,39 14,40" />
<polygon fill="#777372" fill-opacity="0.501961" points="66,113 61,115 65,120" />
<polygon fill="#b7b4b3" fill-opacity="0.501961" points="121,80 116,104 113,79" />
<polygon fill="#5e5c60" fill-opacity="0.501961" points="84,7 68,2 84,15" />
<polygon fill="#332e2d" fill-opacity="0.501961" points="60,92 65,95 52,93" />
<polygon fill="#969794" fill-opacity="0.501961" points="121,120 118,134 129,119" />
<polygon fill="#b1c7b7" fill-opacity="0.501961" points="64,39 65,36 65,40" />
<polygon fill="#100f0e" fill-opacity="0.501961" points="62,31 70,44 92,44" />
<polygon fill="#d1d2d4" fill-opacity="0.501961" points="24,125 24,112 27,115" />
<polygon fill="#b0adae" fill-opacity="0.501961" points="58,92 53,90 57,89" />
<polygon fill="#5e5f59" fill-opacity="0.501961" points="94,132 128,127 103,121" />
<polygon fill="#e7f0f9" fill-opacity="0.501961" points="85,109 88,110 85,106" />
<polygon fill="#1e1d1d" fill-opacity="0.501961" points="175,115 169,43 157,102" />
<polygon fill="#979393" fill-opacity="0.501961" points="113,86 127,86 124,90" />
<polygon fill="#161414" fill-opacity="0.501961" points="107,44 106,57 101,52" />
<polygon fill="#1d1b1c" fill-opacity="0.501961" points="221,71 236,45 244,79" />
<polygon fill="#252122" fill-opacity="0.501961" points="62,83 53,81 42,98" />
<polygon fill="#898990" fill-opacity="0.501961" points="150,26 161,39 151,38" />
<polygon fill="#cfcbd0" fill-opacity="0.501961" points="106,97 119,91 107,86" />
<polygon fill="#969a9e" fill-opacity="0.501961" points="73,110 84,117 76,119" />
<polygon fill="#423d3b" fill-opacity="0.501961" points="91,81 104,100 105,84" />
<polygon fill="#676769" fill-opacity="0.501961" points="121,95 127,89 111,97" />
<polygon fill="#595552" fill-opacity="0.501961" points="142,127 135,124 136,113" />
<polygon fill="#88898f" fill-opacity="0.501961" points="144,45 139,42 133,43" />
<polygon fill="#b6b6bd" fill-opacity="0.501961" points="31,25 32,18 29,14" />
<polygon fill="#13161b" fill-opacity="0.501961" points="113,74 110,61 140,66" />
<polygon fill="#32302f" fill-opacity="0.501961" points="222,114 208,92 227,104" />
<polygon fill="#8297c0" fill-opacity="0.501961" points="101,80 107,72 111,76" />
<polygon fill="#2c2829" fill-opacity="0.501961" points="158,52 163,20 168,34" />
<polygon fill="#b0b1a9" fill-opacity="0.501961" points="91,144 81,126 84,139" />
<polygon fill="#808082" fill-opacity="0.501961" points="195,108 202,107 207,117" />
<polygon fill="#c1c2cb" fill-opacity="0.501961" points="19,69 8,49 13,77" />
<polygon fill="#201f20" fill-opacity="0.501961" points="163,53 127,47 152,82" />
<polygon fill="#262424" fill-opacity="0.501961" points="17,126 18,114 8,113" />
<polygon fill="#c6c7cf" fill-opacity="0.501961" points="-4,79 12,50 14,65" />
<polygon fill="#565456" fill-opacity="0.501961" points="167,123 166,140 180,108" />
<polygon fill="#5a85a0" fill-opacity="0.501961" points="134,88 125,95 127,89" />
<polygon fill="#9b9ba3" fill-opacity="0.501961" points="95,29 88,21 90,35" />
<polygon fill="#b5b7c1" fill-opacity="0.501961" points="3,73 18,67 20,75" />
<polygon fill="#939693" fill-opacity="0.501961" points="36,139 12,136 37,132" />
<polygon fill="#dbd5cf" fill-opacity="0.501961" points="119,96 115,101 111,96" />
<polygon fill="#4a4945" fill-opacity="0.501961" points="16,141 5,146 3,138" />
<polygon fill="#4b4a46" fill-opacity="0.501961" points="101,140 103,125 114,117" />
<polygon fill="#908f8f" fill-opacity="0.501961" points="107,121 97,122 93,117" />
<polygon fill="#304356" fill-opacity="0.501961" points="123,85 138,74 137,80" />
<polygon fill="#b9bfba" fill-opacity="0.501961" points="61,118 47,134 62,124" />
<polygon fill="#3a3538" fill-opacity="0.501961" points="-9,61 -14,44 11,46" />
<polygon fill="#c5c1c1" fill-opacity="0.501961" points="103,112 102,115 99,113" />
<polygon fill="#737378" fill-opacity="0.501961" points="106,28 92,13 95,40" />
<polygon fill="#b0b1b9" fill-opacity="0.501961" points="21,17 9,27 22,30" />
<polygon fill="#352e2e" fill-opacity="0.501961" points="21,68 24,63 21,60" />
<polygon fill="#111010" fill-opacity="0.501961" points="15,38 38,28 37,49" />
<polygon fill="#2c5d7f" fill-opacity="0.501961" points="89,109 86,104 93,110" />
<polygon fill="#93a1a6" fill-opacity="0.501961" points="186,49 187,42 179,55" />
<polygon fill="#171a20" fill-opacity="0.501961" points="193,38 181,55 189,58" />
</g>
</svg>