<svg xmlns="http://www.w3.org/2000/svg" version="1.1" width="1024" height="576">
<rect x="0" y="0" width="1024" height="576" fill="#908a8a" />
<g transform="scale(4.000000) translate(0.5 0.5)">
<polygon fill="#ffffff" fill-opacity="0.501961" points="-16,6 260,-16 229,78" />
<polygon fill="#302812" fill-opacity="0.501961" points="-16,45 271,139 3,159" />
<polygon fill="#fffff7" fill-opacity="0.501961" points="130,93 65,117 12,95" />
<polygon fill="#000000" fill-opacity="0.501961" points="113,57 157,69 132,121" />
<polygon fill="#31220b" fill-opacity="0.501961" points="254,159 56,140 261,104" />
<polygon fill="#f7f5ff" fill-opacity="0.501961" points="254,5 38,43 20,-16" />
<polygon fill="#d1dbf1" fill-opacity="0.501961" points="89,55 21,56 30,84" />
<polygon fill="#fcffdd" fill-opacity="0.501961" points="242,116 147,95 242,89" />
<polygon fill="#22182c" fill-opacity="0.501961" points="29,41 -9,16 1,159" />
<polygon fill="#0c0400" fill-opacity="0.501961" points="107,159 17,116 -16,144" />
<polygon fill="#01000a" fill-opacity="0.501961" points="271,23 262,80 240,64" />
<polygon fill="#dadab5" fill-opacity="0.501961" points="-1,118 81,97 11,96" />
<polygon fill="#e2e5c2" fill-opacity="0.501961" points="115,109 48,107 120,87" />
<polygon fill="#44334f" fill-opacity="0.501961" points="51,57 108,44 6,40" />
<polygon fill="#000001" fill-opacity="0.501961" points="248,159 246,100 271,97" />
<polygon fill="#5d5038" fill-opacity="0.501961" points="58,106 219,120 6,159" />
<polygon fill="#816a89" fill-opacity="0.501961" points="34,0 9,38 -16,7" />
<polygon fill="#d9dbb7" fill-opacity="0.501961" points="152,107 204,110 162,89" />
<polygon fill="#1c141f" fill-opacity="0.501961" points="132,46 150,121 118,115" />
<polygon fill="#977897" fill-opacity="0.501961" points="130,46 140,69 178,48" />
<polygon fill="#d6cee3" fill-opacity="0.501961" points="90,56 256,-16 253,36" />
<polygon fill="#e3e1e8" fill-opacity="0.501961" points="142,42 25,36 28,-16" />
<polygon fill="#000004" fill-opacity="0.501961" points="16,92 -16,118 -16,11" />
<polygon fill="#9c9caa" fill-opacity="0.501961" points="82,75 15,74 18,52" />
<polygon fill="#cabcd0" fill-opacity="0.501961" points="101,80 115,11 151,14" />
<polygon fill="#3f3446" fill-opacity="0.501961" points="94,65 86,94 17,94" />
<polygon fill="#6a6670" fill-opacity="0.501961" points="135,94 192,60 198,88" />
<polygon fill="#59503e" fill-opacity="0.501961" points="138,109 154,141 271,114" />
<polygon fill="#56495c" fill-opacity="0.501961" points="61,50 116,38 98,57" />
<polygon fill="#a297a5" fill-opacity="0.501961" points="147,33 173,78 136,61" />
<polygon fill="#b7bfcb" fill-opacity="0.501961" points="242,29 240,80 195,79" />
<polygon fill="#3e3327" fill-opacity="0.501961" points="44,159 147,151 -16,102" />
<polygon fill="#e9eded" fill-opacity="0.501961" points="102,60 112,54 83,56" />
<polygon fill="#32242d" fill-opacity="0.501961" points="48,85 63,90 59,64" />
<polygon fill="#6c7072" fill-opacity="0.501961" points="146,109 154,55 160,97" />
<polygon fill="#838493" fill-opacity="0.501961" points="122,77 83,80 122,95" />
<polygon fill="#796c7f" fill-opacity="0.501961" points="241,25 236,53 255,48" />
<polygon fill="#382137" fill-opacity="0.501961" points="156,77 112,76 121,54" />
<polygon fill="#a7b0bb" fill-opacity="0.501961" points="31,89 40,56 43,89" />
<polygon fill="#68586c" fill-opacity="0.501961" points="52,48 -1,17 19,58" />
<polygon fill="#cbd5de" fill-opacity="0.501961" points="167,80 168,52 157,66" />
<polygon fill="#dadae2" fill-opacity="0.501961" points="259,-16 146,-9 223,71" />
<polygon fill="#b3a7b7" fill-opacity="0.501961" points="-12,-16 36,43 29,-15" />
<polygon fill="#c3c498" fill-opacity="0.501961" points="43,99 40,112 91,109" />
<polygon fill="#9b9aa3" fill-opacity="0.501961" points="187,98 184,30 175,64" />
<polygon fill="#a3a073" fill-opacity="0.501961" points="238,101 246,115 193,111" />
<polygon fill="#72694f" fill-opacity="0.501961" points="135,129 67,109 28,127" />
<polygon fill="#f7f8f5" fill-opacity="0.501961" points="217,102 251,91 203,91" />
<polygon fill="#8f637a" fill-opacity="0.501961" points="150,44 124,48 164,59" />
<polygon fill="#25221f" fill-opacity="0.501961" points="257,150 215,154 259,96" />
<polygon fill="#070c13" fill-opacity="0.501961" points="34,112 -16,139 8,149" />
<polygon fill="#2e2937" fill-opacity="0.501961" points="43,86 45,60 50,86" />
<polygon fill="#15171c" fill-opacity="0.501961" points="255,11 271,70 255,127" />
<polygon fill="#715d69" fill-opacity="0.501961" points="101,95 102,77 69,55" />
<polygon fill="#191619" fill-opacity="0.501961" points="129,69 122,118 148,80" />
<polygon fill="#48394b" fill-opacity="0.501961" points="58,53 -14,57 -16,35" />
<polygon fill="#6a5e49" fill-opacity="0.501961" points="226,130 180,111 113,129" />
<polygon fill="#53364b" fill-opacity="0.501961" points="112,62 134,53 113,74" />
<polygon fill="#d2ccda" fill-opacity="0.501961" points="142,42 183,3 44,42" />
<polygon fill="#1e1010" fill-opacity="0.501961" points="224,146 142,159 147,136" />
<polygon fill="#bfc4ca" fill-opacity="0.501961" points="25,71 30,54 76,57" />
<polygon fill="#6b797a" fill-opacity="0.501961" points="157,91 232,90 197,78" />
<polygon fill="#97978b" fill-opacity="0.501961" points="143,91 163,91 153,110" />
<polygon fill="#322d38" fill-opacity="0.501961" points="15,95 36,93 -10,36" />
<polygon fill="#cfb2c5" fill-opacity="0.501961" points="141,65 131,40 152,60" />
<polygon fill="#3f3b32" fill-opacity="0.501961" points="232,117 181,123 193,111" />
<polygon fill="#e6e0d0" fill-opacity="0.501961" points="77,104 44,96 106,94" />
<polygon fill="#dcdae1" fill-opacity="0.501961" points="255,34 227,-5 254,17" />
<polygon fill="#88959b" fill-opacity="0.501961" points="246,91 228,71 194,87" />
<polygon fill="#cfcbb5" fill-opacity="0.501961" points="34,107 25,95 11,103" />
<polygon fill="#7e7180" fill-opacity="0.501961" points="16,43 31,50 30,26" />
<polygon fill="#d8d8cd" fill-opacity="0.501961" points="165,106 218,96 159,91" />
<polygon fill="#705a60" fill-opacity="0.501961" points="190,67 186,97 197,90" />
<polygon fill="#cdccb9" fill-opacity="0.501961" points="120,102 88,109 115,91" />
<polygon fill="#47424d" fill-opacity="0.501961" points="159,103 154,66 141,70" />
<polygon fill="#e1e2e4" fill-opacity="0.501961" points="79,39 48,-16 19,24" />
<polygon fill="#33312d" fill-opacity="0.501961" points="129,100 167,120 105,116" />
<polygon fill="#585345" fill-opacity="0.501961" points="39,107 19,111 39,134" />
<polygon fill="#39273a" fill-opacity="0.501961" points="271,67 247,45 245,66" />
<polygon fill="#c4cbd3" fill-opacity="0.501961" points="47,57 54,69 47,77" />
<polygon fill="#3c2c1e" fill-opacity="0.501961" points="103,159 164,137 52,131" />
<polygon fill="#56444a" fill-opacity="0.501961" points="181,90 170,89 172,69" />
<polygon fill="#4e4152" fill-opacity="0.501961" points="99,45 100,55 77,54" />
<polygon fill="#c7c3d2" fill-opacity="0.501961" points="156,49 103,17 259,26" />
<polygon fill="#887a8b" fill-opacity="0.501961" points="-1,7 25,10 3,29" />
<polygon fill="#585241" fill-opacity="0.501961" points="252,129 230,124 245,103" />
<polygon fill="#eceef1" fill-opacity="0.501961" points="237,47 210,39 182,47" />
<polygon fill="#c3c2c5" fill-opacity="0.501961" points="91,64 88,57 106,51" />
<polygon fill="#c4cad2" fill-opacity="0.501961" points="197,73 184,43 245,54" />
<polygon fill="#b97595" fill-opacity="0.501961" points="149,52 113,51 130,46" />
<polygon fill="#bfc5cc" fill-opacity="0.501961" points="58,58 75,55 65,74" />
<polygon fill="#4c4638" fill-opacity="0.501961" points="71,122 104,114 52,112" />
<polygon fill="#968c96" fill-opacity="0.501961" points="82,69 64,78 65,71" />
<polygon fill="#636266" fill-opacity="0.501961" points="104,94 91,93 101,81" />
<polygon fill="#42353c" fill-opacity="0.501961" points="52,90 67,82 57,64" />
<polygon fill="#80848c" fill-opacity="0.501961" points="19,57 41,87 32,91" />
<polygon fill="#dadbce" fill-opacity="0.501961" points="223,106 255,92 186,91" />
<polygon fill="#58515d" fill-opacity="0.501961" points="46,62 41,48 46,44" />
<polygon fill="#656165" fill-opacity="0.501961" points="198,85 193,97 191,81" />
<polygon fill="#757f87" fill-opacity="0.501961" points="250,99 239,63 255,76" />
<polygon fill="#8f8d70" fill-opacity="0.501961" points="65,113 37,104 5,113" />
<polygon fill="#736676" fill-opacity="0.501961" points="116,40 88,39 97,55" />
<polygon fill="#bacad0" fill-opacity="0.501961" points="101,68 108,60 107,81" />
<polygon fill="#b1af88" fill-opacity="0.501961" points="74,108 110,110 97,103" />
<polygon fill="#90929d" fill-opacity="0.501961" points="172,64 168,88 149,79" />
<polygon fill="#d6d5d1" fill-opacity="0.501961" points="106,92 126,93 95,103" />
<polygon fill="#575a5b" fill-opacity="0.501961" points="86,85 76,95 43,86" />
<polygon fill="#7d7687" fill-opacity="0.501961" points="69,39 40,40 56,47" />
<polygon fill="#b2b08c" fill-opacity="0.501961" points="231,115 250,99 181,107" />
<polygon fill="#e5e5e7" fill-opacity="0.501961" points="40,10 71,-16 138,49" />
<polygon fill="#3c3836" fill-opacity="0.501961" points="36,108 18,130 45,117" />
<polygon fill="#acacb6" fill-opacity="0.501961" points="183,10 186,86 173,48" />
<polygon fill="#b4b7bc" fill-opacity="0.501961" points="241,59 243,45 198,49" />
<polygon fill="#4f483b" fill-opacity="0.501961" points="155,107 191,119 121,121" />
<polygon fill="#4c4550" fill-opacity="0.501961" points="153,51 159,56 155,60" />
<polygon fill="#726474" fill-opacity="0.501961" points="248,58 245,30 240,40" />
<polygon fill="#847782" fill-opacity="0.501961" points="259,27 251,2 262,-15" />
<polygon fill="#afa8b6" fill-opacity="0.501961" points="259,50 244,35 246,21" />
<polygon fill="#8d7178" fill-opacity="0.501961" points="82,78 76,54 69,69" />
<polygon fill="#898b8b" fill-opacity="0.501961" points="115,83 121,105 121,79" />
<polygon fill="#cbc7c4" fill-opacity="0.501961" points="76,65 73,64 75,75" />
<polygon fill="#766d54" fill-opacity="0.501961" points="197,119 174,126 211,126" />
<polygon fill="#4a4248" fill-opacity="0.501961" points="125,97 118,89 129,76" />
<polygon fill="#cbd0d8" fill-opacity="0.501961" points="165,71 162,54 176,52" />
<polygon fill="#75684d" fill-opacity="0.501961" points="155,120 158,135 104,123" />
<polygon fill="#0b0c11" fill-opacity="0.501961" points="248,119 252,103 271,126" />
<polygon fill="#8d8a70" fill-opacity="0.501961" points="153,109 141,105 164,97" />
<polygon fill="#8f969b" fill-opacity="0.501961" points="199,68 199,52 196,58" />
<polygon fill="#cdd1d6" fill-opacity="0.501961" points="230,43 199,72 238,72" />
<polygon fill="#aaabac" fill-opacity="0.501961" points="122,62 110,54 114,41" />
<polygon fill="#684b59" fill-opacity="0.501961" points="77,66 72,87 92,64" />
<polygon fill="#707376" fill-opacity="0.501961" points="93,92 117,91 96,75" />
<polygon fill="#c9c7a7" fill-opacity="0.501961" points="89,102 64,112 38,97" />
<polygon fill="#2e282b" fill-opacity="0.501961" points="9,101 26,78 13,77" />
<polygon fill="#332a23" fill-opacity="0.501961" points="266,123 156,159 248,159" />
<polygon fill="#6e6b74" fill-opacity="0.501961" points="13,75 28,78 16,57" />
<polygon fill="#b6b7b0" fill-opacity="0.501961" points="151,103 144,92 152,93" />
<polygon fill="#6e586b" fill-opacity="0.501961" points="144,54 149,43 144,43" />
<polygon fill="#908e94" fill-opacity="0.501961" points="180,88 189,76 181,46" />
<polygon fill="#eccce1" fill-opacity="0.501961" points="141,31 140,48 116,45" />
<polygon fill="#ece4d6" fill-opacity="0.501961" points="26,95 57,95 40,100" />
<polygon fill="#c6ccd5" fill-opacity="0.501961" points="82,56 87,56 80,66" />
<polygon fill="#90969c" fill-opacity="0.501961" points="72,86 65,89 63,86" />
<polygon fill="#544958" fill-opacity="0.501961" points="54,44 67,53 23,55" />
<polygon fill="#e5e9e5" fill-opacity="0.501961" points="178,101 186,91 178,92" />
<polygon fill="#d1d1dd" fill-opacity="0.501961" points="180,65 179,14 166,18" />
<polygon fill="#281f28" fill-opacity="0.501961" points="148,70 120,69 149,89" />
<polygon fill="#e4e1e5" fill-opacity="0.501961" points="159,-13 248,0 229,23" />
<polygon fill="#60604b" fill-opacity="0.501961" points="5,124 8,100 -7,125" />
<polygon fill="#dadbe0" fill-opacity="0.501961" points="31,38 94,39 135,3" />
<polygon fill="#9f9296" fill-opacity="0.501961" points="99,54 97,74 86,83" />
<polygon fill="#6a6161" fill-opacity="0.501961" points="188,96 185,84 190,76" />
<polygon fill="#463c49" fill-opacity="0.501961" points="149,60 154,71 145,85" />
<polygon fill="#a1a5ac" fill-opacity="0.501961" points="243,85 196,71 250,72" />
<polygon fill="#c6ccd3" fill-opacity="0.501961" points="67,62 43,55 73,55" />
<polygon fill="#bdb2bd" fill-opacity="0.501961" points="154,52 142,54 139,67" />
<polygon fill="#bebc98" fill-opacity="0.501961" points="197,104 166,109 159,97" />
<polygon fill="#4f3d45" fill-opacity="0.501961" points="76,95 91,91 85,65" />
<polygon fill="#372730" fill-opacity="0.501961" points="54,86 41,77 75,77" />
<polygon fill="#ab9bad" fill-opacity="0.501961" points="-16,-5 28,15 30,-16" />
<polygon fill="#b4abb9" fill-opacity="0.501961" points="36,27 18,32 19,18" />
<polygon fill="#808e8c" fill-opacity="0.501961" points="192,91 227,80 251,91" />
<polygon fill="#d1d2d9" fill-opacity="0.501961" points="184,51 185,64 233,59" />
<polygon fill="#b6bac4" fill-opacity="0.501961" points="29,73 45,76 36,57" />
<polygon fill="#8d9698" fill-opacity="0.501961" points="101,76 121,86 106,89" />
<polygon fill="#72807e" fill-opacity="0.501961" points="195,87 198,67 200,84" />
<polygon fill="#e8e8eb" fill-opacity="0.501961" points="220,48 192,47 234,37" />
<polygon fill="#d79ebc" fill-opacity="0.501961" points="140,43 124,47 124,55" />
<polygon fill="#615865" fill-opacity="0.501961" points="97,43 113,51 79,46" />
<polygon fill="#ebeced" fill-opacity="0.501961" points="43,11 114,13 108,-8" />
<polygon fill="#cdcdb2" fill-opacity="0.501961" points="254,92 195,103 231,107" />
<polygon fill="#6b604a" fill-opacity="0.501961" points="78,129 65,111 38,131" />
<polygon fill="#968f9c" fill-opacity="0.501961" points="30,36 44,42 19,42" />
<polygon fill="#4f483b" fill-opacity="0.501961" points="252,118 186,110 229,132" />
<polygon fill="#181719" fill-opacity="0.501961" points="126,103 118,110 147,110" />
<polygon fill="#5f4551" fill-opacity="0.501961" points="100,64 103,93 97,82" />
<polygon fill="#9da1a5" fill-opacity="0.501961" points="245,54 220,50 239,47" />
<polygon fill="#91929d" fill-opacity="0.501961" points="192,51 161,51 181,45" />
<polygon fill="#5c4d5c" fill-opacity="0.501961" points="103,43 88,47 96,57" />
<polygon fill="#483b49" fill-opacity="0.501961" points="134,54 136,68 113,62" />
<polygon fill="#7b6d51" fill-opacity="0.501961" points="81,124 104,132 131,123" />
<polygon fill="#1e1d1b" fill-opacity="0.501961" points="43,91 46,83 46,94" />
<polygon fill="#ccd7d8" fill-opacity="0.501961" points="102,53 112,51 110,61" />
<polygon fill="#856b73" fill-opacity="0.501961" points="178,64 169,66 183,76" />
<polygon fill="#3c3940" fill-opacity="0.501961" points="255,5 262,20 259,-16" />
<polygon fill="#272a2b" fill-opacity="0.501961" points="77,89 65,93 54,90" />
<polygon fill="#332933" fill-opacity="0.501961" points="260,48 241,68 266,70" />
<polygon fill="#ecebe5" fill-opacity="0.501961" points="216,100 238,92 195,94" />
<polygon fill="#bbb7c4" fill-opacity="0.501961" points="249,32 254,41 254,23" />
<polygon fill="#777f87" fill-opacity="0.501961" points="156,69 153,90 166,90" />
<polygon fill="#c4bcc6" fill-opacity="0.501961" points="255,22 247,8 254,-16" />
<polygon fill="#b3b294" fill-opacity="0.501961" points="43,103 17,110 10,103" />
<polygon fill="#5f5261" fill-opacity="0.501961" points="246,42 242,67 258,48" />
<polygon fill="#7d5568" fill-opacity="0.501961" points="116,79 129,80 114,72" />
<polygon fill="#574b59" fill-opacity="0.501961" points="18,43 25,48 11,75" />
<polygon fill="#3f3933" fill-opacity="0.501961" points="113,119 141,111 86,111" />
<polygon fill="#939176" fill-opacity="0.501961" points="239,114 228,111 249,100" />
<polygon fill="#eaecf0" fill-opacity="0.501961" points="177,99 159,92 168,92" />
<polygon fill="#131014" fill-opacity="0.501961" points="0,103 -7,64 15,82" />
<polygon fill="#9b98a1" fill-opacity="0.501961" points="25,56 16,68 30,65" />
<polygon fill="#797d82" fill-opacity="0.501961" points="254,72 255,92 244,69" />
<polygon fill="#969aa2" fill-opacity="0.501961" points="201,77 234,81 199,86" />
<polygon fill="#8c9098" fill-opacity="0.501961" points="42,86 42,74 24,74" />
<polygon fill="#999da1" fill-opacity="0.501961" points="197,46 197,67 201,55" />
<polygon fill="#493e46" fill-opacity="0.501961" points="95,85 95,75 88,94" />
<polygon fill="#cfd2d9" fill-opacity="0.501961" points="237,59 199,52 201,74" />
<polygon fill="#5d605c" fill-opacity="0.501961" points="175,90 180,87 177,94" />
<polygon fill="#9b9d9b" fill-opacity="0.501961" points="99,87 94,94 97,78" />
<polygon fill="#c12e73" fill-opacity="0.501961" points="123,50 120,53 122,54" />
<polygon fill="#4a3a2a" fill-opacity="0.501961" points="100,129 27,130 86,159" />
<polygon fill="#504d44" fill-opacity="0.501961" points="257,99 243,109 249,96" />
<polygon fill="#cac0d0" fill-opacity="0.501961" points="169,49 149,48 147,23" />
<polygon fill="#8e8d7a" fill-opacity="0.501961" points="162,111 141,93 158,101" />
<polygon fill="#615541" fill-opacity="0.501961" points="222,131 208,121 247,121" />
<polygon fill="#bfbac2" fill-opacity="0.501961" points="233,26 239,29 238,47" />
<polygon fill="#d9d9bf" fill-opacity="0.501961" points="182,96 220,96 211,104" />
<polygon fill="#989ea0" fill-opacity="0.501961" points="194,48 205,50 193,51" />
<polygon fill="#9da3b0" fill-opacity="0.501961" points="52,75 49,77 46,65" />
<polygon fill="#e0e2e5" fill-opacity="0.501961" points="232,48 182,49 205,39" />
<polygon fill="#69596b" fill-opacity="0.501961" points="18,27 -5,27 27,52" />
<polygon fill="#0b0b0c" fill-opacity="0.501961" points="18,122 -13,149 7,153" />
<polygon fill="#564b58" fill-opacity="0.501961" points="95,54 55,54 69,46" />
<polygon fill="#8d9596" fill-opacity="0.501961" points="178,74 185,84 178,91" />
<polygon fill="#e7e2e7" fill-opacity="0.501961" points="136,38 116,48 118,41" />
<polygon fill="#5b4c51" fill-opacity="0.501961" points="54,78 56,64 61,73" />
<polygon fill="#949699" fill-opacity="0.501961" points="114,93 113,80 123,82" />
<polygon fill="#807c61" fill-opacity="0.501961" points="7,108 15,115 32,113" />
<polygon fill="#413e32" fill-opacity="0.501961" points="11,117 5,131 -16,114" />
<polygon fill="#362931" fill-opacity="0.501961" points="56,76 44,77 43,88" />
<polygon fill="#8b7784" fill-opacity="0.501961" points="161,49 146,53 136,48" />
<polygon fill="#716772" fill-opacity="0.501961" points="66,76 71,79 72,63" />
<polygon fill="#bcbcc5" fill-opacity="0.501961" points="86,42 94,38 99,42" />
<polygon fill="#94909b" fill-opacity="0.501961" points="152,58 139,67 159,64" />
<polygon fill="#887e89" fill-opacity="0.501961" points="88,66 95,61 92,85" />
<polygon fill="#232123" fill-opacity="0.501961" points="123,110 129,67 145,108" />
<polygon fill="#c0b8c8" fill-opacity="0.501961" points="126,33 106,42 124,40" />
<polygon fill="#312a34" fill-opacity="0.501961" points="153,74 119,71 121,61" />
<polygon fill="#1b171b" fill-opacity="0.501961" points="146,81 121,98 133,84" />
<polygon fill="#3a293c" fill-opacity="0.501961" points="8,68 15,52 -16,34" />
<polygon fill="#151920" fill-opacity="0.501961" points="244,139 216,148 271,153" />
<polygon fill="#934975" fill-opacity="0.501961" points="138,58 131,47 127,48" />
<polygon fill="#7e5867" fill-opacity="0.501961" points="194,77 181,71 194,68" />
<polygon fill="#382b21" fill-opacity="0.501961" points="66,132 135,153 103,132" />
<polygon fill="#76556c" fill-opacity="0.501961" points="146,43 137,51 146,49" />
<polygon fill="#694955" fill-opacity="0.501961" points="177,72 173,77 177,83" />
<polygon fill="#cbc5c0" fill-opacity="0.501961" points="96,63 96,74 99,73" />
<polygon fill="#766e78" fill-opacity="0.501961" points="241,58 240,67 245,57" />
<polygon fill="#57555a" fill-opacity="0.501961" points="271,7 255,-2 255,51" />
<polygon fill="#d0c8d5" fill-opacity="0.501961" points="132,37 99,19 175,18" />
<polygon fill="#56432c" fill-opacity="0.501961" points="174,125 217,135 136,138" />
<polygon fill="#73684e" fill-opacity="0.501961" points="162,123 184,129 206,123" />
<polygon fill="#4a4337" fill-opacity="0.501961" points="172,112 209,112 208,122" />
<polygon fill="#6c624c" fill-opacity="0.501961" points="79,130 70,118 29,124" />
<polygon fill="#afa7a8" fill-opacity="0.501961" points="188,58 193,62 180,70" />
<polygon fill="#392c2f" fill-opacity="0.501961" points="102,86 100,85 101,93" />
<polygon fill="#634b56" fill-opacity="0.501961" points="189,80 195,94 193,75" />
<polygon fill="#835f72" fill-opacity="0.501961" points="103,62 97,62 98,69" />
<polygon fill="#c3c2d3" fill-opacity="0.501961" points="138,18 181,47 162,48" />
<polygon fill="#c5cdd5" fill-opacity="0.501961" points="94,55 92,66 87,56" />
<polygon fill="#554f52" fill-opacity="0.501961" points="171,79 177,84 172,94" />
<polygon fill="#909292" fill-opacity="0.501961" points="188,80 191,83 189,88" />
<polygon fill="#717478" fill-opacity="0.501961" points="46,88 51,83 53,89" />
<polygon fill="#5b5762" fill-opacity="0.501961" points="111,69 112,59 118,61" />
<polygon fill="#6f767e" fill-opacity="0.501961" points="26,86 22,90 19,87" />
<polygon fill="#a990a7" fill-opacity="0.501961" points="111,58 108,71 112,74" />
<polygon fill="#524c3d" fill-opacity="0.501961" points="29,124 66,116 44,114" />
<polygon fill="#383836" fill-opacity="0.501961" points="95,92 88,87 69,93" />
<polygon fill="#cfcbd1" fill-opacity="0.501961" points="41,36 25,18 34,-4" />
<polygon fill="#eaebeb" fill-opacity="0.501961" points="168,97 182,95 167,93" />
<polygon fill="#333831" fill-opacity="0.501961" points="29,95 11,90 45,90" />
<polygon fill="#3a3026" fill-opacity="0.501961" points="256,141 216,134 252,125" />
<polygon fill="#9aa3a1" fill-opacity="0.501961" points="220,50 212,48 208,51" />
<polygon fill="#43343a" fill-opacity="0.501961" points="60,90 62,79 78,74" />
<polygon fill="#5f5361" fill-opacity="0.501961" points="31,55 64,43 12,44" />
<polygon fill="#adb1b4" fill-opacity="0.501961" points="153,64 170,82 169,71" />
<polygon fill="#999da4" fill-opacity="0.501961" points="76,71 68,76 62,75" />
<polygon fill="#dfddcf" fill-opacity="0.501961" points="89,95 58,95 75,102" />
<polygon fill="#e5e4de" fill-opacity="0.501961" points="110,99 117,93 98,96" />
<polygon fill="#c5c4a5" fill-opacity="0.501961" points="111,107 112,98 82,104" />
<polygon fill="#aba898" fill-opacity="0.501961" points="164,103 160,107 157,92" />
<polygon fill="#91929c" fill-opacity="0.501961" points="183,56 179,45 182,39" />
<polygon fill="#a29f7b" fill-opacity="0.501961" points="44,107 40,114 68,110" />
<polygon fill="#ccc5ce" fill-opacity="0.501961" points="185,-3 184,21 175,-16" />
<polygon fill="#655740" fill-opacity="0.501961" points="164,136 161,120 134,133" />
<polygon fill="#41333a" fill-opacity="0.501961" points="47,84 60,71 67,83" />
<polygon fill="#bfc4cb" fill-opacity="0.501961" points="101,65 104,63 104,76" />
<polygon fill="#b0b6b6" fill-opacity="0.501961" points="114,49 109,47 99,53" />
<polygon fill="#837f68" fill-opacity="0.501961" points="116,108 123,99 105,111" />
<polygon fill="#c5c1c7" fill-opacity="0.501961" points="27,12 21,19 24,29" />
<polygon fill="#e2e0e7" fill-opacity="0.501961" points="170,16 132,3 186,-7" />
<polygon fill="#725f68" fill-opacity="0.501961" points="76,77 82,78 85,59" />
<polygon fill="#93a2a3" fill-opacity="0.501961" points="57,89 59,86 54,86" />
<polygon fill="#47494a" fill-opacity="0.501961" points="158,93 147,89 149,82" />
<polygon fill="#717d80" fill-opacity="0.501961" points="247,82 225,89 255,89" />
<polygon fill="#52493c" fill-opacity="0.501961" points="167,121 138,105 194,118" />
<polygon fill="#958f6d" fill-opacity="0.501961" points="224,112 226,109 213,109" />
<polygon fill="#8b8c7d" fill-opacity="0.501961" points="251,100 271,94 271,81" />
<polygon fill="#261d27" fill-opacity="0.501961" points="16,86 9,63 -15,65" />
<polygon fill="#6a6d74" fill-opacity="0.501961" points="45,53 48,58 46,65" />
<polygon fill="#3a2b21" fill-opacity="0.501961" points="22,143 25,132 62,135" />
<polygon fill="#d6d8db" fill-opacity="0.501961" points="99,55 111,58 103,51" />
<polygon fill="#b7b8be" fill-opacity="0.501961" points="234,70 245,51 233,52" />
<polygon fill="#bfc4cd" fill-opacity="0.501961" points="47,74 63,55 48,55" />
<polygon fill="#998b9b" fill-opacity="0.501961" points="24,4 20,19 -16,5" />
<polygon fill="#bdc2ca" fill-opacity="0.501961" points="161,52 163,71 168,51" />
<polygon fill="#edeef0" fill-opacity="0.501961" points="197,92 215,93 197,97" />
<polygon fill="#232225" fill-opacity="0.501961" points="10,120 18,140 28,116" />
<polygon fill="#b6b6b6" fill-opacity="0.501961" points="149,99 146,92 153,92" />
<polygon fill="#757361" fill-opacity="0.501961" points="5,105 11,110 3,115" />
<polygon fill="#a29ba4" fill-opacity="0.501961" points="197,69 193,73 196,87" />
<polygon fill="#938ea2" fill-opacity="0.501961" points="63,39 81,39 73,43" />
<polygon fill="#222020" fill-opacity="0.501961" points="125,110 118,110 119,104" />
<polygon fill="#464241" fill-opacity="0.501961" points="94,88 86,89 84,95" />
<polygon fill="#a19e89" fill-opacity="0.501961" points="18,95 13,112 11,100" />
<polygon fill="#d9d9cd" fill-opacity="0.501961" points="192,98 192,92 186,101" />
<polygon fill="#938a91" fill-opacity="0.501961" points="114,54 113,45 111,53" />
<polygon fill="#e1e0de" fill-opacity="0.501961" points="178,61 173,59 178,54" />
<polygon fill="#372a36" fill-opacity="0.501961" points="122,67 154,68 146,76" />
<polygon fill="#dadacd" fill-opacity="0.501961" points="183,101 170,97 175,92" />
<polygon fill="#d5d4dc" fill-opacity="0.501961" points="183,22 223,33 247,14" />
<polygon fill="#6d515d" fill-opacity="0.501961" points="193,73 195,79 185,83" />
<polygon fill="#7c6d80" fill-opacity="0.501961" points="17,33 28,29 29,37" />
<polygon fill="#d3d0da" fill-opacity="0.501961" points="179,40 132,9 181,20" />
<polygon fill="#889198" fill-opacity="0.501961" points="162,75 170,91 171,75" />
<polygon fill="#9c8690" fill-opacity="0.501961" points="180,74 192,66 173,62" />
<polygon fill="#1f1e1e" fill-opacity="0.501961" points="121,97 134,104 142,87" />
<polygon fill="#3a3037" fill-opacity="0.501961" points="22,87 10,76 27,78" />
<polygon fill="#665f49" fill-opacity="0.501961" points="160,113 145,107 172,109" />
<polygon fill="#b2a2b4" fill-opacity="0.501961" points="10,-16 31,7 1,2" />
<polygon fill="#c9c8d3" fill-opacity="0.501961" points="207,38 235,37 252,15" />
<polygon fill="#231f24" fill-opacity="0.501961" points="257,20 254,72 271,26" />
<polygon fill="#191819" fill-opacity="0.501961" points="271,109 254,124 248,102" />
<polygon fill="#b1af8d" fill-opacity="0.501961" points="75,105 86,111 106,105" />
<polygon fill="#cecec7" fill-opacity="0.501961" points="114,92 107,101 121,93" />
<polygon fill="#c5bfd0" fill-opacity="0.501961" points="123,24 181,47 171,28" />
<polygon fill="#667170" fill-opacity="0.501961" points="201,89 195,89 198,77" />
<polygon fill="#889496" fill-opacity="0.501961" points="93,74 92,84 88,80" />
<polygon fill="#57462f" fill-opacity="0.501961" points="129,148 139,141 121,138" />
<polygon fill="#5e525a" fill-opacity="0.501961" points="81,91 84,87 71,76" />
<polygon fill="#ddbcd7" fill-opacity="0.501961" points="130,13 137,48 126,34" />
<polygon fill="#6d5961" fill-opacity="0.501961" points="187,66 194,96 195,80" />
<polygon fill="#504536" fill-opacity="0.501961" points="28,122 25,131 50,134" />
<polygon fill="#b9b89a" fill-opacity="0.501961" points="59,105 31,101 54,111" />
<polygon fill="#dedee3" fill-opacity="0.501961" points="49,38 33,16 96,37" />
<polygon fill="#393634" fill-opacity="0.501961" points="40,114 29,123 8,117" />
<polygon fill="#1d1c1d" fill-opacity="0.501961" points="127,109 135,92 146,97" />
<polygon fill="#baaab7" fill-opacity="0.501961" points="136,55 142,66 153,55" />
<polygon fill="#bbbfc8" fill-opacity="0.501961" points="40,69 43,56 27,55" />
<polygon fill="#263330" fill-opacity="0.501961" points="255,84 268,101 264,139" />
<polygon fill="#605363" fill-opacity="0.501961" points="111,43 60,46 95,55" />
</g>
</svg>