<svg xmlns="http://www.w3.org/2000/svg" version="1.1" width="1024" height="576">
<rect x="0" y="0" width="1024" height="576" fill="#85817f" />
<g transform="scale(4.000000) translate(0.5 0.5)">
<polygon fill="#000000" fill-opacity="0.501961" points="1,-6 -16,156 85,159" />
<polygon fill="#d9dcd9" fill-opacity="0.501961" points="271,62 30,56 24,-16" />
<polygon fill="#000000" fill-opacity="0.501961" points="266,155 197,157 271,30" />
<polygon fill="#eaffff" fill-opacity="0.501961" points="163,62 128,-16 136,124" />
<polygon fill="#e6ffff" fill-opacity="0.501961" points="227,-16 250,54 221,116" />
<polygon fill="#e7dacb" fill-opacity="0.501961" points="60,77 123,85 71,142" />
<polygon fill="#440604" fill-opacity="0.501961" points="98,42 135,59 74,88" />
<polygon fill="#fffae2" fill-opacity="0.501961" points="31,-16 56,64 82,-16" />
<polygon fill="#798aa2" fill-opacity="0.501961" points="195,37 61,33 96,-16" />
<polygon fill="#000000" fill-opacity="0.501961" points="-16,-16 14,17 36,-13" />
<polygon fill="#16131a" fill-opacity="0.501961" points="-16,142 54,146 57,64" />
<polygon fill="#857765" fill-opacity="0.501961" points="235,-13 153,31 214,102" />
<polygon fill="#9d9496" fill-opacity="0.501961" points="52,44 27,52 37,101" />
<polygon fill="#d0bea2" fill-opacity="0.501961" points="221,126 133,92 229,101" />
<polygon fill="#18141f" fill-opacity="0.501961" points="133,124 130,94 107,98" />
<polygon fill="#3b2711" fill-opacity="0.501961" points="250,140 155,122 204,117" />
<polygon fill="#cce7f5" fill-opacity="0.501961" points="94,34 47,38 85,74" />
<polygon fill="#faffff" fill-opacity="0.501961" points="125,41 167,67 146,86" />
<polygon fill="#afb0b2" fill-opacity="0.501961" points="121,136 116,101 53,137" />
<polygon fill="#fffee3" fill-opacity="0.501961" points="106,76 120,98 121,74" />
<polygon fill="#493433" fill-opacity="0.501961" points="120,48 121,86 143,82" />
<polygon fill="#b79e85" fill-opacity="0.501961" points="228,66 167,56 124,135" />
<polygon fill="#ffffff" fill-opacity="0.501961" points="68,101 75,73 56,76" />
<polygon fill="#252619" fill-opacity="0.501961" points="150,159 217,138 91,139" />
<polygon fill="#fce7c4" fill-opacity="0.501961" points="39,33 36,-1 10,21" />
<polygon fill="#b0bbd0" fill-opacity="0.501961" points="230,-16 219,80 271,-10" />
<polygon fill="#a5beda" fill-opacity="0.501961" points="144,-16 79,26 158,24" />
<polygon fill="#230b08" fill-opacity="0.501961" points="109,72 92,78 105,91" />
<polygon fill="#27222f" fill-opacity="0.501961" points="-8,12 -16,100 35,39" />
<polygon fill="#221d1d" fill-opacity="0.501961" points="213,75 204,95 222,107" />
<polygon fill="#7e7285" fill-opacity="0.501961" points="90,-16 78,81 70,25" />
<polygon fill="#3c3740" fill-opacity="0.501961" points="49,61 72,130 33,109" />
<polygon fill="#f6f3ec" fill-opacity="0.501961" points="130,86 133,111 155,73" />
<polygon fill="#251f21" fill-opacity="0.501961" points="271,141 185,149 264,88" />
<polygon fill="#e4faff" fill-opacity="0.501961" points="248,61 226,102 221,61" />
<polygon fill="#20220b" fill-opacity="0.501961" points="271,39 247,28 260,76" />
<polygon fill="#524c41" fill-opacity="0.501961" points="158,1 165,55 173,-1" />
<polygon fill="#171517" fill-opacity="0.501961" points="-11,41 -16,154 48,157" />
<polygon fill="#a2bde3" fill-opacity="0.501961" points="150,134 184,127 202,138" />
<polygon fill="#625139" fill-opacity="0.501961" points="157,120 121,113 117,131" />
<polygon fill="#b45953" fill-opacity="0.501961" points="110,39 90,50 135,56" />
<polygon fill="#6b6254" fill-opacity="0.501961" points="103,122 103,138 68,117" />
<polygon fill="#b2916f" fill-opacity="0.501961" points="171,67 121,124 184,122" />
<polygon fill="#ded9be" fill-opacity="0.501961" points="173,94 129,92 165,113" />
<polygon fill="#181416" fill-opacity="0.501961" points="71,93 73,83 94,74" />
<polygon fill="#7c3842" fill-opacity="0.501961" points="174,84 153,99 151,79" />
<polygon fill="#e9dac9" fill-opacity="0.501961" points="100,80 80,89 111,136" />
<polygon fill="#75817e" fill-opacity="0.501961" points="118,39 165,25 75,26" />
<polygon fill="#cfe4ea" fill-opacity="0.501961" points="92,35 161,32 161,52" />
<polygon fill="#a1bfee" fill-opacity="0.501961" points="86,138 58,137 58,128" />
<polygon fill="#defffe" fill-opacity="0.501961" points="43,59 76,53 71,29" />
<polygon fill="#f7eee6" fill-opacity="0.501961" points="205,120 204,103 221,106" />
<polygon fill="#9db5d9" fill-opacity="0.501961" points="104,130 165,128 139,139" />
<polygon fill="#f8f4f0" fill-opacity="0.501961" points="33,39 25,60 39,45" />
<polygon fill="#4d496c" fill-opacity="0.501961" points="62,71 36,62 80,59" />
<polygon fill="#161415" fill-opacity="0.501961" points="-16,136 50,159 83,139" />
<polygon fill="#6d6c6a" fill-opacity="0.501961" points="268,39 222,28 271,23" />
<polygon fill="#271309" fill-opacity="0.501961" points="22,-16 -16,-11 23,17" />
<polygon fill="#afdcfd" fill-opacity="0.501961" points="250,68 221,64 244,32" />
<polygon fill="#695759" fill-opacity="0.501961" points="214,2 214,63 236,-16" />
<polygon fill="#8f643b" fill-opacity="0.501961" points="40,19 53,34 41,32" />
<polygon fill="#686a6b" fill-opacity="0.501961" points="146,77 137,83 127,64" />
<polygon fill="#45331f" fill-opacity="0.501961" points="175,119 211,128 168,129" />
<polygon fill="#daeff1" fill-opacity="0.501961" points="135,33 165,62 130,71" />
<polygon fill="#cec6b2" fill-opacity="0.501961" points="73,-16 132,3 74,2" />
<polygon fill="#a39790" fill-opacity="0.501961" points="43,83 35,51 34,104" />
<polygon fill="#f5ffff" fill-opacity="0.501961" points="46,55 50,64 58,49" />
<polygon fill="#231120" fill-opacity="0.501961" points="127,93 109,101 116,106" />
<polygon fill="#8d7e6c" fill-opacity="0.501961" points="225,119 221,93 213,140" />
<polygon fill="#bab09d" fill-opacity="0.501961" points="16,30 23,13 11,15" />
<polygon fill="#ffffff" fill-opacity="0.501961" points="110,89 105,91 106,103" />
<polygon fill="#524b4b" fill-opacity="0.501961" points="38,55 42,40 51,75" />
<polygon fill="#0a0d0a" fill-opacity="0.501961" points="268,46 255,-5 254,57" />
<polygon fill="#96948b" fill-opacity="0.501961" points="210,62 196,119 153,27" />
<polygon fill="#262528" fill-opacity="0.501961" points="66,129 62,97 12,126" />
<polygon fill="#5a4d35" fill-opacity="0.501961" points="149,105 157,125 162,116" />
<polygon fill="#bcced8" fill-opacity="0.501961" points="157,32 154,11 130,8" />
<polygon fill="#4d4946" fill-opacity="0.501961" points="203,102 226,85 208,73" />
<polygon fill="#3d3546" fill-opacity="0.501961" points="271,53 236,83 221,127" />
<polygon fill="#f1f1f6" fill-opacity="0.501961" points="130,102 148,95 157,55" />
<polygon fill="#9d9489" fill-opacity="0.501961" points="64,114 81,144 90,106" />
<polygon fill="#4d7095" fill-opacity="0.501961" points="124,11 151,4 114,3" />
<polygon fill="#3b2825" fill-opacity="0.501961" points="102,73 103,96 108,75" />
<polygon fill="#353039" fill-opacity="0.501961" points="34,66 33,147 -16,20" />
<polygon fill="#e2d6c9" fill-opacity="0.501961" points="101,88 63,113 82,85" />
<polygon fill="#e5ffff" fill-opacity="0.501961" points="101,35 84,54 86,35" />
<polygon fill="#2d313f" fill-opacity="0.501961" points="131,97 119,102 121,130" />
<polygon fill="#c3b099" fill-opacity="0.501961" points="117,123 66,116 120,106" />
<polygon fill="#5d525a" fill-opacity="0.501961" points="78,3 75,16 96,3" />
<polygon fill="#bcbdcc" fill-opacity="0.501961" points="88,64 71,90 83,48" />
<polygon fill="#5a4932" fill-opacity="0.501961" points="200,133 228,117 210,159" />
<polygon fill="#3d3232" fill-opacity="0.501961" points="117,64 126,93 129,64" />
<polygon fill="#403b43" fill-opacity="0.501961" points="35,37 8,23 10,71" />
<polygon fill="#dcf4f3" fill-opacity="0.501961" points="58,55 39,35 71,39" />
<polygon fill="#efe2cf" fill-opacity="0.501961" points="169,61 169,82 174,73" />
<polygon fill="#b59563" fill-opacity="0.501961" points="159,97 165,120 190,122" />
<polygon fill="#687273" fill-opacity="0.501961" points="121,25 144,34 89,33" />
<polygon fill="#433828" fill-opacity="0.501961" points="95,118 100,127 91,130" />
<polygon fill="#938d81" fill-opacity="0.501961" points="177,-9 172,79 216,39" />
<polygon fill="#c1b7a9" fill-opacity="0.501961" points="207,120 223,89 217,123" />
<polygon fill="#ebe4d0" fill-opacity="0.501961" points="126,90 135,81 161,99" />
<polygon fill="#666361" fill-opacity="0.501961" points="173,109 181,105 173,84" />
<polygon fill="#e8dac9" fill-opacity="0.501961" points="122,75 113,70 121,93" />
<polygon fill="#6d616c" fill-opacity="0.501961" points="67,33 88,30 66,27" />
<polygon fill="#b9e4ff" fill-opacity="0.501961" points="242,69 249,49 253,59" />
<polygon fill="#45404a" fill-opacity="0.501961" points="34,108 66,105 47,62" />
<polygon fill="#ecdcc5" fill-opacity="0.501961" points="70,0 31,-14 21,21" />
<polygon fill="#ac6e6a" fill-opacity="0.501961" points="123,40 95,43 132,61" />
<polygon fill="#d8e8e8" fill-opacity="0.501961" points="164,78 122,37 159,41" />
<polygon fill="#443230" fill-opacity="0.501961" points="106,86 87,75 91,50" />
<polygon fill="#342432" fill-opacity="0.501961" points="122,98 122,111 109,95" />
<polygon fill="#b9c9e0" fill-opacity="0.501961" points="198,130 196,137 181,131" />
<polygon fill="#978b7e" fill-opacity="0.501961" points="190,76 208,97 189,120" />
<polygon fill="#191a1e" fill-opacity="0.501961" points="216,146 271,142 271,102" />
<polygon fill="#a1a1b8" fill-opacity="0.501961" points="271,17 227,-1 225,31" />
<polygon fill="#645f83" fill-opacity="0.501961" points="62,54 53,58 80,77" />
<polygon fill="#614e38" fill-opacity="0.501961" points="85,101 87,112 91,111" />
<polygon fill="#c5d3e7" fill-opacity="0.501961" points="159,138 159,128 152,134" />
<polygon fill="#c0dcec" fill-opacity="0.501961" points="228,34 247,36 226,85" />
<polygon fill="#6b7065" fill-opacity="0.501961" points="168,44 163,62 168,67" />
<polygon fill="#9d9890" fill-opacity="0.501961" points="177,45 177,81 216,77" />
<polygon fill="#3b2d2e" fill-opacity="0.501961" points="71,94 88,72 75,81" />
<polygon fill="#8da6cb" fill-opacity="0.501961" points="89,139 58,134 95,129" />
<polygon fill="#a0adcc" fill-opacity="0.501961" points="85,9 80,26 132,8" />
<polygon fill="#cecab3" fill-opacity="0.501961" points="173,60 171,35 165,66" />
<polygon fill="#a7b9d8" fill-opacity="0.501961" points="61,133 57,138 56,127" />
<polygon fill="#a6a091" fill-opacity="0.501961" points="15,12 11,21 38,41" />
<polygon fill="#e7d5c2" fill-opacity="0.501961" points="62,88 68,70 58,79" />
<polygon fill="#1d1c1b" fill-opacity="0.501961" points="54,140 59,114 -16,150" />
<polygon fill="#bcb2a6" fill-opacity="0.501961" points="84,113 110,105 79,135" />
<polygon fill="#877f6b" fill-opacity="0.501961" points="192,-16 174,66 170,0" />
<polygon fill="#6a8683" fill-opacity="0.501961" points="143,34 129,27 158,32" />
<polygon fill="#2c1f1a" fill-opacity="0.501961" points="22,11 29,-16 -16,10" />
<polygon fill="#8f8b9a" fill-opacity="0.501961" points="81,73 84,25 74,52" />
<polygon fill="#756b4d" fill-opacity="0.501961" points="104,140 86,159 79,138" />
<polygon fill="#e2e1e1" fill-opacity="0.501961" points="27,53 32,51 30,61" />
<polygon fill="#f5fcff" fill-opacity="0.501961" points="64,100 64,87 75,82" />
<polygon fill="#e8d8c2" fill-opacity="0.501961" points="21,-16 74,10 58,42" />
<polygon fill="#f0ffff" fill-opacity="0.501961" points="84,44 86,69 89,56" />
<polygon fill="#e2d8ce" fill-opacity="0.501961" points="86,82 67,101 99,84" />
<polygon fill="#ece2da" fill-opacity="0.501961" points="215,104 204,101 202,112" />
<polygon fill="#6c706f" fill-opacity="0.501961" points="164,63 169,50 167,72" />
<polygon fill="#555a5b" fill-opacity="0.501961" points="116,72 140,75 143,84" />
<polygon fill="#827e7c" fill-opacity="0.501961" points="135,-1 71,1 78,-16" />
<polygon fill="#e3d5a8" fill-opacity="0.501961" points="224,36 220,63 229,45" />
<polygon fill="#262020" fill-opacity="0.501961" points="217,101 205,89 209,80" />
<polygon fill="#bdb29c" fill-opacity="0.501961" points="106,65 102,63 104,74" />
<polygon fill="#eeddcd" fill-opacity="0.501961" points="110,75 108,95 120,87" />
<polygon fill="#605169" fill-opacity="0.501961" points="34,52 30,58 34,68" />
<polygon fill="#7f6247" fill-opacity="0.501961" points="160,125 197,108 203,120" />
<polygon fill="#f6f0dd" fill-opacity="0.501961" points="175,99 166,91 163,99" />
<polygon fill="#c5bd9c" fill-opacity="0.501961" points="164,56 154,33 158,11" />
<polygon fill="#d8d8bd" fill-opacity="0.501961" points="162,75 165,59 159,50" />
<polygon fill="#7c8789" fill-opacity="0.501961" points="117,28 124,42 124,15" />
<polygon fill="#676b83" fill-opacity="0.501961" points="59,84 65,96 62,108" />
<polygon fill="#89a4ce" fill-opacity="0.501961" points="98,129 119,137 96,138" />
<polygon fill="#b2a67b" fill-opacity="0.501961" points="149,121 130,110 140,100" />
<polygon fill="#bd6870" fill-opacity="0.501961" points="169,76 180,88 154,78" />
<polygon fill="#a6a2a4" fill-opacity="0.501961" points="-16,15 -8,-5 3,14" />
<polygon fill="#69403f" fill-opacity="0.501961" points="88,67 131,61 92,52" />
<polygon fill="#cebf91" fill-opacity="0.501961" points="144,97 168,120 160,95" />
<polygon fill="#271622" fill-opacity="0.501961" points="109,105 110,96 115,105" />
<polygon fill="#736d71" fill-opacity="0.501961" points="78,27 106,28 76,36" />
<polygon fill="#3f3a48" fill-opacity="0.501961" points="237,85 245,71 255,111" />
<polygon fill="#f1efee" fill-opacity="0.501961" points="161,70 141,64 146,87" />
<polygon fill="#fff3e9" fill-opacity="0.501961" points="224,107 237,80 225,88" />
<polygon fill="#847f8e" fill-opacity="0.501961" points="257,6 229,7 196,-16" />
<polygon fill="#cebfac" fill-opacity="0.501961" points="223,29 228,41 235,9" />
<polygon fill="#474946" fill-opacity="0.501961" points="184,159 102,139 146,137" />
<polygon fill="#43312f" fill-opacity="0.501961" points="73,93 99,69 86,70" />
<polygon fill="#e9dfd1" fill-opacity="0.501961" points="27,-16 74,24 70,-16" />
<polygon fill="#847c78" fill-opacity="0.501961" points="39,39 47,44 45,58" />
<polygon fill="#b1d2e9" fill-opacity="0.501961" points="228,74 255,61 233,37" />
<polygon fill="#774847" fill-opacity="0.501961" points="172,87 152,95 152,82" />
<polygon fill="#7d858c" fill-opacity="0.501961" points="246,26 253,37 229,32" />
<polygon fill="#cc8d86" fill-opacity="0.501961" points="91,47 123,43 101,38" />
<polygon fill="#e3d2b6" fill-opacity="0.501961" points="184,112 179,102 190,104" />
<polygon fill="#464038" fill-opacity="0.501961" points="207,130 169,126 199,118" />
<polygon fill="#4f503e" fill-opacity="0.501961" points="258,18 246,44 254,52" />
<polygon fill="#0e0a0e" fill-opacity="0.501961" points="124,130 124,125 119,127" />
<polygon fill="#d7f0eb" fill-opacity="0.501961" points="73,32 48,60 73,50" />
<polygon fill="#857590" fill-opacity="0.501961" points="67,55 82,69 58,57" />
<polygon fill="#544a40" fill-opacity="0.501961" points="165,30 162,3 171,2" />
<polygon fill="#6f5659" fill-opacity="0.501961" points="221,107 207,99 210,96" />
<polygon fill="#8c8579" fill-opacity="0.501961" points="176,104 190,103 172,55" />
<polygon fill="#53514b" fill-opacity="0.501961" points="91,124 95,140 99,120" />
<polygon fill="#cac299" fill-opacity="0.501961" points="177,108 178,115 166,120" />
<polygon fill="#5d615f" fill-opacity="0.501961" points="190,132 183,159 196,148" />
<polygon fill="#ac9e8c" fill-opacity="0.501961" points="98,121 107,129 120,109" />
<polygon fill="#dfd3bd" fill-opacity="0.501961" points="34,30 37,6 17,18" />
<polygon fill="#a88969" fill-opacity="0.501961" points="38,24 37,12 50,34" />
<polygon fill="#ccbfaf" fill-opacity="0.501961" points="69,121 85,83 64,109" />
<polygon fill="#d7d1c8" fill-opacity="0.501961" points="108,98 87,86 106,109" />
<polygon fill="#d2ece9" fill-opacity="0.501961" points="71,36 76,63 53,40" />
<polygon fill="#bbb0a5" fill-opacity="0.501961" points="36,61 43,74 32,63" />
<polygon fill="#72634c" fill-opacity="0.501961" points="158,113 169,126 141,126" />
<polygon fill="#7f736c" fill-opacity="0.501961" points="164,101 176,107 164,111" />
<polygon fill="#daf0ed" fill-opacity="0.501961" points="133,48 151,71 132,68" />
<polygon fill="#cea58a" fill-opacity="0.501961" points="100,82 103,82 102,78" />
<polygon fill="#151412" fill-opacity="0.501961" points="9,26 6,39 -16,9" />
<polygon fill="#734746" fill-opacity="0.501961" points="131,74 91,51 129,51" />
<polygon fill="#535c75" fill-opacity="0.501961" points="103,4 113,7 120,3" />
<polygon fill="#efedd0" fill-opacity="0.501961" points="170,52 169,75 173,65" />
<polygon fill="#7d757f" fill-opacity="0.501961" points="84,21 76,11 77,42" />
<polygon fill="#908776" fill-opacity="0.501961" points="150,-16 214,45 210,-9" />
<polygon fill="#b56725" fill-opacity="0.501961" points="186,116 184,125 176,119" />
<polygon fill="#45404a" fill-opacity="0.501961" points="40,60 56,84 57,68" />
<polygon fill="#dbcdbd" fill-opacity="0.501961" points="112,89 119,98 120,76" />
<polygon fill="#343037" fill-opacity="0.501961" points="61,125 42,89 65,101" />
<polygon fill="#704046" fill-opacity="0.501961" points="178,85 171,85 172,92" />
<polygon fill="#cfefed" fill-opacity="0.501961" points="131,39 143,62 124,46" />
<polygon fill="#584b38" fill-opacity="0.501961" points="211,118 229,159 197,146" />
<polygon fill="#71706d" fill-opacity="0.501961" points="136,129 131,99 127,131" />
<polygon fill="#19191c" fill-opacity="0.501961" points="47,142 92,159 74,138" />
<polygon fill="#3b3f43" fill-opacity="0.501961" points="124,67 129,82 122,100" />
<polygon fill="#9b938b" fill-opacity="0.501961" points="206,102 202,30 172,100" />
<polygon fill="#8ea4c8" fill-opacity="0.501961" points="183,133 159,136 172,138" />
<polygon fill="#606063" fill-opacity="0.501961" points="129,78 145,80 138,71" />
<polygon fill="#624e4e" fill-opacity="0.501961" points="215,24 224,26 221,-8" />
<polygon fill="#998c75" fill-opacity="0.501961" points="215,116 223,110 224,90" />
<polygon fill="#ccc2b2" fill-opacity="0.501961" points="237,1 263,-6 250,2" />
<polygon fill="#8a836d" fill-opacity="0.501961" points="220,38 219,80 211,65" />
<polygon fill="#dacfc5" fill-opacity="0.501961" points="209,111 219,122 217,105" />
<polygon fill="#908470" fill-opacity="0.501961" points="76,115 83,129 68,129" />
<polygon fill="#918d83" fill-opacity="0.501961" points="182,116 200,115 206,95" />
<polygon fill="#a79689" fill-opacity="0.501961" points="163,126 158,121 147,123" />
<polygon fill="#3e2e2c" fill-opacity="0.501961" points="108,85 100,92 105,80" />
<polygon fill="#7a7660" fill-opacity="0.501961" points="173,75 178,67 172,53" />
<polygon fill="#9cb8d5" fill-opacity="0.501961" points="126,21 128,7 152,8" />
<polygon fill="#533c38" fill-opacity="0.501961" points="108,60 110,73 120,64" />
<polygon fill="#c1b28b" fill-opacity="0.501961" points="158,98 143,98 122,123" />
<polygon fill="#756a54" fill-opacity="0.501961" points="174,23 176,-6 166,-16" />
<polygon fill="#aaa593" fill-opacity="0.501961" points="166,38 173,32 171,12" />
<polygon fill="#e7d9c6" fill-opacity="0.501961" points="114,87 116,67 110,82" />
<polygon fill="#99928a" fill-opacity="0.501961" points="213,75 175,84 179,4" />
<polygon fill="#b5a579" fill-opacity="0.501961" points="160,107 143,125 146,114" />
<polygon fill="#6f6962" fill-opacity="0.501961" points="178,134 208,155 190,157" />
<polygon fill="#525470" fill-opacity="0.501961" points="88,5 105,3 97,7" />
<polygon fill="#daf8ee" fill-opacity="0.501961" points="84,40 85,70 91,47" />
<polygon fill="#3f3a46" fill-opacity="0.501961" points="248,113 271,43 242,76" />
<polygon fill="#686662" fill-opacity="0.501961" points="168,15 167,60 161,36" />
<polygon fill="#968d7a" fill-opacity="0.501961" points="201,70 227,84 217,72" />
<polygon fill="#87807c" fill-opacity="0.501961" points="40,40 38,62 49,49" />
<polygon fill="#b4c3d7" fill-opacity="0.501961" points="141,130 132,128 137,137" />
<polygon fill="#362623" fill-opacity="0.501961" points="119,66 131,71 117,71" />
<polygon fill="#2d221c" fill-opacity="0.501961" points="-7,-16 7,19 40,-16" />
<polygon fill="#1b1919" fill-opacity="0.501961" points="18,136 -16,158 -2,85" />
<polygon fill="#ebf1f2" fill-opacity="0.501961" points="64,95 68,83 67,103" />
<polygon fill="#96948b" fill-opacity="0.501961" points="35,31 22,22 10,23" />
<polygon fill="#242224" fill-opacity="0.501961" points="48,91 59,127 37,145" />
<polygon fill="#e6d8c0" fill-opacity="0.501961" points="40,36 35,19 34,45" />
<polygon fill="#dacdbf" fill-opacity="0.501961" points="113,107 117,118 120,109" />
<polygon fill="#413c45" fill-opacity="0.501961" points="36,105 31,67 2,38" />
<polygon fill="#889ab4" fill-opacity="0.501961" points="80,139 70,128 104,139" />
<polygon fill="#3c3841" fill-opacity="0.501961" points="32,39 13,25 14,76" />
<polygon fill="#b7b9b5" fill-opacity="0.501961" points="132,-16 80,3 147,3" />
<polygon fill="#6f7070" fill-opacity="0.501961" points="140,85 131,69 139,77" />
<polygon fill="#535267" fill-opacity="0.501961" points="64,72 51,65 57,57" />
<polygon fill="#45433f" fill-opacity="0.501961" points="127,135 144,152 133,159" />
<polygon fill="#786f5e" fill-opacity="0.501961" points="138,116 125,112 136,128" />
<polygon fill="#afcce3" fill-opacity="0.501961" points="248,34 238,34 240,62" />
<polygon fill="#e2e7dc" fill-opacity="0.501961" points="227,45 232,92 220,72" />
<polygon fill="#decdbe" fill-opacity="0.501961" points="74,82 56,73 61,85" />
<polygon fill="#605343" fill-opacity="0.501961" points="95,116 97,127 105,132" />
<polygon fill="#222523" fill-opacity="0.501961" points="255,94 270,41 255,6" />
<polygon fill="#9fafd2" fill-opacity="0.501961" points="238,6 235,16 256,18" />
<polygon fill="#e1d7cd" fill-opacity="0.501961" points="100,92 81,86 88,82" />
<polygon fill="#5e4235" fill-opacity="0.501961" points="124,126 129,128 132,121" />
<polygon fill="#988f98" fill-opacity="0.501961" points="221,45 231,17 223,20" />
<polygon fill="#443f49" fill-opacity="0.501961" points="43,58 56,91 54,68" />
<polygon fill="#565168" fill-opacity="0.501961" points="66,64 57,65 61,76" />
<polygon fill="#c7d3e3" fill-opacity="0.501961" points="188,138 185,132 182,136" />
<polygon fill="#e9ebee" fill-opacity="0.501961" points="132,95 150,92 149,76" />
<polygon fill="#a0b0c9" fill-opacity="0.501961" points="161,128 152,137 179,136" />
<polygon fill="#cdccca" fill-opacity="0.501961" points="40,48 36,55 36,46" />
<polygon fill="#afc0e2" fill-opacity="0.501961" points="70,22 71,26 73,25" />
<polygon fill="#e8dac2" fill-opacity="0.501961" points="162,99 166,89 170,103" />
<polygon fill="#736d58" fill-opacity="0.501961" points="85,138 108,159 105,138" />
<polygon fill="#b5c2d5" fill-opacity="0.501961" points="66,135 69,130 83,131" />
<polygon fill="#2e2d35" fill-opacity="0.501961" points="271,118 219,130 233,102" />
<polygon fill="#49444e" fill-opacity="0.501961" points="253,83 233,93 252,62" />
<polygon fill="#cde6ec" fill-opacity="0.501961" points="156,54 131,56 157,33" />
<polygon fill="#626263" fill-opacity="0.501961" points="124,135 111,155 94,158" />
<polygon fill="#b5a680" fill-opacity="0.501961" points="152,105 176,115 167,123" />
<polygon fill="#cee0f0" fill-opacity="0.501961" points="115,34 104,35 122,41" />
<polygon fill="#8c8e91" fill-opacity="0.501961" points="174,0 140,-16 80,1" />
<polygon fill="#2c2529" fill-opacity="0.501961" points="124,115 120,108 121,125" />
<polygon fill="#cec09f" fill-opacity="0.501961" points="141,106 147,93 167,98" />
<polygon fill="#a6b6d0" fill-opacity="0.501961" points="105,130 104,138 130,131" />
<polygon fill="#6f5f4e" fill-opacity="0.501961" points="176,96 172,102 175,89" />
<polygon fill="#63403f" fill-opacity="0.501961" points="161,95 154,85 151,91" />
<polygon fill="#a3abc3" fill-opacity="0.501961" points="125,26 84,8 83,25" />
<polygon fill="#cad7e9" fill-opacity="0.501961" points="109,35 97,40 89,36" />
<polygon fill="#494b47" fill-opacity="0.501961" points="207,122 197,144 216,122" />
<polygon fill="#8e827b" fill-opacity="0.501961" points="43,73 35,68 36,102" />
<polygon fill="#bbdbed" fill-opacity="0.501961" points="226,78 224,61 248,66" />
<polygon fill="#dff5f3" fill-opacity="0.501961" points="61,45 41,36 48,45" />
<polygon fill="#e3eaef" fill-opacity="0.501961" points="104,92 108,87 104,99" />
<polygon fill="#b4c3d6" fill-opacity="0.501961" points="192,129 193,137 200,129" />
<polygon fill="#55473d" fill-opacity="0.501961" points="147,123 161,120 157,113" />
<polygon fill="#978877" fill-opacity="0.501961" points="111,119 119,125 107,106" />
<polygon fill="#c3baae" fill-opacity="0.501961" points="206,114 203,124 209,119" />
<polygon fill="#594431" fill-opacity="0.501961" points="84,110 79,110 81,109" />
<polygon fill="#b4a797" fill-opacity="0.501961" points="119,121 114,131 87,113" />
<polygon fill="#373337" fill-opacity="0.501961" points="33,109 56,105 40,128" />
<polygon fill="#3c3c39" fill-opacity="0.501961" points="181,138 178,159 120,148" />
<polygon fill="#d9ccbd" fill-opacity="0.501961" points="145,99 126,91 131,88" />
<polygon fill="#8e8784" fill-opacity="0.501961" points="227,110 216,100 221,121" />
<polygon fill="#505455" fill-opacity="0.501961" points="134,85 123,72 133,74" />
<polygon fill="#cfc2b2" fill-opacity="0.501961" points="102,105 114,106 105,113" />
<polygon fill="#464a4b" fill-opacity="0.501961" points="215,101 220,92 213,78" />
<polygon fill="#51527f" fill-opacity="0.501961" points="72,74 68,69 77,65" />
<polygon fill="#594f6a" fill-opacity="0.501961" points="35,54 34,66 32,59" />
<polygon fill="#8b8157" fill-opacity="0.501961" points="159,115 159,128 171,129" />
<polygon fill="#867f8a" fill-opacity="0.501961" points="67,27 81,23 80,38" />
<polygon fill="#a08c7b" fill-opacity="0.501961" points="43,23 56,37 42,30" />
<polygon fill="#e2dccf" fill-opacity="0.501961" points="68,89 61,75 67,69" />
<polygon fill="#9b9a91" fill-opacity="0.501961" points="223,2 196,-11 251,-1" />
<polygon fill="#5e4124" fill-opacity="0.501961" points="208,129 219,127 223,159" />
<polygon fill="#f5ecd5" fill-opacity="0.501961" points="72,11 77,6 65,-3" />
<polygon fill="#424039" fill-opacity="0.501961" points="146,136 166,156 142,159" />
<polygon fill="#d5cab5" fill-opacity="0.501961" points="32,-11 19,-11 47,26" />
<polygon fill="#565858" fill-opacity="0.501961" points="208,141 195,159 202,119" />
<polygon fill="#d3c8bd" fill-opacity="0.501961" points="78,91 107,111 100,87" />
<polygon fill="#9495aa" fill-opacity="0.501961" points="74,43 74,83 83,58" />
<polygon fill="#d5e9f9" fill-opacity="0.501961" points="132,94 138,100 132,105" />
<polygon fill="#b3a992" fill-opacity="0.501961" points="151,13 160,27 151,-2" />
<polygon fill="#d9cfc5" fill-opacity="0.501961" points="81,85 89,81 102,91" />
<polygon fill="#2b2d2c" fill-opacity="0.501961" points="250,46 266,57 271,94" />
<polygon fill="#403f36" fill-opacity="0.501961" points="181,130 185,124 165,124" />
<polygon fill="#332f34" fill-opacity="0.501961" points="19,116 30,92 -16,41" />
<polygon fill="#454a56" fill-opacity="0.501961" points="131,113 130,93 118,98" />
<polygon fill="#a9ceea" fill-opacity="0.501961" points="244,39 252,55 244,59" />
<polygon fill="#7a674c" fill-opacity="0.501961" points="146,112 147,104 158,111" />
<polygon fill="#ac9f8e" fill-opacity="0.501961" points="67,121 81,130 95,122" />
<polygon fill="#7a7661" fill-opacity="0.501961" points="172,31 173,52 179,30" />
<polygon fill="#3e2f2d" fill-opacity="0.501961" points="96,66 76,84 106,75" />
<polygon fill="#7c818a" fill-opacity="0.501961" points="149,128 153,128 152,137" />
<polygon fill="#c0cce0" fill-opacity="0.501961" points="58,133 57,129 60,129" />
<polygon fill="#626270" fill-opacity="0.501961" points="125,134 123,131 120,138" />
<polygon fill="#817c75" fill-opacity="0.501961" points="8,22 5,16 23,23" />
<polygon fill="#eeeceb" fill-opacity="0.501961" points="151,60 141,67 149,94" />
<polygon fill="#815452" fill-opacity="0.501961" points="106,55 93,48 88,56" />
<polygon fill="#86817e" fill-opacity="0.501961" points="39,41 51,49 41,58" />
<polygon fill="#dfd3be" fill-opacity="0.501961" points="229,31 231,11 233,21" />
<polygon fill="#97625f" fill-opacity="0.501961" points="124,47 101,52 133,57" />
<polygon fill="#6a4544" fill-opacity="0.501961" points="112,73 114,61 121,56" />
<polygon fill="#64625d" fill-opacity="0.501961" points="170,20 169,43 160,14" />
<polygon fill="#543b3a" fill-opacity="0.501961" points="113,60 81,76 95,60" />
<polygon fill="#e4d8be" fill-opacity="0.501961" points="128,87 137,81 138,95" />
</g>
</svg>