<svg xmlns="http://www.w3.org/2000/svg" version="1.1" width="1024" height="576">
<rect x="0" y="0" width="1024" height="576" fill="#888988" />
<g transform="scale(4.000000) translate(0.5 0.5)">
<polygon fill="#ffffff" fill-opacity="0.501961" points="263,-16 249,77 -16,17" />
<polygon fill="#0e0901" fill-opacity="0.501961" points="-16,132 271,57 252,159" />
<polygon fill="#e8f6f8" fill-opacity="0.501961" points="50,85 40,-16 271,37" />
<polygon fill="#130902" fill-opacity="0.501961" points="98,145 15,45 -16,147" />
<polygon fill="#494140" fill-opacity="0.501961" points="216,71 96,69 17,126" />
<polygon fill="#304b6d" fill-opacity="0.501961" points="181,-16 165,41 181,87" />
<polygon fill="#8b7d6f" fill-opacity="0.501961" points="22,-16 3,89 46,22" />
<polygon fill="#dceef7" fill-opacity="0.501961" points="181,69 202,-16 271,68" />
<polygon fill="#e9f6fa" fill-opacity="0.501961" points="112,-16 173,68 109,66" />
<polygon fill="#787f84" fill-opacity="0.501961" points="136,92 230,68 271,96" />
<polygon fill="#867357" fill-opacity="0.501961" points="56,116 93,113 18,40" />
<polygon fill="#dacccf" fill-opacity="0.501961" points="19,34 8,-8 -5,87" />
<polygon fill="#272422" fill-opacity="0.501961" points="22,158 110,133 -16,73" />
<polygon fill="#4d5b6f" fill-opacity="0.501961" points="235,53 242,78 245,25" />
<polygon fill="#cb9873" fill-opacity="0.501961" points="80,113 60,34 85,33" />
<polygon fill="#9aafcb" fill-opacity="0.501961" points="137,128 106,132 137,140" />
<polygon fill="#e4ddd3" fill-opacity="0.501961" points="43,28 96,63 41,73" />
<polygon fill="#605d72" fill-opacity="0.501961" points="107,34 99,59 101,10" />
<polygon fill="#cce7f0" fill-opacity="0.501961" points="167,-16 167,57 10,-16" />
<polygon fill="#141210" fill-opacity="0.501961" points="86,95 131,97 93,111" />
<polygon fill="#5f5c61" fill-opacity="0.501961" points="59,83 2,34 21,87" />
<polygon fill="#d7eff6" fill-opacity="0.501961" points="240,1 166,-16 235,64" />
<polygon fill="#c7b597" fill-opacity="0.501961" points="63,34 92,81 54,95" />
<polygon fill="#fff9f7" fill-opacity="0.501961" points="100,64 76,23 98,3" />
<polygon fill="#7b727c" fill-opacity="0.501961" points="99,-11 107,14 101,31" />
<polygon fill="#857d68" fill-opacity="0.501961" points="44,-3 3,-16 37,63" />
<polygon fill="#446b9b" fill-opacity="0.501961" points="168,24 168,-16 177,-2" />
<polygon fill="#63605d" fill-opacity="0.501961" points="179,51 186,122 138,108" />
<polygon fill="#5a5f78" fill-opacity="0.501961" points="103,90 105,45 92,84" />
<polygon fill="#201d1e" fill-opacity="0.501961" points="223,111 177,96 242,95" />
<polygon fill="#d3ccd4" fill-opacity="0.501961" points="15,16 -16,-13 22,56" />
<polygon fill="#e9d9c4" fill-opacity="0.501961" points="1,40 -10,87 9,78" />
<polygon fill="#352f26" fill-opacity="0.501961" points="211,159 124,122 271,129" />
<polygon fill="#b56053" fill-opacity="0.501961" points="87,43 64,33 61,50" />
<polygon fill="#dfe3e7" fill-opacity="0.501961" points="170,32 106,66 159,70" />
<polygon fill="#d9f5f7" fill-opacity="0.501961" points="50,68 82,-15 46,7" />
<polygon fill="#f0f1ed" fill-opacity="0.501961" points="143,55 105,52 105,-16" />
<polygon fill="#525042" fill-opacity="0.501961" points="44,127 86,128 67,159" />
<polygon fill="#f6ede7" fill-opacity="0.501961" points="238,35 182,30 238,63" />
<polygon fill="#edeef0" fill-opacity="0.501961" points="82,67 101,68 93,12" />
<polygon fill="#d9f8ff" fill-opacity="0.501961" points="256,20 245,-16 245,58" />
<polygon fill="#150d0f" fill-opacity="0.501961" points="-16,73 -16,138 22,97" />
<polygon fill="#958a6c" fill-opacity="0.501961" points="91,85 50,109 76,115" />
<polygon fill="#9eb1cd" fill-opacity="0.501961" points="109,143 109,129 120,134" />
<polygon fill="#847968" fill-opacity="0.501961" points="-16,118 11,127 10,139" />
<polygon fill="#344263" fill-opacity="0.501961" points="223,81 172,67 122,81" />
<polygon fill="#687486" fill-opacity="0.501961" points="243,4 238,29 246,50" />
<polygon fill="#5b5445" fill-opacity="0.501961" points="14,101 36,83 31,14" />
<polygon fill="#23302d" fill-opacity="0.501961" points="255,-16 255,64 271,19" />
<polygon fill="#19171b" fill-opacity="0.501961" points="98,158 67,111 96,119" />
<polygon fill="#d9e1eb" fill-opacity="0.501961" points="258,68 247,71 244,41" />
<polygon fill="#546c8f" fill-opacity="0.501961" points="165,77 170,44 184,55" />
<polygon fill="#5f5e5e" fill-opacity="0.501961" points="233,120 242,42 253,114" />
<polygon fill="#b0d7ed" fill-opacity="0.501961" points="161,27 162,-16 111,20" />
<polygon fill="#373327" fill-opacity="0.501961" points="157,134 180,159 79,142" />
<polygon fill="#384e6c" fill-opacity="0.501961" points="206,69 271,72 222,83" />
<polygon fill="#464648" fill-opacity="0.501961" points="52,76 27,75 16,136" />
<polygon fill="#96a9c6" fill-opacity="0.501961" points="130,128 147,133 127,136" />
<polygon fill="#bbbdba" fill-opacity="0.501961" points="34,-3 34,40 42,23" />
<polygon fill="#908989" fill-opacity="0.501961" points="29,26 26,64 8,48" />
<polygon fill="#fdf4f5" fill-opacity="0.501961" points="49,55 53,21 63,54" />
<polygon fill="#c1d1de" fill-opacity="0.501961" points="241,70 234,53 181,67" />
<polygon fill="#736d63" fill-opacity="0.501961" points="86,80 166,109 212,80" />
<polygon fill="#acafb5" fill-opacity="0.501961" points="136,51 158,57 121,58" />
<polygon fill="#c7e4f1" fill-opacity="0.501961" points="183,-5 258,-11 184,31" />
<polygon fill="#463626" fill-opacity="0.501961" points="85,100 63,92 59,98" />
<polygon fill="#915953" fill-opacity="0.501961" points="84,51 79,48 86,36" />
<polygon fill="#f1f4f6" fill-opacity="0.501961" points="65,89 67,67 70,81" />
<polygon fill="#65555e" fill-opacity="0.501961" points="-16,13 11,49 -4,1" />
<polygon fill="#45475d" fill-opacity="0.501961" points="91,70 89,81 126,76" />
<polygon fill="#5e5d66" fill-opacity="0.501961" points="36,39 37,9 41,25" />
<polygon fill="#475771" fill-opacity="0.501961" points="245,-6 242,9 237,-16" />
<polygon fill="#565245" fill-opacity="0.501961" points="104,109 129,114 127,146" />
<polygon fill="#4e6b8d" fill-opacity="0.501961" points="68,68 72,86 73,73" />
<polygon fill="#d3ebeb" fill-opacity="0.501961" points="100,24 41,23 99,-16" />
<polygon fill="#998e7a" fill-opacity="0.501961" points="30,-2 23,14 -13,-5" />
<polygon fill="#131317" fill-opacity="0.501961" points="14,159 49,159 41,116" />
<polygon fill="#f6f0ed" fill-opacity="0.501961" points="240,51 183,36 184,56" />
<polygon fill="#e7ecea" fill-opacity="0.501961" points="105,3 166,55 106,55" />
<polygon fill="#4d485b" fill-opacity="0.501961" points="162,84 155,69 108,71" />
<polygon fill="#cfcdbd" fill-opacity="0.501961" points="72,73 40,72 77,42" />
<polygon fill="#814a45" fill-opacity="0.501961" points="69,41 64,51 60,43" />
<polygon fill="#cddbe7" fill-opacity="0.501961" points="168,69 134,69 167,52" />
<polygon fill="#dcd6db" fill-opacity="0.501961" points="13,8 -15,3 17,20" />
<polygon fill="#94a6c2" fill-opacity="0.501961" points="128,133 107,137 111,129" />
<polygon fill="#938a75" fill-opacity="0.501961" points="78,117 51,99 76,102" />
<polygon fill="#cbb384" fill-opacity="0.501961" points="57,66 53,80 71,65" />
<polygon fill="#575042" fill-opacity="0.501961" points="134,94 205,109 121,132" />
<polygon fill="#594a41" fill-opacity="0.501961" points="51,79 52,112 26,104" />
<polygon fill="#b29c6f" fill-opacity="0.501961" points="88,96 72,95 87,79" />
<polygon fill="#2d2b2a" fill-opacity="0.501961" points="78,99 132,95 125,110" />
<polygon fill="#727a8b" fill-opacity="0.501961" points="181,51 159,57 176,58" />
<polygon fill="#615b5d" fill-opacity="0.501961" points="8,73 7,52 45,75" />
<polygon fill="#777268" fill-opacity="0.501961" points="193,83 255,100 254,82" />
<polygon fill="#f0f1f2" fill-opacity="0.501961" points="94,34 79,56 99,54" />
<polygon fill="#999291" fill-opacity="0.501961" points="61,56 62,63 86,57" />
<polygon fill="#7a7d8e" fill-opacity="0.501961" points="104,56 92,55 98,59" />
<polygon fill="#eb957d" fill-opacity="0.501961" points="84,37 59,42 71,31" />
<polygon fill="#e3f3f3" fill-opacity="0.501961" points="255,56 254,5 244,42" />
<polygon fill="#494d5a" fill-opacity="0.501961" points="47,78 53,69 50,87" />
<polygon fill="#cfe3e8" fill-opacity="0.501961" points="240,46 187,15 239,-2" />
<polygon fill="#d9ebf1" fill-opacity="0.501961" points="142,69 104,57 107,69" />
<polygon fill="#9baecd" fill-opacity="0.501961" points="131,128 137,137 127,138" />
<polygon fill="#3c352d" fill-opacity="0.501961" points="189,114 131,128 193,147" />
<polygon fill="#8496a9" fill-opacity="0.501961" points="169,55 187,-16 168,10" />
<polygon fill="#282724" fill-opacity="0.501961" points="271,104 255,50 255,132" />
<polygon fill="#4a6a89" fill-opacity="0.501961" points="197,78 217,70 168,70" />
<polygon fill="#eeedeb" fill-opacity="0.501961" points="100,-3 98,19 52,40" />
<polygon fill="#e5f3fd" fill-opacity="0.501961" points="65,59 53,58 49,71" />
<polygon fill="#ffffe9" fill-opacity="0.501961" points="37,11 35,6 35,18" />
<polygon fill="#212426" fill-opacity="0.501961" points="212,108 186,96 187,106" />
<polygon fill="#bdbcc0" fill-opacity="0.501961" points="199,51 227,58 179,59" />
<polygon fill="#f1f1f0" fill-opacity="0.501961" points="237,44 197,53 237,55" />
<polygon fill="#8c7f68" fill-opacity="0.501961" points="75,104 54,95 60,116" />
<polygon fill="#251f1f" fill-opacity="0.501961" points="10,81 -16,89 24,118" />
<polygon fill="#ced6dd" fill-opacity="0.501961" points="254,70 259,40 244,64" />
<polygon fill="#dfcfa3" fill-opacity="0.501961" points="54,65 70,85 62,91" />
<polygon fill="#d4d5be" fill-opacity="0.501961" points="71,88 75,73 82,82" />
<polygon fill="#5d594f" fill-opacity="0.501961" points="39,44 38,72 12,79" />
<polygon fill="#1c1c1e" fill-opacity="0.501961" points="82,126 58,125 69,110" />
<polygon fill="#a9a8af" fill-opacity="0.501961" points="225,53 211,58 238,58" />
<polygon fill="#bee4ea" fill-opacity="0.501961" points="45,-16 53,24 93,5" />
<polygon fill="#7b7773" fill-opacity="0.501961" points="148,87 98,79 85,94" />
<polygon fill="#b29b6d" fill-opacity="0.501961" points="53,73 62,89 54,96" />
<polygon fill="#f8f0ec" fill-opacity="0.501961" points="131,1 108,11 103,-16" />
<polygon fill="#685c47" fill-opacity="0.501961" points="28,5 33,21 32,-6" />
<polygon fill="#161510" fill-opacity="0.501961" points="1,130 8,153 -16,119" />
<polygon fill="#ddd1c1" fill-opacity="0.501961" points="4,38 1,67 8,52" />
<polygon fill="#e5e1cf" fill-opacity="0.501961" points="37,22 34,32 34,16" />
<polygon fill="#4b4a56" fill-opacity="0.501961" points="102,69 98,81 140,78" />
<polygon fill="#2c3143" fill-opacity="0.501961" points="241,81 257,76 227,77" />
<polygon fill="#838c9c" fill-opacity="0.501961" points="241,20 244,6 238,-2" />
<polygon fill="#ecedec" fill-opacity="0.501961" points="184,19 236,55 194,55" />
<polygon fill="#566063" fill-opacity="0.501961" points="27,108 42,98 19,102" />
<polygon fill="#596076" fill-opacity="0.501961" points="103,55 98,79 105,84" />
<polygon fill="#60738b" fill-opacity="0.501961" points="181,76 168,64 181,26" />
<polygon fill="#a3a29e" fill-opacity="0.501961" points="45,43 46,9 37,11" />
<polygon fill="#f8edca" fill-opacity="0.501961" points="80,48 75,57 65,53" />
<polygon fill="#e5eeee" fill-opacity="0.501961" points="230,58 211,66 186,58" />
<polygon fill="#88807b" fill-opacity="0.501961" points="0,-16 -16,23 1,82" />
<polygon fill="#e0e9ed" fill-opacity="0.501961" points="100,70 99,60 78,58" />
<polygon fill="#c9b78b" fill-opacity="0.501961" points="65,53 88,80 90,70" />
<polygon fill="#a29f9e" fill-opacity="0.501961" points="37,73 45,35 48,71" />
<polygon fill="#bddce7" fill-opacity="0.501961" points="108,22 137,27 147,-14" />
<polygon fill="#737485" fill-opacity="0.501961" points="100,-7 102,11 107,-7" />
<polygon fill="#494434" fill-opacity="0.501961" points="105,123 88,153 115,159" />
<polygon fill="#69372f" fill-opacity="0.501961" points="83,42 80,48 84,50" />
<polygon fill="#645d50" fill-opacity="0.501961" points="137,110 95,109 95,121" />
<polygon fill="#57544e" fill-opacity="0.501961" points="189,141 189,109 219,108" />
<polygon fill="#7c7266" fill-opacity="0.501961" points="-1,-14 15,7 -15,0" />
<polygon fill="#89999d" fill-opacity="0.501961" points="183,40 181,-16 172,16" />
<polygon fill="#3b3830" fill-opacity="0.501961" points="8,115 16,159 33,106" />
<polygon fill="#3b3a34" fill-opacity="0.501961" points="157,146 119,134 117,146" />
<polygon fill="#696072" fill-opacity="0.501961" points="6,69 14,58 9,39" />
<polygon fill="#1c1a1e" fill-opacity="0.501961" points="20,126 50,110 78,125" />
<polygon fill="#6c655a" fill-opacity="0.501961" points="22,159 2,123 8,159" />
<polygon fill="#5d5444" fill-opacity="0.501961" points="33,28 23,68 34,77" />
<polygon fill="#958c8b" fill-opacity="0.501961" points="5,16 -13,20 1,25" />
<polygon fill="#56422d" fill-opacity="0.501961" points="65,98 67,89 77,89" />
<polygon fill="#685f51" fill-opacity="0.501961" points="236,108 239,92 271,109" />
<polygon fill="#efefeb" fill-opacity="0.501961" points="166,56 130,53 166,37" />
<polygon fill="#494f67" fill-opacity="0.501961" points="176,83 145,69 183,70" />
<polygon fill="#1f1e21" fill-opacity="0.501961" points="101,121 82,159 82,113" />
<polygon fill="#2c2b29" fill-opacity="0.501961" points="218,137 222,108 229,159" />
<polygon fill="#2d2928" fill-opacity="0.501961" points="43,101 42,94 16,97" />
<polygon fill="#45453d" fill-opacity="0.501961" points="117,122 119,133 149,119" />
<polygon fill="#716b60" fill-opacity="0.501961" points="43,89 58,87 46,81" />
<polygon fill="#887754" fill-opacity="0.501961" points="72,118 74,103 86,108" />
<polygon fill="#79777b" fill-opacity="0.501961" points="44,-5 39,30 36,10" />
<polygon fill="#edeae7" fill-opacity="0.501961" points="51,53 43,13 64,55" />
<polygon fill="#d1c295" fill-opacity="0.501961" points="76,83 88,71 78,89" />
<polygon fill="#1f2123" fill-opacity="0.501961" points="238,103 224,106 228,110" />
<polygon fill="#4e493e" fill-opacity="0.501961" points="87,128 64,140 57,130" />
<polygon fill="#1d1818" fill-opacity="0.501961" points="17,97 22,109 -7,118" />
<polygon fill="#5f6464" fill-opacity="0.501961" points="264,56 256,70 255,39" />
<polygon fill="#9a9380" fill-opacity="0.501961" points="29,1 0,-16 29,34" />
<polygon fill="#717587" fill-opacity="0.501961" points="102,48 105,34 101,30" />
<polygon fill="#d7e6e4" fill-opacity="0.501961" points="245,39 254,42 244,27" />
<polygon fill="#c8bcaf" fill-opacity="0.501961" points="-7,74 6,67 10,80" />
<polygon fill="#9fa2a7" fill-opacity="0.501961" points="246,55 245,60 259,55" />
<polygon fill="#bdb7aa" fill-opacity="0.501961" points="42,-16 43,21 52,-16" />
<polygon fill="#edf3e4" fill-opacity="0.501961" points="73,66 81,59 70,64" />
<polygon fill="#8a8795" fill-opacity="0.501961" points="113,57 105,58 103,55" />
<polygon fill="#d3ccd0" fill-opacity="0.501961" points="-2,5 18,43 13,13" />
<polygon fill="#89867f" fill-opacity="0.501961" points="74,70 84,80 77,64" />
<polygon fill="#acacbb" fill-opacity="0.501961" points="47,56 56,59 67,55" />
<polygon fill="#cde3ea" fill-opacity="0.501961" points="132,44 165,45 169,-7" />
<polygon fill="#70717d" fill-opacity="0.501961" points="104,17 101,7 101,27" />
<polygon fill="#c4dae9" fill-opacity="0.501961" points="243,-16 140,-16 238,18" />
<polygon fill="#beb7a4" fill-opacity="0.501961" points="35,37 32,54 36,48" />
<polygon fill="#1d2222" fill-opacity="0.501961" points="180,125 173,125 180,149" />
<polygon fill="#585249" fill-opacity="0.501961" points="34,50 12,91 26,95" />
<polygon fill="#afb1bb" fill-opacity="0.501961" points="99,55 96,61 80,55" />
<polygon fill="#ebe9e9" fill-opacity="0.501961" points="101,-2 79,27 91,47" />
<polygon fill="#968f7e" fill-opacity="0.501961" points="30,36 18,41 17,1" />
<polygon fill="#576e84" fill-opacity="0.501961" points="242,69 206,69 220,77" />
<polygon fill="#6c6167" fill-opacity="0.501961" points="-16,-16 11,48 -11,22" />
<polygon fill="#4e4742" fill-opacity="0.501961" points="218,110 223,145 196,127" />
<polygon fill="#e2edeb" fill-opacity="0.501961" points="69,67 72,73 75,67" />
<polygon fill="#4d4d47" fill-opacity="0.501961" points="86,100 108,127 84,112" />
<polygon fill="#e0eff3" fill-opacity="0.501961" points="192,64 188,57 182,67" />
<polygon fill="#64697c" fill-opacity="0.501961" points="107,77 97,69 130,69" />
<polygon fill="#683f2d" fill-opacity="0.501961" points="49,91 57,107 44,102" />
<polygon fill="#5f584c" fill-opacity="0.501961" points="184,126 186,98 128,99" />
<polygon fill="#42423d" fill-opacity="0.501961" points="145,112 137,139 137,90" />
<polygon fill="#aea9b3" fill-opacity="0.501961" points="111,55 124,60 137,56" />
<polygon fill="#3b5379" fill-opacity="0.501961" points="173,73 172,55 168,70" />
<polygon fill="#363142" fill-opacity="0.501961" points="155,81 143,76 170,76" />
<polygon fill="#edece8" fill-opacity="0.501961" points="123,38 157,30 141,24" />
<polygon fill="#35312e" fill-opacity="0.501961" points="132,96 86,95 110,111" />
<polygon fill="#736d61" fill-opacity="0.501961" points="20,64 29,41 27,76" />
<polygon fill="#706a5f" fill-opacity="0.501961" points="140,84 142,116 158,80" />
<polygon fill="#979aa3" fill-opacity="0.501961" points="182,56 199,56 192,59" />
<polygon fill="#2c261c" fill-opacity="0.501961" points="228,159 271,148 271,123" />
<polygon fill="#e5ecea" fill-opacity="0.501961" points="113,58 130,66 154,61" />
<polygon fill="#a6886a" fill-opacity="0.501961" points="61,65 62,75 64,70" />
<polygon fill="#6e716f" fill-opacity="0.501961" points="171,81 203,95 241,82" />
<polygon fill="#e9dec8" fill-opacity="0.501961" points="69,76 63,62 62,84" />
<polygon fill="#c0bbc2" fill-opacity="0.501961" points="10,35 14,51 16,21" />
<polygon fill="#a2a9b7" fill-opacity="0.501961" points="128,55 127,68 131,66" />
<polygon fill="#757069" fill-opacity="0.501961" points="86,95 103,96 90,80" />
<polygon fill="#e9eae9" fill-opacity="0.501961" points="246,68 245,40 255,46" />
<polygon fill="#ffffe0" fill-opacity="0.501961" points="35,2 45,-15 38,-16" />
<polygon fill="#80756a" fill-opacity="0.501961" points="115,88 86,81 78,90" />
<polygon fill="#584539" fill-opacity="0.501961" points="63,95 35,100 49,102" />
<polygon fill="#261f1c" fill-opacity="0.501961" points="170,126 145,125 149,131" />
<polygon fill="#c1e1f9" fill-opacity="0.501961" points="255,-3 254,11 235,-16" />
<polygon fill="#848a88" fill-opacity="0.501961" points="67,67 72,68 65,64" />
<polygon fill="#37332c" fill-opacity="0.501961" points="51,158 102,153 43,130" />
<polygon fill="#e5ebeb" fill-opacity="0.501961" points="105,-16 120,-1 106,54" />
<polygon fill="#484538" fill-opacity="0.501961" points="176,128 147,132 166,159" />
<polygon fill="#b97466" fill-opacity="0.501961" points="59,48 62,39 84,38" />
<polygon fill="#8b888e" fill-opacity="0.501961" points="172,42 175,57 177,30" />
<polygon fill="#667081" fill-opacity="0.501961" points="242,23 242,32 239,33" />
<polygon fill="#4a372d" fill-opacity="0.501961" points="29,121 -14,125 -2,115" />
<polygon fill="#d3ecee" fill-opacity="0.501961" points="183,-10 195,26 183,38" />
<polygon fill="#b2afac" fill-opacity="0.501961" points="46,42 42,22 40,46" />
<polygon fill="#514b42" fill-opacity="0.501961" points="254,110 222,111 239,136" />
<polygon fill="#355177" fill-opacity="0.501961" points="241,68 242,56 246,74" />
<polygon fill="#3c3d47" fill-opacity="0.501961" points="120,81 106,77 136,76" />
<polygon fill="#6d657a" fill-opacity="0.501961" points="16,64 15,43 22,61" />
<polygon fill="#5f637e" fill-opacity="0.501961" points="104,57 100,63 102,49" />
<polygon fill="#464945" fill-opacity="0.501961" points="39,91 37,113 48,111" />
<polygon fill="#66625c" fill-opacity="0.501961" points="63,116 72,94 65,97" />
<polygon fill="#5d574b" fill-opacity="0.501961" points="28,71 9,67 13,87" />
<polygon fill="#d49d90" fill-opacity="0.501961" points="62,36 61,41 72,31" />
<polygon fill="#9a988d" fill-opacity="0.501961" points="75,103 75,109 62,110" />
<polygon fill="#85827d" fill-opacity="0.501961" points="34,67 34,47 39,58" />
<polygon fill="#e5f3f7" fill-opacity="0.501961" points="54,44 65,55 63,49" />
<polygon fill="#ae7662" fill-opacity="0.501961" points="85,41 76,40 76,49" />
<polygon fill="#a4a3aa" fill-opacity="0.501961" points="170,55 162,59 155,55" />
<polygon fill="#302530" fill-opacity="0.501961" points="4,36 -16,46 -10,37" />
<polygon fill="#897958" fill-opacity="0.501961" points="73,120 76,99 84,105" />
<polygon fill="#d6cfd2" fill-opacity="0.501961" points="16,32 5,9 5,31" />
<polygon fill="#e8f3f3" fill-opacity="0.501961" points="119,68 105,64 106,60" />
<polygon fill="#25231b" fill-opacity="0.501961" points="271,103 255,88 256,159" />
<polygon fill="#5d5d61" fill-opacity="0.501961" points="33,66 37,81 40,50" />
<polygon fill="#848390" fill-opacity="0.501961" points="104,22 99,34 104,30" />
<polygon fill="#eff0f1" fill-opacity="0.501961" points="93,58 78,58 83,64" />
<polygon fill="#494c4a" fill-opacity="0.501961" points="17,112 25,106 19,121" />
<polygon fill="#dbd3c3" fill-opacity="0.501961" points="45,-1 45,21 55,-16" />
<polygon fill="#bbab84" fill-opacity="0.501961" points="86,91 72,94 86,95" />
<polygon fill="#1e1b1a" fill-opacity="0.501961" points="84,131 73,119 81,114" />
<polygon fill="#766f7d" fill-opacity="0.501961" points="8,48 9,33 14,56" />
<polygon fill="#b3c3d9" fill-opacity="0.501961" points="116,137 111,137 110,130" />
<polygon fill="#716b5e" fill-opacity="0.501961" points="129,98 134,98 131,109" />
<polygon fill="#3e3a31" fill-opacity="0.501961" points="172,138 101,140 172,159" />
<polygon fill="#826f4f" fill-opacity="0.501961" points="49,105 64,117 62,107" />
<polygon fill="#9e886f" fill-opacity="0.501961" points="61,63 79,57 70,57" />
<polygon fill="#d5c8a4" fill-opacity="0.501961" points="78,72 86,65 78,65" />
<polygon fill="#526482" fill-opacity="0.501961" points="256,69 247,73 248,69" />
<polygon fill="#9ab3c6" fill-opacity="0.501961" points="208,65 206,70 224,68" />
<polygon fill="#7d8a9b" fill-opacity="0.501961" points="244,1 245,19 239,19" />
<polygon fill="#2f3132" fill-opacity="0.501961" points="90,109 106,96 131,107" />
<polygon fill="#2f2b2a" fill-opacity="0.501961" points="223,110 237,95 185,95" />
<polygon fill="#4e6c88" fill-opacity="0.501961" points="178,69 212,69 197,76" />
<polygon fill="#e59e89" fill-opacity="0.501961" points="82,34 85,40 65,38" />
<polygon fill="#f2e7c5" fill-opacity="0.501961" points="69,55 75,44 76,58" />
<polygon fill="#a5b6d0" fill-opacity="0.501961" points="135,129 135,136 131,137" />
<polygon fill="#c7e4e8" fill-opacity="0.501961" points="107,17 140,-3 113,26" />
<polygon fill="#3a4f60" fill-opacity="0.501961" points="229,76 185,76 206,83" />
<polygon fill="#544537" fill-opacity="0.501961" points="179,124 129,126 173,111" />
<polygon fill="#676f71" fill-opacity="0.501961" points="230,81 203,79 199,87" />
<polygon fill="#dbe4e6" fill-opacity="0.501961" points="168,65 167,58 143,65" />
<polygon fill="#d8cec4" fill-opacity="0.501961" points="3,39 6,65 -6,39" />
<polygon fill="#1f1d21" fill-opacity="0.501961" points="74,159 95,109 90,159" />
<polygon fill="#adb2bb" fill-opacity="0.501961" points="196,66 193,58 196,55" />
<polygon fill="#464853" fill-opacity="0.501961" points="36,72 35,85 52,77" />
<polygon fill="#a8a9af" fill-opacity="0.501961" points="229,56 229,66 226,56" />
<polygon fill="#e1f2f3" fill-opacity="0.501961" points="94,69 87,69 93,61" />
<polygon fill="#b09a78" fill-opacity="0.501961" points="66,71 53,85 53,79" />
<polygon fill="#746753" fill-opacity="0.501961" points="33,11 34,44 27,32" />
<polygon fill="#343e4e" fill-opacity="0.501961" points="186,78 157,80 171,75" />
<polygon fill="#a4adb6" fill-opacity="0.501961" points="94,67 96,61 96,67" />
<polygon fill="#376492" fill-opacity="0.501961" points="178,60 182,68 178,70" />
<polygon fill="#f1eeee" fill-opacity="0.501961" points="111,47 122,52 104,56" />
<polygon fill="#475566" fill-opacity="0.501961" points="71,77 70,86 73,79" />
<polygon fill="#565145" fill-opacity="0.501961" points="102,134 135,113 98,115" />
<polygon fill="#2d2e2d" fill-opacity="0.501961" points="183,126 188,106 189,121" />
<polygon fill="#5b7695" fill-opacity="0.501961" points="170,60 175,51 172,36" />
<polygon fill="#383733" fill-opacity="0.501961" points="7,155 26,113 26,159" />
<polygon fill="#d6d3c2" fill-opacity="0.501961" points="34,35 37,34 36,28" />
<polygon fill="#705944" fill-opacity="0.501961" points="55,89 57,89 57,82" />
<polygon fill="#dfe4e3" fill-opacity="0.501961" points="79,77 76,73 73,76" />
<polygon fill="#cddfee" fill-opacity="0.501961" points="246,63 245,70 253,59" />
<polygon fill="#ebebea" fill-opacity="0.501961" points="217,28 183,55 238,55" />
<polygon fill="#666d7a" fill-opacity="0.501961" points="241,31 245,44 241,41" />
<polygon fill="#cfc8cd" fill-opacity="0.501961" points="-16,21 15,12 4,5" />
<polygon fill="#bbac89" fill-opacity="0.501961" points="65,86 75,88 82,84" />
<polygon fill="#8a8f9a" fill-opacity="0.501961" points="247,56 250,58 245,58" />
<polygon fill="#3b363a" fill-opacity="0.501961" points="130,76 147,76 140,79" />
<polygon fill="#666056" fill-opacity="0.501961" points="187,111 183,93 151,90" />
<polygon fill="#2c2526" fill-opacity="0.501961" points="6,81 21,101 -10,92" />
<polygon fill="#cdebea" fill-opacity="0.501961" points="67,31 112,-16 46,21" />
<polygon fill="#9c8c69" fill-opacity="0.501961" points="70,102 54,104 54,97" />
<polygon fill="#bce1e9" fill-opacity="0.501961" points="62,-16 63,20 48,16" />
<polygon fill="#b8bdc1" fill-opacity="0.501961" points="239,30 238,40 241,41" />
<polygon fill="#242320" fill-opacity="0.501961" points="55,159 53,125 45,159" />
<polygon fill="#5e5f79" fill-opacity="0.501961" points="103,48 99,49 104,45" />
<polygon fill="#beae89" fill-opacity="0.501961" points="52,94 53,89 62,87" />
<polygon fill="#8d7d5d" fill-opacity="0.501961" points="73,99 86,99 74,116" />
<polygon fill="#413d39" fill-opacity="0.501961" points="134,91 137,110 139,93" />
<polygon fill="#e5ecec" fill-opacity="0.501961" points="238,59 238,65 218,62" />
<polygon fill="#6b5c65" fill-opacity="0.501961" points="160,75 140,71 146,76" />
<polygon fill="#595446" fill-opacity="0.501961" points="146,102 173,121 141,118" />
<polygon fill="#bbd9ea" fill-opacity="0.501961" points="168,17 167,-5 115,13" />
<polygon fill="#423d32" fill-opacity="0.501961" points="128,135 120,136 120,159" />
<polygon fill="#6e738c" fill-opacity="0.501961" points="92,69 104,74 92,75" />
<polygon fill="#ededea" fill-opacity="0.501961" points="135,-16 78,-9 129,6" />
<polygon fill="#857066" fill-opacity="0.501961" points="69,47 63,52 63,44" />
<polygon fill="#3d3c38" fill-opacity="0.501961" points="180,157 222,141 180,124" />
<polygon fill="#6889ae" fill-opacity="0.501961" points="172,18 174,-16 165,-16" />
<polygon fill="#6a6765" fill-opacity="0.501961" points="41,58 33,72 38,39" />
<polygon fill="#878172" fill-opacity="0.501961" points="21,48 30,52 29,17" />
<polygon fill="#b3996e" fill-opacity="0.501961" points="85,77 84,87 88,91" />
<polygon fill="#767473" fill-opacity="0.501961" points="42,8 37,22 38,1" />
<polygon fill="#2a2521" fill-opacity="0.501961" points="18,129 10,130 9,121" />
<polygon fill="#5d5a54" fill-opacity="0.501961" points="190,109 217,110 196,118" />
<polygon fill="#474338" fill-opacity="0.501961" points="144,159 169,129 148,129" />
<polygon fill="#dcdfe6" fill-opacity="0.501961" points="66,69 68,88 70,76" />
<polygon fill="#eff3ed" fill-opacity="0.501961" points="107,59 126,60 109,64" />
<polygon fill="#262726" fill-opacity="0.501961" points="187,123 189,159 180,156" />
<polygon fill="#676056" fill-opacity="0.501961" points="243,99 255,116 253,80" />
<polygon fill="#aca195" fill-opacity="0.501961" points="6,80 -13,88 -16,54" />
<polygon fill="#474237" fill-opacity="0.501961" points="28,73 31,54 33,72" />
<polygon fill="#e8ebea" fill-opacity="0.501961" points="152,54 107,55 105,32" />
<polygon fill="#73706e" fill-opacity="0.501961" points="122,79 84,83 136,96" />
<polygon fill="#d1c198" fill-opacity="0.501961" points="71,88 61,85 53,71" />
<polygon fill="#4e4131" fill-opacity="0.501961" points="53,98 70,97 62,94" />
<polygon fill="#ebeceb" fill-opacity="0.501961" points="98,35 77,56 97,49" />
</g>
</svg>