<svg xmlns="http://www.w3.org/2000/svg" version="1.1" width="1024" height="576">
<rect x="0" y="0" width="1024" height="576" fill="#667572" />
<g transform="scale(4.000000) translate(0.5 0.5)">
<polygon fill="#bcd6cf" fill-opacity="0.501961" points="181,1 102,104 5,0" />
<polygon fill="#221c15" fill-opacity="0.501961" points="267,83 -16,145 268,159" />
<polygon fill="#2f302d" fill-opacity="0.501961" points="-2,157 181,140 -16,83" />
<polygon fill="#a3c7c4" fill-opacity="0.501961" points="104,96 87,132 182,83" />
<polygon fill="#e8f5e5" fill-opacity="0.501961" points="80,56 121,-8 159,21" />
<polygon fill="#665543" fill-opacity="0.501961" points="192,62 242,159 271,-7" />
<polygon fill="#58859a" fill-opacity="0.501961" points="201,29 180,139 99,52" />
<polygon fill="#477b8b" fill-opacity="0.501961" points="95,134 80,-13 24,70" />
<polygon fill="#02020d" fill-opacity="0.501961" points="73,159 149,102 169,132" />
<polygon fill="#ba8e6a" fill-opacity="0.501961" points="31,106 78,157 39,159" />
<polygon fill="#314f5f" fill-opacity="0.501961" points="167,121 244,72 204,20" />
<polygon fill="#b38a5e" fill-opacity="0.501961" points="230,81 226,152 250,106" />
<polygon fill="#898a8d" fill-opacity="0.501961" points="151,20 164,-15 253,36" />
<polygon fill="#272648" fill-opacity="0.501961" points="114,62 123,96 140,71" />
<polygon fill="#2d321f" fill-opacity="0.501961" points="15,66 -16,72 25,159" />
<polygon fill="#cfefde" fill-opacity="0.501961" points="70,94 36,93 31,104" />
<polygon fill="#111d0b" fill-opacity="0.501961" points="202,159 195,110 238,110" />
<polygon fill="#364040" fill-opacity="0.501961" points="90,78 69,144 38,120" />
<polygon fill="#f0e6c7" fill-opacity="0.501961" points="119,79 101,96 93,50" />
<polygon fill="#b1baa7" fill-opacity="0.501961" points="19,32 21,-6 88,42" />
<polygon fill="#a9877b" fill-opacity="0.501961" points="-3,35 29,57 39,118" />
<polygon fill="#f7f7ef" fill-opacity="0.501961" points="159,41 131,38 102,1" />
<polygon fill="#455959" fill-opacity="0.501961" points="69,31 95,34 68,-9" />
<polygon fill="#becbc2" fill-opacity="0.501961" points="189,-16 200,17 190,43" />
<polygon fill="#ecb98e" fill-opacity="0.501961" points="249,50 250,80 242,69" />
<polygon fill="#21313d" fill-opacity="0.501961" points="97,87 100,76 70,87" />
<polygon fill="#729bbe" fill-opacity="0.501961" points="73,134 69,124 95,106" />
<polygon fill="#5c7e97" fill-opacity="0.501961" points="112,107 85,90 97,145" />
<polygon fill="#a4acae" fill-opacity="0.501961" points="172,88 170,59 139,78" />
<polygon fill="#fed1aa" fill-opacity="0.501961" points="228,100 215,95 237,93" />
<polygon fill="#3d4e6d" fill-opacity="0.501961" points="100,64 119,66 105,38" />
<polygon fill="#97a59c" fill-opacity="0.501961" points="143,61 122,65 100,2" />
<polygon fill="#415b5b" fill-opacity="0.501961" points="189,7 154,16 161,-16" />
<polygon fill="#e8f1ee" fill-opacity="0.501961" points="75,43 94,58 108,38" />
<polygon fill="#477c84" fill-opacity="0.501961" points="77,95 36,14 21,73" />
<polygon fill="#cfc195" fill-opacity="0.501961" points="112,111 93,90 151,103" />
<polygon fill="#27273f" fill-opacity="0.501961" points="115,84 113,98 144,85" />
<polygon fill="#5b8ca2" fill-opacity="0.501961" points="185,150 155,34 154,104" />
<polygon fill="#557563" fill-opacity="0.501961" points="136,13 126,2 128,19" />
<polygon fill="#d0d0cb" fill-opacity="0.501961" points="80,66 113,68 70,84" />
<polygon fill="#323619" fill-opacity="0.501961" points="263,32 245,85 257,142" />
<polygon fill="#f1e8da" fill-opacity="0.501961" points="139,63 110,53 127,65" />
<polygon fill="#325255" fill-opacity="0.501961" points="108,3 103,20 95,13" />
<polygon fill="#fbdbc8" fill-opacity="0.501961" points="40,130 56,154 76,159" />
<polygon fill="#d2ecec" fill-opacity="0.501961" points="151,56 170,70 169,62" />
<polygon fill="#5e88a5" fill-opacity="0.501961" points="97,65 39,78 70,36" />
<polygon fill="#cba688" fill-opacity="0.501961" points="231,122 247,98 234,139" />
<polygon fill="#2e4750" fill-opacity="0.501961" points="32,100 67,99 97,138" />
<polygon fill="#686754" fill-opacity="0.501961" points="-11,6 -5,81 23,-16" />
<polygon fill="#f0d0d1" fill-opacity="0.501961" points="212,65 221,59 213,55" />
<polygon fill="#61958e" fill-opacity="0.501961" points="199,86 189,30 182,107" />
<polygon fill="#4d5167" fill-opacity="0.501961" points="118,63 141,77 172,68" />
<polygon fill="#111f0c" fill-opacity="0.501961" points="-16,127 9,159 12,123" />
<polygon fill="#283744" fill-opacity="0.501961" points="207,63 238,83 195,90" />
<polygon fill="#ccb9ac" fill-opacity="0.501961" points="244,19 240,10 224,13" />
<polygon fill="#96b9b3" fill-opacity="0.501961" points="175,18 149,50 138,27" />
<polygon fill="#234859" fill-opacity="0.501961" points="178,91 152,119 159,100" />
<polygon fill="#85b8b5" fill-opacity="0.501961" points="89,1 72,25 75,48" />
<polygon fill="#15122b" fill-opacity="0.501961" points="83,102 84,82 67,114" />
<polygon fill="#e6c1ad" fill-opacity="0.501961" points="7,34 15,69 5,51" />
<polygon fill="#e2d9b7" fill-opacity="0.501961" points="85,96 107,86 85,86" />
<polygon fill="#455184" fill-opacity="0.501961" points="64,56 91,71 93,60" />
<polygon fill="#d7ffff" fill-opacity="0.501961" points="194,134 194,139 197,135" />
<polygon fill="#1a1d22" fill-opacity="0.501961" points="169,119 86,152 121,113" />
<polygon fill="#3d3e42" fill-opacity="0.501961" points="241,53 215,91 222,39" />
<polygon fill="#e0b499" fill-opacity="0.501961" points="25,30 40,-12 15,-16" />
<polygon fill="#a2806d" fill-opacity="0.501961" points="249,29 204,21 251,56" />
<polygon fill="#808a8b" fill-opacity="0.501961" points="36,-13 29,31 86,-16" />
<polygon fill="#2f4740" fill-opacity="0.501961" points="140,41 136,46 151,52" />
<polygon fill="#594d37" fill-opacity="0.501961" points="222,151 222,103 244,94" />
<polygon fill="#bfd2b9" fill-opacity="0.501961" points="67,92 74,100 42,94" />
<polygon fill="#6b829b" fill-opacity="0.501961" points="186,119 175,108 171,159" />
<polygon fill="#66c6e1" fill-opacity="0.501961" points="168,89 154,99 129,93" />
<polygon fill="#d6ffff" fill-opacity="0.501961" points="243,139 248,141 246,136" />
<polygon fill="#d1feee" fill-opacity="0.501961" points="150,2 144,13 155,23" />
<polygon fill="#a3d5b6" fill-opacity="0.501961" points="40,31 65,11 69,39" />
<polygon fill="#000800" fill-opacity="0.501961" points="255,54 255,-16 270,0" />
<polygon fill="#272c14" fill-opacity="0.501961" points="239,134 265,141 271,77" />
<polygon fill="#49463f" fill-opacity="0.501961" points="70,20 96,-16 68,-16" />
<polygon fill="#41422f" fill-opacity="0.501961" points="33,97 35,133 -16,104" />
<polygon fill="#d7b59a" fill-opacity="0.501961" points="20,74 17,86 32,94" />
<polygon fill="#565c60" fill-opacity="0.501961" points="232,-9 195,-6 220,33" />
<polygon fill="#56544f" fill-opacity="0.501961" points="19,71 -16,40 21,113" />
<polygon fill="#4f5359" fill-opacity="0.501961" points="17,60 47,37 11,37" />
<polygon fill="#3a4f65" fill-opacity="0.501961" points="220,46 196,17 200,81" />
<polygon fill="#fef9f7" fill-opacity="0.501961" points="121,60 111,39 111,49" />
<polygon fill="#203543" fill-opacity="0.501961" points="187,118 169,88 183,96" />
<polygon fill="#385962" fill-opacity="0.501961" points="114,40 118,55 121,43" />
<polygon fill="#b4c5a0" fill-opacity="0.501961" points="95,8 146,8 123,-16" />
<polygon fill="#5095a1" fill-opacity="0.501961" points="113,36 121,28 109,22" />
<polygon fill="#7b7a6f" fill-opacity="0.501961" points="24,6 16,55 -13,-1" />
<polygon fill="#3c7776" fill-opacity="0.501961" points="143,34 153,30 146,20" />
<polygon fill="#f0e9dc" fill-opacity="0.501961" points="83,59 90,56 86,45" />
<polygon fill="#366165" fill-opacity="0.501961" points="95,37 94,26 75,30" />
<polygon fill="#c1e3f9" fill-opacity="0.501961" points="65,139 48,159 68,147" />
<polygon fill="#728da4" fill-opacity="0.501961" points="79,119 72,109 68,138" />
<polygon fill="#3c6b67" fill-opacity="0.501961" points="41,78 35,95 83,83" />
<polygon fill="#84aec7" fill-opacity="0.501961" points="69,62 46,75 85,66" />
<polygon fill="#bac3c9" fill-opacity="0.501961" points="137,79 153,75 162,84" />
<polygon fill="#7da7a8" fill-opacity="0.501961" points="177,31 192,61 170,43" />
<polygon fill="#363b58" fill-opacity="0.501961" points="80,149 116,159 69,111" />
<polygon fill="#345e5c" fill-opacity="0.501961" points="170,62 161,52 170,25" />
<polygon fill="#587584" fill-opacity="0.501961" points="66,101 70,50 80,97" />
<polygon fill="#103550" fill-opacity="0.501961" points="88,113 101,110 92,103" />
<polygon fill="#578688" fill-opacity="0.501961" points="180,102 192,86 195,114" />
<polygon fill="#4c5a5c" fill-opacity="0.501961" points="82,80 105,76 83,89" />
<polygon fill="#f3faf4" fill-opacity="0.501961" points="85,36 96,58 102,40" />
<polygon fill="#b2b190" fill-opacity="0.501961" points="104,117 117,117 121,91" />
<polygon fill="#222428" fill-opacity="0.501961" points="153,113 164,159 134,105" />
<polygon fill="#f4f2e8" fill-opacity="0.501961" points="131,36 109,13 123,6" />
<polygon fill="#343b3d" fill-opacity="0.501961" points="177,118 184,128 170,125" />
<polygon fill="#68726d" fill-opacity="0.501961" points="162,81 196,61 152,72" />
<polygon fill="#695d4b" fill-opacity="0.501961" points="227,92 238,21 248,89" />
<polygon fill="#323829" fill-opacity="0.501961" points="47,135 74,98 63,140" />
<polygon fill="#8e9b96" fill-opacity="0.501961" points="220,25 172,19 196,35" />
<polygon fill="#c5faec" fill-opacity="0.501961" points="156,19 145,15 163,34" />
<polygon fill="#fffff5" fill-opacity="0.501961" points="143,37 149,41 155,35" />
<polygon fill="#599093" fill-opacity="0.501961" points="37,35 86,40 56,67" />
<polygon fill="#504b42" fill-opacity="0.501961" points="-2,19 -4,87 7,54" />
<polygon fill="#685e45" fill-opacity="0.501961" points="55,109 47,119 12,88" />
<polygon fill="#1e3322" fill-opacity="0.501961" points="216,116 201,98 183,143" />
<polygon fill="#323548" fill-opacity="0.501961" points="112,88 114,101 127,73" />
<polygon fill="#a29f8b" fill-opacity="0.501961" points="130,50 120,30 145,41" />
<polygon fill="#96c7da" fill-opacity="0.501961" points="104,105 87,97 93,104" />
<polygon fill="#80c5cd" fill-opacity="0.501961" points="156,97 171,87 176,72" />
<polygon fill="#357f8d" fill-opacity="0.501961" points="151,60 138,52 167,42" />
<polygon fill="#535e61" fill-opacity="0.501961" points="6,70 38,63 43,81" />
<polygon fill="#1e1f21" fill-opacity="0.501961" points="124,109 166,127 138,159" />
<polygon fill="#b9edec" fill-opacity="0.501961" points="59,91 45,100 37,97" />
<polygon fill="#475671" fill-opacity="0.501961" points="167,71 118,68 155,60" />
<polygon fill="#91a08d" fill-opacity="0.501961" points="156,41 179,42 152,28" />
<polygon fill="#6a8d9b" fill-opacity="0.501961" points="147,103 172,116 172,126" />
<polygon fill="#584227" fill-opacity="0.501961" points="224,149 240,126 243,149" />
<polygon fill="#7e999f" fill-opacity="0.501961" points="214,107 220,105 219,98" />
<polygon fill="#eef1e8" fill-opacity="0.501961" points="96,22 96,29 115,37" />
<polygon fill="#22272e" fill-opacity="0.501961" points="154,101 147,119 103,126" />
<polygon fill="#2e508d" fill-opacity="0.501961" points="82,53 65,66 83,61" />
<polygon fill="#867257" fill-opacity="0.501961" points="12,102 17,78 28,92" />
<polygon fill="#ceab8c" fill-opacity="0.501961" points="253,63 247,76 245,48" />
<polygon fill="#637b8b" fill-opacity="0.501961" points="121,63 107,58 103,35" />
<polygon fill="#436166" fill-opacity="0.501961" points="185,45 178,74 189,92" />
<polygon fill="#e8eacb" fill-opacity="0.501961" points="98,63 113,88 117,78" />
<polygon fill="#ebd0ba" fill-opacity="0.501961" points="241,119 232,134 237,116" />
<polygon fill="#c7c6a8" fill-opacity="0.501961" points="128,92 147,102 119,103" />
<polygon fill="#69583c" fill-opacity="0.501961" points="236,122 225,107 249,81" />
<polygon fill="#97afd3" fill-opacity="0.501961" points="90,125 90,132 98,128" />
<polygon fill="#a5ccda" fill-opacity="0.501961" points="22,137 28,136 23,132" />
<polygon fill="#e9eac6" fill-opacity="0.501961" points="91,69 86,79 115,68" />
<polygon fill="#458faa" fill-opacity="0.501961" points="161,104 153,81 138,97" />
<polygon fill="#c1a58c" fill-opacity="0.501961" points="238,35 226,26 250,34" />
<polygon fill="#82a8c4" fill-opacity="0.501961" points="214,66 216,60 199,60" />
<polygon fill="#233925" fill-opacity="0.501961" points="196,92 216,104 213,95" />
<polygon fill="#3c4d38" fill-opacity="0.501961" points="271,7 256,56 246,17" />
<polygon fill="#28314d" fill-opacity="0.501961" points="82,131 103,117 81,122" />
<polygon fill="#d1d6d1" fill-opacity="0.501961" points="168,68 178,60 163,66" />
<polygon fill="#132114" fill-opacity="0.501961" points="244,156 259,108 263,148" />
<polygon fill="#5e594f" fill-opacity="0.501961" points="235,23 231,49 247,41" />
<polygon fill="#ffe9cc" fill-opacity="0.501961" points="208,154 227,141 230,159" />
<polygon fill="#f3e1d7" fill-opacity="0.501961" points="26,31 28,6 23,15" />
<polygon fill="#3a3e50" fill-opacity="0.501961" points="202,35 218,30 208,68" />
<polygon fill="#968274" fill-opacity="0.501961" points="220,123 227,129 239,121" />
<polygon fill="#fff2da" fill-opacity="0.501961" points="37,114 36,117 35,111" />
<polygon fill="#f5f2f2" fill-opacity="0.501961" points="124,24 136,21 143,38" />
<polygon fill="#c1c8b4" fill-opacity="0.501961" points="90,5 91,19 78,19" />
<polygon fill="#848b8e" fill-opacity="0.501961" points="77,82 93,48 89,81" />
<polygon fill="#362e18" fill-opacity="0.501961" points="217,120 230,134 208,159" />
<polygon fill="#8aacba" fill-opacity="0.501961" points="48,63 68,45 59,60" />
<polygon fill="#55452d" fill-opacity="0.501961" points="27,144 28,133 58,146" />
<polygon fill="#4e5c71" fill-opacity="0.501961" points="129,95 113,66 142,67" />
<polygon fill="#cec7ca" fill-opacity="0.501961" points="200,13 187,-4 195,17" />
<polygon fill="#66959b" fill-opacity="0.501961" points="174,74 189,68 209,74" />
<polygon fill="#5e797a" fill-opacity="0.501961" points="171,20 191,14 150,-3" />
<polygon fill="#81c9d7" fill-opacity="0.501961" points="72,48 79,47 77,57" />
<polygon fill="#366270" fill-opacity="0.501961" points="54,37 32,58 27,44" />
<polygon fill="#caa88b" fill-opacity="0.501961" points="250,48 240,47 242,51" />
<polygon fill="#20222a" fill-opacity="0.501961" points="163,116 122,113 172,137" />
<polygon fill="#b29379" fill-opacity="0.501961" points="247,91 229,85 237,83" />
<polygon fill="#495c71" fill-opacity="0.501961" points="99,57 102,65 126,68" />
<polygon fill="#353860" fill-opacity="0.501961" points="166,127 176,137 146,159" />
<polygon fill="#a5c7d4" fill-opacity="0.501961" points="73,123 70,125 74,136" />
<polygon fill="#aa9e75" fill-opacity="0.501961" points="78,91 74,97 66,92" />
<polygon fill="#42756a" fill-opacity="0.501961" points="58,68 57,91 72,75" />
<polygon fill="#d4fbff" fill-opacity="0.501961" points="87,115 84,112 87,111" />
<polygon fill="#e0d8d8" fill-opacity="0.501961" points="27,83 21,77 17,78" />
<polygon fill="#606d5f" fill-opacity="0.501961" points="124,-1 122,-13 79,2" />
<polygon fill="#bbe2ee" fill-opacity="0.501961" points="159,53 159,61 155,60" />
<polygon fill="#7ea89f" fill-opacity="0.501961" points="42,17 69,29 68,-16" />
<polygon fill="#53686b" fill-opacity="0.501961" points="196,28 208,34 200,13" />
<polygon fill="#a8997a" fill-opacity="0.501961" points="77,-15 14,-16 17,10" />
<polygon fill="#d0a686" fill-opacity="0.501961" points="46,136 42,125 35,135" />
<polygon fill="#786140" fill-opacity="0.501961" points="255,58 250,76 249,43" />
<polygon fill="#868166" fill-opacity="0.501961" points="139,104 118,109 122,114" />
<polygon fill="#739daf" fill-opacity="0.501961" points="-16,109 5,125 -16,82" />
<polygon fill="#749189" fill-opacity="0.501961" points="75,5 84,3 81,35" />
<polygon fill="#3f515c" fill-opacity="0.501961" points="181,30 161,22 172,33" />
<polygon fill="#95c0cd" fill-opacity="0.501961" points="210,101 210,107 208,106" />
<polygon fill="#514b3b" fill-opacity="0.501961" points="38,103 71,143 38,125" />
<polygon fill="#567d69" fill-opacity="0.501961" points="179,38 194,37 197,56" />
<polygon fill="#5b7f8e" fill-opacity="0.501961" points="108,108 93,127 105,129" />
<polygon fill="#bcbbdf" fill-opacity="0.501961" points="79,64 74,77 85,70" />
<polygon fill="#354f6b" fill-opacity="0.501961" points="69,56 57,58 77,61" />
<polygon fill="#b8c1bf" fill-opacity="0.501961" points="127,56 116,32 128,45" />
<polygon fill="#22332e" fill-opacity="0.501961" points="72,121 44,124 70,108" />
<polygon fill="#98eaef" fill-opacity="0.501961" points="167,97 163,88 159,91" />
<polygon fill="#e8c9a7" fill-opacity="0.501961" points="243,110 240,105 246,99" />
<polygon fill="#95cae0" fill-opacity="0.501961" points="166,19 162,13 158,12" />
<polygon fill="#a6ba99" fill-opacity="0.501961" points="102,27 82,15 114,22" />
<polygon fill="#494a34" fill-opacity="0.501961" points="246,130 247,77 269,72" />
<polygon fill="#20263e" fill-opacity="0.501961" points="80,105 85,100 77,83" />
<polygon fill="#d7dbc1" fill-opacity="0.501961" points="111,68 98,92 119,82" />
<polygon fill="#ffe5e3" fill-opacity="0.501961" points="207,25 208,23 205,21" />
<polygon fill="#54b5cc" fill-opacity="0.501961" points="40,54 51,45 46,43" />
<polygon fill="#406c82" fill-opacity="0.501961" points="164,84 146,83 168,91" />
<polygon fill="#666f60" fill-opacity="0.501961" points="134,8 136,14 132,16" />
<polygon fill="#7c97a5" fill-opacity="0.501961" points="223,105 226,110 231,109" />
<polygon fill="#446666" fill-opacity="0.501961" points="179,52 162,61 181,39" />
<polygon fill="#c3a993" fill-opacity="0.501961" points="23,81 29,95 34,77" />
<polygon fill="#58674d" fill-opacity="0.501961" points="269,-7 246,12 229,-8" />
<polygon fill="#2a3225" fill-opacity="0.501961" points="38,129 -16,122 -16,137" />
<polygon fill="#e9ecec" fill-opacity="0.501961" points="160,74 165,75 161,72" />
<polygon fill="#6a7766" fill-opacity="0.501961" points="86,80 101,74 104,78" />
<polygon fill="#518072" fill-opacity="0.501961" points="44,43 63,49 70,37" />
<polygon fill="#8fabbf" fill-opacity="0.501961" points="171,128 181,129 174,136" />
<polygon fill="#3c5159" fill-opacity="0.501961" points="157,19 153,14 160,6" />
<polygon fill="#171810" fill-opacity="0.501961" points="255,42 255,80 271,101" />
<polygon fill="#242f1f" fill-opacity="0.501961" points="224,109 197,106 229,124" />
<polygon fill="#dfbeb0" fill-opacity="0.501961" points="232,26 223,29 232,31" />
<polygon fill="#224751" fill-opacity="0.501961" points="88,22 87,34 84,25" />
<polygon fill="#b7a6af" fill-opacity="0.501961" points="189,22 173,19 173,26" />
<polygon fill="#6189a0" fill-opacity="0.501961" points="189,125 171,99 168,114" />
<polygon fill="#34535c" fill-opacity="0.501961" points="90,96 101,102 96,94" />
<polygon fill="#394b55" fill-opacity="0.501961" points="186,113 177,123 171,119" />
<polygon fill="#1d3f4b" fill-opacity="0.501961" points="165,99 161,98 163,113" />
<polygon fill="#3b3f50" fill-opacity="0.501961" points="67,134 94,154 105,131" />
<polygon fill="#365a7e" fill-opacity="0.501961" points="92,69 77,55 81,50" />
<polygon fill="#b1efe4" fill-opacity="0.501961" points="148,25 164,19 147,18" />
<polygon fill="#c4c9af" fill-opacity="0.501961" points="96,92 113,81 107,105" />
<polygon fill="#4f5147" fill-opacity="0.501961" points="-10,36 0,44 18,37" />
<polygon fill="#384d5d" fill-opacity="0.501961" points="196,69 224,35 196,35" />
<polygon fill="#a0b9d2" fill-opacity="0.501961" points="199,11 204,10 204,17" />
<polygon fill="#7a8880" fill-opacity="0.501961" points="245,16 233,14 230,-3" />
<polygon fill="#e2e5d4" fill-opacity="0.501961" points="138,7 133,27 147,7" />
<polygon fill="#a1d0ea" fill-opacity="0.501961" points="47,104 48,106 44,106" />
<polygon fill="#233539" fill-opacity="0.501961" points="184,115 191,111 170,95" />
<polygon fill="#35453e" fill-opacity="0.501961" points="-4,49 -16,136 17,92" />
<polygon fill="#524d60" fill-opacity="0.501961" points="188,11 183,21 177,17" />
<polygon fill="#bcb9c8" fill-opacity="0.501961" points="24,63 18,64 21,67" />
<polygon fill="#c6dbdf" fill-opacity="0.501961" points="48,16 50,27 43,31" />
<polygon fill="#abd2dc" fill-opacity="0.501961" points="187,56 192,57 191,62" />
<polygon fill="#8cafc3" fill-opacity="0.501961" points="92,121 101,112 92,115" />
<polygon fill="#cae8d8" fill-opacity="0.501961" points="83,41 89,62 92,35" />
<polygon fill="#89a4b0" fill-opacity="0.501961" points="176,1 179,13 173,14" />
<polygon fill="#cbb39a" fill-opacity="0.501961" points="214,98 224,97 215,93" />
<polygon fill="#404849" fill-opacity="0.501961" points="223,62 244,61 227,39" />
<polygon fill="#a8a5a3" fill-opacity="0.501961" points="30,110 34,102 28,108" />
<polygon fill="#c4ccad" fill-opacity="0.501961" points="118,94 124,101 121,92" />
<polygon fill="#937962" fill-opacity="0.501961" points="11,119 16,122 13,114" />
<polygon fill="#628192" fill-opacity="0.501961" points="72,112 82,124 80,130" />
<polygon fill="#997566" fill-opacity="0.501961" points="24,48 12,57 9,39" />
<polygon fill="#627979" fill-opacity="0.501961" points="173,50 174,91 186,91" />
<polygon fill="#6e6040" fill-opacity="0.501961" points="225,97 232,90 210,89" />
<polygon fill="#44706f" fill-opacity="0.501961" points="60,92 80,69 40,88" />
<polygon fill="#dfe4d7" fill-opacity="0.501961" points="119,61 132,62 114,52" />
<polygon fill="#5e5862" fill-opacity="0.501961" points="26,60 16,65 14,56" />
<polygon fill="#d6b8a6" fill-opacity="0.501961" points="48,111 47,109 47,114" />
<polygon fill="#b5b595" fill-opacity="0.501961" points="138,110 132,106 126,109" />
<polygon fill="#8ebfc9" fill-opacity="0.501961" points="175,42 167,43 181,31" />
<polygon fill="#334751" fill-opacity="0.501961" points="214,70 183,82 248,78" />
<polygon fill="#edebe5" fill-opacity="0.501961" points="99,31 98,64 92,53" />
<polygon fill="#8b897c" fill-opacity="0.501961" points="137,61 136,49 119,42" />
<polygon fill="#2a3629" fill-opacity="0.501961" points="-16,107 25,101 7,117" />
<polygon fill="#505c6a" fill-opacity="0.501961" points="92,55 85,71 95,65" />
<polygon fill="#5d6f81" fill-opacity="0.501961" points="127,66 102,46 99,65" />
<polygon fill="#30574a" fill-opacity="0.501961" points="197,114 201,98 185,102" />
<polygon fill="#72bcb8" fill-opacity="0.501961" points="45,76 74,67 53,67" />
<polygon fill="#36402c" fill-opacity="0.501961" points="216,111 212,82 207,90" />
<polygon fill="#ddbfaf" fill-opacity="0.501961" points="241,17 231,13 227,17" />
<polygon fill="#f7e2d5" fill-opacity="0.501961" points="9,49 8,55 11,58" />
<polygon fill="#202426" fill-opacity="0.501961" points="112,155 126,112 106,124" />
<polygon fill="#6ab0c8" fill-opacity="0.501961" points="155,90 144,85 160,104" />
<polygon fill="#2e3628" fill-opacity="0.501961" points="4,127 28,121 26,109" />
<polygon fill="#293532" fill-opacity="0.501961" points="45,124 64,125 84,113" />
<polygon fill="#7ba287" fill-opacity="0.501961" points="94,14 91,23 80,21" />
<polygon fill="#434c4f" fill-opacity="0.501961" points="217,62 242,85 219,81" />
<polygon fill="#947b65" fill-opacity="0.501961" points="230,65 235,64 243,71" />
<polygon fill="#477975" fill-opacity="0.501961" points="58,69 74,77 47,91" />
<polygon fill="#75c0bd" fill-opacity="0.501961" points="86,48 75,41 73,25" />
<polygon fill="#87a0be" fill-opacity="0.501961" points="88,159 81,139 94,158" />
<polygon fill="#888e8a" fill-opacity="0.501961" points="184,10 188,-3 194,14" />
<polygon fill="#708f9f" fill-opacity="0.501961" points="101,54 107,38 111,45" />
<polygon fill="#2d3733" fill-opacity="0.501961" points="178,159 184,125 195,144" />
<polygon fill="#6d8e93" fill-opacity="0.501961" points="10,24 25,34 -8,23" />
<polygon fill="#5394a2" fill-opacity="0.501961" points="163,50 143,61 149,45" />
<polygon fill="#8aadc5" fill-opacity="0.501961" points="180,104 190,96 186,95" />
<polygon fill="#25323e" fill-opacity="0.501961" points="91,97 64,104 71,111" />
<polygon fill="#303043" fill-opacity="0.501961" points="90,143 90,129 73,128" />
<polygon fill="#80654c" fill-opacity="0.501961" points="45,135 37,115 64,145" />
<polygon fill="#313334" fill-opacity="0.501961" points="73,-4 74,11 66,-4" />
<polygon fill="#cfe2c1" fill-opacity="0.501961" points="107,10 107,18 127,4" />
<polygon fill="#8ca9b3" fill-opacity="0.501961" points="159,86 163,83 147,80" />
<polygon fill="#7ac2ce" fill-opacity="0.501961" points="77,78 73,81 78,84" />
<polygon fill="#939893" fill-opacity="0.501961" points="136,82 161,72 146,73" />
<polygon fill="#b19a8d" fill-opacity="0.501961" points="234,140 234,135 238,137" />
<polygon fill="#466472" fill-opacity="0.501961" points="188,26 184,40 182,23" />
<polygon fill="#96a0a1" fill-opacity="0.501961" points="117,54 141,55 133,61" />
<polygon fill="#835f43" fill-opacity="0.501961" points="44,136 30,135 54,147" />
<polygon fill="#53442d" fill-opacity="0.501961" points="241,110 229,122 229,103" />
<polygon fill="#3c4d58" fill-opacity="0.501961" points="98,89 83,84 95,81" />
<polygon fill="#4f556c" fill-opacity="0.501961" points="150,83 130,94 139,83" />
<polygon fill="#457377" fill-opacity="0.501961" points="62,63 26,64 49,70" />
<polygon fill="#91bdac" fill-opacity="0.501961" points="148,25 144,12 139,32" />
<polygon fill="#769699" fill-opacity="0.501961" points="202,88 206,89 203,99" />
<polygon fill="#c4c9af" fill-opacity="0.501961" points="95,93 101,80 121,113" />
<polygon fill="#797762" fill-opacity="0.501961" points="75,90 67,99 69,106" />
<polygon fill="#bcc2ca" fill-opacity="0.501961" points="129,92 144,92 131,96" />
<polygon fill="#76716e" fill-opacity="0.501961" points="235,18 221,12 215,28" />
<polygon fill="#263327" fill-opacity="0.501961" points="18,132 32,143 10,149" />
<polygon fill="#6c97a6" fill-opacity="0.501961" points="36,58 51,59 46,65" />
<polygon fill="#7f6444" fill-opacity="0.501961" points="245,77 237,76 245,54" />
<polygon fill="#e2e5cb" fill-opacity="0.501961" points="112,67 85,77 97,66" />
<polygon fill="#5e5f4e" fill-opacity="0.501961" points="176,11 198,-8 192,-15" />
<polygon fill="#719db5" fill-opacity="0.501961" points="254,91 271,68 271,96" />
<polygon fill="#b2e5e5" fill-opacity="0.501961" points="45,98 55,99 57,93" />
<polygon fill="#5e8c88" fill-opacity="0.501961" points="197,85 189,62 195,53" />
<polygon fill="#eeefee" fill-opacity="0.501961" points="125,32 142,23 140,29" />
<polygon fill="#2d5459" fill-opacity="0.501961" points="147,50 140,55 145,43" />
<polygon fill="#5288b3" fill-opacity="0.501961" points="81,103 89,113 90,101" />
<polygon fill="#363a58" fill-opacity="0.501961" points="125,159 165,159 176,134" />
<polygon fill="#e5d4bd" fill-opacity="0.501961" points="239,31 244,30 243,32" />
<polygon fill="#3f5761" fill-opacity="0.501961" points="97,18 105,10 103,6" />
<polygon fill="#c9cbb0" fill-opacity="0.501961" points="106,88 87,95 84,90" />
<polygon fill="#6c696c" fill-opacity="0.501961" points="241,-16 193,-16 197,10" />
<polygon fill="#9bc3da" fill-opacity="0.501961" points="198,142 192,154 222,159" />
<polygon fill="#a57c69" fill-opacity="0.501961" points="4,61 10,62 4,40" />
<polygon fill="#537573" fill-opacity="0.501961" points="174,40 161,22 165,37" />
<polygon fill="#47a1cc" fill-opacity="0.501961" points="69,87 71,81 74,91" />
<polygon fill="#bd9283" fill-opacity="0.501961" points="216,59 226,59 217,55" />
<polygon fill="#26799e" fill-opacity="0.501961" points="164,90 168,96 170,89" />
<polygon fill="#405a6f" fill-opacity="0.501961" points="106,124 85,119 96,125" />
<polygon fill="#2d4a48" fill-opacity="0.501961" points="67,117 71,102 43,107" />
<polygon fill="#476969" fill-opacity="0.501961" points="171,68 190,76 200,99" />
<polygon fill="#455049" fill-opacity="0.501961" points="171,6 154,-16 175,-16" />
<polygon fill="#b7d2c6" fill-opacity="0.501961" points="74,36 58,31 49,36" />
<polygon fill="#a9c0be" fill-opacity="0.501961" points="154,37 156,44 145,47" />
<polygon fill="#2c4947" fill-opacity="0.501961" points="198,93 197,74 205,97" />
<polygon fill="#84a0a9" fill-opacity="0.501961" points="245,26 247,26 248,19" />
<polygon fill="#5d96a9" fill-opacity="0.501961" points="152,111 159,113 155,103" />
<polygon fill="#49717c" fill-opacity="0.501961" points="40,50 65,60 41,58" />
<polygon fill="#749fa7" fill-opacity="0.501961" points="189,86 179,90 172,86" />
<polygon fill="#518199" fill-opacity="0.501961" points="104,102 99,106 106,123" />
</g>
</svg>