<svg xmlns="http://www.w3.org/2000/svg" version="1.1" width="1024" height="504">
<rect x="0" y="0" width="1024" height="504" fill="#e1bbc7" />
<g transform="scale(4.000000) translate(0.5 0.5)">
<polygon fill="#fd2422" fill-opacity="0.501961" points="271,42 -16,43 97,-16" />
<polygon fill="#008fff" fill-opacity="0.501961" points="106,141 96,58 32,115" />
<polygon fill="#fd2220" fill-opacity="0.501961" points="264,-16 126,-8 263,38" />
<polygon fill="#fcffff" fill-opacity="0.501961" points="-16,45 271,44 245,141" />
<polygon fill="#fd2422" fill-opacity="0.501961" points="-16,-11 82,-10 2,33" />
<polygon fill="#198eff" fill-opacity="0.501961" points="149,73 46,72 51,100" />
<polygon fill="#ffffff" fill-opacity="0.501961" points="46,40 46,141 -16,92" />
<polygon fill="#f0ffff" fill-opacity="0.501961" points="271,113 102,39 100,141" />
<polygon fill="#0076ff" fill-opacity="0.501961" points="48,113 49,140 148,122" />
<polygon fill="#fcffff" fill-opacity="0.501961" points="118,45 260,141 257,44" />
<polygon fill="#f8ffff" fill-opacity="0.501961" points="55,110 2,141 -7,32" />
<polygon fill="#ffffff" fill-opacity="0.501961" points="31,124 80,141 140,124" />
<polygon fill="#237efc" fill-opacity="0.501961" points="104,78 150,65 151,78" />
<polygon fill="#ffffff" fill-opacity="0.501961" points="103,79 243,106 101,122" />
<polygon fill="#1d80ff" fill-opacity="0.501961" points="100,82 53,104 101,109" />
<polygon fill="#fcffff" fill-opacity="0.501961" points="-16,72 41,43 146,72" />
<polygon fill="#4c96ff" fill-opacity="0.501961" points="118,72 48,76 47,109" />
<polygon fill="#ffffff" fill-opacity="0.501961" points="64,105 91,111 48,113" />
<polygon fill="#005eff" fill-opacity="0.501961" points="98,124 46,120 100,109" />
<polygon fill="#f8f4f0" fill-opacity="0.501961" points="271,122 163,46 149,141" />
<polygon fill="#f5fcf7" fill-opacity="0.501961" points="-15,40 46,74 46,139" />
<polygon fill="#97c9ff" fill-opacity="0.501961" points="151,118 145,105 151,93" />
<polygon fill="#f7deda" fill-opacity="0.501961" points="122,18 138,24 120,25" />
<polygon fill="#ffffff" fill-opacity="0.501961" points="132,125 68,141 51,123" />
<polygon fill="#ffffff" fill-opacity="0.501961" points="154,119 140,81 106,120" />
<polygon fill="#207ef4" fill-opacity="0.501961" points="44,108 75,107 59,102" />
<polygon fill="#006bfb" fill-opacity="0.501961" points="49,124 73,113 48,112" />
<polygon fill="#3995ff" fill-opacity="0.501961" points="151,109 148,129 153,121" />
<polygon fill="#a6afa6" fill-opacity="0.501961" points="114,60 91,56 118,53" />
<polygon fill="#ffffff" fill-opacity="0.501961" points="73,56 115,45 56,44" />
<polygon fill="#ffffff" fill-opacity="0.501961" points="151,72 118,57 85,66" />
<polygon fill="#fdfffa" fill-opacity="0.501961" points="149,80 100,111 100,78" />
<polygon fill="#ffffff" fill-opacity="0.501961" points="210,45 212,141 180,50" />
<polygon fill="#e95559" fill-opacity="0.501961" points="114,44 104,36 100,43" />
<polygon fill="#004fff" fill-opacity="0.501961" points="140,121 144,124 151,122" />
<polygon fill="#5a9ffb" fill-opacity="0.501961" points="48,107 107,74 47,72" />
<polygon fill="#b1bab5" fill-opacity="0.501961" points="167,57 180,53 155,52" />
<polygon fill="#f1f5f4" fill-opacity="0.501961" points="51,128 -16,121 12,44" />
<polygon fill="#ffffff" fill-opacity="0.501961" points="146,45 122,61 193,73" />
<polygon fill="#b8c5bd" fill-opacity="0.501961" points="85,52 63,58 106,58" />
<polygon fill="#ffffff" fill-opacity="0.501961" points="90,72 44,60 123,58" />
<polygon fill="#0772ff" fill-opacity="0.501961" points="97,93 101,117 90,114" />
<polygon fill="#f8f2f0" fill-opacity="0.501961" points="153,54 152,124 255,141" />
<polygon fill="#ffffff" fill-opacity="0.501961" points="83,113 71,108 91,109" />
<polygon fill="#0069ff" fill-opacity="0.501961" points="89,116 115,123 77,123" />
<polygon fill="#ef6d72" fill-opacity="0.501961" points="48,44 -16,40 93,-16" />
<polygon fill="#65a9f8" fill-opacity="0.501961" points="151,71 151,92 143,66" />
<polygon fill="#ffffff" fill-opacity="0.501961" points="150,79 99,121 149,119" />
<polygon fill="#b8c4bc" fill-opacity="0.501961" points="67,58 47,57 52,53" />
<polygon fill="#7bb1e8" fill-opacity="0.501961" points="74,84 97,92 51,90" />
<polygon fill="#f2f4f4" fill-opacity="0.501961" points="55,46 31,138 4,44" />
<polygon fill="#fffff6" fill-opacity="0.501961" points="57,110 71,108 73,112" />
<polygon fill="#ffffff" fill-opacity="0.501961" points="78,44 49,55 108,52" />
<polygon fill="#4190f3" fill-opacity="0.501961" points="48,107 48,92 97,108" />
<polygon fill="#f3bab9" fill-opacity="0.501961" points="135,18 135,22 122,19" />
<polygon fill="#0065e4" fill-opacity="0.501961" points="150,66 146,71 141,68" />
<polygon fill="#fffffc" fill-opacity="0.501961" points="4,124 66,141 117,124" />
<polygon fill="#acb0aa" fill-opacity="0.501961" points="122,54 107,56 125,59" />
<polygon fill="#f4e6e4" fill-opacity="0.501961" points="162,119 190,120 164,55" />
<polygon fill="#006dff" fill-opacity="0.501961" points="49,123 83,113 105,123" />
<polygon fill="#f2f4f4" fill-opacity="0.501961" points="271,123 125,141 265,41" />
<polygon fill="#ffffff" fill-opacity="0.501961" points="148,60 137,73 112,58" />
<polygon fill="#f1dddb" fill-opacity="0.501961" points="180,86 164,79 206,77" />
<polygon fill="#2b83ff" fill-opacity="0.501961" points="91,83 100,109 89,110" />
<polygon fill="#ffffff" fill-opacity="0.501961" points="149,65 110,50 185,57" />
<polygon fill="#fbfefb" fill-opacity="0.501961" points="101,118 101,90 136,121" />
<polygon fill="#ffffff" fill-opacity="0.501961" points="116,54 136,47 95,47" />
<polygon fill="#e1f0fe" fill-opacity="0.501961" points="89,123 87,136 103,123" />
<polygon fill="#ef7478" fill-opacity="0.501961" points="177,11 137,43 77,43" />
<polygon fill="#0068ff" fill-opacity="0.501961" points="146,121 136,122 142,124" />
<polygon fill="#f7f7f5" fill-opacity="0.501961" points="124,117 116,81 100,120" />
<polygon fill="#babfbb" fill-opacity="0.501961" points="168,56 182,51 156,52" />
<polygon fill="#fbf7f5" fill-opacity="0.501961" points="146,71 190,76 187,64" />
<polygon fill="#1e7df6" fill-opacity="0.501961" points="91,124 92,112 55,112" />
<polygon fill="#ffffff" fill-opacity="0.501961" points="210,121 215,49 178,48" />
<polygon fill="#aadfea" fill-opacity="0.501961" points="64,69 45,69 51,65" />
<polygon fill="#ef6e73" fill-opacity="0.501961" points="47,43 75,-16 -16,43" />
<polygon fill="#e9cac5" fill-opacity="0.501961" points="187,64 197,61 176,60" />
<polygon fill="#f4f4f4" fill-opacity="0.501961" points="48,50 46,122 -16,133" />
<polygon fill="#4991ff" fill-opacity="0.501961" points="117,73 120,78 101,74" />
<polygon fill="#fffffe" fill-opacity="0.501961" points="75,65 131,72 164,51" />
<polygon fill="#f8f4f3" fill-opacity="0.501961" points="150,64 170,54 172,90" />
<polygon fill="#ffffff" fill-opacity="0.501961" points="154,124 87,124 92,141" />
<polygon fill="#fffffe" fill-opacity="0.501961" points="47,107 61,108 59,113" />
<polygon fill="#fefffb" fill-opacity="0.501961" points="105,79 149,117 149,80" />
<polygon fill="#fbfffb" fill-opacity="0.501961" points="113,72 57,71 99,57" />
<polygon fill="#f7e7e4" fill-opacity="0.501961" points="206,100 163,100 200,123" />
<polygon fill="#ffffff" fill-opacity="0.501961" points="46,44 85,48 49,54" />
<polygon fill="#fffff8" fill-opacity="0.501961" points="68,109 75,112 86,108" />
<polygon fill="#4d93fd" fill-opacity="0.501961" points="101,89 74,89 91,78" />
<polygon fill="#2681f2" fill-opacity="0.501961" points="47,112 53,121 79,114" />
<polygon fill="#ef9090" fill-opacity="0.501961" points="140,32 123,38 106,32" />
<polygon fill="#2384fc" fill-opacity="0.501961" points="136,120 123,125 110,121" />
<polygon fill="#eff1f1" fill-opacity="0.501961" points="271,120 213,50 211,141" />
<polygon fill="#ffffff" fill-opacity="0.501961" points="40,66 79,67 63,57" />
<polygon fill="#f1f1f1" fill-opacity="0.501961" points="43,141 44,44 -16,44" />
<polygon fill="#fbffff" fill-opacity="0.501961" points="174,123 133,141 71,126" />
<polygon fill="#ffffff" fill-opacity="0.501961" points="118,53 90,46 66,54" />
<polygon fill="#4994fc" fill-opacity="0.501961" points="100,111 92,86 100,74" />
<polygon fill="#ffffff" fill-opacity="0.501961" points="119,119 148,109 133,121" />
<polygon fill="#ffffff" fill-opacity="0.501961" points="193,101 168,99 200,93" />
<polygon fill="#f7f9f8" fill-opacity="0.501961" points="102,119 131,79 123,121" />
<polygon fill="#ffffff" fill-opacity="0.501961" points="139,45 142,70 124,47" />
<polygon fill="#4390f6" fill-opacity="0.501961" points="71,89 46,108 73,105" />
<polygon fill="#f4f5f2" fill-opacity="0.501961" points="101,80 129,79 108,103" />
<polygon fill="#fafdfd" fill-opacity="0.501961" points="152,119 167,139 159,99" />
<polygon fill="#5498fd" fill-opacity="0.501961" points="134,72 114,78 151,77" />
<polygon fill="#edd2cf" fill-opacity="0.501961" points="202,78 190,81 179,77" />
<polygon fill="#fffffc" fill-opacity="0.501961" points="122,124 105,134 145,127" />
<polygon fill="#579eff" fill-opacity="0.501961" points="73,81 47,81 48,73" />
<polygon fill="#fafdf9" fill-opacity="0.501961" points="142,72 109,71 139,60" />
<polygon fill="#ef6b70" fill-opacity="0.501961" points="126,-16 140,-16 128,23" />
<polygon fill="#eccbc7" fill-opacity="0.501961" points="176,116 184,112 168,112" />
<polygon fill="#ffffff" fill-opacity="0.501961" points="190,77 209,63 168,64" />
<polygon fill="#f19a9d" fill-opacity="0.501961" points="210,4 204,2 201,6" />
<polygon fill="#ef6e73" fill-opacity="0.501961" points="109,43 -15,42 76,-16" />
<polygon fill="#d89996" fill-opacity="0.501961" points="163,73 170,74 169,72" />
<polygon fill="#b8bbb8" fill-opacity="0.501961" points="95,59 112,54 78,54" />
<polygon fill="#fafcfb" fill-opacity="0.501961" points="155,80 152,91 183,81" />
<polygon fill="#ffffff" fill-opacity="0.501961" points="116,70 113,58 73,59" />
<polygon fill="#f0f5f2" fill-opacity="0.501961" points="261,102 271,44 204,45" />
<polygon fill="#036eea" fill-opacity="0.501961" points="144,66 142,69 151,70" />
<polygon fill="#f0deda" fill-opacity="0.501961" points="193,90 161,82 167,91" />
<polygon fill="#67a3fa" fill-opacity="0.501961" points="129,72 91,72 107,78" />
<polygon fill="#eccecc" fill-opacity="0.501961" points="163,106 177,107 162,110" />
<polygon fill="#c0c5c0" fill-opacity="0.501961" points="64,54 67,58 51,58" />
<polygon fill="#f09999" fill-opacity="0.501961" points="46,4 50,-3 39,6" />
<polygon fill="#ffffff" fill-opacity="0.501961" points="55,111 49,109 60,108" />
<polygon fill="#3b8dfc" fill-opacity="0.501961" points="62,86 53,89 73,89" />
<polygon fill="#edcec8" fill-opacity="0.501961" points="184,117 176,119 191,120" />
<polygon fill="#f9fdfc" fill-opacity="0.501961" points="161,48 153,83 152,61" />
<polygon fill="#ffffff" fill-opacity="0.501961" points="169,113 164,118 187,117" />
<polygon fill="#fbfbfa" fill-opacity="0.501961" points="190,89 191,77 170,88" />
<polygon fill="#1777ff" fill-opacity="0.501961" points="91,109 99,99 100,117" />
<polygon fill="#ef6d72" fill-opacity="0.501961" points="193,5 130,6 142,34" />
<polygon fill="#fcfdfd" fill-opacity="0.501961" points="172,109 152,107 153,124" />
<polygon fill="#81b4e7" fill-opacity="0.501961" points="88,90 80,92 75,88" />
<polygon fill="#4592f8" fill-opacity="0.501961" points="99,95 48,92 58,108" />
<polygon fill="#ffffff" fill-opacity="0.501961" points="186,46 211,95 209,54" />
<polygon fill="#deaba7" fill-opacity="0.501961" points="175,89 171,91 165,90" />
<polygon fill="#fffffe" fill-opacity="0.501961" points="39,124 105,125 93,141" />
<polygon fill="#ffffff" fill-opacity="0.501961" points="87,109 84,107 75,112" />
<polygon fill="#3386f6" fill-opacity="0.501961" points="91,107 74,102 56,107" />
<polygon fill="#0c71ff" fill-opacity="0.501961" points="58,120 98,122 95,112" />
<polygon fill="#fdfdfc" fill-opacity="0.501961" points="223,122 202,108 171,108" />
<polygon fill="#1379ff" fill-opacity="0.501961" points="136,121 131,124 141,123" />
<polygon fill="#ffffff" fill-opacity="0.501961" points="134,121 149,96 147,119" />
<polygon fill="#ffffff" fill-opacity="0.501961" points="177,85 165,88 188,89" />
<polygon fill="#eff1ed" fill-opacity="0.501961" points="144,95 133,93 122,103" />
<polygon fill="#e9cbc7" fill-opacity="0.501961" points="199,111 188,114 201,114" />
<polygon fill="#ffffff" fill-opacity="0.501961" points="175,59 209,60 183,47" />
<polygon fill="#fdfcfb" fill-opacity="0.501961" points="46,95 46,138 39,119" />
<polygon fill="#e7e8e7" fill-opacity="0.501961" points="101,43 103,48 108,43" />
<polygon fill="#ffffff" fill-opacity="0.501961" points="115,47 162,48 153,67" />
<polygon fill="#4c95fb" fill-opacity="0.501961" points="98,88 87,79 74,89" />
<polygon fill="#f1f2f1" fill-opacity="0.501961" points="32,44 48,141 -16,112" />
<polygon fill="#ffffff" fill-opacity="0.501961" points="206,100 174,93 211,90" />
<polygon fill="#eacdc9" fill-opacity="0.501961" points="191,106 208,106 202,109" />
<polygon fill="#6ca9f2" fill-opacity="0.501961" points="153,97 150,108 150,92" />
<polygon fill="#84bbe9" fill-opacity="0.501961" points="68,87 65,83 53,86" />
<polygon fill="#f9faf9" fill-opacity="0.501961" points="170,141 152,91 153,126" />
<polygon fill="#f9f9f9" fill-opacity="0.501961" points="154,55 172,55 152,100" />
<polygon fill="#3895ff" fill-opacity="0.501961" points="47,124 52,124 47,120" />
<polygon fill="#ffffff" fill-opacity="0.501961" points="81,112 89,109 89,112" />
<polygon fill="#ecd3cf" fill-opacity="0.501961" points="170,83 181,87 192,84" />
<polygon fill="#e2b9b5" fill-opacity="0.501961" points="177,73 182,74 179,71" />
<polygon fill="#016aff" fill-opacity="0.501961" points="51,116 73,123 47,123" />
<polygon fill="#f09b9a" fill-opacity="0.501961" points="145,36 132,34 148,32" />
<polygon fill="#4f98fd" fill-opacity="0.501961" points="47,84 78,84 51,76" />
<polygon fill="#ffffff" fill-opacity="0.501961" points="193,84 181,80 204,80" />
<polygon fill="#efd7d3" fill-opacity="0.501961" points="210,122 207,117 192,118" />
<polygon fill="#f9fbfa" fill-opacity="0.501961" points="159,119 160,141 220,121" />
<polygon fill="#f3c0bf" fill-opacity="0.501961" points="106,33 109,33 107,35" />
<polygon fill="#ee676c" fill-opacity="0.501961" points="119,43 116,35 148,36" />
<polygon fill="#569cf3" fill-opacity="0.501961" points="50,96 64,102 78,95" />
<polygon fill="#e6777a" fill-opacity="0.501961" points="5,44 -16,18 -14,40" />
<polygon fill="#f0deda" fill-opacity="0.501961" points="161,60 171,64 175,61" />
<polygon fill="#fcfefd" fill-opacity="0.501961" points="39,73 47,66 46,101" />
<polygon fill="#feffff" fill-opacity="0.501961" points="202,60 165,71 186,72" />
<polygon fill="#ffffff" fill-opacity="0.501961" points="139,118 147,79 150,97" />
<polygon fill="#fcfcfb" fill-opacity="0.501961" points="207,103 197,112 176,104" />
<polygon fill="#ee676c" fill-opacity="0.501961" points="41,-16 49,10 50,-2" />
<polygon fill="#f2f2f2" fill-opacity="0.501961" points="-16,47 43,44 44,141" />
<polygon fill="#ee6d71" fill-opacity="0.501961" points="102,33 123,25 149,33" />
<polygon fill="#ffffff" fill-opacity="0.501961" points="58,63 96,64 75,57" />
<polygon fill="#ffffff" fill-opacity="0.501961" points="193,124 95,124 148,141" />
<polygon fill="#abb1ac" fill-opacity="0.501961" points="71,57 67,57 67,55" />
<polygon fill="#ffffff" fill-opacity="0.501961" points="48,60 70,63 41,67" />
<polygon fill="#5d9eff" fill-opacity="0.501961" points="53,74 95,73 100,86" />
<polygon fill="#f1f1f1" fill-opacity="0.501961" points="161,62 156,76 154,51" />
<polygon fill="#feffff" fill-opacity="0.501961" points="173,45 162,48 178,51" />
<polygon fill="#f0eeee" fill-opacity="0.501961" points="119,118 107,117 109,100" />
<polygon fill="#e8c3bf" fill-opacity="0.501961" points="181,105 176,108 185,108" />
<polygon fill="#ffffff" fill-opacity="0.501961" points="165,106 182,104 169,102" />
<polygon fill="#ffffff" fill-opacity="0.501961" points="125,121 133,105 109,104" />
<polygon fill="#fafcfb" fill-opacity="0.501961" points="84,71 85,55 76,72" />
<polygon fill="#e5bfbc" fill-opacity="0.501961" points="182,100 173,103 173,100" />
<polygon fill="#bcc0bc" fill-opacity="0.501961" points="111,57 125,58 126,54" />
<polygon fill="#eaede8" fill-opacity="0.501961" points="129,65 125,69 141,69" />
<polygon fill="#4491fa" fill-opacity="0.501961" points="52,92 87,92 85,108" />
<polygon fill="#fefffe" fill-opacity="0.501961" points="180,57 123,55 120,71" />
<polygon fill="#ffffff" fill-opacity="0.501961" points="100,120 106,119 104,106" />
<polygon fill="#f3acad" fill-opacity="0.501961" points="133,19 126,26 133,25" />
<polygon fill="#c6cac6" fill-opacity="0.501961" points="59,57 48,55 48,59" />
<polygon fill="#e1e4de" fill-opacity="0.501961" points="89,69 76,69 81,66" />
<polygon fill="#eae9ea" fill-opacity="0.501961" points="155,112 165,141 156,130" />
<polygon fill="#eed3d1" fill-opacity="0.501961" points="177,98 177,94 164,96" />
<polygon fill="#ffffff" fill-opacity="0.501961" points="160,82 158,100 164,99" />
<polygon fill="#7fbcff" fill-opacity="0.501961" points="148,124 158,140 151,141" />
<polygon fill="#f2f2f2" fill-opacity="0.501961" points="212,141 211,45 271,118" />
<polygon fill="#ef6e73" fill-opacity="0.501961" points="229,43 234,5 108,3" />
<polygon fill="#ffffff" fill-opacity="0.501961" points="187,106 177,105 183,104" />
<polygon fill="#e7c3bd" fill-opacity="0.501961" points="174,120 179,118 167,118" />
<polygon fill="#ffffff" fill-opacity="0.501961" points="70,55 73,47 42,49" />
<polygon fill="#e8c6c2" fill-opacity="0.501961" points="172,95 162,96 168,97" />
<polygon fill="#ffffff" fill-opacity="0.501961" points="173,97 161,97 172,101" />
<polygon fill="#ffffff" fill-opacity="0.501961" points="181,86 208,83 203,91" />
<polygon fill="#fbfbfa" fill-opacity="0.501961" points="174,65 170,65 175,51" />
<polygon fill="#ffffff" fill-opacity="0.501961" points="122,69 118,55 117,72" />
<polygon fill="#f6f9f8" fill-opacity="0.501961" points="149,82 101,95 101,79" />
<polygon fill="#4291ee" fill-opacity="0.501961" points="61,104 48,97 47,105" />
<polygon fill="#feffff" fill-opacity="0.501961" points="191,113 193,117 177,115" />
<polygon fill="#fefffe" fill-opacity="0.501961" points="65,67 39,65 46,57" />
<polygon fill="#f2f1f2" fill-opacity="0.501961" points="42,92 -16,83 44,46" />
<polygon fill="#4290f2" fill-opacity="0.501961" points="82,102 58,99 46,107" />
<polygon fill="#ef6e73" fill-opacity="0.501961" points="-16,43 49,42 39,-16" />
<polygon fill="#e1b4b0" fill-opacity="0.501961" points="199,118 191,118 197,120" />
<polygon fill="#e3bfba" fill-opacity="0.501961" points="167,103 161,103 168,101" />
<polygon fill="#feffff" fill-opacity="0.501961" points="173,90 182,95 165,94" />
<polygon fill="#e4bcb6" fill-opacity="0.501961" points="187,112 192,114 186,114" />
<polygon fill="#ef6d72" fill-opacity="0.501961" points="71,-10 115,22 142,3" />
<polygon fill="#f5fbf4" fill-opacity="0.501961" points="73,111 55,112 63,108" />
<polygon fill="#0071fd" fill-opacity="0.501961" points="150,122 142,121 149,124" />
<polygon fill="#939492" fill-opacity="0.501961" points="160,51 165,55 168,53" />
<polygon fill="#e8c9c3" fill-opacity="0.501961" points="186,106 187,108 192,107" />
<polygon fill="#f1f1f1" fill-opacity="0.501961" points="157,68 155,50 160,51" />
<polygon fill="#ffffff" fill-opacity="0.501961" points="67,65 94,58 94,67" />
<polygon fill="#fffffe" fill-opacity="0.501961" points="158,66 160,81 165,55" />
<polygon fill="#e6eae9" fill-opacity="0.501961" points="115,93 115,97 125,95" />
<polygon fill="#3389eb" fill-opacity="0.501961" points="59,119 75,114 49,114" />
<polygon fill="#ee6d72" fill-opacity="0.501961" points="93,43 144,42 116,35" />
<polygon fill="#ffffff" fill-opacity="0.501961" points="124,98 148,120 135,96" />
<polygon fill="#1174fc" fill-opacity="0.501961" points="94,123 99,120 91,108" />
<polygon fill="#f8d3d3" fill-opacity="0.501961" points="125,24 124,21 121,24" />
<polygon fill="#0d72ff" fill-opacity="0.501961" points="80,116 48,118 60,124" />
<polygon fill="#e9f0ee" fill-opacity="0.501961" points="105,81 106,87 126,81" />
<polygon fill="#2b84ff" fill-opacity="0.501961" points="83,124 63,124 72,121" />
<polygon fill="#73b5cc" fill-opacity="0.501961" points="56,68 55,69 53,68" />
<polygon fill="#ffffff" fill-opacity="0.501961" points="118,102 121,81 127,120" />
<polygon fill="#fefffe" fill-opacity="0.501961" points="79,64 60,67 83,56" />
<polygon fill="#dfa8a2" fill-opacity="0.501961" points="165,106 162,107 167,108" />
<polygon fill="#066dfd" fill-opacity="0.501961" points="48,123 57,116 77,123" />
<polygon fill="#f4f8f8" fill-opacity="0.501961" points="36,72 55,71 24,64" />
<polygon fill="#b3b7b1" fill-opacity="0.501961" points="175,55 179,54 172,53" />
<polygon fill="#046df9" fill-opacity="0.501961" points="93,119 85,122 104,122" />
<polygon fill="#f6f6f6" fill-opacity="0.501961" points="116,107 124,111 108,113" />
<polygon fill="#ffffff" fill-opacity="0.501961" points="177,61 179,48 203,47" />
<polygon fill="#feffff" fill-opacity="0.501961" points="159,85 171,85 168,89" />
<polygon fill="#e5e6e0" fill-opacity="0.501961" points="109,104 106,93 110,96" />
<polygon fill="#eed8d5" fill-opacity="0.501961" points="191,98 189,102 204,102" />
<polygon fill="#f2f3f3" fill-opacity="0.501961" points="-5,111 -16,141 55,125" />
<polygon fill="#ffffff" fill-opacity="0.501961" points="176,106 163,102 163,106" />
<polygon fill="#227dfe" fill-opacity="0.501961" points="91,93 92,119 100,113" />
<polygon fill="#ffffff" fill-opacity="0.501961" points="173,100 199,101 206,86" />
<polygon fill="#ffffff" fill-opacity="0.501961" points="111,53 122,47 90,47" />
<polygon fill="#4693fc" fill-opacity="0.501961" points="87,99 98,93 70,91" />
<polygon fill="#fffffe" fill-opacity="0.501961" points="143,102 150,117 149,80" />
<polygon fill="#3d8de1" fill-opacity="0.501961" points="73,115 78,114 79,117" />
<polygon fill="#ffffff" fill-opacity="0.501961" points="55,58 84,68 86,59" />
<polygon fill="#559af7" fill-opacity="0.501961" points="80,101 91,95 62,95" />
<polygon fill="#ecd3cf" fill-opacity="0.501961" points="202,106 193,109 194,106" />
<polygon fill="#feffff" fill-opacity="0.501961" points="211,105 213,120 199,115" />
<polygon fill="#ffffff" fill-opacity="0.501961" points="182,74 172,77 162,74" />
<polygon fill="#ffffff" fill-opacity="0.501961" points="101,117 101,87 106,102" />
<polygon fill="#e5c2bd" fill-opacity="0.501961" points="178,63 182,61 171,61" />
<polygon fill="#70a9f5" fill-opacity="0.501961" points="153,107 151,95 150,105" />
<polygon fill="#f1f1f1" fill-opacity="0.501961" points="43,135 20,52 43,59" />
<polygon fill="#e6c4c2" fill-opacity="0.501961" points="191,91 188,90 195,88" />
<polygon fill="#fdfefd" fill-opacity="0.501961" points="180,71 175,72 174,53" />
<polygon fill="#eaccc9" fill-opacity="0.501961" points="192,78 174,78 183,81" />
<polygon fill="#0067fb" fill-opacity="0.501961" points="127,122 116,120 117,123" />
<polygon fill="#f7fbf8" fill-opacity="0.501961" points="171,55 170,50 168,56" />
<polygon fill="#feffff" fill-opacity="0.501961" points="138,110 110,121 132,119" />
<polygon fill="#fffffc" fill-opacity="0.501961" points="150,124 90,141 67,124" />
<polygon fill="#fafcfc" fill-opacity="0.501961" points="162,103 152,111 152,90" />
<polygon fill="#feffff" fill-opacity="0.501961" points="190,112 199,118 190,117" />
<polygon fill="#feffff" fill-opacity="0.501961" points="196,103 179,103 185,107" />
<polygon fill="#ffffff" fill-opacity="0.501961" points="79,53 112,53 94,48" />
<polygon fill="#358afc" fill-opacity="0.501961" points="83,107 99,89 99,100" />
<polygon fill="#f4f4f4" fill-opacity="0.501961" points="123,82 138,88 106,88" />
<polygon fill="#086efa" fill-opacity="0.501961" points="100,124 106,121 98,121" />
<polygon fill="#feffff" fill-opacity="0.501961" points="203,82 180,88 194,89" />
<polygon fill="#e9c6c2" fill-opacity="0.501961" points="170,77 175,80 162,80" />
<polygon fill="#f0f0f1" fill-opacity="0.501961" points="161,108 155,86 155,121" />
<polygon fill="#ef6c71" fill-opacity="0.501961" points="136,18 135,25 145,24" />
<polygon fill="#0c6fff" fill-opacity="0.501961" points="80,113 77,113 83,122" />
<polygon fill="#fbfdfc" fill-opacity="0.501961" points="92,63 89,55 89,61" />
<polygon fill="#4392f3" fill-opacity="0.501961" points="51,99 47,112 47,105" />
<polygon fill="#ffffff" fill-opacity="0.501961" points="102,120 120,120 103,115" />
<polygon fill="#f2f1f1" fill-opacity="0.501961" points="213,125 271,109 212,91" />
<polygon fill="#d7d8d4" fill-opacity="0.501961" points="90,69 99,68 95,67" />
<polygon fill="#feffff" fill-opacity="0.501961" points="167,63 187,75 196,63" />
<polygon fill="#f09394" fill-opacity="0.501961" points="123,35 105,34 116,31" />
<polygon fill="#ef6e73" fill-opacity="0.501961" points="42,27 122,33 104,-16" />
<polygon fill="#e2e2e3" fill-opacity="0.501961" points="108,94 111,91 117,91" />
<polygon fill="#efdad7" fill-opacity="0.501961" points="159,68 169,67 166,65" />
<polygon fill="#f8f9f8" fill-opacity="0.501961" points="203,141 192,119 211,119" />
<polygon fill="#e5c4bf" fill-opacity="0.501961" points="163,85 170,85 163,83" />
<polygon fill="#ffffff" fill-opacity="0.501961" points="157,110 161,91 162,105" />
<polygon fill="#fefffe" fill-opacity="0.501961" points="211,78 178,78 212,45" />
<polygon fill="#f1b2b1" fill-opacity="0.501961" points="45,6 45,3 42,1" />
<polygon fill="#ffffff" fill-opacity="0.501961" points="59,112 66,108 51,111" />
<polygon fill="#fdffff" fill-opacity="0.501961" points="158,82 170,81 168,84" />
<polygon fill="#1074fd" fill-opacity="0.501961" points="81,117 53,124 56,116" />
<polygon fill="#ef6e73" fill-opacity="0.501961" points="71,-12 126,17 -16,45" />
<polygon fill="#ef6d72" fill-opacity="0.501961" points="-6,-16 -16,5 55,1" />
<polygon fill="#eacfcc" fill-opacity="0.501961" points="178,95 170,96 182,98" />
<polygon fill="#f3e2df" fill-opacity="0.501961" points="162,113 176,110 170,114" />
<polygon fill="#ef6e73" fill-opacity="0.501961" points="137,-16 135,33 183,26" />
<polygon fill="#fdfcfc" fill-opacity="0.501961" points="155,61 186,60 165,55" />
<polygon fill="#fefffe" fill-opacity="0.501961" points="106,71 99,57 131,66" />
<polygon fill="#67a7ee" fill-opacity="0.501961" points="52,100 51,97 63,97" />
<polygon fill="#3d8df2" fill-opacity="0.501961" points="71,107 61,100 88,100" />
<polygon fill="#feffff" fill-opacity="0.501961" points="188,108 190,112 176,110" />
<polygon fill="#016bfd" fill-opacity="0.501961" points="121,121 126,124 134,121" />
<polygon fill="#ffffff" fill-opacity="0.501961" points="49,58 44,66 63,65" />
<polygon fill="#ffffff" fill-opacity="0.501961" points="103,94 101,86 111,100" />
<polygon fill="#fbfefe" fill-opacity="0.501961" points="154,48 151,52 167,49" />
<polygon fill="#cce4ff" fill-opacity="0.501961" points="150,141 113,123 134,123" />
<polygon fill="#83b6e6" fill-opacity="0.501961" points="75,92 86,89 64,89" />
<polygon fill="#c5dae7" fill-opacity="0.501961" points="66,110 74,111 68,107" />
<polygon fill="#feffff" fill-opacity="0.501961" points="173,97 180,98 169,101" />
<polygon fill="#8bbce7" fill-opacity="0.501961" points="72,87 66,84 75,85" />
<polygon fill="#fafcfc" fill-opacity="0.501961" points="113,55 114,64 117,65" />
<polygon fill="#fcfffe" fill-opacity="0.501961" points="160,99 173,96 177,100" />
<polygon fill="#fffffc" fill-opacity="0.501961" points="133,124 140,141 120,124" />
<polygon fill="#5199fb" fill-opacity="0.501961" points="70,78 52,84 86,83" />
<polygon fill="#408ff7" fill-opacity="0.501961" points="87,105 53,99 66,107" />
<polygon fill="#f5f8f6" fill-opacity="0.501961" points="131,65 120,72 144,72" />
<polygon fill="#ef6e73" fill-opacity="0.501961" points="144,13 134,2 139,37" />
<polygon fill="#ecd6d4" fill-opacity="0.501961" points="162,62 164,64 164,61" />
<polygon fill="#fdffff" fill-opacity="0.501961" points="178,82 198,84 188,79" />
<polygon fill="#ffffff" fill-opacity="0.501961" points="157,112 170,108 184,112" />
<polygon fill="#fefffc" fill-opacity="0.501961" points="149,85 145,96 146,79" />
<polygon fill="#91928d" fill-opacity="0.501961" points="88,58 85,55 87,56" />
<polygon fill="#fffffd" fill-opacity="0.501961" points="137,124 155,141 92,125" />
<polygon fill="#60a0fd" fill-opacity="0.501961" points="89,80 110,76 82,73" />
<polygon fill="#ffffff" fill-opacity="0.501961" points="160,62 160,66 172,66" />
<polygon fill="#dddddd" fill-opacity="0.501961" points="117,108 110,108 111,110" />
<polygon fill="#1d7beb" fill-opacity="0.501961" points="149,67 150,71 143,66" />
</g>
</svg>