<svg xmlns="http://www.w3.org/2000/svg" version="1.1" width="1024" height="504">
<rect x="0" y="0" width="1024" height="504" fill="#f6eded" />
<g transform="scale(4.000000) translate(0.5 0.5)">
<polygon fill="#d20000" fill-opacity="0.501961" points="84,141 176,116 -9,116" />
<polygon fill="#d50810" fill-opacity="0.501961" points="271,116 127,117 212,141" />
<polygon fill="#ffffff" fill-opacity="0.501961" points="166,-16 -16,105 271,114" />
<polygon fill="#cb0000" fill-opacity="0.501961" points="-1,119 -16,130 30,128" />
<polygon fill="#e87975" fill-opacity="0.501961" points="93,29 52,19 56,30" />
<polygon fill="#ffffff" fill-opacity="0.501961" points="-16,11 207,-16 222,47" />
<polygon fill="#e57579" fill-opacity="0.501961" points="240,115 86,115 178,140" />
<polygon fill="#feffff" fill-opacity="0.501961" points="212,-16 -14,80 214,116" />
<polygon fill="#edf4f4" fill-opacity="0.501961" points="-16,114 71,115 12,-16" />
<polygon fill="#fcffff" fill-opacity="0.501961" points="62,26 46,-16 193,16" />
<polygon fill="#de686d" fill-opacity="0.501961" points="271,121 113,116 186,141" />
<polygon fill="#eef4f4" fill-opacity="0.501961" points="185,115 246,-16 271,116" />
<polygon fill="#ffffff" fill-opacity="0.501961" points="232,109 64,32 54,111" />
<polygon fill="#e9918e" fill-opacity="0.501961" points="96,25 83,26 88,29" />
<polygon fill="#ffffff" fill-opacity="0.501961" points="108,26 60,26 63,12" />
<polygon fill="#e3656d" fill-opacity="0.501961" points="-16,115 138,118 46,141" />
<polygon fill="#f1f4f4" fill-opacity="0.501961" points="62,-16 -16,3 35,103" />
<polygon fill="#f2f0f0" fill-opacity="0.501961" points="33,-16 -7,115 46,116" />
<polygon fill="#d3d9d9" fill-opacity="0.501961" points="46,54 56,37 66,52" />
<polygon fill="#e9ecea" fill-opacity="0.501961" points="148,13 114,1 77,12" />
<polygon fill="#e4656a" fill-opacity="0.501961" points="211,117 270,115 229,141" />
<polygon fill="#ffffff" fill-opacity="0.501961" points="41,5 103,-16 185,11" />
<polygon fill="#e2716e" fill-opacity="0.501961" points="61,30 74,27 51,26" />
<polygon fill="#e2e5e3" fill-opacity="0.501961" points="51,4 42,12 76,13" />
<polygon fill="#c3bec1" fill-opacity="0.501961" points="44,83 50,89 55,85" />
<polygon fill="#fdffff" fill-opacity="0.501961" points="185,114 50,34 200,21" />
<polygon fill="#f0f1f1" fill-opacity="0.501961" points="266,116 214,-13 213,114" />
<polygon fill="#e66e73" fill-opacity="0.501961" points="137,137 176,116 104,116" />
<polygon fill="#f2f5f5" fill-opacity="0.501961" points="132,104 91,116 175,116" />
<polygon fill="#b1b6b6" fill-opacity="0.501961" points="208,84 201,87 193,85" />
<polygon fill="#a8aca7" fill-opacity="0.501961" points="47,74 48,72 52,74" />
<polygon fill="#f9fdfc" fill-opacity="0.501961" points="54,26 45,52 40,-3" />
<polygon fill="#fbfcfc" fill-opacity="0.501961" points="40,86 67,45 122,60" />
<polygon fill="#ffffff" fill-opacity="0.501961" points="50,9 89,-16 176,9" />
<polygon fill="#ffffff" fill-opacity="0.501961" points="47,88 144,111 141,64" />
<polygon fill="#e26e6c" fill-opacity="0.501961" points="75,30 86,27 66,26" />
<polygon fill="#ea7e80" fill-opacity="0.501961" points="33,115 60,123 85,115" />
<polygon fill="#f4f4f4" fill-opacity="0.501961" points="121,33 154,45 192,34" />
<polygon fill="#ffffff" fill-opacity="0.501961" points="67,28 77,13 53,12" />
<polygon fill="#dee6ea" fill-opacity="0.501961" points="45,98 68,95 49,90" />
<polygon fill="#bdc0bb" fill-opacity="0.501961" points="81,48 81,51 73,49" />
<polygon fill="#ffffff" fill-opacity="0.501961" points="209,37 215,93 149,38" />
<polygon fill="#f1f1f1" fill-opacity="0.501961" points="133,70 102,62 160,60" />
<polygon fill="#f3f3f3" fill-opacity="0.501961" points="160,64 194,54 221,64" />
<polygon fill="#dc656b" fill-opacity="0.501961" points="105,141 56,119 144,118" />
<polygon fill="#ccd0cc" fill-opacity="0.501961" points="47,22 51,23 50,30" />
<polygon fill="#dbdfdb" fill-opacity="0.501961" points="81,9 79,13 65,10" />
<polygon fill="#f2f3f3" fill-opacity="0.501961" points="-16,82 89,116 33,116" />
<polygon fill="#ffffff" fill-opacity="0.501961" points="139,60 74,13 222,61" />
<polygon fill="#e06c69" fill-opacity="0.501961" points="56,25 54,21 60,22" />
<polygon fill="#d2d5d1" fill-opacity="0.501961" points="138,13 124,10 139,9" />
<polygon fill="#ffffff" fill-opacity="0.501961" points="106,13 71,25 43,15" />
<polygon fill="#f2f3f3" fill-opacity="0.501961" points="271,0 213,-1 213,110" />
<polygon fill="#ffffff" fill-opacity="0.501961" points="94,23 211,27 213,-6" />
<polygon fill="#ffffff" fill-opacity="0.501961" points="58,65 217,65 69,111" />
<polygon fill="#cdd2d2" fill-opacity="0.501961" points="51,40 56,42 46,49" />
<polygon fill="#f1f1f1" fill-opacity="0.501961" points="143,34 85,33 113,42" />
<polygon fill="#ffffff" fill-opacity="0.501961" points="52,23 54,13 65,13" />
<polygon fill="#ffffff" fill-opacity="0.501961" points="72,37 179,36 95,62" />
<polygon fill="#ffffff" fill-opacity="0.501961" points="214,110 112,109 201,86" />
<polygon fill="#eeeeee" fill-opacity="0.501961" points="82,62 41,60 61,67" />
<polygon fill="#e0898a" fill-opacity="0.501961" points="207,121 172,121 189,126" />
<polygon fill="#c6c9c5" fill-opacity="0.501961" points="50,74 52,71 44,71" />
<polygon fill="#eff0f0" fill-opacity="0.501961" points="219,29 225,38 187,35" />
<polygon fill="#ffffff" fill-opacity="0.501961" points="81,20 95,17 87,27" />
<polygon fill="#dc6066" fill-opacity="0.501961" points="219,123 159,141 142,123" />
<polygon fill="#efefef" fill-opacity="0.501961" points="66,61 88,68 112,62" />
<polygon fill="#ffffff" fill-opacity="0.501961" points="43,64 99,111 208,65" />
<polygon fill="#fafcfc" fill-opacity="0.501961" points="82,38 49,29 41,40" />
<polygon fill="#ced1ce" fill-opacity="0.501961" points="143,9 135,11 142,12" />
<polygon fill="#ffffff" fill-opacity="0.501961" points="45,97 41,104 66,102" />
<polygon fill="#b4c1d4" fill-opacity="0.501961" points="46,104 56,104 49,106" />
<polygon fill="#ffffff" fill-opacity="0.501961" points="62,50 77,58 67,29" />
<polygon fill="#dde0dd" fill-opacity="0.501961" points="118,10 103,14 88,9" />
<polygon fill="#ffffff" fill-opacity="0.501961" points="49,105 35,111 61,110" />
<polygon fill="#ffffff" fill-opacity="0.501961" points="94,30 100,12 163,18" />
<polygon fill="#fdfefd" fill-opacity="0.501961" points="103,103 165,83 37,87" />
<polygon fill="#a09a9f" fill-opacity="0.501961" points="50,87 54,84 46,85" />
<polygon fill="#f2f2f2" fill-opacity="0.501961" points="-16,71 -16,95 51,87" />
<polygon fill="#dce3e7" fill-opacity="0.501961" points="53,102 67,105 57,106" />
<polygon fill="#dd676d" fill-opacity="0.501961" points="-15,139 58,118 -9,119" />
<polygon fill="#ffffff" fill-opacity="0.501961" points="130,84 43,84 61,64" />
<polygon fill="#929493" fill-opacity="0.501961" points="46,27 51,27 49,28" />
<polygon fill="#ffffff" fill-opacity="0.501961" points="44,109 41,95 47,80" />
<polygon fill="#ffffff" fill-opacity="0.501961" points="212,34 106,-4 212,-3" />
<polygon fill="#ffffff" fill-opacity="0.501961" points="43,61 44,46 53,62" />
<polygon fill="#e8e8e8" fill-opacity="0.501961" points="161,60 148,63 169,64" />
<polygon fill="#f1f1f1" fill-opacity="0.501961" points="-16,20 42,-16 43,36" />
<polygon fill="#de676d" fill-opacity="0.501961" points="215,119 271,118 214,141" />
<polygon fill="#f9fafa" fill-opacity="0.501961" points="51,26 36,28 37,17" />
<polygon fill="#ffffff" fill-opacity="0.501961" points="92,61 211,60 181,36" />
<polygon fill="#eceeee" fill-opacity="0.501961" points="185,110 186,116 164,114" />
<polygon fill="#e58280" fill-opacity="0.501961" points="85,29 94,30 93,26" />
<polygon fill="#feffff" fill-opacity="0.501961" points="95,13 111,12 92,40" />
<polygon fill="#f1f1f1" fill-opacity="0.501961" points="-16,86 42,48 43,114" />
<polygon fill="#fefffe" fill-opacity="0.501961" points="91,60 82,56 87,26" />
<polygon fill="#b0b0b0" fill-opacity="0.501961" points="45,5 52,7 48,7" />
<polygon fill="#ffffff" fill-opacity="0.501961" points="84,10 45,5 36,-10" />
<polygon fill="#feffff" fill-opacity="0.501961" points="70,26 60,24 68,7" />
<polygon fill="#ffffff" fill-opacity="0.501961" points="72,94 102,111 42,99" />
<polygon fill="#d1d2d2" fill-opacity="0.501961" points="55,49 52,55 58,56" />
<polygon fill="#ecedee" fill-opacity="0.501961" points="96,34 65,33 79,38" />
<polygon fill="#f2f3f3" fill-opacity="0.501961" points="28,36 69,35 33,24" />
<polygon fill="#ffffff" fill-opacity="0.501961" points="62,19 42,10 46,22" />
<polygon fill="#f1f1f1" fill-opacity="0.501961" points="271,108 213,62 212,114" />
<polygon fill="#d2d2d0" fill-opacity="0.501961" points="48,11 44,14 47,6" />
<polygon fill="#ea7275" fill-opacity="0.501961" points="165,116 147,124 119,116" />
<polygon fill="#ffffff" fill-opacity="0.501961" points="115,-16 136,14 135,-5" />
<polygon fill="#e7e7e7" fill-opacity="0.501961" points="182,61 188,64 172,64" />
<polygon fill="#ffffff" fill-opacity="0.501961" points="56,93 119,65 51,66" />
<polygon fill="#fffffe" fill-opacity="0.501961" points="43,24 42,12 47,8" />
<polygon fill="#eaeaea" fill-opacity="0.501961" points="135,64 112,63 124,60" />
<polygon fill="#dd686e" fill-opacity="0.501961" points="99,119 171,119 171,141" />
<polygon fill="#acb0b0" fill-opacity="0.501961" points="76,49 76,50 75,48" />
<polygon fill="#e7e7e7" fill-opacity="0.501961" points="178,33 176,36 188,35" />
<polygon fill="#e8e9e9" fill-opacity="0.501961" points="208,62 186,62 197,66" />
<polygon fill="#d6d9d6" fill-opacity="0.501961" points="132,12 126,9 119,10" />
<polygon fill="#ffffff" fill-opacity="0.501961" points="212,36 122,62 59,36" />
<polygon fill="#ffffff" fill-opacity="0.501961" points="133,10 109,-13 80,8" />
<polygon fill="#e78885" fill-opacity="0.501961" points="85,31 84,27 75,27" />
<polygon fill="#ffffff" fill-opacity="0.501961" points="116,109 57,110 108,92" />
<polygon fill="#daddda" fill-opacity="0.501961" points="59,9 66,12 54,12" />
<polygon fill="#ffffff" fill-opacity="0.501961" points="203,94 212,110 212,77" />
<polygon fill="#d7dde3" fill-opacity="0.501961" points="49,97 47,92 63,94" />
<polygon fill="#ffffff" fill-opacity="0.501961" points="49,79 43,69 43,91" />
<polygon fill="#ffffff" fill-opacity="0.501961" points="210,84 212,64 136,68" />
<polygon fill="#f1f1f1" fill-opacity="0.501961" points="138,31 153,36 129,37" />
<polygon fill="#e0888a" fill-opacity="0.501961" points="47,120 52,122 44,123" />
<polygon fill="#f0f0f0" fill-opacity="0.501961" points="31,20 42,30 42,-5" />
<polygon fill="#ffffff" fill-opacity="0.501961" points="211,-16 211,32 99,33" />
<polygon fill="#ebebeb" fill-opacity="0.501961" points="161,33 172,37 178,33" />
<polygon fill="#ffffff" fill-opacity="0.501961" points="54,94 62,104 52,101" />
<polygon fill="#fdfdfd" fill-opacity="0.501961" points="37,88 66,85 75,95" />
<polygon fill="#dce0dd" fill-opacity="0.501961" points="53,0 57,-3 46,-1" />
<polygon fill="#ffffff" fill-opacity="0.501961" points="49,25 43,35 44,24" />
<polygon fill="#f9f8f7" fill-opacity="0.501961" points="86,30 68,38 60,32" />
<polygon fill="#ebecec" fill-opacity="0.501961" points="47,51 56,52 46,44" />
<polygon fill="#ededed" fill-opacity="0.501961" points="125,35 106,37 107,32" />
<polygon fill="#e68583" fill-opacity="0.501961" points="75,31 79,26 89,28" />
<polygon fill="#eeeeee" fill-opacity="0.501961" points="169,36 143,35 157,31" />
<polygon fill="#fefefe" fill-opacity="0.501961" points="58,10 67,3 46,9" />
<polygon fill="#ffffff" fill-opacity="0.501961" points="164,-16 186,34 140,34" />
<polygon fill="#bdc1c5" fill-opacity="0.501961" points="203,84 208,86 203,86" />
<polygon fill="#e6e5e5" fill-opacity="0.501961" points="202,115 207,111 188,111" />
<polygon fill="#ffffff" fill-opacity="0.501961" points="82,50 45,59 64,62" />
<polygon fill="#f9fafa" fill-opacity="0.501961" points="65,32 86,38 87,30" />
<polygon fill="#ffffff" fill-opacity="0.501961" points="112,26 77,12 76,25" />
<polygon fill="#e4e4e4" fill-opacity="0.501961" points="88,63 94,61 101,63" />
<polygon fill="#ffffff" fill-opacity="0.501961" points="50,93 47,103 51,99" />
<polygon fill="#fffefe" fill-opacity="0.501961" points="207,64 216,65 199,88" />
<polygon fill="#e1898a" fill-opacity="0.501961" points="212,120 216,123 206,122" />
<polygon fill="#e3e7e3" fill-opacity="0.501961" points="78,11 85,9 92,13" />
<polygon fill="#ffffff" fill-opacity="0.501961" points="59,32 45,34 44,28" />
<polygon fill="#e5e5e5" fill-opacity="0.501961" points="76,36 74,34 82,35" />
<polygon fill="#d2d2d2" fill-opacity="0.501961" points="54,47 62,48 56,49" />
<polygon fill="#e58885" fill-opacity="0.501961" points="87,28 93,27 89,26" />
<polygon fill="#ffffff" fill-opacity="0.501961" points="70,13 109,34 175,16" />
<polygon fill="#dbe1dc" fill-opacity="0.501961" points="64,0 77,-15 39,-7" />
<polygon fill="#f2f2f2" fill-opacity="0.501961" points="269,6 213,-3 213,106" />
<polygon fill="#ffffff" fill-opacity="0.501961" points="96,12 89,26 46,15" />
<polygon fill="#d9dbdb" fill-opacity="0.501961" points="47,48 52,49 58,45" />
<polygon fill="#f2f2f2" fill-opacity="0.501961" points="-16,63 43,100 42,11" />
<polygon fill="#e2e8eb" fill-opacity="0.501961" points="69,102 65,104 71,106" />
<polygon fill="#ffffff" fill-opacity="0.501961" points="170,68 198,64 212,87" />
<polygon fill="#ffffff" fill-opacity="0.501961" points="212,58 151,62 212,37" />
<polygon fill="#fdfefe" fill-opacity="0.501961" points="75,96 69,104 45,103" />
<polygon fill="#f8f9f9" fill-opacity="0.501961" points="57,56 54,45 63,59" />
<polygon fill="#d5d7d4" fill-opacity="0.501961" points="98,12 110,12 109,9" />
<polygon fill="#ffffff" fill-opacity="0.501961" points="154,3 128,-16 102,10" />
<polygon fill="#fefffe" fill-opacity="0.501961" points="115,-16 91,-16 99,13" />
<polygon fill="#cccccc" fill-opacity="0.501961" points="52,48 50,40 53,44" />
<polygon fill="#ededed" fill-opacity="0.501961" points="38,33 59,33 52,37" />
<polygon fill="#ed686a" fill-opacity="0.501961" points="213,116 211,121 196,116" />
<polygon fill="#ffffff" fill-opacity="0.501961" points="174,36 121,61 50,36" />
<polygon fill="#ffffff" fill-opacity="0.501961" points="43,39 52,36 44,45" />
<polygon fill="#f4f4f4" fill-opacity="0.501961" points="51,46 17,44 14,54" />
<polygon fill="#fdfdfd" fill-opacity="0.501961" points="43,104 108,81 190,104" />
<polygon fill="#df686f" fill-opacity="0.501961" points="17,141 79,125 -16,118" />
<polygon fill="#de696e" fill-opacity="0.501961" points="269,138 207,119 271,119" />
<polygon fill="#e37a78" fill-opacity="0.501961" points="54,24 58,22 59,24" />
<polygon fill="#ffffff" fill-opacity="0.501961" points="113,45 47,60 98,62" />
<polygon fill="#fffefd" fill-opacity="0.501961" points="44,64 42,76 46,74" />
<polygon fill="#f2f2f2" fill-opacity="0.501961" points="214,111 213,-16 271,63" />
<polygon fill="#e8e8e8" fill-opacity="0.501961" points="78,34 68,34 73,37" />
<polygon fill="#ffffff" fill-opacity="0.501961" points="73,50 58,57 73,38" />
<polygon fill="#ffffff" fill-opacity="0.501961" points="43,44 43,56 49,62" />
<polygon fill="#e1e1e1" fill-opacity="0.501961" points="54,64 48,62 58,62" />
<polygon fill="#fcfffc" fill-opacity="0.501961" points="55,26 46,23 45,26" />
<polygon fill="#eae8e8" fill-opacity="0.501961" points="212,112 211,115 206,111" />
<polygon fill="#eeeeee" fill-opacity="0.501961" points="108,34 84,34 92,39" />
<polygon fill="#d1d4d1" fill-opacity="0.501961" points="92,10 101,13 103,10" />
<polygon fill="#ffffff" fill-opacity="0.501961" points="123,36 109,61 87,36" />
<polygon fill="#ffffff" fill-opacity="0.501961" points="94,31 99,12 137,28" />
<polygon fill="#ffffff" fill-opacity="0.501961" points="99,11 118,29 81,23" />
<polygon fill="#e68483" fill-opacity="0.501961" points="61,26 66,27 60,30" />
<polygon fill="#fefffe" fill-opacity="0.501961" points="53,95 56,82 62,87" />
<polygon fill="#ffffff" fill-opacity="0.501961" points="56,95 58,98 61,95" />
<polygon fill="#e27372" fill-opacity="0.501961" points="82,30 75,28 69,30" />
<polygon fill="#ffffff" fill-opacity="0.501961" points="45,13 54,21 58,12" />
<polygon fill="#ffffff" fill-opacity="0.501961" points="125,13 121,-11 130,-10" />
<polygon fill="#ffffff" fill-opacity="0.501961" points="83,35 78,49 62,38" />
<polygon fill="#c6c9c6" fill-opacity="0.501961" points="52,10 46,10 49,13" />
<polygon fill="#cccdcd" fill-opacity="0.501961" points="58,46 55,44 55,41" />
<polygon fill="#e8e8e8" fill-opacity="0.501961" points="149,64 143,61 136,63" />
<polygon fill="#e9e9e9" fill-opacity="0.501961" points="202,65 211,62 193,62" />
<polygon fill="#ffffff" fill-opacity="0.501961" points="154,87 210,81 202,64" />
<polygon fill="#ffffff" fill-opacity="0.501961" points="85,13 61,13 60,26" />
<polygon fill="#ffffff" fill-opacity="0.501961" points="42,18 51,11 53,21" />
<polygon fill="#f36c6f" fill-opacity="0.501961" points="187,116 178,119 174,116" />
<polygon fill="#e7eaea" fill-opacity="0.501961" points="151,115 139,111 164,111" />
<polygon fill="#e7ecec" fill-opacity="0.501961" points="111,111 99,115 94,111" />
<polygon fill="#f47073" fill-opacity="0.501961" points="82,116 93,119 96,116" />
<polygon fill="#e0696f" fill-opacity="0.501961" points="155,139 98,121 205,124" />
<polygon fill="#fefefe" fill-opacity="0.501961" points="51,43 43,40 44,44" />
<polygon fill="#ffffff" fill-opacity="0.501961" points="58,107 52,110 42,106" />
<polygon fill="#ffffff" fill-opacity="0.501961" points="123,33 90,33 102,22" />
<polygon fill="#dedfdf" fill-opacity="0.501961" points="48,52 51,56 49,47" />
<polygon fill="#e4696d" fill-opacity="0.501961" points="67,125 81,117 53,118" />
<polygon fill="#eae9e9" fill-opacity="0.501961" points="49,62 41,61 46,64" />
<polygon fill="#e6e6e6" fill-opacity="0.501961" points="192,111 181,111 188,114" />
<polygon fill="#e9e9e9" fill-opacity="0.501961" points="172,62 164,65 154,62" />
<polygon fill="#ffffff" fill-opacity="0.501961" points="47,108 46,100 43,111" />
<polygon fill="#ffffff" fill-opacity="0.501961" points="158,64 187,88 207,64" />
<polygon fill="#f2f2f2" fill-opacity="0.501961" points="48,75 -3,36 -15,-15" />
<polygon fill="#f1f1f1" fill-opacity="0.501961" points="239,32 203,34 249,44" />
<polygon fill="#e2e5e5" fill-opacity="0.501961" points="129,111 131,113 124,111" />
<polygon fill="#ededed" fill-opacity="0.501961" points="69,65 60,61 79,61" />
<polygon fill="#ffffff" fill-opacity="0.501961" points="44,71 51,70 46,65" />
<polygon fill="#e2e8e8" fill-opacity="0.501961" points="99,111 93,113 87,111" />
<polygon fill="#e5e8e8" fill-opacity="0.501961" points="68,114 65,111 79,111" />
<polygon fill="#f2f3f3" fill-opacity="0.501961" points="52,52 53,55 46,56" />
<polygon fill="#e9e9e9" fill-opacity="0.501961" points="104,34 118,34 113,37" />
<polygon fill="#e06a6f" fill-opacity="0.501961" points="164,119 56,118 81,141" />
<polygon fill="#e09494" fill-opacity="0.501961" points="57,120 59,122 53,123" />
<polygon fill="#f2f2f2" fill-opacity="0.501961" points="42,6 -13,-16 43,115" />
<polygon fill="#ffffff" fill-opacity="0.501961" points="188,60 110,36 117,62" />
<polygon fill="#ffffff" fill-opacity="0.501961" points="65,111 82,106 51,106" />
<polygon fill="#cacdc9" fill-opacity="0.501961" points="50,22 51,24 46,23" />
<polygon fill="#e9e9e9" fill-opacity="0.501961" points="136,34 145,37 147,34" />
<polygon fill="#b7b8bb" fill-opacity="0.501961" points="203,86 203,85 200,86" />
<polygon fill="#fffffe" fill-opacity="0.501961" points="211,96 201,85 188,98" />
<polygon fill="#c1cbdb" fill-opacity="0.501961" points="48,103 52,106 47,105" />
<polygon fill="#e1e7e7" fill-opacity="0.501961" points="161,111 167,113 174,111" />
<polygon fill="#ebebeb" fill-opacity="0.501961" points="129,64 139,61 121,61" />
<polygon fill="#ffffff" fill-opacity="0.501961" points="43,5 45,0 62,4" />
<polygon fill="#ffffff" fill-opacity="0.501961" points="66,27 74,20 68,19" />
<polygon fill="#ffffff" fill-opacity="0.501961" points="54,31 53,26 50,34" />
<polygon fill="#ffffff" fill-opacity="0.501961" points="43,19 51,22 43,2" />
<polygon fill="#ffffff" fill-opacity="0.501961" points="176,36 89,36 85,61" />
<polygon fill="#de696e" fill-opacity="0.501961" points="72,119 80,127 53,119" />
<polygon fill="#ffffff" fill-opacity="0.501961" points="110,64 64,64 43,84" />
<polygon fill="#afafaf" fill-opacity="0.501961" points="54,49 55,48 55,50" />
<polygon fill="#f77b7e" fill-opacity="0.501961" points="174,116 169,118 165,116" />
<polygon fill="#ffffff" fill-opacity="0.501961" points="186,33 134,19 85,33" />
<polygon fill="#ffffff" fill-opacity="0.501961" points="115,104 96,110 132,109" />
<polygon fill="#ec7174" fill-opacity="0.501961" points="159,121 165,116 142,116" />
<polygon fill="#df696e" fill-opacity="0.501961" points="172,119 159,141 131,119" />
<polygon fill="#fcfdfd" fill-opacity="0.501961" points="81,3 80,16 77,6" />
<polygon fill="#c5c5c5" fill-opacity="0.501961" points="52,40 54,42 57,40" />
<polygon fill="#ebebeb" fill-opacity="0.501961" points="43,111 54,115 60,112" />
<polygon fill="#fbfbfb" fill-opacity="0.501961" points="139,7 148,9 139,10" />
<polygon fill="#e26869" fill-opacity="0.501961" points="179,119 190,117 197,121" />
<polygon fill="#ffffff" fill-opacity="0.501961" points="76,38 58,43 95,49" />
<polygon fill="#fdfdfd" fill-opacity="0.501961" points="178,108 174,91 200,86" />
<polygon fill="#edeeee" fill-opacity="0.501961" points="68,36 60,32 57,35" />
<polygon fill="#f2f2f2" fill-opacity="0.501961" points="271,115 254,-10 212,115" />
<polygon fill="#e5e4e4" fill-opacity="0.501961" points="63,49 57,56 60,49" />
<polygon fill="#e7e7e7" fill-opacity="0.501961" points="133,33 135,35 128,35" />
<polygon fill="#efefef" fill-opacity="0.501961" points="189,33 190,38 208,33" />
<polygon fill="#ffffff" fill-opacity="0.501961" points="206,37 213,59 188,36" />
<polygon fill="#de5b59" fill-opacity="0.501961" points="57,30 55,30 54,28" />
<polygon fill="#fefffe" fill-opacity="0.501961" points="57,11 60,17 48,21" />
<polygon fill="#ffffff" fill-opacity="0.501961" points="199,27 130,34 166,-16" />
<polygon fill="#ffffff" fill-opacity="0.501961" points="150,31 209,34 213,-10" />
<polygon fill="#ffffff" fill-opacity="0.501961" points="133,13 111,33 67,15" />
<polygon fill="#ffffff" fill-opacity="0.501961" points="68,6 96,10 97,-16" />
<polygon fill="#dc696b" fill-opacity="0.501961" points="183,120 177,118 170,121" />
<polygon fill="#e07d7f" fill-opacity="0.501961" points="56,120 48,123 41,121" />
<polygon fill="#b6b5b6" fill-opacity="0.501961" points="46,6 50,6 48,8" />
<polygon fill="#ed6f72" fill-opacity="0.501961" points="9,122 26,116 -2,116" />
<polygon fill="#df696e" fill-opacity="0.501961" points="45,120 -16,138 3,119" />
<polygon fill="#fdfdfc" fill-opacity="0.501961" points="45,103 55,95 63,98" />
<polygon fill="#e6e6e6" fill-opacity="0.501961" points="162,35 158,33 154,35" />
<polygon fill="#e78c8a" fill-opacity="0.501961" points="77,29 68,26 80,26" />
<polygon fill="#eeefee" fill-opacity="0.501961" points="57,9 51,11 45,7" />
<polygon fill="#ffffff" fill-opacity="0.501961" points="57,31 68,34 76,31" />
<polygon fill="#e48f8f" fill-opacity="0.501961" points="188,124 197,121 177,121" />
<polygon fill="#de696e" fill-opacity="0.501961" points="179,123 226,141 200,122" />
<polygon fill="#eaeaea" fill-opacity="0.501961" points="176,62 171,62 176,65" />
<polygon fill="#df696e" fill-opacity="0.501961" points="174,123 226,123 226,141" />
<polygon fill="#fdfefc" fill-opacity="0.501961" points="48,101 53,109 51,111" />
<polygon fill="#f47173" fill-opacity="0.501961" points="35,119 30,116 40,116" />
<polygon fill="#d1d4d2" fill-opacity="0.501961" points="118,12 122,10 114,11" />
<polygon fill="#ffffff" fill-opacity="0.501961" points="46,73 43,71 43,65" />
<polygon fill="#d9ddda" fill-opacity="0.501961" points="48,12 56,12 53,10" />
<polygon fill="#ffffff" fill-opacity="0.501961" points="65,45 86,61 60,59" />
<polygon fill="#d6dce1" fill-opacity="0.501961" points="53,106 60,104 54,104" />
<polygon fill="#e2e4e1" fill-opacity="0.501961" points="66,11 74,10 72,13" />
<polygon fill="#f1f1f1" fill-opacity="0.501961" points="241,77 220,47 212,63" />
<polygon fill="#ffffff" fill-opacity="0.501961" points="163,34 139,12 120,27" />
<polygon fill="#d5d7d7" fill-opacity="0.501961" points="59,42 59,45 62,44" />
<polygon fill="#de686e" fill-opacity="0.501961" points="73,121 37,141 31,127" />
<polygon fill="#e68684" fill-opacity="0.501961" points="53,30 55,27 64,29" />
<polygon fill="#eceded" fill-opacity="0.501961" points="54,45 57,49 62,45" />
<polygon fill="#e8686b" fill-opacity="0.501961" points="199,117 201,121 187,117" />
<polygon fill="#ffffff" fill-opacity="0.501961" points="86,-10 66,9 51,9" />
<polygon fill="#ffffff" fill-opacity="0.501961" points="56,91 46,90 51,87" />
<polygon fill="#ececec" fill-opacity="0.501961" points="126,37 116,35 127,34" />
<polygon fill="#f5f5f5" fill-opacity="0.501961" points="50,55 53,55 52,49" />
<polygon fill="#ffffff" fill-opacity="0.501961" points="43,88 49,77 43,74" />
<polygon fill="#ffffff" fill-opacity="0.501961" points="76,39 60,40 71,57" />
<polygon fill="#fcfcfc" fill-opacity="0.501961" points="205,102 203,87 211,96" />
<polygon fill="#ffffff" fill-opacity="0.501961" points="70,31 59,34 50,31" />
<polygon fill="#e4e4e4" fill-opacity="0.501961" points="95,62 91,64 85,62" />
<polygon fill="#f47072" fill-opacity="0.501961" points="103,119 95,116 114,116" />
<polygon fill="#e7e9e9" fill-opacity="0.501961" points="145,111 132,111 137,114" />
<polygon fill="#ffffff" fill-opacity="0.501961" points="57,38 38,42 47,36" />
<polygon fill="#f2f2f2" fill-opacity="0.501961" points="41,30 43,111 -16,116" />
<polygon fill="#fefefe" fill-opacity="0.501961" points="156,73 154,110 57,98" />
<polygon fill="#e3e3e3" fill-opacity="0.501961" points="196,34 203,36 210,34" />
<polygon fill="#d6d8d6" fill-opacity="0.501961" points="79,13 74,10 77,10" />
<polygon fill="#f9faf9" fill-opacity="0.501961" points="81,13 75,14 78,11" />
<polygon fill="#e3e3e3" fill-opacity="0.501961" points="109,64 103,62 112,62" />
<polygon fill="#e06970" fill-opacity="0.501961" points="271,125 212,120 224,134" />
<polygon fill="#f5f7f6" fill-opacity="0.501961" points="73,8 83,8 76,10" />
<polygon fill="#ffffff" fill-opacity="0.501961" points="194,40 178,62 202,58" />
<polygon fill="#ffffff" fill-opacity="0.501961" points="67,54 60,50 69,59" />
<polygon fill="#eef4f4" fill-opacity="0.501961" points="99,115 90,111 82,114" />
<polygon fill="#d7dde2" fill-opacity="0.501961" points="70,105 71,104 67,104" />
<polygon fill="#c7cac6" fill-opacity="0.501961" points="64,10 59,12 58,10" />
<polygon fill="#f7faf7" fill-opacity="0.501961" points="55,13 58,13 60,6" />
<polygon fill="#fefefe" fill-opacity="0.501961" points="71,106 92,104 66,79" />
<polygon fill="#f5f5f5" fill-opacity="0.501961" points="34,11 31,6 50,8" />
<polygon fill="#f2f2f2" fill-opacity="0.501961" points="-16,44 42,-11 43,47" />
<polygon fill="#ececec" fill-opacity="0.501961" points="66,62 57,65 48,62" />
<polygon fill="#fcfcfc" fill-opacity="0.501961" points="126,35 111,35 127,40" />
<polygon fill="#ffffff" fill-opacity="0.501961" points="51,78 63,64 55,64" />
<polygon fill="#ffffff" fill-opacity="0.501961" points="61,25 71,12 117,25" />
<polygon fill="#ffffff" fill-opacity="0.501961" points="61,12 66,21 62,20" />
<polygon fill="#e6e9e6" fill-opacity="0.501961" points="98,13 84,10 96,9" />
<polygon fill="#f4f5f4" fill-opacity="0.501961" points="146,10 144,9 146,13" />
<polygon fill="#ea6d70" fill-opacity="0.501961" points="26,116 42,122 57,116" />
<polygon fill="#dadbdb" fill-opacity="0.501961" points="49,41 46,45 52,42" />
<polygon fill="#df696f" fill-opacity="0.501961" points="41,120 -16,119 59,141" />
<polygon fill="#ffffff" fill-opacity="0.501961" points="167,85 71,86 106,64" />
<polygon fill="#f1f2f2" fill-opacity="0.501961" points="213,36 250,-15 214,-9" />
<polygon fill="#e47576" fill-opacity="0.501961" points="91,30 92,29 89,27" />
<polygon fill="#f5f4f4" fill-opacity="0.501961" points="70,113 63,112 67,114" />
<polygon fill="#f5f7f5" fill-opacity="0.501961" points="111,11 103,12 105,15" />
<polygon fill="#ffffff" fill-opacity="0.501961" points="54,62 45,61 43,51" />
</g>
</svg>