<svg xmlns="http://www.w3.org/2000/svg" version="1.1" width="1024" height="576">
<rect x="0" y="0" width="1024" height="576" fill="#918e8e" />
<g transform="scale(4.000000) translate(0.5 0.5)">
<polygon fill="#fbffff" fill-opacity="0.501961" points="72,3 -16,78 136,70" />
<polygon fill="#fffff8" fill-opacity="0.501961" points="188,135 46,159 14,71" />
<polygon fill="#4d3221" fill-opacity="0.501961" points="271,33 264,145 95,91" />
<polygon fill="#1b1f22" fill-opacity="0.501961" points="136,52 53,-16 271,3" />
<polygon fill="#f3f4f7" fill-opacity="0.501961" points="86,159 111,90 89,78" />
<polygon fill="#97bbea" fill-opacity="0.501961" points="210,58 271,19 115,54" />
<polygon fill="#617084" fill-opacity="0.501961" points="254,34 271,90 70,85" />
<polygon fill="#5c3822" fill-opacity="0.501961" points="146,120 271,110 132,68" />
<polygon fill="#fcffff" fill-opacity="0.501961" points="-14,137 8,148 30,103" />
<polygon fill="#000000" fill-opacity="0.501961" points="40,146 19,148 21,124" />
<polygon fill="#f8f8e8" fill-opacity="0.501961" points="178,154 26,122 138,110" />
<polygon fill="#242323" fill-opacity="0.501961" points="238,-16 271,14 136,15" />
<polygon fill="#bd9b64" fill-opacity="0.501961" points="144,117 222,159 271,127" />
<polygon fill="#7d7869" fill-opacity="0.501961" points="127,-16 149,30 31,2" />
<polygon fill="#4a5e8c" fill-opacity="0.501961" points="131,40 92,64 79,52" />
<polygon fill="#22063d" fill-opacity="0.501961" points="85,79 89,114 80,111" />
<polygon fill="#faf5f8" fill-opacity="0.501961" points="61,77 80,85 80,13" />
<polygon fill="#f8fbfc" fill-opacity="0.501961" points="83,13 41,19 26,73" />
<polygon fill="#ffffff" fill-opacity="0.501961" points="241,22 239,36 271,37" />
<polygon fill="#422a1f" fill-opacity="0.501961" points="127,103 118,114 102,112" />
<polygon fill="#e9f7ff" fill-opacity="0.501961" points="40,81 -16,55 32,54" />
<polygon fill="#939bbb" fill-opacity="0.501961" points="57,112 -1,76 50,63" />
<polygon fill="#2f476c" fill-opacity="0.501961" points="236,57 243,9 219,9" />
<polygon fill="#e2e8eb" fill-opacity="0.501961" points="99,16 120,70 60,13" />
<polygon fill="#4d4450" fill-opacity="0.501961" points="64,53 43,45 62,62" />
<polygon fill="#989286" fill-opacity="0.501961" points="158,90 246,60 271,90" />
<polygon fill="#fafffd" fill-opacity="0.501961" points="217,29 193,46 230,39" />
<polygon fill="#665436" fill-opacity="0.501961" points="26,89 -16,95 4,119" />
<polygon fill="#353136" fill-opacity="0.501961" points="119,139 103,159 59,145" />
<polygon fill="#777978" fill-opacity="0.501961" points="50,1 27,56 -16,13" />
<polygon fill="#4a5465" fill-opacity="0.501961" points="136,64 227,52 113,108" />
<polygon fill="#daf0ff" fill-opacity="0.501961" points="107,57 157,54 97,75" />
<polygon fill="#2d4979" fill-opacity="0.501961" points="198,70 188,31 200,24" />
<polygon fill="#cdc8c0" fill-opacity="0.501961" points="53,159 18,110 36,62" />
<polygon fill="#683e26" fill-opacity="0.501961" points="271,137 263,90 129,93" />
<polygon fill="#4b3354" fill-opacity="0.501961" points="64,115 49,92 53,111" />
<polygon fill="#6d6961" fill-opacity="0.501961" points="92,8 51,-15 42,15" />
<polygon fill="#ebeadf" fill-opacity="0.501961" points="57,133 116,159 59,92" />
<polygon fill="#cfcbcd" fill-opacity="0.501961" points="101,76 115,108 82,115" />
<polygon fill="#435488" fill-opacity="0.501961" points="182,39 131,54 104,39" />
<polygon fill="#c3b694" fill-opacity="0.501961" points="265,145 105,159 159,125" />
<polygon fill="#ffffff" fill-opacity="0.501961" points="195,41 172,46 180,53" />
<polygon fill="#846f89" fill-opacity="0.501961" points="92,72 72,111 70,86" />
<polygon fill="#c7dbe9" fill-opacity="0.501961" points="238,24 268,16 249,45" />
<polygon fill="#846345" fill-opacity="0.501961" points="163,124 246,124 169,103" />
<polygon fill="#797870" fill-opacity="0.501961" points="166,25 58,-5 106,28" />
<polygon fill="#4d5f97" fill-opacity="0.501961" points="36,88 49,81 43,61" />
<polygon fill="#dfe0e2" fill-opacity="0.501961" points="86,15 113,38 29,51" />
<polygon fill="#575363" fill-opacity="0.501961" points="78,46 96,56 81,58" />
<polygon fill="#3a69aa" fill-opacity="0.501961" points="141,69 132,43 132,76" />
<polygon fill="#f3efe9" fill-opacity="0.501961" points="85,76 69,81 95,53" />
<polygon fill="#685442" fill-opacity="0.501961" points="151,107 115,107 105,83" />
<polygon fill="#3a5393" fill-opacity="0.501961" points="172,59 161,40 172,36" />
<polygon fill="#100d14" fill-opacity="0.501961" points="24,143 40,147 38,136" />
<polygon fill="#f9ffff" fill-opacity="0.501961" points="15,149 5,123 -9,159" />
<polygon fill="#eee9e0" fill-opacity="0.501961" points="29,85 50,111 49,88" />
<polygon fill="#5e7799" fill-opacity="0.501961" points="105,35 112,52 132,53" />
<polygon fill="#ebe8dc" fill-opacity="0.501961" points="139,109 148,159 121,107" />
<polygon fill="#66655e" fill-opacity="0.501961" points="40,23 63,8 29,10" />
<polygon fill="#999c96" fill-opacity="0.501961" points="64,28 80,24 52,23" />
<polygon fill="#373e40" fill-opacity="0.501961" points="241,52 270,58 210,64" />
<polygon fill="#7f8fb8" fill-opacity="0.501961" points="43,82 71,96 49,60" />
<polygon fill="#526180" fill-opacity="0.501961" points="266,15 201,34 196,15" />
<polygon fill="#eeeff1" fill-opacity="0.501961" points="55,16 35,79 35,31" />
<polygon fill="#71798d" fill-opacity="0.501961" points="251,54 195,60 257,34" />
<polygon fill="#131f29" fill-opacity="0.501961" points="255,-3 255,53 271,11" />
<polygon fill="#748ab4" fill-opacity="0.501961" points="93,69 125,73 73,85" />
<polygon fill="#e3edf0" fill-opacity="0.501961" points="11,51 -16,67 42,72" />
<polygon fill="#796e5d" fill-opacity="0.501961" points="20,96 9,87 14,131" />
<polygon fill="#c6c0af" fill-opacity="0.501961" points="55,143 27,132 25,84" />
<polygon fill="#edeae6" fill-opacity="0.501961" points="69,80 78,52 46,68" />
<polygon fill="#e9ecf4" fill-opacity="0.501961" points="154,59 156,46 166,50" />
<polygon fill="#3a5189" fill-opacity="0.501961" points="150,38 146,72 155,70" />
<polygon fill="#8f9cc1" fill-opacity="0.501961" points="39,58 53,69 51,49" />
<polygon fill="#352645" fill-opacity="0.501961" points="33,153 25,120 18,127" />
<polygon fill="#eef1f0" fill-opacity="0.501961" points="132,53 105,57 130,71" />
<polygon fill="#637098" fill-opacity="0.501961" points="141,62 194,63 201,47" />
<polygon fill="#554f43" fill-opacity="0.501961" points="172,15 206,-16 107,14" />
<polygon fill="#8ea2a4" fill-opacity="0.501961" points="125,96 130,102 130,84" />
<polygon fill="#d0ced3" fill-opacity="0.501961" points="113,104 91,76 88,113" />
<polygon fill="#8196bb" fill-opacity="0.501961" points="-16,53 33,54 27,40" />
<polygon fill="#e9ebe9" fill-opacity="0.501961" points="76,115 134,117 147,159" />
<polygon fill="#af9b7f" fill-opacity="0.501961" points="248,132 201,123 271,159" />
<polygon fill="#2f2d2d" fill-opacity="0.501961" points="199,-16 271,0 215,17" />
<polygon fill="#e4e5f6" fill-opacity="0.501961" points="53,96 48,77 62,100" />
<polygon fill="#e7edec" fill-opacity="0.501961" points="224,42 227,27 200,45" />
<polygon fill="#546f93" fill-opacity="0.501961" points="234,33 229,21 225,55" />
<polygon fill="#7d7676" fill-opacity="0.501961" points="45,108 35,99 32,103" />
<polygon fill="#bbbfd7" fill-opacity="0.501961" points="13,124 33,71 35,98" />
<polygon fill="#ffffff" fill-opacity="0.501961" points="80,92 81,103 77,96" />
<polygon fill="#e5e5da" fill-opacity="0.501961" points="50,137 146,137 46,109" />
<polygon fill="#483659" fill-opacity="0.501961" points="50,89 60,111 51,107" />
<polygon fill="#6c7083" fill-opacity="0.501961" points="137,71 114,89 94,83" />
<polygon fill="#5970a7" fill-opacity="0.501961" points="171,34 168,43 200,33" />
<polygon fill="#564034" fill-opacity="0.501961" points="122,98 176,84 145,112" />
<polygon fill="#989c95" fill-opacity="0.501961" points="78,25 94,29 98,24" />
<polygon fill="#656161" fill-opacity="0.501961" points="94,159 74,142 115,140" />
<polygon fill="#607db7" fill-opacity="0.501961" points="238,22 247,10 270,16" />
<polygon fill="#e8e9ec" fill-opacity="0.501961" points="70,95 53,90 69,133" />
<polygon fill="#453738" fill-opacity="0.501961" points="80,56 86,60 86,52" />
<polygon fill="#626566" fill-opacity="0.501961" points="204,47 185,90 153,90" />
<polygon fill="#95a5b7" fill-opacity="0.501961" points="26,72 -16,73 26,91" />
<polygon fill="#484850" fill-opacity="0.501961" points="152,24 106,44 161,41" />
<polygon fill="#697fa9" fill-opacity="0.501961" points="91,54 120,41 96,65" />
<polygon fill="#c4c7d7" fill-opacity="0.501961" points="111,51 38,49 74,33" />
<polygon fill="#aaa8a3" fill-opacity="0.501961" points="202,16 193,19 182,16" />
<polygon fill="#bbb7b3" fill-opacity="0.501961" points="23,149 18,125 13,132" />
<polygon fill="#3f4450" fill-opacity="0.501961" points="136,81 194,65 153,65" />
<polygon fill="#a28c6d" fill-opacity="0.501961" points="229,130 187,140 147,120" />
<polygon fill="#988d96" fill-opacity="0.501961" points="91,103 106,104 94,109" />
<polygon fill="#434347" fill-opacity="0.501961" points="184,24 249,3 233,22" />
<polygon fill="#18150f" fill-opacity="0.501961" points="256,159 271,117 255,61" />
<polygon fill="#d7cf8f" fill-opacity="0.501961" points="42,136 50,146 84,137" />
<polygon fill="#f3f3f2" fill-opacity="0.501961" points="82,28 108,49 106,30" />
<polygon fill="#e4e1e0" fill-opacity="0.501961" points="88,74 72,84 68,25" />
<polygon fill="#dce5ea" fill-opacity="0.501961" points="174,53 190,41 175,40" />
<polygon fill="#d8d19e" fill-opacity="0.501961" points="134,116 167,130 174,148" />
<polygon fill="#d7d190" fill-opacity="0.501961" points="124,135 143,140 150,134" />
<polygon fill="#767771" fill-opacity="0.501961" points="182,16 180,28 146,17" />
<polygon fill="#e2eaec" fill-opacity="0.501961" points="239,25 239,38 258,19" />
<polygon fill="#6f6d67" fill-opacity="0.501961" points="95,-11 97,22 121,43" />
<polygon fill="#f6f5f3" fill-opacity="0.501961" points="81,12 52,15 37,31" />
<polygon fill="#817f79" fill-opacity="0.501961" points="62,-16 26,49 17,-16" />
<polygon fill="#a8937b" fill-opacity="0.501961" points="1,117 13,108 5,128" />
<polygon fill="#6e5747" fill-opacity="0.501961" points="116,113 135,100 115,99" />
<polygon fill="#8d847d" fill-opacity="0.501961" points="220,90 180,74 222,65" />
<polygon fill="#e1e0df" fill-opacity="0.501961" points="99,115 89,84 100,89" />
<polygon fill="#dcd9d7" fill-opacity="0.501961" points="37,89 25,105 29,131" />
<polygon fill="#382b45" fill-opacity="0.501961" points="58,49 62,58 57,56" />
<polygon fill="#938382" fill-opacity="0.501961" points="40,119 39,111 32,116" />
<polygon fill="#343a40" fill-opacity="0.501961" points="238,42 230,66 237,61" />
<polygon fill="#567765" fill-opacity="0.501961" points="12,85 -16,98 13,101" />
<polygon fill="#5e5e5e" fill-opacity="0.501961" points="60,11 73,8 84,12" />
<polygon fill="#dbe0e8" fill-opacity="0.501961" points="22,54 41,48 35,87" />
<polygon fill="#a83144" fill-opacity="0.501961" points="69,105 76,104 76,98" />
<polygon fill="#33393b" fill-opacity="0.501961" points="196,68 213,63 189,62" />
<polygon fill="#45466d" fill-opacity="0.501961" points="78,82 87,107 88,80" />
<polygon fill="#f2f5f5" fill-opacity="0.501961" points="2,136 14,156 11,124" />
<polygon fill="#e7e9e7" fill-opacity="0.501961" points="40,26 32,46 49,59" />
<polygon fill="#a1a3b2" fill-opacity="0.501961" points="32,98 29,78 20,115" />
<polygon fill="#6c7490" fill-opacity="0.501961" points="58,90 66,83 49,75" />
<polygon fill="#816042" fill-opacity="0.501961" points="136,106 173,106 152,121" />
<polygon fill="#ccd9e3" fill-opacity="0.501961" points="226,27 209,41 201,36" />
<polygon fill="#595c7c" fill-opacity="0.501961" points="94,56 91,54 93,44" />
<polygon fill="#d6d4d0" fill-opacity="0.501961" points="100,77 100,96 117,111" />
<polygon fill="#4d76a9" fill-opacity="0.501961" points="129,45 137,53 135,65" />
<polygon fill="#d5d2ce" fill-opacity="0.501961" points="51,109 50,86 25,90" />
<polygon fill="#e5e6e7" fill-opacity="0.501961" points="120,131 94,143 90,110" />
<polygon fill="#bbb4b4" fill-opacity="0.501961" points="36,138 31,135 38,118" />
<polygon fill="#d5dfe4" fill-opacity="0.501961" points="106,51 134,72 104,70" />
<polygon fill="#262228" fill-opacity="0.501961" points="103,141 90,159 115,141" />
<polygon fill="#645e53" fill-opacity="0.501961" points="174,7 125,-4 105,13" />
<polygon fill="#40403f" fill-opacity="0.501961" points="158,20 179,25 190,19" />
<polygon fill="#ddd5ce" fill-opacity="0.501961" points="155,126 121,110 136,108" />
<polygon fill="#462859" fill-opacity="0.501961" points="87,109 82,109 82,92" />
<polygon fill="#5b6376" fill-opacity="0.501961" points="108,37 108,48 130,46" />
<polygon fill="#f0f0ef" fill-opacity="0.501961" points="71,28 70,43 36,33" />
<polygon fill="#7788a6" fill-opacity="0.501961" points="202,34 207,23 231,26" />
<polygon fill="#d0c66a" fill-opacity="0.501961" points="49,136 43,123 44,139" />
<polygon fill="#8c9499" fill-opacity="0.501961" points="80,80 81,91 58,93" />
<polygon fill="#b7a58b" fill-opacity="0.501961" points="179,126 239,147 163,155" />
<polygon fill="#6081ab" fill-opacity="0.501961" points="196,58 190,35 199,40" />
<polygon fill="#58606f" fill-opacity="0.501961" points="116,102 145,65 121,77" />
<polygon fill="#43527f" fill-opacity="0.501961" points="167,56 163,34 169,35" />
<polygon fill="#563f37" fill-opacity="0.501961" points="115,105 109,90 120,90" />
<polygon fill="#6075a5" fill-opacity="0.501961" points="170,56 132,64 145,69" />
<polygon fill="#58779d" fill-opacity="0.501961" points="228,30 226,57 240,23" />
<polygon fill="#3e404b" fill-opacity="0.501961" points="131,40 185,31 157,25" />
<polygon fill="#96958a" fill-opacity="0.501961" points="-16,10 56,7 -14,-9" />
<polygon fill="#dee4e6" fill-opacity="0.501961" points="190,43 190,51 173,51" />
<polygon fill="#1d1e27" fill-opacity="0.501961" points="14,147 15,139 28,157" />
<polygon fill="#849cc2" fill-opacity="0.501961" points="128,54 111,49 143,49" />
<polygon fill="#bdc6d1" fill-opacity="0.501961" points="164,136 133,139 134,159" />
<polygon fill="#413e37" fill-opacity="0.501961" points="155,-12 152,3 209,6" />
<polygon fill="#494944" fill-opacity="0.501961" points="232,80 241,76 236,72" />
<polygon fill="#e4eaea" fill-opacity="0.501961" points="22,56 1,52 3,72" />
<polygon fill="#867d7a" fill-opacity="0.501961" points="47,108 43,112 45,113" />
<polygon fill="#d8c7a8" fill-opacity="0.501961" points="86,111 70,104 65,109" />
<polygon fill="#525454" fill-opacity="0.501961" points="144,27 128,44 104,29" />
<polygon fill="#aeb0c1" fill-opacity="0.501961" points="67,53 44,43 73,46" />
<polygon fill="#917756" fill-opacity="0.501961" points="182,116 190,130 225,133" />
<polygon fill="#696b6f" fill-opacity="0.501961" points="235,17 208,14 209,22" />
<polygon fill="#e4edf4" fill-opacity="0.501961" points="138,53 146,58 139,61" />
<polygon fill="#8d8f91" fill-opacity="0.501961" points="32,53 15,18 -16,24" />
<polygon fill="#3c4662" fill-opacity="0.501961" points="246,5 270,9 230,18" />
<polygon fill="#7993ba" fill-opacity="0.501961" points="239,39 270,31 247,47" />
<polygon fill="#eeeff0" fill-opacity="0.501961" points="152,132 134,120 98,134" />
<polygon fill="#424a7d" fill-opacity="0.501961" points="96,84 99,85 95,78" />
<polygon fill="#dfdcd5" fill-opacity="0.501961" points="47,102 28,100 30,95" />
<polygon fill="#54382a" fill-opacity="0.501961" points="130,89 183,97 135,103" />
<polygon fill="#ededeb" fill-opacity="0.501961" points="114,38 99,27 73,29" />
<polygon fill="#6b7398" fill-opacity="0.501961" points="85,48 88,44 87,54" />
<polygon fill="#78573f" fill-opacity="0.501961" points="171,122 193,105 252,120" />
<polygon fill="#5c6689" fill-opacity="0.501961" points="77,83 93,75 86,84" />
<polygon fill="#e2eaea" fill-opacity="0.501961" points="254,18 244,36 254,36" />
<polygon fill="#81817c" fill-opacity="0.501961" points="96,15 121,16 121,29" />
<polygon fill="#8d8e8d" fill-opacity="0.501961" points="87,19 86,14 105,14" />
<polygon fill="#9eb4cd" fill-opacity="0.501961" points="-16,95 27,71 -16,72" />
<polygon fill="#a09da1" fill-opacity="0.501961" points="82,159 49,142 96,143" />
<polygon fill="#8a7158" fill-opacity="0.501961" points="254,132 224,124 251,121" />
<polygon fill="#3c3f44" fill-opacity="0.501961" points="231,65 229,49 226,60" />
<polygon fill="#7b695a" fill-opacity="0.501961" points="134,104 107,114 128,98" />
<polygon fill="#e8e3e0" fill-opacity="0.501961" points="53,70 72,83 53,54" />
<polygon fill="#727b9f" fill-opacity="0.501961" points="42,56 50,86 39,85" />
<polygon fill="#404869" fill-opacity="0.501961" points="197,25 171,32 194,36" />
<polygon fill="#545e89" fill-opacity="0.501961" points="130,45 166,41 151,49" />
<polygon fill="#dee0dc" fill-opacity="0.501961" points="80,109 82,93 77,92" />
<polygon fill="#928f8e" fill-opacity="0.501961" points="8,86 29,79 23,92" />
<polygon fill="#98a5a0" fill-opacity="0.501961" points="167,79 168,75 172,82" />
<polygon fill="#a89fa1" fill-opacity="0.501961" points="63,116 54,110 60,110" />
<polygon fill="#9796a0" fill-opacity="0.501961" points="23,107 13,117 13,139" />
<polygon fill="#b09f85" fill-opacity="0.501961" points="222,132 153,139 207,148" />
<polygon fill="#dad6d3" fill-opacity="0.501961" points="34,122 23,113 31,94" />
<polygon fill="#9c8563" fill-opacity="0.501961" points="182,116 157,118 169,126" />
<polygon fill="#a9adc2" fill-opacity="0.501961" points="58,76 44,64 39,47" />
<polygon fill="#8492a8" fill-opacity="0.501961" points="232,52 229,35 235,26" />
<polygon fill="#7c766b" fill-opacity="0.501961" points="134,7 61,9 61,-11" />
<polygon fill="#d9dcef" fill-opacity="0.501961" points="94,74 91,112 87,93" />
<polygon fill="#dcdbd3" fill-opacity="0.501961" points="69,130 56,138 31,104" />
<polygon fill="#f3f6f3" fill-opacity="0.501961" points="80,47 71,55 71,44" />
<polygon fill="#676988" fill-opacity="0.501961" points="28,97 24,103 26,103" />
<polygon fill="#7f7f7e" fill-opacity="0.501961" points="193,20 171,20 187,15" />
<polygon fill="#90887f" fill-opacity="0.501961" points="254,59 255,90 230,90" />
<polygon fill="#3a3b42" fill-opacity="0.501961" points="213,21 187,30 188,20" />
<polygon fill="#42443e" fill-opacity="0.501961" points="221,76 225,80 225,74" />
<polygon fill="#7e8d91" fill-opacity="0.501961" points="130,84 129,101 125,95" />
<polygon fill="#4d6065" fill-opacity="0.501961" points="118,100 126,90 126,101" />
<polygon fill="#787875" fill-opacity="0.501961" points="-2,29 36,22 35,33" />
<polygon fill="#683e29" fill-opacity="0.501961" points="210,91 251,104 260,91" />
<polygon fill="#9f7668" fill-opacity="0.501961" points="57,81 78,84 73,89" />
<polygon fill="#8e908d" fill-opacity="0.501961" points="109,23 93,27 113,28" />
<polygon fill="#e1e1f4" fill-opacity="0.501961" points="22,99 20,104 24,105" />
<polygon fill="#82817f" fill-opacity="0.501961" points="114,91 105,84 119,81" />
<polygon fill="#244269" fill-opacity="0.501961" points="235,42 238,37 237,51" />
<polygon fill="#5c5955" fill-opacity="0.501961" points="66,2 141,4 124,-14" />
<polygon fill="#7f6261" fill-opacity="0.501961" points="83,110 78,114 85,111" />
<polygon fill="#7c8183" fill-opacity="0.501961" points="178,27 190,23 171,23" />
<polygon fill="#bcb8ad" fill-opacity="0.501961" points="98,95 102,112 107,104" />
<polygon fill="#2f2934" fill-opacity="0.501961" points="36,140 32,159 19,132" />
<polygon fill="#5c719f" fill-opacity="0.501961" points="103,49 104,62 96,58" />
<polygon fill="#554854" fill-opacity="0.501961" points="66,57 54,56 57,52" />
<polygon fill="#85695c" fill-opacity="0.501961" points="4,114 -16,146 -1,76" />
<polygon fill="#e2e2d9" fill-opacity="0.501961" points="52,135 54,113 122,113" />
<polygon fill="#d0c9bc" fill-opacity="0.501961" points="142,112 121,114 148,121" />
<polygon fill="#b3b7b2" fill-opacity="0.501961" points="93,27 79,22 74,28" />
<polygon fill="#7b7d78" fill-opacity="0.501961" points="138,18 162,20 158,14" />
<polygon fill="#262937" fill-opacity="0.501961" points="82,85 82,94 86,86" />
<polygon fill="#39344a" fill-opacity="0.501961" points="123,114 111,112 117,111" />
<polygon fill="#72716e" fill-opacity="0.501961" points="41,22 16,13 53,14" />
<polygon fill="#2e344e" fill-opacity="0.501961" points="233,23 213,22 224,18" />
<polygon fill="#444848" fill-opacity="0.501961" points="255,16 271,61 255,78" />
<polygon fill="#b2c3d8" fill-opacity="0.501961" points="93,70 101,60 104,71" />
<polygon fill="#d2d283" fill-opacity="0.501961" points="84,63 91,55 89,62" />
<polygon fill="#e5e7e8" fill-opacity="0.501961" points="159,56 157,49 165,54" />
<polygon fill="#6b717f" fill-opacity="0.501961" points="224,26 229,15 228,30" />
<polygon fill="#6b81a9" fill-opacity="0.501961" points="164,47 192,35 173,35" />
<polygon fill="#554766" fill-opacity="0.501961" points="55,109 62,113 58,112" />
<polygon fill="#d9dcd0" fill-opacity="0.501961" points="163,137 179,137 165,130" />
<polygon fill="#d3d0b8" fill-opacity="0.501961" points="57,110 38,133 44,114" />
<polygon fill="#494d55" fill-opacity="0.501961" points="140,90 141,71 186,66" />
<polygon fill="#d9d080" fill-opacity="0.501961" points="153,135 150,125 167,134" />
<polygon fill="#f0f0ee" fill-opacity="0.501961" points="89,23 49,20 69,12" />
<polygon fill="#e7e8e1" fill-opacity="0.501961" points="90,140 104,116 124,139" />
<polygon fill="#e2e4e4" fill-opacity="0.501961" points="31,59 68,31 33,40" />
<polygon fill="#596b93" fill-opacity="0.501961" points="49,52 54,53 48,55" />
<polygon fill="#857f79" fill-opacity="0.501961" points="240,73 202,68 252,60" />
<polygon fill="#76716e" fill-opacity="0.501961" points="184,90 180,70 212,65" />
<polygon fill="#676f93" fill-opacity="0.501961" points="94,86 104,83 96,79" />
<polygon fill="#4f4159" fill-opacity="0.501961" points="23,128 19,125 25,119" />
<polygon fill="#7b88ad" fill-opacity="0.501961" points="55,72 49,54 49,66" />
<polygon fill="#ecedec" fill-opacity="0.501961" points="86,35 80,25 85,50" />
<polygon fill="#7c5d43" fill-opacity="0.501961" points="156,115 130,105 145,101" />
<polygon fill="#8c9cb8" fill-opacity="0.501961" points="-7,52 15,46 29,53" />
<polygon fill="#d3dbe3" fill-opacity="0.501961" points="200,37 210,32 203,50" />
<polygon fill="#c9cad7" fill-opacity="0.501961" points="19,107 15,118 18,125" />
<polygon fill="#69656b" fill-opacity="0.501961" points="142,76 118,80 135,88" />
<polygon fill="#d3d1c9" fill-opacity="0.501961" points="166,132 157,125 158,121" />
<polygon fill="#816c64" fill-opacity="0.501961" points="35,111 34,117 38,114" />
<polygon fill="#5f4031" fill-opacity="0.501961" points="228,106 164,91 155,109" />
<polygon fill="#989386" fill-opacity="0.501961" points="58,9 69,5 49,4" />
<polygon fill="#686e7e" fill-opacity="0.501961" points="200,33 217,23 199,22" />
<polygon fill="#dbd7da" fill-opacity="0.501961" points="92,62 56,67 82,79" />
<polygon fill="#3a393c" fill-opacity="0.501961" points="193,25 171,19 201,19" />
<polygon fill="#837c79" fill-opacity="0.501961" points="41,105 37,107 32,100" />
<polygon fill="#e6eae9" fill-opacity="0.501961" points="106,69 104,54 126,55" />
<polygon fill="#7c7e7a" fill-opacity="0.501961" points="158,27 139,21 135,27" />
<polygon fill="#3e3f43" fill-opacity="0.501961" points="177,30 174,19 177,23" />
<polygon fill="#838793" fill-opacity="0.501961" points="-16,51 37,29 31,45" />
<polygon fill="#51535c" fill-opacity="0.501961" points="139,47 116,40 128,22" />
<polygon fill="#343433" fill-opacity="0.501961" points="203,16 269,1 210,-16" />
<polygon fill="#44335f" fill-opacity="0.501961" points="94,109 92,102 95,107" />
<polygon fill="#7b7d8d" fill-opacity="0.501961" points="200,46 200,63 228,52" />
<polygon fill="#eff1f0" fill-opacity="0.501961" points="90,45 87,34 93,33" />
<polygon fill="#6476a0" fill-opacity="0.501961" points="136,73 172,54 135,62" />
<polygon fill="#6a6c68" fill-opacity="0.501961" points="-16,-16 0,39 0,-16" />
<polygon fill="#7f8ca2" fill-opacity="0.501961" points="53,71 59,88 76,96" />
<polygon fill="#d27595" fill-opacity="0.501961" points="74,93 78,99 69,101" />
<polygon fill="#e2e6e9" fill-opacity="0.501961" points="136,60 147,57 145,51" />
<polygon fill="#5c627a" fill-opacity="0.501961" points="152,61 132,73 177,65" />
<polygon fill="#dfe3e7" fill-opacity="0.501961" points="92,29 100,36 97,55" />
<polygon fill="#445879" fill-opacity="0.501961" points="241,13 237,28 227,26" />
<polygon fill="#abafaa" fill-opacity="0.501961" points="0,158 -16,124 1,122" />
<polygon fill="#aba999" fill-opacity="0.501961" points="-8,20 5,24 19,20" />
<polygon fill="#80a6bc" fill-opacity="0.501961" points="81,91 78,87 72,95" />
<polygon fill="#66635e" fill-opacity="0.501961" points="113,6 102,15 80,12" />
<polygon fill="#3d444d" fill-opacity="0.501961" points="205,60 210,65 227,60" />
<polygon fill="#8c95b7" fill-opacity="0.501961" points="88,47 85,43 87,39" />
<polygon fill="#eef0ef" fill-opacity="0.501961" points="59,97 65,102 70,96" />
<polygon fill="#86a1c5" fill-opacity="0.501961" points="104,55 102,48 126,50" />
<polygon fill="#50678c" fill-opacity="0.501961" points="193,46 192,58 188,54" />
<polygon fill="#5b594d" fill-opacity="0.501961" points="133,21 149,25 162,19" />
<polygon fill="#c4bfbd" fill-opacity="0.501961" points="152,152 158,140 199,145" />
<polygon fill="#55475e" fill-opacity="0.501961" points="55,109 53,110 50,108" />
<polygon fill="#b0b3af" fill-opacity="0.501961" points="56,28 74,28 57,23" />
<polygon fill="#c9d4e5" fill-opacity="0.501961" points="47,53 54,76 46,64" />
<polygon fill="#a9a69e" fill-opacity="0.501961" points="98,140 88,140 105,159" />
<polygon fill="#705d58" fill-opacity="0.501961" points="60,61 64,54 57,55" />
<polygon fill="#a3bbda" fill-opacity="0.501961" points="245,26 241,23 250,19" />
<polygon fill="#5d73a2" fill-opacity="0.501961" points="133,46 132,57 144,48" />
<polygon fill="#ebebe8" fill-opacity="0.501961" points="95,23 70,12 68,24" />
<polygon fill="#e9e3e1" fill-opacity="0.501961" points="131,114 128,108 140,111" />
<polygon fill="#83694d" fill-opacity="0.501961" points="133,103 158,115 155,124" />
<polygon fill="#636059" fill-opacity="0.501961" points="104,16 106,30 110,17" />
<polygon fill="#b2b3c1" fill-opacity="0.501961" points="49,51 54,37 54,50" />
<polygon fill="#969589" fill-opacity="0.501961" points="8,26 42,22 17,18" />
<polygon fill="#d8caaf" fill-opacity="0.501961" points="79,102 78,113 69,114" />
<polygon fill="#3d4962" fill-opacity="0.501961" points="201,56 198,49 196,62" />
<polygon fill="#34476c" fill-opacity="0.501961" points="228,48 230,45 227,40" />
<polygon fill="#ac9d91" fill-opacity="0.501961" points="211,127 200,123 218,123" />
<polygon fill="#a7987c" fill-opacity="0.501961" points="188,140 157,124 171,124" />
<polygon fill="#6d6c65" fill-opacity="0.501961" points="119,37 137,33 107,31" />
<polygon fill="#413a56" fill-opacity="0.501961" points="87,95 81,84 87,88" />
<polygon fill="#c0b197" fill-opacity="0.501961" points="190,134 177,125 159,125" />
<polygon fill="#839cc2" fill-opacity="0.501961" points="220,47 211,46 227,41" />
<polygon fill="#4e516a" fill-opacity="0.501961" points="169,41 192,25 146,41" />
<polygon fill="#84807b" fill-opacity="0.501961" points="197,20 196,17 204,18" />
<polygon fill="#8a665a" fill-opacity="0.501961" points="23,91 15,116 14,91" />
<polygon fill="#c3bcb1" fill-opacity="0.501961" points="119,115 131,114 122,111" />
<polygon fill="#ebebed" fill-opacity="0.501961" points="84,14 61,22 74,12" />
<polygon fill="#8e7456" fill-opacity="0.501961" points="185,116 173,128 163,113" />
<polygon fill="#d0cccb" fill-opacity="0.501961" points="31,104 42,109 19,118" />
<polygon fill="#b5a695" fill-opacity="0.501961" points="246,133 253,134 254,132" />
<polygon fill="#95a5ac" fill-opacity="0.501961" points="1,56 -15,56 0,83" />
<polygon fill="#e4e1e1" fill-opacity="0.501961" points="77,82 58,75 67,54" />
<polygon fill="#ecedea" fill-opacity="0.501961" points="68,41 64,28 64,52" />
<polygon fill="#dce1e4" fill-opacity="0.501961" points="164,49 159,56 153,51" />
<polygon fill="#e5e8ad" fill-opacity="0.501961" points="58,60 53,64 68,61" />
<polygon fill="#545045" fill-opacity="0.501961" points="173,9 178,1 203,7" />
<polygon fill="#e8e8e8" fill-opacity="0.501961" points="44,27 48,52 34,38" />
<polygon fill="#7b8cac" fill-opacity="0.501961" points="173,54 180,60 192,50" />
</g>
</svg>