<svg xmlns="http://www.w3.org/2000/svg" version="1.1" width="1024" height="576">
<rect x="0" y="0" width="1024" height="576" fill="#978a7a" />
<g transform="scale(4.000000) translate(0.5 0.5)">
<polygon fill="#1f0900" fill-opacity="0.501961" points="114,-16 4,159 -16,-7" />
<polygon fill="#e6f0fd" fill-opacity="0.501961" points="179,-16 87,9 159,159" />
<polygon fill="#fffff8" fill-opacity="0.501961" points="271,136 191,107 116,159" />
<polygon fill="#ffffef" fill-opacity="0.501961" points="28,136 72,53 99,70" />
<polygon fill="#4a496b" fill-opacity="0.501961" points="152,73 73,46 271,29" />
<polygon fill="#fefadb" fill-opacity="0.501961" points="59,159 80,110 136,136" />
<polygon fill="#ffffff" fill-opacity="0.501961" points="180,29 155,-16 91,31" />
<polygon fill="#89571f" fill-opacity="0.501961" points="160,115 70,115 68,82" />
<polygon fill="#102264" fill-opacity="0.501961" points="104,8 28,40 -16,-16" />
<polygon fill="#fffff7" fill-opacity="0.501961" points="113,66 104,82 139,112" />
<polygon fill="#373a6f" fill-opacity="0.501961" points="152,-16 233,23 209,47" />
<polygon fill="#160b00" fill-opacity="0.501961" points="45,113 77,156 37,159" />
<polygon fill="#9d7b41" fill-opacity="0.501961" points="118,135 271,75 215,35" />
<polygon fill="#9a6b18" fill-opacity="0.501961" points="73,40 -16,51 40,113" />
<polygon fill="#2f3150" fill-opacity="0.501961" points="90,-16 96,54 45,29" />
<polygon fill="#ffffe2" fill-opacity="0.501961" points="89,50 58,118 63,63" />
<polygon fill="#fbfee8" fill-opacity="0.501961" points="179,19 109,-16 91,40" />
<polygon fill="#323e6c" fill-opacity="0.501961" points="160,44 191,94 178,105" />
<polygon fill="#ffffd8" fill-opacity="0.501961" points="167,86 132,113 159,57" />
<polygon fill="#b18e41" fill-opacity="0.501961" points="258,40 184,106 271,129" />
<polygon fill="#a0b3fb" fill-opacity="0.501961" points="175,40 112,50 121,26" />
<polygon fill="#dfb7b5" fill-opacity="0.501961" points="244,-16 174,-16 271,31" />
<polygon fill="#000017" fill-opacity="0.501961" points="126,92 135,83 147,89" />
<polygon fill="#575676" fill-opacity="0.501961" points="178,44 181,-10 259,45" />
<polygon fill="#7b561f" fill-opacity="0.501961" points="-16,33 -8,109 98,40" />
<polygon fill="#694a1a" fill-opacity="0.501961" points="74,113 98,80 125,104" />
<polygon fill="#f4eac2" fill-opacity="0.501961" points="151,145 191,104 254,147" />
<polygon fill="#93001d" fill-opacity="0.501961" points="148,128 114,151 138,159" />
<polygon fill="#f8fce1" fill-opacity="0.501961" points="108,84 165,57 149,82" />
<polygon fill="#f5efc5" fill-opacity="0.501961" points="79,141 113,110 72,121" />
<polygon fill="#798499" fill-opacity="0.501961" points="21,158 3,107 -8,159" />
<polygon fill="#525776" fill-opacity="0.501961" points="116,63 92,69 112,32" />
<polygon fill="#2c2b45" fill-opacity="0.501961" points="129,59 139,71 141,51" />
<polygon fill="#6e342b" fill-opacity="0.501961" points="114,159 94,122 101,157" />
<polygon fill="#fffff3" fill-opacity="0.501961" points="124,70 102,64 108,74" />
<polygon fill="#eaecf3" fill-opacity="0.501961" points="174,46 87,-16 177,10" />
<polygon fill="#9bbaed" fill-opacity="0.501961" points="112,159 120,107 130,156" />
<polygon fill="#a29ea1" fill-opacity="0.501961" points="182,60 197,80 143,73" />
<polygon fill="#d0c68e" fill-opacity="0.501961" points="38,146 21,138 42,101" />
<polygon fill="#dcd2a7" fill-opacity="0.501961" points="256,159 203,114 253,124" />
<polygon fill="#8d6054" fill-opacity="0.501961" points="191,143 202,128 195,159" />
<polygon fill="#110b0a" fill-opacity="0.501961" points="70,131 65,142 57,134" />
<polygon fill="#ecebde" fill-opacity="0.501961" points="156,113 191,134 138,159" />
<polygon fill="#fffffb" fill-opacity="0.501961" points="158,69 141,59 145,69" />
<polygon fill="#9b675b" fill-opacity="0.501961" points="130,159 123,104 152,114" />
<polygon fill="#282c51" fill-opacity="0.501961" points="1,31 97,41 20,-16" />
<polygon fill="#feffe1" fill-opacity="0.501961" points="109,60 72,58 85,51" />
<polygon fill="#49443b" fill-opacity="0.501961" points="204,61 177,57 178,26" />
<polygon fill="#444b46" fill-opacity="0.501961" points="112,80 125,74 107,76" />
<polygon fill="#3e4060" fill-opacity="0.501961" points="-3,-16 107,0 77,33" />
<polygon fill="#656178" fill-opacity="0.501961" points="271,46 161,-16 195,45" />
<polygon fill="#a06d41" fill-opacity="0.501961" points="64,97 70,84 84,88" />
<polygon fill="#6d83b0" fill-opacity="0.501961" points="80,111 49,117 63,135" />
<polygon fill="#645c66" fill-opacity="0.501961" points="179,57 138,59 149,42" />
<polygon fill="#f3f0bf" fill-opacity="0.501961" points="118,-16 92,22 100,54" />
<polygon fill="#f8fddb" fill-opacity="0.501961" points="65,109 47,105 69,60" />
<polygon fill="#a47348" fill-opacity="0.501961" points="108,83 58,121 93,75" />
<polygon fill="#484142" fill-opacity="0.501961" points="90,71 107,51 111,58" />
<polygon fill="#ffffdc" fill-opacity="0.501961" points="141,106 112,78 112,90" />
<polygon fill="#8599e0" fill-opacity="0.501961" points="181,51 158,30 160,48" />
<polygon fill="#f6f7d7" fill-opacity="0.501961" points="166,83 166,65 129,104" />
<polygon fill="#1e1812" fill-opacity="0.501961" points="271,40 256,-2 254,41" />
<polygon fill="#fffcdb" fill-opacity="0.501961" points="120,55 108,58 113,53" />
<polygon fill="#734b16" fill-opacity="0.501961" points="-16,107 57,84 32,113" />
<polygon fill="#bebfbb" fill-opacity="0.501961" points="169,96 143,130 165,119" />
<polygon fill="#1d1019" fill-opacity="0.501961" points="107,60 116,59 112,66" />
<polygon fill="#e6e4c8" fill-opacity="0.501961" points="109,121 122,124 97,159" />
<polygon fill="#abbed6" fill-opacity="0.501961" points="132,129 108,129 123,149" />
<polygon fill="#171506" fill-opacity="0.501961" points="256,157 269,121 255,83" />
<polygon fill="#564b52" fill-opacity="0.501961" points="178,91 165,94 170,64" />
<polygon fill="#a47b54" fill-opacity="0.501961" points="106,123 170,95 150,122" />
<polygon fill="#e4e0c3" fill-opacity="0.501961" points="125,62 119,75 117,38" />
<polygon fill="#866531" fill-opacity="0.501961" points="48,85 84,40 -16,75" />
<polygon fill="#76767a" fill-opacity="0.501961" points="171,96 156,123 182,115" />
<polygon fill="#5b5667" fill-opacity="0.501961" points="149,72 118,58 126,47" />
<polygon fill="#333438" fill-opacity="0.501961" points="148,73 163,66 161,71" />
<polygon fill="#714e13" fill-opacity="0.501961" points="4,-16 -16,62 5,51" />
<polygon fill="#714e32" fill-opacity="0.501961" points="42,90 28,82 48,122" />
<polygon fill="#effaff" fill-opacity="0.501961" points="51,106 45,100 51,121" />
<polygon fill="#e4debf" fill-opacity="0.501961" points="71,114 109,115 81,134" />
<polygon fill="#a98b50" fill-opacity="0.501961" points="199,47 271,46 186,98" />
<polygon fill="#f2f0cc" fill-opacity="0.501961" points="121,79 105,78 129,108" />
<polygon fill="#f1f5d8" fill-opacity="0.501961" points="54,87 61,71 99,71" />
<polygon fill="#d7cfc3" fill-opacity="0.501961" points="182,76 188,55 174,77" />
<polygon fill="#b9714c" fill-opacity="0.501961" points="92,28 102,53 93,42" />
<polygon fill="#3b2d33" fill-opacity="0.501961" points="148,61 158,61 153,51" />
<polygon fill="#7c8bd8" fill-opacity="0.501961" points="96,48 111,33 127,37" />
<polygon fill="#edf0c9" fill-opacity="0.501961" points="100,8 95,37 128,30" />
<polygon fill="#6c5c44" fill-opacity="0.501961" points="87,67 121,100 118,122" />
<polygon fill="#8e87aa" fill-opacity="0.501961" points="174,39 173,64 189,90" />
<polygon fill="#353547" fill-opacity="0.501961" points="88,27 98,56 46,11" />
<polygon fill="#66553e" fill-opacity="0.501961" points="81,60 100,67 91,57" />
<polygon fill="#b3985f" fill-opacity="0.501961" points="255,104 254,65 187,79" />
<polygon fill="#f4f4cd" fill-opacity="0.501961" points="120,98 129,63 135,75" />
<polygon fill="#f0f5d8" fill-opacity="0.501961" points="67,64 91,62 82,85" />
<polygon fill="#8d0027" fill-opacity="0.501961" points="150,130 136,152 125,145" />
<polygon fill="#171918" fill-opacity="0.501961" points="255,36 255,86 270,83" />
<polygon fill="#9fb1ec" fill-opacity="0.501961" points="157,29 122,32 133,55" />
<polygon fill="#5c5d62" fill-opacity="0.501961" points="125,94 143,84 129,82" />
<polygon fill="#f2f2ee" fill-opacity="0.501961" points="142,-16 172,5 177,37" />
<polygon fill="#666e63" fill-opacity="0.501961" points="128,64 123,79 121,74" />
<polygon fill="#bc8d61" fill-opacity="0.501961" points="212,12 231,8 266,40" />
<polygon fill="#cab8a6" fill-opacity="0.501961" points="156,49 146,54 159,55" />
<polygon fill="#6d5026" fill-opacity="0.501961" points="-16,29 56,63 91,47" />
<polygon fill="#41425c" fill-opacity="0.501961" points="56,-11 87,43 102,-16" />
<polygon fill="#cec5a1" fill-opacity="0.501961" points="22,132 42,103 41,123" />
<polygon fill="#eae6cd" fill-opacity="0.501961" points="205,118 183,159 187,103" />
<polygon fill="#9d7d48" fill-opacity="0.501961" points="217,117 258,99 186,102" />
<polygon fill="#ece6cb" fill-opacity="0.501961" points="182,116 196,147 145,128" />
<polygon fill="#eff2d9" fill-opacity="0.501961" points="126,74 149,81 108,86" />
<polygon fill="#7d92bb" fill-opacity="0.501961" points="140,129 139,137 110,130" />
<polygon fill="#7686a6" fill-opacity="0.501961" points="51,117 75,130 52,106" />
<polygon fill="#313d4d" fill-opacity="0.501961" points="11,115 30,114 12,142" />
<polygon fill="#ac9f76" fill-opacity="0.501961" points="13,141 36,159 46,110" />
<polygon fill="#846331" fill-opacity="0.501961" points="115,108 102,69 82,110" />
<polygon fill="#efe8c3" fill-opacity="0.501961" points="110,110 99,115 100,129" />
<polygon fill="#fffde8" fill-opacity="0.501961" points="120,137 101,159 149,159" />
<polygon fill="#c3b896" fill-opacity="0.501961" points="255,137 202,159 247,122" />
<polygon fill="#394369" fill-opacity="0.501961" points="170,89 187,97 184,74" />
<polygon fill="#464964" fill-opacity="0.501961" points="160,39 172,54 171,75" />
<polygon fill="#43392e" fill-opacity="0.501961" points="53,136 69,128 68,140" />
<polygon fill="#771f38" fill-opacity="0.501961" points="146,159 130,159 133,129" />
<polygon fill="#f4f1cb" fill-opacity="0.501961" points="151,100 112,92 141,109" />
<polygon fill="#725426" fill-opacity="0.501961" points="80,112 103,115 89,102" />
<polygon fill="#ffffeb" fill-opacity="0.501961" points="94,75 99,66 99,72" />
<polygon fill="#b1845f" fill-opacity="0.501961" points="68,116 99,76 67,95" />
<polygon fill="#454665" fill-opacity="0.501961" points="91,13 112,-4 60,-15" />
<polygon fill="#f0f4e3" fill-opacity="0.501961" points="125,60 105,70 117,75" />
<polygon fill="#8c7862" fill-opacity="0.501961" points="126,103 102,124 137,110" />
<polygon fill="#96897e" fill-opacity="0.501961" points="146,89 140,89 146,97" />
<polygon fill="#7588b0" fill-opacity="0.501961" points="122,106 125,130 117,120" />
<polygon fill="#7c7fae" fill-opacity="0.501961" points="109,55 137,46 140,54" />
<polygon fill="#8799bd" fill-opacity="0.501961" points="121,131 141,138 114,137" />
<polygon fill="#9e796a" fill-opacity="0.501961" points="199,126 196,146 205,127" />
<polygon fill="#e8e1c4" fill-opacity="0.501961" points="204,113 203,139 242,123" />
<polygon fill="#f0f2dd" fill-opacity="0.501961" points="169,73 156,94 138,74" />
<polygon fill="#f4f5d4" fill-opacity="0.501961" points="88,51 86,57 103,61" />
<polygon fill="#202443" fill-opacity="0.501961" points="5,8 7,31 37,35" />
<polygon fill="#8a93c6" fill-opacity="0.501961" points="141,37 172,39 174,52" />
<polygon fill="#f0f1d3" fill-opacity="0.501961" points="157,96 164,68 140,108" />
<polygon fill="#dcd3b0" fill-opacity="0.501961" points="34,117 40,104 42,129" />
<polygon fill="#ad8155" fill-opacity="0.501961" points="196,1 195,-16 232,22" />
<polygon fill="#ffffd1" fill-opacity="0.501961" points="104,66 105,59 108,72" />
<polygon fill="#eae2ba" fill-opacity="0.501961" points="116,120 101,127 108,157" />
<polygon fill="#eaedf9" fill-opacity="0.501961" points="137,152 162,148 158,122" />
<polygon fill="#f0edd2" fill-opacity="0.501961" points="153,69 142,66 141,56" />
<polygon fill="#585563" fill-opacity="0.501961" points="188,67 201,37 180,15" />
<polygon fill="#d8cea5" fill-opacity="0.501961" points="89,122 97,144 57,149" />
<polygon fill="#6f75a4" fill-opacity="0.501961" points="180,75 192,102 187,64" />
<polygon fill="#7c8ceb" fill-opacity="0.501961" points="103,50 100,47 99,59" />
<polygon fill="#3d3e47" fill-opacity="0.501961" points="188,52 167,57 191,43" />
<polygon fill="#a77e4c" fill-opacity="0.501961" points="178,60 176,73 185,58" />
<polygon fill="#706f79" fill-opacity="0.501961" points="12,112 3,153 -16,117" />
<polygon fill="#6d6061" fill-opacity="0.501961" points="140,74 123,40 127,61" />
<polygon fill="#3d3d56" fill-opacity="0.501961" points="105,57 114,51 113,39" />
<polygon fill="#ede0b3" fill-opacity="0.501961" points="182,73 170,80 185,63" />
<polygon fill="#f0f2e8" fill-opacity="0.501961" points="176,21 177,35 150,27" />
<polygon fill="#946b5d" fill-opacity="0.501961" points="98,120 104,147 94,128" />
<polygon fill="#ebe5c6" fill-opacity="0.501961" points="86,122 98,124 111,110" />
<polygon fill="#6f4b1e" fill-opacity="0.501961" points="46,99 6,114 -16,67" />
<polygon fill="#40405d" fill-opacity="0.501961" points="130,87 147,91 140,84" />
<polygon fill="#a97f59" fill-opacity="0.501961" points="141,127 156,107 121,108" />
<polygon fill="#302e33" fill-opacity="0.501961" points="103,67 99,62 88,61" />
<polygon fill="#910d28" fill-opacity="0.501961" points="143,144 124,152 128,138" />
<polygon fill="#a87c59" fill-opacity="0.501961" points="171,93 165,87 148,108" />
<polygon fill="#8b7958" fill-opacity="0.501961" points="166,121 173,93 184,112" />
<polygon fill="#6a4d24" fill-opacity="0.501961" points="1,56 -16,31 87,40" />
<polygon fill="#eaedd8" fill-opacity="0.501961" points="161,70 163,92 143,84" />
<polygon fill="#ecedeb" fill-opacity="0.501961" points="174,36 161,-9 178,17" />
<polygon fill="#59546a" fill-opacity="0.501961" points="154,-16 187,21 176,-5" />
<polygon fill="#ebe4bd" fill-opacity="0.501961" points="71,128 77,113 83,113" />
<polygon fill="#7a5d30" fill-opacity="0.501961" points="86,39 30,41 71,59" />
<polygon fill="#6e6981" fill-opacity="0.501961" points="215,16 217,47 271,46" />
<polygon fill="#87662e" fill-opacity="0.501961" points="52,94 25,69 57,58" />
<polygon fill="#eeeccb" fill-opacity="0.501961" points="64,111 50,102 61,70" />
<polygon fill="#f4fadb" fill-opacity="0.501961" points="70,74 77,86 87,83" />
<polygon fill="#93794d" fill-opacity="0.501961" points="198,70 185,55 251,59" />
<polygon fill="#5e5950" fill-opacity="0.501961" points="121,99 105,122 118,119" />
<polygon fill="#2c201f" fill-opacity="0.501961" points="43,114 62,136 49,128" />
<polygon fill="#4f3e20" fill-opacity="0.501961" points="91,159 87,139 83,159" />
<polygon fill="#a78c57" fill-opacity="0.501961" points="185,73 252,57 201,112" />
<polygon fill="#565c89" fill-opacity="0.501961" points="143,38 146,35 153,48" />
<polygon fill="#d1cec3" fill-opacity="0.501961" points="154,117 165,103 166,113" />
<polygon fill="#edf1d7" fill-opacity="0.501961" points="132,-15 101,8 111,37" />
<polygon fill="#717d9c" fill-opacity="0.501961" points="63,134 75,110 57,124" />
<polygon fill="#363b55" fill-opacity="0.501961" points="109,89 119,99 119,108" />
<polygon fill="#b5c6e9" fill-opacity="0.501961" points="161,29 133,30 174,41" />
<polygon fill="#7c8ee2" fill-opacity="0.501961" points="176,63 174,57 171,65" />
<polygon fill="#8e99b4" fill-opacity="0.501961" points="151,126 165,116 169,103" />
<polygon fill="#f3e4b4" fill-opacity="0.501961" points="157,122 160,110 145,130" />
<polygon fill="#555358" fill-opacity="0.501961" points="163,57 171,78 169,49" />
<polygon fill="#bda480" fill-opacity="0.501961" points="144,93 128,95 130,91" />
<polygon fill="#b9b9cf" fill-opacity="0.501961" points="118,34 126,54 113,49" />
<polygon fill="#b88155" fill-opacity="0.501961" points="101,44 97,50 90,29" />
<polygon fill="#eaeff4" fill-opacity="0.501961" points="50,102 48,113 52,122" />
<polygon fill="#aa805b" fill-opacity="0.501961" points="79,106 70,85 93,87" />
<polygon fill="#a67e5a" fill-opacity="0.501961" points="132,124 118,97 150,121" />
<polygon fill="#edeed4" fill-opacity="0.501961" points="127,96 125,74 114,89" />
<polygon fill="#52474d" fill-opacity="0.501961" points="120,58 109,66 105,60" />
<polygon fill="#e2dfc2" fill-opacity="0.501961" points="122,93 131,64 134,79" />
<polygon fill="#b98454" fill-opacity="0.501961" points="177,36 177,43 170,41" />
<polygon fill="#937b52" fill-opacity="0.501961" points="204,96 213,116 184,101" />
<polygon fill="#f2f9ce" fill-opacity="0.501961" points="96,75 94,73 98,67" />
<polygon fill="#c8aca5" fill-opacity="0.501961" points="244,20 216,-3 252,13" />
<polygon fill="#eaead1" fill-opacity="0.501961" points="139,108 152,77 169,79" />
<polygon fill="#e9edd0" fill-opacity="0.501961" points="125,65 115,76 106,70" />
<polygon fill="#393329" fill-opacity="0.501961" points="81,49 96,51 94,41" />
<polygon fill="#2b334f" fill-opacity="0.501961" points="129,59 139,57 138,64" />
<polygon fill="#edefde" fill-opacity="0.501961" points="149,94 139,67 160,87" />
<polygon fill="#ecedce" fill-opacity="0.501961" points="129,-16 93,21 100,44" />
<polygon fill="#666582" fill-opacity="0.501961" points="164,51 152,37 156,47" />
<polygon fill="#eceed3" fill-opacity="0.501961" points="151,92 165,83 165,65" />
<polygon fill="#484b5e" fill-opacity="0.501961" points="135,57 125,59 150,73" />
<polygon fill="#e8ebd4" fill-opacity="0.501961" points="60,89 79,63 92,64" />
<polygon fill="#dcdde8" fill-opacity="0.501961" points="161,54 154,66 163,62" />
<polygon fill="#473c43" fill-opacity="0.501961" points="160,55 147,63 152,54" />
<polygon fill="#e9e4c4" fill-opacity="0.501961" points="69,99 62,112 46,98" />
<polygon fill="#4f5160" fill-opacity="0.501961" points="114,50 120,53 107,54" />
<polygon fill="#899ce6" fill-opacity="0.501961" points="107,37 107,52 112,35" />
<polygon fill="#494a5a" fill-opacity="0.501961" points="175,95 179,76 188,101" />
<polygon fill="#454553" fill-opacity="0.501961" points="131,84 126,93 137,86" />
<polygon fill="#4a4643" fill-opacity="0.501961" points="200,63 176,40 191,45" />
<polygon fill="#959ccb" fill-opacity="0.501961" points="121,33 112,33 128,58" />
<polygon fill="#7d5f30" fill-opacity="0.501961" points="78,112 97,115 115,103" />
<polygon fill="#6b4e2c" fill-opacity="0.501961" points="28,100 42,103 50,93" />
<polygon fill="#c09a6a" fill-opacity="0.501961" points="95,81 96,76 86,69" />
<polygon fill="#acbdf0" fill-opacity="0.501961" points="166,47 166,40 158,32" />
<polygon fill="#a17950" fill-opacity="0.501961" points="86,89 93,68 95,88" />
<polygon fill="#4f524b" fill-opacity="0.501961" points="162,65 165,60 163,68" />
<polygon fill="#886731" fill-opacity="0.501961" points="31,67 53,85 69,53" />
<polygon fill="#4a4d60" fill-opacity="0.501961" points="171,77 170,85 188,87" />
<polygon fill="#d1ac8d" fill-opacity="0.501961" points="146,52 140,57 146,56" />
<polygon fill="#962539" fill-opacity="0.501961" points="144,137 151,128 139,134" />
<polygon fill="#b8b2a1" fill-opacity="0.501961" points="112,53 118,57 101,62" />
<polygon fill="#a8815a" fill-opacity="0.501961" points="95,78 84,80 92,86" />
<polygon fill="#c6ba8f" fill-opacity="0.501961" points="76,159 64,158 73,123" />
<polygon fill="#a6b2e1" fill-opacity="0.501961" points="140,51 148,32 115,32" />
<polygon fill="#33385a" fill-opacity="0.501961" points="111,52 109,45 107,62" />
<polygon fill="#e6dfc2" fill-opacity="0.501961" points="143,159 195,159 190,107" />
<polygon fill="#e8ecd8" fill-opacity="0.501961" points="54,93 85,53 66,61" />
<polygon fill="#454d85" fill-opacity="0.501961" points="133,59 133,46 136,53" />
<polygon fill="#b4c5f0" fill-opacity="0.501961" points="154,45 151,35 143,31" />
<polygon fill="#e3dbba" fill-opacity="0.501961" points="91,122 98,142 83,132" />
<polygon fill="#eae9c9" fill-opacity="0.501961" points="112,90 115,81 103,75" />
<polygon fill="#e9eae0" fill-opacity="0.501961" points="154,71 143,66 163,61" />
<polygon fill="#825f25" fill-opacity="0.501961" points="3,10 4,0 -2,-6" />
<polygon fill="#857a65" fill-opacity="0.501961" points="168,90 189,108 169,106" />
<polygon fill="#c3b996" fill-opacity="0.501961" points="236,136 256,159 254,127" />
<polygon fill="#e9e9eb" fill-opacity="0.501961" points="180,21 149,20 173,8" />
<polygon fill="#dfd9b8" fill-opacity="0.501961" points="236,135 190,159 200,138" />
<polygon fill="#61553c" fill-opacity="0.501961" points="81,157 44,127 33,159" />
<polygon fill="#ebecda" fill-opacity="0.501961" points="106,34 117,-16 131,29" />
<polygon fill="#cabf9b" fill-opacity="0.501961" points="39,137 31,120 43,115" />
<polygon fill="#423a42" fill-opacity="0.501961" points="103,72 100,74 109,75" />
<polygon fill="#5d5c63" fill-opacity="0.501961" points="4,157 20,134 -14,159" />
<polygon fill="#555a64" fill-opacity="0.501961" points="128,60 122,76 129,67" />
<polygon fill="#eff5de" fill-opacity="0.501961" points="130,66 126,82 123,78" />
<polygon fill="#d8d0b1" fill-opacity="0.501961" points="248,123 221,159 216,123" />
<polygon fill="#afafad" fill-opacity="0.501961" points="145,127 139,132 135,129" />
<polygon fill="#e7e7d8" fill-opacity="0.501961" points="125,64 111,68 121,74" />
<polygon fill="#242a41" fill-opacity="0.501961" points="94,65 101,66 101,61" />
<polygon fill="#474648" fill-opacity="0.501961" points="177,36 182,35 179,54" />
<polygon fill="#bfb0c8" fill-opacity="0.501961" points="106,69 113,65 113,69" />
<polygon fill="#7e4f54" fill-opacity="0.501961" points="44,115 42,105 46,111" />
<polygon fill="#a58850" fill-opacity="0.501961" points="254,93 203,98 254,125" />
<polygon fill="#851932" fill-opacity="0.501961" points="135,133 123,147 132,141" />
<polygon fill="#e2e1c9" fill-opacity="0.501961" points="137,83 128,80 129,63" />
<polygon fill="#473c2d" fill-opacity="0.501961" points="62,137 71,124 69,137" />
<polygon fill="#434649" fill-opacity="0.501961" points="21,131 18,127 33,116" />
<polygon fill="#e1d9b9" fill-opacity="0.501961" points="104,122 112,110 75,125" />
<polygon fill="#a47c58" fill-opacity="0.501961" points="124,115 143,129 162,105" />
<polygon fill="#edeff1" fill-opacity="0.501961" points="168,122 154,132 151,125" />
<polygon fill="#e6e3c6" fill-opacity="0.501961" points="132,92 115,92 123,99" />
<polygon fill="#ded6b6" fill-opacity="0.501961" points="98,118 113,131 110,159" />
<polygon fill="#7b80b3" fill-opacity="0.501961" points="181,76 186,82 187,63" />
<polygon fill="#b18963" fill-opacity="0.501961" points="168,96 160,102 169,76" />
<polygon fill="#35363e" fill-opacity="0.501961" points="93,69 94,64 103,61" />
<polygon fill="#a26f40" fill-opacity="0.501961" points="66,117 62,114 72,105" />
<polygon fill="#474b6a" fill-opacity="0.501961" points="153,52 156,46 148,44" />
<polygon fill="#a37e54" fill-opacity="0.501961" points="72,86 63,98 79,89" />
<polygon fill="#cdb0a1" fill-opacity="0.501961" points="253,25 245,19 254,-2" />
<polygon fill="#f1f0d3" fill-opacity="0.501961" points="150,95 132,104 132,95" />
<polygon fill="#7f8aa3" fill-opacity="0.501961" points="69,114 78,110 63,132" />
<polygon fill="#42435b" fill-opacity="0.501961" points="72,-5 89,33 95,10" />
<polygon fill="#9ba7de" fill-opacity="0.501961" points="176,53 177,47 168,39" />
<polygon fill="#b48e62" fill-opacity="0.501961" points="227,15 252,23 252,32" />
<polygon fill="#e8e3be" fill-opacity="0.501961" points="155,123 141,129 153,128" />
<polygon fill="#d5d4bf" fill-opacity="0.501961" points="189,105 186,106 183,101" />
<polygon fill="#a77a55" fill-opacity="0.501961" points="84,104 68,103 71,89" />
<polygon fill="#919cb7" fill-opacity="0.501961" points="163,121 152,123 166,111" />
<polygon fill="#383952" fill-opacity="0.501961" points="64,-16 90,40 46,36" />
<polygon fill="#a28551" fill-opacity="0.501961" points="184,70 240,120 201,109" />
<polygon fill="#2b3851" fill-opacity="0.501961" points="108,75 102,68 103,73" />
<polygon fill="#e6e7d7" fill-opacity="0.501961" points="48,97 47,110 63,82" />
<polygon fill="#af9fa8" fill-opacity="0.501961" points="144,51 149,49 147,55" />
<polygon fill="#d5d8b9" fill-opacity="0.501961" points="101,66 105,60 104,65" />
<polygon fill="#ae9894" fill-opacity="0.501961" points="225,7 234,16 244,-16" />
<polygon fill="#e8ddb9" fill-opacity="0.501961" points="163,103 166,105 167,99" />
<polygon fill="#e1cfa1" fill-opacity="0.501961" points="99,73 100,68 101,78" />
<polygon fill="#ae935b" fill-opacity="0.501961" points="252,69 253,106 191,89" />
<polygon fill="#94a8ec" fill-opacity="0.501961" points="128,40 128,48 134,56" />
<polygon fill="#66481f" fill-opacity="0.501961" points="54,49 -14,50 -11,26" />
<polygon fill="#3f3931" fill-opacity="0.501961" points="88,48 96,55 96,46" />
<polygon fill="#a0765b" fill-opacity="0.501961" points="107,82 101,71 97,78" />
<polygon fill="#e7e9d0" fill-opacity="0.501961" points="69,89 68,67 59,101" />
<polygon fill="#6f6e74" fill-opacity="0.501961" points="10,113 -16,113 1,151" />
<polygon fill="#636074" fill-opacity="0.501961" points="233,45 181,-16 186,43" />
<polygon fill="#8a6b35" fill-opacity="0.501961" points="89,87 108,106 107,85" />
<polygon fill="#d9cfae" fill-opacity="0.501961" points="79,144 71,123 95,123" />
<polygon fill="#e6debc" fill-opacity="0.501961" points="72,122 90,115 79,113" />
<polygon fill="#e7e7d0" fill-opacity="0.501961" points="63,80 80,57 89,77" />
<polygon fill="#515069" fill-opacity="0.501961" points="148,46 138,51 157,48" />
<polygon fill="#3d4054" fill-opacity="0.501961" points="103,58 95,66 102,65" />
<polygon fill="#765323" fill-opacity="0.501961" points="51,92 -16,66 21,100" />
<polygon fill="#e6dfc5" fill-opacity="0.501961" points="207,132 228,122 199,111" />
<polygon fill="#5c5148" fill-opacity="0.501961" points="97,78 99,85 112,91" />
<polygon fill="#4d4f62" fill-opacity="0.501961" points="183,77 170,84 188,93" />
<polygon fill="#ebebce" fill-opacity="0.501961" points="165,65 152,100 163,89" />
<polygon fill="#716c82" fill-opacity="0.501961" points="236,43 220,18 257,36" />
<polygon fill="#d7b884" fill-opacity="0.501961" points="130,63 129,68 132,67" />
<polygon fill="#654723" fill-opacity="0.501961" points="28,114 -3,111 -14,77" />
<polygon fill="#a295b0" fill-opacity="0.501961" points="141,47 138,55 137,44" />
<polygon fill="#dde0ec" fill-opacity="0.501961" points="46,99 49,97 46,106" />
<polygon fill="#7583c5" fill-opacity="0.501961" points="101,49 103,41 112,39" />
<polygon fill="#c6c4bb" fill-opacity="0.501961" points="183,59 184,67 188,64" />
<polygon fill="#eaede0" fill-opacity="0.501961" points="140,67 152,83 140,79" />
<polygon fill="#5d5f68" fill-opacity="0.501961" points="152,75 148,70 152,70" />
<polygon fill="#eef1e1" fill-opacity="0.501961" points="142,73 157,76 133,78" />
<polygon fill="#978d64" fill-opacity="0.501961" points="0,155 21,136 70,159" />
<polygon fill="#d3cda9" fill-opacity="0.501961" points="75,74 82,76 86,82" />
<polygon fill="#9a2b40" fill-opacity="0.501961" points="133,156 150,131 121,153" />
<polygon fill="#ebebea" fill-opacity="0.501961" points="92,-16 172,36 167,2" />
<polygon fill="#52535a" fill-opacity="0.501961" points="111,77 117,79 117,75" />
<polygon fill="#f0edd4" fill-opacity="0.501961" points="116,49 116,45 124,51" />
<polygon fill="#696eae" fill-opacity="0.501961" points="173,75 178,61 172,68" />
<polygon fill="#e9e6d2" fill-opacity="0.501961" points="122,159 125,139 111,138" />
<polygon fill="#2a2c4c" fill-opacity="0.501961" points="6,28 60,37 6,-3" />
<polygon fill="#aa785b" fill-opacity="0.501961" points="91,34 101,47 94,44" />
<polygon fill="#31302f" fill-opacity="0.501961" points="271,28 255,47 255,28" />
<polygon fill="#d0cbaf" fill-opacity="0.501961" points="133,81 130,69 128,82" />
<polygon fill="#e9ecc8" fill-opacity="0.501961" points="102,43 97,12 110,-1" />
<polygon fill="#937265" fill-opacity="0.501961" points="195,140 190,152 206,159" />
<polygon fill="#f0e9c2" fill-opacity="0.501961" points="54,107 61,113 65,106" />
<polygon fill="#ebeedb" fill-opacity="0.501961" points="125,85 165,73 134,73" />
<polygon fill="#48464a" fill-opacity="0.501961" points="181,41 185,51 181,64" />
<polygon fill="#ebecd2" fill-opacity="0.501961" points="125,78 126,98 114,78" />
<polygon fill="#85644d" fill-opacity="0.501961" points="124,118 125,128 128,125" />
<polygon fill="#ebe9cb" fill-opacity="0.501961" points="148,104 165,87 141,100" />
<polygon fill="#eaebc7" fill-opacity="0.501961" points="91,28 118,32 104,16" />
<polygon fill="#ffffde" fill-opacity="0.501961" points="95,57 99,59 99,57" />
</g>
</svg>