<svg xmlns="http://www.w3.org/2000/svg" version="1.1" width="1024" height="576">
<rect x="0" y="0" width="1024" height="576" fill="#817362" />
<g transform="scale(4.000000) translate(0.5 0.5)">
<polygon fill="#ffffe1" fill-opacity="0.501961" points="-16,37 271,42 107,97" />
<polygon fill="#3b2312" fill-opacity="0.501961" points="143,79 242,159 271,54" />
<polygon fill="#3d3022" fill-opacity="0.501961" points="78,71 -16,59 49,159" />
<polygon fill="#382d3d" fill-opacity="0.501961" points="164,54 271,5 93,-16" />
<polygon fill="#4b323d" fill-opacity="0.501961" points="121,-16 -16,10 81,48" />
<polygon fill="#f2e5ca" fill-opacity="0.501961" points="89,107 151,91 99,17" />
<polygon fill="#f2e8c2" fill-opacity="0.501961" points="264,25 251,59 173,48" />
<polygon fill="#ebdfc0" fill-opacity="0.501961" points="-16,22 117,57 2,61" />
<polygon fill="#f6f7fb" fill-opacity="0.501961" points="92,122 121,131 155,119" />
<polygon fill="#624e39" fill-opacity="0.501961" points="271,140 128,159 178,57" />
<polygon fill="#694c2d" fill-opacity="0.501961" points="187,141 -16,106 5,159" />
<polygon fill="#8b9a63" fill-opacity="0.501961" points="157,21 158,55 85,18" />
<polygon fill="#3f2a2c" fill-opacity="0.501961" points="50,94 65,110 75,34" />
<polygon fill="#b9973b" fill-opacity="0.501961" points="271,125 198,108 207,134" />
<polygon fill="#faf3e2" fill-opacity="0.501961" points="65,72 172,58 112,40" />
<polygon fill="#3f3435" fill-opacity="0.501961" points="104,118 271,109 254,58" />
<polygon fill="#4b3a30" fill-opacity="0.501961" points="127,121 -16,86 62,79" />
<polygon fill="#ae9864" fill-opacity="0.501961" points="103,130 9,129 128,97" />
<polygon fill="#909f9d" fill-opacity="0.501961" points="181,85 156,129 135,128" />
<polygon fill="#504446" fill-opacity="0.501961" points="157,35 186,72 168,20" />
<polygon fill="#60313d" fill-opacity="0.501961" points="271,22 244,-16 173,46" />
<polygon fill="#e6dfc8" fill-opacity="0.501961" points="86,100 95,29 73,67" />
<polygon fill="#f1ebcf" fill-opacity="0.501961" points="256,27 208,41 251,41" />
<polygon fill="#b5c56a" fill-opacity="0.501961" points="132,37 121,12 80,48" />
<polygon fill="#665e55" fill-opacity="0.501961" points="152,140 183,90 166,60" />
<polygon fill="#556252" fill-opacity="0.501961" points="153,49 133,16 129,43" />
<polygon fill="#6f464b" fill-opacity="0.501961" points="42,-16 72,49 146,-16" />
<polygon fill="#e3d3b5" fill-opacity="0.501961" points="153,101 152,87 121,85" />
<polygon fill="#d8cfae" fill-opacity="0.501961" points="31,65 -16,23 67,42" />
<polygon fill="#c1b794" fill-opacity="0.501961" points="271,53 265,29 205,64" />
<polygon fill="#f9e2bf" fill-opacity="0.501961" points="125,70 167,55 155,79" />
<polygon fill="#c1ac8d" fill-opacity="0.501961" points="76,84 128,117 122,87" />
<polygon fill="#9d7e60" fill-opacity="0.501961" points="127,62 135,61 122,82" />
<polygon fill="#2c2926" fill-opacity="0.501961" points="205,101 179,123 181,67" />
<polygon fill="#c6c5c8" fill-opacity="0.501961" points="93,129 94,115 144,127" />
<polygon fill="#5a5d68" fill-opacity="0.501961" points="63,105 -16,88 -11,115" />
<polygon fill="#c8cfce" fill-opacity="0.501961" points="88,32 120,50 110,27" />
<polygon fill="#aab146" fill-opacity="0.501961" points="140,35 153,52 152,22" />
<polygon fill="#564038" fill-opacity="0.501961" points="-3,133 100,159 194,130" />
<polygon fill="#1d1813" fill-opacity="0.501961" points="255,37 271,98 254,152" />
<polygon fill="#575652" fill-opacity="0.501961" points="-16,21 14,-16 89,46" />
<polygon fill="#7c572b" fill-opacity="0.501961" points="89,95 73,125 22,123" />
<polygon fill="#5e4b50" fill-opacity="0.501961" points="66,67 63,103 100,115" />
<polygon fill="#d4e5ff" fill-opacity="0.501961" points="166,50 175,77 176,62" />
<polygon fill="#5b4731" fill-opacity="0.501961" points="172,105 140,116 117,94" />
<polygon fill="#c3b690" fill-opacity="0.501961" points="66,70 55,47 -16,55" />
<polygon fill="#674d41" fill-opacity="0.501961" points="239,159 136,130 264,131" />
<polygon fill="#5e7554" fill-opacity="0.501961" points="133,47 160,33 123,39" />
<polygon fill="#5c5646" fill-opacity="0.501961" points="179,70 267,55 221,81" />
<polygon fill="#c1a434" fill-opacity="0.501961" points="87,130 59,110 84,113" />
<polygon fill="#9199af" fill-opacity="0.501961" points="139,23 155,21 157,35" />
<polygon fill="#7e5d4d" fill-opacity="0.501961" points="166,65 150,103 183,78" />
<polygon fill="#e8e0d2" fill-opacity="0.501961" points="76,51 124,41 89,99" />
<polygon fill="#d2cac9" fill-opacity="0.501961" points="153,113 146,128 127,126" />
<polygon fill="#815450" fill-opacity="0.501961" points="68,29 76,46 66,78" />
<polygon fill="#222928" fill-opacity="0.501961" points="258,47 271,37 252,-12" />
<polygon fill="#764f4d" fill-opacity="0.501961" points="55,32 85,50 93,1" />
<polygon fill="#5f2030" fill-opacity="0.501961" points="251,91 195,104 256,116" />
<polygon fill="#896343" fill-opacity="0.501961" points="138,70 126,63 136,61" />
<polygon fill="#967a40" fill-opacity="0.501961" points="218,110 259,130 166,131" />
<polygon fill="#979b14" fill-opacity="0.501961" points="123,22 113,25 123,40" />
<polygon fill="#513c32" fill-opacity="0.501961" points="116,117 96,115 119,109" />
<polygon fill="#6c454e" fill-opacity="0.501961" points="105,26 70,29 113,1" />
<polygon fill="#e7e0c5" fill-opacity="0.501961" points="7,29 -16,39 41,38" />
<polygon fill="#c4cd6a" fill-opacity="0.501961" points="110,41 86,47 86,33" />
<polygon fill="#8a929e" fill-opacity="0.501961" points="116,9 132,20 104,22" />
<polygon fill="#d3e2ff" fill-opacity="0.501961" points="70,79 77,49 80,62" />
<polygon fill="#5a4734" fill-opacity="0.501961" points="167,126 217,126 164,108" />
<polygon fill="#694247" fill-opacity="0.501961" points="174,-16 226,35 271,19" />
<polygon fill="#4f4f50" fill-opacity="0.501961" points="138,-16 166,47 223,35" />
<polygon fill="#646b76" fill-opacity="0.501961" points="78,84 66,100 70,67" />
<polygon fill="#e9dcc4" fill-opacity="0.501961" points="142,73 120,61 82,75" />
<polygon fill="#8c6c4b" fill-opacity="0.501961" points="120,74 123,78 117,82" />
<polygon fill="#82899b" fill-opacity="0.501961" points="88,111 88,131 101,116" />
<polygon fill="#767f9c" fill-opacity="0.501961" points="152,47 158,30 167,63" />
<polygon fill="#556b91" fill-opacity="0.501961" points="179,71 181,99 171,71" />
<polygon fill="#c9b89b" fill-opacity="0.501961" points="78,89 129,106 82,72" />
<polygon fill="#f0e2c3" fill-opacity="0.501961" points="165,56 141,74 139,46" />
<polygon fill="#40382e" fill-opacity="0.501961" points="65,93 69,70 53,69" />
<polygon fill="#81593d" fill-opacity="0.501961" points="175,76 157,96 145,79" />
<polygon fill="#ccc09e" fill-opacity="0.501961" points="222,39 183,63 241,59" />
<polygon fill="#5b513f" fill-opacity="0.501961" points="-2,146 -14,57 14,61" />
<polygon fill="#9c7a2e" fill-opacity="0.501961" points="199,108 213,126 253,119" />
<polygon fill="#d4c9aa" fill-opacity="0.501961" points="177,45 226,37 186,69" />
<polygon fill="#9f8157" fill-opacity="0.501961" points="126,121 112,106 133,111" />
<polygon fill="#674333" fill-opacity="0.501961" points="63,111 74,86 96,103" />
<polygon fill="#4c4338" fill-opacity="0.501961" points="174,59 212,88 198,110" />
<polygon fill="#53412e" fill-opacity="0.501961" points="158,104 139,119 118,119" />
<polygon fill="#5c5c56" fill-opacity="0.501961" points="58,39 58,-16 -16,20" />
<polygon fill="#c9bf9e" fill-opacity="0.501961" points="61,69 68,50 -4,47" />
<polygon fill="#4e5057" fill-opacity="0.501961" points="143,-16 139,43 117,-16" />
<polygon fill="#a28e6a" fill-opacity="0.501961" points="152,122 179,129 138,130" />
<polygon fill="#755f3e" fill-opacity="0.501961" points="94,128 114,135 130,129" />
<polygon fill="#6c4549" fill-opacity="0.501961" points="256,25 199,-16 200,39" />
<polygon fill="#6fae78" fill-opacity="0.501961" points="173,95 167,106 164,98" />
<polygon fill="#465660" fill-opacity="0.501961" points="164,117 179,113 180,79" />
<polygon fill="#d0bfa7" fill-opacity="0.501961" points="113,86 137,88 126,98" />
<polygon fill="#e1e0e1" fill-opacity="0.501961" points="113,123 130,120 143,126" />
<polygon fill="#675142" fill-opacity="0.501961" points="199,159 159,130 271,130" />
<polygon fill="#819188" fill-opacity="0.501961" points="131,21 126,41 136,49" />
<polygon fill="#92764a" fill-opacity="0.501961" points="29,118 37,130 -7,129" />
<polygon fill="#96962b" fill-opacity="0.501961" points="145,48 157,35 148,28" />
<polygon fill="#51504f" fill-opacity="0.501961" points="213,3 110,-15 111,13" />
<polygon fill="#ebdfbf" fill-opacity="0.501961" points="144,46 107,55 166,69" />
<polygon fill="#e7ebf5" fill-opacity="0.501961" points="165,55 172,54 173,73" />
<polygon fill="#9c9eca" fill-opacity="0.501961" points="94,28 114,38 108,25" />
<polygon fill="#d2c4a8" fill-opacity="0.501961" points="128,82 155,95 150,101" />
<polygon fill="#64503f" fill-opacity="0.501961" points="57,105 59,125 -16,116" />
<polygon fill="#3a352a" fill-opacity="0.501961" points="189,102 271,87 239,78" />
<polygon fill="#614d3e" fill-opacity="0.501961" points="92,133 -4,130 -16,159" />
<polygon fill="#ccd062" fill-opacity="0.501961" points="85,46 101,31 106,43" />
<polygon fill="#ece9db" fill-opacity="0.501961" points="115,43 113,74 80,51" />
<polygon fill="#332d26" fill-opacity="0.501961" points="46,101 60,100 69,72" />
<polygon fill="#635744" fill-opacity="0.501961" points="55,89 64,69 7,65" />
<polygon fill="#6a675a" fill-opacity="0.501961" points="170,41 154,46 182,58" />
<polygon fill="#785e44" fill-opacity="0.501961" points="129,94 128,98 139,100" />
<polygon fill="#9d8361" fill-opacity="0.501961" points="91,108 125,111 90,98" />
<polygon fill="#422924" fill-opacity="0.501961" points="246,109 252,93 263,141" />
<polygon fill="#906e67" fill-opacity="0.501961" points="66,53 74,43 72,64" />
<polygon fill="#a38736" fill-opacity="0.501961" points="60,109 63,121 75,111" />
<polygon fill="#c4b997" fill-opacity="0.501961" points="42,66 0,58 -16,21" />
<polygon fill="#282122" fill-opacity="0.501961" points="190,92 183,109 181,69" />
<polygon fill="#9a98be" fill-opacity="0.501961" points="168,60 151,49 162,50" />
<polygon fill="#795a41" fill-opacity="0.501961" points="147,81 162,103 174,70" />
<polygon fill="#734e4f" fill-opacity="0.501961" points="117,10 80,40 62,34" />
<polygon fill="#a2a73d" fill-opacity="0.501961" points="115,37 115,16 132,31" />
<polygon fill="#646061" fill-opacity="0.501961" points="58,106 -12,89 -11,112" />
<polygon fill="#f0f1e1" fill-opacity="0.501961" points="108,41 126,43 137,56" />
<polygon fill="#929635" fill-opacity="0.501961" points="144,47 155,47 145,26" />
<polygon fill="#a38761" fill-opacity="0.501961" points="124,106 115,114 133,115" />
<polygon fill="#9a927d" fill-opacity="0.501961" points="78,129 107,128 94,120" />
<polygon fill="#ddceb8" fill-opacity="0.501961" points="104,91 123,71 76,72" />
<polygon fill="#966b61" fill-opacity="0.501961" points="190,71 175,46 175,63" />
<polygon fill="#4c4d4f" fill-opacity="0.501961" points="171,45 202,35 153,36" />
<polygon fill="#80654a" fill-opacity="0.501961" points="16,143 77,159 140,141" />
<polygon fill="#e6ebef" fill-opacity="0.501961" points="162,54 170,53 177,69" />
<polygon fill="#3f352d" fill-opacity="0.501961" points="129,119 135,120 140,115" />
<polygon fill="#402e24" fill-opacity="0.501961" points="113,119 113,112 105,114" />
<polygon fill="#615953" fill-opacity="0.501961" points="-16,19 51,37 13,-16" />
<polygon fill="#6f707a" fill-opacity="0.501961" points="150,115 164,105 160,128" />
<polygon fill="#dad1b6" fill-opacity="0.501961" points="56,57 1,28 67,42" />
<polygon fill="#dbcdad" fill-opacity="0.501961" points="118,84 122,48 114,58" />
<polygon fill="#5c2b35" fill-opacity="0.501961" points="71,95 60,106 85,110" />
<polygon fill="#8d94cb" fill-opacity="0.501961" points="154,30 151,21 155,23" />
<polygon fill="#614b35" fill-opacity="0.501961" points="173,88 151,100 155,109" />
<polygon fill="#946946" fill-opacity="0.501961" points="163,81 164,58 171,72" />
<polygon fill="#b2b1b9" fill-opacity="0.501961" points="99,128 100,116 115,120" />
<polygon fill="#634548" fill-opacity="0.501961" points="256,-16 253,25 163,-16" />
<polygon fill="#a6a857" fill-opacity="0.501961" points="101,44 91,47 100,39" />
<polygon fill="#a6a6c3" fill-opacity="0.501961" points="92,28 86,39 101,29" />
<polygon fill="#a48745" fill-opacity="0.501961" points="251,129 227,130 230,114" />
<polygon fill="#9fa779" fill-opacity="0.501961" points="143,28 140,40 144,36" />
<polygon fill="#95939e" fill-opacity="0.501961" points="147,116 154,121 147,128" />
<polygon fill="#606a7b" fill-opacity="0.501961" points="62,99 69,79 73,83" />
<polygon fill="#8f949c" fill-opacity="0.501961" points="125,14 105,24 115,11" />
<polygon fill="#705739" fill-opacity="0.501961" points="216,124 167,126 186,116" />
<polygon fill="#e5d9c8" fill-opacity="0.501961" points="131,68 124,81 148,87" />
<polygon fill="#73654e" fill-opacity="0.501961" points="35,65 7,70 -16,58" />
<polygon fill="#e8d2aa" fill-opacity="0.501961" points="165,66 158,76 151,77" />
<polygon fill="#ebf3fa" fill-opacity="0.501961" points="75,50 76,66 80,48" />
<polygon fill="#bfad8e" fill-opacity="0.501961" points="76,78 101,103 85,95" />
<polygon fill="#534837" fill-opacity="0.501961" points="1,92 55,77 -12,75" />
<polygon fill="#6c5442" fill-opacity="0.501961" points="104,114 97,102 102,106" />
<polygon fill="#72634c" fill-opacity="0.501961" points="73,87 81,99 76,74" />
<polygon fill="#6f4c4b" fill-opacity="0.501961" points="85,49 59,-13 62,39" />
<polygon fill="#c5ba9a" fill-opacity="0.501961" points="212,51 252,49 213,63" />
<polygon fill="#969585" fill-opacity="0.501961" points="-1,59 1,28 -16,58" />
<polygon fill="#6a6d82" fill-opacity="0.501961" points="177,79 179,66 170,75" />
<polygon fill="#51504f" fill-opacity="0.501961" points="160,-5 167,53 212,-16" />
<polygon fill="#725a49" fill-opacity="0.501961" points="254,134 221,128 226,159" />
<polygon fill="#856d2e" fill-opacity="0.501961" points="198,110 211,116 198,125" />
<polygon fill="#b2b73b" fill-opacity="0.501961" points="111,24 115,19 118,37" />
<polygon fill="#d6ceb2" fill-opacity="0.501961" points="175,47 195,57 232,34" />
<polygon fill="#d6cdb0" fill-opacity="0.501961" points="251,27 254,41 214,48" />
<polygon fill="#71474d" fill-opacity="0.501961" points="200,37 220,35 225,-16" />
<polygon fill="#7f6b52" fill-opacity="0.501961" points="122,95 115,91 117,94" />
<polygon fill="#7c5626" fill-opacity="0.501961" points="252,119 240,113 256,129" />
<polygon fill="#d3c6af" fill-opacity="0.501961" points="144,84 116,88 156,94" />
<polygon fill="#526a5f" fill-opacity="0.501961" points="139,45 133,33 134,47" />
<polygon fill="#e4d9c8" fill-opacity="0.501961" points="71,71 114,80 112,61" />
<polygon fill="#718276" fill-opacity="0.501961" points="153,42 175,50 150,50" />
<polygon fill="#5f627f" fill-opacity="0.501961" points="144,18 154,19 131,31" />
<polygon fill="#535151" fill-opacity="0.501961" points="162,46 180,44 155,5" />
<polygon fill="#c2b6a9" fill-opacity="0.501961" points="127,129 145,127 147,120" />
<polygon fill="#8c933a" fill-opacity="0.501961" points="117,38 126,41 122,24" />
<polygon fill="#6f4e4e" fill-opacity="0.501961" points="84,-16 59,23 107,27" />
<polygon fill="#201c12" fill-opacity="0.501961" points="271,141 255,106 255,139" />
<polygon fill="#9f8766" fill-opacity="0.501961" points="126,104 95,109 107,113" />
<polygon fill="#5e4a3c" fill-opacity="0.501961" points="142,153 60,132 140,130" />
<polygon fill="#a08764" fill-opacity="0.501961" points="125,110 131,117 126,117" />
<polygon fill="#624d38" fill-opacity="0.501961" points="129,107 139,95 154,109" />
<polygon fill="#463a2c" fill-opacity="0.501961" points="197,121 171,116 196,100" />
<polygon fill="#7b6142" fill-opacity="0.501961" points="22,115 -16,126 55,125" />
<polygon fill="#79a274" fill-opacity="0.501961" points="174,108 171,98 164,99" />
<polygon fill="#484c55" fill-opacity="0.501961" points="163,102 169,115 181,110" />
<polygon fill="#121a17" fill-opacity="0.501961" points="255,-5 257,38 271,14" />
<polygon fill="#a6ad97" fill-opacity="0.501961" points="87,38 85,44 89,50" />
<polygon fill="#ccc69d" fill-opacity="0.501961" points="183,56 186,67 191,68" />
<polygon fill="#bac5d1" fill-opacity="0.501961" points="111,41 105,31 112,30" />
<polygon fill="#737e64" fill-opacity="0.501961" points="84,42 80,40 92,30" />
<polygon fill="#534b3d" fill-opacity="0.501961" points="189,71 247,72 188,88" />
<polygon fill="#484644" fill-opacity="0.501961" points="170,96 178,97 174,88" />
<polygon fill="#bcae94" fill-opacity="0.501961" points="109,95 125,103 101,104" />
<polygon fill="#9da081" fill-opacity="0.501961" points="132,37 120,16 134,30" />
<polygon fill="#8b888c" fill-opacity="0.501961" points="95,129 101,120 85,107" />
<polygon fill="#92794a" fill-opacity="0.501961" points="157,130 179,123 201,128" />
<polygon fill="#4c4535" fill-opacity="0.501961" points="60,81 -7,91 51,99" />
<polygon fill="#613239" fill-opacity="0.501961" points="247,90 211,100 246,111" />
<polygon fill="#d7c9b2" fill-opacity="0.501961" points="127,80 138,96 90,80" />
<polygon fill="#565156" fill-opacity="0.501961" points="130,26 140,36 136,13" />
<polygon fill="#856a4e" fill-opacity="0.501961" points="95,142 108,159 166,143" />
<polygon fill="#4b3a33" fill-opacity="0.501961" points="65,64 58,82 69,77" />
<polygon fill="#9d843d" fill-opacity="0.501961" points="57,114 86,130 64,108" />
<polygon fill="#4e3a2a" fill-opacity="0.501961" points="122,121 112,113 124,117" />
<polygon fill="#dbd2b6" fill-opacity="0.501961" points="0,27 36,36 7,46" />
<polygon fill="#e6e3da" fill-opacity="0.501961" points="79,48 73,63 99,56" />
<polygon fill="#694d3a" fill-opacity="0.501961" points="175,88 159,86 153,104" />
<polygon fill="#c1ac90" fill-opacity="0.501961" points="128,92 129,100 121,92" />
<polygon fill="#cfc5a7" fill-opacity="0.501961" points="4,36 4,54 51,54" />
<polygon fill="#d6dd9e" fill-opacity="0.501961" points="104,32 96,31 91,39" />
<polygon fill="#784444" fill-opacity="0.501961" points="83,113 86,102 76,104" />
<polygon fill="#d1cece" fill-opacity="0.501961" points="141,121 104,120 124,126" />
<polygon fill="#c3b793" fill-opacity="0.501961" points="196,55 186,68 236,58" />
<polygon fill="#605645" fill-opacity="0.501961" points="252,57 253,69 219,65" />
<polygon fill="#4a3b2f" fill-opacity="0.501961" points="95,113 104,112 102,115" />
<polygon fill="#644447" fill-opacity="0.501961" points="252,27 217,27 252,-16" />
<polygon fill="#ebecdf" fill-opacity="0.501961" points="113,40 122,40 130,46" />
<polygon fill="#6a5c42" fill-opacity="0.501961" points="74,84 84,103 92,102" />
<polygon fill="#9f6764" fill-opacity="0.501961" points="172,49 173,54 176,46" />
<polygon fill="#78514f" fill-opacity="0.501961" points="78,5 80,41 94,26" />
<polygon fill="#9e8856" fill-opacity="0.501961" points="33,125 66,128 49,131" />
<polygon fill="#615746" fill-opacity="0.501961" points="194,77 212,66 185,69" />
<polygon fill="#6a696b" fill-opacity="0.501961" points="163,108 153,124 163,125" />
<polygon fill="#e5dcc9" fill-opacity="0.501961" points="126,84 139,73 129,65" />
<polygon fill="#818685" fill-opacity="0.501961" points="139,35 142,21 143,37" />
<polygon fill="#b5a483" fill-opacity="0.501961" points="96,125 122,127 109,130" />
<polygon fill="#8e7a52" fill-opacity="0.501961" points="245,130 196,129 224,122" />
<polygon fill="#a07e2f" fill-opacity="0.501961" points="246,127 248,116 219,123" />
<polygon fill="#9a7f71" fill-opacity="0.501961" points="68,52 75,44 67,42" />
<polygon fill="#9d8361" fill-opacity="0.501961" points="115,81 127,70 125,77" />
<polygon fill="#685039" fill-opacity="0.501961" points="207,123 174,125 172,114" />
<polygon fill="#dfcca4" fill-opacity="0.501961" points="114,79 127,61 124,74" />
<polygon fill="#6e4132" fill-opacity="0.501961" points="206,109 230,114 222,103" />
<polygon fill="#adaaa8" fill-opacity="0.501961" points="113,126 99,124 95,114" />
<polygon fill="#b7a984" fill-opacity="0.501961" points="61,68 35,64 49,62" />
<polygon fill="#c8c6cb" fill-opacity="0.501961" points="132,121 142,126 144,118" />
<polygon fill="#5d5854" fill-opacity="0.501961" points="-16,-3 61,35 60,-16" />
<polygon fill="#646061" fill-opacity="0.501961" points="30,112 9,94 49,106" />
<polygon fill="#ccc2a1" fill-opacity="0.501961" points="43,55 63,63 65,54" />
<polygon fill="#4d4d4d" fill-opacity="0.501961" points="197,-3 182,44 198,37" />
<polygon fill="#594938" fill-opacity="0.501961" points="44,105 56,121 61,105" />
<polygon fill="#85634a" fill-opacity="0.501961" points="146,83 165,74 159,88" />
<polygon fill="#535150" fill-opacity="0.501961" points="137,-16 133,21 178,18" />
<polygon fill="#624c3e" fill-opacity="0.501961" points="212,159 211,131 128,131" />
<polygon fill="#cbc1a2" fill-opacity="0.501961" points="192,55 232,61 242,40" />
<polygon fill="#e5d4b3" fill-opacity="0.501961" points="139,78 137,57 162,70" />
<polygon fill="#69728e" fill-opacity="0.501961" points="70,85 71,75 77,73" />
<polygon fill="#e3eaee" fill-opacity="0.501961" points="175,70 171,64 171,58" />
<polygon fill="#453e32" fill-opacity="0.501961" points="193,108 260,76 188,88" />
<polygon fill="#7b7ea5" fill-opacity="0.501961" points="160,44 153,53 156,36" />
<polygon fill="#dfd2bc" fill-opacity="0.501961" points="79,77 79,62 125,83" />
<polygon fill="#2a2525" fill-opacity="0.501961" points="188,96 189,112 178,99" />
<polygon fill="#645039" fill-opacity="0.501961" points="-11,117 32,118 9,108" />
<polygon fill="#ccd373" fill-opacity="0.501961" points="102,44 92,38 105,32" />
<polygon fill="#9a9f5f" fill-opacity="0.501961" points="155,29 154,47 150,28" />
<polygon fill="#5d5c6b" fill-opacity="0.501961" points="162,43 158,24 156,35" />
<polygon fill="#372f2c" fill-opacity="0.501961" points="189,82 184,93 178,70" />
<polygon fill="#806747" fill-opacity="0.501961" points="228,143 167,142 177,158" />
<polygon fill="#cec0a7" fill-opacity="0.501961" points="93,78 120,96 79,86" />
<polygon fill="#887b5e" fill-opacity="0.501961" points="43,66 37,68 31,65" />
<polygon fill="#788386" fill-opacity="0.501961" points="130,43 122,40 135,34" />
<polygon fill="#e9e0c3" fill-opacity="0.501961" points="157,59 101,61 135,48" />
<polygon fill="#554535" fill-opacity="0.501961" points="128,109 142,117 148,113" />
<polygon fill="#d9d1b4" fill-opacity="0.501961" points="225,39 254,27 253,42" />
<polygon fill="#765f42" fill-opacity="0.501961" points="34,115 35,126 75,125" />
<polygon fill="#8f6b2f" fill-opacity="0.501961" points="241,125 240,115 223,112" />
<polygon fill="#352d29" fill-opacity="0.501961" points="61,102 66,84 49,100" />
<polygon fill="#aab081" fill-opacity="0.501961" points="108,21 109,28 115,17" />
<polygon fill="#b1a78c" fill-opacity="0.501961" points="118,50 125,50 118,52" />
<polygon fill="#92774a" fill-opacity="0.501961" points="12,129 0,130 3,120" />
<polygon fill="#ebeada" fill-opacity="0.501961" points="118,54 84,50 112,43" />
<polygon fill="#628870" fill-opacity="0.501961" points="155,45 167,46 164,51" />
<polygon fill="#625e5d" fill-opacity="0.501961" points="-16,89 47,102 6,111" />
<polygon fill="#424038" fill-opacity="0.501961" points="-1,118 1,67 -16,57" />
<polygon fill="#8c684a" fill-opacity="0.501961" points="162,74 155,78 172,76" />
<polygon fill="#847a97" fill-opacity="0.501961" points="106,25 96,26 114,30" />
<polygon fill="#bbaa8d" fill-opacity="0.501961" points="94,91 80,89 90,99" />
<polygon fill="#514337" fill-opacity="0.501961" points="123,117 129,118 118,121" />
<polygon fill="#929ab8" fill-opacity="0.501961" points="127,22 130,23 129,20" />
<polygon fill="#4e4538" fill-opacity="0.501961" points="187,88 243,84 256,62" />
<polygon fill="#8d8a8b" fill-opacity="0.501961" points="151,127 149,116 155,111" />
<polygon fill="#6e4c4c" fill-opacity="0.501961" points="72,24 101,26 121,-8" />
<polygon fill="#69464a" fill-opacity="0.501961" points="198,-4 240,32 202,31" />
<polygon fill="#9ba13b" fill-opacity="0.501961" points="120,38 116,40 115,30" />
<polygon fill="#b3b953" fill-opacity="0.501961" points="124,28 130,30 129,36" />
<polygon fill="#565251" fill-opacity="0.501961" points="114,12 114,-2 154,3" />
<polygon fill="#906f61" fill-opacity="0.501961" points="63,68 69,45 74,49" />
<polygon fill="#ab9a62" fill-opacity="0.501961" points="75,129 88,129 79,126" />
<polygon fill="#564636" fill-opacity="0.501961" points="93,102 82,106 90,100" />
<polygon fill="#d9dde2" fill-opacity="0.501961" points="76,47 83,50 73,52" />
<polygon fill="#625b55" fill-opacity="0.501961" points="-14,27 30,24 26,-16" />
<polygon fill="#826363" fill-opacity="0.501961" points="81,50 83,50 85,45" />
<polygon fill="#b89c3e" fill-opacity="0.501961" points="82,113 87,122 67,119" />
<polygon fill="#a4a1a1" fill-opacity="0.501961" points="143,120 150,118 148,128" />
<polygon fill="#582f33" fill-opacity="0.501961" points="213,106 231,100 256,118" />
<polygon fill="#9b8463" fill-opacity="0.501961" points="118,115 108,104 133,113" />
<polygon fill="#ebdebf" fill-opacity="0.501961" points="118,67 123,50 126,70" />
<polygon fill="#ebeadb" fill-opacity="0.501961" points="105,47 124,42 127,51" />
<polygon fill="#685241" fill-opacity="0.501961" points="54,130 28,131 44,144" />
<polygon fill="#c2b895" fill-opacity="0.501961" points="64,60 62,69 31,57" />
<polygon fill="#665947" fill-opacity="0.501961" points="62,70 59,78 31,67" />
<polygon fill="#85644a" fill-opacity="0.501961" points="173,80 168,65 160,79" />
<polygon fill="#979a37" fill-opacity="0.501961" points="152,45 143,44 144,37" />
<polygon fill="#5f4a3d" fill-opacity="0.501961" points="85,96 91,109 69,95" />
<polygon fill="#e9dabb" fill-opacity="0.501961" points="163,60 164,69 138,57" />
<polygon fill="#634c3d" fill-opacity="0.501961" points="17,132 50,141 -16,142" />
<polygon fill="#815a59" fill-opacity="0.501961" points="175,55 184,70 177,66" />
<polygon fill="#5b4e3e" fill-opacity="0.501961" points="54,92 60,74 -2,75" />
<polygon fill="#342f29" fill-opacity="0.501961" points="238,91 258,92 266,81" />
<polygon fill="#725526" fill-opacity="0.501961" points="254,118 256,127 249,123" />
<polygon fill="#698c68" fill-opacity="0.501961" points="134,48 128,40 138,40" />
<polygon fill="#4a353f" fill-opacity="0.501961" points="249,103 254,97 256,106" />
<polygon fill="#c1b695" fill-opacity="0.501961" points="254,43 226,58 243,59" />
<polygon fill="#a28538" fill-opacity="0.501961" points="235,117 238,128 211,116" />
<polygon fill="#624447" fill-opacity="0.501961" points="229,34 218,-16 254,-4" />
<polygon fill="#857157" fill-opacity="0.501961" points="118,95 118,92 123,99" />
<polygon fill="#9b9ca5" fill-opacity="0.501961" points="117,40 111,29 113,38" />
<polygon fill="#806258" fill-opacity="0.501961" points="73,58 62,68 70,70" />
<polygon fill="#9b8554" fill-opacity="0.501961" points="40,128 20,130 26,125" />
<polygon fill="#bead93" fill-opacity="0.501961" points="129,93 114,90 123,95" />
<polygon fill="#7a8042" fill-opacity="0.501961" points="137,40 148,32 156,37" />
<polygon fill="#494543" fill-opacity="0.501961" points="0,-9 -15,-16 -1,25" />
<polygon fill="#4d5158" fill-opacity="0.501961" points="182,108 164,105 165,114" />
<polygon fill="#3b2d2f" fill-opacity="0.501961" points="186,71 183,68 183,77" />
<polygon fill="#8a6c31" fill-opacity="0.501961" points="199,117 219,112 200,107" />
<polygon fill="#c1bdb9" fill-opacity="0.501961" points="106,119 104,127 121,126" />
<polygon fill="#d5d3d5" fill-opacity="0.501961" points="74,63 85,70 71,68" />
<polygon fill="#8f6c50" fill-opacity="0.501961" points="137,64 128,62 135,67" />
<polygon fill="#999f59" fill-opacity="0.501961" points="148,25 142,29 142,46" />
<polygon fill="#73474d" fill-opacity="0.501961" points="249,26 244,-5 241,23" />
<polygon fill="#acb260" fill-opacity="0.501961" points="119,17 128,30 126,22" />
<polygon fill="#775c3b" fill-opacity="0.501961" points="164,120 164,127 175,123" />
<polygon fill="#6e7b93" fill-opacity="0.501961" points="179,76 172,70 178,82" />
<polygon fill="#b0966f" fill-opacity="0.501961" points="90,104 99,107 100,111" />
<polygon fill="#54352f" fill-opacity="0.501961" points="206,110 197,107 211,100" />
<polygon fill="#dbceb7" fill-opacity="0.501961" points="143,88 141,80 116,80" />
<polygon fill="#7d6638" fill-opacity="0.501961" points="204,120 214,127 224,124" />
<polygon fill="#524e4e" fill-opacity="0.501961" points="172,47 198,32 155,35" />
<polygon fill="#6e5743" fill-opacity="0.501961" points="140,108 127,94 144,99" />
<polygon fill="#dce2ea" fill-opacity="0.501961" points="78,62 71,72 76,55" />
</g>
</svg>