<svg xmlns="http://www.w3.org/2000/svg" version="1.1" width="1024" height="576">
<rect x="0" y="0" width="1024" height="576" fill="#5c5653" />
<g transform="scale(4.000000) translate(0.5 0.5)">
<polygon fill="#fff9cc" fill-opacity="0.501961" points="193,107 55,86 212,-16" />
<polygon fill="#000000" fill-opacity="0.501961" points="-16,140 117,159 14,-16" />
<polygon fill="#000000" fill-opacity="0.501961" points="149,132 116,125 126,5" />
<polygon fill="#000000" fill-opacity="0.501961" points="-16,1 9,159 101,-14" />
<polygon fill="#d9cabe" fill-opacity="0.501961" points="135,27 264,-16 145,137" />
<polygon fill="#dfc6a9" fill-opacity="0.501961" points="54,98 115,140 115,28" />
<polygon fill="#2f2233" fill-opacity="0.501961" points="267,-7 271,159 139,154" />
<polygon fill="#364fb9" fill-opacity="0.501961" points="232,91 259,-10 194,2" />
<polygon fill="#263eab" fill-opacity="0.501961" points="157,-16 173,44 187,-16" />
<polygon fill="#4b3928" fill-opacity="0.501961" points="37,91 79,124 85,-3" />
<polygon fill="#030f0d" fill-opacity="0.501961" points="139,99 111,126 134,17" />
<polygon fill="#b5b6c7" fill-opacity="0.501961" points="62,30 110,15 134,-16" />
<polygon fill="#fffbec" fill-opacity="0.501961" points="91,50 108,113 120,48" />
<polygon fill="#976533" fill-opacity="0.501961" points="210,58 210,126 147,124" />
<polygon fill="#a9ccfd" fill-opacity="0.501961" points="127,138 97,128 149,130" />
<polygon fill="#fee6a8" fill-opacity="0.501961" points="204,33 144,119 138,43" />
<polygon fill="#020302" fill-opacity="0.501961" points="-16,159 122,158 6,75" />
<polygon fill="#16221b" fill-opacity="0.501961" points="138,53 118,78 121,9" />
<polygon fill="#c9dcff" fill-opacity="0.501961" points="162,0 166,16 182,-16" />
<polygon fill="#323141" fill-opacity="0.501961" points="207,-5 264,159 211,123" />
<polygon fill="#2b384f" fill-opacity="0.501961" points="137,3 196,14 105,30" />
<polygon fill="#3d362f" fill-opacity="0.501961" points="76,132 124,128 69,113" />
<polygon fill="#0d0e0f" fill-opacity="0.501961" points="-16,106 7,-16 88,59" />
<polygon fill="#8293dc" fill-opacity="0.501961" points="244,40 250,-11 200,-14" />
<polygon fill="#908b91" fill-opacity="0.501961" points="42,35 62,19 88,22" />
<polygon fill="#292d42" fill-opacity="0.501961" points="143,118 133,159 220,149" />
<polygon fill="#edd7a3" fill-opacity="0.501961" points="190,-16 180,100 209,55" />
<polygon fill="#000006" fill-opacity="0.501961" points="151,138 90,138 158,159" />
<polygon fill="#78583b" fill-opacity="0.501961" points="38,83 100,98 69,117" />
<polygon fill="#585888" fill-opacity="0.501961" points="235,6 206,39 213,93" />
<polygon fill="#dbc8ab" fill-opacity="0.501961" points="92,107 122,71 117,107" />
<polygon fill="#454652" fill-opacity="0.501961" points="110,48 108,8 77,31" />
<polygon fill="#12173f" fill-opacity="0.501961" points="173,42 181,6 171,16" />
<polygon fill="#ede2b2" fill-opacity="0.501961" points="144,92 171,16 135,29" />
<polygon fill="#91abff" fill-opacity="0.501961" points="137,-11 128,21 128,-12" />
<polygon fill="#ceaf7b" fill-opacity="0.501961" points="215,47 141,97 163,114" />
<polygon fill="#c59657" fill-opacity="0.501961" points="157,35 147,13 142,50" />
<polygon fill="#000701" fill-opacity="0.501961" points="128,-16 151,-10 154,24" />
<polygon fill="#e7dac2" fill-opacity="0.501961" points="77,76 105,44 116,101" />
<polygon fill="#312f49" fill-opacity="0.501961" points="13,-16 83,19 119,-8" />
<polygon fill="#8fa1fc" fill-opacity="0.501961" points="163,7 169,27 174,-12" />
<polygon fill="#2c2825" fill-opacity="0.501961" points="222,140 266,-14 264,159" />
<polygon fill="#876646" fill-opacity="0.501961" points="97,107 56,93 64,70" />
<polygon fill="#292f4c" fill-opacity="0.501961" points="240,109 216,96 230,12" />
<polygon fill="#757486" fill-opacity="0.501961" points="134,-16 92,28 109,36" />
<polygon fill="#94b4e5" fill-opacity="0.501961" points="128,138 101,128 102,137" />
<polygon fill="#fbf9f8" fill-opacity="0.501961" points="108,9 118,-5 91,15" />
<polygon fill="#0e0d0f" fill-opacity="0.501961" points="-16,-10 70,10 -4,64" />
<polygon fill="#9f6c3e" fill-opacity="0.501961" points="212,89 197,80 212,45" />
<polygon fill="#553c20" fill-opacity="0.501961" points="221,88 221,131 172,155" />
<polygon fill="#cfdfff" fill-opacity="0.501961" points="205,3 191,12 188,-15" />
<polygon fill="#f4f0c6" fill-opacity="0.501961" points="179,22 172,60 200,17" />
<polygon fill="#4b5288" fill-opacity="0.501961" points="234,100 229,-6 247,45" />
<polygon fill="#8697e3" fill-opacity="0.501961" points="211,-16 218,43 234,-16" />
<polygon fill="#282a32" fill-opacity="0.501961" points="93,18 70,82 62,39" />
<polygon fill="#12131a" fill-opacity="0.501961" points="113,129 153,125 121,105" />
<polygon fill="#48171e" fill-opacity="0.501961" points="79,108 100,95 72,101" />
<polygon fill="#232823" fill-opacity="0.501961" points="119,30 137,57 123,98" />
<polygon fill="#644426" fill-opacity="0.501961" points="249,60 235,126 256,115" />
<polygon fill="#8d9db7" fill-opacity="0.501961" points="161,128 104,130 143,139" />
<polygon fill="#2f362b" fill-opacity="0.501961" points="138,57 112,29 125,8" />
<polygon fill="#feffeb" fill-opacity="0.501961" points="136,28 158,22 142,32" />
<polygon fill="#555388" fill-opacity="0.501961" points="189,15 169,6 185,-14" />
<polygon fill="#172143" fill-opacity="0.501961" points="271,47 243,63 253,-16" />
<polygon fill="#56545e" fill-opacity="0.501961" points="113,125 119,100 86,138" />
<polygon fill="#f0ecc7" fill-opacity="0.501961" points="165,23 138,68 173,57" />
<polygon fill="#281d00" fill-opacity="0.501961" points="108,34 107,47 102,41" />
<polygon fill="#3c345d" fill-opacity="0.501961" points="204,11 189,14 210,16" />
<polygon fill="#e1e2d8" fill-opacity="0.501961" points="118,37 119,57 97,77" />
<polygon fill="#5160c1" fill-opacity="0.501961" points="147,-16 164,5 155,12" />
<polygon fill="#635d7c" fill-opacity="0.501961" points="66,5 116,-10 23,-16" />
<polygon fill="#484751" fill-opacity="0.501961" points="90,59 63,47 103,13" />
<polygon fill="#9b7f58" fill-opacity="0.501961" points="186,124 200,148 194,124" />
<polygon fill="#2e2b2a" fill-opacity="0.501961" points="19,30 27,40 66,24" />
<polygon fill="#040500" fill-opacity="0.501961" points="66,60 71,82 75,58" />
<polygon fill="#343347" fill-opacity="0.501961" points="177,125 191,146 129,119" />
<polygon fill="#a18d6b" fill-opacity="0.501961" points="85,97 68,100 59,84" />
<polygon fill="#d2b88b" fill-opacity="0.501961" points="192,41 180,99 145,121" />
<polygon fill="#eff7ff" fill-opacity="0.501961" points="101,44 111,59 96,52" />
<polygon fill="#bfbdbf" fill-opacity="0.501961" points="75,26 97,14 80,18" />
<polygon fill="#d8c6ac" fill-opacity="0.501961" points="96,88 120,81 112,112" />
<polygon fill="#ceb997" fill-opacity="0.501961" points="109,85 86,97 73,71" />
<polygon fill="#8a9adf" fill-opacity="0.501961" points="233,-4 249,3 235,24" />
<polygon fill="#272e54" fill-opacity="0.501961" points="217,28 210,12 208,54" />
<polygon fill="#654120" fill-opacity="0.501961" points="74,76 67,88 81,90" />
<polygon fill="#5864ad" fill-opacity="0.501961" points="227,28 213,10 219,63" />
<polygon fill="#e7d9b4" fill-opacity="0.501961" points="138,80 138,48 194,45" />
<polygon fill="#2c3b2a" fill-opacity="0.501961" points="147,24 135,19 139,-16" />
<polygon fill="#c59058" fill-opacity="0.501961" points="142,47 161,27 143,33" />
<polygon fill="#10100f" fill-opacity="0.501961" points="-16,159 6,50 90,159" />
<polygon fill="#1c1e1b" fill-opacity="0.501961" points="127,67 114,112 142,101" />
<polygon fill="#6d4b34" fill-opacity="0.501961" points="198,87 156,118 197,122" />
<polygon fill="#534437" fill-opacity="0.501961" points="121,74 119,70 114,84" />
<polygon fill="#383e67" fill-opacity="0.501961" points="226,71 245,53 231,119" />
<polygon fill="#ddcdb0" fill-opacity="0.501961" points="120,74 117,100 100,114" />
<polygon fill="#292730" fill-opacity="0.501961" points="95,-5 104,4 64,26" />
<polygon fill="#1a1a1f" fill-opacity="0.501961" points="254,46 250,159 271,91" />
<polygon fill="#050800" fill-opacity="0.501961" points="151,4 156,22 150,20" />
<polygon fill="#1d2233" fill-opacity="0.501961" points="228,42 206,117 228,82" />
<polygon fill="#64626c" fill-opacity="0.501961" points="103,39 78,41 116,1" />
<polygon fill="#3c394a" fill-opacity="0.501961" points="132,125 143,132 140,88" />
<polygon fill="#fbf9f4" fill-opacity="0.501961" points="115,41 109,40 112,36" />
<polygon fill="#eae0bb" fill-opacity="0.501961" points="144,83 136,62 149,46" />
<polygon fill="#8698e9" fill-opacity="0.501961" points="198,11 190,-16 208,12" />
<polygon fill="#7a757a" fill-opacity="0.501961" points="52,34 82,24 65,19" />
<polygon fill="#212024" fill-opacity="0.501961" points="65,48 63,34 98,16" />
<polygon fill="#c3c0c3" fill-opacity="0.501961" points="97,17 80,20 113,1" />
<polygon fill="#272533" fill-opacity="0.501961" points="149,130 146,137 149,143" />
<polygon fill="#f1eec4" fill-opacity="0.501961" points="174,36 203,32 199,16" />
<polygon fill="#bda073" fill-opacity="0.501961" points="142,122 143,100 175,104" />
<polygon fill="#100f0e" fill-opacity="0.501961" points="64,25 6,35 -16,17" />
<polygon fill="#595f9b" fill-opacity="0.501961" points="247,29 229,68 233,28" />
<polygon fill="#eaf4e2" fill-opacity="0.501961" points="168,14 163,22 158,21" />
<polygon fill="#302400" fill-opacity="0.501961" points="101,41 110,43 111,47" />
<polygon fill="#4f4843" fill-opacity="0.501961" points="101,120 102,137 80,124" />
<polygon fill="#5756a6" fill-opacity="0.501961" points="143,9 141,-16 149,-16" />
<polygon fill="#2f2e32" fill-opacity="0.501961" points="41,52 79,62 96,46" />
<polygon fill="#aa96b0" fill-opacity="0.501961" points="189,-16 182,13 181,-13" />
<polygon fill="#f5fccf" fill-opacity="0.501961" points="145,26 138,44 136,25" />
<polygon fill="#8d9cda" fill-opacity="0.501961" points="173,-16 168,29 163,0" />
<polygon fill="#2d355d" fill-opacity="0.501961" points="178,21 171,16 171,43" />
<polygon fill="#c1aa7d" fill-opacity="0.501961" points="111,109 90,104 95,120" />
<polygon fill="#acbafc" fill-opacity="0.501961" points="155,5 154,-8 152,0" />
<polygon fill="#907650" fill-opacity="0.501961" points="103,123 71,114 82,104" />
<polygon fill="#3f444d" fill-opacity="0.501961" points="234,126 226,145 265,117" />
<polygon fill="#3d4741" fill-opacity="0.501961" points="113,36 137,17 134,36" />
<polygon fill="#79869f" fill-opacity="0.501961" points="155,126 153,138 148,131" />
<polygon fill="#524e4e" fill-opacity="0.501961" points="61,27 48,35 30,33" />
<polygon fill="#181819" fill-opacity="0.501961" points="147,120 119,130 115,111" />
<polygon fill="#32335e" fill-opacity="0.501961" points="159,19 151,23 159,-5" />
<polygon fill="#96724b" fill-opacity="0.501961" points="81,90 76,60 74,77" />
<polygon fill="#303762" fill-opacity="0.501961" points="227,23 232,2 233,26" />
<polygon fill="#817c81" fill-opacity="0.501961" points="114,103 104,124 115,128" />
<polygon fill="#eee8d1" fill-opacity="0.501961" points="118,70 85,68 118,55" />
<polygon fill="#46425a" fill-opacity="0.501961" points="186,12 182,22 183,13" />
<polygon fill="#dbcbb0" fill-opacity="0.501961" points="79,69 112,104 97,59" />
<polygon fill="#a38255" fill-opacity="0.501961" points="85,62 97,62 88,54" />
<polygon fill="#020811" fill-opacity="0.501961" points="188,136 203,159 168,159" />
<polygon fill="#3b3847" fill-opacity="0.501961" points="181,125 149,122 166,141" />
<polygon fill="#171f34" fill-opacity="0.501961" points="224,153 239,105 220,133" />
<polygon fill="#616fc0" fill-opacity="0.501961" points="202,22 207,37 207,18" />
<polygon fill="#ab926e" fill-opacity="0.501961" points="60,87 67,79 68,88" />
<polygon fill="#090b0b" fill-opacity="0.501961" points="84,57 38,64 42,76" />
<polygon fill="#f0f6d1" fill-opacity="0.501961" points="196,15 182,33 186,16" />
<polygon fill="#533d2f" fill-opacity="0.501961" points="224,109 187,108 199,139" />
<polygon fill="#000001" fill-opacity="0.501961" points="137,139 118,139 106,159" />
<polygon fill="#443e3d" fill-opacity="0.501961" points="94,46 114,28 103,45" />
<polygon fill="#444874" fill-opacity="0.501961" points="224,99 232,43 242,57" />
<polygon fill="#2f3930" fill-opacity="0.501961" points="117,19 134,33 139,59" />
<polygon fill="#0f0f0f" fill-opacity="0.501961" points="25,36 79,32 15,67" />
<polygon fill="#364178" fill-opacity="0.501961" points="180,10 171,21 175,-16" />
<polygon fill="#f8fad6" fill-opacity="0.501961" points="193,-2 188,9 198,12" />
<polygon fill="#7f583f" fill-opacity="0.501961" points="165,122 202,70 209,88" />
<polygon fill="#2d3982" fill-opacity="0.501961" points="145,-16 131,15 136,-16" />
<polygon fill="#9eaee5" fill-opacity="0.501961" points="211,-15 215,11 248,-16" />
<polygon fill="#62666a" fill-opacity="0.501961" points="115,139 110,159 108,135" />
<polygon fill="#362412" fill-opacity="0.501961" points="26,78 48,76 41,101" />
<polygon fill="#604a2d" fill-opacity="0.501961" points="58,110 47,80 61,74" />
<polygon fill="#d2dae1" fill-opacity="0.501961" points="122,131 124,137 128,133" />
<polygon fill="#423f44" fill-opacity="0.501961" points="90,22 85,37 106,10" />
<polygon fill="#272924" fill-opacity="0.501961" points="130,56 117,76 121,60" />
<polygon fill="#3b3849" fill-opacity="0.501961" points="143,120 141,136 136,112" />
<polygon fill="#332c23" fill-opacity="0.501961" points="65,113 79,143 90,121" />
<polygon fill="#3a4146" fill-opacity="0.501961" points="117,45 116,35 115,40" />
<polygon fill="#242821" fill-opacity="0.501961" points="129,32 115,29 124,7" />
<polygon fill="#77553c" fill-opacity="0.501961" points="250,85 251,60 247,72" />
<polygon fill="#73727f" fill-opacity="0.501961" points="88,30 126,-2 113,25" />
<polygon fill="#e6dfb1" fill-opacity="0.501961" points="147,27 156,31 148,20" />
<polygon fill="#24222a" fill-opacity="0.501961" points="85,16 69,23 78,6" />
<polygon fill="#e0cca4" fill-opacity="0.501961" points="181,21 157,88 205,53" />
<polygon fill="#454f88" fill-opacity="0.501961" points="225,42 213,39 217,81" />
<polygon fill="#1a223c" fill-opacity="0.501961" points="235,86 248,60 240,106" />
<polygon fill="#1c1d0d" fill-opacity="0.501961" points="150,23 156,19 149,6" />
<polygon fill="#2c3678" fill-opacity="0.501961" points="205,-4 212,13 211,-5" />
<polygon fill="#7382c8" fill-opacity="0.501961" points="229,4 227,27 216,18" />
<polygon fill="#313658" fill-opacity="0.501961" points="242,74 223,100 224,141" />
<polygon fill="#100f10" fill-opacity="0.501961" points="-16,48 -5,-4 69,16" />
<polygon fill="#2b332c" fill-opacity="0.501961" points="122,70 139,72 119,19" />
<polygon fill="#212332" fill-opacity="0.501961" points="231,45 224,54 230,27" />
<polygon fill="#3a383a" fill-opacity="0.501961" points="78,35 85,64 56,47" />
<polygon fill="#636cb0" fill-opacity="0.501961" points="233,47 247,17 232,13" />
<polygon fill="#aebdd3" fill-opacity="0.501961" points="138,130 124,130 138,137" />
<polygon fill="#eae8c2" fill-opacity="0.501961" points="141,50 136,64 170,42" />
<polygon fill="#2a2630" fill-opacity="0.501961" points="169,141 135,138 98,159" />
<polygon fill="#a39ea0" fill-opacity="0.501961" points="70,18 67,23 56,23" />
<polygon fill="#62452e" fill-opacity="0.501961" points="221,121 222,86 206,136" />
<polygon fill="#6877bd" fill-opacity="0.501961" points="172,14 170,26 164,14" />
<polygon fill="#1b1c18" fill-opacity="0.501961" points="130,130 124,76 114,115" />
<polygon fill="#7c684c" fill-opacity="0.501961" points="66,86 77,113 52,86" />
<polygon fill="#111828" fill-opacity="0.501961" points="204,124 212,109 210,118" />
<polygon fill="#8e7355" fill-opacity="0.501961" points="182,123 154,117 165,124" />
<polygon fill="#211f13" fill-opacity="0.501961" points="270,125 196,159 270,159" />
<polygon fill="#cb9d64" fill-opacity="0.501961" points="160,26 148,31 158,33" />
<polygon fill="#9aaccb" fill-opacity="0.501961" points="104,138 101,133 118,132" />
<polygon fill="#372a3b" fill-opacity="0.501961" points="184,12 191,13 182,15" />
<polygon fill="#5961ab" fill-opacity="0.501961" points="130,15 128,28 131,23" />
<polygon fill="#e9f2cd" fill-opacity="0.501961" points="162,22 148,29 136,27" />
<polygon fill="#6b6e7a" fill-opacity="0.501961" points="116,49 116,44 115,47" />
<polygon fill="#38344a" fill-opacity="0.501961" points="64,-8 59,7 38,5" />
<polygon fill="#94a2bc" fill-opacity="0.501961" points="152,138 153,128 150,131" />
<polygon fill="#414985" fill-opacity="0.501961" points="163,16 154,13 162,-15" />
<polygon fill="#312f3b" fill-opacity="0.501961" points="134,129 157,128 134,113" />
<polygon fill="#d7c098" fill-opacity="0.501961" points="199,56 141,86 146,109" />
<polygon fill="#95a9c6" fill-opacity="0.501961" points="145,133 144,129 138,129" />
<polygon fill="#201d24" fill-opacity="0.501961" points="75,20 76,3 50,8" />
<polygon fill="#101010" fill-opacity="0.501961" points="-2,101 -5,151 95,138" />
<polygon fill="#c6ac84" fill-opacity="0.501961" points="141,109 204,62 170,109" />
<polygon fill="#dcd7db" fill-opacity="0.501961" points="120,-16 113,4 102,-16" />
<polygon fill="#33462b" fill-opacity="0.501961" points="142,25 138,-2 133,24" />
<polygon fill="#8e9de4" fill-opacity="0.501961" points="204,10 179,-16 207,-7" />
<polygon fill="#f0f2c9" fill-opacity="0.501961" points="160,37 164,17 171,42" />
<polygon fill="#d5b684" fill-opacity="0.501961" points="210,56 213,51 211,44" />
<polygon fill="#e6e8ed" fill-opacity="0.501961" points="93,56 100,45 109,54" />
<polygon fill="#865e41" fill-opacity="0.501961" points="199,72 211,92 213,52" />
<polygon fill="#3e4373" fill-opacity="0.501961" points="248,0 250,15 257,-16" />
<polygon fill="#c9b797" fill-opacity="0.501961" points="93,95 81,69 77,78" />
<polygon fill="#181a12" fill-opacity="0.501961" points="77,73 82,60 79,50" />
<polygon fill="#1f1a1d" fill-opacity="0.501961" points="68,22 64,22 60,26" />
<polygon fill="#823d39" fill-opacity="0.501961" points="84,105 99,98 97,92" />
<polygon fill="#c9b898" fill-opacity="0.501961" points="111,107 101,117 100,86" />
<polygon fill="#2d3530" fill-opacity="0.501961" points="121,22 127,-3 130,37" />
<polygon fill="#51432a" fill-opacity="0.501961" points="38,85 63,102 56,109" />
<polygon fill="#dacbb2" fill-opacity="0.501961" points="119,84 90,92 116,98" />
<polygon fill="#494951" fill-opacity="0.501961" points="93,25 73,38 79,57" />
<polygon fill="#96a7c3" fill-opacity="0.501961" points="122,137 104,137 103,129" />
<polygon fill="#e9e3ce" fill-opacity="0.501961" points="111,46 117,75 94,71" />
<polygon fill="#4c3829" fill-opacity="0.501961" points="253,121 239,119 254,95" />
<polygon fill="#6c4e32" fill-opacity="0.501961" points="84,91 69,90 74,82" />
<polygon fill="#6c5236" fill-opacity="0.501961" points="85,60 81,61 84,65" />
<polygon fill="#bfb9be" fill-opacity="0.501961" points="91,53 94,63 98,46" />
<polygon fill="#694c37" fill-opacity="0.501961" points="212,94 154,118 203,126" />
<polygon fill="#96a8fd" fill-opacity="0.501961" points="132,-16 121,-15 131,5" />
<polygon fill="#2c2a33" fill-opacity="0.501961" points="149,132 141,155 160,159" />
<polygon fill="#1f2320" fill-opacity="0.501961" points="130,133 121,61 140,87" />
<polygon fill="#8492d3" fill-opacity="0.501961" points="233,-6 248,24 247,-16" />
<polygon fill="#a5a1a6" fill-opacity="0.501961" points="85,18 78,25 94,17" />
<polygon fill="#ddc69a" fill-opacity="0.501961" points="173,71 204,34 207,49" />
<polygon fill="#8c9fbe" fill-opacity="0.501961" points="123,136 134,138 132,130" />
<polygon fill="#1f1d1a" fill-opacity="0.501961" points="77,58 89,51 86,58" />
<polygon fill="#26170c" fill-opacity="0.501961" points="25,79 39,105 63,115" />
<polygon fill="#121627" fill-opacity="0.501961" points="256,-3 271,58 253,90" />
<polygon fill="#7a664c" fill-opacity="0.501961" points="191,135 196,147 207,149" />
<polygon fill="#5d639d" fill-opacity="0.501961" points="185,13 186,-1 175,-16" />
<polygon fill="#423f51" fill-opacity="0.501961" points="180,142 163,123 187,127" />
<polygon fill="#2c3052" fill-opacity="0.501961" points="209,44 209,14 216,38" />
<polygon fill="#e5e2d2" fill-opacity="0.501961" points="114,37 109,41 114,42" />
<polygon fill="#5860a1" fill-opacity="0.501961" points="224,38 215,55 215,27" />
<polygon fill="#747180" fill-opacity="0.501961" points="108,22 130,-7 121,-16" />
<polygon fill="#b19d79" fill-opacity="0.501961" points="74,95 89,94 79,99" />
<polygon fill="#4c4a51" fill-opacity="0.501961" points="93,34 90,60 87,47" />
<polygon fill="#eee7c4" fill-opacity="0.501961" points="196,12 190,0 187,10" />
<polygon fill="#2c2927" fill-opacity="0.501961" points="33,29 42,36 15,34" />
<polygon fill="#5b5661" fill-opacity="0.501961" points="96,31 113,36 97,36" />
<polygon fill="#3a3e60" fill-opacity="0.501961" points="213,96 211,79 221,67" />
<polygon fill="#e6ba72" fill-opacity="0.501961" points="149,18 149,22 147,18" />
<polygon fill="#101e0c" fill-opacity="0.501961" points="146,2 152,-7 149,13" />
<polygon fill="#0d0e0b" fill-opacity="0.501961" points="114,128 131,128 119,118" />
<polygon fill="#eadeb8" fill-opacity="0.501961" points="205,39 170,47 187,22" />
<polygon fill="#483f1a" fill-opacity="0.501961" points="103,38 113,45 107,46" />
<polygon fill="#222028" fill-opacity="0.501961" points="140,134 141,159 148,159" />
<polygon fill="#929ba0" fill-opacity="0.501961" points="83,107 94,107 101,101" />
<polygon fill="#312d39" fill-opacity="0.501961" points="157,126 181,159 152,140" />
<polygon fill="#101010" fill-opacity="0.501961" points="69,132 0,159 -8,55" />
<polygon fill="#bda275" fill-opacity="0.501961" points="149,119 141,106 157,121" />
<polygon fill="#2d2925" fill-opacity="0.501961" points="85,128 62,111 83,143" />
<polygon fill="#e4cea6" fill-opacity="0.501961" points="147,93 138,77 192,48" />
<polygon fill="#100d0f" fill-opacity="0.501961" points="143,132 140,132 144,135" />
<polygon fill="#544e4a" fill-opacity="0.501961" points="105,119 85,123 100,133" />
<polygon fill="#38333e" fill-opacity="0.501961" points="83,-14 89,14 121,-10" />
<polygon fill="#5e6cb6" fill-opacity="0.501961" points="210,22 203,16 208,42" />
<polygon fill="#4b3728" fill-opacity="0.501961" points="202,120 223,127 198,143" />
<polygon fill="#282f29" fill-opacity="0.501961" points="131,106 141,95 133,60" />
<polygon fill="#565e9c" fill-opacity="0.501961" points="238,35 249,10 244,47" />
<polygon fill="#444a71" fill-opacity="0.501961" points="177,30 181,-3 173,4" />
<polygon fill="#d69d6c" fill-opacity="0.501961" points="182,8 183,15 181,15" />
<polygon fill="#343f36" fill-opacity="0.501961" points="130,45 131,76 137,53" />
<polygon fill="#110f0e" fill-opacity="0.501961" points="62,78 63,62 58,64" />
<polygon fill="#e6e7c5" fill-opacity="0.501961" points="143,51 137,30 135,38" />
<polygon fill="#805a3c" fill-opacity="0.501961" points="155,116 162,120 174,107" />
<polygon fill="#e3d3bb" fill-opacity="0.501961" points="86,64 100,59 114,98" />
<polygon fill="#090c0b" fill-opacity="0.501961" points="99,136 50,159 128,159" />
<polygon fill="#e8e2ba" fill-opacity="0.501961" points="181,30 177,27 175,41" />
<polygon fill="#393b6a" fill-opacity="0.501961" points="207,17 215,14 207,3" />
<polygon fill="#423e44" fill-opacity="0.501961" points="96,18 110,8 106,15" />
<polygon fill="#edf5d2" fill-opacity="0.501961" points="196,17 185,16 185,21" />
<polygon fill="#777175" fill-opacity="0.501961" points="116,124 103,120 115,117" />
<polygon fill="#ebecc1" fill-opacity="0.501961" points="181,27 176,35 181,17" />
<polygon fill="#5d5b64" fill-opacity="0.501961" points="110,40 94,24 84,33" />
<polygon fill="#a7a794" fill-opacity="0.501961" points="184,20 180,23 181,29" />
<polygon fill="#afa3c3" fill-opacity="0.501961" points="182,-2 183,8 186,-9" />
<polygon fill="#4b4f4b" fill-opacity="0.501961" points="135,25 143,7 147,14" />
<polygon fill="#473b55" fill-opacity="0.501961" points="208,15 218,13 207,12" />
<polygon fill="#8e888d" fill-opacity="0.501961" points="77,21 68,28 65,26" />
<polygon fill="#4b211e" fill-opacity="0.501961" points="75,101 82,105 86,99" />
<polygon fill="#624733" fill-opacity="0.501961" points="247,80 240,106 249,95" />
<polygon fill="#6b583c" fill-opacity="0.501961" points="86,119 57,92 66,113" />
<polygon fill="#9dade9" fill-opacity="0.501961" points="171,8 147,-16 172,-4" />
<polygon fill="#1a2031" fill-opacity="0.501961" points="217,102 208,116 217,87" />
<polygon fill="#79553c" fill-opacity="0.501961" points="211,73 212,94 158,120" />
<polygon fill="#333033" fill-opacity="0.501961" points="103,14 93,23 87,22" />
<polygon fill="#f4bb85" fill-opacity="0.501961" points="188,7 195,-16 186,-16" />
<polygon fill="#b69c70" fill-opacity="0.501961" points="146,121 143,109 157,121" />
<polygon fill="#98a7e2" fill-opacity="0.501961" points="231,-5 237,5 271,-14" />
<polygon fill="#232124" fill-opacity="0.501961" points="48,48 42,60 73,59" />
<polygon fill="#625d7b" fill-opacity="0.501961" points="75,2 61,-4 90,-6" />
<polygon fill="#a38a64" fill-opacity="0.501961" points="83,110 93,106 93,120" />
<polygon fill="#645867" fill-opacity="0.501961" points="207,43 207,55 212,59" />
<polygon fill="#4d493e" fill-opacity="0.501961" points="119,30 116,39 115,31" />
<polygon fill="#16110d" fill-opacity="0.501961" points="255,105 256,156 264,127" />
<polygon fill="#d2bb91" fill-opacity="0.501961" points="172,93 206,54 191,53" />
<polygon fill="#6e7bc0" fill-opacity="0.501961" points="247,28 246,6 234,14" />
<polygon fill="#3a2715" fill-opacity="0.501961" points="54,86 35,84 53,74" />
<polygon fill="#353a5d" fill-opacity="0.501961" points="255,18 250,-1 248,30" />
<polygon fill="#bba786" fill-opacity="0.501961" points="95,93 85,92 79,82" />
<polygon fill="#6b6662" fill-opacity="0.501961" points="89,108 84,104 71,109" />
<polygon fill="#8d888a" fill-opacity="0.501961" points="113,110 111,120 107,112" />
<polygon fill="#7d5833" fill-opacity="0.501961" points="66,67 62,78 66,76" />
<polygon fill="#6a6664" fill-opacity="0.501961" points="97,125 117,129 103,117" />
<polygon fill="#212e21" fill-opacity="0.501961" points="141,-2 138,16 135,8" />
<polygon fill="#b79e74" fill-opacity="0.501961" points="191,84 164,108 180,101" />
<polygon fill="#737fc3" fill-opacity="0.501961" points="220,12 214,14 217,30" />
<polygon fill="#8d6546" fill-opacity="0.501961" points="213,51 194,80 211,76" />
<polygon fill="#7e88d5" fill-opacity="0.501961" points="128,2 132,9 128,15" />
<polygon fill="#3b3e62" fill-opacity="0.501961" points="222,107 241,77 235,65" />
<polygon fill="#8290c9" fill-opacity="0.501961" points="206,24 198,15 207,16" />
<polygon fill="#1d202c" fill-opacity="0.501961" points="218,84 226,65 223,94" />
<polygon fill="#b5916b" fill-opacity="0.501961" points="81,65 82,63 84,69" />
<polygon fill="#b6bfd1" fill-opacity="0.501961" points="117,137 118,130 115,133" />
<polygon fill="#2d3253" fill-opacity="0.501961" points="209,20 210,33 215,35" />
<polygon fill="#9f8661" fill-opacity="0.501961" points="153,122 157,119 167,122" />
<polygon fill="#c0a88a" fill-opacity="0.501961" points="108,39 110,42 114,30" />
<polygon fill="#282b26" fill-opacity="0.501961" points="125,31 125,11 113,29" />
<polygon fill="#434e96" fill-opacity="0.501961" points="207,-12 206,8 210,0" />
<polygon fill="#c2c485" fill-opacity="0.501961" points="105,51 113,45 114,48" />
<polygon fill="#1b1c26" fill-opacity="0.501961" points="188,134 191,137 182,146" />
<polygon fill="#4d3a26" fill-opacity="0.501961" points="100,122 74,117 81,124" />
<polygon fill="#cab087" fill-opacity="0.501961" points="173,100 145,108 141,99" />
<polygon fill="#713a32" fill-opacity="0.501961" points="95,94 97,98 83,103" />
<polygon fill="#e5e7e4" fill-opacity="0.501961" points="104,47 113,56 93,57" />
<polygon fill="#644835" fill-opacity="0.501961" points="245,85 250,93 251,69" />
<polygon fill="#37413a" fill-opacity="0.501961" points="136,40 126,19 126,36" />
<polygon fill="#e7d9c3" fill-opacity="0.501961" points="117,96 118,81 113,92" />
<polygon fill="#2e2e3b" fill-opacity="0.501961" points="210,40 214,44 212,32" />
<polygon fill="#433b57" fill-opacity="0.501961" points="120,-11 93,-16 118,1" />
<polygon fill="#26242e" fill-opacity="0.501961" points="134,137 193,159 132,159" />
<polygon fill="#e6d3ac" fill-opacity="0.501961" points="162,78 138,76 143,67" />
<polygon fill="#97a9c4" fill-opacity="0.501961" points="143,136 144,130 147,137" />
<polygon fill="#957c5c" fill-opacity="0.501961" points="67,87 67,78 55,88" />
<polygon fill="#2c3150" fill-opacity="0.501961" points="228,24 230,32 232,14" />
<polygon fill="#e7e9e1" fill-opacity="0.501961" points="114,46 118,65 110,53" />
</g>
</svg>