<svg xmlns="http://www.w3.org/2000/svg" version="1.1" width="1024" height="576">
<rect x="0" y="0" width="1024" height="576" fill="#b1b0a7" />
<g transform="scale(4.000000) translate(0.5 0.5)">
<polygon fill="#0b0000" fill-opacity="0.501961" points="271,144 271,90 136,148" />
<polygon fill="#000000" fill-opacity="0.501961" points="-2,141 30,118 -10,10" />
<polygon fill="#eef4ee" fill-opacity="0.501961" points="87,-16 261,51 74,156" />
<polygon fill="#000000" fill-opacity="0.501961" points="126,-16 -6,26 -16,-16" />
<polygon fill="#ebede2" fill-opacity="0.501961" points="35,27 202,48 29,114" />
<polygon fill="#010317" fill-opacity="0.501961" points="-13,9 30,116 -16,156" />
<polygon fill="#330000" fill-opacity="0.501961" points="271,159 142,146 212,117" />
<polygon fill="#372d18" fill-opacity="0.501961" points="60,139 78,159 64,111" />
<polygon fill="#878c80" fill-opacity="0.501961" points="77,28 141,-1 90,-16" />
<polygon fill="#848d80" fill-opacity="0.501961" points="260,-15 271,107 209,-1" />
<polygon fill="#d8dcd6" fill-opacity="0.501961" points="235,32 158,-16 90,57" />
<polygon fill="#121436" fill-opacity="0.501961" points="88,-6 0,24 -4,-4" />
<polygon fill="#e0e0d9" fill-opacity="0.501961" points="200,21 192,115 123,136" />
<polygon fill="#e2c68b" fill-opacity="0.501961" points="50,77 64,149 14,135" />
<polygon fill="#373d33" fill-opacity="0.501961" points="100,95 86,91 89,104" />
<polygon fill="#8a4914" fill-opacity="0.501961" points="269,95 271,159 210,116" />
<polygon fill="#44493e" fill-opacity="0.501961" points="168,74 154,65 156,79" />
<polygon fill="#92978d" fill-opacity="0.501961" points="107,100 147,79 113,82" />
<polygon fill="#d1d8cf" fill-opacity="0.501961" points="-16,35 32,37 78,7" />
<polygon fill="#a5aaa1" fill-opacity="0.501961" points="271,101 214,101 224,-3" />
<polygon fill="#654922" fill-opacity="0.501961" points="19,140 26,143 29,128" />
<polygon fill="#b93341" fill-opacity="0.501961" points="123,159 172,131 195,152" />
<polygon fill="#d9938a" fill-opacity="0.501961" points="178,51 213,45 205,33" />
<polygon fill="#cdcfc5" fill-opacity="0.501961" points="112,43 28,111 13,63" />
<polygon fill="#f1f5f0" fill-opacity="0.501961" points="90,61 63,99 54,73" />
<polygon fill="#1b231d" fill-opacity="0.501961" points="34,42 18,44 18,49" />
<polygon fill="#838980" fill-opacity="0.501961" points="97,26 44,30 89,14" />
<polygon fill="#5a6157" fill-opacity="0.501961" points="84,105 68,99 73,111" />
<polygon fill="#383d37" fill-opacity="0.501961" points="207,9 219,9 196,16" />
<polygon fill="#3c322a" fill-opacity="0.501961" points="256,46 253,159 271,107" />
<polygon fill="#c4c9c1" fill-opacity="0.501961" points="119,9 35,36 32,68" />
<polygon fill="#eff4f1" fill-opacity="0.501961" points="180,83 219,44 169,60" />
<polygon fill="#b4b9ad" fill-opacity="0.501961" points="70,131 178,121 81,159" />
<polygon fill="#f0f3ed" fill-opacity="0.501961" points="160,80 130,61 150,97" />
<polygon fill="#41453c" fill-opacity="0.501961" points="271,18 237,19 263,9" />
<polygon fill="#72766c" fill-opacity="0.501961" points="140,86 135,76 127,82" />
<polygon fill="#e5e6e4" fill-opacity="0.501961" points="246,5 72,66 160,66" />
<polygon fill="#575b52" fill-opacity="0.501961" points="113,96 109,87 118,83" />
<polygon fill="#f0f5ed" fill-opacity="0.501961" points="117,81 124,76 135,101" />
<polygon fill="#e0e4db" fill-opacity="0.501961" points="93,89 148,105 115,116" />
<polygon fill="#42483e" fill-opacity="0.501961" points="64,59 64,63 55,63" />
<polygon fill="#d8c9a9" fill-opacity="0.501961" points="77,120 14,129 60,93" />
<polygon fill="#363a33" fill-opacity="0.501961" points="130,3 120,3 111,9" />
<polygon fill="#2e1e0f" fill-opacity="0.501961" points="175,132 261,159 210,117" />
<polygon fill="#1e1f26" fill-opacity="0.501961" points="7,136 -16,116 31,113" />
<polygon fill="#9ba192" fill-opacity="0.501961" points="254,67 195,122 254,97" />
<polygon fill="#cab176" fill-opacity="0.501961" points="26,133 19,145 -16,144" />
<polygon fill="#999d94" fill-opacity="0.501961" points="29,36 52,29 45,41" />
<polygon fill="#6f7467" fill-opacity="0.501961" points="149,70 161,65 166,69" />
<polygon fill="#c9b28b" fill-opacity="0.501961" points="42,87 30,116 29,88" />
<polygon fill="#e1e4dc" fill-opacity="0.501961" points="95,6 115,-6 73,6" />
<polygon fill="#9b9f94" fill-opacity="0.501961" points="107,26 128,26 100,37" />
<polygon fill="#616059" fill-opacity="0.501961" points="66,111 60,132 79,159" />
<polygon fill="#6c746a" fill-opacity="0.501961" points="31,60 18,60 41,52" />
<polygon fill="#90958f" fill-opacity="0.501961" points="25,73 44,67 46,75" />
<polygon fill="#aab0a6" fill-opacity="0.501961" points="164,135 238,103 213,66" />
<polygon fill="#dfe3de" fill-opacity="0.501961" points="99,37 38,51 44,69" />
<polygon fill="#191c19" fill-opacity="0.501961" points="271,-2 255,50 255,0" />
<polygon fill="#d1dbe4" fill-opacity="0.501961" points="246,65 213,40 212,57" />
<polygon fill="#e1e4dc" fill-opacity="0.501961" points="83,28 111,20 123,32" />
<polygon fill="#c1c6bb" fill-opacity="0.501961" points="85,61 151,37 116,37" />
<polygon fill="#d7dcd6" fill-opacity="0.501961" points="28,89 35,69 63,78" />
<polygon fill="#917667" fill-opacity="0.501961" points="248,144 254,120 255,159" />
<polygon fill="#d1d5cb" fill-opacity="0.501961" points="164,-7 191,27 87,20" />
<polygon fill="#dcded8" fill-opacity="0.501961" points="76,128 66,112 82,111" />
<polygon fill="#a1a499" fill-opacity="0.501961" points="239,50 216,8 246,-16" />
<polygon fill="#979a91" fill-opacity="0.501961" points="42,52 52,41 64,42" />
<polygon fill="#73756c" fill-opacity="0.501961" points="86,20 81,30 94,21" />
<polygon fill="#818a7c" fill-opacity="0.501961" points="158,131 121,147 124,159" />
<polygon fill="#c5cac2" fill-opacity="0.501961" points="60,92 92,91 124,68" />
<polygon fill="#353647" fill-opacity="0.501961" points="18,83 1,37 -16,80" />
<polygon fill="#3e433d" fill-opacity="0.501961" points="61,28 51,28 70,22" />
<polygon fill="#d8ded4" fill-opacity="0.501961" points="21,48 27,55 52,42" />
<polygon fill="#5d6157" fill-opacity="0.501961" points="97,89 95,99 87,95" />
<polygon fill="#d6dbd1" fill-opacity="0.501961" points="81,110 123,115 82,98" />
<polygon fill="#e0e4dc" fill-opacity="0.501961" points="76,26 67,38 91,30" />
<polygon fill="#525650" fill-opacity="0.501961" points="247,35 246,44 252,41" />
<polygon fill="#e6e9e3" fill-opacity="0.501961" points="108,109 101,56 81,65" />
<polygon fill="#737870" fill-opacity="0.501961" points="96,6 86,14 68,14" />
<polygon fill="#deaa9f" fill-opacity="0.501961" points="199,32 191,54 184,44" />
<polygon fill="#c9cec4" fill-opacity="0.501961" points="18,45 73,6 10,28" />
<polygon fill="#dfe0e0" fill-opacity="0.501961" points="213,56 197,58 221,87" />
<polygon fill="#d3d7cf" fill-opacity="0.501961" points="202,92 190,76 135,126" />
<polygon fill="#cbd3d1" fill-opacity="0.501961" points="178,26 216,10 230,35" />
<polygon fill="#959a94" fill-opacity="0.501961" points="76,56 86,57 94,49" />
<polygon fill="#bbbdb9" fill-opacity="0.501961" points="239,54 248,70 193,80" />
<polygon fill="#9a998e" fill-opacity="0.501961" points="113,141 77,140 93,159" />
<polygon fill="#232225" fill-opacity="0.501961" points="27,112 12,134 -11,143" />
<polygon fill="#797e73" fill-opacity="0.501961" points="109,48 109,43 100,47" />
<polygon fill="#f6faf4" fill-opacity="0.501961" points="83,57 85,47 89,58" />
<polygon fill="#a5aa9f" fill-opacity="0.501961" points="180,97 178,84 189,103" />
<polygon fill="#5d4530" fill-opacity="0.501961" points="27,133 18,159 28,159" />
<polygon fill="#989f93" fill-opacity="0.501961" points="196,15 230,-3 204,-16" />
<polygon fill="#e1e5dd" fill-opacity="0.501961" points="154,100 125,105 163,74" />
<polygon fill="#a8aca1" fill-opacity="0.501961" points="162,13 148,14 136,23" />
<polygon fill="#797e73" fill-opacity="0.501961" points="243,92 254,93 231,102" />
<polygon fill="#666961" fill-opacity="0.501961" points="60,16 55,21 53,19" />
<polygon fill="#1f2029" fill-opacity="0.501961" points="-16,110 13,81 29,118" />
<polygon fill="#8f9489" fill-opacity="0.501961" points="125,78 135,89 136,76" />
<polygon fill="#7b4d29" fill-opacity="0.501961" points="249,134 271,90 237,106" />
<polygon fill="#acb1a5" fill-opacity="0.501961" points="140,91 118,101 127,93" />
<polygon fill="#babfb5" fill-opacity="0.501961" points="158,51 154,32 170,62" />
<polygon fill="#73796f" fill-opacity="0.501961" points="75,96 82,109 70,104" />
<polygon fill="#5e655a" fill-opacity="0.501961" points="50,67 50,63 54,67" />
<polygon fill="#d2d7ce" fill-opacity="0.501961" points="32,59 16,60 45,78" />
<polygon fill="#eaece9" fill-opacity="0.501961" points="157,36 188,98 185,34" />
<polygon fill="#bcc0b8" fill-opacity="0.501961" points="26,107 18,81 42,76" />
<polygon fill="#4a4f48" fill-opacity="0.501961" points="75,23 68,22 81,17" />
<polygon fill="#842c33" fill-opacity="0.501961" points="197,159 124,152 177,131" />
<polygon fill="#ccd0c6" fill-opacity="0.501961" points="94,12 122,3 107,1" />
<polygon fill="#797d71" fill-opacity="0.501961" points="119,26 118,31 127,25" />
<polygon fill="#9a9ea3" fill-opacity="0.501961" points="226,59 215,60 240,80" />
<polygon fill="#cfd6ca" fill-opacity="0.501961" points="81,1 77,17 82,14" />
<polygon fill="#818479" fill-opacity="0.501961" points="88,97 102,99 90,103" />
<polygon fill="#95998d" fill-opacity="0.501961" points="213,91 231,94 251,75" />
<polygon fill="#e3e8e1" fill-opacity="0.501961" points="102,77 83,97 68,96" />
<polygon fill="#c3c6bc" fill-opacity="0.501961" points="43,33 80,32 78,22" />
<polygon fill="#a8aca1" fill-opacity="0.501961" points="255,40 249,26 216,37" />
<polygon fill="#50564f" fill-opacity="0.501961" points="160,76 155,76 153,68" />
<polygon fill="#8f9385" fill-opacity="0.501961" points="130,37 142,32 138,36" />
<polygon fill="#b1b6aa" fill-opacity="0.501961" points="245,95 214,93 249,78" />
<polygon fill="#b4b9ae" fill-opacity="0.501961" points="111,78 107,71 121,72" />
<polygon fill="#020300" fill-opacity="0.501961" points="34,74 33,71 29,71" />
<polygon fill="#8c8483" fill-opacity="0.501961" points="64,126 61,100 73,127" />
<polygon fill="#c3c9be" fill-opacity="0.501961" points="210,108 120,117 128,141" />
<polygon fill="#b8beb5" fill-opacity="0.501961" points="1,36 22,55 28,98" />
<polygon fill="#dad6d3" fill-opacity="0.501961" points="60,102 68,90 72,116" />
<polygon fill="#b9bdbd" fill-opacity="0.501961" points="190,70 212,94 205,73" />
<polygon fill="#342318" fill-opacity="0.501961" points="248,138 189,126 175,159" />
<polygon fill="#84887e" fill-opacity="0.501961" points="109,84 120,86 111,97" />
<polygon fill="#1c1f1a" fill-opacity="0.501961" points="38,71 41,67 42,70" />
<polygon fill="#d4d8ce" fill-opacity="0.501961" points="71,125 152,115 109,93" />
<polygon fill="#747871" fill-opacity="0.501961" points="149,-16 188,-16 123,6" />
<polygon fill="#767a6f" fill-opacity="0.501961" points="64,30 73,28 70,31" />
<polygon fill="#bdc0b3" fill-opacity="0.501961" points="254,47 255,81 246,53" />
<polygon fill="#5b5f58" fill-opacity="0.501961" points="72,37 78,39 74,39" />
<polygon fill="#959a8f" fill-opacity="0.501961" points="174,-13 166,-12 183,13" />
<polygon fill="#decea9" fill-opacity="0.501961" points="61,93 28,90 61,129" />
<polygon fill="#a5ab9f" fill-opacity="0.501961" points="87,86 95,82 86,81" />
<polygon fill="#dfe2da" fill-opacity="0.501961" points="133,52 100,38 119,29" />
<polygon fill="#c0b188" fill-opacity="0.501961" points="40,110 -1,145 22,138" />
<polygon fill="#c8cac2" fill-opacity="0.501961" points="235,72 228,39 251,75" />
<polygon fill="#83867b" fill-opacity="0.501961" points="257,17 229,26 234,18" />
<polygon fill="#e7e9e3" fill-opacity="0.501961" points="105,61 157,83 145,42" />
<polygon fill="#82897a" fill-opacity="0.501961" points="155,133 174,126 165,125" />
<polygon fill="#888b7f" fill-opacity="0.501961" points="201,112 218,111 229,102" />
<polygon fill="#b0b3aa" fill-opacity="0.501961" points="184,15 205,15 168,26" />
<polygon fill="#696e66" fill-opacity="0.501961" points="74,104 68,101 76,98" />
<polygon fill="#bdc1b6" fill-opacity="0.501961" points="210,108 157,131 181,108" />
<polygon fill="#b9beb4" fill-opacity="0.501961" points="18,45 -8,25 32,39" />
<polygon fill="#e1e4dc" fill-opacity="0.501961" points="112,53 127,41 90,54" />
<polygon fill="#d7dcd2" fill-opacity="0.501961" points="130,-13 142,-3 119,3" />
<polygon fill="#666a5f" fill-opacity="0.501961" points="102,35 109,32 98,32" />
<polygon fill="#664529" fill-opacity="0.501961" points="261,119 211,119 240,139" />
<polygon fill="#dce0d9" fill-opacity="0.501961" points="33,60 86,34 96,48" />
<polygon fill="#696d64" fill-opacity="0.501961" points="203,104 197,108 194,105" />
<polygon fill="#dcdfd8" fill-opacity="0.501961" points="97,38 115,10 96,17" />
<polygon fill="#666b63" fill-opacity="0.501961" points="19,53 16,50 16,42" />
<polygon fill="#868981" fill-opacity="0.501961" points="109,11 114,10 103,2" />
<polygon fill="#919688" fill-opacity="0.501961" points="181,123 205,113 196,110" />
<polygon fill="#62655d" fill-opacity="0.501961" points="75,90 77,90 75,86" />
<polygon fill="#b78984" fill-opacity="0.501961" points="76,144 73,129 84,148" />
<polygon fill="#e2e5dd" fill-opacity="0.501961" points="89,104 77,83 85,117" />
<polygon fill="#767673" fill-opacity="0.501961" points="208,80 217,84 209,84" />
<polygon fill="#cbd3c7" fill-opacity="0.501961" points="80,17 62,16 69,20" />
<polygon fill="#525045" fill-opacity="0.501961" points="78,159 67,127 57,159" />
<polygon fill="#b8bcaf" fill-opacity="0.501961" points="252,3 240,14 217,14" />
<polygon fill="#afb3a9" fill-opacity="0.501961" points="20,83 21,74 50,73" />
<polygon fill="#9fa18f" fill-opacity="0.501961" points="25,88 31,106 31,96" />
<polygon fill="#e3e5df" fill-opacity="0.501961" points="115,88 114,57 94,57" />
<polygon fill="#4d5049" fill-opacity="0.501961" points="217,7 212,11 210,10" />
<polygon fill="#dbe1d8" fill-opacity="0.501961" points="190,112 157,86 170,69" />
<polygon fill="#d4d8d0" fill-opacity="0.501961" points="42,76 33,73 31,50" />
<polygon fill="#5a5e56" fill-opacity="0.501961" points="96,13 102,12 98,14" />
<polygon fill="#c1af86" fill-opacity="0.501961" points="26,152 105,159 31,131" />
<polygon fill="#4d534a" fill-opacity="0.501961" points="250,38 244,37 250,34" />
<polygon fill="#bfc3b8" fill-opacity="0.501961" points="86,111 112,105 108,99" />
<polygon fill="#b5807a" fill-opacity="0.501961" points="211,46 209,39 202,39" />
<polygon fill="#858681" fill-opacity="0.501961" points="218,72 223,77 223,82" />
<polygon fill="#575b52" fill-opacity="0.501961" points="118,2 111,-16 135,-16" />
<polygon fill="#6f7369" fill-opacity="0.501961" points="271,-2 237,5 266,-10" />
<polygon fill="#8f938d" fill-opacity="0.501961" points="204,90 213,92 189,101" />
<polygon fill="#40453d" fill-opacity="0.501961" points="29,43 34,41 35,44" />
<polygon fill="#e4e6de" fill-opacity="0.501961" points="107,110 94,85 109,89" />
<polygon fill="#90988b" fill-opacity="0.501961" points="119,159 80,152 119,135" />
<polygon fill="#61645c" fill-opacity="0.501961" points="90,22 83,23 80,27" />
<polygon fill="#c2b28a" fill-opacity="0.501961" points="26,145 -5,143 17,134" />
<polygon fill="#c9b994" fill-opacity="0.501961" points="19,125 26,120 17,139" />
<polygon fill="#c2c6ba" fill-opacity="0.501961" points="245,46 234,28 239,25" />
<polygon fill="#c8cbc2" fill-opacity="0.501961" points="96,4 86,15 108,7" />
<polygon fill="#c6c9bf" fill-opacity="0.501961" points="153,123 71,120 82,147" />
<polygon fill="#cacdc4" fill-opacity="0.501961" points="44,43 44,63 32,35" />
<polygon fill="#d8ddd6" fill-opacity="0.501961" points="31,84 31,97 22,73" />
<polygon fill="#d9ded7" fill-opacity="0.501961" points="53,67 78,68 101,50" />
<polygon fill="#e5e7e1" fill-opacity="0.501961" points="137,82 151,82 150,48" />
<polygon fill="#ced1c8" fill-opacity="0.501961" points="43,34 61,49 54,31" />
<polygon fill="#c3c7bc" fill-opacity="0.501961" points="176,95 199,112 191,117" />
<polygon fill="#777b71" fill-opacity="0.501961" points="170,75 160,66 155,71" />
<polygon fill="#e2e7de" fill-opacity="0.501961" points="168,48 149,44 155,69" />
<polygon fill="#cfd4ca" fill-opacity="0.501961" points="18,49 48,49 22,56" />
<polygon fill="#c8cdc1" fill-opacity="0.501961" points="208,97 199,98 207,107" />
<polygon fill="#e3e6de" fill-opacity="0.501961" points="135,28 126,16 132,44" />
<polygon fill="#bac0bc" fill-opacity="0.501961" points="225,56 226,40 205,21" />
<polygon fill="#342f29" fill-opacity="0.501961" points="255,145 255,77 271,116" />
<polygon fill="#dbecf8" fill-opacity="0.501961" points="209,30 204,22 175,33" />
<polygon fill="#252923" fill-opacity="0.501961" points="203,0 211,-3 207,-15" />
<polygon fill="#c7cbc0" fill-opacity="0.501961" points="63,11 70,23 56,15" />
<polygon fill="#c1c8bb" fill-opacity="0.501961" points="145,139 127,147 150,159" />
<polygon fill="#c1a9a8" fill-opacity="0.501961" points="189,53 186,49 204,45" />
<polygon fill="#edebdd" fill-opacity="0.501961" points="192,48 209,46 210,72" />
<polygon fill="#92948a" fill-opacity="0.501961" points="42,25 49,19 48,24" />
<polygon fill="#d8e9f7" fill-opacity="0.501961" points="213,54 224,60 214,39" />
<polygon fill="#efd1c1" fill-opacity="0.501961" points="195,30 183,44 206,35" />
<polygon fill="#151617" fill-opacity="0.501961" points="-4,97 14,89 18,96" />
<polygon fill="#6e6f67" fill-opacity="0.501961" points="48,37 41,38 40,41" />
<polygon fill="#c7ccc2" fill-opacity="0.501961" points="26,46 40,44 42,56" />
<polygon fill="#c0c4c7" fill-opacity="0.501961" points="194,78 209,87 201,59" />
<polygon fill="#777a6f" fill-opacity="0.501961" points="227,93 230,89 236,93" />
<polygon fill="#8c8f85" fill-opacity="0.501961" points="77,110 79,100 72,99" />
<polygon fill="#656860" fill-opacity="0.501961" points="109,86 112,95 117,91" />
<polygon fill="#845734" fill-opacity="0.501961" points="259,97 209,117 244,118" />
<polygon fill="#868781" fill-opacity="0.501961" points="205,87 200,82 202,90" />
<polygon fill="#b3b9ac" fill-opacity="0.501961" points="105,73 121,74 104,79" />
<polygon fill="#e3e6e0" fill-opacity="0.501961" points="37,79 114,55 77,84" />
<polygon fill="#93978b" fill-opacity="0.501961" points="4,28 9,35 6,38" />
<polygon fill="#cccfc6" fill-opacity="0.501961" points="50,27 6,30 13,41" />
<polygon fill="#e2e7dd" fill-opacity="0.501961" points="167,73 166,65 171,67" />
<polygon fill="#6b6f66" fill-opacity="0.501961" points="40,54 28,54 28,58" />
<polygon fill="#e1e5de" fill-opacity="0.501961" points="82,40 86,50 62,59" />
<polygon fill="#878982" fill-opacity="0.501961" points="223,81 241,74 230,73" />
<polygon fill="#e8ebe5" fill-opacity="0.501961" points="100,81 99,89 85,92" />
<polygon fill="#bbc0b2" fill-opacity="0.501961" points="222,102 200,113 197,106" />
<polygon fill="#7d8175" fill-opacity="0.501961" points="172,126 185,121 175,122" />
<polygon fill="#c4c8be" fill-opacity="0.501961" points="44,37 54,43 62,27" />
<polygon fill="#d8dcd3" fill-opacity="0.501961" points="103,31 155,13 111,10" />
<polygon fill="#50564b" fill-opacity="0.501961" points="271,85 250,93 268,93" />
<polygon fill="#cbd1c6" fill-opacity="0.501961" points="186,17 199,14 181,-16" />
<polygon fill="#292933" fill-opacity="0.501961" points="46,9 96,-8 31,-5" />
<polygon fill="#c6b78f" fill-opacity="0.501961" points="30,102 39,136 27,159" />
<polygon fill="#d3d6ce" fill-opacity="0.501961" points="41,52 51,67 30,67" />
<polygon fill="#a8aca2" fill-opacity="0.501961" points="24,61 6,37 20,72" />
<polygon fill="#dee2d9" fill-opacity="0.501961" points="131,90 130,81 126,94" />
<polygon fill="#b3bab9" fill-opacity="0.501961" points="222,70 233,81 206,67" />
<polygon fill="#787c73" fill-opacity="0.501961" points="136,87 141,85 133,79" />
<polygon fill="#daded6" fill-opacity="0.501961" points="158,95 137,84 155,111" />
<polygon fill="#80857b" fill-opacity="0.501961" points="66,40 59,42 59,46" />
<polygon fill="#d2d6cd" fill-opacity="0.501961" points="29,59 60,53 45,68" />
<polygon fill="#7f8379" fill-opacity="0.501961" points="81,57 75,55 82,54" />
<polygon fill="#dde2df" fill-opacity="0.501961" points="180,31 179,63 197,91" />
<polygon fill="#816a4c" fill-opacity="0.501961" points="69,141 63,149 61,126" />
<polygon fill="#c6c7bf" fill-opacity="0.501961" points="238,79 240,54 215,39" />
<polygon fill="#dee1da" fill-opacity="0.501961" points="145,106 94,112 173,78" />
<polygon fill="#c9cec4" fill-opacity="0.501961" points="201,101 144,110 179,114" />
<polygon fill="#e5e9e2" fill-opacity="0.501961" points="121,87 129,95 123,65" />
<polygon fill="#d0d5ca" fill-opacity="0.501961" points="55,13 74,12 80,4" />
<polygon fill="#e3e5df" fill-opacity="0.501961" points="102,92 111,93 98,64" />
<polygon fill="#dee2db" fill-opacity="0.501961" points="172,75 136,87 167,101" />
<polygon fill="#d5d9d0" fill-opacity="0.501961" points="117,16 66,34 97,35" />
<polygon fill="#c1c5ba" fill-opacity="0.501961" points="88,11 79,16 94,13" />
<polygon fill="#92948e" fill-opacity="0.501961" points="239,64 234,64 242,72" />
<polygon fill="#b3b7ad" fill-opacity="0.501961" points="146,39 160,33 159,28" />
<polygon fill="#c9cdc3" fill-opacity="0.501961" points="15,32 13,47 5,27" />
<polygon fill="#72746d" fill-opacity="0.501961" points="216,7 221,11 220,16" />
<polygon fill="#bfc6bf" fill-opacity="0.501961" points="186,21 173,32 196,24" />
<polygon fill="#bec1b7" fill-opacity="0.501961" points="184,103 199,113 141,136" />
<polygon fill="#bec3ba" fill-opacity="0.501961" points="172,83 183,91 170,67" />
<polygon fill="#d2d3cb" fill-opacity="0.501961" points="218,13 228,33 208,33" />
<polygon fill="#e6edfa" fill-opacity="0.501961" points="216,72 212,63 215,64" />
<polygon fill="#9d9f96" fill-opacity="0.501961" points="128,37 123,38 131,41" />
<polygon fill="#e0e4dc" fill-opacity="0.501961" points="159,76 177,85 161,89" />
<polygon fill="#3f4153" fill-opacity="0.501961" points="-16,30 10,-1 16,19" />
<polygon fill="#ecf0e8" fill-opacity="0.501961" points="134,37 147,37 124,44" />
<polygon fill="#aeb1a7" fill-opacity="0.501961" points="129,81 133,88 135,77" />
<polygon fill="#cbcdc7" fill-opacity="0.501961" points="195,91 197,97 206,90" />
<polygon fill="#787d75" fill-opacity="0.501961" points="251,77 255,77 248,67" />
<polygon fill="#95988f" fill-opacity="0.501961" points="202,18 201,5 195,5" />
<polygon fill="#72766e" fill-opacity="0.501961" points="78,21 98,14 89,12" />
<polygon fill="#dde0d9" fill-opacity="0.501961" points="140,23 185,17 153,31" />
<polygon fill="#777d73" fill-opacity="0.501961" points="135,75 129,78 132,81" />
<polygon fill="#d0d4cb" fill-opacity="0.501961" points="18,67 9,59 10,53" />
<polygon fill="#95998f" fill-opacity="0.501961" points="62,19 79,13 61,13" />
<polygon fill="#282a33" fill-opacity="0.501961" points="20,95 29,115 8,132" />
<polygon fill="#b5b7ad" fill-opacity="0.501961" points="72,136 77,150 114,137" />
<polygon fill="#c5cac0" fill-opacity="0.501961" points="73,17 57,14 58,23" />
<polygon fill="#d4c6a0" fill-opacity="0.501961" points="58,116 31,103 61,147" />
<polygon fill="#1d2424" fill-opacity="0.501961" points="72,136 66,134 69,133" />
<polygon fill="#a0a39a" fill-opacity="0.501961" points="10,44 15,46 26,38" />
<polygon fill="#862b32" fill-opacity="0.501961" points="160,141 179,129 184,149" />
<polygon fill="#898e83" fill-opacity="0.501961" points="222,88 229,81 243,81" />
<polygon fill="#d1d5cc" fill-opacity="0.501961" points="75,31 60,37 66,48" />
<polygon fill="#767b6f" fill-opacity="0.501961" points="50,65 57,66 50,63" />
<polygon fill="#dcdfd8" fill-opacity="0.501961" points="168,81 160,72 177,83" />
<polygon fill="#595e58" fill-opacity="0.501961" points="93,51 86,53 88,51" />
<polygon fill="#dce0d8" fill-opacity="0.501961" points="107,33 111,44 147,23" />
<polygon fill="#5b5f58" fill-opacity="0.501961" points="63,24 53,26 54,29" />
<polygon fill="#d1d4cb" fill-opacity="0.501961" points="87,1 84,2 88,11" />
<polygon fill="#6e716a" fill-opacity="0.501961" points="76,39 71,40 74,37" />
<polygon fill="#d8dad3" fill-opacity="0.501961" points="62,47 42,73 47,55" />
<polygon fill="#72766d" fill-opacity="0.501961" points="244,17 247,18 247,27" />
<polygon fill="#cbcfc6" fill-opacity="0.501961" points="72,11 99,-9 104,-1" />
<polygon fill="#a8aca5" fill-opacity="0.501961" points="163,48 165,54 159,45" />
<polygon fill="#d3d7cf" fill-opacity="0.501961" points="15,76 24,85 16,69" />
<polygon fill="#b8beb0" fill-opacity="0.501961" points="226,0 221,6 207,7" />
<polygon fill="#c5b198" fill-opacity="0.501961" points="53,89 40,86 31,94" />
<polygon fill="#888a7f" fill-opacity="0.501961" points="200,7 235,-13 253,-6" />
<polygon fill="#dadfd7" fill-opacity="0.501961" points="92,54 91,27 103,47" />
<polygon fill="#b4b6b2" fill-opacity="0.501961" points="217,71 187,85 198,74" />
<polygon fill="#cacec5" fill-opacity="0.501961" points="38,17 49,30 8,27" />
<polygon fill="#707268" fill-opacity="0.501961" points="248,46 245,38 244,48" />
<polygon fill="#d0d3ca" fill-opacity="0.501961" points="32,56 58,62 37,63" />
<polygon fill="#042c22" fill-opacity="0.501961" points="192,159 150,142 109,159" />
<polygon fill="#61655d" fill-opacity="0.501961" points="86,97 91,101 97,94" />
<polygon fill="#aaafa6" fill-opacity="0.501961" points="57,70 45,74 56,74" />
<polygon fill="#ced1c6" fill-opacity="0.501961" points="88,20 73,23 73,28" />
<polygon fill="#b5b8b1" fill-opacity="0.501961" points="199,24 215,14 203,14" />
<polygon fill="#babfb6" fill-opacity="0.501961" points="207,8 192,-3 201,11" />
<polygon fill="#c2b48c" fill-opacity="0.501961" points="58,111 56,101 54,120" />
<polygon fill="#787c71" fill-opacity="0.501961" points="257,9 240,14 253,14" />
<polygon fill="#a2a59d" fill-opacity="0.501961" points="220,41 216,38 228,32" />
<polygon fill="#afb4a7" fill-opacity="0.501961" points="111,100 119,98 115,101" />
<polygon fill="#797b71" fill-opacity="0.501961" points="237,99 226,102 228,105" />
<polygon fill="#7e8277" fill-opacity="0.501961" points="73,30 71,27 67,29" />
<polygon fill="#4f534d" fill-opacity="0.501961" points="51,26 55,27 53,30" />
<polygon fill="#0e100c" fill-opacity="0.501961" points="-16,127 -7,143 7,134" />
<polygon fill="#c4c7bf" fill-opacity="0.501961" points="22,74 31,76 16,57" />
<polygon fill="#ccd0c6" fill-opacity="0.501961" points="33,31 33,23 58,24" />
<polygon fill="#b0b4a8" fill-opacity="0.501961" points="249,27 231,23 242,36" />
<polygon fill="#c0c2bc" fill-opacity="0.501961" points="232,81 217,88 217,83" />
<polygon fill="#616459" fill-opacity="0.501961" points="106,3 103,4 102,2" />
<polygon fill="#b8bcb1" fill-opacity="0.501961" points="106,-9 103,5 86,15" />
<polygon fill="#c6c7c2" fill-opacity="0.501961" points="221,84 209,89 217,78" />
<polygon fill="#aeb5a6" fill-opacity="0.501961" points="149,30 139,33 146,34" />
<polygon fill="#b2b7ae" fill-opacity="0.501961" points="74,61 63,68 83,62" />
<polygon fill="#cfd3c9" fill-opacity="0.501961" points="41,35 27,39 36,41" />
<polygon fill="#a1a59b" fill-opacity="0.501961" points="162,14 157,13 150,18" />
<polygon fill="#898c84" fill-opacity="0.501961" points="207,6 195,5 200,8" />
<polygon fill="#cfd3c9" fill-opacity="0.501961" points="10,40 13,36 15,52" />
<polygon fill="#eaeee8" fill-opacity="0.501961" points="60,67 75,62 70,60" />
<polygon fill="#686c64" fill-opacity="0.501961" points="126,2 117,9 109,9" />
<polygon fill="#e0d4b2" fill-opacity="0.501961" points="32,100 55,92 55,113" />
<polygon fill="#aaada4" fill-opacity="0.501961" points="31,82 24,64 19,73" />
<polygon fill="#ced2c7" fill-opacity="0.501961" points="219,72 226,73 234,67" />
<polygon fill="#96998f" fill-opacity="0.501961" points="75,27 84,22 84,25" />
<polygon fill="#5e605b" fill-opacity="0.501961" points="83,11 90,12 82,6" />
<polygon fill="#cbcec5" fill-opacity="0.501961" points="83,2 87,7 68,9" />
<polygon fill="#e5e7e2" fill-opacity="0.501961" points="128,69 132,80 117,61" />
<polygon fill="#dee1d9" fill-opacity="0.501961" points="82,111 87,100 81,97" />
<polygon fill="#d3d6cd" fill-opacity="0.501961" points="184,19 151,0 170,24" />
<polygon fill="#63695e" fill-opacity="0.501961" points="270,21 261,29 246,30" />
<polygon fill="#b8bcb0" fill-opacity="0.501961" points="246,22 253,26 253,19" />
</g>
</svg>