<svg xmlns="http://www.w3.org/2000/svg" version="1.1" width="1024" height="576">
<rect x="0" y="0" width="1024" height="576" fill="#3d3c43" />
<g transform="scale(4.000000) translate(0.5 0.5)">
<polygon fill="#747580" fill-opacity="0.501961" points="-16,81 129,36 271,89" />
<polygon fill="#191817" fill-opacity="0.501961" points="230,55 -16,9 271,-16" />
<polygon fill="#6a6a71" fill-opacity="0.501961" points="267,62 87,50 239,103" />
<polygon fill="#1e1e1e" fill-opacity="0.501961" points="7,-16 102,34 -16,48" />
<polygon fill="#4d4f56" fill-opacity="0.501961" points="60,109 112,39 -15,62" />
<polygon fill="#807f85" fill-opacity="0.501961" points="99,69 168,63 103,40" />
<polygon fill="#3f3f52" fill-opacity="0.501961" points="48,94 256,104 163,69" />
<polygon fill="#3f4040" fill-opacity="0.501961" points="187,59 94,33 125,1" />
<polygon fill="#2e2a2f" fill-opacity="0.501961" points="248,159 54,140 271,104" />
<polygon fill="#28282b" fill-opacity="0.501961" points="91,63 -8,-4 111,-16" />
<polygon fill="#201f22" fill-opacity="0.501961" points="270,37 249,-16 135,25" />
<polygon fill="#555755" fill-opacity="0.501961" points="249,104 271,54 224,31" />
<polygon fill="#54545f" fill-opacity="0.501961" points="133,91 39,47 -16,88" />
<polygon fill="#2e2c32" fill-opacity="0.501961" points="113,144 8,159 -16,107" />
<polygon fill="#38394b" fill-opacity="0.501961" points="-16,117 72,111 45,65" />
<polygon fill="#5c5c67" fill-opacity="0.501961" points="27,58 90,94 104,58" />
<polygon fill="#37384b" fill-opacity="0.501961" points="138,72 87,105 210,114" />
<polygon fill="#414742" fill-opacity="0.501961" points="242,60 193,64 164,38" />
<polygon fill="#404440" fill-opacity="0.501961" points="39,33 3,47 94,60" />
<polygon fill="#49484b" fill-opacity="0.501961" points="132,18 94,44 142,43" />
<polygon fill="#3b3b3c" fill-opacity="0.501961" points="224,29 257,37 212,67" />
<polygon fill="#444045" fill-opacity="0.501961" points="222,115 67,107 143,135" />
<polygon fill="#252427" fill-opacity="0.501961" points="236,159 259,157 259,91" />
<polygon fill="#78787d" fill-opacity="0.501961" points="155,73 103,54 150,48" />
<polygon fill="#0c0e09" fill-opacity="0.501961" points="255,18 271,77 255,66" />
<polygon fill="#888478" fill-opacity="0.501961" points="188,111 184,117 183,111" />
<polygon fill="#525059" fill-opacity="0.501961" points="64,67 10,92 -16,59" />
<polygon fill="#4c4b57" fill-opacity="0.501961" points="95,64 151,75 113,90" />
<polygon fill="#5c5b67" fill-opacity="0.501961" points="176,49 147,73 271,98" />
<polygon fill="#28262a" fill-opacity="0.501961" points="-1,-10 -16,39 137,4" />
<polygon fill="#5a5e59" fill-opacity="0.501961" points="210,67 253,55 251,84" />
<polygon fill="#252427" fill-opacity="0.501961" points="271,31 138,36 178,-16" />
<polygon fill="#5a5858" fill-opacity="0.501961" points="76,112 79,121 90,110" />
<polygon fill="#37333a" fill-opacity="0.501961" points="139,123 45,133 208,159" />
<polygon fill="#3c3c4c" fill-opacity="0.501961" points="109,109 259,113 166,78" />
<polygon fill="#51515a" fill-opacity="0.501961" points="208,97 226,91 234,107" />
<polygon fill="#4c4b53" fill-opacity="0.501961" points="126,126 135,108 121,96" />
<polygon fill="#5d5d69" fill-opacity="0.501961" points="107,45 90,85 66,76" />
<polygon fill="#42414d" fill-opacity="0.501961" points="30,72 51,117 56,69" />
<polygon fill="#434a46" fill-opacity="0.501961" points="181,41 198,58 150,48" />
<polygon fill="#313241" fill-opacity="0.501961" points="70,104 147,90 117,108" />
<polygon fill="#808087" fill-opacity="0.501961" points="111,47 100,58 126,59" />
<polygon fill="#2a292a" fill-opacity="0.501961" points="11,49 -16,65 12,-9" />
<polygon fill="#333833" fill-opacity="0.501961" points="96,38 95,56 38,34" />
<polygon fill="#505355" fill-opacity="0.501961" points="96,56 93,71 42,52" />
<polygon fill="#1e201e" fill-opacity="0.501961" points="271,113 256,52 254,117" />
<polygon fill="#313032" fill-opacity="0.501961" points="243,26 190,51 216,56" />
<polygon fill="#343339" fill-opacity="0.501961" points="180,118 220,106 267,128" />
<polygon fill="#454b43" fill-opacity="0.501961" points="35,59 -16,68 42,39" />
<polygon fill="#2f2d32" fill-opacity="0.501961" points="96,4 81,42 146,2" />
<polygon fill="#6a6870" fill-opacity="0.501961" points="244,85 193,77 221,72" />
<polygon fill="#6b6b6b" fill-opacity="0.501961" points="192,123 193,119 187,125" />
<polygon fill="#63626f" fill-opacity="0.501961" points="131,63 152,74 104,67" />
<polygon fill="#636562" fill-opacity="0.501961" points="135,53 110,40 150,48" />
<polygon fill="#2f2b30" fill-opacity="0.501961" points="173,140 207,159 254,135" />
<polygon fill="#56575d" fill-opacity="0.501961" points="-16,71 57,54 6,86" />
<polygon fill="#575958" fill-opacity="0.501961" points="91,44 129,36 122,47" />
<polygon fill="#3e3e4f" fill-opacity="0.501961" points="77,120 84,86 27,102" />
<polygon fill="#37363a" fill-opacity="0.501961" points="151,41 137,44 123,-2" />
<polygon fill="#333340" fill-opacity="0.501961" points="159,89 134,98 182,103" />
<polygon fill="#1b1c1b" fill-opacity="0.501961" points="271,41 258,-10 250,26" />
<polygon fill="#373641" fill-opacity="0.501961" points="235,97 252,131 251,99" />
<polygon fill="#3d3940" fill-opacity="0.501961" points="52,137 102,121 18,119" />
<polygon fill="#5c5f60" fill-opacity="0.501961" points="254,67 225,70 254,101" />
<polygon fill="#4c4c58" fill-opacity="0.501961" points="48,79 105,92 52,94" />
<polygon fill="#292a2b" fill-opacity="0.501961" points="94,18 78,46 60,52" />
<polygon fill="#2a292d" fill-opacity="0.501961" points="181,13 162,-16 259,2" />
<polygon fill="#39373a" fill-opacity="0.501961" points="-4,61 52,31 11,36" />
<polygon fill="#39363d" fill-opacity="0.501961" points="172,157 120,114 177,130" />
<polygon fill="#2d2d31" fill-opacity="0.501961" points="13,1 21,17 72,1" />
<polygon fill="#2b2a2e" fill-opacity="0.501961" points="136,9 173,40 146,40" />
<polygon fill="#4c4e4e" fill-opacity="0.501961" points="242,57 198,63 225,67" />
<polygon fill="#5c5b68" fill-opacity="0.501961" points="59,62 68,85 123,67" />
<polygon fill="#353939" fill-opacity="0.501961" points="158,34 198,45 145,46" />
<polygon fill="#42424e" fill-opacity="0.501961" points="102,92 132,73 191,90" />
<polygon fill="#181a19" fill-opacity="0.501961" points="-5,-10 6,15 -15,31" />
<polygon fill="#3e3e52" fill-opacity="0.501961" points="138,111 112,96 168,109" />
<polygon fill="#4c4a4d" fill-opacity="0.501961" points="266,77 250,41 233,40" />
<polygon fill="#464551" fill-opacity="0.501961" points="232,108 252,96 196,99" />
<polygon fill="#5b5964" fill-opacity="0.501961" points="202,83 252,88 229,95" />
<polygon fill="#39383c" fill-opacity="0.501961" points="136,22 140,1 89,43" />
<polygon fill="#878889" fill-opacity="0.501961" points="125,125 129,122 126,122" />
<polygon fill="#6f7071" fill-opacity="0.501961" points="109,45 136,48 131,54" />
<polygon fill="#73717c" fill-opacity="0.501961" points="133,70 135,54 166,59" />
<polygon fill="#121211" fill-opacity="0.501961" points="271,139 254,147 259,79" />
<polygon fill="#302e34" fill-opacity="0.501961" points="8,159 -10,126 75,145" />
<polygon fill="#555f52" fill-opacity="0.501961" points="70,60 35,60 50,53" />
<polygon fill="#3a403c" fill-opacity="0.501961" points="101,35 95,51 81,46" />
<polygon fill="#545462" fill-opacity="0.501961" points="170,67 210,85 149,77" />
<polygon fill="#3c393f" fill-opacity="0.501961" points="172,108 157,129 198,132" />
<polygon fill="#3a3a48" fill-opacity="0.501961" points="158,104 206,118 211,96" />
<polygon fill="#353436" fill-opacity="0.501961" points="235,57 228,26 212,54" />
<polygon fill="#58575e" fill-opacity="0.501961" points="162,52 186,67 205,63" />
<polygon fill="#65615a" fill-opacity="0.501961" points="34,120 35,116 33,119" />
<polygon fill="#363641" fill-opacity="0.501961" points="-3,108 37,126 26,88" />
<polygon fill="#43414c" fill-opacity="0.501961" points="1,89 1,101 33,86" />
<polygon fill="#49484d" fill-opacity="0.501961" points="137,30 130,41 97,40" />
<polygon fill="#39363c" fill-opacity="0.501961" points="134,131 122,142 131,117" />
<polygon fill="#4d4d5a" fill-opacity="0.501961" points="106,73 147,72 84,96" />
<polygon fill="#444451" fill-opacity="0.501961" points="190,103 185,84 210,90" />
<polygon fill="#333343" fill-opacity="0.501961" points="74,96 117,100 79,110" />
<polygon fill="#433f44" fill-opacity="0.501961" points="50,113 57,128 82,115" />
<polygon fill="#252428" fill-opacity="0.501961" points="85,36 48,28 79,-2" />
<polygon fill="#2b2b2e" fill-opacity="0.501961" points="112,-16 182,2 40,10" />
<polygon fill="#343032" fill-opacity="0.501961" points="220,126 193,120 198,114" />
<polygon fill="#54505f" fill-opacity="0.501961" points="86,57 68,69 98,69" />
<polygon fill="#3a3b3e" fill-opacity="0.501961" points="60,38 26,40 73,52" />
<polygon fill="#61616e" fill-opacity="0.501961" points="62,71 99,74 79,81" />
<polygon fill="#2a2b35" fill-opacity="0.501961" points="212,123 227,112 215,108" />
<polygon fill="#484549" fill-opacity="0.501961" points="91,118 113,112 86,109" />
<polygon fill="#595e5a" fill-opacity="0.501961" points="146,43 149,55 157,53" />
<polygon fill="#262526" fill-opacity="0.501961" points="-16,159 0,143 -1,104" />
<polygon fill="#6c6d75" fill-opacity="0.501961" points="103,62 98,55 109,45" />
<polygon fill="#2e2f3b" fill-opacity="0.501961" points="145,98 123,94 136,102" />
<polygon fill="#4b4f4c" fill-opacity="0.501961" points="15,53 13,70 48,53" />
<polygon fill="#696871" fill-opacity="0.501961" points="143,46 165,62 156,69" />
<polygon fill="#39373d" fill-opacity="0.501961" points="76,126 94,142 138,124" />
<polygon fill="#545b51" fill-opacity="0.501961" points="95,47 107,39 100,52" />
<polygon fill="#545256" fill-opacity="0.501961" points="255,69 234,58 253,52" />
<polygon fill="#40404e" fill-opacity="0.501961" points="93,93 65,105 51,92" />
<polygon fill="#515054" fill-opacity="0.501961" points="131,48 137,44 120,39" />
<polygon fill="#504e59" fill-opacity="0.501961" points="214,87 252,99 214,99" />
<polygon fill="#3b3c3e" fill-opacity="0.501961" points="1,110 -16,96 -1,59" />
<polygon fill="#84847d" fill-opacity="0.501961" points="84,110 85,114 83,115" />
<polygon fill="#353544" fill-opacity="0.501961" points="85,112 78,99 101,105" />
<polygon fill="#67666a" fill-opacity="0.501961" points="112,42 110,48 123,45" />
<polygon fill="#4d4c59" fill-opacity="0.501961" points="34,82 27,73 0,91" />
<polygon fill="#444944" fill-opacity="0.501961" points="93,57 63,53 78,50" />
<polygon fill="#4d5350" fill-opacity="0.501961" points="175,49 191,60 152,50" />
<polygon fill="#3e3a3f" fill-opacity="0.501961" points="218,121 226,134 228,119" />
<polygon fill="#3d3d40" fill-opacity="0.501961" points="22,43 30,56 43,37" />
<polygon fill="#3d3d51" fill-opacity="0.501961" points="150,99 179,108 130,108" />
<polygon fill="#40404b" fill-opacity="0.501961" points="34,76 51,79 32,110" />
<polygon fill="#55555e" fill-opacity="0.501961" points="15,69 41,55 61,71" />
<polygon fill="#242325" fill-opacity="0.501961" points="185,29 210,44 223,-9" />
<polygon fill="#2a262b" fill-opacity="0.501961" points="236,144 254,142 228,135" />
<polygon fill="#323341" fill-opacity="0.501961" points="254,106 248,100 254,120" />
<polygon fill="#262528" fill-opacity="0.501961" points="31,22 9,26 8,-2" />
<polygon fill="#565662" fill-opacity="0.501961" points="84,85 100,88 108,70" />
<polygon fill="#514f5a" fill-opacity="0.501961" points="69,92 52,82 56,65" />
<polygon fill="#434245" fill-opacity="0.501961" points="244,33 232,42 232,62" />
<polygon fill="#423f46" fill-opacity="0.501961" points="130,107 176,124 150,127" />
<polygon fill="#39353c" fill-opacity="0.501961" points="6,116 35,119 4,138" />
<polygon fill="#2d2e2d" fill-opacity="0.501961" points="255,43 271,82 255,98" />
<polygon fill="#2c292b" fill-opacity="0.501961" points="229,127 230,137 234,128" />
<polygon fill="#4a4f4c" fill-opacity="0.501961" points="190,52 180,58 204,58" />
<polygon fill="#323132" fill-opacity="0.501961" points="242,30 251,35 231,36" />
<polygon fill="#66646e" fill-opacity="0.501961" points="221,71 221,86 191,72" />
<polygon fill="#525654" fill-opacity="0.501961" points="229,69 194,57 212,70" />
<polygon fill="#4a4856" fill-opacity="0.501961" points="255,104 244,97 253,90" />
<polygon fill="#77756d" fill-opacity="0.501961" points="82,115 85,114 83,110" />
<polygon fill="#393a47" fill-opacity="0.501961" points="88,104 84,112 76,107" />
<polygon fill="#4b4b58" fill-opacity="0.501961" points="69,100 75,109 67,102" />
<polygon fill="#2b2a2c" fill-opacity="0.501961" points="205,52 234,24 222,22" />
<polygon fill="#3c413c" fill-opacity="0.501961" points="212,61 216,57 205,54" />
<polygon fill="#56535f" fill-opacity="0.501961" points="42,63 12,84 -1,70" />
<polygon fill="#7c7d7c" fill-opacity="0.501961" points="125,121 125,124 128,121" />
<polygon fill="#7b7b80" fill-opacity="0.501961" points="126,59 126,47 101,60" />
<polygon fill="#4b4c59" fill-opacity="0.501961" points="165,72 161,78 187,86" />
<polygon fill="#7d776d" fill-opacity="0.501961" points="131,115 129,113 130,111" />
<polygon fill="#403f43" fill-opacity="0.501961" points="111,34 135,31 151,42" />
<polygon fill="#444553" fill-opacity="0.501961" points="115,75 135,85 111,95" />
<polygon fill="#272627" fill-opacity="0.501961" points="253,11 228,29 253,31" />
<polygon fill="#454246" fill-opacity="0.501961" points="212,107 200,114 206,117" />
<polygon fill="#404644" fill-opacity="0.501961" points="184,52 158,46 180,44" />
<polygon fill="#3c393d" fill-opacity="0.501961" points="128,121 134,111 131,137" />
<polygon fill="#504f5a" fill-opacity="0.501961" points="16,80 34,86 33,80" />
<polygon fill="#4f505b" fill-opacity="0.501961" points="167,77 136,72 156,83" />
<polygon fill="#464751" fill-opacity="0.501961" points="193,96 190,85 187,111" />
<polygon fill="#2f2e32" fill-opacity="0.501961" points="9,14 17,16 3,0" />
<polygon fill="#5b5c6c" fill-opacity="0.501961" points="159,68 145,69 158,78" />
<polygon fill="#464a47" fill-opacity="0.501961" points="34,43 52,50 31,59" />
<polygon fill="#2e2d31" fill-opacity="0.501961" points="138,18 142,38 152,3" />
<polygon fill="#4b4f4a" fill-opacity="0.501961" points="62,52 82,53 73,61" />
<polygon fill="#414154" fill-opacity="0.501961" points="135,103 115,98 132,108" />
<polygon fill="#443c3f" fill-opacity="0.501961" points="135,109 129,112 129,110" />
<polygon fill="#131414" fill-opacity="0.501961" points="255,-2 270,42 256,33" />
<polygon fill="#393639" fill-opacity="0.501961" points="114,126 124,115 131,116" />
<polygon fill="#323135" fill-opacity="0.501961" points="95,21 97,38 109,23" />
<polygon fill="#393948" fill-opacity="0.501961" points="173,95 133,92 139,82" />
<polygon fill="#797880" fill-opacity="0.501961" points="136,67 156,60 136,57" />
<polygon fill="#302f31" fill-opacity="0.501961" points="215,54 174,38 207,41" />
<polygon fill="#585762" fill-opacity="0.501961" points="62,85 60,67 73,86" />
<polygon fill="#2b2b2f" fill-opacity="0.501961" points="220,2 242,9 246,-6" />
<polygon fill="#64646a" fill-opacity="0.501961" points="228,86 254,87 220,75" />
<polygon fill="#323134" fill-opacity="0.501961" points="61,6 47,-16 53,9" />
<polygon fill="#444146" fill-opacity="0.501961" points="127,126 91,112 116,107" />
<polygon fill="#444446" fill-opacity="0.501961" points="47,136 54,135 38,130" />
<polygon fill="#323134" fill-opacity="0.501961" points="129,12 111,4 127,27" />
<polygon fill="#191a1d" fill-opacity="0.501961" points="255,103 257,126 271,124" />
<polygon fill="#212020" fill-opacity="0.501961" points="1,52 -16,42 -1,9" />
<polygon fill="#383844" fill-opacity="0.501961" points="191,92 198,113 187,123" />
<polygon fill="#262429" fill-opacity="0.501961" points="169,29 157,4 146,35" />
<polygon fill="#393539" fill-opacity="0.501961" points="232,139 240,114 254,121" />
<polygon fill="#252529" fill-opacity="0.501961" points="108,18 108,10 83,11" />
<polygon fill="#3b3a3d" fill-opacity="0.501961" points="128,24 133,5 138,36" />
<polygon fill="#2b2b2e" fill-opacity="0.501961" points="181,12 198,-12 193,15" />
<polygon fill="#3e3c3f" fill-opacity="0.501961" points="76,115 88,119 76,111" />
<polygon fill="#5e5c68" fill-opacity="0.501961" points="164,62 176,77 207,64" />
<polygon fill="#61616e" fill-opacity="0.501961" points="114,61 117,67 94,64" />
<polygon fill="#343036" fill-opacity="0.501961" points="252,135 178,157 188,131" />
<polygon fill="#363b38" fill-opacity="0.501961" points="76,42 89,55 96,40" />
<polygon fill="#54535d" fill-opacity="0.501961" points="124,77 136,69 100,69" />
<polygon fill="#4a4952" fill-opacity="0.501961" points="55,81 32,69 53,70" />
<polygon fill="#39363a" fill-opacity="0.501961" points="166,134 204,133 205,119" />
<polygon fill="#5b605e" fill-opacity="0.501961" points="68,68 70,61 53,57" />
<polygon fill="#454448" fill-opacity="0.501961" points="227,64 221,57 236,57" />
<polygon fill="#313032" fill-opacity="0.501961" points="5,32 51,29 24,40" />
<polygon fill="#5c615c" fill-opacity="0.501961" points="223,77 253,76 226,69" />
<polygon fill="#1f1e20" fill-opacity="0.501961" points="-15,-4 18,-15 9,2" />
<polygon fill="#4e5152" fill-opacity="0.501961" points="110,41 104,36 97,45" />
<polygon fill="#3c3f40" fill-opacity="0.501961" points="40,41 66,56 61,41" />
<polygon fill="#606060" fill-opacity="0.501961" points="124,113 121,113 124,110" />
<polygon fill="#85848c" fill-opacity="0.501961" points="113,55 109,49 108,58" />
<polygon fill="#3b383f" fill-opacity="0.501961" points="158,131 170,138 198,114" />
<polygon fill="#30313f" fill-opacity="0.501961" points="225,107 237,117 207,110" />
<polygon fill="#6e6d74" fill-opacity="0.501961" points="127,55 135,68 125,68" />
<polygon fill="#767679" fill-opacity="0.501961" points="138,61 129,58 135,47" />
<polygon fill="#6c6c6e" fill-opacity="0.501961" points="116,51 120,46 130,54" />
<polygon fill="#3f3f4d" fill-opacity="0.501961" points="166,99 166,82 208,94" />
<polygon fill="#333138" fill-opacity="0.501961" points="46,145 94,132 65,131" />
<polygon fill="#322f35" fill-opacity="0.501961" points="173,142 111,158 99,140" />
<polygon fill="#454753" fill-opacity="0.501961" points="35,113 30,104 33,103" />
<polygon fill="#333340" fill-opacity="0.501961" points="102,109 95,95 117,100" />
<polygon fill="#393949" fill-opacity="0.501961" points="41,114 34,99 47,93" />
<polygon fill="#3e3b3f" fill-opacity="0.501961" points="121,110 119,117 123,113" />
<polygon fill="#414042" fill-opacity="0.501961" points="256,42 231,39 238,34" />
<polygon fill="#303136" fill-opacity="0.501961" points="149,-16 180,4 185,-16" />
<polygon fill="#333138" fill-opacity="0.501961" points="41,130 55,130 50,134" />
<polygon fill="#232226" fill-opacity="0.501961" points="42,-7 38,13 33,-16" />
<polygon fill="#222124" fill-opacity="0.501961" points="103,3 108,4 112,-13" />
<polygon fill="#414445" fill-opacity="0.501961" points="188,47 197,53 174,51" />
<polygon fill="#605d68" fill-opacity="0.501961" points="119,73 124,67 127,72" />
<polygon fill="#3c413e" fill-opacity="0.501961" points="81,41 82,55 88,56" />
<polygon fill="#262325" fill-opacity="0.501961" points="250,133 251,130 241,125" />
<polygon fill="#4e5251" fill-opacity="0.501961" points="3,65 24,66 38,56" />
<polygon fill="#383439" fill-opacity="0.501961" points="220,123 244,132 243,115" />
<polygon fill="#323034" fill-opacity="0.501961" points="244,125 253,116 224,125" />
<polygon fill="#6a6c6b" fill-opacity="0.501961" points="149,57 147,49 141,56" />
<polygon fill="#30323e" fill-opacity="0.501961" points="188,106 176,104 186,102" />
<polygon fill="#444945" fill-opacity="0.501961" points="98,41 95,53 92,42" />
<polygon fill="#3d3a40" fill-opacity="0.501961" points="106,126 119,130 125,119" />
<polygon fill="#555461" fill-opacity="0.501961" points="98,58 96,72 83,58" />
<polygon fill="#2c2f2e" fill-opacity="0.501961" points="66,32 79,42 78,51" />
<polygon fill="#373746" fill-opacity="0.501961" points="30,88 33,114 2,114" />
<polygon fill="#232123" fill-opacity="0.501961" points="250,138 257,143 243,157" />
<polygon fill="#444247" fill-opacity="0.501961" points="49,116 86,109 72,119" />
<polygon fill="#272429" fill-opacity="0.501961" points="246,135 239,139 237,145" />
<polygon fill="#3d4040" fill-opacity="0.501961" points="25,46 -3,61 10,47" />
<polygon fill="#252428" fill-opacity="0.501961" points="51,8 84,39 85,10" />
<polygon fill="#717371" fill-opacity="0.501961" points="107,51 121,50 106,44" />
<polygon fill="#7e7d82" fill-opacity="0.501961" points="125,53 114,52 125,61" />
<polygon fill="#3a383e" fill-opacity="0.501961" points="25,129 18,112 62,129" />
<polygon fill="#3c3a40" fill-opacity="0.501961" points="254,126 245,114 240,116" />
<polygon fill="#5c5b66" fill-opacity="0.501961" points="223,92 224,84 246,93" />
<polygon fill="#2d2e2d" fill-opacity="0.501961" points="248,37 263,41 243,28" />
<polygon fill="#424250" fill-opacity="0.501961" points="194,112 182,111 176,105" />
<polygon fill="#5d635e" fill-opacity="0.501961" points="108,43 100,44 98,54" />
<polygon fill="#48474a" fill-opacity="0.501961" points="236,40 236,52 246,39" />
<polygon fill="#38373c" fill-opacity="0.501961" points="205,106 191,118 195,122" />
<polygon fill="#322f34" fill-opacity="0.501961" points="49,29 68,40 46,38" />
<polygon fill="#404543" fill-opacity="0.501961" points="165,51 156,46 174,42" />
<polygon fill="#3b393e" fill-opacity="0.501961" points="237,117 217,121 232,124" />
<polygon fill="#282729" fill-opacity="0.501961" points="238,32 213,23 198,-1" />
<polygon fill="#2d2c37" fill-opacity="0.501961" points="234,115 215,116 226,120" />
<polygon fill="#3e3d4b" fill-opacity="0.501961" points="212,91 210,108 192,98" />
<polygon fill="#232226" fill-opacity="0.501961" points="162,19 180,26 184,2" />
<polygon fill="#565a58" fill-opacity="0.501961" points="150,53 141,44 167,54" />
<polygon fill="#656865" fill-opacity="0.501961" points="151,51 145,47 150,54" />
<polygon fill="#353544" fill-opacity="0.501961" points="61,109 72,106 61,114" />
<polygon fill="#3d3e4d" fill-opacity="0.501961" points="131,88 110,96 117,99" />
<polygon fill="#6d6d6e" fill-opacity="0.501961" points="80,118 82,118 79,120" />
<polygon fill="#51505b" fill-opacity="0.501961" points="3,87 -1,82 11,85" />
<polygon fill="#464a48" fill-opacity="0.501961" points="145,42 158,48 152,50" />
<polygon fill="#676671" fill-opacity="0.501961" points="170,61 150,70 162,56" />
<polygon fill="#3b3a3f" fill-opacity="0.501961" points="80,130 70,127 78,116" />
<polygon fill="#2a2a2b" fill-opacity="0.501961" points="208,37 188,35 216,53" />
<polygon fill="#595a5a" fill-opacity="0.501961" points="137,52 140,46 144,48" />
<polygon fill="#2e2d2f" fill-opacity="0.501961" points="-16,73 16,33 -16,45" />
<polygon fill="#50505d" fill-opacity="0.501961" points="68,86 93,88 81,81" />
<polygon fill="#2a2d2d" fill-opacity="0.501961" points="94,24 79,39 92,39" />
<polygon fill="#5a5962" fill-opacity="0.501961" points="24,63 23,74 31,65" />
<polygon fill="#3e3d42" fill-opacity="0.501961" points="120,24 117,35 99,37" />
<polygon fill="#201f22" fill-opacity="0.501961" points="78,2 86,-6 70,-16" />
<polygon fill="#5d5d62" fill-opacity="0.501961" points="114,42 122,48 123,40" />
<polygon fill="#313337" fill-opacity="0.501961" points="63,2 63,-9 73,2" />
<polygon fill="#474448" fill-opacity="0.501961" points="60,135 57,137 51,135" />
<polygon fill="#39353a" fill-opacity="0.501961" points="82,119 86,118 80,127" />
<polygon fill="#6e6e79" fill-opacity="0.501961" points="130,65 105,61 117,58" />
<polygon fill="#4a4f4d" fill-opacity="0.501961" points="63,56 45,56 56,50" />
<polygon fill="#444147" fill-opacity="0.501961" points="136,109 170,118 141,121" />
<polygon fill="#2e2d31" fill-opacity="0.501961" points="108,-16 102,9 89,9" />
<polygon fill="#272629" fill-opacity="0.501961" points="130,-4 125,7 149,-3" />
<polygon fill="#565757" fill-opacity="0.501961" points="255,74 254,59 236,59" />
<polygon fill="#454a48" fill-opacity="0.501961" points="204,53 217,65 211,65" />
<polygon fill="#49474c" fill-opacity="0.501961" points="90,110 99,112 85,115" />
<polygon fill="#2e2f31" fill-opacity="0.501961" points="182,42 163,40 159,33" />
<polygon fill="#585764" fill-opacity="0.501961" points="178,54 183,61 173,57" />
<polygon fill="#343238" fill-opacity="0.501961" points="20,130 75,159 65,139" />
<polygon fill="#4c5161" fill-opacity="0.501961" points="74,109 77,111 76,109" />
<polygon fill="#38363c" fill-opacity="0.501961" points="248,135 247,141 243,142" />
<polygon fill="#222125" fill-opacity="0.501961" points="256,-15 254,11 240,12" />
<polygon fill="#535357" fill-opacity="0.501961" points="132,51 132,45 125,40" />
<polygon fill="#212022" fill-opacity="0.501961" points="17,12 10,2 14,15" />
<polygon fill="#403c43" fill-opacity="0.501961" points="78,125 124,126 95,115" />
<polygon fill="#3d3d4c" fill-opacity="0.501961" points="160,85 144,96 138,92" />
<polygon fill="#42424f" fill-opacity="0.501961" points="29,89 53,94 49,79" />
<polygon fill="#3f3d46" fill-opacity="0.501961" points="37,76 47,82 38,84" />
<polygon fill="#323340" fill-opacity="0.501961" points="243,101 248,116 255,104" />
<polygon fill="#5e5d6a" fill-opacity="0.501961" points="195,83 183,67 212,84" />
<polygon fill="#2f2f31" fill-opacity="0.501961" points="140,26 151,10 146,3" />
<polygon fill="#3b3a45" fill-opacity="0.501961" points="30,101 -9,103 30,89" />
<polygon fill="#3a3b4c" fill-opacity="0.501961" points="183,113 148,110 179,103" />
<polygon fill="#313235" fill-opacity="0.501961" points="89,46 88,56 92,49" />
<polygon fill="#3b3a3c" fill-opacity="0.501961" points="225,33 235,38 225,43" />
<polygon fill="#413e42" fill-opacity="0.501961" points="216,121 220,123 220,118" />
<polygon fill="#3e4053" fill-opacity="0.501961" points="120,108 118,104 132,106" />
<polygon fill="#474954" fill-opacity="0.501961" points="88,96 97,93 77,88" />
<polygon fill="#393d3c" fill-opacity="0.501961" points="68,45 53,39 63,52" />
<polygon fill="#322f31" fill-opacity="0.501961" points="223,137 212,122 215,115" />
<polygon fill="#3f3f4c" fill-opacity="0.501961" points="132,84 167,82 168,92" />
<polygon fill="#3e3f4d" fill-opacity="0.501961" points="61,101 75,90 90,97" />
<polygon fill="#464751" fill-opacity="0.501961" points="160,81 147,83 135,76" />
<polygon fill="#3a383d" fill-opacity="0.501961" points="179,124 191,125 170,113" />
<polygon fill="#4d4a4f" fill-opacity="0.501961" points="117,121 121,117 118,117" />
<polygon fill="#444446" fill-opacity="0.501961" points="254,42 244,45 254,49" />
<polygon fill="#29272b" fill-opacity="0.501961" points="76,27 32,30 70,16" />
<polygon fill="#423e44" fill-opacity="0.501961" points="195,121 192,114 186,115" />
<polygon fill="#343339" fill-opacity="0.501961" points="7,136 42,126 25,139" />
<polygon fill="#39353c" fill-opacity="0.501961" points="99,131 84,126 90,151" />
<polygon fill="#27252a" fill-opacity="0.501961" points="141,20 167,30 152,15" />
<polygon fill="#39363a" fill-opacity="0.501961" points="219,126 197,121 182,132" />
<polygon fill="#4d514d" fill-opacity="0.501961" points="67,60 61,55 80,52" />
<polygon fill="#4c514f" fill-opacity="0.501961" points="-2,66 23,68 8,60" />
<polygon fill="#5c5a64" fill-opacity="0.501961" points="174,60 193,59 196,70" />
<polygon fill="#5c625c" fill-opacity="0.501961" points="252,78 245,83 233,77" />
<polygon fill="#2c2b2e" fill-opacity="0.501961" points="10,-6 20,16 33,-2" />
<polygon fill="#5b5965" fill-opacity="0.501961" points="63,64 66,74 78,62" />
<polygon fill="#45444f" fill-opacity="0.501961" points="1,88 14,89 2,94" />
<polygon fill="#232225" fill-opacity="0.501961" points="172,8 172,-6 167,9" />
<polygon fill="#53505c" fill-opacity="0.501961" points="244,97 252,93 246,88" />
<polygon fill="#3c3b3b" fill-opacity="0.501961" points="136,9 130,18 128,7" />
<polygon fill="#262529" fill-opacity="0.501961" points="224,23 181,32 212,36" />
<polygon fill="#524e5a" fill-opacity="0.501961" points="211,85 221,92 197,87" />
<polygon fill="#464853" fill-opacity="0.501961" points="225,100 214,105 209,91" />
<polygon fill="#6e6c78" fill-opacity="0.501961" points="154,67 162,56 154,58" />
<polygon fill="#313034" fill-opacity="0.501961" points="123,9 118,22 112,3" />
<polygon fill="#464549" fill-opacity="0.501961" points="131,34 140,44 122,35" />
<polygon fill="#4f4f58" fill-opacity="0.501961" points="188,102 190,99 188,93" />
<polygon fill="#4b4c56" fill-opacity="0.501961" points="29,74 21,77 38,87" />
</g>
</svg>