<svg xmlns="http://www.w3.org/2000/svg" version="1.1" width="1024" height="576">
<rect x="0" y="0" width="1024" height="576" fill="#62605f" />
<g transform="scale(4.000000) translate(0.5 0.5)">
<polygon fill="#c1b7a4" fill-opacity="0.501961" points="251,120 232,45 65,75" />
<polygon fill="#1e1a22" fill-opacity="0.501961" points="199,56 271,0 -5,-2" />
<polygon fill="#9ca7af" fill-opacity="0.501961" points="46,68 11,-9 -16,112" />
<polygon fill="#9d9ea0" fill-opacity="0.501961" points="5,110 146,149 -16,158" />
<polygon fill="#27272c" fill-opacity="0.501961" points="245,159 99,119 271,114" />
<polygon fill="#383233" fill-opacity="0.501961" points="173,-16 101,150 122,-16" />
<polygon fill="#0e1626" fill-opacity="0.501961" points="267,137 222,26 257,41" />
<polygon fill="#faecd8" fill-opacity="0.501961" points="151,18 169,12 182,27" />
<polygon fill="#a59c8a" fill-opacity="0.501961" points="187,126 231,52 121,50" />
<polygon fill="#151318" fill-opacity="0.501961" points="107,35 77,22 40,42" />
<polygon fill="#9b9584" fill-opacity="0.501961" points="90,49 61,80 105,98" />
<polygon fill="#2a2828" fill-opacity="0.501961" points="190,153 217,127 207,80" />
<polygon fill="#2d2d2d" fill-opacity="0.501961" points="36,80 33,137 61,61" />
<polygon fill="#aaa8a9" fill-opacity="0.501961" points="228,120 249,99 206,33" />
<polygon fill="#5b5959" fill-opacity="0.501961" points="111,20 9,22 -10,-10" />
<polygon fill="#18171f" fill-opacity="0.501961" points="214,-16 124,7 270,10" />
<polygon fill="#201e1f" fill-opacity="0.501961" points="98,70 149,41 121,33" />
<polygon fill="#181c21" fill-opacity="0.501961" points="264,30 271,140 237,159" />
<polygon fill="#403d36" fill-opacity="0.501961" points="162,81 176,76 152,112" />
<polygon fill="#b4b5b7" fill-opacity="0.501961" points="4,123 -10,154 50,147" />
<polygon fill="#c8c1b1" fill-opacity="0.501961" points="206,58 170,81 159,112" />
<polygon fill="#908678" fill-opacity="0.501961" points="209,61 109,75 133,45" />
<polygon fill="#45413c" fill-opacity="0.501961" points="189,79 215,90 202,70" />
<polygon fill="#6e7071" fill-opacity="0.501961" points="55,159 186,159 -16,84" />
<polygon fill="#4a4a4b" fill-opacity="0.501961" points="195,154 29,98 108,94" />
<polygon fill="#9b8f82" fill-opacity="0.501961" points="154,10 153,23 181,27" />
<polygon fill="#c9b682" fill-opacity="0.501961" points="81,11 66,16 88,19" />
<polygon fill="#06090c" fill-opacity="0.501961" points="211,29 245,49 215,42" />
<polygon fill="#beb6a1" fill-opacity="0.501961" points="180,111 197,77 209,95" />
<polygon fill="#8c7774" fill-opacity="0.501961" points="122,9 103,10 120,27" />
<polygon fill="#39352d" fill-opacity="0.501961" points="187,80 178,104 187,100" />
<polygon fill="#92989d" fill-opacity="0.501961" points="41,51 -16,69 35,17" />
<polygon fill="#463431" fill-opacity="0.501961" points="229,63 215,77 229,74" />
<polygon fill="#3f3e40" fill-opacity="0.501961" points="86,117 133,58 121,112" />
<polygon fill="#afb1b2" fill-opacity="0.501961" points="70,65 71,96 86,61" />
<polygon fill="#beb5ab" fill-opacity="0.501961" points="171,90 201,49 233,49" />
<polygon fill="#1e1c24" fill-opacity="0.501961" points="264,20 227,27 264,-16" />
<polygon fill="#cbcfd8" fill-opacity="0.501961" points="239,70 214,87 242,84" />
<polygon fill="#aaafb1" fill-opacity="0.501961" points="245,121 229,116 247,91" />
<polygon fill="#38352e" fill-opacity="0.501961" points="136,95 146,78 146,93" />
<polygon fill="#887c6f" fill-opacity="0.501961" points="164,45 144,26 159,66" />
<polygon fill="#46423f" fill-opacity="0.501961" points="57,110 62,8 26,110" />
<polygon fill="#232229" fill-opacity="0.501961" points="167,-16 60,2 203,16" />
<polygon fill="#43464e" fill-opacity="0.501961" points="235,85 218,93 254,89" />
<polygon fill="#302d2c" fill-opacity="0.501961" points="99,56 111,59 91,83" />
<polygon fill="#8d8c82" fill-opacity="0.501961" points="61,76 58,54 74,36" />
<polygon fill="#c8c1b0" fill-opacity="0.501961" points="240,99 211,109 214,90" />
<polygon fill="#b4ab94" fill-opacity="0.501961" points="143,114 145,90 165,79" />
<polygon fill="#42485a" fill-opacity="0.501961" points="161,28 225,5 237,31" />
<polygon fill="#9e9378" fill-opacity="0.501961" points="86,45 119,49 108,35" />
<polygon fill="#323132" fill-opacity="0.501961" points="187,128 200,105 256,129" />
<polygon fill="#b3ab94" fill-opacity="0.501961" points="131,79 154,67 125,110" />
<polygon fill="#322f2a" fill-opacity="0.501961" points="153,73 161,80 169,79" />
<polygon fill="#72747d" fill-opacity="0.501961" points="211,159 229,117 190,159" />
<polygon fill="#80736a" fill-opacity="0.501961" points="185,63 169,68 188,43" />
<polygon fill="#989079" fill-opacity="0.501961" points="162,96 159,121 182,98" />
<polygon fill="#282129" fill-opacity="0.501961" points="98,-3 168,41 128,-16" />
<polygon fill="#6e695b" fill-opacity="0.501961" points="85,66 102,113 79,90" />
<polygon fill="#868b90" fill-opacity="0.501961" points="15,95 49,68 -16,-7" />
<polygon fill="#cfc7b5" fill-opacity="0.501961" points="161,14 153,20 183,21" />
<polygon fill="#c0baa9" fill-opacity="0.501961" points="149,67 170,65 132,86" />
<polygon fill="#46403a" fill-opacity="0.501961" points="196,81 208,69 180,85" />
<polygon fill="#515252" fill-opacity="0.501961" points="68,80 27,125 50,133" />
<polygon fill="#71757a" fill-opacity="0.501961" points="15,119 -16,114 54,37" />
<polygon fill="#92897b" fill-opacity="0.501961" points="114,70 145,72 165,42" />
<polygon fill="#474543" fill-opacity="0.501961" points="184,98 161,144 150,135" />
<polygon fill="#4f6284" fill-opacity="0.501961" points="232,29 252,46 268,19" />
<polygon fill="#a9976f" fill-opacity="0.501961" points="84,12 65,16 64,26" />
<polygon fill="#3f363e" fill-opacity="0.501961" points="165,20 154,45 199,34" />
<polygon fill="#1e1a20" fill-opacity="0.501961" points="177,52 163,48 187,36" />
<polygon fill="#2d2c2f" fill-opacity="0.501961" points="201,2 198,53 168,2" />
<polygon fill="#1a1a1c" fill-opacity="0.501961" points="224,112 213,113 232,122" />
<polygon fill="#555b6c" fill-opacity="0.501961" points="211,11 178,29 240,15" />
<polygon fill="#363643" fill-opacity="0.501961" points="90,52 84,-16 102,20" />
<polygon fill="#d2d2d2" fill-opacity="0.501961" points="211,82 215,75 225,89" />
<polygon fill="#949391" fill-opacity="0.501961" points="77,36 70,39 86,49" />
<polygon fill="#35363b" fill-opacity="0.501961" points="110,73 131,75 129,90" />
<polygon fill="#a59e93" fill-opacity="0.501961" points="236,49 205,48 235,71" />
<polygon fill="#3b3c42" fill-opacity="0.501961" points="-16,6 54,-15 73,13" />
<polygon fill="#303032" fill-opacity="0.501961" points="44,70 59,98 29,89" />
<polygon fill="#554945" fill-opacity="0.501961" points="148,62 124,67 137,57" />
<polygon fill="#584d40" fill-opacity="0.501961" points="97,51 71,46 62,64" />
<polygon fill="#948a75" fill-opacity="0.501961" points="85,61 59,55 109,53" />
<polygon fill="#b4b6bc" fill-opacity="0.501961" points="229,64 238,68 231,94" />
<polygon fill="#2a2728" fill-opacity="0.501961" points="122,51 112,19 149,46" />
<polygon fill="#1a1a1c" fill-opacity="0.501961" points="235,39 226,32 207,46" />
<polygon fill="#2d2d33" fill-opacity="0.501961" points="113,69 91,63 130,48" />
<polygon fill="#212124" fill-opacity="0.501961" points="237,120 216,138 271,120" />
<polygon fill="#613f3e" fill-opacity="0.501961" points="220,79 231,73 224,80" />
<polygon fill="#a09780" fill-opacity="0.501961" points="111,75 100,68 92,107" />
<polygon fill="#878787" fill-opacity="0.501961" points="94,123 26,159 94,159" />
<polygon fill="#535252" fill-opacity="0.501961" points="151,107 59,99 159,151" />
<polygon fill="#4e3f43" fill-opacity="0.501961" points="134,47 162,3 126,32" />
<polygon fill="#423e39" fill-opacity="0.501961" points="132,76 138,67 145,68" />
<polygon fill="#a59f8e" fill-opacity="0.501961" points="155,56 159,46 124,55" />
<polygon fill="#433c39" fill-opacity="0.501961" points="167,61 159,62 154,55" />
<polygon fill="#d6ccb6" fill-opacity="0.501961" points="157,13 160,26 154,20" />
<polygon fill="#49453f" fill-opacity="0.501961" points="143,79 137,102 150,83" />
<polygon fill="#433f39" fill-opacity="0.501961" points="206,76 211,64 195,79" />
<polygon fill="#312f2b" fill-opacity="0.501961" points="61,49 50,69 51,47" />
<polygon fill="#5a5562" fill-opacity="0.501961" points="79,25 98,29 119,6" />
<polygon fill="#958c7a" fill-opacity="0.501961" points="145,115 138,107 151,82" />
<polygon fill="#47423b" fill-opacity="0.501961" points="212,110 211,89 191,126" />
<polygon fill="#bcb4a7" fill-opacity="0.501961" points="208,87 209,71 226,62" />
<polygon fill="#4f4e57" fill-opacity="0.501961" points="230,159 241,149 224,107" />
<polygon fill="#35373f" fill-opacity="0.501961" points="271,48 232,44 253,112" />
<polygon fill="#534645" fill-opacity="0.501961" points="56,17 66,27 34,56" />
<polygon fill="#b8af9b" fill-opacity="0.501961" points="212,40 204,34 208,43" />
<polygon fill="#b0a996" fill-opacity="0.501961" points="187,116 188,83 205,78" />
<polygon fill="#4d4a44" fill-opacity="0.501961" points="241,54 221,68 247,60" />
<polygon fill="#75777e" fill-opacity="0.501961" points="-16,5 57,25 23,30" />
<polygon fill="#847b70" fill-opacity="0.501961" points="167,68 195,62 186,46" />
<polygon fill="#191a1c" fill-opacity="0.501961" points="88,40 89,29 101,37" />
<polygon fill="#414040" fill-opacity="0.501961" points="126,95 104,88 126,66" />
<polygon fill="#b9af9a" fill-opacity="0.501961" points="112,71 137,54 125,68" />
<polygon fill="#767060" fill-opacity="0.501961" points="65,61 52,79 75,101" />
<polygon fill="#251d15" fill-opacity="0.501961" points="58,32 65,42 80,25" />
<polygon fill="#4a4640" fill-opacity="0.501961" points="156,103 163,86 171,86" />
<polygon fill="#303339" fill-opacity="0.501961" points="226,30 235,7 252,75" />
<polygon fill="#29272d" fill-opacity="0.501961" points="96,-12 39,-16 65,16" />
<polygon fill="#2e2b31" fill-opacity="0.501961" points="213,-15 168,13 196,25" />
<polygon fill="#54555a" fill-opacity="0.501961" points="-13,9 2,-16 63,21" />
<polygon fill="#b8bbbe" fill-opacity="0.501961" points="244,99 235,108 229,88" />
<polygon fill="#252626" fill-opacity="0.501961" points="187,44 208,23 195,54" />
<polygon fill="#4f5152" fill-opacity="0.501961" points="83,88 83,74 78,86" />
<polygon fill="#1f1d16" fill-opacity="0.501961" points="106,34 105,18 114,28" />
<polygon fill="#928877" fill-opacity="0.501961" points="114,31 102,35 114,50" />
<polygon fill="#11151a" fill-opacity="0.501961" points="256,75 271,59 255,8" />
<polygon fill="#877f6c" fill-opacity="0.501961" points="186,99 174,117 185,125" />
<polygon fill="#807760" fill-opacity="0.501961" points="162,28 157,20 170,19" />
<polygon fill="#939393" fill-opacity="0.501961" points="40,159 2,119 83,159" />
<polygon fill="#1f1c23" fill-opacity="0.501961" points="219,10 268,1 201,-16" />
<polygon fill="#1d1e24" fill-opacity="0.501961" points="242,91 248,53 251,73" />
<polygon fill="#71819f" fill-opacity="0.501961" points="257,33 238,27 252,23" />
<polygon fill="#b9b19f" fill-opacity="0.501961" points="165,78 166,67 187,68" />
<polygon fill="#3d3b32" fill-opacity="0.501961" points="66,68 80,58 64,61" />
<polygon fill="#5a5961" fill-opacity="0.501961" points="270,151 217,133 219,154" />
<polygon fill="#3f3535" fill-opacity="0.501961" points="179,62 170,66 177,58" />
<polygon fill="#8f9498" fill-opacity="0.501961" points="1,20 41,64 3,76" />
<polygon fill="#a6a090" fill-opacity="0.501961" points="184,54 169,64 160,52" />
<polygon fill="#353234" fill-opacity="0.501961" points="73,6 108,26 84,-9" />
<polygon fill="#ada598" fill-opacity="0.501961" points="228,60 197,53 218,45" />
<polygon fill="#bbb5a3" fill-opacity="0.501961" points="162,87 147,93 154,73" />
<polygon fill="#827b6a" fill-opacity="0.501961" points="123,101 125,116 139,91" />
<polygon fill="#4e4941" fill-opacity="0.501961" points="166,78 177,74 178,79" />
<polygon fill="#898273" fill-opacity="0.501961" points="169,93 165,121 154,113" />
<polygon fill="#776663" fill-opacity="0.501961" points="125,20 99,14 111,5" />
<polygon fill="#323035" fill-opacity="0.501961" points="100,60 121,65 127,44" />
<polygon fill="#c8c8c9" fill-opacity="0.501961" points="223,91 215,81 233,79" />
<polygon fill="#b7ae9d" fill-opacity="0.501961" points="150,62 140,62 132,72" />
<polygon fill="#b5ad9a" fill-opacity="0.501961" points="164,99 173,79 183,96" />
<polygon fill="#a39d8d" fill-opacity="0.501961" points="186,47 180,55 186,73" />
<polygon fill="#786e5d" fill-opacity="0.501961" points="107,38 99,40 100,24" />
<polygon fill="#4b4440" fill-opacity="0.501961" points="216,86 218,90 203,88" />
<polygon fill="#6b6c6c" fill-opacity="0.501961" points="51,46 50,28 59,49" />
<polygon fill="#242528" fill-opacity="0.501961" points="263,86 262,157 246,114" />
<polygon fill="#878988" fill-opacity="0.501961" points="71,74 74,98 64,97" />
<polygon fill="#3c3c3c" fill-opacity="0.501961" points="72,102 76,90 92,107" />
<polygon fill="#514b44" fill-opacity="0.501961" points="190,78 184,97 182,85" />
<polygon fill="#767676" fill-opacity="0.501961" points="68,123 128,141 79,144" />
<polygon fill="#626163" fill-opacity="0.501961" points="90,112 59,137 62,107" />
<polygon fill="#5b647b" fill-opacity="0.501961" points="233,21 206,13 221,10" />
<polygon fill="#c7bfb3" fill-opacity="0.501961" points="186,69 202,70 167,85" />
<polygon fill="#3b3432" fill-opacity="0.501961" points="159,53 153,62 160,58" />
<polygon fill="#383325" fill-opacity="0.501961" points="93,52 108,51 105,47" />
<polygon fill="#434143" fill-opacity="0.501961" points="110,110 205,129 203,159" />
<polygon fill="#79715d" fill-opacity="0.501961" points="78,55 97,43 87,39" />
<polygon fill="#5b5244" fill-opacity="0.501961" points="225,106 219,102 224,108" />
<polygon fill="#191615" fill-opacity="0.501961" points="141,48 150,45 144,39" />
<polygon fill="#b4ad9b" fill-opacity="0.501961" points="199,105 188,82 209,91" />
<polygon fill="#3d425b" fill-opacity="0.501961" points="98,26 79,16 86,34" />
<polygon fill="#aaa294" fill-opacity="0.501961" points="234,52 205,61 235,60" />
<polygon fill="#655c4f" fill-opacity="0.501961" points="220,90 228,90 231,99" />
<polygon fill="#2a2a30" fill-opacity="0.501961" points="112,28 152,20 158,-5" />
<polygon fill="#373538" fill-opacity="0.501961" points="50,102 62,97 66,84" />
<polygon fill="#313239" fill-opacity="0.501961" points="82,50 60,53 72,47" />
<polygon fill="#7a7466" fill-opacity="0.501961" points="95,106 104,88 80,90" />
<polygon fill="#686868" fill-opacity="0.501961" points="21,100 39,137 56,120" />
<polygon fill="#b7b1a6" fill-opacity="0.501961" points="205,73 212,72 213,91" />
<polygon fill="#383a3e" fill-opacity="0.501961" points="195,20 231,31 168,45" />
<polygon fill="#1a1d1c" fill-opacity="0.501961" points="121,28 114,43 132,48" />
<polygon fill="#8c8b8b" fill-opacity="0.501961" points="89,42 71,38 62,46" />
<polygon fill="#71736d" fill-opacity="0.501961" points="50,66 48,74 32,52" />
<polygon fill="#726b5b" fill-opacity="0.501961" points="66,62 49,91 60,91" />
<polygon fill="#8d8e91" fill-opacity="0.501961" points="87,147 97,121 87,130" />
<polygon fill="#c5bdb0" fill-opacity="0.501961" points="234,97 215,93 212,100" />
<polygon fill="#a8a18b" fill-opacity="0.501961" points="111,68 108,83 98,76" />
<polygon fill="#7f7869" fill-opacity="0.501961" points="103,55 111,40 122,46" />
<polygon fill="#adadaf" fill-opacity="0.501961" points="243,88 229,59 231,84" />
<polygon fill="#f3ebdc" fill-opacity="0.501961" points="170,23 175,19 176,22" />
<polygon fill="#4c483e" fill-opacity="0.501961" points="92,81 90,90 96,79" />
<polygon fill="#9c927c" fill-opacity="0.501961" points="103,54 85,65 86,56" />
<polygon fill="#cac3af" fill-opacity="0.501961" points="133,67 133,71 129,72" />
<polygon fill="#232323" fill-opacity="0.501961" points="241,125 220,132 229,136" />
<polygon fill="#252529" fill-opacity="0.501961" points="202,77 206,89 211,90" />
<polygon fill="#594a67" fill-opacity="0.501961" points="183,25 173,37 171,24" />
<polygon fill="#999284" fill-opacity="0.501961" points="158,44 140,56 156,63" />
<polygon fill="#b3ac9b" fill-opacity="0.501961" points="174,70 154,70 160,61" />
<polygon fill="#5a5048" fill-opacity="0.501961" points="227,71 227,62 217,77" />
<polygon fill="#4e4a43" fill-opacity="0.501961" points="159,75 167,89 168,79" />
<polygon fill="#312e33" fill-opacity="0.501961" points="216,3 238,22 271,23" />
<polygon fill="#918b7b" fill-opacity="0.501961" points="122,54 137,47 143,51" />
<polygon fill="#4f4046" fill-opacity="0.501961" points="151,28 135,40 115,21" />
<polygon fill="#808488" fill-opacity="0.501961" points="-6,21 25,20 47,53" />
<polygon fill="#545260" fill-opacity="0.501961" points="239,53 245,62 241,76" />
<polygon fill="#726a5c" fill-opacity="0.501961" points="85,69 87,35 76,56" />
<polygon fill="#403e42" fill-opacity="0.501961" points="153,2 187,6 159,12" />
<polygon fill="#b0b1b2" fill-opacity="0.501961" points="83,65 74,66 80,79" />
<polygon fill="#867c70" fill-opacity="0.501961" points="187,42 182,47 187,59" />
<polygon fill="#373532" fill-opacity="0.501961" points="204,74 207,81 205,87" />
<polygon fill="#88857c" fill-opacity="0.501961" points="63,48 59,60 69,80" />
<polygon fill="#393e40" fill-opacity="0.501961" points="43,47 50,36 41,38" />
<polygon fill="#28252b" fill-opacity="0.501961" points="190,22 207,10 176,21" />
<polygon fill="#46433d" fill-opacity="0.501961" points="132,110 136,98 140,121" />
<polygon fill="#948b77" fill-opacity="0.501961" points="82,97 90,59 97,70" />
<polygon fill="#4c4a49" fill-opacity="0.501961" points="178,106 162,121 163,156" />
<polygon fill="#5d5d60" fill-opacity="0.501961" points="79,111 101,131 141,133" />
<polygon fill="#333232" fill-opacity="0.501961" points="84,34 56,44 79,18" />
<polygon fill="#414043" fill-opacity="0.501961" points="196,9 212,11 193,-11" />
<polygon fill="#3c424c" fill-opacity="0.501961" points="247,108 256,90 251,62" />
<polygon fill="#9c9182" fill-opacity="0.501961" points="156,35 151,41 154,34" />
<polygon fill="#969598" fill-opacity="0.501961" points="78,159 53,159 68,132" />
<polygon fill="#9d9a92" fill-opacity="0.501961" points="218,88 244,117 230,118" />
<polygon fill="#968c78" fill-opacity="0.501961" points="187,103 201,102 185,121" />
<polygon fill="#343338" fill-opacity="0.501961" points="102,58 127,49 95,72" />
<polygon fill="#e9e4d5" fill-opacity="0.501961" points="168,14 177,19 164,17" />
<polygon fill="#6f675f" fill-opacity="0.501961" points="132,49 132,36 138,50" />
<polygon fill="#747581" fill-opacity="0.501961" points="219,131 229,124 225,120" />
<polygon fill="#beb9a3" fill-opacity="0.501961" points="131,74 131,67 129,67" />
<polygon fill="#7b7b79" fill-opacity="0.501961" points="-1,109 31,113 38,138" />
<polygon fill="#5d504b" fill-opacity="0.501961" points="97,16 114,17 114,24" />
<polygon fill="#615a51" fill-opacity="0.501961" points="155,73 162,73 166,87" />
<polygon fill="#2b2a2b" fill-opacity="0.501961" points="51,90 51,74 41,75" />
<polygon fill="#5b4a46" fill-opacity="0.501961" points="174,62 183,63 171,66" />
<polygon fill="#5c5f60" fill-opacity="0.501961" points="0,55 -16,57 0,111" />
<polygon fill="#523734" fill-opacity="0.501961" points="62,24 49,28 59,37" />
<polygon fill="#6a6458" fill-opacity="0.501961" points="32,60 46,43 47,57" />
<polygon fill="#232429" fill-opacity="0.501961" points="204,25 224,48 231,38" />
<polygon fill="#938b79" fill-opacity="0.501961" points="96,79 90,95 107,86" />
<polygon fill="#4f433f" fill-opacity="0.501961" points="93,51 88,46 80,57" />
<polygon fill="#8d9195" fill-opacity="0.501961" points="63,55 62,60 71,51" />
<polygon fill="#938782" fill-opacity="0.501961" points="153,38 153,43 149,40" />
<polygon fill="#ababac" fill-opacity="0.501961" points="29,143 2,155 1,134" />
<polygon fill="#47443f" fill-opacity="0.501961" points="142,126 153,118 154,101" />
<polygon fill="#514f48" fill-opacity="0.501961" points="115,76 93,108 105,116" />
<polygon fill="#202025" fill-opacity="0.501961" points="121,-5 125,25 134,-1" />
<polygon fill="#454445" fill-opacity="0.501961" points="30,89 74,105 56,90" />
<polygon fill="#a19886" fill-opacity="0.501961" points="181,109 199,110 186,98" />
<polygon fill="#918876" fill-opacity="0.501961" points="80,64 83,50 94,68" />
<polygon fill="#726d61" fill-opacity="0.501961" points="154,116 175,109 160,121" />
<polygon fill="#897570" fill-opacity="0.501961" points="229,71 211,79 226,77" />
<polygon fill="#bfb7a7" fill-opacity="0.501961" points="220,111 212,107 216,91" />
<polygon fill="#292928" fill-opacity="0.501961" points="203,38 205,47 182,53" />
<polygon fill="#2b252a" fill-opacity="0.501961" points="159,30 184,51 166,48" />
<polygon fill="#746c60" fill-opacity="0.501961" points="150,58 155,59 149,50" />
<polygon fill="#302f32" fill-opacity="0.501961" points="210,110 230,119 178,136" />
<polygon fill="#696b6e" fill-opacity="0.501961" points="48,32 45,17 9,10" />
<polygon fill="#b5af9e" fill-opacity="0.501961" points="204,90 190,82 203,81" />
<polygon fill="#585247" fill-opacity="0.501961" points="188,122 212,88 211,104" />
<polygon fill="#58544d" fill-opacity="0.501961" points="151,78 139,89 140,101" />
<polygon fill="#2e2a24" fill-opacity="0.501961" points="106,24 101,37 106,32" />
<polygon fill="#444244" fill-opacity="0.501961" points="47,10 51,23 74,9" />
<polygon fill="#242528" fill-opacity="0.501961" points="115,47 120,26 128,35" />
<polygon fill="#58524a" fill-opacity="0.501961" points="199,74 210,64 209,71" />
<polygon fill="#3d3b36" fill-opacity="0.501961" points="140,57 138,62 145,61" />
<polygon fill="#494e55" fill-opacity="0.501961" points="240,88 235,90 231,85" />
<polygon fill="#b2ab9b" fill-opacity="0.501961" points="151,95 157,80 163,83" />
<polygon fill="#1f1f24" fill-opacity="0.501961" points="121,-2 86,10 111,-16" />
<polygon fill="#534f48" fill-opacity="0.501961" points="166,93 152,107 157,94" />
<polygon fill="#4c5366" fill-opacity="0.501961" points="230,15 202,15 233,26" />
<polygon fill="#a9a18e" fill-opacity="0.501961" points="123,67 113,76 117,66" />
<polygon fill="#d4cdc1" fill-opacity="0.501961" points="181,83 173,84 185,73" />
<polygon fill="#39393d" fill-opacity="0.501961" points="116,90 130,85 119,110" />
<polygon fill="#7d766c" fill-opacity="0.501961" points="189,59 189,63 201,60" />
<polygon fill="#a9a196" fill-opacity="0.501961" points="236,59 223,45 223,54" />
<polygon fill="#c1b8a9" fill-opacity="0.501961" points="224,102 209,90 231,98" />
<polygon fill="#6e7277" fill-opacity="0.501961" points="-10,100 51,63 -8,126" />
<polygon fill="#a09a8a" fill-opacity="0.501961" points="192,58 182,76 182,56" />
<polygon fill="#b7b19d" fill-opacity="0.501961" points="182,87 181,97 175,92" />
<polygon fill="#282729" fill-opacity="0.501961" points="134,48 119,43 125,52" />
<polygon fill="#ada897" fill-opacity="0.501961" points="142,71 133,82 152,78" />
<polygon fill="#585249" fill-opacity="0.501961" points="204,79 185,81 195,75" />
<polygon fill="#49494c" fill-opacity="0.501961" points="208,21 182,24 188,35" />
<polygon fill="#aba28f" fill-opacity="0.501961" points="214,111 210,107 223,109" />
<polygon fill="#403f41" fill-opacity="0.501961" points="252,138 245,156 234,136" />
<polygon fill="#302b31" fill-opacity="0.501961" points="139,-16 158,34 128,8" />
<polygon fill="#9e9785" fill-opacity="0.501961" points="162,46 153,45 166,53" />
<polygon fill="#696257" fill-opacity="0.501961" points="207,94 211,84 215,85" />
<polygon fill="#958e7d" fill-opacity="0.501961" points="74,19 74,14 62,20" />
<polygon fill="#705743" fill-opacity="0.501961" points="75,22 58,32 58,24" />
<polygon fill="#929293" fill-opacity="0.501961" points="1,129 1,115 33,137" />
<polygon fill="#928a7a" fill-opacity="0.501961" points="108,39 109,54 115,43" />
<polygon fill="#292a27" fill-opacity="0.501961" points="127,75 124,69 119,74" />
<polygon fill="#686869" fill-opacity="0.501961" points="89,136 87,114 65,127" />
<polygon fill="#c0c1c3" fill-opacity="0.501961" points="234,76 232,85 218,91" />
<polygon fill="#3f3f3e" fill-opacity="0.501961" points="91,16 70,25 81,26" />
<polygon fill="#b4b6bd" fill-opacity="0.501961" points="227,69 238,71 236,66" />
<polygon fill="#49474a" fill-opacity="0.501961" points="112,74 125,77 113,124" />
<polygon fill="#1d1e1e" fill-opacity="0.501961" points="216,39 214,42 208,32" />
<polygon fill="#464f5e" fill-opacity="0.501961" points="238,33 236,48 234,33" />
<polygon fill="#87878c" fill-opacity="0.501961" points="112,151 118,159 124,133" />
<polygon fill="#939598" fill-opacity="0.501961" points="72,41 64,46 62,52" />
<polygon fill="#9fa0a2" fill-opacity="0.501961" points="75,46 75,43 79,41" />
<polygon fill="#3e3b3f" fill-opacity="0.501961" points="254,15 240,20 229,7" />
<polygon fill="#847d6f" fill-opacity="0.501961" points="178,52 193,51 196,57" />
<polygon fill="#818689" fill-opacity="0.501961" points="-13,83 48,71 0,62" />
<polygon fill="#c8bfb1" fill-opacity="0.501961" points="166,14 172,21 158,14" />
<polygon fill="#2f302f" fill-opacity="0.501961" points="209,45 207,49 198,38" />
<polygon fill="#403c34" fill-opacity="0.501961" points="64,60 70,67 67,58" />
<polygon fill="#b5ada1" fill-opacity="0.501961" points="223,53 212,85 210,71" />
<polygon fill="#3b3c48" fill-opacity="0.501961" points="251,86 244,87 242,78" />
<polygon fill="#928a7c" fill-opacity="0.501961" points="185,52 164,51 189,63" />
<polygon fill="#9e9f9f" fill-opacity="0.501961" points="227,116 246,93 239,120" />
<polygon fill="#423c37" fill-opacity="0.501961" points="156,39 166,24 165,45" />
<polygon fill="#dbd5c4" fill-opacity="0.501961" points="170,15 175,21 162,14" />
<polygon fill="#151616" fill-opacity="0.501961" points="255,73 256,159 271,114" />
<polygon fill="#55504c" fill-opacity="0.501961" points="225,72 228,59 229,65" />
<polygon fill="#645f54" fill-opacity="0.501961" points="77,88 86,99 91,87" />
<polygon fill="#636060" fill-opacity="0.501961" points="52,35 50,45 60,39" />
<polygon fill="#a9a195" fill-opacity="0.501961" points="188,57 225,67 232,47" />
<polygon fill="#a29b89" fill-opacity="0.501961" points="180,99 170,88 156,108" />
<polygon fill="#867e72" fill-opacity="0.501961" points="209,36 204,39 206,31" />
<polygon fill="#8e8d90" fill-opacity="0.501961" points="107,134 96,159 106,154" />
<polygon fill="#606260" fill-opacity="0.501961" points="36,99 28,87 20,116" />
<polygon fill="#777576" fill-opacity="0.501961" points="36,159 56,118 67,159" />
<polygon fill="#aeafb0" fill-opacity="0.501961" points="231,92 239,112 248,92" />
<polygon fill="#999382" fill-opacity="0.501961" points="126,51 127,66 136,53" />
<polygon fill="#53515b" fill-opacity="0.501961" points="213,154 218,139 248,131" />
<polygon fill="#857d6f" fill-opacity="0.501961" points="110,34 97,49 90,45" />
<polygon fill="#7b7569" fill-opacity="0.501961" points="144,116 143,101 151,103" />
<polygon fill="#887650" fill-opacity="0.501961" points="72,25 62,23 70,13" />
<polygon fill="#7f7469" fill-opacity="0.501961" points="142,70 149,62 160,62" />
<polygon fill="#aca695" fill-opacity="0.501961" points="155,57 151,59 150,64" />
<polygon fill="#3c3b3c" fill-opacity="0.501961" points="210,112 194,140 173,136" />
<polygon fill="#1e1c21" fill-opacity="0.501961" points="194,5 186,21 188,-16" />
<polygon fill="#7e7f7a" fill-opacity="0.501961" points="72,89 70,99 79,82" />
<polygon fill="#b0a092" fill-opacity="0.501961" points="137,60 134,63 137,64" />
<polygon fill="#716c62" fill-opacity="0.501961" points="88,95 85,67 80,93" />
<polygon fill="#606467" fill-opacity="0.501961" points="-12,7 -6,39 6,5" />
<polygon fill="#a09988" fill-opacity="0.501961" points="154,100 142,98 151,86" />
<polygon fill="#3f4551" fill-opacity="0.501961" points="255,40 247,40 253,64" />
<polygon fill="#565248" fill-opacity="0.501961" points="207,67 211,66 207,72" />
<polygon fill="#81706f" fill-opacity="0.501961" points="108,11 114,7 123,19" />
<polygon fill="#414043" fill-opacity="0.501961" points="93,-11 54,-16 91,9" />
<polygon fill="#1e2228" fill-opacity="0.501961" points="95,31 92,39 99,30" />
<polygon fill="#847a6c" fill-opacity="0.501961" points="165,18 169,20 155,25" />
<polygon fill="#353337" fill-opacity="0.501961" points="117,64 117,47 96,69" />
<polygon fill="#a39c89" fill-opacity="0.501961" points="109,67 97,76 110,77" />
<polygon fill="#554f47" fill-opacity="0.501961" points="154,60 160,53 158,51" />
<polygon fill="#666566" fill-opacity="0.501961" points="28,131 32,110 41,131" />
</g>
</svg>