<svg xmlns="http://www.w3.org/2000/svg" version="1.1" width="1024" height="576">
<rect x="0" y="0" width="1024" height="576" fill="#474d5a" />
<g transform="scale(4.000000) translate(0.5 0.5)">
<polygon fill="#d8d0ff" fill-opacity="0.501961" points="38,144 56,77 125,159" />
<polygon fill="#eaecff" fill-opacity="0.501961" points="173,97 79,159 173,159" />
<polygon fill="#a37476" fill-opacity="0.501961" points="46,87 106,30 197,115" />
<polygon fill="#182624" fill-opacity="0.501961" points="271,90 -16,8 147,-16" />
<polygon fill="#000000" fill-opacity="0.501961" points="257,51 271,-10 190,-1" />
<polygon fill="#350900" fill-opacity="0.501961" points="139,126 79,74 84,127" />
<polygon fill="#fcf9ff" fill-opacity="0.501961" points="72,145 155,159 62,110" />
<polygon fill="#6674c1" fill-opacity="0.501961" points="104,42 25,159 59,39" />
<polygon fill="#0d2b24" fill-opacity="0.501961" points="270,159 245,48 165,82" />
<polygon fill="#7391c9" fill-opacity="0.501961" points="147,51 164,150 183,128" />
<polygon fill="#153d54" fill-opacity="0.501961" points="66,51 2,159 -6,-16" />
<polygon fill="#b4742e" fill-opacity="0.501961" points="122,113 77,71 154,84" />
<polygon fill="#78c6f9" fill-opacity="0.501961" points="172,-15 219,26 145,-10" />
<polygon fill="#3b1a16" fill-opacity="0.501961" points="95,130 126,134 168,81" />
<polygon fill="#fffbff" fill-opacity="0.501961" points="154,115 91,157 142,140" />
<polygon fill="#e9c4ff" fill-opacity="0.501961" points="65,73 71,104 80,63" />
<polygon fill="#5e3027" fill-opacity="0.501961" points="141,67 115,95 95,50" />
<polygon fill="#8d88a4" fill-opacity="0.501961" points="157,58 116,37 169,104" />
<polygon fill="#0e3447" fill-opacity="0.501961" points="258,159 201,159 165,86" />
<polygon fill="#4a5d94" fill-opacity="0.501961" points="16,72 52,159 62,93" />
<polygon fill="#659abf" fill-opacity="0.501961" points="263,57 233,48 212,19" />
<polygon fill="#351e1d" fill-opacity="0.501961" points="103,135 73,104 88,67" />
<polygon fill="#f2dc7b" fill-opacity="0.501961" points="113,100 123,88 130,104" />
<polygon fill="#c5b3d9" fill-opacity="0.501961" points="112,64 127,72 114,59" />
<polygon fill="#fffffb" fill-opacity="0.501961" points="98,152 136,135 87,136" />
<polygon fill="#28383b" fill-opacity="0.501961" points="269,70 266,118 198,18" />
<polygon fill="#b9bbee" fill-opacity="0.501961" points="50,126 73,105 99,158" />
<polygon fill="#150605" fill-opacity="0.501961" points="262,-4 257,49 187,-8" />
<polygon fill="#8e99ce" fill-opacity="0.501961" points="123,57 82,47 119,46" />
<polygon fill="#b2a8d3" fill-opacity="0.501961" points="133,159 149,105 165,120" />
<polygon fill="#4f2f26" fill-opacity="0.501961" points="103,92 118,135 144,118" />
<polygon fill="#425f9a" fill-opacity="0.501961" points="184,110 135,159 190,147" />
<polygon fill="#0b1c24" fill-opacity="0.501961" points="61,-16 26,23 73,35" />
<polygon fill="#b5b1b5" fill-opacity="0.501961" points="152,74 135,90 163,88" />
<polygon fill="#ebc96d" fill-opacity="0.501961" points="94,95 108,89 107,71" />
<polygon fill="#514953" fill-opacity="0.501961" points="115,37 171,82 188,49" />
<polygon fill="#622f17" fill-opacity="0.501961" points="134,90 113,64 83,69" />
<polygon fill="#243255" fill-opacity="0.501961" points="44,111 27,159 -16,104" />
<polygon fill="#4a2824" fill-opacity="0.501961" points="134,83 125,55 149,77" />
<polygon fill="#4a6b97" fill-opacity="0.501961" points="42,159 20,123 122,159" />
<polygon fill="#1e322e" fill-opacity="0.501961" points="-16,53 0,17 44,54" />
<polygon fill="#a1afca" fill-opacity="0.501961" points="151,116 158,83 169,97" />
<polygon fill="#1e2525" fill-opacity="0.501961" points="174,50 271,108 193,92" />
<polygon fill="#332226" fill-opacity="0.501961" points="91,128 118,82 79,115" />
<polygon fill="#526090" fill-opacity="0.501961" points="72,115 48,94 -12,101" />
<polygon fill="#3e6160" fill-opacity="0.501961" points="127,-16 197,45 177,4" />
<polygon fill="#151b27" fill-opacity="0.501961" points="204,1 216,18 180,-2" />
<polygon fill="#499c82" fill-opacity="0.501961" points="39,43 10,26 26,26" />
<polygon fill="#6c94bb" fill-opacity="0.501961" points="187,12 217,19 230,36" />
<polygon fill="#bfb3d8" fill-opacity="0.501961" points="120,68 125,65 134,76" />
<polygon fill="#3d7972" fill-opacity="0.501961" points="234,68 248,101 250,86" />
<polygon fill="#cbafde" fill-opacity="0.501961" points="64,85 66,102 84,67" />
<polygon fill="#41241e" fill-opacity="0.501961" points="147,101 157,95 148,77" />
<polygon fill="#aa673f" fill-opacity="0.501961" points="105,111 119,101 130,111" />
<polygon fill="#404454" fill-opacity="0.501961" points="122,-16 121,48 69,39" />
<polygon fill="#25110e" fill-opacity="0.501961" points="122,57 124,66 148,73" />
<polygon fill="#dacccf" fill-opacity="0.501961" points="143,79 141,93 151,87" />
<polygon fill="#35221d" fill-opacity="0.501961" points="143,118 144,104 130,130" />
<polygon fill="#3d4f7b" fill-opacity="0.501961" points="23,60 58,83 66,39" />
<polygon fill="#1f1716" fill-opacity="0.501961" points="84,95 84,71 75,91" />
<polygon fill="#4c928c" fill-opacity="0.501961" points="221,105 232,118 210,107" />
<polygon fill="#18182f" fill-opacity="0.501961" points="3,74 43,91 -8,84" />
<polygon fill="#f3f1ec" fill-opacity="0.501961" points="99,159 71,115 120,152" />
<polygon fill="#656ba8" fill-opacity="0.501961" points="42,84 39,117 87,54" />
<polygon fill="#0f1717" fill-opacity="0.501961" points="261,159 219,135 255,141" />
<polygon fill="#ecd2e2" fill-opacity="0.501961" points="72,99 70,122 78,121" />
<polygon fill="#ba7847" fill-opacity="0.501961" points="146,96 134,81 123,97" />
<polygon fill="#439a88" fill-opacity="0.501961" points="257,138 221,131 241,141" />
<polygon fill="#a6798b" fill-opacity="0.501961" points="113,61 67,61 90,69" />
<polygon fill="#3b828e" fill-opacity="0.501961" points="28,72 -2,72 34,84" />
<polygon fill="#83b3db" fill-opacity="0.501961" points="168,102 176,117 167,146" />
<polygon fill="#6095c4" fill-opacity="0.501961" points="64,51 61,39 79,50" />
<polygon fill="#ada1b0" fill-opacity="0.501961" points="161,129 149,121 145,93" />
<polygon fill="#7e80a9" fill-opacity="0.501961" points="68,48 133,59 104,43" />
<polygon fill="#21413b" fill-opacity="0.501961" points="-16,4 36,37 53,-9" />
<polygon fill="#418e7e" fill-opacity="0.501961" points="26,29 13,18 43,31" />
<polygon fill="#a96e43" fill-opacity="0.501961" points="93,90 102,73 121,71" />
<polygon fill="#6b5c7c" fill-opacity="0.501961" points="103,133 90,130 79,112" />
<polygon fill="#656486" fill-opacity="0.501961" points="160,148 163,101 170,131" />
<polygon fill="#56567c" fill-opacity="0.501961" points="170,78 184,116 157,78" />
<polygon fill="#361c23" fill-opacity="0.501961" points="108,86 115,76 137,80" />
<polygon fill="#4cb499" fill-opacity="0.501961" points="19,62 -2,52 3,60" />
<polygon fill="#4dc9af" fill-opacity="0.501961" points="37,27 51,34 45,27" />
<polygon fill="#a29bb8" fill-opacity="0.501961" points="140,62 153,69 142,73" />
<polygon fill="#271816" fill-opacity="0.501961" points="107,93 116,123 86,93" />
<polygon fill="#1d2f30" fill-opacity="0.501961" points="2,70 -16,35 24,77" />
<polygon fill="#5e5a7c" fill-opacity="0.501961" points="152,60 78,41 137,40" />
<polygon fill="#1b2737" fill-opacity="0.501961" points="5,117 29,148 -16,138" />
<polygon fill="#242a30" fill-opacity="0.501961" points="220,35 271,78 252,95" />
<polygon fill="#4a2223" fill-opacity="0.501961" points="84,59 96,63 114,56" />
<polygon fill="#558c86" fill-opacity="0.501961" points="193,54 191,49 174,50" />
<polygon fill="#1a1f27" fill-opacity="0.501961" points="183,100 217,103 182,111" />
<polygon fill="#212b4e" fill-opacity="0.501961" points="223,143 152,159 180,132" />
<polygon fill="#8795d6" fill-opacity="0.501961" points="48,122 79,159 80,135" />
<polygon fill="#3f272a" fill-opacity="0.501961" points="135,100 110,134 131,131" />
<polygon fill="#e1dbde" fill-opacity="0.501961" points="143,119 150,132 125,136" />
<polygon fill="#49a484" fill-opacity="0.501961" points="235,159 253,159 210,131" />
<polygon fill="#4c8f93" fill-opacity="0.501961" points="49,49 20,32 36,35" />
<polygon fill="#53291a" fill-opacity="0.501961" points="86,68 85,78 119,64" />
<polygon fill="#2b2a5b" fill-opacity="0.501961" points="62,70 15,61 40,85" />
<polygon fill="#15161d" fill-opacity="0.501961" points="233,137 254,141 222,159" />
<polygon fill="#593019" fill-opacity="0.501961" points="142,73 146,70 151,84" />
<polygon fill="#4a907d" fill-opacity="0.501961" points="172,20 163,13 174,33" />
<polygon fill="#8d75ba" fill-opacity="0.501961" points="66,68 71,110 56,124" />
<polygon fill="#302b2d" fill-opacity="0.501961" points="121,29 189,48 131,-16" />
<polygon fill="#2b3034" fill-opacity="0.501961" points="157,8 213,48 190,14" />
<polygon fill="#80564e" fill-opacity="0.501961" points="132,129 122,117 137,126" />
<polygon fill="#41938b" fill-opacity="0.501961" points="196,108 205,113 189,113" />
<polygon fill="#305e58" fill-opacity="0.501961" points="258,123 196,94 233,100" />
<polygon fill="#e2c776" fill-opacity="0.501961" points="99,94 94,90 109,81" />
<polygon fill="#3c3e3f" fill-opacity="0.501961" points="206,88 163,62 170,86" />
<polygon fill="#21343c" fill-opacity="0.501961" points="64,-10 65,41 113,21" />
<polygon fill="#9498c9" fill-opacity="0.501961" points="118,159 161,113 157,159" />
<polygon fill="#43917f" fill-opacity="0.501961" points="12,11 1,0 11,18" />
<polygon fill="#121118" fill-opacity="0.501961" points="1,-16 10,14 18,-16" />
<polygon fill="#7dc0e1" fill-opacity="0.501961" points="177,-7 154,-10 199,13" />
<polygon fill="#74341d" fill-opacity="0.501961" points="131,78 139,78 142,95" />
<polygon fill="#47997e" fill-opacity="0.501961" points="14,23 31,34 -4,23" />
<polygon fill="#302422" fill-opacity="0.501961" points="140,116 155,99 152,88" />
<polygon fill="#18292d" fill-opacity="0.501961" points="41,30 36,37 11,23" />
<polygon fill="#3f6e71" fill-opacity="0.501961" points="18,45 31,43 2,35" />
<polygon fill="#1e2326" fill-opacity="0.501961" points="219,34 218,98 237,103" />
<polygon fill="#2e3251" fill-opacity="0.501961" points="31,119 42,105 -15,106" />
<polygon fill="#1e252e" fill-opacity="0.501961" points="188,125 215,130 197,111" />
<polygon fill="#4c7874" fill-opacity="0.501961" points="212,38 215,52 204,33" />
<polygon fill="#507986" fill-opacity="0.501961" points="93,-2 94,15 101,-16" />
<polygon fill="#418782" fill-opacity="0.501961" points="233,103 249,100 239,105" />
<polygon fill="#1c282a" fill-opacity="0.501961" points="234,147 192,140 203,132" />
<polygon fill="#171925" fill-opacity="0.501961" points="36,26 43,4 22,-16" />
<polygon fill="#435c81" fill-opacity="0.501961" points="171,85 170,108 192,125" />
<polygon fill="#717eb0" fill-opacity="0.501961" points="124,56 139,49 139,66" />
<polygon fill="#487471" fill-opacity="0.501961" points="173,32 165,48 177,35" />
<polygon fill="#110e11" fill-opacity="0.501961" points="-12,33 0,48 12,41" />
<polygon fill="#211f43" fill-opacity="0.501961" points="32,39 54,57 42,58" />
<polygon fill="#563737" fill-opacity="0.501961" points="74,110 99,84 78,95" />
<polygon fill="#8679af" fill-opacity="0.501961" points="79,71 73,58 92,56" />
<polygon fill="#4c696a" fill-opacity="0.501961" points="108,10 121,33 115,6" />
<polygon fill="#2c2122" fill-opacity="0.501961" points="181,69 229,65 187,55" />
<polygon fill="#529598" fill-opacity="0.501961" points="29,10 9,-16 19,-16" />
<polygon fill="#0b080b" fill-opacity="0.501961" points="11,36 -7,24 22,33" />
<polygon fill="#c17c44" fill-opacity="0.501961" points="118,92 119,87 103,91" />
<polygon fill="#a798cd" fill-opacity="0.501961" points="80,63 57,83 83,74" />
<polygon fill="#39527c" fill-opacity="0.501961" points="21,98 33,60 64,39" />
<polygon fill="#642e28" fill-opacity="0.501961" points="100,77 102,82 89,87" />
<polygon fill="#579087" fill-opacity="0.501961" points="187,70 199,70 191,73" />
<polygon fill="#36746e" fill-opacity="0.501961" points="198,86 211,88 216,84" />
<polygon fill="#aaa3ba" fill-opacity="0.501961" points="158,116 155,140 147,101" />
<polygon fill="#3e6762" fill-opacity="0.501961" points="236,72 226,39 224,54" />
<polygon fill="#241b1b" fill-opacity="0.501961" points="138,100 124,124 146,104" />
<polygon fill="#619aac" fill-opacity="0.501961" points="271,54 250,53 271,77" />
<polygon fill="#0e0e0e" fill-opacity="0.501961" points="-16,3 -1,3 15,23" />
<polygon fill="#19161d" fill-opacity="0.501961" points="202,101 225,106 213,99" />
<polygon fill="#8b6d74" fill-opacity="0.501961" points="133,74 143,71 147,78" />
<polygon fill="#54352a" fill-opacity="0.501961" points="93,114 126,120 86,98" />
<polygon fill="#4e9e91" fill-opacity="0.501961" points="216,125 237,135 227,135" />
<polygon fill="#3f7890" fill-opacity="0.501961" points="25,124 7,126 42,132" />
<polygon fill="#e6e3e7" fill-opacity="0.501961" points="97,136 137,133 112,159" />
<polygon fill="#51aa9e" fill-opacity="0.501961" points="247,95 253,95 245,89" />
<polygon fill="#6489c5" fill-opacity="0.501961" points="48,116 45,86 42,101" />
<polygon fill="#1e252e" fill-opacity="0.501961" points="262,131 222,129 242,136" />
<polygon fill="#291d20" fill-opacity="0.501961" points="186,39 170,23 183,48" />
<polygon fill="#4b5477" fill-opacity="0.501961" points="62,40 66,67 48,94" />
<polygon fill="#111115" fill-opacity="0.501961" points="11,58 21,58 3,51" />
<polygon fill="#445c76" fill-opacity="0.501961" points="169,8 160,-2 192,10" />
<polygon fill="#192026" fill-opacity="0.501961" points="238,109 251,117 258,100" />
<polygon fill="#3e7872" fill-opacity="0.501961" points="248,118 233,120 260,124" />
<polygon fill="#3e3f46" fill-opacity="0.501961" points="162,49 154,21 107,42" />
<polygon fill="#21465c" fill-opacity="0.501961" points="84,33 77,45 51,34" />
<polygon fill="#4a2210" fill-opacity="0.501961" points="144,78 152,82 144,70" />
<polygon fill="#1f2436" fill-opacity="0.501961" points="8,101 -16,99 -16,52" />
<polygon fill="#373f66" fill-opacity="0.501961" points="37,133 20,125 32,159" />
<polygon fill="#8a9dca" fill-opacity="0.501961" points="102,53 87,46 90,40" />
<polygon fill="#28292e" fill-opacity="0.501961" points="157,39 141,1 147,54" />
<polygon fill="#46aa95" fill-opacity="0.501961" points="205,111 216,123 208,118" />
<polygon fill="#396466" fill-opacity="0.501961" points="20,-16 14,-1 22,20" />
<polygon fill="#6496b4" fill-opacity="0.501961" points="63,134 48,137 29,127" />
<polygon fill="#1f2222" fill-opacity="0.501961" points="210,85 227,73 173,72" />
<polygon fill="#565689" fill-opacity="0.501961" points="41,134 64,142 16,155" />
<polygon fill="#629190" fill-opacity="0.501961" points="198,40 195,40 194,50" />
<polygon fill="#4a6a79" fill-opacity="0.501961" points="201,28 219,30 186,10" />
<polygon fill="#ac693e" fill-opacity="0.501961" points="95,69 95,91 88,73" />
<polygon fill="#4c8889" fill-opacity="0.501961" points="26,37 24,28 44,45" />
<polygon fill="#1d262e" fill-opacity="0.501961" points="253,123 261,143 232,110" />
<polygon fill="#3e1906" fill-opacity="0.501961" points="116,59 101,57 114,55" />
<polygon fill="#1d1d33" fill-opacity="0.501961" points="-13,114 22,120 -16,136" />
<polygon fill="#bbbae3" fill-opacity="0.501961" points="72,135 59,127 72,103" />
<polygon fill="#88809e" fill-opacity="0.501961" points="168,112 154,125 157,90" />
<polygon fill="#63435f" fill-opacity="0.501961" points="90,126 118,131 109,135" />
<polygon fill="#1e1618" fill-opacity="0.501961" points="112,101 104,93 97,125" />
<polygon fill="#1b222f" fill-opacity="0.501961" points="45,40 59,41 32,28" />
<polygon fill="#b4a1b5" fill-opacity="0.501961" points="142,120 159,98 157,113" />
<polygon fill="#346b64" fill-opacity="0.501961" points="216,98 206,93 188,99" />
<polygon fill="#354e74" fill-opacity="0.501961" points="185,128 208,128 157,158" />
<polygon fill="#55b4a4" fill-opacity="0.501961" points="33,26 19,22 25,27" />
<polygon fill="#96bee2" fill-opacity="0.501961" points="171,106 165,117 173,125" />
<polygon fill="#181620" fill-opacity="0.501961" points="16,-7 22,17 31,20" />
<polygon fill="#3a7390" fill-opacity="0.501961" points="14,61 26,82 46,92" />
<polygon fill="#8672af" fill-opacity="0.501961" points="73,118 55,102 63,89" />
<polygon fill="#3d797c" fill-opacity="0.501961" points="183,113 205,114 210,106" />
<polygon fill="#94839d" fill-opacity="0.501961" points="113,66 121,55 112,60" />
<polygon fill="#1b262a" fill-opacity="0.501961" points="200,94 250,104 214,86" />
<polygon fill="#293258" fill-opacity="0.501961" points="41,88 50,72 18,66" />
<polygon fill="#2a3a41" fill-opacity="0.501961" points="185,107 209,111 171,88" />
<polygon fill="#bbc4ce" fill-opacity="0.501961" points="153,73 157,85 144,66" />
<polygon fill="#46a990" fill-opacity="0.501961" points="-9,65 16,75 -13,72" />
<polygon fill="#361f1d" fill-opacity="0.501961" points="141,73 119,63 131,60" />
<polygon fill="#87bad4" fill-opacity="0.501961" points="169,96 170,112 160,91" />
<polygon fill="#c29cae" fill-opacity="0.501961" points="82,67 90,63 96,65" />
<polygon fill="#ede6eb" fill-opacity="0.501961" points="85,130 70,105 75,128" />
<polygon fill="#b0a6b5" fill-opacity="0.501961" points="159,79 148,85 155,86" />
<polygon fill="#4a8c81" fill-opacity="0.501961" points="8,35 -6,34 2,37" />
<polygon fill="#646873" fill-opacity="0.501961" points="146,67 158,64 166,46" />
<polygon fill="#223134" fill-opacity="0.501961" points="227,113 204,98 240,107" />
<polygon fill="#dcc77b" fill-opacity="0.501961" points="124,88 122,105 119,89" />
<polygon fill="#e4e0e5" fill-opacity="0.501961" points="77,127 99,143 108,135" />
<polygon fill="#7f8bc6" fill-opacity="0.501961" points="44,123 67,140 53,114" />
<polygon fill="#488b81" fill-opacity="0.501961" points="210,98 222,97 232,104" />
<polygon fill="#1b2728" fill-opacity="0.501961" points="235,83 226,101 194,90" />
<polygon fill="#66413c" fill-opacity="0.501961" points="128,82 128,97 118,75" />
<polygon fill="#3f7579" fill-opacity="0.501961" points="45,-16 45,9 38,-16" />
<polygon fill="#2d3233" fill-opacity="0.501961" points="221,65 197,23 197,79" />
<polygon fill="#211c22" fill-opacity="0.501961" points="82,115 108,130 125,126" />
<polygon fill="#4ea491" fill-opacity="0.501961" points="231,110 235,109 225,107" />
<polygon fill="#30292b" fill-opacity="0.501961" points="192,49 165,50 182,33" />
<polygon fill="#658da9" fill-opacity="0.501961" points="244,54 254,53 229,33" />
<polygon fill="#4b736e" fill-opacity="0.501961" points="95,13 103,28 94,20" />
<polygon fill="#614a61" fill-opacity="0.501961" points="81,99 84,123 73,102" />
<polygon fill="#595084" fill-opacity="0.501961" points="44,105 63,101 57,114" />
<polygon fill="#545462" fill-opacity="0.501961" points="124,58 129,46 121,35" />
<polygon fill="#36414a" fill-opacity="0.501961" points="223,35 242,60 269,70" />
<polygon fill="#233039" fill-opacity="0.501961" points="201,111 222,132 186,122" />
<polygon fill="#2d5d54" fill-opacity="0.501961" points="233,79 212,85 228,85" />
<polygon fill="#decfe6" fill-opacity="0.501961" points="80,75 70,90 74,75" />
<polygon fill="#5d6496" fill-opacity="0.501961" points="89,46 55,83 78,38" />
<polygon fill="#333c5d" fill-opacity="0.501961" points="31,101 2,102 5,92" />
<polygon fill="#212224" fill-opacity="0.501961" points="174,36 164,44 154,10" />
<polygon fill="#151c25" fill-opacity="0.501961" points="40,19 70,-8 46,29" />
<polygon fill="#43272b" fill-opacity="0.501961" points="89,57 94,63 98,59" />
<polygon fill="#1b272f" fill-opacity="0.501961" points="205,111 214,109 220,124" />
<polygon fill="#5fc8af" fill-opacity="0.501961" points="7,56 -16,48 -8,56" />
<polygon fill="#110b15" fill-opacity="0.501961" points="-15,48 5,58 -10,60" />
<polygon fill="#74371f" fill-opacity="0.501961" points="139,104 143,96 129,102" />
<polygon fill="#2a3a52" fill-opacity="0.501961" points="23,34 53,61 17,49" />
<polygon fill="#1f343c" fill-opacity="0.501961" points="22,25 48,45 43,31" />
<polygon fill="#12221a" fill-opacity="0.501961" points="17,28 -16,16 -9,9" />
<polygon fill="#362f33" fill-opacity="0.501961" points="103,35 121,38 100,3" />
<polygon fill="#bb95ca" fill-opacity="0.501961" points="69,117 75,95 69,73" />
<polygon fill="#bf9257" fill-opacity="0.501961" points="109,74 108,89 103,73" />
<polygon fill="#3f8f85" fill-opacity="0.501961" points="30,60 14,53 21,59" />
<polygon fill="#522e1d" fill-opacity="0.501961" points="134,78 140,88 140,75" />
<polygon fill="#4389a2" fill-opacity="0.501961" points="47,91 28,83 35,81" />
<polygon fill="#2e2428" fill-opacity="0.501961" points="81,80 91,72 85,67" />
<polygon fill="#5ed7b6" fill-opacity="0.501961" points="254,139 258,137 249,138" />
<polygon fill="#231d1e" fill-opacity="0.501961" points="83,78 76,93 78,80" />
<polygon fill="#be8c55" fill-opacity="0.501961" points="132,77 140,98 129,94" />
<polygon fill="#ad7144" fill-opacity="0.501961" points="110,108 128,110 131,102" />
<polygon fill="#8377aa" fill-opacity="0.501961" points="93,59 95,51 100,52" />
<polygon fill="#2a2b51" fill-opacity="0.501961" points="41,93 36,87 25,95" />
<polygon fill="#382e34" fill-opacity="0.501961" points="142,11 128,44 113,9" />
<polygon fill="#40788d" fill-opacity="0.501961" points="-1,102 17,98 31,105" />
<polygon fill="#516b6f" fill-opacity="0.501961" points="172,57 177,54 173,69" />
<polygon fill="#333f64" fill-opacity="0.501961" points="27,77 21,103 6,100" />
<polygon fill="#9c6340" fill-opacity="0.501961" points="88,74 86,82 113,79" />
<polygon fill="#262e38" fill-opacity="0.501961" points="30,6 55,-12 15,-8" />
<polygon fill="#1e2e42" fill-opacity="0.501961" points="32,52 34,58 11,59" />
<polygon fill="#252f39" fill-opacity="0.501961" points="258,128 216,122 229,132" />
<polygon fill="#428392" fill-opacity="0.501961" points="65,41 61,46 49,34" />
<polygon fill="#cfa1af" fill-opacity="0.501961" points="145,99 146,95 144,92" />
<polygon fill="#412e2b" fill-opacity="0.501961" points="133,130 108,116 119,109" />
<polygon fill="#161217" fill-opacity="0.501961" points="19,19 13,6 10,13" />
<polygon fill="#70546a" fill-opacity="0.501961" points="155,75 162,74 169,87" />
<polygon fill="#422527" fill-opacity="0.501961" points="122,85 108,82 124,74" />
<polygon fill="#201c21" fill-opacity="0.501961" points="244,35 229,17 212,17" />
<polygon fill="#4b3333" fill-opacity="0.501961" points="74,88 94,104 78,97" />
<polygon fill="#524769" fill-opacity="0.501961" points="101,46 100,37 83,36" />
<polygon fill="#415c77" fill-opacity="0.501961" points="9,104 7,114 -4,116" />
<polygon fill="#77a6d1" fill-opacity="0.501961" points="203,19 193,8 220,23" />
<polygon fill="#2e3c3e" fill-opacity="0.501961" points="234,140 227,143 219,129" />
<polygon fill="#386962" fill-opacity="0.501961" points="150,22 159,37 151,9" />
<polygon fill="#d1b36b" fill-opacity="0.501961" points="120,101 127,88 111,98" />
<polygon fill="#3b6d6d" fill-opacity="0.501961" points="180,100 193,99 179,96" />
<polygon fill="#357274" fill-opacity="0.501961" points="43,26 40,17 37,18" />
<polygon fill="#3e6f6b" fill-opacity="0.501961" points="233,124 246,124 230,115" />
<polygon fill="#43829a" fill-opacity="0.501961" points="37,62 43,58 30,59" />
<polygon fill="#171e24" fill-opacity="0.501961" points="6,86 12,80 -16,66" />
<polygon fill="#20272a" fill-opacity="0.501961" points="228,58 204,65 240,83" />
<polygon fill="#252e4c" fill-opacity="0.501961" points="16,136 29,129 -10,125" />
<polygon fill="#479e96" fill-opacity="0.501961" points="11,57 -1,61 17,61" />
<polygon fill="#203037" fill-opacity="0.501961" points="6,62 -16,68 8,72" />
<polygon fill="#372a2e" fill-opacity="0.501961" points="138,100 147,105 144,116" />
<polygon fill="#63f4cb" fill-opacity="0.501961" points="6,2 -8,-10 -16,-7" />
<polygon fill="#376379" fill-opacity="0.501961" points="-16,134 13,127 -16,144" />
<polygon fill="#416564" fill-opacity="0.501961" points="181,16 192,33 184,28" />
<polygon fill="#528c95" fill-opacity="0.501961" points="32,46 33,42 27,36" />
<polygon fill="#8a91b9" fill-opacity="0.501961" points="143,68 129,59 133,56" />
<polygon fill="#5f77aa" fill-opacity="0.501961" points="165,95 175,104 175,114" />
<polygon fill="#925e55" fill-opacity="0.501961" points="126,121 131,126 137,121" />
<polygon fill="#a297a4" fill-opacity="0.501961" points="103,56 93,48 114,53" />
<polygon fill="#291d1f" fill-opacity="0.501961" points="209,47 197,53 209,57" />
<polygon fill="#4f787a" fill-opacity="0.501961" points="175,55 193,50 179,49" />
<polygon fill="#344e4f" fill-opacity="0.501961" points="218,46 215,62 203,73" />
<polygon fill="#673929" fill-opacity="0.501961" points="142,87 129,77 139,78" />
<polygon fill="#283036" fill-opacity="0.501961" points="184,27 147,-2 173,9" />
<polygon fill="#3c2021" fill-opacity="0.501961" points="119,62 126,50 123,63" />
<polygon fill="#58afa2" fill-opacity="0.501961" points="217,127 222,128 212,119" />
<polygon fill="#232d32" fill-opacity="0.501961" points="271,90 222,42 251,94" />
<polygon fill="#516b98" fill-opacity="0.501961" points="21,98 29,88 30,96" />
<polygon fill="#2b3450" fill-opacity="0.501961" points="45,130 23,123 20,111" />
<polygon fill="#9382a9" fill-opacity="0.501961" points="118,56 124,57 114,58" />
<polygon fill="#4f6ba9" fill-opacity="0.501961" points="51,74 38,97 56,80" />
<polygon fill="#323338" fill-opacity="0.501961" points="204,27 227,61 222,36" />
<polygon fill="#1c1f28" fill-opacity="0.501961" points="-10,46 8,38 23,50" />
<polygon fill="#8275a9" fill-opacity="0.501961" points="74,59 92,56 67,72" />
<polygon fill="#78483e" fill-opacity="0.501961" points="124,90 134,89 122,79" />
<polygon fill="#387164" fill-opacity="0.501961" points="245,87 227,81 242,81" />
<polygon fill="#57c2a5" fill-opacity="0.501961" points="-11,3 -7,14 3,17" />
<polygon fill="#1b324b" fill-opacity="0.501961" points="169,-5 194,3 178,-14" />
<polygon fill="#c8a3be" fill-opacity="0.501961" points="130,75 132,73 125,71" />
<polygon fill="#5c3022" fill-opacity="0.501961" points="121,115 116,100 109,97" />
<polygon fill="#2a2f4f" fill-opacity="0.501961" points="43,65 42,87 57,66" />
<polygon fill="#547d73" fill-opacity="0.501961" points="186,35 199,42 191,42" />
<polygon fill="#233134" fill-opacity="0.501961" points="182,83 217,93 178,99" />
<polygon fill="#635871" fill-opacity="0.501961" points="129,50 160,73 153,57" />
<polygon fill="#3f2824" fill-opacity="0.501961" points="91,97 85,69 74,99" />
<polygon fill="#1e282e" fill-opacity="0.501961" points="234,138 213,159 260,140" />
<polygon fill="#dfdcde" fill-opacity="0.501961" points="131,132 146,119 136,141" />
<polygon fill="#172027" fill-opacity="0.501961" points="42,28 34,15 32,24" />
<polygon fill="#663823" fill-opacity="0.501961" points="116,65 106,65 112,78" />
<polygon fill="#486084" fill-opacity="0.501961" points="181,134 178,111 187,120" />
<polygon fill="#7082a8" fill-opacity="0.501961" points="157,132 151,149 176,159" />
<polygon fill="#222a3f" fill-opacity="0.501961" points="4,64 18,67 27,80" />
<polygon fill="#17141c" fill-opacity="0.501961" points="7,13 -10,10 -5,-14" />
<polygon fill="#253343" fill-opacity="0.501961" points="47,42 36,29 62,42" />
<polygon fill="#466a79" fill-opacity="0.501961" points="172,-16 163,13 183,-16" />
<polygon fill="#222e34" fill-opacity="0.501961" points="253,137 262,124 232,133" />
<polygon fill="#ae92a9" fill-opacity="0.501961" points="128,74 123,66 117,66" />
<polygon fill="#49837e" fill-opacity="0.501961" points="216,105 225,114 211,107" />
<polygon fill="#202b30" fill-opacity="0.501961" points="234,103 262,98 206,92" />
<polygon fill="#d4b867" fill-opacity="0.501961" points="134,96 129,98 130,92" />
<polygon fill="#4a3d49" fill-opacity="0.501961" points="90,121 81,109 80,121" />
<polygon fill="#606190" fill-opacity="0.501961" points="52,135 44,112 37,126" />
<polygon fill="#3f7379" fill-opacity="0.501961" points="40,41 36,43 34,31" />
<polygon fill="#419687" fill-opacity="0.501961" points="212,133 203,130 209,129" />
<polygon fill="#54b294" fill-opacity="0.501961" points="-12,19 -10,13 9,27" />
<polygon fill="#3d1c16" fill-opacity="0.501961" points="104,68 94,74 98,66" />
<polygon fill="#1c232b" fill-opacity="0.501961" points="66,23 69,5 28,-16" />
<polygon fill="#787ca0" fill-opacity="0.501961" points="168,107 159,94 163,129" />
<polygon fill="#262c4a" fill-opacity="0.501961" points="191,134 198,121 185,124" />
<polygon fill="#111b1d" fill-opacity="0.501961" points="21,25 18,27 27,30" />
<polygon fill="#4b7567" fill-opacity="0.501961" points="179,32 172,19 191,39" />
</g>
</svg>