<svg xmlns="http://www.w3.org/2000/svg" version="1.1" width="1024" height="576">
<rect x="0" y="0" width="1024" height="576" fill="#566f8f" />
<g transform="scale(4.000000) translate(0.5 0.5)">
<polygon fill="#1c3b40" fill-opacity="0.501961" points="126,23 78,151 237,159" />
<polygon fill="#a5deff" fill-opacity="0.501961" points="49,-15 49,115 3,12" />
<polygon fill="#8faddb" fill-opacity="0.501961" points="163,72 235,5 174,-16" />
<polygon fill="#92b2bd" fill-opacity="0.501961" points="20,20 87,90 103,7" />
<polygon fill="#273652" fill-opacity="0.501961" points="-16,109 36,114 37,63" />
<polygon fill="#597dbc" fill-opacity="0.501961" points="127,127 21,128 81,67" />
<polygon fill="#6b68a8" fill-opacity="0.501961" points="176,100 271,157 209,-13" />
<polygon fill="#bbcdf5" fill-opacity="0.501961" points="62,38 76,36 72,79" />
<polygon fill="#547c7f" fill-opacity="0.501961" points="180,26 29,-16 99,73" />
<polygon fill="#909bdb" fill-opacity="0.501961" points="14,-16 1,51 50,71" />
<polygon fill="#1b353f" fill-opacity="0.501961" points="144,159 128,51 159,55" />
<polygon fill="#87e6fb" fill-opacity="0.501961" points="51,11 45,89 30,13" />
<polygon fill="#2f3960" fill-opacity="0.501961" points="-16,138 126,126 35,159" />
<polygon fill="#3f6369" fill-opacity="0.501961" points="110,55 83,102 146,141" />
<polygon fill="#5a664e" fill-opacity="0.501961" points="52,43 56,84 67,46" />
<polygon fill="#484c94" fill-opacity="0.501961" points="222,41 254,-16 271,158" />
<polygon fill="#39606f" fill-opacity="0.501961" points="148,52 90,-8 155,-16" />
<polygon fill="#383327" fill-opacity="0.501961" points="-16,19 5,-16 4,28" />
<polygon fill="#a2d3e6" fill-opacity="0.501961" points="181,16 197,37 193,-10" />
<polygon fill="#84a5af" fill-opacity="0.501961" points="125,16 78,27 74,4" />
<polygon fill="#455380" fill-opacity="0.501961" points="167,109 248,153 159,59" />
<polygon fill="#6abce3" fill-opacity="0.501961" points="55,102 44,137 39,72" />
<polygon fill="#7388d0" fill-opacity="0.501961" points="106,41 65,61 74,104" />
<polygon fill="#425076" fill-opacity="0.501961" points="-16,144 44,120 13,65" />
<polygon fill="#949ce4" fill-opacity="0.501961" points="228,-9 226,22 210,32" />
<polygon fill="#45447b" fill-opacity="0.501961" points="31,15 19,-16 32,-11" />
<polygon fill="#52617b" fill-opacity="0.501961" points="238,58 232,-15 217,62" />
<polygon fill="#2c4051" fill-opacity="0.501961" points="144,159 234,156 127,82" />
<polygon fill="#7c76c8" fill-opacity="0.501961" points="16,49 2,-16 22,-16" />
<polygon fill="#707aaa" fill-opacity="0.501961" points="242,137 162,52 247,87" />
<polygon fill="#557b8e" fill-opacity="0.501961" points="123,97 62,130 138,125" />
<polygon fill="#6a7461" fill-opacity="0.501961" points="59,33 51,-16 81,25" />
<polygon fill="#bec4f1" fill-opacity="0.501961" points="41,27 31,20 37,-13" />
<polygon fill="#5a88a0" fill-opacity="0.501961" points="156,5 165,54 188,-16" />
<polygon fill="#546175" fill-opacity="0.501961" points="195,58 198,13 211,44" />
<polygon fill="#3c6272" fill-opacity="0.501961" points="80,37 165,37 120,15" />
<polygon fill="#6b7d9d" fill-opacity="0.501961" points="27,77 34,43 38,73" />
<polygon fill="#5287e9" fill-opacity="0.501961" points="31,-16 50,27 49,-4" />
<polygon fill="#27445a" fill-opacity="0.501961" points="-16,104 22,105 -16,54" />
<polygon fill="#aecbce" fill-opacity="0.501961" points="82,34 55,34 69,47" />
<polygon fill="#406775" fill-opacity="0.501961" points="142,79 83,78 116,43" />
<polygon fill="#556e83" fill-opacity="0.501961" points="72,94 47,95 49,51" />
<polygon fill="#4b77d2" fill-opacity="0.501961" points="78,75 94,86 67,115" />
<polygon fill="#7f91cb" fill-opacity="0.501961" points="34,128 49,135 60,118" />
<polygon fill="#7097a6" fill-opacity="0.501961" points="76,32 129,48 90,50" />
<polygon fill="#505c98" fill-opacity="0.501961" points="43,116 21,159 38,71" />
<polygon fill="#a6b2df" fill-opacity="0.501961" points="59,68 81,70 91,62" />
<polygon fill="#4f7c90" fill-opacity="0.501961" points="134,35 166,56 95,39" />
<polygon fill="#d1e9f4" fill-opacity="0.501961" points="19,0 24,-5 22,17" />
<polygon fill="#514455" fill-opacity="0.501961" points="210,126 264,159 193,157" />
<polygon fill="#6d7b88" fill-opacity="0.501961" points="73,52 102,72 81,33" />
<polygon fill="#6184ba" fill-opacity="0.501961" points="5,89 2,43 18,27" />
<polygon fill="#294951" fill-opacity="0.501961" points="110,73 152,107 93,86" />
<polygon fill="#3e5c62" fill-opacity="0.501961" points="125,122 186,135 67,143" />
<polygon fill="#4d6da5" fill-opacity="0.501961" points="158,77 196,42 196,106" />
<polygon fill="#94c2dc" fill-opacity="0.501961" points="29,76 29,42 18,50" />
<polygon fill="#2f5157" fill-opacity="0.501961" points="121,-16 140,5 97,5" />
<polygon fill="#565f63" fill-opacity="0.501961" points="-16,32 -1,80 5,14" />
<polygon fill="#9db6d2" fill-opacity="0.501961" points="210,11 196,-16 184,3" />
<polygon fill="#596b97" fill-opacity="0.501961" points="33,12 27,29 26,-9" />
<polygon fill="#5a5cac" fill-opacity="0.501961" points="237,159 268,138 238,54" />
<polygon fill="#86a79e" fill-opacity="0.501961" points="47,26 82,10 63,9" />
<polygon fill="#5f6893" fill-opacity="0.501961" points="42,133 -4,132 36,103" />
<polygon fill="#596084" fill-opacity="0.501961" points="211,29 209,-1 217,17" />
<polygon fill="#3b5173" fill-opacity="0.501961" points="175,69 195,133 147,81" />
<polygon fill="#a5bedf" fill-opacity="0.501961" points="68,68 82,65 66,46" />
<polygon fill="#537e92" fill-opacity="0.501961" points="157,15 104,9 82,34" />
<polygon fill="#37474d" fill-opacity="0.501961" points="24,81 35,105 35,77" />
<polygon fill="#80a4b3" fill-opacity="0.501961" points="205,35 223,19 216,37" />
<polygon fill="#3d4981" fill-opacity="0.501961" points="271,-3 256,88 241,61" />
<polygon fill="#64e6dd" fill-opacity="0.501961" points="49,73 38,53 44,100" />
<polygon fill="#646fae" fill-opacity="0.501961" points="244,-1 242,53 235,24" />
<polygon fill="#334a5e" fill-opacity="0.501961" points="-16,133 16,63 15,96" />
<polygon fill="#3f4290" fill-opacity="0.501961" points="12,133 54,134 27,159" />
<polygon fill="#6e558e" fill-opacity="0.501961" points="256,155 227,116 207,126" />
<polygon fill="#9099df" fill-opacity="0.501961" points="17,20 9,-16 4,48" />
<polygon fill="#4c6759" fill-opacity="0.501961" points="54,18 81,-16 51,0" />
<polygon fill="#729ec3" fill-opacity="0.501961" points="196,45 164,61 185,3" />
<polygon fill="#8e8ee4" fill-opacity="0.501961" points="204,-16 222,14 237,-16" />
<polygon fill="#69839c" fill-opacity="0.501961" points="232,97 202,59 192,104" />
<polygon fill="#5e7d9e" fill-opacity="0.501961" points="10,60 15,24 20,55" />
<polygon fill="#6196a4" fill-opacity="0.501961" points="175,58 167,83 162,42" />
<polygon fill="#607773" fill-opacity="0.501961" points="49,87 67,72 52,34" />
<polygon fill="#91ccde" fill-opacity="0.501961" points="59,35 54,23 40,14" />
<polygon fill="#546faa" fill-opacity="0.501961" points="46,127 108,121 63,78" />
<polygon fill="#666790" fill-opacity="0.501961" points="203,64 230,93 246,56" />
<polygon fill="#92a09b" fill-opacity="0.501961" points="85,17 79,41 76,-1" />
<polygon fill="#4b6374" fill-opacity="0.501961" points="190,134 191,124 155,133" />
<polygon fill="#6edbda" fill-opacity="0.501961" points="46,82 48,120 41,101" />
<polygon fill="#9fa9e3" fill-opacity="0.501961" points="40,5 31,29 39,61" />
<polygon fill="#8af0e2" fill-opacity="0.501961" points="45,65 47,23 38,45" />
<polygon fill="#415373" fill-opacity="0.501961" points="240,-16 230,6 241,14" />
<polygon fill="#1d3539" fill-opacity="0.501961" points="134,138 168,159 111,144" />
<polygon fill="#203841" fill-opacity="0.501961" points="126,130 156,111 154,128" />
<polygon fill="#4b5677" fill-opacity="0.501961" points="56,110 68,94 59,88" />
<polygon fill="#746aab" fill-opacity="0.501961" points="217,117 248,138 237,80" />
<polygon fill="#8db0d6" fill-opacity="0.501961" points="90,45 95,39 99,52" />
<polygon fill="#3b5a63" fill-opacity="0.501961" points="95,78 95,108 143,64" />
<polygon fill="#62676f" fill-opacity="0.501961" points="57,29 71,36 76,15" />
<polygon fill="#b5bff1" fill-opacity="0.501961" points="25,17 19,15 20,37" />
<polygon fill="#1f3b47" fill-opacity="0.501961" points="138,118 126,92 155,57" />
<polygon fill="#506ea4" fill-opacity="0.501961" points="27,66 19,90 17,57" />
<polygon fill="#5d829d" fill-opacity="0.501961" points="171,-16 158,57 182,21" />
<polygon fill="#9cafd3" fill-opacity="0.501961" points="43,133 41,122 52,131" />
<polygon fill="#395258" fill-opacity="0.501961" points="108,159 100,131 57,131" />
<polygon fill="#403161" fill-opacity="0.501961" points="-13,135 21,136 -6,146" />
<polygon fill="#758bb4" fill-opacity="0.501961" points="25,27 30,42 31,9" />
<polygon fill="#7ea4b5" fill-opacity="0.501961" points="102,18 83,23 88,3" />
<polygon fill="#b0f1ea" fill-opacity="0.501961" points="67,59 71,45 67,38" />
<polygon fill="#629494" fill-opacity="0.501961" points="96,78 101,64 93,56" />
<polygon fill="#6b5bc4" fill-opacity="0.501961" points="22,-7 14,1 15,15" />
<polygon fill="#7679d3" fill-opacity="0.501961" points="199,13 214,30 204,6" />
<polygon fill="#565ead" fill-opacity="0.501961" points="75,85 91,68 77,72" />
<polygon fill="#324a6b" fill-opacity="0.501961" points="167,99 140,111 159,76" />
<polygon fill="#385b81" fill-opacity="0.501961" points="213,105 184,103 206,120" />
<polygon fill="#637f76" fill-opacity="0.501961" points="73,14 50,14 89,-16" />
<polygon fill="#618398" fill-opacity="0.501961" points="121,103 83,117 82,132" />
<polygon fill="#32525f" fill-opacity="0.501961" points="100,103 115,79 151,78" />
<polygon fill="#788278" fill-opacity="0.501961" points="52,31 66,49 52,48" />
<polygon fill="#41687d" fill-opacity="0.501961" points="106,129 124,93 137,116" />
<polygon fill="#b7f5ea" fill-opacity="0.501961" points="31,20 35,-3 37,13" />
<polygon fill="#7d82df" fill-opacity="0.501961" points="44,10 37,-16 37,20" />
<polygon fill="#405e72" fill-opacity="0.501961" points="140,18 102,28 165,44" />
<polygon fill="#5d82c1" fill-opacity="0.501961" points="185,68 192,95 184,90" />
<polygon fill="#596e98" fill-opacity="0.501961" points="30,78 32,59 39,60" />
<polygon fill="#364381" fill-opacity="0.501961" points="246,11 271,12 246,-8" />
<polygon fill="#8889cf" fill-opacity="0.501961" points="86,68 68,66 70,57" />
<polygon fill="#4d5c90" fill-opacity="0.501961" points="59,135 7,140 50,159" />
<polygon fill="#4a5972" fill-opacity="0.501961" points="226,61 216,51 235,35" />
<polygon fill="#3d707c" fill-opacity="0.501961" points="154,54 162,54 165,81" />
<polygon fill="#213b46" fill-opacity="0.501961" points="151,57 160,78 121,54" />
<polygon fill="#5ea7d7" fill-opacity="0.501961" points="47,66 43,61 49,48" />
<polygon fill="#6d77b8" fill-opacity="0.501961" points="49,121 59,94 51,92" />
<polygon fill="#353e7d" fill-opacity="0.501961" points="-16,54 4,74 -9,131" />
<polygon fill="#a9d4e0" fill-opacity="0.501961" points="194,28 195,8 189,13" />
<polygon fill="#5881d3" fill-opacity="0.501961" points="90,91 70,102 83,70" />
<polygon fill="#5f6c9c" fill-opacity="0.501961" points="226,12 271,23 224,29" />
<polygon fill="#5f93dc" fill-opacity="0.501961" points="40,77 37,66 40,57" />
<polygon fill="#5576a9" fill-opacity="0.501961" points="16,109 15,130 11,121" />
<polygon fill="#53645f" fill-opacity="0.501961" points="65,63 53,62 62,45" />
<polygon fill="#263575" fill-opacity="0.501961" points="7,145 58,159 47,139" />
<polygon fill="#5984d1" fill-opacity="0.501961" points="40,116 40,98 52,129" />
<polygon fill="#accddd" fill-opacity="0.501961" points="24,57 22,40 32,57" />
<polygon fill="#33403d" fill-opacity="0.501961" points="-2,-16 -8,10 5,14" />
<polygon fill="#5c83a2" fill-opacity="0.501961" points="100,4 96,13 75,-8" />
<polygon fill="#354c69" fill-opacity="0.501961" points="9,124 27,83 7,88" />
<polygon fill="#557697" fill-opacity="0.501961" points="148,22 146,3 179,-1" />
<polygon fill="#474892" fill-opacity="0.501961" points="264,138 224,159 234,138" />
<polygon fill="#4d618f" fill-opacity="0.501961" points="8,100 13,123 0,133" />
<polygon fill="#6a7698" fill-opacity="0.501961" points="71,54 83,60 94,50" />
<polygon fill="#3e5998" fill-opacity="0.501961" points="85,136 78,106 75,121" />
<polygon fill="#9acccc" fill-opacity="0.501961" points="216,27 223,16 219,17" />
<polygon fill="#21395e" fill-opacity="0.501961" points="73,135 78,129 54,133" />
<polygon fill="#6eb3e4" fill-opacity="0.501961" points="44,9 51,16 50,36" />
<polygon fill="#8f8fe4" fill-opacity="0.501961" points="19,29 17,47 26,38" />
<polygon fill="#97a3c9" fill-opacity="0.501961" points="191,44 196,28 188,35" />
<polygon fill="#6284bf" fill-opacity="0.501961" points="28,63 16,52 27,75" />
<polygon fill="#627597" fill-opacity="0.501961" points="210,56 226,42 204,28" />
<polygon fill="#83b0dc" fill-opacity="0.501961" points="70,78 67,83 69,84" />
<polygon fill="#485a9d" fill-opacity="0.501961" points="254,134 271,111 242,65" />
<polygon fill="#3a5f70" fill-opacity="0.501961" points="105,49 94,59 139,57" />
<polygon fill="#656a90" fill-opacity="0.501961" points="209,105 213,125 235,95" />
<polygon fill="#7a79b5" fill-opacity="0.501961" points="219,118 236,106 247,117" />
<polygon fill="#8aa9c8" fill-opacity="0.501961" points="168,38 175,49 178,35" />
<polygon fill="#4f6474" fill-opacity="0.501961" points="49,92 69,73 50,82" />
<polygon fill="#acccdb" fill-opacity="0.501961" points="11,23 12,15 15,29" />
<polygon fill="#5467a8" fill-opacity="0.501961" points="181,54 189,78 192,43" />
<polygon fill="#7573ac" fill-opacity="0.501961" points="203,10 195,17 195,37" />
<polygon fill="#527c84" fill-opacity="0.501961" points="172,33 143,47 150,55" />
<polygon fill="#5377c2" fill-opacity="0.501961" points="63,109 81,114 81,79" />
<polygon fill="#adc8e1" fill-opacity="0.501961" points="78,69 65,65 74,64" />
<polygon fill="#3f515d" fill-opacity="0.501961" points="37,80 21,74 38,95" />
<polygon fill="#736cc4" fill-opacity="0.501961" points="211,-11 228,14 226,-16" />
<polygon fill="#b7e5e2" fill-opacity="0.501961" points="35,29 36,14 32,24" />
<polygon fill="#475e7e" fill-opacity="0.501961" points="17,86 10,61 17,56" />
<polygon fill="#3e6375" fill-opacity="0.501961" points="115,112 129,127 141,124" />
<polygon fill="#756ec8" fill-opacity="0.501961" points="29,16 26,27 24,2" />
<polygon fill="#455571" fill-opacity="0.501961" points="199,40 199,55 208,41" />
<polygon fill="#5a67af" fill-opacity="0.501961" points="240,72 235,57 241,45" />
<polygon fill="#3c626f" fill-opacity="0.501961" points="117,45 113,24 104,37" />
<polygon fill="#8c9ba8" fill-opacity="0.501961" points="31,37 31,50 25,33" />
<polygon fill="#668fac" fill-opacity="0.501961" points="180,19 186,2 152,16" />
<polygon fill="#243c4b" fill-opacity="0.501961" points="131,102 139,123 171,117" />
<polygon fill="#96addc" fill-opacity="0.501961" points="222,16 226,10 213,-3" />
<polygon fill="#1c3a3f" fill-opacity="0.501961" points="122,127 113,130 131,130" />
<polygon fill="#6e8cbd" fill-opacity="0.501961" points="5,76 7,45 14,50" />
<polygon fill="#6f60d0" fill-opacity="0.501961" points="215,4 220,12 218,19" />
<polygon fill="#364566" fill-opacity="0.501961" points="172,113 194,105 197,119" />
<polygon fill="#709ba9" fill-opacity="0.501961" points="173,53 149,49 171,46" />
<polygon fill="#ade0cd" fill-opacity="0.501961" points="54,31 53,23 60,38" />
<polygon fill="#324454" fill-opacity="0.501961" points="110,150 202,131 262,159" />
<polygon fill="#73adce" fill-opacity="0.501961" points="86,53 98,54 97,57" />
<polygon fill="#858497" fill-opacity="0.501961" points="59,36 70,40 56,28" />
<polygon fill="#4c5b77" fill-opacity="0.501961" points="95,85 85,97 99,111" />
<polygon fill="#667886" fill-opacity="0.501961" points="85,17 89,-16 71,-16" />
<polygon fill="#7b82b0" fill-opacity="0.501961" points="242,92 223,86 218,94" />
<polygon fill="#7987c8" fill-opacity="0.501961" points="6,1 13,-3 7,23" />
<polygon fill="#485e82" fill-opacity="0.501961" points="24,119 28,83 17,110" />
<polygon fill="#4a7fb6" fill-opacity="0.501961" points="49,75 46,93 52,95" />
<polygon fill="#6a7790" fill-opacity="0.501961" points="223,90 217,45 209,100" />
<polygon fill="#3b5d6a" fill-opacity="0.501961" points="200,-14 97,-16 101,11" />
<polygon fill="#435c65" fill-opacity="0.501961" points="64,135 121,131 59,159" />
<polygon fill="#415780" fill-opacity="0.501961" points="171,69 162,88 186,92" />
<polygon fill="#7e84c5" fill-opacity="0.501961" points="78,59 71,52 75,41" />
<polygon fill="#46729c" fill-opacity="0.501961" points="193,121 198,117 183,120" />
<polygon fill="#527585" fill-opacity="0.501961" points="110,128 96,109 126,99" />
<polygon fill="#6e79b3" fill-opacity="0.501961" points="205,52 192,67 209,58" />
<polygon fill="#49757e" fill-opacity="0.501961" points="148,110 146,100 149,102" />
<polygon fill="#608bc7" fill-opacity="0.501961" points="49,22 50,8 53,21" />
<polygon fill="#5b79a9" fill-opacity="0.501961" points="193,104 192,78 211,103" />
<polygon fill="#4e6a88" fill-opacity="0.501961" points="76,134 59,142 38,137" />
<polygon fill="#526d85" fill-opacity="0.501961" points="233,-3 241,39 227,35" />
<polygon fill="#455667" fill-opacity="0.501961" points="194,122 222,130 168,135" />
<polygon fill="#5175a8" fill-opacity="0.501961" points="61,131 44,127 74,121" />
<polygon fill="#7977ca" fill-opacity="0.501961" points="13,-9 14,28 21,9" />
<polygon fill="#6899b9" fill-opacity="0.501961" points="97,23 104,21 97,4" />
<polygon fill="#2a4852" fill-opacity="0.501961" points="124,57 143,51 128,64" />
<polygon fill="#7395a2" fill-opacity="0.501961" points="90,36 104,36 88,48" />
<polygon fill="#506397" fill-opacity="0.501961" points="173,96 196,105 188,87" />
<polygon fill="#405b6d" fill-opacity="0.501961" points="151,120 175,135 165,121" />
<polygon fill="#5a6bb7" fill-opacity="0.501961" points="6,65 9,73 -16,69" />
<polygon fill="#5d686d" fill-opacity="0.501961" points="1,54 5,21 -10,28" />
<polygon fill="#6766ac" fill-opacity="0.501961" points="230,16 230,-2 220,32" />
<polygon fill="#64737c" fill-opacity="0.501961" points="200,46 206,26 198,19" />
<polygon fill="#4a7a8f" fill-opacity="0.501961" points="121,58 117,61 128,68" />
<polygon fill="#6889b6" fill-opacity="0.501961" points="178,30 180,62 185,38" />
<polygon fill="#4f6c8a" fill-opacity="0.501961" points="48,3 51,-3 54,16" />
<polygon fill="#4e89d5" fill-opacity="0.501961" points="49,4 43,-16 41,12" />
<polygon fill="#81aada" fill-opacity="0.501961" points="188,10 180,23 189,25" />
<polygon fill="#8370df" fill-opacity="0.501961" points="7,32 10,40 9,23" />
<polygon fill="#637b7f" fill-opacity="0.501961" points="82,29 98,27 77,59" />
<polygon fill="#407acb" fill-opacity="0.501961" points="38,85 41,85 39,74" />
<polygon fill="#88a8e5" fill-opacity="0.501961" points="34,19 31,5 30,22" />
<polygon fill="#b0cde3" fill-opacity="0.501961" points="23,9 19,22 23,30" />
<polygon fill="#667375" fill-opacity="0.501961" points="60,20 84,13 60,32" />
<polygon fill="#7f8b81" fill-opacity="0.501961" points="65,45 57,38 53,45" />
<polygon fill="#2e3c55" fill-opacity="0.501961" points="153,107 172,127 190,125" />
<polygon fill="#5f7e9b" fill-opacity="0.501961" points="26,11 33,0 28,20" />
<polygon fill="#465baf" fill-opacity="0.501961" points="81,93 86,98 83,114" />
<polygon fill="#4f637d" fill-opacity="0.501961" points="98,67 87,71 89,80" />
<polygon fill="#7393b7" fill-opacity="0.501961" points="53,43 49,31 48,56" />
<polygon fill="#a6d0de" fill-opacity="0.501961" points="65,53 79,35 68,40" />
<polygon fill="#96abd7" fill-opacity="0.501961" points="74,60 87,62 69,66" />
<polygon fill="#4a5b77" fill-opacity="0.501961" points="18,85 35,75 22,74" />
<polygon fill="#7c85d5" fill-opacity="0.501961" points="206,25 200,11 203,4" />
<polygon fill="#517295" fill-opacity="0.501961" points="156,20 178,29 176,19" />
<polygon fill="#705dc7" fill-opacity="0.501961" points="10,13 13,-13 7,-4" />
<polygon fill="#304555" fill-opacity="0.501961" points="20,88 17,107 6,96" />
<polygon fill="#6f73ae" fill-opacity="0.501961" points="204,25 209,41 218,20" />
<polygon fill="#7c8a92" fill-opacity="0.501961" points="73,27 85,46 82,29" />
<polygon fill="#637f91" fill-opacity="0.501961" points="11,42 15,32 14,50" />
<polygon fill="#7174a8" fill-opacity="0.501961" points="65,66 67,81 72,72" />
<polygon fill="#7490b4" fill-opacity="0.501961" points="207,75 207,69 197,69" />
<polygon fill="#72838a" fill-opacity="0.501961" points="212,11 204,2 207,-16" />
<polygon fill="#96b1b1" fill-opacity="0.501961" points="89,13 77,25 89,20" />
<polygon fill="#3e5a69" fill-opacity="0.501961" points="156,130 131,139 148,139" />
<polygon fill="#375663" fill-opacity="0.501961" points="130,62 130,87 144,74" />
<polygon fill="#3b648e" fill-opacity="0.501961" points="-3,103 -16,108 8,81" />
<polygon fill="#4d718e" fill-opacity="0.501961" points="165,84 174,87 161,59" />
<polygon fill="#7581cb" fill-opacity="0.501961" points="190,43 193,41 198,52" />
<polygon fill="#476879" fill-opacity="0.501961" points="128,139 104,139 118,135" />
<polygon fill="#6c92a3" fill-opacity="0.501961" points="157,25 169,33 171,26" />
<polygon fill="#526492" fill-opacity="0.501961" points="65,122 54,107 62,88" />
<polygon fill="#5e81b9" fill-opacity="0.501961" points="71,95 64,107 72,127" />
<polygon fill="#836fed" fill-opacity="0.501961" points="25,6 23,-16 31,-16" />
<polygon fill="#446377" fill-opacity="0.501961" points="160,42 128,43 157,27" />
<polygon fill="#4b768a" fill-opacity="0.501961" points="123,53 141,36 100,36" />
<polygon fill="#81afa7" fill-opacity="0.501961" points="68,15 54,15 59,19" />
<polygon fill="#4a6d71" fill-opacity="0.501961" points="99,78 112,78 100,62" />
<polygon fill="#6e6dac" fill-opacity="0.501961" points="247,130 227,135 258,136" />
<polygon fill="#64837e" fill-opacity="0.501961" points="87,-16 51,20 75,9" />
<polygon fill="#7187d2" fill-opacity="0.501961" points="12,35 2,53 5,39" />
<polygon fill="#302b4c" fill-opacity="0.501961" points="14,158 6,139 -10,141" />
<polygon fill="#b6e2d7" fill-opacity="0.501961" points="12,6 12,-16 18,-16" />
<polygon fill="#75e3dd" fill-opacity="0.501961" points="46,58 38,58 45,86" />
<polygon fill="#515f95" fill-opacity="0.501961" points="194,51 215,47 188,63" />
<polygon fill="#304e5d" fill-opacity="0.501961" points="126,96 122,80 103,103" />
<polygon fill="#6c8fd6" fill-opacity="0.501961" points="76,86 72,71 67,87" />
<polygon fill="#d8fcf7" fill-opacity="0.501961" points="21,-13 61,-16 20,0" />
<polygon fill="#4d5477" fill-opacity="0.501961" points="17,114 32,104 16,124" />
<polygon fill="#1f3842" fill-opacity="0.501961" points="140,65 154,69 142,50" />
<polygon fill="#616da7" fill-opacity="0.501961" points="259,93 242,101 223,92" />
<polygon fill="#575dba" fill-opacity="0.501961" points="246,9 240,11 245,-10" />
<polygon fill="#426776" fill-opacity="0.501961" points="163,53 163,59 152,54" />
<polygon fill="#626d9b" fill-opacity="0.501961" points="11,134 43,118 39,132" />
<polygon fill="#7ca9a4" fill-opacity="0.501961" points="220,42 216,26 215,36" />
<polygon fill="#5b6b92" fill-opacity="0.501961" points="206,41 210,72 223,40" />
<polygon fill="#628090" fill-opacity="0.501961" points="87,54 93,64 108,63" />
<polygon fill="#3b4b64" fill-opacity="0.501961" points="36,82 37,102 21,106" />
<polygon fill="#c3f3ef" fill-opacity="0.501961" points="36,2 43,-16 27,-8" />
<polygon fill="#6a7c9a" fill-opacity="0.501961" points="38,65 31,51 30,72" />
<polygon fill="#538298" fill-opacity="0.501961" points="105,44 128,47 95,54" />
<polygon fill="#a0dddf" fill-opacity="0.501961" points="41,62 38,42 44,42" />
<polygon fill="#365969" fill-opacity="0.501961" points="136,27 133,35 106,34" />
<polygon fill="#4f6b78" fill-opacity="0.501961" points="26,0 29,6 34,-10" />
<polygon fill="#6f8fc7" fill-opacity="0.501961" points="60,116 51,126 59,123" />
<polygon fill="#5995b3" fill-opacity="0.501961" points="87,85 97,76 87,93" />
<polygon fill="#a0b3db" fill-opacity="0.501961" points="16,17 11,3 12,24" />
<polygon fill="#93dace" fill-opacity="0.501961" points="48,111 50,110 45,107" />
<polygon fill="#72888f" fill-opacity="0.501961" points="52,28 58,42 49,59" />
<polygon fill="#695e7c" fill-opacity="0.501961" points="232,136 217,134 215,122" />
<polygon fill="#395481" fill-opacity="0.501961" points="9,97 10,72 4,84" />
<polygon fill="#3a5158" fill-opacity="0.501961" points="87,126 79,145 119,148" />
<polygon fill="#7f83a3" fill-opacity="0.501961" points="65,51 67,59 63,55" />
<polygon fill="#7682e8" fill-opacity="0.501961" points="32,4 31,-16 37,-10" />
<polygon fill="#7b81ca" fill-opacity="0.501961" points="19,5 9,40 19,26" />
<polygon fill="#8076c3" fill-opacity="0.501961" points="73,66 71,58 68,60" />
<polygon fill="#516292" fill-opacity="0.501961" points="93,82 89,69 86,79" />
<polygon fill="#c3f2e5" fill-opacity="0.501961" points="70,50 68,56 70,56" />
<polygon fill="#8ea3a1" fill-opacity="0.501961" points="83,16 82,7 71,7" />
<polygon fill="#7d90d9" fill-opacity="0.501961" points="20,36 17,48 23,60" />
<polygon fill="#32535f" fill-opacity="0.501961" points="138,53 122,54 134,48" />
<polygon fill="#5a7ca1" fill-opacity="0.501961" points="169,64 184,56 166,75" />
<polygon fill="#254459" fill-opacity="0.501961" points="161,74 157,69 146,84" />
<polygon fill="#7db7c8" fill-opacity="0.501961" points="8,6 9,-16 2,-16" />
<polygon fill="#485f59" fill-opacity="0.501961" points="52,6 62,8 55,-16" />
<polygon fill="#444c59" fill-opacity="0.501961" points="5,101 -3,150 -16,120" />
<polygon fill="#5f87a5" fill-opacity="0.501961" points="92,110 98,128 86,120" />
<polygon fill="#688ccd" fill-opacity="0.501961" points="37,54 40,65 37,76" />
<polygon fill="#6797b7" fill-opacity="0.501961" points="189,21 181,29 187,41" />
<polygon fill="#5878b0" fill-opacity="0.501961" points="55,86 58,91 48,104" />
<polygon fill="#739fb4" fill-opacity="0.501961" points="170,36 163,67 175,55" />
<polygon fill="#7266c4" fill-opacity="0.501961" points="18,-6 13,0 18,13" />
<polygon fill="#5582ad" fill-opacity="0.501961" points="17,77 18,81 19,72" />
<polygon fill="#41667a" fill-opacity="0.501961" points="136,126 126,97 114,128" />
<polygon fill="#587d8e" fill-opacity="0.501961" points="143,42 140,51 129,45" />
<polygon fill="#32397d" fill-opacity="0.501961" points="33,138 46,133 23,135" />
<polygon fill="#5d6f70" fill-opacity="0.501961" points="55,66 68,76 59,82" />
<polygon fill="#394453" fill-opacity="0.501961" points="204,131 221,131 190,140" />
<polygon fill="#809fd4" fill-opacity="0.501961" points="101,52 99,46 89,47" />
<polygon fill="#96aade" fill-opacity="0.501961" points="32,38 39,18 37,55" />
<polygon fill="#585a92" fill-opacity="0.501961" points="236,85 230,71 243,74" />
<polygon fill="#80e0e5" fill-opacity="0.501961" points="41,17 42,44 49,24" />
<polygon fill="#5a72a7" fill-opacity="0.501961" points="48,114 61,107 53,124" />
<polygon fill="#6b829e" fill-opacity="0.501961" points="98,53 87,45 79,52" />
<polygon fill="#626e74" fill-opacity="0.501961" points="61,26 62,34 76,27" />
<polygon fill="#4a6b89" fill-opacity="0.501961" points="152,12 133,5 165,-2" />
<polygon fill="#9cced8" fill-opacity="0.501961" points="191,12 184,-16 194,-7" />
<polygon fill="#837fd9" fill-opacity="0.501961" points="76,71 75,80 71,70" />
<polygon fill="#538291" fill-opacity="0.501961" points="124,15 111,7 99,27" />
<polygon fill="#1f354e" fill-opacity="0.501961" points="63,132 80,131 72,134" />
<polygon fill="#5a5aa5" fill-opacity="0.501961" points="269,112 271,134 233,131" />
<polygon fill="#3d5073" fill-opacity="0.501961" points="161,83 164,113 194,111" />
<polygon fill="#a6cedf" fill-opacity="0.501961" points="25,54 27,62 29,47" />
<polygon fill="#223741" fill-opacity="0.501961" points="140,113 141,128 154,127" />
<polygon fill="#2c4543" fill-opacity="0.501961" points="90,131 106,131 100,128" />
<polygon fill="#314463" fill-opacity="0.501961" points="159,86 147,100 170,120" />
<polygon fill="#6c88a9" fill-opacity="0.501961" points="207,76 205,99 200,84" />
<polygon fill="#71afb8" fill-opacity="0.501961" points="89,-16 85,-8 87,3" />
<polygon fill="#486e95" fill-opacity="0.501961" points="22,96 27,92 22,105" />
</g>
</svg>