<svg xmlns="http://www.w3.org/2000/svg" version="1.1" width="1024" height="576">
<rect x="0" y="0" width="1024" height="576" fill="#75726e" />
<g transform="scale(4.000000) translate(0.5 0.5)">
<polygon fill="#000000" fill-opacity="0.501961" points="-9,-16 -3,159 86,137" />
<polygon fill="#ffffff" fill-opacity="0.501961" points="122,5 153,126 213,159" />
<polygon fill="#ffffff" fill-opacity="0.501961" points="261,122 187,-16 136,-11" />
<polygon fill="#ffffff" fill-opacity="0.501961" points="255,14 258,60 202,-16" />
<polygon fill="#0e0f15" fill-opacity="0.501961" points="144,59 190,32 247,159" />
<polygon fill="#ffffff" fill-opacity="0.501961" points="153,159 123,107 86,110" />
<polygon fill="#ffffff" fill-opacity="0.501961" points="232,123 209,37 271,123" />
<polygon fill="#fffffe" fill-opacity="0.501961" points="108,75 218,159 155,70" />
<polygon fill="#13151d" fill-opacity="0.501961" points="195,9 250,95 271,68" />
<polygon fill="#ffffff" fill-opacity="0.501961" points="11,-16 32,1 8,36" />
<polygon fill="#d1c9b2" fill-opacity="0.501961" points="214,-16 135,53 86,4" />
<polygon fill="#504635" fill-opacity="0.501961" points="-6,37 104,119 96,-16" />
<polygon fill="#201f20" fill-opacity="0.501961" points="271,143 159,76 216,152" />
<polygon fill="#000506" fill-opacity="0.501961" points="-13,74 40,145 38,34" />
<polygon fill="#ffffff" fill-opacity="0.501961" points="222,79 197,11 155,-16" />
<polygon fill="#51555a" fill-opacity="0.501961" points="238,105 165,-1 148,56" />
<polygon fill="#ffffff" fill-opacity="0.501961" points="268,73 271,25 215,-3" />
<polygon fill="#cea187" fill-opacity="0.501961" points="143,75 116,61 75,152" />
<polygon fill="#1f2124" fill-opacity="0.501961" points="151,159 123,94 164,129" />
<polygon fill="#f5f8fa" fill-opacity="0.501961" points="181,157 136,79 209,145" />
<polygon fill="#ffffff" fill-opacity="0.501961" points="127,117 98,122 141,143" />
<polygon fill="#988a76" fill-opacity="0.501961" points="119,49 47,21 73,68" />
<polygon fill="#18171e" fill-opacity="0.501961" points="93,132 82,151 143,144" />
<polygon fill="#1b1819" fill-opacity="0.501961" points="112,33 96,46 74,19" />
<polygon fill="#5d5344" fill-opacity="0.501961" points="138,77 154,54 114,45" />
<polygon fill="#f4e0af" fill-opacity="0.501961" points="116,5 162,47 122,37" />
<polygon fill="#ffffff" fill-opacity="0.501961" points="271,89 225,107 266,130" />
<polygon fill="#716952" fill-opacity="0.501961" points="85,120 50,63 34,94" />
<polygon fill="#ffffff" fill-opacity="0.501961" points="29,-2 20,20 3,-10" />
<polygon fill="#2d3f44" fill-opacity="0.501961" points="91,-16 19,54 39,-5" />
<polygon fill="#291912" fill-opacity="0.501961" points="117,78 106,57 86,59" />
<polygon fill="#404041" fill-opacity="0.501961" points="133,84 153,155 120,105" />
<polygon fill="#f7fafb" fill-opacity="0.501961" points="237,1 206,-12 256,50" />
<polygon fill="#e6d0ab" fill-opacity="0.501961" points="116,65 115,36 104,49" />
<polygon fill="#1b1711" fill-opacity="0.501961" points="-16,79 54,140 84,120" />
<polygon fill="#616169" fill-opacity="0.501961" points="176,-16 222,17 221,49" />
<polygon fill="#958476" fill-opacity="0.501961" points="158,-13 28,42 101,-16" />
<polygon fill="#bbcab9" fill-opacity="0.501961" points="11,136 18,152 26,141" />
<polygon fill="#8f9b9b" fill-opacity="0.501961" points="157,-2 130,93 178,15" />
<polygon fill="#2c2c30" fill-opacity="0.501961" points="242,78 271,79 209,4" />
<polygon fill="#b69585" fill-opacity="0.501961" points="100,134 75,105 113,103" />
<polygon fill="#181a1c" fill-opacity="0.501961" points="-16,69 13,21 1,-16" />
<polygon fill="#282821" fill-opacity="0.501961" points="61,76 91,73 105,98" />
<polygon fill="#373636" fill-opacity="0.501961" points="216,159 159,41 229,92" />
<polygon fill="#7c8686" fill-opacity="0.501961" points="173,140 141,113 133,81" />
<polygon fill="#e7ebee" fill-opacity="0.501961" points="184,-15 218,73 157,-9" />
<polygon fill="#cda98c" fill-opacity="0.501961" points="96,77 113,103 142,67" />
<polygon fill="#32333e" fill-opacity="0.501961" points="246,11 271,18 242,-16" />
<polygon fill="#3d352f" fill-opacity="0.501961" points="86,10 107,31 68,24" />
<polygon fill="#f6f7f7" fill-opacity="0.501961" points="108,118 147,150 121,109" />
<polygon fill="#eceeef" fill-opacity="0.501961" points="210,62 249,93 198,21" />
<polygon fill="#635a48" fill-opacity="0.501961" points="45,80 73,85 96,159" />
<polygon fill="#eaebec" fill-opacity="0.501961" points="208,146 149,63 138,91" />
<polygon fill="#eaeef0" fill-opacity="0.501961" points="238,118 222,101 271,113" />
<polygon fill="#7f8c90" fill-opacity="0.501961" points="152,-16 96,-9 156,32" />
<polygon fill="#37322e" fill-opacity="0.501961" points="134,49 116,45 123,65" />
<polygon fill="#515052" fill-opacity="0.501961" points="147,51 172,91 184,28" />
<polygon fill="#050004" fill-opacity="0.501961" points="91,92 99,103 102,98" />
<polygon fill="#ecdaae" fill-opacity="0.501961" points="114,14 140,21 148,61" />
<polygon fill="#836b64" fill-opacity="0.501961" points="5,24 17,36 4,52" />
<polygon fill="#626465" fill-opacity="0.501961" points="133,146 123,133 94,133" />
<polygon fill="#616164" fill-opacity="0.501961" points="223,80 184,27 148,33" />
<polygon fill="#363533" fill-opacity="0.501961" points="271,130 224,159 200,119" />
<polygon fill="#ab927c" fill-opacity="0.501961" points="125,46 64,-16 117,-6" />
<polygon fill="#f2f2f4" fill-opacity="0.501961" points="185,159 214,159 161,116" />
<polygon fill="#847b6b" fill-opacity="0.501961" points="98,42 56,17 83,71" />
<polygon fill="#a9897b" fill-opacity="0.501961" points="98,101 82,88 99,112" />
<polygon fill="#bac5c5" fill-opacity="0.501961" points="141,16 171,-12 162,15" />
<polygon fill="#e7eced" fill-opacity="0.501961" points="13,25 21,26 18,4" />
<polygon fill="#b2977f" fill-opacity="0.501961" points="93,131 72,96 106,118" />
<polygon fill="#e6e7e8" fill-opacity="0.501961" points="118,113 144,143 101,126" />
<polygon fill="#6c6759" fill-opacity="0.501961" points="41,93 68,105 66,27" />
<polygon fill="#42352d" fill-opacity="0.501961" points="115,79 101,60 91,66" />
<polygon fill="#32312f" fill-opacity="0.501961" points="150,145 134,102 176,159" />
<polygon fill="#e8ebeb" fill-opacity="0.501961" points="249,95 214,53 243,119" />
<polygon fill="#5e6260" fill-opacity="0.501961" points="254,133 239,127 247,118" />
<polygon fill="#55504c" fill-opacity="0.501961" points="23,14 42,42 10,44" />
<polygon fill="#3c3226" fill-opacity="0.501961" points="65,159 83,125 68,105" />
<polygon fill="#a2aab0" fill-opacity="0.501961" points="261,54 244,48 257,61" />
<polygon fill="#957a85" fill-opacity="0.501961" points="119,105 120,89 104,122" />
<polygon fill="#282b26" fill-opacity="0.501961" points="45,59 35,95 33,36" />
<polygon fill="#6c6d6e" fill-opacity="0.501961" points="152,67 176,84 188,116" />
<polygon fill="#747577" fill-opacity="0.501961" points="223,56 234,58 244,85" />
<polygon fill="#312e37" fill-opacity="0.501961" points="117,159 100,128 74,159" />
<polygon fill="#282728" fill-opacity="0.501961" points="250,57 229,58 271,108" />
<polygon fill="#919b85" fill-opacity="0.501961" points="85,82 92,90 99,90" />
<polygon fill="#857362" fill-opacity="0.501961" points="132,43 142,65 136,80" />
<polygon fill="#423c37" fill-opacity="0.501961" points="135,68 117,57 120,39" />
<polygon fill="#ecd9b6" fill-opacity="0.501961" points="124,95 128,75 137,70" />
<polygon fill="#505353" fill-opacity="0.501961" points="212,112 216,92 240,131" />
<polygon fill="#c19f91" fill-opacity="0.501961" points="115,53 128,85 106,116" />
<polygon fill="#848889" fill-opacity="0.501961" points="146,109 154,131 178,146" />
<polygon fill="#16211e" fill-opacity="0.501961" points="4,135 31,126 -16,124" />
<polygon fill="#d0ba9b" fill-opacity="0.501961" points="136,18 97,-3 135,48" />
<polygon fill="#7e765f" fill-opacity="0.501961" points="70,45 108,79 62,64" />
<polygon fill="#72747c" fill-opacity="0.501961" points="232,23 196,12 200,-16" />
<polygon fill="#151b1c" fill-opacity="0.501961" points="-15,57 30,140 35,42" />
<polygon fill="#f1f3f4" fill-opacity="0.501961" points="41,-16 0,-14 19,16" />
<polygon fill="#3a3839" fill-opacity="0.501961" points="158,57 194,52 194,119" />
<polygon fill="#958364" fill-opacity="0.501961" points="98,17 117,46 126,39" />
<polygon fill="#a9b3b0" fill-opacity="0.501961" points="157,21 158,30 174,25" />
<polygon fill="#ecedee" fill-opacity="0.501961" points="271,52 227,-12 242,32" />
<polygon fill="#191d1c" fill-opacity="0.501961" points="90,90 73,73 66,77" />
<polygon fill="#151514" fill-opacity="0.501961" points="-8,-16 -16,96 7,30" />
<polygon fill="#8a7d74" fill-opacity="0.501961" points="92,45 110,42 107,62" />
<polygon fill="#a4adaf" fill-opacity="0.501961" points="187,34 201,52 197,40" />
<polygon fill="#474748" fill-opacity="0.501961" points="210,102 230,99 186,41" />
<polygon fill="#302b29" fill-opacity="0.501961" points="110,43 89,40 92,20" />
<polygon fill="#444448" fill-opacity="0.501961" points="217,37 211,11 248,51" />
<polygon fill="#3f3b3b" fill-opacity="0.501961" points="131,94 149,133 118,102" />
<polygon fill="#dcd3b4" fill-opacity="0.501961" points="118,42 113,57 114,40" />
<polygon fill="#8a806f" fill-opacity="0.501961" points="55,20 41,44 75,27" />
<polygon fill="#64666e" fill-opacity="0.501961" points="225,-16 245,11 246,-16" />
<polygon fill="#65553f" fill-opacity="0.501961" points="89,136 71,159 57,140" />
<polygon fill="#e1e5e5" fill-opacity="0.501961" points="142,71 158,111 137,85" />
<polygon fill="#e2e3e4" fill-opacity="0.501961" points="234,123 238,85 266,112" />
<polygon fill="#b9b2a2" fill-opacity="0.501961" points="146,61 134,71 146,49" />
<polygon fill="#6b706d" fill-opacity="0.501961" points="244,129 250,125 227,117" />
<polygon fill="#7b7c7f" fill-opacity="0.501961" points="242,83 251,96 260,97" />
<polygon fill="#8a908d" fill-opacity="0.501961" points="134,79 147,107 133,98" />
<polygon fill="#878076" fill-opacity="0.501961" points="80,14 75,-16 175,-16" />
<polygon fill="#333131" fill-opacity="0.501961" points="173,67 232,125 219,157" />
<polygon fill="#ece2b7" fill-opacity="0.501961" points="143,54 126,16 143,26" />
<polygon fill="#757d7d" fill-opacity="0.501961" points="143,74 142,65 149,57" />
<polygon fill="#676865" fill-opacity="0.501961" points="123,136 115,159 167,159" />
<polygon fill="#8f9094" fill-opacity="0.501961" points="192,34 169,7 155,18" />
<polygon fill="#3e4545" fill-opacity="0.501961" points="51,-4 66,11 26,46" />
<polygon fill="#c8a48d" fill-opacity="0.501961" points="123,97 110,76 126,67" />
<polygon fill="#4f5252" fill-opacity="0.501961" points="3,34 14,19 10,8" />
<polygon fill="#29241d" fill-opacity="0.501961" points="28,89 45,140 76,135" />
<polygon fill="#494948" fill-opacity="0.501961" points="152,61 161,56 147,49" />
<polygon fill="#8f8d92" fill-opacity="0.501961" points="195,-15 205,26 178,-16" />
<polygon fill="#657676" fill-opacity="0.501961" points="37,11 47,-16 23,13" />
<polygon fill="#b69993" fill-opacity="0.501961" points="126,91 83,119 92,133" />
<polygon fill="#4e5953" fill-opacity="0.501961" points="9,138 4,128 28,139" />
<polygon fill="#2c3635" fill-opacity="0.501961" points="1,99 42,138 35,155" />
<polygon fill="#483b30" fill-opacity="0.501961" points="71,84 68,91 92,102" />
<polygon fill="#454033" fill-opacity="0.501961" points="70,71 79,82 86,72" />
<polygon fill="#ececed" fill-opacity="0.501961" points="183,-16 155,-16 198,43" />
<polygon fill="#463f33" fill-opacity="0.501961" points="56,113 84,117 37,96" />
<polygon fill="#a6b5ae" fill-opacity="0.501961" points="157,45 157,50 154,42" />
<polygon fill="#b29c8d" fill-opacity="0.501961" points="129,12 107,21 94,-10" />
<polygon fill="#4a4a4d" fill-opacity="0.501961" points="158,32 162,56 213,69" />
<polygon fill="#685a4f" fill-opacity="0.501961" points="72,39 33,40 66,57" />
<polygon fill="#858b87" fill-opacity="0.501961" points="164,20 145,28 117,0" />
<polygon fill="#786b60" fill-opacity="0.501961" points="27,31 27,44 22,44" />
<polygon fill="#919a9e" fill-opacity="0.501961" points="224,99 222,106 233,115" />
<polygon fill="#725b45" fill-opacity="0.501961" points="114,68 113,59 96,54" />
<polygon fill="#edeae9" fill-opacity="0.501961" points="103,126 120,105 125,129" />
<polygon fill="#b5bcbf" fill-opacity="0.501961" points="12,24 13,30 6,30" />
<polygon fill="#e8e9e9" fill-opacity="0.501961" points="271,80 264,21 221,-2" />
<polygon fill="#67574a" fill-opacity="0.501961" points="82,11 94,27 67,20" />
<polygon fill="#0d1211" fill-opacity="0.501961" points="4,128 -16,117 14,147" />
<polygon fill="#6c6c6c" fill-opacity="0.501961" points="213,37 220,51 228,53" />
<polygon fill="#6a7567" fill-opacity="0.501961" points="88,79 96,89 79,80" />
<polygon fill="#615850" fill-opacity="0.501961" points="122,42 130,58 137,53" />
<polygon fill="#dfe0e1" fill-opacity="0.501961" points="163,83 219,159 182,141" />
<polygon fill="#45352d" fill-opacity="0.501961" points="11,29 20,29 21,55" />
<polygon fill="#87735a" fill-opacity="0.501961" points="87,137 77,105 91,127" />
<polygon fill="#5a595e" fill-opacity="0.501961" points="205,3 209,25 235,28" />
<polygon fill="#f0f2f2" fill-opacity="0.501961" points="271,106 256,93 252,107" />
<polygon fill="#7d6459" fill-opacity="0.501961" points="3,51 19,24 4,38" />
<polygon fill="#e2e4e5" fill-opacity="0.501961" points="244,106 225,58 206,58" />
<polygon fill="#382d25" fill-opacity="0.501961" points="83,72 98,85 72,73" />
<polygon fill="#6f7070" fill-opacity="0.501961" points="141,139 135,127 151,145" />
<polygon fill="#686569" fill-opacity="0.501961" points="126,138 95,133 101,126" />
<polygon fill="#5d4738" fill-opacity="0.501961" points="100,81 105,102 87,74" />
<polygon fill="#a58a7a" fill-opacity="0.501961" points="125,94 105,103 102,86" />
<polygon fill="#352c28" fill-opacity="0.501961" points="110,75 113,68 92,58" />
<polygon fill="#5b534a" fill-opacity="0.501961" points="47,86 39,35 58,52" />
<polygon fill="#727576" fill-opacity="0.501961" points="125,9 104,-10 134,-16" />
<polygon fill="#22201f" fill-opacity="0.501961" points="-16,28 8,37 2,-14" />
<polygon fill="#232929" fill-opacity="0.501961" points="39,59 -16,67 27,44" />
<polygon fill="#b39c81" fill-opacity="0.501961" points="116,101 91,70 114,85" />
<polygon fill="#857b68" fill-opacity="0.501961" points="63,94 69,104 88,104" />
<polygon fill="#706f72" fill-opacity="0.501961" points="173,40 194,43 176,21" />
<polygon fill="#312e2c" fill-opacity="0.501961" points="99,56 112,71 90,57" />
<polygon fill="#ececeb" fill-opacity="0.501961" points="189,6 194,38 229,65" />
<polygon fill="#8e827b" fill-opacity="0.501961" points="86,57 113,39 101,55" />
<polygon fill="#121415" fill-opacity="0.501961" points="-16,71 29,121 33,77" />
<polygon fill="#45464b" fill-opacity="0.501961" points="235,31 257,63 217,29" />
<polygon fill="#445650" fill-opacity="0.501961" points="-11,82 10,116 -5,114" />
<polygon fill="#a4aba8" fill-opacity="0.501961" points="153,111 177,143 159,129" />
<polygon fill="#696d6e" fill-opacity="0.501961" points="157,134 171,150 158,123" />
<polygon fill="#695e65" fill-opacity="0.501961" points="127,100 109,113 118,101" />
<polygon fill="#dfe3e4" fill-opacity="0.501961" points="24,14 20,12 12,26" />
<polygon fill="#2b2b29" fill-opacity="0.501961" points="82,31 106,38 97,21" />
<polygon fill="#484745" fill-opacity="0.501961" points="218,152 237,125 271,128" />
<polygon fill="#b0b8b4" fill-opacity="0.501961" points="168,19 172,27 172,16" />
<polygon fill="#e7e7e7" fill-opacity="0.501961" points="137,87 152,66 192,142" />
<polygon fill="#465151" fill-opacity="0.501961" points="60,6 26,18 25,37" />
<polygon fill="#ececec" fill-opacity="0.501961" points="27,-10 7,-16 17,23" />
<polygon fill="#9eafa6" fill-opacity="0.501961" points="147,39 145,28 159,44" />
<polygon fill="#445048" fill-opacity="0.501961" points="-15,132 15,151 2,132" />
<polygon fill="#dfd5b9" fill-opacity="0.501961" points="112,46 116,51 114,59" />
<polygon fill="#98a4a2" fill-opacity="0.501961" points="239,120 230,117 235,124" />
<polygon fill="#3c3c30" fill-opacity="0.501961" points="38,68 40,100 32,95" />
<polygon fill="#908875" fill-opacity="0.501961" points="55,25 89,44 63,17" />
<polygon fill="#9aa3a6" fill-opacity="0.501961" points="147,13 157,3 124,-16" />
<polygon fill="#242321" fill-opacity="0.501961" points="98,101 85,88 100,95" />
<polygon fill="#544c44" fill-opacity="0.501961" points="100,45 112,36 96,36" />
<polygon fill="#747f81" fill-opacity="0.501961" points="232,96 228,100 221,80" />
<polygon fill="#4b5454" fill-opacity="0.501961" points="27,-12 104,-8 41,15" />
<polygon fill="#8e7f7f" fill-opacity="0.501961" points="111,114 100,126 100,119" />
<polygon fill="#6f6e70" fill-opacity="0.501961" points="214,41 199,11 207,1" />
<polygon fill="#181715" fill-opacity="0.501961" points="-16,41 2,52 3,25" />
<polygon fill="#e8e9e9" fill-opacity="0.501961" points="234,-16 211,-8 235,27" />
<polygon fill="#766959" fill-opacity="0.501961" points="58,30 38,39 90,52" />
<polygon fill="#87776e" fill-opacity="0.501961" points="139,73 131,64 122,65" />
<polygon fill="#6c6757" fill-opacity="0.501961" points="68,49 46,92 66,103" />
<polygon fill="#e3e5e6" fill-opacity="0.501961" points="239,120 224,102 252,111" />
<polygon fill="#888e94" fill-opacity="0.501961" points="211,-8 204,-5 222,12" />
<polygon fill="#73735f" fill-opacity="0.501961" points="95,91 98,95 97,98" />
<polygon fill="#cbaf97" fill-opacity="0.501961" points="72,151 84,138 77,159" />
<polygon fill="#3e3d3c" fill-opacity="0.501961" points="255,155 201,108 218,100" />
<polygon fill="#5f6b5e" fill-opacity="0.501961" points="84,77 86,81 73,78" />
<polygon fill="#a7b1b0" fill-opacity="0.501961" points="80,159 87,140 90,159" />
<polygon fill="#848b83" fill-opacity="0.501961" points="151,36 163,30 139,21" />
<polygon fill="#2d2b2a" fill-opacity="0.501961" points="226,140 216,149 194,102" />
<polygon fill="#363432" fill-opacity="0.501961" points="144,138 160,141 163,159" />
<polygon fill="#495d5d" fill-opacity="0.501961" points="137,74 134,78 138,79" />
<polygon fill="#1a1713" fill-opacity="0.501961" points="56,116 45,125 37,103" />
<polygon fill="#e4d7d2" fill-opacity="0.501961" points="118,106 99,129 112,125" />
<polygon fill="#727576" fill-opacity="0.501961" points="141,97 130,92 148,118" />
<polygon fill="#3e3427" fill-opacity="0.501961" points="50,151 70,136 41,129" />
<polygon fill="#2c3635" fill-opacity="0.501961" points="-14,83 9,99 18,121" />
<polygon fill="#7a634e" fill-opacity="0.501961" points="86,105 97,111 90,97" />
<polygon fill="#595c5f" fill-opacity="0.501961" points="218,107 212,98 225,98" />
<polygon fill="#413f44" fill-opacity="0.501961" points="234,-5 266,0 255,7" />
<polygon fill="#e5e5e5" fill-opacity="0.501961" points="204,143 145,83 183,159" />
<polygon fill="#47484a" fill-opacity="0.501961" points="246,72 246,84 233,65" />
<polygon fill="#d7c7a5" fill-opacity="0.501961" points="122,19 142,23 130,13" />
<polygon fill="#d9e0e0" fill-opacity="0.501961" points="136,-11 182,-16 164,3" />
<polygon fill="#79736d" fill-opacity="0.501961" points="25,36 23,23 20,25" />
<polygon fill="#bac0b4" fill-opacity="0.501961" points="37,159 26,159 12,138" />
<polygon fill="#4b4b4d" fill-opacity="0.501961" points="228,93 175,52 206,63" />
<polygon fill="#7c705a" fill-opacity="0.501961" points="94,68 103,88 81,65" />
<polygon fill="#77634e" fill-opacity="0.501961" points="98,75 108,76 105,69" />
<polygon fill="#babaab" fill-opacity="0.501961" points="146,57 140,55 147,63" />
<polygon fill="#bea37d" fill-opacity="0.501961" points="141,50 125,43 114,25" />
<polygon fill="#43403c" fill-opacity="0.501961" points="141,109 123,102 126,94" />
<polygon fill="#4a4849" fill-opacity="0.501961" points="180,87 163,76 189,112" />
<polygon fill="#bc9e8a" fill-opacity="0.501961" points="84,110 93,130 107,114" />
<polygon fill="#6b5a52" fill-opacity="0.501961" points="7,25 7,51 13,44" />
<polygon fill="#7e8283" fill-opacity="0.501961" points="194,119 184,111 195,126" />
<polygon fill="#a08880" fill-opacity="0.501961" points="94,100 80,88 89,92" />
<polygon fill="#2b2b2c" fill-opacity="0.501961" points="227,37 271,115 260,70" />
<polygon fill="#dfe1e2" fill-opacity="0.501961" points="133,128 143,144 108,127" />
<polygon fill="#857560" fill-opacity="0.501961" points="131,48 115,29 111,38" />
<polygon fill="#aa9b87" fill-opacity="0.501961" points="123,63 114,83 113,62" />
<polygon fill="#333131" fill-opacity="0.501961" points="110,137 131,159 50,152" />
<polygon fill="#a48978" fill-opacity="0.501961" points="91,111 95,120 101,102" />
<polygon fill="#e3e4e4" fill-opacity="0.501961" points="231,67 229,91 269,128" />
<polygon fill="#aa9385" fill-opacity="0.501961" points="86,143 96,103 98,123" />
<polygon fill="#ceb2b8" fill-opacity="0.501961" points="113,106 105,117 104,111" />
<polygon fill="#4c4038" fill-opacity="0.501961" points="98,73 93,64 109,65" />
<polygon fill="#757876" fill-opacity="0.501961" points="41,136 43,151 37,159" />
<polygon fill="#967b6f" fill-opacity="0.501961" points="6,39 3,43 3,49" />
<polygon fill="#99a4a8" fill-opacity="0.501961" points="213,66 202,56 206,55" />
<polygon fill="#7d7165" fill-opacity="0.501961" points="75,-16 79,18 89,-1" />
<polygon fill="#b2baab" fill-opacity="0.501961" points="22,139 36,159 29,159" />
<polygon fill="#e8eaea" fill-opacity="0.501961" points="105,126 140,140 117,110" />
<polygon fill="#93776e" fill-opacity="0.501961" points="130,55 138,63 136,69" />
<polygon fill="#535556" fill-opacity="0.501961" points="158,64 147,57 152,64" />
<polygon fill="#574c52" fill-opacity="0.501961" points="101,125 94,133 105,141" />
<polygon fill="#5d5e5e" fill-opacity="0.501961" points="207,138 200,156 209,148" />
<polygon fill="#353b36" fill-opacity="0.501961" points="37,24 44,24 31,45" />
<polygon fill="#e9e3c0" fill-opacity="0.501961" points="146,38 138,24 141,47" />
<polygon fill="#b1a393" fill-opacity="0.501961" points="111,48 99,53 109,54" />
<polygon fill="#606669" fill-opacity="0.501961" points="224,87 220,80 219,85" />
<polygon fill="#919699" fill-opacity="0.501961" points="131,140 154,156 145,145" />
<polygon fill="#000000" fill-opacity="0.501961" points="83,143 73,159 84,153" />
<polygon fill="#b1bbb8" fill-opacity="0.501961" points="148,101 139,88 140,97" />
<polygon fill="#6f6f71" fill-opacity="0.501961" points="254,14 242,7 268,13" />
<polygon fill="#767a7a" fill-opacity="0.501961" points="148,121 167,137 145,104" />
<polygon fill="#2f2b25" fill-opacity="0.501961" points="80,130 56,137 63,110" />
<polygon fill="#f0edcd" fill-opacity="0.501961" points="130,85 130,79 135,73" />
<polygon fill="#272b2a" fill-opacity="0.501961" points="88,27 73,22 87,33" />
<polygon fill="#31302f" fill-opacity="0.501961" points="2,30 10,21 6,8" />
<polygon fill="#dac09d" fill-opacity="0.501961" points="125,71 131,69 128,87" />
<polygon fill="#e7e8e7" fill-opacity="0.501961" points="135,84 189,120 161,80" />
<polygon fill="#4b4141" fill-opacity="0.501961" points="131,63 135,70 132,57" />
<polygon fill="#7e8471" fill-opacity="0.501961" points="87,84 97,94 96,88" />
<polygon fill="#48413b" fill-opacity="0.501961" points="117,60 127,51 120,41" />
<polygon fill="#8f9c92" fill-opacity="0.501961" points="146,40 160,45 148,50" />
<polygon fill="#7a7b7f" fill-opacity="0.501961" points="225,50 214,43 226,58" />
<polygon fill="#505052" fill-opacity="0.501961" points="232,61 224,43 220,49" />
<polygon fill="#656969" fill-opacity="0.501961" points="228,101 236,103 223,87" />
<polygon fill="#7a726a" fill-opacity="0.501961" points="101,46 85,37 83,63" />
<polygon fill="#e8e9e8" fill-opacity="0.501961" points="245,40 238,4 208,-16" />
<polygon fill="#6e6150" fill-opacity="0.501961" points="115,51 118,54 118,46" />
<polygon fill="#6d6c70" fill-opacity="0.501961" points="210,-2 226,20 203,4" />
<polygon fill="#bac4bf" fill-opacity="0.501961" points="159,6 161,12 143,15" />
<polygon fill="#e9eae9" fill-opacity="0.501961" points="32,2 -6,-16 17,6" />
<polygon fill="#645a4c" fill-opacity="0.501961" points="84,122 86,141 79,132" />
<polygon fill="#536565" fill-opacity="0.501961" points="17,27 28,10 24,23" />
<polygon fill="#474341" fill-opacity="0.501961" points="122,98 145,115 128,92" />
<polygon fill="#919397" fill-opacity="0.501961" points="234,-16 224,-16 244,11" />
<polygon fill="#9a9ea0" fill-opacity="0.501961" points="159,2 164,7 162,12" />
<polygon fill="#1b1e1f" fill-opacity="0.501961" points="39,47 36,68 -8,69" />
<polygon fill="#e6e7e7" fill-opacity="0.501961" points="252,123 249,96 270,131" />
<polygon fill="#aa9092" fill-opacity="0.501961" points="116,104 125,95 97,106" />
<polygon fill="#495350" fill-opacity="0.501961" points="36,149 29,138 16,159" />
<polygon fill="#e6e6e7" fill-opacity="0.501961" points="249,97 214,43 223,81" />
<polygon fill="#362e28" fill-opacity="0.501961" points="98,86 94,83 99,92" />
<polygon fill="#70777f" fill-opacity="0.501961" points="236,32 244,42 241,44" />
<polygon fill="#dfcea4" fill-opacity="0.501961" points="129,39 146,57 126,14" />
<polygon fill="#3a3739" fill-opacity="0.501961" points="213,121 205,85 174,60" />
<polygon fill="#303931" fill-opacity="0.501961" points="38,109 39,119 32,101" />
<polygon fill="#555556" fill-opacity="0.501961" points="195,121 203,128 206,139" />
<polygon fill="#b9bbbf" fill-opacity="0.501961" points="162,84 159,77 169,88" />
<polygon fill="#3d3b3a" fill-opacity="0.501961" points="164,145 145,117 152,159" />
<polygon fill="#e9eae9" fill-opacity="0.501961" points="149,65 139,86 168,91" />
<polygon fill="#957e6a" fill-opacity="0.501961" points="141,54 138,65 130,58" />
<polygon fill="#9ca5a8" fill-opacity="0.501961" points="238,104 229,91 232,104" />
<polygon fill="#6c6f71" fill-opacity="0.501961" points="197,55 190,41 206,59" />
<polygon fill="#5d4d48" fill-opacity="0.501961" points="93,28 68,17 85,19" />
<polygon fill="#9e907d" fill-opacity="0.501961" points="106,17 99,-16 95,17" />
<polygon fill="#757577" fill-opacity="0.501961" points="100,131 104,127 112,133" />
<polygon fill="#81878d" fill-opacity="0.501961" points="9,4 -6,-16 4,-16" />
<polygon fill="#6a7267" fill-opacity="0.501961" points="138,73 135,84 130,86" />
<polygon fill="#868388" fill-opacity="0.501961" points="171,11 177,20 161,11" />
<polygon fill="#877b72" fill-opacity="0.501961" points="101,53 73,59 112,39" />
<polygon fill="#5c5c5e" fill-opacity="0.501961" points="190,42 160,32 181,48" />
<polygon fill="#bac3c3" fill-opacity="0.501961" points="153,113 151,104 158,117" />
<polygon fill="#818688" fill-opacity="0.501961" points="129,117 131,121 125,116" />
<polygon fill="#565558" fill-opacity="0.501961" points="217,41 206,11 218,16" />
<polygon fill="#4c443c" fill-opacity="0.501961" points="41,53 37,68 49,54" />
<polygon fill="#5b6563" fill-opacity="0.501961" points="37,14 34,0 46,-9" />
<polygon fill="#625e53" fill-opacity="0.501961" points="66,85 79,99 52,90" />
<polygon fill="#cfd5d2" fill-opacity="0.501961" points="16,24 10,28 12,24" />
<polygon fill="#4e4d4d" fill-opacity="0.501961" points="197,119 198,127 189,115" />
<polygon fill="#5a6260" fill-opacity="0.501961" points="138,73 137,70 141,66" />
<polygon fill="#b9c4c7" fill-opacity="0.501961" points="205,55 201,47 202,53" />
<polygon fill="#8e9395" fill-opacity="0.501961" points="141,139 142,142 145,143" />
<polygon fill="#9aa3a4" fill-opacity="0.501961" points="26,6 30,9 23,12" />
<polygon fill="#1c1e1e" fill-opacity="0.501961" points="35,135 34,127 17,128" />
<polygon fill="#5f5440" fill-opacity="0.501961" points="80,120 66,103 73,103" />
<polygon fill="#776c59" fill-opacity="0.501961" points="74,71 69,40 61,69" />
<polygon fill="#d2dbdd" fill-opacity="0.501961" points="191,31 189,33 183,24" />
<polygon fill="#2c3331" fill-opacity="0.501961" points="25,50 -16,68 -6,54" />
<polygon fill="#171b19" fill-opacity="0.501961" points="72,77 77,84 68,79" />
<polygon fill="#eaebea" fill-opacity="0.501961" points="178,13 214,65 209,37" />
<polygon fill="#0a0e12" fill-opacity="0.501961" points="87,88 91,92 92,90" />
<polygon fill="#8c7771" fill-opacity="0.501961" points="87,93 83,88 77,86" />
<polygon fill="#e5e5e6" fill-opacity="0.501961" points="155,111 189,159 194,128" />
<polygon fill="#545454" fill-opacity="0.501961" points="146,54 165,77 160,57" />
<polygon fill="#67534b" fill-opacity="0.501961" points="14,28 10,31 13,40" />
<polygon fill="#757e79" fill-opacity="0.501961" points="158,52 160,49 148,43" />
<polygon fill="#e7e8e9" fill-opacity="0.501961" points="260,60 271,21 225,9" />
</g>
</svg>