<svg xmlns="http://www.w3.org/2000/svg" version="1.1" width="1024" height="576">
<rect x="0" y="0" width="1024" height="576" fill="#707976" />
<g transform="scale(4.000000) translate(0.5 0.5)">
<polygon fill="#a5aeac" fill-opacity="0.501961" points="22,98 98,-16 160,10" />
<polygon fill="#454f50" fill-opacity="0.501961" points="75,-16 -1,145 -16,-16" />
<polygon fill="#9fa8a3" fill-opacity="0.501961" points="224,44 172,145 229,133" />
<polygon fill="#454f42" fill-opacity="0.501961" points="180,97 112,80 155,16" />
<polygon fill="#949d9a" fill-opacity="0.501961" points="52,32 128,159 20,88" />
<polygon fill="#525c5c" fill-opacity="0.501961" points="270,72 271,-16 153,-2" />
<polygon fill="#98a29e" fill-opacity="0.501961" points="149,17 222,83 204,28" />
<polygon fill="#525c5b" fill-opacity="0.501961" points="73,110 55,159 -16,92" />
<polygon fill="#333d3c" fill-opacity="0.501961" points="59,71 41,88 57,91" />
<polygon fill="#5f685b" fill-opacity="0.501961" points="112,10 120,97 149,42" />
<polygon fill="#525c5b" fill-opacity="0.501961" points="236,35 235,151 271,116" />
<polygon fill="#a5aeab" fill-opacity="0.501961" points="35,93 40,75 63,125" />
<polygon fill="#212b2b" fill-opacity="0.501961" points="170,90 132,103 160,103" />
<polygon fill="#969e99" fill-opacity="0.501961" points="55,88 81,134 177,159" />
<polygon fill="#4b5454" fill-opacity="0.501961" points="111,-16 7,69 39,11" />
<polygon fill="#909790" fill-opacity="0.501961" points="177,113 192,73 146,114" />
<polygon fill="#8d9591" fill-opacity="0.501961" points="123,106 30,55 84,21" />
<polygon fill="#1b2126" fill-opacity="0.501961" points="58,102 73,119 61,118" />
<polygon fill="#929b96" fill-opacity="0.501961" points="164,149 130,132 238,120" />
<polygon fill="#5c6865" fill-opacity="0.501961" points="95,106 111,33 84,78" />
<polygon fill="#1a1c16" fill-opacity="0.501961" points="143,58 155,51 151,33" />
<polygon fill="#364045" fill-opacity="0.501961" points="110,27 108,16 124,19" />
<polygon fill="#a1abaa" fill-opacity="0.501961" points="72,10 121,0 81,30" />
<polygon fill="#8a9492" fill-opacity="0.501961" points="60,139 18,126 33,118" />
<polygon fill="#99a3a1" fill-opacity="0.501961" points="109,33 149,28 156,4" />
<polygon fill="#a1a59b" fill-opacity="0.501961" points="126,117 153,109 128,101" />
<polygon fill="#374140" fill-opacity="0.501961" points="46,136 23,131 28,148" />
<polygon fill="#222d31" fill-opacity="0.501961" points="175,80 169,59 167,97" />
<polygon fill="#232f2e" fill-opacity="0.501961" points="137,98 116,86 129,102" />
<polygon fill="#53605f" fill-opacity="0.501961" points="205,84 193,112 156,130" />
<polygon fill="#454d4d" fill-opacity="0.501961" points="10,58 28,82 9,125" />
<polygon fill="#2d3839" fill-opacity="0.501961" points="215,55 206,42 218,47" />
<polygon fill="#a5ada9" fill-opacity="0.501961" points="58,98 78,117 68,71" />
<polygon fill="#bcc4c4" fill-opacity="0.501961" points="24,98 43,92 30,101" />
<polygon fill="#909895" fill-opacity="0.501961" points="243,44 197,61 204,84" />
<polygon fill="#969576" fill-opacity="0.501961" points="127,52 145,67 153,62" />
<polygon fill="#76807c" fill-opacity="0.501961" points="258,100 217,128 237,86" />
<polygon fill="#6b7776" fill-opacity="0.501961" points="34,51 25,97 42,77" />
<polygon fill="#a1a4a2" fill-opacity="0.501961" points="121,83 129,93 123,69" />
<polygon fill="#717a79" fill-opacity="0.501961" points="-4,54 15,45 18,-6" />
<polygon fill="#939b99" fill-opacity="0.501961" points="207,45 216,28 170,31" />
<polygon fill="#56605e" fill-opacity="0.501961" points="234,45 224,87 256,86" />
<polygon fill="#9da5a2" fill-opacity="0.501961" points="222,125 232,110 230,141" />
<polygon fill="#5b6562" fill-opacity="0.501961" points="150,15 173,0 196,29" />
<polygon fill="#515e5d" fill-opacity="0.501961" points="124,128 157,126 100,114" />
<polygon fill="#79827d" fill-opacity="0.501961" points="158,147 72,99 102,134" />
<polygon fill="#4a5b4e" fill-opacity="0.501961" points="137,28 157,28 115,54" />
<polygon fill="#9da6a4" fill-opacity="0.501961" points="43,53 85,56 64,30" />
<polygon fill="#889390" fill-opacity="0.501961" points="49,122 31,105 54,114" />
<polygon fill="#616b6c" fill-opacity="0.501961" points="80,17 42,37 73,30" />
<polygon fill="#3f4948" fill-opacity="0.501961" points="235,131 252,121 226,157" />
<polygon fill="#969c93" fill-opacity="0.501961" points="103,93 113,52 115,94" />
<polygon fill="#848d8a" fill-opacity="0.501961" points="74,68 108,24 131,30" />
<polygon fill="#aab3af" fill-opacity="0.501961" points="84,121 107,137 82,133" />
<polygon fill="#a0a8a4" fill-opacity="0.501961" points="208,116 225,85 219,124" />
<polygon fill="#5b6b5e" fill-opacity="0.501961" points="172,67 177,42 114,88" />
<polygon fill="#818a85" fill-opacity="0.501961" points="175,118 177,47 194,94" />
<polygon fill="#5c6566" fill-opacity="0.501961" points="58,60 29,49 45,61" />
<polygon fill="#58605f" fill-opacity="0.501961" points="175,159 217,132 261,159" />
<polygon fill="#697475" fill-opacity="0.501961" points="128,5 97,-1 165,-11" />
<polygon fill="#87908c" fill-opacity="0.501961" points="9,109 -5,122 6,123" />
<polygon fill="#9ca4a1" fill-opacity="0.501961" points="92,1 81,24 141,9" />
<polygon fill="#4a5452" fill-opacity="0.501961" points="-8,84 35,107 19,124" />
<polygon fill="#a3a89d" fill-opacity="0.501961" points="125,99 117,95 111,111" />
<polygon fill="#3d4849" fill-opacity="0.501961" points="122,98 119,62 115,84" />
<polygon fill="#7a837e" fill-opacity="0.501961" points="167,140 218,75 205,121" />
<polygon fill="#576160" fill-opacity="0.501961" points="218,51 258,-3 210,15" />
<polygon fill="#848b79" fill-opacity="0.501961" points="138,51 147,48 149,29" />
<polygon fill="#444d4d" fill-opacity="0.501961" points="45,126 32,127 30,121" />
<polygon fill="#7d8682" fill-opacity="0.501961" points="191,15 202,41 210,23" />
<polygon fill="#545c5c" fill-opacity="0.501961" points="89,134 109,146 69,159" />
<polygon fill="#4d5758" fill-opacity="0.501961" points="182,64 125,81 145,95" />
<polygon fill="#646b69" fill-opacity="0.501961" points="229,86 232,110 222,120" />
<polygon fill="#939c97" fill-opacity="0.501961" points="239,83 239,94 228,99" />
<polygon fill="#a6a6a0" fill-opacity="0.501961" points="145,97 129,93 129,88" />
<polygon fill="#4c6158" fill-opacity="0.501961" points="158,32 190,52 154,41" />
<polygon fill="#6b7b6f" fill-opacity="0.501961" points="165,88 157,52 169,40" />
<polygon fill="#a6aaa0" fill-opacity="0.501961" points="151,104 145,113 153,120" />
<polygon fill="#454e4e" fill-opacity="0.501961" points="60,74 59,89 45,87" />
<polygon fill="#3f4b4a" fill-opacity="0.501961" points="32,159 49,141 72,139" />
<polygon fill="#939b98" fill-opacity="0.501961" points="27,63 54,119 55,95" />
<polygon fill="#404a4a" fill-opacity="0.501961" points="20,75 23,49 32,51" />
<polygon fill="#6d7775" fill-opacity="0.501961" points="26,10 24,35 0,9" />
<polygon fill="#909795" fill-opacity="0.501961" points="70,112 81,111 83,152" />
<polygon fill="#4c5648" fill-opacity="0.501961" points="119,54 132,53 113,40" />
<polygon fill="#4f5c5d" fill-opacity="0.501961" points="195,65 201,83 193,104" />
<polygon fill="#848e8a" fill-opacity="0.501961" points="21,136 -7,134 24,145" />
<polygon fill="#55615f" fill-opacity="0.501961" points="97,110 116,116 89,97" />
<polygon fill="#54605f" fill-opacity="0.501961" points="149,132 132,127 173,119" />
<polygon fill="#4e5756" fill-opacity="0.501961" points="46,116 74,131 59,135" />
<polygon fill="#4c5556" fill-opacity="0.501961" points="123,25 124,14 102,22" />
<polygon fill="#4f5958" fill-opacity="0.501961" points="252,64 239,111 255,87" />
<polygon fill="#858f8c" fill-opacity="0.501961" points="258,2 250,9 248,23" />
<polygon fill="#3e473c" fill-opacity="0.501961" points="155,57 164,36 139,58" />
<polygon fill="#a2aaa4" fill-opacity="0.501961" points="20,129 29,119 30,129" />
<polygon fill="#3f4946" fill-opacity="0.501961" points="133,102 150,104 140,97" />
<polygon fill="#919b99" fill-opacity="0.501961" points="149,26 162,20 168,8" />
<polygon fill="#97a09e" fill-opacity="0.501961" points="218,75 212,57 236,51" />
<polygon fill="#67716f" fill-opacity="0.501961" points="264,61 224,59 225,82" />
<polygon fill="#343c3d" fill-opacity="0.501961" points="249,159 271,126 252,140" />
<polygon fill="#a1a69d" fill-opacity="0.501961" points="168,105 156,102 171,118" />
<polygon fill="#394043" fill-opacity="0.501961" points="75,124 59,104 57,113" />
<polygon fill="#333c3d" fill-opacity="0.501961" points="173,78 167,99 157,100" />
<polygon fill="#6d7877" fill-opacity="0.501961" points="33,58 23,79 44,82" />
<polygon fill="#596263" fill-opacity="0.501961" points="85,7 87,-16 116,-16" />
<polygon fill="#7a8382" fill-opacity="0.501961" points="231,27 246,18 229,38" />
<polygon fill="#adb6b7" fill-opacity="0.501961" points="102,5 84,15 98,-3" />
<polygon fill="#9ca6a3" fill-opacity="0.501961" points="75,64 68,54 58,90" />
<polygon fill="#45504c" fill-opacity="0.501961" points="12,159 6,136 26,155" />
<polygon fill="#88918e" fill-opacity="0.501961" points="197,154 240,122 231,111" />
<polygon fill="#939b9a" fill-opacity="0.501961" points="154,9 149,29 119,-16" />
<polygon fill="#9ba4a1" fill-opacity="0.501961" points="221,132 244,146 223,122" />
<polygon fill="#9ea6a4" fill-opacity="0.501961" points="105,21 81,38 111,27" />
<polygon fill="#78817c" fill-opacity="0.501961" points="112,84 95,75 96,93" />
<polygon fill="#a5aeab" fill-opacity="0.501961" points="39,68 59,70 43,61" />
<polygon fill="#4c5556" fill-opacity="0.501961" points="225,57 205,47 211,42" />
<polygon fill="#585e5e" fill-opacity="0.501961" points="199,146 219,127 210,143" />
<polygon fill="#8b928c" fill-opacity="0.501961" points="182,131 204,106 152,139" />
<polygon fill="#838b87" fill-opacity="0.501961" points="41,72 88,81 87,68" />
<polygon fill="#6f7676" fill-opacity="0.501961" points="92,11 109,24 102,24" />
<polygon fill="#626d6b" fill-opacity="0.501961" points="168,98 193,108 177,123" />
<polygon fill="#949377" fill-opacity="0.501961" points="142,60 133,56 128,64" />
<polygon fill="#475151" fill-opacity="0.501961" points="249,38 271,30 238,32" />
<polygon fill="#626b68" fill-opacity="0.501961" points="211,112 247,140 245,126" />
<polygon fill="#727a78" fill-opacity="0.501961" points="-2,73 4,59 6,95" />
<polygon fill="#434d4c" fill-opacity="0.501961" points="233,128 246,132 234,144" />
<polygon fill="#a1a4a2" fill-opacity="0.501961" points="127,87 121,74 120,80" />
<polygon fill="#687271" fill-opacity="0.501961" points="43,34 58,28 34,58" />
<polygon fill="#33443c" fill-opacity="0.501961" points="134,68 139,67 142,57" />
<polygon fill="#adb1a8" fill-opacity="0.501961" points="185,102 173,94 179,95" />
<polygon fill="#a0a9a5" fill-opacity="0.501961" points="227,69 218,75 215,55" />
<polygon fill="#3b4543" fill-opacity="0.501961" points="54,123 46,134 49,122" />
<polygon fill="#a2aaa7" fill-opacity="0.501961" points="51,108 55,96 58,119" />
<polygon fill="#737e79" fill-opacity="0.501961" points="150,123 141,103 132,122" />
<polygon fill="#788281" fill-opacity="0.501961" points="235,46 245,38 260,42" />
<polygon fill="#848c87" fill-opacity="0.501961" points="205,68 223,77 197,114" />
<polygon fill="#858c86" fill-opacity="0.501961" points="98,81 118,65 114,49" />
<polygon fill="#969f9b" fill-opacity="0.501961" points="225,121 233,114 237,127" />
<polygon fill="#4f5858" fill-opacity="0.501961" points="25,34 64,27 76,-16" />
<polygon fill="#65706d" fill-opacity="0.501961" points="88,73 117,75 94,63" />
<polygon fill="#89876a" fill-opacity="0.501961" points="133,46 137,53 121,47" />
<polygon fill="#a0a8a5" fill-opacity="0.501961" points="199,138 173,141 201,126" />
<polygon fill="#818d8b" fill-opacity="0.501961" points="224,-16 235,-16 218,12" />
<polygon fill="#4f5443" fill-opacity="0.501961" points="134,53 146,59 135,41" />
<polygon fill="#9ea6a3" fill-opacity="0.501961" points="75,134 78,159 69,150" />
<polygon fill="#777f7e" fill-opacity="0.501961" points="146,98 159,94 169,81" />
<polygon fill="#9fa9a8" fill-opacity="0.501961" points="111,11 111,-4 127,18" />
<polygon fill="#6b7471" fill-opacity="0.501961" points="188,127 186,149 195,159" />
<polygon fill="#869089" fill-opacity="0.501961" points="132,114 135,123 116,115" />
<polygon fill="#7d8281" fill-opacity="0.501961" points="62,71 52,77 67,49" />
<polygon fill="#a1a69e" fill-opacity="0.501961" points="189,89 175,86 188,82" />
<polygon fill="#838c89" fill-opacity="0.501961" points="63,132 54,112 62,118" />
<polygon fill="#556161" fill-opacity="0.501961" points="91,98 87,78 94,68" />
<polygon fill="#515a5a" fill-opacity="0.501961" points="-16,45 11,19 15,28" />
<polygon fill="#a3afaf" fill-opacity="0.501961" points="253,103 271,105 271,77" />
<polygon fill="#525c5b" fill-opacity="0.501961" points="179,12 157,8 172,-16" />
<polygon fill="#9ea7a6" fill-opacity="0.501961" points="32,87 46,94 35,101" />
<polygon fill="#444c46" fill-opacity="0.501961" points="153,19 155,45 149,30" />
<polygon fill="#606869" fill-opacity="0.501961" points="65,6 76,5 86,14" />
<polygon fill="#727a79" fill-opacity="0.501961" points="23,36 22,45 -9,43" />
<polygon fill="#88918f" fill-opacity="0.501961" points="20,72 32,87 37,82" />
<polygon fill="#676f6d" fill-opacity="0.501961" points="132,-16 138,-4 136,11" />
<polygon fill="#9ba09a" fill-opacity="0.501961" points="174,74 189,66 188,71" />
<polygon fill="#828e8f" fill-opacity="0.501961" points="249,137 264,137 249,129" />
<polygon fill="#85928e" fill-opacity="0.501961" points="42,140 52,130 57,136" />
<polygon fill="#939b99" fill-opacity="0.501961" points="183,31 169,19 179,22" />
<polygon fill="#a1a59c" fill-opacity="0.501961" points="127,113 130,101 138,106" />
<polygon fill="#6b7370" fill-opacity="0.501961" points="119,69 131,89 125,66" />
<polygon fill="#5c6355" fill-opacity="0.501961" points="145,85 170,65 151,50" />
<polygon fill="#8b938c" fill-opacity="0.501961" points="157,138 127,139 100,120" />
<polygon fill="#6e7674" fill-opacity="0.501961" points="37,104 25,101 51,97" />
<polygon fill="#9ba3a0" fill-opacity="0.501961" points="207,113 209,135 223,119" />
<polygon fill="#66706a" fill-opacity="0.501961" points="163,38 152,27 162,22" />
<polygon fill="#778181" fill-opacity="0.501961" points="249,76 244,63 253,53" />
<polygon fill="#7a8170" fill-opacity="0.501961" points="143,63 160,72 144,70" />
<polygon fill="#373f3f" fill-opacity="0.501961" points="44,89 55,87 57,80" />
<polygon fill="#535d5b" fill-opacity="0.501961" points="22,139 43,117 33,140" />
<polygon fill="#828a8c" fill-opacity="0.501961" points="30,96 42,86 22,88" />
<polygon fill="#6c7272" fill-opacity="0.501961" points="215,128 202,113 203,120" />
<polygon fill="#46504f" fill-opacity="0.501961" points="16,18 22,11 23,23" />
<polygon fill="#333e3a" fill-opacity="0.501961" points="209,159 193,159 225,137" />
<polygon fill="#66716e" fill-opacity="0.501961" points="183,98 195,91 174,88" />
<polygon fill="#687471" fill-opacity="0.501961" points="64,40 58,33 61,43" />
<polygon fill="#85908b" fill-opacity="0.501961" points="18,26 9,21 24,24" />
<polygon fill="#5b6162" fill-opacity="0.501961" points="109,16 106,9 104,10" />
<polygon fill="#667071" fill-opacity="0.501961" points="77,20 69,15 52,38" />
<polygon fill="#97a1a0" fill-opacity="0.501961" points="75,12 68,15 88,21" />
<polygon fill="#748f83" fill-opacity="0.501961" points="163,56 168,42 157,55" />
<polygon fill="#363d3d" fill-opacity="0.501961" points="77,138 75,159 85,159" />
<polygon fill="#455453" fill-opacity="0.501961" points="161,92 138,69 158,75" />
<polygon fill="#656c6d" fill-opacity="0.501961" points="121,-16 113,-15 124,11" />
<polygon fill="#384041" fill-opacity="0.501961" points="30,110 30,118 35,114" />
<polygon fill="#4f5857" fill-opacity="0.501961" points="228,62 237,54 238,66" />
<polygon fill="#535d5c" fill-opacity="0.501961" points="1,76 24,71 22,99" />
<polygon fill="#a09f81" fill-opacity="0.501961" points="143,59 154,58 148,61" />
<polygon fill="#828b86" fill-opacity="0.501961" points="84,79 82,46 103,31" />
<polygon fill="#6d7471" fill-opacity="0.501961" points="75,125 93,114 82,117" />
<polygon fill="#4d5755" fill-opacity="0.501961" points="34,80 25,65 31,69" />
<polygon fill="#464c4d" fill-opacity="0.501961" points="59,117 72,129 57,102" />
<polygon fill="#aeb8b2" fill-opacity="0.501961" points="48,59 46,54 50,47" />
<polygon fill="#717a78" fill-opacity="0.501961" points="229,112 249,114 230,92" />
<polygon fill="#4e5759" fill-opacity="0.501961" points="104,52 96,59 106,62" />
<polygon fill="#6a7572" fill-opacity="0.501961" points="179,80 201,83 171,68" />
<polygon fill="#525f56" fill-opacity="0.501961" points="114,78 118,41 125,68" />
<polygon fill="#a6aca9" fill-opacity="0.501961" points="192,134 175,150 182,135" />
<polygon fill="#bfc3bc" fill-opacity="0.501961" points="126,88 127,85 124,87" />
<polygon fill="#808a84" fill-opacity="0.501961" points="103,79 96,73 100,55" />
<polygon fill="#454c4c" fill-opacity="0.501961" points="10,104 11,124 19,114" />
<polygon fill="#919b9a" fill-opacity="0.501961" points="38,50 35,48 34,58" />
<polygon fill="#5e6765" fill-opacity="0.501961" points="196,30 201,-8 215,14" />
<polygon fill="#4a5353" fill-opacity="0.501961" points="250,117 245,124 270,136" />
<polygon fill="#797e7e" fill-opacity="0.501961" points="77,32 70,46 86,31" />
<polygon fill="#7d8682" fill-opacity="0.501961" points="161,118 179,113 192,97" />
<polygon fill="#a3aeaa" fill-opacity="0.501961" points="45,87 44,75 48,77" />
<polygon fill="#6e7878" fill-opacity="0.501961" points="5,29 7,5 -2,10" />
<polygon fill="#8f9997" fill-opacity="0.501961" points="37,107 31,110 43,109" />
<polygon fill="#99a3a0" fill-opacity="0.501961" points="81,34 71,27 87,26" />
<polygon fill="#515d5c" fill-opacity="0.501961" points="176,122 163,122 192,106" />
<polygon fill="#5d6760" fill-opacity="0.501961" points="204,134 200,135 200,141" />
<polygon fill="#a1a9a8" fill-opacity="0.501961" points="77,37 64,49 64,29" />
<polygon fill="#606969" fill-opacity="0.501961" points="211,30 201,37 211,25" />
<polygon fill="#6c7675" fill-opacity="0.501961" points="48,11 20,-16 46,-10" />
<polygon fill="#939992" fill-opacity="0.501961" points="100,66 117,65 114,72" />
<polygon fill="#a2aba7" fill-opacity="0.501961" points="97,131 82,136 81,125" />
<polygon fill="#7f8687" fill-opacity="0.501961" points="29,13 35,15 34,9" />
<polygon fill="#646e6a" fill-opacity="0.501961" points="163,114 158,117 151,102" />
<polygon fill="#919c9a" fill-opacity="0.501961" points="30,65 47,86 35,78" />
<polygon fill="#8a9491" fill-opacity="0.501961" points="12,131 3,119 6,116" />
<polygon fill="#606c6c" fill-opacity="0.501961" points="174,43 190,52 200,73" />
<polygon fill="#646d6c" fill-opacity="0.501961" points="59,62 34,53 46,62" />
<polygon fill="#959d9a" fill-opacity="0.501961" points="72,125 68,83 82,118" />
<polygon fill="#404a4a" fill-opacity="0.501961" points="132,100 116,87 117,76" />
<polygon fill="#9fa49b" fill-opacity="0.501961" points="114,86 109,95 96,94" />
<polygon fill="#a0abae" fill-opacity="0.501961" points="46,130 37,131 41,132" />
<polygon fill="#3e514a" fill-opacity="0.501961" points="195,139 200,159 186,158" />
<polygon fill="#959e9c" fill-opacity="0.501961" points="186,39 186,26 210,41" />
<polygon fill="#99a39f" fill-opacity="0.501961" points="60,68 70,82 64,59" />
<polygon fill="#586261" fill-opacity="0.501961" points="245,43 222,35 243,62" />
<polygon fill="#4a5553" fill-opacity="0.501961" points="52,141 45,159 46,129" />
<polygon fill="#96a19e" fill-opacity="0.501961" points="26,11 23,10 25,14" />
<polygon fill="#586060" fill-opacity="0.501961" points="134,77 128,89 156,78" />
<polygon fill="#4b5855" fill-opacity="0.501961" points="38,73 34,62 41,72" />
<polygon fill="#97a29d" fill-opacity="0.501961" points="196,20 194,27 193,20" />
<polygon fill="#677f75" fill-opacity="0.501961" points="137,78 140,72 133,62" />
<polygon fill="#4d5655" fill-opacity="0.501961" points="15,34 30,59 24,67" />
<polygon fill="#7c857d" fill-opacity="0.501961" points="115,92 139,106 101,97" />
<polygon fill="#717a7a" fill-opacity="0.501961" points="223,19 230,21 226,33" />
<polygon fill="#87908b" fill-opacity="0.501961" points="74,58 88,92 86,70" />
<polygon fill="#848a72" fill-opacity="0.501961" points="125,63 122,57 129,55" />
<polygon fill="#7d8781" fill-opacity="0.501961" points="200,14 212,16 210,13" />
<polygon fill="#515b59" fill-opacity="0.501961" points="269,111 268,122 236,103" />
<polygon fill="#a1a8a4" fill-opacity="0.501961" points="97,139 112,139 99,130" />
<polygon fill="#7a837f" fill-opacity="0.501961" points="68,110 83,102 80,96" />
<polygon fill="#565e5c" fill-opacity="0.501961" points="11,131 -8,108 -15,137" />
<polygon fill="#303539" fill-opacity="0.501961" points="67,110 64,108 58,112" />
<polygon fill="#838c8a" fill-opacity="0.501961" points="56,121 56,114 67,124" />
<polygon fill="#8a9296" fill-opacity="0.501961" points="53,159 64,159 40,139" />
<polygon fill="#636f6b" fill-opacity="0.501961" points="109,86 115,80 105,82" />
<polygon fill="#394441" fill-opacity="0.501961" points="173,69 173,75 159,68" />
<polygon fill="#495353" fill-opacity="0.501961" points="243,7 249,12 253,-16" />
<polygon fill="#626b6a" fill-opacity="0.501961" points="7,112 -1,118 11,99" />
<polygon fill="#5b625e" fill-opacity="0.501961" points="84,142 92,142 77,135" />
<polygon fill="#596360" fill-opacity="0.501961" points="225,72 243,85 232,87" />
<polygon fill="#909897" fill-opacity="0.501961" points="223,61 229,47 224,47" />
<polygon fill="#899390" fill-opacity="0.501961" points="90,158 100,151 91,138" />
<polygon fill="#717b79" fill-opacity="0.501961" points="236,105 221,98 249,100" />
<polygon fill="#8c9593" fill-opacity="0.501961" points="233,99 224,86 207,84" />
<polygon fill="#949c9f" fill-opacity="0.501961" points="245,47 249,47 247,42" />
<polygon fill="#a0a69e" fill-opacity="0.501961" points="176,57 178,59 173,63" />
<polygon fill="#707978" fill-opacity="0.501961" points="78,88 72,84 64,86" />
<polygon fill="#a8aca3" fill-opacity="0.501961" points="112,79 105,76 97,80" />
<polygon fill="#424f4c" fill-opacity="0.501961" points="131,126 140,124 127,122" />
<polygon fill="#454b41" fill-opacity="0.501961" points="134,76 127,72 130,64" />
<polygon fill="#5c6464" fill-opacity="0.501961" points="63,21 63,27 79,34" />
<polygon fill="#9aa5a2" fill-opacity="0.501961" points="43,60 39,71 57,64" />
<polygon fill="#4b5553" fill-opacity="0.501961" points="65,125 72,127 58,138" />
<polygon fill="#8e9993" fill-opacity="0.501961" points="58,140 56,134 47,136" />
<polygon fill="#949d9a" fill-opacity="0.501961" points="148,26 134,28 160,-1" />
<polygon fill="#9aa3a0" fill-opacity="0.501961" points="60,105 75,103 57,89" />
<polygon fill="#858e8b" fill-opacity="0.501961" points="102,45 147,21 123,24" />
<polygon fill="#828d8d" fill-opacity="0.501961" points="-2,34 -12,41 7,41" />
<polygon fill="#414b48" fill-opacity="0.501961" points="255,16 257,-11 271,22" />
<polygon fill="#515a5b" fill-opacity="0.501961" points="246,72 257,59 256,67" />
<polygon fill="#a4ada9" fill-opacity="0.501961" points="42,90 24,101 48,95" />
<polygon fill="#aab2b4" fill-opacity="0.501961" points="85,12 93,7 78,7" />
<polygon fill="#9ea29a" fill-opacity="0.501961" points="124,101 114,101 108,110" />
<polygon fill="#252e30" fill-opacity="0.501961" points="50,147 35,159 37,141" />
<polygon fill="#959c98" fill-opacity="0.501961" points="209,32 197,42 213,39" />
<polygon fill="#505958" fill-opacity="0.501961" points="35,30 42,55 23,23" />
<polygon fill="#8a9391" fill-opacity="0.501961" points="9,35 15,40 14,43" />
<polygon fill="#515c59" fill-opacity="0.501961" points="206,9 208,-9 224,20" />
<polygon fill="#6f7c7b" fill-opacity="0.501961" points="165,139 122,138 144,147" />
<polygon fill="#4e5657" fill-opacity="0.501961" points="77,12 86,-16 72,-9" />
<polygon fill="#7b8386" fill-opacity="0.501961" points="165,70 165,86 168,76" />
<polygon fill="#848c89" fill-opacity="0.501961" points="31,148 7,126 24,155" />
<polygon fill="#9da6a3" fill-opacity="0.501961" points="67,71 88,33 65,55" />
<polygon fill="#87908c" fill-opacity="0.501961" points="20,130 19,121 36,129" />
<polygon fill="#878e88" fill-opacity="0.501961" points="123,130 152,140 180,130" />
<polygon fill="#686c65" fill-opacity="0.501961" points="134,94 136,87 155,94" />
<polygon fill="#7a8580" fill-opacity="0.501961" points="187,65 194,89 196,79" />
<polygon fill="#3d4346" fill-opacity="0.501961" points="231,139 222,151 238,159" />
<polygon fill="#202622" fill-opacity="0.501961" points="149,47 154,43 154,50" />
<polygon fill="#505c5b" fill-opacity="0.501961" points="94,101 92,91 107,110" />
<polygon fill="#505b5a" fill-opacity="0.501961" points="105,2 113,-16 81,-16" />
<polygon fill="#999f9d" fill-opacity="0.501961" points="77,131 83,132 87,141" />
<polygon fill="#78817d" fill-opacity="0.501961" points="169,96 155,103 164,103" />
<polygon fill="#828b86" fill-opacity="0.501961" points="191,39 201,75 224,93" />
<polygon fill="#4e6058" fill-opacity="0.501961" points="163,49 151,60 163,31" />
<polygon fill="#a2aaa4" fill-opacity="0.501961" points="57,61 65,50 55,58" />
<polygon fill="#7c8582" fill-opacity="0.501961" points="221,137 213,143 211,134" />
<polygon fill="#545c5b" fill-opacity="0.501961" points="35,6 35,-16 -16,2" />
<polygon fill="#808b89" fill-opacity="0.501961" points="235,-3 238,5 235,6" />
<polygon fill="#889391" fill-opacity="0.501961" points="-16,132 2,126 -16,101" />
<polygon fill="#606866" fill-opacity="0.501961" points="-4,64 15,86 2,37" />
<polygon fill="#7d8883" fill-opacity="0.501961" points="187,11 195,4 197,-5" />
<polygon fill="#798684" fill-opacity="0.501961" points="28,108 26,116 29,123" />
<polygon fill="#525c59" fill-opacity="0.501961" points="130,2 63,-16 104,-16" />
<polygon fill="#80998f" fill-opacity="0.501961" points="159,49 164,49 160,55" />
<polygon fill="#555f5d" fill-opacity="0.501961" points="241,108 233,108 232,113" />
<polygon fill="#667170" fill-opacity="0.501961" points="232,122 256,111 241,126" />
<polygon fill="#a3b1b2" fill-opacity="0.501961" points="253,118 271,122 265,117" />
<polygon fill="#3c4646" fill-opacity="0.501961" points="73,130 78,134 74,133" />
<polygon fill="#262c30" fill-opacity="0.501961" points="4,144 -9,131 -16,138" />
<polygon fill="#a2aba4" fill-opacity="0.501961" points="119,139 136,150 106,159" />
<polygon fill="#2e3638" fill-opacity="0.501961" points="169,90 172,77 168,70" />
<polygon fill="#47504e" fill-opacity="0.501961" points="29,151 22,130 30,132" />
<polygon fill="#4b5452" fill-opacity="0.501961" points="177,10 193,1 201,-16" />
<polygon fill="#737f7b" fill-opacity="0.501961" points="195,127 207,110 172,136" />
<polygon fill="#96a1a2" fill-opacity="0.501961" points="37,121 36,124 34,116" />
<polygon fill="#5b6464" fill-opacity="0.501961" points="71,14 73,25 78,24" />
<polygon fill="#495150" fill-opacity="0.501961" points="271,117 249,136 260,119" />
<polygon fill="#5b6665" fill-opacity="0.501961" points="200,91 192,111 169,126" />
<polygon fill="#454e4c" fill-opacity="0.501961" points="135,104 120,94 152,101" />
<polygon fill="#505959" fill-opacity="0.501961" points="147,77 124,83 166,89" />
<polygon fill="#848d8a" fill-opacity="0.501961" points="244,114 236,101 231,102" />
<polygon fill="#6c6d6c" fill-opacity="0.501961" points="55,97 59,102 57,91" />
<polygon fill="#40494b" fill-opacity="0.501961" points="2,85 -16,70 2,100" />
<polygon fill="#737d7a" fill-opacity="0.501961" points="241,10 271,47 266,23" />
<polygon fill="#9ba5a2" fill-opacity="0.501961" points="94,8 120,1 119,10" />
<polygon fill="#6a6e70" fill-opacity="0.501961" points="202,34 205,36 196,40" />
<polygon fill="#747b7b" fill-opacity="0.501961" points="87,44 78,44 93,52" />
<polygon fill="#737c78" fill-opacity="0.501961" points="61,73 54,77 68,75" />
<polygon fill="#777d69" fill-opacity="0.501961" points="156,58 149,58 165,69" />
<polygon fill="#212a27" fill-opacity="0.501961" points="150,41 153,33 151,26" />
<polygon fill="#6c7673" fill-opacity="0.501961" points="122,68 102,50 106,62" />
<polygon fill="#57605f" fill-opacity="0.501961" points="220,19 228,39 216,54" />
<polygon fill="#585c4d" fill-opacity="0.501961" points="142,59 132,52 143,47" />
<polygon fill="#444f4a" fill-opacity="0.501961" points="85,137 90,137 89,148" />
<polygon fill="#4a5453" fill-opacity="0.501961" points="248,63 256,56 253,55" />
<polygon fill="#798683" fill-opacity="0.501961" points="157,29 151,26 158,25" />
</g>
</svg>