<svg xmlns="http://www.w3.org/2000/svg" version="1.1" width="1024" height="576">
<rect x="0" y="0" width="1024" height="576" fill="#4d5454" />
<g transform="scale(4.000000) translate(0.5 0.5)">
<polygon fill="#f5ffff" fill-opacity="0.501961" points="78,57 66,159 271,94" />
<polygon fill="#000000" fill-opacity="0.501961" points="188,136 150,0 271,-5" />
<polygon fill="#000000" fill-opacity="0.501961" points="0,-16 271,24 -5,91" />
<polygon fill="#faffff" fill-opacity="0.501961" points="202,74 207,128 271,118" />
<polygon fill="#dbe7eb" fill-opacity="0.501961" points="184,159 135,149 172,49" />
<polygon fill="#fcffff" fill-opacity="0.501961" points="18,100 45,77 44,125" />
<polygon fill="#e3edf3" fill-opacity="0.501961" points="79,68 181,67 73,141" />
<polygon fill="#000000" fill-opacity="0.501961" points="36,145 71,131 66,24" />
<polygon fill="#dae6ec" fill-opacity="0.501961" points="202,81 271,81 252,129" />
<polygon fill="#000301" fill-opacity="0.501961" points="219,157 178,132 181,36" />
<polygon fill="#0d1514" fill-opacity="0.501961" points="120,53 266,83 265,-16" />
<polygon fill="#202e2d" fill-opacity="0.501961" points="133,115 100,148 146,135" />
<polygon fill="#0a120f" fill-opacity="0.501961" points="-16,-7 56,-10 4,159" />
<polygon fill="#cad3d7" fill-opacity="0.501961" points="108,67 158,159 178,64" />
<polygon fill="#ccdade" fill-opacity="0.501961" points="24,80 30,117 48,89" />
<polygon fill="#131b19" fill-opacity="0.501961" points="7,83 86,-16 71,81" />
<polygon fill="#1a2020" fill-opacity="0.501961" points="178,102 171,-16 271,37" />
<polygon fill="#bcc6c9" fill-opacity="0.501961" points="70,159 74,69 118,64" />
<polygon fill="#0e1311" fill-opacity="0.501961" points="76,134 -13,121 -10,147" />
<polygon fill="#171e1e" fill-opacity="0.501961" points="44,64 267,62 123,-16" />
<polygon fill="#2f3b3c" fill-opacity="0.501961" points="110,120 119,144 121,114" />
<polygon fill="#bac6ca" fill-opacity="0.501961" points="271,79 204,85 207,125" />
<polygon fill="#1d2422" fill-opacity="0.501961" points="194,125 205,150 259,127" />
<polygon fill="#abb3b5" fill-opacity="0.501961" points="112,109 118,159 43,150" />
<polygon fill="#b8c3c7" fill-opacity="0.501961" points="202,82 205,121 258,127" />
<polygon fill="#cfd7db" fill-opacity="0.501961" points="125,119 108,92 179,80" />
<polygon fill="#a1a7a5" fill-opacity="0.501961" points="149,131 78,159 216,144" />
<polygon fill="#879998" fill-opacity="0.501961" points="106,4 89,-14 86,3" />
<polygon fill="#5c6158" fill-opacity="0.501961" points="24,70 10,130 26,115" />
<polygon fill="#1a1e1c" fill-opacity="0.501961" points="260,-16 176,81 271,77" />
<polygon fill="#2b3738" fill-opacity="0.501961" points="135,114 124,138 143,140" />
<polygon fill="#0e1513" fill-opacity="0.501961" points="52,43 69,112 42,142" />
<polygon fill="#9aadae" fill-opacity="0.501961" points="164,6 145,-16 168,-3" />
<polygon fill="#c4cfd1" fill-opacity="0.501961" points="71,111 126,71 75,65" />
<polygon fill="#c1cbcd" fill-opacity="0.501961" points="214,80 260,130 271,86" />
<polygon fill="#afb9bc" fill-opacity="0.501961" points="178,82 175,158 145,127" />
<polygon fill="#839393" fill-opacity="0.501961" points="206,2 232,1 217,-6" />
<polygon fill="#171d1d" fill-opacity="0.501961" points="159,4 193,133 216,5" />
<polygon fill="#191f1e" fill-opacity="0.501961" points="65,-16 16,81 70,83" />
<polygon fill="#c1cdd1" fill-opacity="0.501961" points="121,135 128,124 126,107" />
<polygon fill="#c0cacd" fill-opacity="0.501961" points="133,64 107,134 88,66" />
<polygon fill="#b9c7ca" fill-opacity="0.501961" points="43,122 47,84 23,108" />
<polygon fill="#909490" fill-opacity="0.501961" points="30,144 126,151 80,134" />
<polygon fill="#3f4c4c" fill-opacity="0.501961" points="177,91 178,135 194,141" />
<polygon fill="#131514" fill-opacity="0.501961" points="14,89 -16,87 3,156" />
<polygon fill="#161c1a" fill-opacity="0.501961" points="210,141 195,69 181,136" />
<polygon fill="#36403f" fill-opacity="0.501961" points="268,125 266,142 213,127" />
<polygon fill="#181f1f" fill-opacity="0.501961" points="196,60 135,66 142,-16" />
<polygon fill="#374542" fill-opacity="0.501961" points="72,122 70,101 65,128" />
<polygon fill="#1f2626" fill-opacity="0.501961" points="83,66 99,-6 125,61" />
<polygon fill="#c8d2d5" fill-opacity="0.501961" points="179,110 89,71 171,65" />
<polygon fill="#9ca6a5" fill-opacity="0.501961" points="129,154 119,159 121,122" />
<polygon fill="#a5b6b4" fill-opacity="0.501961" points="121,1 117,5 125,2" />
<polygon fill="#bdc7ca" fill-opacity="0.501961" points="47,85 28,81 30,113" />
<polygon fill="#3c4848" fill-opacity="0.501961" points="123,119 116,148 115,110" />
<polygon fill="#bdc6ca" fill-opacity="0.501961" points="120,129 123,95 128,119" />
<polygon fill="#1f2523" fill-opacity="0.501961" points="203,81 249,78 220,-8" />
<polygon fill="#a0b0b1" fill-opacity="0.501961" points="199,2 196,-1 194,2" />
<polygon fill="#424946" fill-opacity="0.501961" points="19,142 56,138 26,159" />
<polygon fill="#181f1f" fill-opacity="0.501961" points="-12,73 115,60 78,-16" />
<polygon fill="#a9b3b6" fill-opacity="0.501961" points="74,113 70,143 113,132" />
<polygon fill="#bec8ca" fill-opacity="0.501961" points="271,81 201,83 239,126" />
<polygon fill="#515855" fill-opacity="0.501961" points="232,159 257,138 194,140" />
<polygon fill="#efffff" fill-opacity="0.501961" points="89,3 96,-16 80,-16" />
<polygon fill="#a7afb0" fill-opacity="0.501961" points="200,150 147,119 136,154" />
<polygon fill="#4e534d" fill-opacity="0.501961" points="9,124 28,131 20,78" />
<polygon fill="#272e2e" fill-opacity="0.501961" points="125,33 42,48 153,66" />
<polygon fill="#161c1a" fill-opacity="0.501961" points="72,72 66,136 35,140" />
<polygon fill="#9cabad" fill-opacity="0.501961" points="212,3 203,-16 238,-16" />
<polygon fill="#151a1a" fill-opacity="0.501961" points="207,22 271,85 249,-15" />
<polygon fill="#262a28" fill-opacity="0.501961" points="8,70 50,78 -6,90" />
<polygon fill="#2e3b3b" fill-opacity="0.501961" points="135,138 124,130 133,118" />
<polygon fill="#c2cccf" fill-opacity="0.501961" points="116,106 176,132 175,74" />
<polygon fill="#96a1a2" fill-opacity="0.501961" points="218,124 205,106 207,126" />
<polygon fill="#272e2d" fill-opacity="0.501961" points="228,136 265,139 255,131" />
<polygon fill="#181e1c" fill-opacity="0.501961" points="228,138 186,138 211,125" />
<polygon fill="#bac3c4" fill-opacity="0.501961" points="133,70 133,60 120,79" />
<polygon fill="#b8c0c4" fill-opacity="0.501961" points="202,96 214,124 271,124" />
<polygon fill="#212827" fill-opacity="0.501961" points="106,66 59,59 145,45" />
<polygon fill="#131a1a" fill-opacity="0.501961" points="120,4 113,24 100,-16" />
<polygon fill="#616962" fill-opacity="0.501961" points="223,82 205,82 221,77" />
<polygon fill="#d0dde0" fill-opacity="0.501961" points="159,2 165,3 164,1" />
<polygon fill="#2c3432" fill-opacity="0.501961" points="72,114 56,138 70,135" />
<polygon fill="#0b1413" fill-opacity="0.501961" points="180,-12 210,0 146,0" />
<polygon fill="#212726" fill-opacity="0.501961" points="5,140 44,127 -16,126" />
<polygon fill="#181e1e" fill-opacity="0.501961" points="205,3 142,3 200,107" />
<polygon fill="#b8c4c7" fill-opacity="0.501961" points="73,80 84,69 72,92" />
<polygon fill="#171d1d" fill-opacity="0.501961" points="136,48 175,62 121,-16" />
<polygon fill="#ccd5d8" fill-opacity="0.501961" points="164,66 131,67 140,115" />
<polygon fill="#acb7ba" fill-opacity="0.501961" points="177,117 175,135 138,125" />
<polygon fill="#384643" fill-opacity="0.501961" points="31,133 31,115 22,121" />
<polygon fill="#3f4b4a" fill-opacity="0.501961" points="182,91 177,83 180,105" />
<polygon fill="#282b2a" fill-opacity="0.501961" points="203,59 271,78 207,79" />
<polygon fill="#4f5c5b" fill-opacity="0.501961" points="179,139 185,138 178,119" />
<polygon fill="#848e8c" fill-opacity="0.501961" points="141,154 138,132 128,159" />
<polygon fill="#2d3534" fill-opacity="0.501961" points="123,138 115,136 117,128" />
<polygon fill="#181e1e" fill-opacity="0.501961" points="41,10 82,66 101,3" />
<polygon fill="#abb6b8" fill-opacity="0.501961" points="114,121 113,138 73,134" />
<polygon fill="#535e5c" fill-opacity="0.501961" points="139,142 124,138 124,132" />
<polygon fill="#4a4e4a" fill-opacity="0.501961" points="22,108 12,109 26,83" />
<polygon fill="#191f1f" fill-opacity="0.501961" points="256,33 163,59 202,-4" />
<polygon fill="#2c3534" fill-opacity="0.501961" points="186,136 191,124 178,106" />
<polygon fill="#a2a7a6" fill-opacity="0.501961" points="113,138 92,159 60,138" />
<polygon fill="#b8c6c8" fill-opacity="0.501961" points="227,1 206,-16 232,-9" />
<polygon fill="#222b28" fill-opacity="0.501961" points="70,137 65,135 69,134" />
<polygon fill="#343d3c" fill-opacity="0.501961" points="133,66 133,45 138,48" />
<polygon fill="#c1cbce" fill-opacity="0.501961" points="104,65 130,65 98,113" />
<polygon fill="#545a59" fill-opacity="0.501961" points="132,60 141,58 149,61" />
<polygon fill="#252b2b" fill-opacity="0.501961" points="182,53 153,45 198,45" />
<polygon fill="#869495" fill-opacity="0.501961" points="41,123 30,112 34,119" />
<polygon fill="#a7aeaa" fill-opacity="0.501961" points="121,140 112,148 143,144" />
<polygon fill="#424b4a" fill-opacity="0.501961" points="263,127 216,126 240,135" />
<polygon fill="#696f63" fill-opacity="0.501961" points="15,122 23,127 22,108" />
<polygon fill="#919693" fill-opacity="0.501961" points="176,136 233,159 157,159" />
<polygon fill="#b7c0c4" fill-opacity="0.501961" points="99,128 76,117 121,107" />
<polygon fill="#131a1a" fill-opacity="0.501961" points="223,24 214,14 222,-16" />
<polygon fill="#1d2323" fill-opacity="0.501961" points="108,48 93,-1 85,45" />
<polygon fill="#7e8a89" fill-opacity="0.501961" points="138,4 135,-2 135,2" />
<polygon fill="#161c1b" fill-opacity="0.501961" points="158,42 181,59 127,59" />
<polygon fill="#414d4c" fill-opacity="0.501961" points="19,5 25,2 25,7" />
<polygon fill="#bac5c8" fill-opacity="0.501961" points="155,73 178,80 170,64" />
<polygon fill="#6d726a" fill-opacity="0.501961" points="271,82 267,75 242,82" />
<polygon fill="#303836" fill-opacity="0.501961" points="201,139 261,145 196,159" />
<polygon fill="#5c6362" fill-opacity="0.501961" points="225,139 261,138 218,152" />
<polygon fill="#536465" fill-opacity="0.501961" points="113,121 118,113 113,115" />
<polygon fill="#6c797a" fill-opacity="0.501961" points="71,132 69,124 72,120" />
<polygon fill="#c0d0d1" fill-opacity="0.501961" points="90,3 93,-12 82,-16" />
<polygon fill="#bec8cb" fill-opacity="0.501961" points="224,122 203,81 271,94" />
<polygon fill="#b1c0c1" fill-opacity="0.501961" points="107,-16 103,3 100,-16" />
<polygon fill="#657271" fill-opacity="0.501961" points="39,6 38,3 44,3" />
<polygon fill="#131817" fill-opacity="0.501961" points="41,73 64,106 68,76" />
<polygon fill="#2f3838" fill-opacity="0.501961" points="271,138 245,153 238,143" />
<polygon fill="#bfc9cc" fill-opacity="0.501961" points="74,120 73,73 101,68" />
<polygon fill="#171e1d" fill-opacity="0.501961" points="112,44 198,18 157,52" />
<polygon fill="#111818" fill-opacity="0.501961" points="206,11 186,26 161,-16" />
<polygon fill="#181c1b" fill-opacity="0.501961" points="203,131 177,80 201,92" />
<polygon fill="#bdc7ca" fill-opacity="0.501961" points="27,87 39,117 46,84" />
<polygon fill="#242b2b" fill-opacity="0.501961" points="139,3 145,15 106,15" />
<polygon fill="#444944" fill-opacity="0.501961" points="26,87 15,84 11,120" />
<polygon fill="#111716" fill-opacity="0.501961" points="-4,39 36,64 -16,76" />
<polygon fill="#c4ced1" fill-opacity="0.501961" points="158,74 140,121 176,83" />
<polygon fill="#b7c5c5" fill-opacity="0.501961" points="95,2 98,-16 102,-10" />
<polygon fill="#18201e" fill-opacity="0.501961" points="137,1 155,-16 105,0" />
<polygon fill="#4f5751" fill-opacity="0.501961" points="40,78 47,83 25,83" />
<polygon fill="#191f1d" fill-opacity="0.501961" points="61,-3 48,81 7,79" />
<polygon fill="#a6b1b3" fill-opacity="0.501961" points="207,119 203,93 216,118" />
<polygon fill="#c8d1d4" fill-opacity="0.501961" points="98,101 109,73 71,100" />
<polygon fill="#606a6a" fill-opacity="0.501961" points="130,141 133,134 124,138" />
<polygon fill="#3a4543" fill-opacity="0.501961" points="46,119 47,108 44,110" />
<polygon fill="#b9c0c3" fill-opacity="0.501961" points="271,122 232,125 260,100" />
<polygon fill="#1a2121" fill-opacity="0.501961" points="96,-2 140,29 104,17" />
<polygon fill="#28302f" fill-opacity="0.501961" points="181,91 183,136 190,118" />
<polygon fill="#93a4a4" fill-opacity="0.501961" points="91,70 91,66 78,67" />
<polygon fill="#1c2020" fill-opacity="0.501961" points="0,93 23,159 -16,137" />
<polygon fill="#414746" fill-opacity="0.501961" points="22,143 50,138 40,159" />
<polygon fill="#292f2f" fill-opacity="0.501961" points="66,52 92,45 52,44" />
<polygon fill="#222b2a" fill-opacity="0.501961" points="91,0 123,-16 86,-16" />
<polygon fill="#677476" fill-opacity="0.501961" points="73,118 72,114 70,113" />
<polygon fill="#141a1a" fill-opacity="0.501961" points="102,24 160,27 186,0" />
<polygon fill="#1d2323" fill-opacity="0.501961" points="186,35 145,33 177,9" />
<polygon fill="#2d3838" fill-opacity="0.501961" points="116,117 117,131 119,123" />
<polygon fill="#afb9bb" fill-opacity="0.501961" points="24,106 29,102 35,118" />
<polygon fill="#1d2425" fill-opacity="0.501961" points="41,12 8,12 34,33" />
<polygon fill="#151c1c" fill-opacity="0.501961" points="158,1 165,-13 114,-2" />
<polygon fill="#191f1d" fill-opacity="0.501961" points="204,114 192,111 187,131" />
<polygon fill="#a7b2b4" fill-opacity="0.501961" points="72,110 71,135 78,129" />
<polygon fill="#aab3b4" fill-opacity="0.501961" points="155,159 136,115 162,146" />
<polygon fill="#8f9696" fill-opacity="0.501961" points="72,140 122,143 46,159" />
<polygon fill="#526060" fill-opacity="0.501961" points="31,114 23,114 35,125" />
<polygon fill="#303a39" fill-opacity="0.501961" points="135,123 135,135 126,134" />
<polygon fill="#131a1a" fill-opacity="0.501961" points="19,6 53,15 87,5" />
<polygon fill="#2f3837" fill-opacity="0.501961" points="217,133 240,138 248,131" />
<polygon fill="#404a48" fill-opacity="0.501961" points="133,54 138,51 128,47" />
<polygon fill="#101616" fill-opacity="0.501961" points="271,6 233,16 227,-16" />
<polygon fill="#0e1414" fill-opacity="0.501961" points="57,32 24,41 -1,32" />
<polygon fill="#434b48" fill-opacity="0.501961" points="171,64 154,64 155,58" />
<polygon fill="#242928" fill-opacity="0.501961" points="200,79 271,78 222,59" />
<polygon fill="#b8c2c5" fill-opacity="0.501961" points="141,123 154,106 160,126" />
<polygon fill="#a3adb0" fill-opacity="0.501961" points="210,126 205,111 220,122" />
<polygon fill="#111717" fill-opacity="0.501961" points="178,50 198,58 151,59" />
<polygon fill="#161c1b" fill-opacity="0.501961" points="58,106 33,137 64,136" />
<polygon fill="#101717" fill-opacity="0.501961" points="231,50 208,59 251,56" />
<polygon fill="#323838" fill-opacity="0.501961" points="98,51 118,51 116,46" />
<polygon fill="#2c3430" fill-opacity="0.501961" points="75,66 72,58 70,76" />
<polygon fill="#b4bfc2" fill-opacity="0.501961" points="74,78 76,69 100,68" />
<polygon fill="#3f4948" fill-opacity="0.501961" points="167,2 161,5 154,2" />
<polygon fill="#303736" fill-opacity="0.501961" points="51,119 22,144 15,136" />
<polygon fill="#1a1e1b" fill-opacity="0.501961" points="203,80 183,85 207,45" />
<polygon fill="#252c2c" fill-opacity="0.501961" points="87,4 118,15 88,13" />
<polygon fill="#0e1616" fill-opacity="0.501961" points="61,3 21,2 93,-16" />
<polygon fill="#b0bcbf" fill-opacity="0.501961" points="124,127 122,117 130,117" />
<polygon fill="#404e4b" fill-opacity="0.501961" points="39,126 41,124 32,118" />
<polygon fill="#c1c9cc" fill-opacity="0.501961" points="109,125 116,108 104,77" />
<polygon fill="#323c3b" fill-opacity="0.501961" points="50,104 45,108 48,91" />
<polygon fill="#38413f" fill-opacity="0.501961" points="125,34 116,38 123,41" />
<polygon fill="#677577" fill-opacity="0.501961" points="142,129 137,129 136,117" />
<polygon fill="#9ba7a9" fill-opacity="0.501961" points="124,135 120,130 122,124" />
<polygon fill="#a3acb1" fill-opacity="0.501961" points="197,1 199,-6 194,-9" />
<polygon fill="#1c2120" fill-opacity="0.501961" points="242,48 191,68 271,-1" />
<polygon fill="#bfc8cc" fill-opacity="0.501961" points="205,86 257,81 271,129" />
<polygon fill="#161b1a" fill-opacity="0.501961" points="55,75 77,60 46,118" />
<polygon fill="#384447" fill-opacity="0.501961" points="136,116 131,126 139,132" />
<polygon fill="#7b8379" fill-opacity="0.501961" points="212,151 207,158 186,138" />
<polygon fill="#a3aaab" fill-opacity="0.501961" points="72,132 115,136 101,148" />
<polygon fill="#b2bcc0" fill-opacity="0.501961" points="149,134 140,124 167,117" />
<polygon fill="#5c6a68" fill-opacity="0.501961" points="118,3 122,-1 120,-4" />
<polygon fill="#434847" fill-opacity="0.501961" points="109,40 106,35 106,41" />
<polygon fill="#252c2c" fill-opacity="0.501961" points="152,35 127,34 127,26" />
<polygon fill="#949d9a" fill-opacity="0.501961" points="121,133 134,158 120,159" />
<polygon fill="#6a797b" fill-opacity="0.501961" points="178,119 177,114 180,119" />
<polygon fill="#161c1c" fill-opacity="0.501961" points="138,35 131,40 131,56" />
<polygon fill="#b4c0c3" fill-opacity="0.501961" points="25,97 30,105 28,111" />
<polygon fill="#576565" fill-opacity="0.501961" points="117,110 123,125 113,124" />
<polygon fill="#222828" fill-opacity="0.501961" points="214,20 216,28 193,20" />
<polygon fill="#1a2221" fill-opacity="0.501961" points="184,-10 207,6 209,-2" />
<polygon fill="#516567" fill-opacity="0.501961" points="136,120 130,117 131,115" />
<polygon fill="#56605f" fill-opacity="0.501961" points="115,141 116,154 105,148" />
<polygon fill="#333a39" fill-opacity="0.501961" points="256,145 221,141 193,156" />
<polygon fill="#8d9d9f" fill-opacity="0.501961" points="103,68 85,68 93,65" />
<polygon fill="#181e1e" fill-opacity="0.501961" points="136,38 99,61 125,54" />
<polygon fill="#2d3535" fill-opacity="0.501961" points="119,126 121,139 116,137" />
<polygon fill="#1e2321" fill-opacity="0.501961" points="76,61 10,44 32,65" />
<polygon fill="#6a6f66" fill-opacity="0.501961" points="25,86 21,94 26,96" />
<polygon fill="#383d3d" fill-opacity="0.501961" points="144,9 135,9 140,13" />
<polygon fill="#bbbebd" fill-opacity="0.501961" points="161,159 144,139 200,149" />
<polygon fill="#c1c8cc" fill-opacity="0.501961" points="79,111 116,114 104,101" />
<polygon fill="#a6aba9" fill-opacity="0.501961" points="59,149 66,138 79,135" />
<polygon fill="#2c3333" fill-opacity="0.501961" points="41,42 66,49 52,49" />
<polygon fill="#5c645d" fill-opacity="0.501961" points="24,116 24,106 15,116" />
<polygon fill="#c0cbcd" fill-opacity="0.501961" points="121,77 144,70 117,64" />
<polygon fill="#2c3433" fill-opacity="0.501961" points="130,11 122,15 127,22" />
<polygon fill="#ced7da" fill-opacity="0.501961" points="114,90 149,69 160,93" />
<polygon fill="#343e3c" fill-opacity="0.501961" points="183,87 177,71 177,84" />
<polygon fill="#1d2323" fill-opacity="0.501961" points="170,12 141,12 163,5" />
<polygon fill="#191f1f" fill-opacity="0.501961" points="104,20 87,19 104,51" />
<polygon fill="#1c2222" fill-opacity="0.501961" points="141,59 162,44 138,45" />
<polygon fill="#1a2020" fill-opacity="0.501961" points="99,0 106,49 91,39" />
<polygon fill="#72736a" fill-opacity="0.501961" points="50,139 54,148 76,146" />
<polygon fill="#161c1b" fill-opacity="0.501961" points="49,89 45,133 66,129" />
<polygon fill="#404540" fill-opacity="0.501961" points="15,81 18,97 29,81" />
<polygon fill="#3f4a47" fill-opacity="0.501961" points="179,66 178,80 174,64" />
<polygon fill="#1a201e" fill-opacity="0.501961" points="176,55 186,64 182,95" />
<polygon fill="#99a4a3" fill-opacity="0.501961" points="222,123 238,123 231,126" />
<polygon fill="#c0cbcd" fill-opacity="0.501961" points="175,73 159,65 163,95" />
<polygon fill="#a0afb0" fill-opacity="0.501961" points="166,3 163,-12 162,1" />
<polygon fill="#a5aeaf" fill-opacity="0.501961" points="143,128 142,138 175,140" />
<polygon fill="#717d7d" fill-opacity="0.501961" points="224,2 219,-14 230,-16" />
<polygon fill="#1c201f" fill-opacity="0.501961" points="27,70 -10,119 -16,70" />
<polygon fill="#bfcacd" fill-opacity="0.501961" points="219,88 202,83 208,100" />
<polygon fill="#171d1d" fill-opacity="0.501961" points="106,2 167,-6 122,-16" />
<polygon fill="#8c9896" fill-opacity="0.501961" points="123,2 123,5 119,2" />
<polygon fill="#1c2222" fill-opacity="0.501961" points="113,4 150,3 125,12" />
<polygon fill="#181c1b" fill-opacity="0.501961" points="39,67 71,99 67,72" />
<polygon fill="#171d1d" fill-opacity="0.501961" points="86,3 86,61 61,-13" />
<polygon fill="#171d1d" fill-opacity="0.501961" points="185,53 133,47 164,62" />
<polygon fill="#282f2e" fill-opacity="0.501961" points="131,64 113,59 126,54" />
<polygon fill="#0a1813" fill-opacity="0.501961" points="158,-14 142,-10 165,0" />
<polygon fill="#151918" fill-opacity="0.501961" points="182,76 196,72 201,125" />
<polygon fill="#353f3e" fill-opacity="0.501961" points="94,65 98,63 89,61" />
<polygon fill="#364442" fill-opacity="0.501961" points="203,105 201,92 199,109" />
<polygon fill="#2c302e" fill-opacity="0.501961" points="221,70 217,76 224,81" />
<polygon fill="#222725" fill-opacity="0.501961" points="29,81 49,74 15,72" />
<polygon fill="#737b78" fill-opacity="0.501961" points="243,142 250,140 246,139" />
<polygon fill="#343c3b" fill-opacity="0.501961" points="204,126 229,136 226,128" />
<polygon fill="#bcc7c9" fill-opacity="0.501961" points="27,85 39,84 27,108" />
<polygon fill="#5e6462" fill-opacity="0.501961" points="228,142 242,138 219,138" />
<polygon fill="#a3adb0" fill-opacity="0.501961" points="110,135 113,125 115,134" />
<polygon fill="#4d5555" fill-opacity="0.501961" points="139,140 130,137 132,141" />
<polygon fill="#384442" fill-opacity="0.501961" points="106,62 113,64 100,64" />
<polygon fill="#889290" fill-opacity="0.501961" points="133,159 143,149 137,133" />
<polygon fill="#b2bcbf" fill-opacity="0.501961" points="113,135 88,118 111,117" />
<polygon fill="#232726" fill-opacity="0.501961" points="270,60 219,77 198,60" />
<polygon fill="#181e1e" fill-opacity="0.501961" points="188,18 164,12 213,3" />
<polygon fill="#9daaad" fill-opacity="0.501961" points="43,111 43,120 39,121" />
<polygon fill="#171b1a" fill-opacity="0.501961" points="186,85 202,106 197,136" />
<polygon fill="#414a4b" fill-opacity="0.501961" points="224,141 254,141 248,150" />
<polygon fill="#131919" fill-opacity="0.501961" points="-7,34 -8,-16 29,42" />
<polygon fill="#b9c4c7" fill-opacity="0.501961" points="106,66 77,72 101,74" />
<polygon fill="#262c2c" fill-opacity="0.501961" points="95,33 81,37 106,37" />
<polygon fill="#bac4c7" fill-opacity="0.501961" points="145,121 177,111 174,120" />
<polygon fill="#c5ccd0" fill-opacity="0.501961" points="176,104 123,114 97,92" />
<polygon fill="#2d3433" fill-opacity="0.501961" points="37,131 8,123 34,142" />
<polygon fill="#b9c4c6" fill-opacity="0.501961" points="159,66 169,64 165,75" />
<polygon fill="#3d413e" fill-opacity="0.501961" points="242,76 249,80 233,80" />
<polygon fill="#181f1f" fill-opacity="0.501961" points="69,30 114,34 144,11" />
<polygon fill="#1c2222" fill-opacity="0.501961" points="74,61 109,62 66,47" />
<polygon fill="#232a27" fill-opacity="0.501961" points="62,124 69,123 68,102" />
<polygon fill="#101716" fill-opacity="0.501961" points="153,44 168,35 132,36" />
<polygon fill="#131919" fill-opacity="0.501961" points="44,25 32,36 82,32" />
<polygon fill="#131818" fill-opacity="0.501961" points="235,6 204,7 241,22" />
<polygon fill="#242a2a" fill-opacity="0.501961" points="175,37 161,32 190,32" />
<polygon fill="#1b1f1f" fill-opacity="0.501961" points="254,141 262,141 257,155" />
<polygon fill="#202626" fill-opacity="0.501961" points="87,12 86,52 101,2" />
<polygon fill="#2d3434" fill-opacity="0.501961" points="115,33 122,39 132,33" />
<polygon fill="#3e4642" fill-opacity="0.501961" points="71,78 71,81 69,84" />
<polygon fill="#252b2b" fill-opacity="0.501961" points="134,-4 107,-16 131,8" />
<polygon fill="#19201f" fill-opacity="0.501961" points="138,10 149,3 168,5" />
<polygon fill="#576261" fill-opacity="0.501961" points="239,125 228,125 239,128" />
<polygon fill="#151a17" fill-opacity="0.501961" points="198,124 215,137 195,138" />
<polygon fill="#717b75" fill-opacity="0.501961" points="204,81 207,82 208,80" />
<polygon fill="#3b4645" fill-opacity="0.501961" points="118,118 115,124 121,134" />
<polygon fill="#9aa8ab" fill-opacity="0.501961" points="214,1 196,-16 218,-13" />
<polygon fill="#768383" fill-opacity="0.501961" points="203,89 202,84 201,88" />
<polygon fill="#171c1c" fill-opacity="0.501961" points="219,43 237,28 219,-6" />
<polygon fill="#454b48" fill-opacity="0.501961" points="14,138 26,138 19,140" />
<polygon fill="#222a2a" fill-opacity="0.501961" points="191,137 192,118 183,138" />
<polygon fill="#141a1a" fill-opacity="0.501961" points="106,4 110,-16 122,13" />
<polygon fill="#384340" fill-opacity="0.501961" points="132,129 139,133 140,127" />
<polygon fill="#262c2c" fill-opacity="0.501961" points="94,54 107,56 78,63" />
<polygon fill="#313939" fill-opacity="0.501961" points="271,123 231,139 271,135" />
<polygon fill="#4c5556" fill-opacity="0.501961" points="193,1 197,-15 203,-3" />
<polygon fill="#4a5654" fill-opacity="0.501961" points="33,127 28,114 42,125" />
<polygon fill="#aeb9bb" fill-opacity="0.501961" points="203,105 218,112 217,122" />
<polygon fill="#cad3d7" fill-opacity="0.501961" points="145,76 116,106 122,71" />
<polygon fill="#151a18" fill-opacity="0.501961" points="54,56 43,56 40,35" />
<polygon fill="#9da4a4" fill-opacity="0.501961" points="80,159 104,151 115,133" />
<polygon fill="#576264" fill-opacity="0.501961" points="213,0 253,-13 176,-16" />
<polygon fill="#b6bfc2" fill-opacity="0.501961" points="27,100 26,110 42,112" />
<polygon fill="#121a17" fill-opacity="0.501961" points="41,80 43,71 55,74" />
<polygon fill="#bdc8cb" fill-opacity="0.501961" points="158,104 138,123 178,103" />
<polygon fill="#474d4a" fill-opacity="0.501961" points="228,159 195,140 265,151" />
<polygon fill="#98a6a6" fill-opacity="0.501961" points="210,2 225,-16 217,-16" />
<polygon fill="#454f4e" fill-opacity="0.501961" points="269,135 239,126 271,126" />
<polygon fill="#a2afaf" fill-opacity="0.501961" points="113,65 115,66 119,64" />
<polygon fill="#9cacaa" fill-opacity="0.501961" points="43,85 36,84 44,83" />
<polygon fill="#566061" fill-opacity="0.501961" points="179,107 177,99 180,97" />
<polygon fill="#5b6869" fill-opacity="0.501961" points="72,116 70,109 70,118" />
<polygon fill="#2e3634" fill-opacity="0.501961" points="182,104 178,83 184,91" />
<polygon fill="#2d3333" fill-opacity="0.501961" points="171,46 183,46 171,50" />
<polygon fill="#262e2b" fill-opacity="0.501961" points="154,58 154,62 157,65" />
<polygon fill="#2a302f" fill-opacity="0.501961" points="41,140 15,127 9,135" />
<polygon fill="#a4aba9" fill-opacity="0.501961" points="139,147 120,139 136,159" />
<polygon fill="#121818" fill-opacity="0.501961" points="158,25 183,23 152,17" />
<polygon fill="#2e3937" fill-opacity="0.501961" points="200,122 204,111 204,118" />
<polygon fill="#535d59" fill-opacity="0.501961" points="74,65 76,63 77,65" />
<polygon fill="#192121" fill-opacity="0.501961" points="250,29 244,53 215,54" />
<polygon fill="#a3aaaa" fill-opacity="0.501961" points="177,127 173,157 155,156" />
<polygon fill="#b2bcbf" fill-opacity="0.501961" points="44,110 31,112 29,107" />
<polygon fill="#1f2525" fill-opacity="0.501961" points="119,36 122,48 131,53" />
<polygon fill="#303736" fill-opacity="0.501961" points="129,10 125,14 130,18" />
<polygon fill="#3f4645" fill-opacity="0.501961" points="155,59 148,59 160,63" />
<polygon fill="#303a38" fill-opacity="0.501961" points="201,80 199,90 203,93" />
<polygon fill="#222725" fill-opacity="0.501961" points="238,78 271,74 239,59" />
<polygon fill="#181f1e" fill-opacity="0.501961" points="147,64 154,64 159,55" />
<polygon fill="#2c3432" fill-opacity="0.501961" points="17,135 44,126 15,127" />
<polygon fill="#202624" fill-opacity="0.501961" points="-16,108 13,127 -9,131" />
<polygon fill="#6a746f" fill-opacity="0.501961" points="73,159 120,141 121,159" />
<polygon fill="#384040" fill-opacity="0.501961" points="94,-16 145,4 118,-16" />
<polygon fill="#707b7b" fill-opacity="0.501961" points="116,63 110,64 115,65" />
<polygon fill="#222928" fill-opacity="0.501961" points="180,100 185,85 189,108" />
</g>
</svg>