<svg xmlns="http://www.w3.org/2000/svg" version="1.1" width="1024" height="576">
<rect x="0" y="0" width="1024" height="576" fill="#2d3630" />
<g transform="scale(4.000000) translate(0.5 0.5)">
<polygon fill="#b6bbc0" fill-opacity="0.501961" points="-16,39 52,40 12,11" />
<polygon fill="#020504" fill-opacity="0.501961" points="-16,92 154,73 12,50" />
<polygon fill="#060a0e" fill-opacity="0.501961" points="127,59 130,149 198,144" />
<polygon fill="#5d5f59" fill-opacity="0.501961" points="117,74 130,126 65,102" />
<polygon fill="#565d5f" fill-opacity="0.501961" points="39,10 -9,6 68,51" />
<polygon fill="#485546" fill-opacity="0.501961" points="235,38 51,59 234,-16" />
<polygon fill="#cdd2d3" fill-opacity="0.501961" points="18,33 25,22 -5,24" />
<polygon fill="#485452" fill-opacity="0.501961" points="72,46 -13,48 38,29" />
<polygon fill="#648381" fill-opacity="0.501961" points="99,85 84,108 84,134" />
<polygon fill="#151c18" fill-opacity="0.501961" points="-16,52 78,50 67,108" />
<polygon fill="#403a34" fill-opacity="0.501961" points="103,94 125,128 63,159" />
<polygon fill="#1f2a20" fill-opacity="0.501961" points="192,1 70,42 54,-16" />
<polygon fill="#1c2525" fill-opacity="0.501961" points="155,122 211,154 234,81" />
<polygon fill="#151d20" fill-opacity="0.501961" points="47,112 55,159 -13,98" />
<polygon fill="#2d564c" fill-opacity="0.501961" points="215,130 271,92 246,140" />
<polygon fill="#3e4b42" fill-opacity="0.501961" points="266,93 271,61 167,70" />
<polygon fill="#0e1213" fill-opacity="0.501961" points="152,79 105,56 144,122" />
<polygon fill="#44443e" fill-opacity="0.501961" points="65,104 128,155 46,157" />
<polygon fill="#222b23" fill-opacity="0.501961" points="247,65 269,22 126,64" />
<polygon fill="#4f5d4d" fill-opacity="0.501961" points="239,12 205,33 271,16" />
<polygon fill="#6b7272" fill-opacity="0.501961" points="18,54 3,13 -16,23" />
<polygon fill="#22231e" fill-opacity="0.501961" points="107,100 91,111 109,134" />
<polygon fill="#666a6a" fill-opacity="0.501961" points="14,18 49,11 28,29" />
<polygon fill="#6e675e" fill-opacity="0.501961" points="114,78 99,90 125,96" />
<polygon fill="#3b4037" fill-opacity="0.501961" points="191,72 172,125 155,103" />
<polygon fill="#38423f" fill-opacity="0.501961" points="19,61 -16,41 43,39" />
<polygon fill="#374846" fill-opacity="0.501961" points="72,91 95,86 81,128" />
<polygon fill="#3f4b40" fill-opacity="0.501961" points="155,18 122,57 53,48" />
<polygon fill="#11181b" fill-opacity="0.501961" points="149,126 152,82 107,159" />
<polygon fill="#313d33" fill-opacity="0.501961" points="253,-14 142,31 258,17" />
<polygon fill="#262d26" fill-opacity="0.501961" points="86,59 142,57 198,98" />
<polygon fill="#24302c" fill-opacity="0.501961" points="29,141 -13,91 65,78" />
<polygon fill="#3e4e50" fill-opacity="0.501961" points="-16,108 12,122 29,148" />
<polygon fill="#b0b7b7" fill-opacity="0.501961" points="14,18 0,31 25,30" />
<polygon fill="#3c4543" fill-opacity="0.501961" points="80,-10 45,17 -16,17" />
<polygon fill="#4b564b" fill-opacity="0.501961" points="148,20 195,16 221,-7" />
<polygon fill="#1a2423" fill-opacity="0.501961" points="245,103 195,116 222,74" />
<polygon fill="#2a3834" fill-opacity="0.501961" points="125,13 42,21 55,40" />
<polygon fill="#141a16" fill-opacity="0.501961" points="33,45 60,81 144,77" />
<polygon fill="#404b3f" fill-opacity="0.501961" points="251,42 137,45 224,18" />
<polygon fill="#4c5b4c" fill-opacity="0.501961" points="259,67 241,62 216,74" />
<polygon fill="#1a2518" fill-opacity="0.501961" points="179,-16 116,27 234,-12" />
<polygon fill="#404431" fill-opacity="0.501961" points="183,69 218,70 200,108" />
<polygon fill="#374949" fill-opacity="0.501961" points="83,112 58,114 32,96" />
<polygon fill="#3a4338" fill-opacity="0.501961" points="154,77 184,69 126,64" />
<polygon fill="#55635e" fill-opacity="0.501961" points="71,97 78,106 76,87" />
<polygon fill="#6c8784" fill-opacity="0.501961" points="85,113 94,102 86,120" />
<polygon fill="#586154" fill-opacity="0.501961" points="101,37 138,25 120,37" />
<polygon fill="#303c2f" fill-opacity="0.501961" points="208,-16 104,23 116,-13" />
<polygon fill="#121914" fill-opacity="0.501961" points="81,62 67,103 54,101" />
<polygon fill="#2f3830" fill-opacity="0.501961" points="158,46 245,29 219,52" />
<polygon fill="#2f3b37" fill-opacity="0.501961" points="45,127 90,99 85,123" />
<polygon fill="#38433a" fill-opacity="0.501961" points="78,63 137,31 71,46" />
<polygon fill="#d6d8d8" fill-opacity="0.501961" points="16,23 18,30 11,27" />
<polygon fill="#293739" fill-opacity="0.501961" points="217,73 259,70 261,115" />
<polygon fill="#333e35" fill-opacity="0.501961" points="157,41 221,2 156,20" />
<polygon fill="#4b4b44" fill-opacity="0.501961" points="131,108 124,131 96,81" />
<polygon fill="#4e544d" fill-opacity="0.501961" points="179,97 165,102 172,111" />
<polygon fill="#182023" fill-opacity="0.501961" points="-16,135 -16,105 29,159" />
<polygon fill="#787e7b" fill-opacity="0.501961" points="-16,21 19,33 8,42" />
<polygon fill="#253c36" fill-opacity="0.501961" points="214,143 257,97 212,111" />
<polygon fill="#212b28" fill-opacity="0.501961" points="1,61 44,59 26,46" />
<polygon fill="#1a1b15" fill-opacity="0.501961" points="177,89 154,71 173,78" />
<polygon fill="#515c4f" fill-opacity="0.501961" points="201,37 178,35 222,26" />
<polygon fill="#3d4541" fill-opacity="0.501961" points="134,-16 79,5 37,-16" />
<polygon fill="#424a45" fill-opacity="0.501961" points="18,52 13,36 48,40" />
<polygon fill="#868c8f" fill-opacity="0.501961" points="21,19 29,33 13,19" />
<polygon fill="#101518" fill-opacity="0.501961" points="120,71 143,68 127,103" />
<polygon fill="#111511" fill-opacity="0.501961" points="6,87 53,80 -16,53" />
<polygon fill="#63645b" fill-opacity="0.501961" points="115,78 123,90 93,90" />
<polygon fill="#222b29" fill-opacity="0.501961" points="199,88 179,133 158,123" />
<polygon fill="#131b1b" fill-opacity="0.501961" points="59,155 44,121 30,149" />
<polygon fill="#1b2316" fill-opacity="0.501961" points="238,26 261,23 269,52" />
<polygon fill="#626667" fill-opacity="0.501961" points="20,18 -3,22 -16,9" />
<polygon fill="#687367" fill-opacity="0.501961" points="174,12 181,7 186,9" />
<polygon fill="#262e26" fill-opacity="0.501961" points="54,111 71,128 88,123" />
<polygon fill="#1c282b" fill-opacity="0.501961" points="128,159 140,130 129,101" />
<polygon fill="#404e45" fill-opacity="0.501961" points="88,59 60,46 84,38" />
<polygon fill="#1f291f" fill-opacity="0.501961" points="92,25 88,43 141,13" />
<polygon fill="#43423a" fill-opacity="0.501961" points="58,159 124,159 51,115" />
<polygon fill="#1d261f" fill-opacity="0.501961" points="270,41 207,60 267,60" />
<polygon fill="#464c3e" fill-opacity="0.501961" points="191,107 199,92 202,101" />
<polygon fill="#465145" fill-opacity="0.501961" points="162,39 131,55 114,49" />
<polygon fill="#202b26" fill-opacity="0.501961" points="63,79 0,88 58,101" />
<polygon fill="#171e1a" fill-opacity="0.501961" points="101,55 75,83 135,75" />
<polygon fill="#2a3630" fill-opacity="0.501961" points="123,-2 45,35 79,41" />
<polygon fill="#1e2623" fill-opacity="0.501961" points="93,10 46,19 65,1" />
<polygon fill="#71918c" fill-opacity="0.501961" points="91,101 92,108 95,93" />
<polygon fill="#5c6060" fill-opacity="0.501961" points="44,33 30,14 16,17" />
<polygon fill="#5d6c61" fill-opacity="0.501961" points="210,5 206,-2 200,2" />
<polygon fill="#353f37" fill-opacity="0.501961" points="115,53 145,68 125,66" />
<polygon fill="#35392d" fill-opacity="0.501961" points="173,73 235,77 181,92" />
<polygon fill="#363e3c" fill-opacity="0.501961" points="13,0 36,11 -16,11" />
<polygon fill="#1a1f1a" fill-opacity="0.501961" points="86,12 117,-2 102,-16" />
<polygon fill="#475551" fill-opacity="0.501961" points="90,104 69,105 75,84" />
<polygon fill="#272924" fill-opacity="0.501961" points="90,119 105,124 95,99" />
<polygon fill="#305247" fill-opacity="0.501961" points="232,133 266,125 270,87" />
<polygon fill="#7b9c97" fill-opacity="0.501961" points="88,121 84,122 90,110" />
<polygon fill="#2b3632" fill-opacity="0.501961" points="-3,85 33,120 44,98" />
<polygon fill="#4b4b44" fill-opacity="0.501961" points="125,95 121,134 99,85" />
<polygon fill="#45473f" fill-opacity="0.501961" points="66,159 90,118 101,131" />
<polygon fill="#7e8685" fill-opacity="0.501961" points="13,32 37,36 28,29" />
<polygon fill="#324746" fill-opacity="0.501961" points="103,85 82,88 97,81" />
<polygon fill="#455050" fill-opacity="0.501961" points="-16,47 26,49 -12,34" />
<polygon fill="#11181a" fill-opacity="0.501961" points="151,159 99,159 123,134" />
<polygon fill="#4a594d" fill-opacity="0.501961" points="238,72 247,62 212,72" />
<polygon fill="#233231" fill-opacity="0.501961" points="233,157 214,142 265,130" />
<polygon fill="#242b27" fill-opacity="0.501961" points="204,144 148,115 160,99" />
<polygon fill="#384645" fill-opacity="0.501961" points="86,115 97,79 81,95" />
<polygon fill="#4c584c" fill-opacity="0.501961" points="98,54 85,52 88,57" />
<polygon fill="#212a25" fill-opacity="0.501961" points="147,66 220,47 220,67" />
<polygon fill="#273023" fill-opacity="0.501961" points="61,47 88,62 69,62" />
<polygon fill="#6d8a83" fill-opacity="0.501961" points="98,85 97,97 92,101" />
<polygon fill="#435347" fill-opacity="0.501961" points="186,70 203,74 218,69" />
<polygon fill="#535e51" fill-opacity="0.501961" points="172,18 159,15 184,7" />
<polygon fill="#353630" fill-opacity="0.501961" points="116,159 109,97 98,126" />
<polygon fill="#3a4847" fill-opacity="0.501961" points="44,159 21,151 1,115" />
<polygon fill="#101313" fill-opacity="0.501961" points="158,99 124,75 137,121" />
<polygon fill="#576355" fill-opacity="0.501961" points="235,25 221,24 214,30" />
<polygon fill="#25302c" fill-opacity="0.501961" points="37,43 23,51 25,44" />
<polygon fill="#2f342f" fill-opacity="0.501961" points="146,74 163,109 160,69" />
<polygon fill="#3c3b37" fill-opacity="0.501961" points="108,97 96,109 97,91" />
<polygon fill="#333d34" fill-opacity="0.501961" points="229,14 271,11 188,-16" />
<polygon fill="#394846" fill-opacity="0.501961" points="65,108 87,124 82,109" />
<polygon fill="#1e2623" fill-opacity="0.501961" points="37,58 -11,66 -11,46" />
<polygon fill="#545f50" fill-opacity="0.501961" points="133,31 127,28 144,25" />
<polygon fill="#364138" fill-opacity="0.501961" points="143,25 196,29 100,50" />
<polygon fill="#53554d" fill-opacity="0.501961" points="115,112 126,121 122,88" />
<polygon fill="#333e36" fill-opacity="0.501961" points="103,50 77,52 108,27" />
<polygon fill="#131512" fill-opacity="0.501961" points="111,68 87,77 56,58" />
<polygon fill="#646766" fill-opacity="0.501961" points="17,43 18,36 -2,39" />
<polygon fill="#273130" fill-opacity="0.501961" points="31,11 43,3 4,-16" />
<polygon fill="#354036" fill-opacity="0.501961" points="167,17 228,-1 226,24" />
<polygon fill="#4a5749" fill-opacity="0.501961" points="237,17 258,17 235,25" />
<polygon fill="#818687" fill-opacity="0.501961" points="-1,24 12,18 18,22" />
<polygon fill="#434d40" fill-opacity="0.501961" points="172,70 195,68 173,76" />
<polygon fill="#313d39" fill-opacity="0.501961" points="43,98 23,107 76,116" />
<polygon fill="#2d3933" fill-opacity="0.501961" points="74,81 90,84 85,100" />
<polygon fill="#202723" fill-opacity="0.501961" points="193,91 195,123 181,92" />
<polygon fill="#464d4e" fill-opacity="0.501961" points="34,23 52,44 40,17" />
<polygon fill="#746e63" fill-opacity="0.501961" points="113,80 106,81 113,84" />
<polygon fill="#141d1e" fill-opacity="0.501961" points="49,114 39,116 50,130" />
<polygon fill="#1b231f" fill-opacity="0.501961" points="122,62 106,55 126,91" />
<polygon fill="#2e473f" fill-opacity="0.501961" points="229,116 233,149 244,108" />
<polygon fill="#484c4a" fill-opacity="0.501961" points="14,7 -3,14 33,16" />
<polygon fill="#1e2625" fill-opacity="0.501961" points="249,97 225,111 210,85" />
<polygon fill="#334040" fill-opacity="0.501961" points="271,106 241,76 231,85" />
<polygon fill="#2f3931" fill-opacity="0.501961" points="223,50 195,35 252,41" />
<polygon fill="#303c39" fill-opacity="0.501961" points="79,32 56,35 39,17" />
<polygon fill="#141d11" fill-opacity="0.501961" points="139,17 114,24 127,16" />
<polygon fill="#354136" fill-opacity="0.501961" points="271,55 233,65 270,69" />
<polygon fill="#18251d" fill-opacity="0.501961" points="75,108 80,105 70,105" />
<polygon fill="#191f1c" fill-opacity="0.501961" points="205,159 139,146 209,135" />
<polygon fill="#656d6e" fill-opacity="0.501961" points="28,31 41,41 37,30" />
<polygon fill="#4f5b4c" fill-opacity="0.501961" points="156,43 163,37 171,38" />
<polygon fill="#465653" fill-opacity="0.501961" points="52,37 66,44 32,41" />
<polygon fill="#29342b" fill-opacity="0.501961" points="123,16 79,35 109,5" />
<polygon fill="#343b34" fill-opacity="0.501961" points="164,91 151,111 194,84" />
<polygon fill="#2d362f" fill-opacity="0.501961" points="207,88 245,71 217,73" />
<polygon fill="#1f221b" fill-opacity="0.501961" points="98,112 90,122 91,113" />
<polygon fill="#353e33" fill-opacity="0.501961" points="140,56 121,52 162,44" />
<polygon fill="#52605a" fill-opacity="0.501961" points="78,97 83,103 69,102" />
<polygon fill="#1c2925" fill-opacity="0.501961" points="49,34 59,40 71,40" />
<polygon fill="#3c4945" fill-opacity="0.501961" points="43,19 38,8 52,6" />
<polygon fill="#3e483b" fill-opacity="0.501961" points="147,72 165,70 142,66" />
<polygon fill="#4b564b" fill-opacity="0.501961" points="103,52 109,55 122,48" />
<polygon fill="#3c4631" fill-opacity="0.501961" points="138,23 155,21 150,14" />
<polygon fill="#1b231c" fill-opacity="0.501961" points="76,56 49,47 54,58" />
<polygon fill="#1b211f" fill-opacity="0.501961" points="152,134 140,107 177,130" />
<polygon fill="#3e4c4b" fill-opacity="0.501961" points="70,108 52,102 61,109" />
<polygon fill="#192117" fill-opacity="0.501961" points="191,-12 172,7 146,10" />
<polygon fill="#141c12" fill-opacity="0.501961" points="271,91 254,48 262,0" />
<polygon fill="#151d17" fill-opacity="0.501961" points="69,106 58,102 67,64" />
<polygon fill="#30413e" fill-opacity="0.501961" points="104,82 90,88 96,81" />
<polygon fill="#212826" fill-opacity="0.501961" points="14,104 37,148 -16,91" />
<polygon fill="#646862" fill-opacity="0.501961" points="21,33 12,36 23,37" />
<polygon fill="#72787a" fill-opacity="0.501961" points="20,20 30,20 28,29" />
<polygon fill="#abb2af" fill-opacity="0.501961" points="9,31 5,25 15,32" />
<polygon fill="#384338" fill-opacity="0.501961" points="271,10 224,24 238,8" />
<polygon fill="#4f5e58" fill-opacity="0.501961" points="68,104 79,105 72,95" />
<polygon fill="#1e2b27" fill-opacity="0.501961" points="52,112 58,121 58,114" />
<polygon fill="#151b1a" fill-opacity="0.501961" points="62,58 42,59 37,45" />
<polygon fill="#515d4d" fill-opacity="0.501961" points="120,34 128,27 106,35" />
<polygon fill="#1f2a24" fill-opacity="0.501961" points="49,100 16,89 47,82" />
<polygon fill="#5f6464" fill-opacity="0.501961" points="10,16 -16,39 -16,20" />
<polygon fill="#131713" fill-opacity="0.501961" points="-16,83 27,86 44,62" />
<polygon fill="#2f3c39" fill-opacity="0.501961" points="241,141 224,123 214,134" />
<polygon fill="#333d3a" fill-opacity="0.501961" points="123,64 123,71 129,66" />
<polygon fill="#242c2c" fill-opacity="0.501961" points="222,152 213,121 151,110" />
<polygon fill="#131c1c" fill-opacity="0.501961" points="118,78 130,101 124,73" />
<polygon fill="#43433d" fill-opacity="0.501961" points="72,139 114,159 92,120" />
<polygon fill="#1a2526" fill-opacity="0.501961" points="125,136 130,107 138,118" />
<polygon fill="#242e27" fill-opacity="0.501961" points="76,34 100,31 92,40" />
<polygon fill="#4e5b4e" fill-opacity="0.501961" points="114,53 119,47 128,49" />
<polygon fill="#8c9495" fill-opacity="0.501961" points="25,26 25,33 15,19" />
<polygon fill="#252f24" fill-opacity="0.501961" points="113,54 86,59 95,64" />
<polygon fill="#313f3e" fill-opacity="0.501961" points="3,111 11,120 -12,111" />
<polygon fill="#202a24" fill-opacity="0.501961" points="75,79 92,79 86,89" />
<polygon fill="#49574b" fill-opacity="0.501961" points="213,5 207,-1 209,8" />
<polygon fill="#454640" fill-opacity="0.501961" points="100,90 101,101 94,103" />
<polygon fill="#2d3835" fill-opacity="0.501961" points="145,141 153,142 134,159" />
<polygon fill="#757c7c" fill-opacity="0.501961" points="-14,1 11,41 -16,29" />
<polygon fill="#3a4439" fill-opacity="0.501961" points="212,38 208,32 193,37" />
<polygon fill="#1e2625" fill-opacity="0.501961" points="209,97 174,138 209,114" />
<polygon fill="#494d4a" fill-opacity="0.501961" points="7,44 22,37 21,44" />
<polygon fill="#313d31" fill-opacity="0.501961" points="105,37 88,35 114,28" />
<polygon fill="#262f2c" fill-opacity="0.501961" points="44,143 19,87 -1,88" />
<polygon fill="#393e38" fill-opacity="0.501961" points="170,102 182,91 158,89" />
<polygon fill="#172217" fill-opacity="0.501961" points="120,25 124,18 103,27" />
<polygon fill="#20201a" fill-opacity="0.501961" points="78,122 70,121 76,125" />
<polygon fill="#303930" fill-opacity="0.501961" points="132,-5 139,8 181,-6" />
<polygon fill="#3b4441" fill-opacity="0.501961" points="86,96 76,96 75,83" />
<polygon fill="#515b51" fill-opacity="0.501961" points="111,38 118,33 100,38" />
<polygon fill="#262f2b" fill-opacity="0.501961" points="73,22 89,3 47,25" />
<polygon fill="#171e1f" fill-opacity="0.501961" points="94,81 140,69 113,66" />
<polygon fill="#535a5b" fill-opacity="0.501961" points="27,24 38,32 51,32" />
<polygon fill="#374141" fill-opacity="0.501961" points="35,112 34,123 32,115" />
<polygon fill="#414636" fill-opacity="0.501961" points="197,99 204,98 197,109" />
<polygon fill="#121917" fill-opacity="0.501961" points="172,80 163,80 176,87" />
<polygon fill="#465146" fill-opacity="0.501961" points="105,53 84,51 82,58" />
<polygon fill="#101413" fill-opacity="0.501961" points="153,133 134,104 140,131" />
<polygon fill="#4b5855" fill-opacity="0.501961" points="64,42 65,48 48,40" />
<polygon fill="#343526" fill-opacity="0.501961" points="205,100 218,77 208,75" />
<polygon fill="#3c3d37" fill-opacity="0.501961" points="123,131 108,136 107,103" />
<polygon fill="#223731" fill-opacity="0.501961" points="271,97 217,117 236,100" />
<polygon fill="#68685f" fill-opacity="0.501961" points="105,82 121,86 114,79" />
<polygon fill="#29322b" fill-opacity="0.501961" points="150,67 135,53 115,58" />
<polygon fill="#404641" fill-opacity="0.501961" points="51,122 52,113 57,127" />
<polygon fill="#2d3938" fill-opacity="0.501961" points="271,70 232,91 219,76" />
<polygon fill="#263e36" fill-opacity="0.501961" points="257,135 242,138 257,119" />
<polygon fill="#2a332f" fill-opacity="0.501961" points="184,123 179,97 171,119" />
<polygon fill="#212e25" fill-opacity="0.501961" points="188,4 198,1 176,-11" />
<polygon fill="#2b3526" fill-opacity="0.501961" points="62,56 74,57 75,61" />
<polygon fill="#4d5a4c" fill-opacity="0.501961" points="254,22 260,16 239,22" />
<polygon fill="#353934" fill-opacity="0.501961" points="70,119 75,132 59,121" />
<polygon fill="#4c584b" fill-opacity="0.501961" points="182,36 221,30 202,27" />
<polygon fill="#141c1d" fill-opacity="0.501961" points="151,104 140,73 158,97" />
<polygon fill="#31342a" fill-opacity="0.501961" points="172,72 156,71 177,80" />
<polygon fill="#19201b" fill-opacity="0.501961" points="76,78 40,59 71,92" />
<polygon fill="#1b1c17" fill-opacity="0.501961" points="165,108 162,103 170,109" />
<polygon fill="#21231c" fill-opacity="0.501961" points="155,107 165,113 151,120" />
<polygon fill="#2d3732" fill-opacity="0.501961" points="21,52 4,49 14,56" />
<polygon fill="#515d52" fill-opacity="0.501961" points="180,13 172,9 194,5" />
<polygon fill="#182114" fill-opacity="0.501961" points="161,9 147,9 137,16" />
<polygon fill="#26312f" fill-opacity="0.501961" points="-16,117 12,134 -15,102" />
<polygon fill="#4e554c" fill-opacity="0.501961" points="173,110 174,105 167,101" />
<polygon fill="#222c28" fill-opacity="0.501961" points="28,49 34,56 15,62" />
<polygon fill="#273029" fill-opacity="0.501961" points="237,59 252,58 238,65" />
<polygon fill="#36413a" fill-opacity="0.501961" points="85,54 80,38 120,47" />
<polygon fill="#2f3c35" fill-opacity="0.501961" points="43,43 29,46 52,48" />
<polygon fill="#232e2a" fill-opacity="0.501961" points="53,78 63,82 55,102" />
<polygon fill="#455652" fill-opacity="0.501961" points="61,122 60,117 58,119" />
<polygon fill="#313a34" fill-opacity="0.501961" points="83,6 116,-12 20,-14" />
<polygon fill="#27322f" fill-opacity="0.501961" points="222,131 221,116 183,131" />
<polygon fill="#364340" fill-opacity="0.501961" points="102,81 106,86 89,82" />
<polygon fill="#2f3d3a" fill-opacity="0.501961" points="42,35 74,22 61,34" />
<polygon fill="#313a32" fill-opacity="0.501961" points="250,35 222,41 252,48" />
<polygon fill="#4b594e" fill-opacity="0.501961" points="250,65 235,67 238,70" />
<polygon fill="#585850" fill-opacity="0.501961" points="117,97 105,86 123,91" />
<polygon fill="#465654" fill-opacity="0.501961" points="86,102 87,115 91,100" />
<polygon fill="#c1c6c5" fill-opacity="0.501961" points="7,26 19,25 15,31" />
<polygon fill="#4c594c" fill-opacity="0.501961" points="232,70 224,67 211,73" />
<polygon fill="#273127" fill-opacity="0.501961" points="53,113 36,107 46,114" />
<polygon fill="#39463b" fill-opacity="0.501961" points="184,23 219,21 169,38" />
<polygon fill="#37403b" fill-opacity="0.501961" points="-14,5 21,6 0,11" />
<polygon fill="#374138" fill-opacity="0.501961" points="71,49 130,46 100,37" />
<polygon fill="#232d28" fill-opacity="0.501961" points="21,-11 60,-16 65,3" />
<polygon fill="#313c31" fill-opacity="0.501961" points="210,63 208,71 236,66" />
<polygon fill="#2c362b" fill-opacity="0.501961" points="161,8 151,16 177,7" />
<polygon fill="#3c3c34" fill-opacity="0.501961" points="57,136 48,159 98,118" />
<polygon fill="#273225" fill-opacity="0.501961" points="271,33 271,21 234,25" />
<polygon fill="#394439" fill-opacity="0.501961" points="240,37 220,33 238,30" />
<polygon fill="#1d2422" fill-opacity="0.501961" points="37,116 32,148 43,153" />
<polygon fill="#45524c" fill-opacity="0.501961" points="79,108 79,92 84,96" />
<polygon fill="#303a31" fill-opacity="0.501961" points="145,58 194,46 154,45" />
<polygon fill="#464f40" fill-opacity="0.501961" points="148,26 137,25 154,20" />
<polygon fill="#2f3b33" fill-opacity="0.501961" points="233,9 267,-1 187,-13" />
<polygon fill="#475952" fill-opacity="0.501961" points="78,45 77,42 80,41" />
<polygon fill="#292924" fill-opacity="0.501961" points="92,121 103,117 103,101" />
<polygon fill="#333430" fill-opacity="0.501961" points="120,134 104,158 106,122" />
<polygon fill="#5b605e" fill-opacity="0.501961" points="31,28 33,13 26,17" />
<polygon fill="#222a25" fill-opacity="0.501961" points="113,63 122,75 123,63" />
<polygon fill="#242c2b" fill-opacity="0.501961" points="32,146 10,105 34,110" />
<polygon fill="#192121" fill-opacity="0.501961" points="133,105 124,81 125,96" />
<polygon fill="#28312b" fill-opacity="0.501961" points="253,52 250,42 213,51" />
<polygon fill="#3a4a48" fill-opacity="0.501961" points="97,83 87,104 91,82" />
<polygon fill="#2b3935" fill-opacity="0.501961" points="57,121 74,116 68,124" />
<polygon fill="#363932" fill-opacity="0.501961" points="50,126 56,142 55,118" />
<polygon fill="#4a4943" fill-opacity="0.501961" points="117,99 98,95 100,86" />
<polygon fill="#3a4a43" fill-opacity="0.501961" points="31,50 40,40 34,43" />
<polygon fill="#343f33" fill-opacity="0.501961" points="24,102 22,106 32,108" />
<polygon fill="#325147" fill-opacity="0.501961" points="241,133 257,110 237,125" />
<polygon fill="#25302e" fill-opacity="0.501961" points="252,137 194,148 238,159" />
<polygon fill="#293433" fill-opacity="0.501961" points="8,119 18,125 21,136" />
<polygon fill="#151b19" fill-opacity="0.501961" points="15,59 -11,59 -16,79" />
<polygon fill="#9ea2a3" fill-opacity="0.501961" points="13,22 18,24 10,24" />
<polygon fill="#29352e" fill-opacity="0.501961" points="101,9 107,24 64,38" />
<polygon fill="#1a2518" fill-opacity="0.501961" points="140,19 156,6 121,19" />
<polygon fill="#9aa1a2" fill-opacity="0.501961" points="25,26 12,31 22,32" />
<polygon fill="#454f46" fill-opacity="0.501961" points="67,51 59,45 75,51" />
<polygon fill="#131a17" fill-opacity="0.501961" points="113,73 120,76 124,86" />
<polygon fill="#485554" fill-opacity="0.501961" points="82,117 85,118 86,112" />
<polygon fill="#3e4b42" fill-opacity="0.501961" points="178,68 173,71 163,68" />
<polygon fill="#323837" fill-opacity="0.501961" points="41,20 54,29 48,14" />
<polygon fill="#212923" fill-opacity="0.501961" points="195,58 169,66 152,59" />
<polygon fill="#274037" fill-opacity="0.501961" points="267,102 247,102 227,116" />
<polygon fill="#3c4a49" fill-opacity="0.501961" points="39,98 51,102 43,102" />
<polygon fill="#3f4c4a" fill-opacity="0.501961" points="17,137 22,159 53,159" />
<polygon fill="#283633" fill-opacity="0.501961" points="21,92 5,87 -12,93" />
<polygon fill="#3b3e37" fill-opacity="0.501961" points="185,100 172,93 180,104" />
<polygon fill="#3e4e42" fill-opacity="0.501961" points="197,74 195,69 178,71" />
<polygon fill="#333f40" fill-opacity="0.501961" points="232,78 252,95 271,90" />
<polygon fill="#141815" fill-opacity="0.501961" points="55,68 100,80 111,64" />
<polygon fill="#151a15" fill-opacity="0.501961" points="36,80 84,80 26,64" />
<polygon fill="#515c4f" fill-opacity="0.501961" points="159,14 157,19 168,13" />
<polygon fill="#2e362e" fill-opacity="0.501961" points="140,71 160,82 150,71" />
<polygon fill="#2b312d" fill-opacity="0.501961" points="162,86 156,94 145,73" />
<polygon fill="#5b675a" fill-opacity="0.501961" points="83,57 81,55 87,56" />
<polygon fill="#35413a" fill-opacity="0.501961" points="62,5 32,-4 52,9" />
<polygon fill="#262e25" fill-opacity="0.501961" points="84,62 110,64 94,58" />
<polygon fill="#182022" fill-opacity="0.501961" points="140,122 143,149 105,151" />
<polygon fill="#576456" fill-opacity="0.501961" points="135,28 131,29 139,30" />
<polygon fill="#292f29" fill-opacity="0.501961" points="162,95 161,101 167,107" />
<polygon fill="#737b7d" fill-opacity="0.501961" points="24,25 28,26 29,36" />
<polygon fill="#5a7775" fill-opacity="0.501961" points="97,85 95,86 95,91" />
<polygon fill="#49524d" fill-opacity="0.501961" points="45,10 39,18 25,14" />
<polygon fill="#343631" fill-opacity="0.501961" points="105,105 95,111 105,95" />
<polygon fill="#4a5044" fill-opacity="0.501961" points="196,98 200,98 195,104" />
<polygon fill="#4f5b51" fill-opacity="0.501961" points="203,3 198,2 198,6" />
<polygon fill="#363a2e" fill-opacity="0.501961" points="215,74 204,97 176,75" />
<polygon fill="#1f2826" fill-opacity="0.501961" points="189,112 196,92 185,102" />
<polygon fill="#293732" fill-opacity="0.501961" points="79,19 67,46 66,27" />
<polygon fill="#3d4139" fill-opacity="0.501961" points="130,116 120,125 122,133" />
<polygon fill="#2b342d" fill-opacity="0.501961" points="234,45 196,56 200,39" />
<polygon fill="#45463e" fill-opacity="0.501961" points="110,97 109,112 118,123" />
<polygon fill="#3f493f" fill-opacity="0.501961" points="132,66 127,65 125,67" />
<polygon fill="#323d38" fill-opacity="0.501961" points="76,92 76,81 86,88" />
<polygon fill="#202822" fill-opacity="0.501961" points="95,9 70,20 93,1" />
<polygon fill="#374543" fill-opacity="0.501961" points="86,94 95,81 98,84" />
<polygon fill="#455244" fill-opacity="0.501961" points="213,73 202,72 217,68" />
<polygon fill="#252c2b" fill-opacity="0.501961" points="36,124 38,136 43,111" />
<polygon fill="#1f2a27" fill-opacity="0.501961" points="36,49 34,45 41,47" />
<polygon fill="#434d4a" fill-opacity="0.501961" points="-1,47 19,45 0,40" />
<polygon fill="#4c5649" fill-opacity="0.501961" points="143,47 132,47 145,43" />
<polygon fill="#1d2523" fill-opacity="0.501961" points="189,138 205,133 214,144" />
<polygon fill="#1c2627" fill-opacity="0.501961" points="135,130 129,113 130,144" />
<polygon fill="#383e34" fill-opacity="0.501961" points="191,83 165,104 180,82" />
<polygon fill="#1c261d" fill-opacity="0.501961" points="201,-5 157,12 176,-15" />
<polygon fill="#4c4f4f" fill-opacity="0.501961" points="23,19 11,10 24,15" />
<polygon fill="#424842" fill-opacity="0.501961" points="122,101 128,111 123,93" />
</g>
</svg>