<svg xmlns="http://www.w3.org/2000/svg" version="1.1" width="1024" height="576">
<rect x="0" y="0" width="1024" height="576" fill="#716052" />
<g transform="scale(4.000000) translate(0.5 0.5)">
<polygon fill="#000002" fill-opacity="0.501961" points="-16,142 43,38 241,159" />
<polygon fill="#ffe7bb" fill-opacity="0.501961" points="271,13 151,61 149,-16" />
<polygon fill="#ffdeb2" fill-opacity="0.501961" points="123,-16 -16,8 110,68" />
<polygon fill="#000005" fill-opacity="0.501961" points="109,55 149,-16 137,115" />
<polygon fill="#d4ae8c" fill-opacity="0.501961" points="11,66 150,-16 -16,1" />
<polygon fill="#968174" fill-opacity="0.501961" points="143,59 241,104 271,-16" />
<polygon fill="#040506" fill-opacity="0.501961" points="114,144 -13,73 -6,144" />
<polygon fill="#897b64" fill-opacity="0.501961" points="138,99 195,110 132,159" />
<polygon fill="#ffd5a1" fill-opacity="0.501961" points="142,-16 176,39 224,5" />
<polygon fill="#8b7971" fill-opacity="0.501961" points="120,30 9,20 115,72" />
<polygon fill="#fcebc5" fill-opacity="0.501961" points="247,4 271,-8 252,58" />
<polygon fill="#10181d" fill-opacity="0.501961" points="125,-16 146,39 108,134" />
<polygon fill="#714546" fill-opacity="0.501961" points="80,113 93,31 39,113" />
<polygon fill="#bba990" fill-opacity="0.501961" points="213,70 197,116 177,116" />
<polygon fill="#f3cc98" fill-opacity="0.501961" points="117,31 47,12 124,-16" />
<polygon fill="#e1dac5" fill-opacity="0.501961" points="103,51 109,68 83,65" />
<polygon fill="#262b2a" fill-opacity="0.501961" points="175,75 171,111 197,74" />
<polygon fill="#111a19" fill-opacity="0.501961" points="71,65 27,48 84,50" />
<polygon fill="#544b3e" fill-opacity="0.501961" points="271,132 130,109 228,159" />
<polygon fill="#a28877" fill-opacity="0.501961" points="30,21 97,23 50,53" />
<polygon fill="#1b1f1e" fill-opacity="0.501961" points="140,81 74,62 131,157" />
<polygon fill="#a78a74" fill-opacity="0.501961" points="110,95 106,130 100,101" />
<polygon fill="#8e7d72" fill-opacity="0.501961" points="234,0 189,42 271,66" />
<polygon fill="#5d5044" fill-opacity="0.501961" points="188,36 269,87 189,65" />
<polygon fill="#997f71" fill-opacity="0.501961" points="195,37 160,95 143,31" />
<polygon fill="#5e3f38" fill-opacity="0.501961" points="22,110 -9,77 42,64" />
<polygon fill="#e9c093" fill-opacity="0.501961" points="152,-16 255,-15 147,35" />
<polygon fill="#101615" fill-opacity="0.501961" points="21,71 38,40 47,54" />
<polygon fill="#b49a80" fill-opacity="0.501961" points="101,123 92,127 104,134" />
<polygon fill="#c1a081" fill-opacity="0.501961" points="-15,18 52,50 20,-16" />
<polygon fill="#24292b" fill-opacity="0.501961" points="144,44 151,-12 123,4" />
<polygon fill="#726657" fill-opacity="0.501961" points="218,141 194,159 182,83" />
<polygon fill="#864747" fill-opacity="0.501961" points="59,109 84,113 78,69" />
<polygon fill="#998471" fill-opacity="0.501961" points="116,41 94,26 115,79" />
<polygon fill="#534b3f" fill-opacity="0.501961" points="139,78 138,113 198,106" />
<polygon fill="#90725f" fill-opacity="0.501961" points="137,156 136,112 180,159" />
<polygon fill="#b1a997" fill-opacity="0.501961" points="78,55 89,69 101,68" />
<polygon fill="#212c2e" fill-opacity="0.501961" points="165,143 195,118 169,115" />
<polygon fill="#ccd7b3" fill-opacity="0.501961" points="172,114 194,115 183,107" />
<polygon fill="#99887a" fill-opacity="0.501961" points="218,-13 266,-16 224,42" />
<polygon fill="#c7ad97" fill-opacity="0.501961" points="98,56 77,46 79,21" />
<polygon fill="#151618" fill-opacity="0.501961" points="133,145 142,52 97,159" />
<polygon fill="#232c28" fill-opacity="0.501961" points="97,61 60,51 84,50" />
<polygon fill="#161310" fill-opacity="0.501961" points="7,159 31,146 9,69" />
<polygon fill="#e5af90" fill-opacity="0.501961" points="197,84 193,95 218,80" />
<polygon fill="#9a8173" fill-opacity="0.501961" points="47,26 14,80 1,36" />
<polygon fill="#101213" fill-opacity="0.501961" points="94,110 -16,146 91,142" />
<polygon fill="#e4ba94" fill-opacity="0.501961" points="-16,39 -3,17 33,18" />
<polygon fill="#0b0f10" fill-opacity="0.501961" points="81,66 110,93 83,92" />
<polygon fill="#b59784" fill-opacity="0.501961" points="150,31 182,34 189,74" />
<polygon fill="#9a7e6c" fill-opacity="0.501961" points="39,65 30,69 45,74" />
<polygon fill="#fdf3bb" fill-opacity="0.501961" points="253,4 247,20 271,40" />
<polygon fill="#1b1e1c" fill-opacity="0.501961" points="66,46 81,67 19,65" />
<polygon fill="#3f2828" fill-opacity="0.501961" points="63,62 62,106 -16,110" />
<polygon fill="#eaddc9" fill-opacity="0.501961" points="91,53 100,50 111,69" />
<polygon fill="#927968" fill-opacity="0.501961" points="19,44 80,38 51,17" />
<polygon fill="#e5be98" fill-opacity="0.501961" points="227,10 148,30 191,33" />
<polygon fill="#84705f" fill-opacity="0.501961" points="165,108 145,56 182,57" />
<polygon fill="#844846" fill-opacity="0.501961" points="20,74 21,104 31,66" />
<polygon fill="#e4dcc7" fill-opacity="0.501961" points="74,45 74,50 62,41" />
<polygon fill="#796759" fill-opacity="0.501961" points="213,15 238,111 210,99" />
<polygon fill="#957c6c" fill-opacity="0.501961" points="118,30 82,30 112,65" />
<polygon fill="#bc9881" fill-opacity="0.501961" points="-16,59 32,49 -7,36" />
<polygon fill="#4e4133" fill-opacity="0.501961" points="165,149 147,100 162,96" />
<polygon fill="#907b6c" fill-opacity="0.501961" points="144,51 156,33 174,93" />
<polygon fill="#8c7a64" fill-opacity="0.501961" points="92,109 92,99 87,105" />
<polygon fill="#1c1c1b" fill-opacity="0.501961" points="100,68 113,73 92,116" />
<polygon fill="#b0b0a0" fill-opacity="0.501961" points="79,64 87,62 80,55" />
<polygon fill="#cca085" fill-opacity="0.501961" points="230,81 240,96 240,84" />
<polygon fill="#93867b" fill-opacity="0.501961" points="251,50 248,10 212,-6" />
<polygon fill="#af9884" fill-opacity="0.501961" points="109,108 100,100 108,98" />
<polygon fill="#695745" fill-opacity="0.501961" points="199,95 258,159 197,152" />
<polygon fill="#dab197" fill-opacity="0.501961" points="225,27 236,16 228,34" />
<polygon fill="#29211c" fill-opacity="0.501961" points="124,105 112,123 97,109" />
<polygon fill="#c9a47d" fill-opacity="0.501961" points="89,-16 105,8 80,30" />
<polygon fill="#2a2b2c" fill-opacity="0.501961" points="129,-16 115,67 153,-10" />
<polygon fill="#dfd4b8" fill-opacity="0.501961" points="109,69 117,77 112,67" />
<polygon fill="#9d9a8f" fill-opacity="0.501961" points="41,41 52,43 51,54" />
<polygon fill="#2b3939" fill-opacity="0.501961" points="189,97 179,110 171,96" />
<polygon fill="#b4b590" fill-opacity="0.501961" points="185,108 169,110 198,119" />
<polygon fill="#af906c" fill-opacity="0.501961" points="-16,22 46,-2 -12,-16" />
<polygon fill="#a88f7d" fill-opacity="0.501961" points="-11,13 5,67 -16,71" />
<polygon fill="#ae8c79" fill-opacity="0.501961" points="250,113 271,115 271,59" />
<polygon fill="#252828" fill-opacity="0.501961" points="183,73 193,86 174,85" />
<polygon fill="#e8c49d" fill-opacity="0.501961" points="222,8 219,23 194,-16" />
<polygon fill="#d5b38d" fill-opacity="0.501961" points="-16,28 87,-16 64,17" />
<polygon fill="#513637" fill-opacity="0.501961" points="68,63 41,75 67,107" />
<polygon fill="#111314" fill-opacity="0.501961" points="57,159 44,112 74,113" />
<polygon fill="#685848" fill-opacity="0.501961" points="189,92 190,36 202,79" />
<polygon fill="#d1af84" fill-opacity="0.501961" points="151,-16 180,2 146,34" />
<polygon fill="#8a7667" fill-opacity="0.501961" points="208,16 209,58 227,24" />
<polygon fill="#907b67" fill-opacity="0.501961" points="96,118 99,120 95,131" />
<polygon fill="#ebcfa8" fill-opacity="0.501961" points="82,-16 73,16 83,32" />
<polygon fill="#302422" fill-opacity="0.501961" points="45,78 21,105 29,70" />
<polygon fill="#897868" fill-opacity="0.501961" points="17,66 34,53 -6,44" />
<polygon fill="#6d6157" fill-opacity="0.501961" points="226,63 257,101 246,48" />
<polygon fill="#b89a85" fill-opacity="0.501961" points="203,27 157,34 218,42" />
<polygon fill="#ac9a8e" fill-opacity="0.501961" points="254,65 271,54 244,19" />
<polygon fill="#1b1c1a" fill-opacity="0.501961" points="46,73 34,43 59,61" />
<polygon fill="#9f8977" fill-opacity="0.501961" points="137,118 139,129 149,126" />
<polygon fill="#6a5748" fill-opacity="0.501961" points="171,60 181,69 166,80" />
<polygon fill="#5d5147" fill-opacity="0.501961" points="249,85 240,111 227,116" />
<polygon fill="#745c50" fill-opacity="0.501961" points="22,57 17,71 25,88" />
<polygon fill="#1e1d1b" fill-opacity="0.501961" points="99,158 86,95 79,144" />
<polygon fill="#2a2720" fill-opacity="0.501961" points="35,58 19,72 22,61" />
<polygon fill="#565046" fill-opacity="0.501961" points="94,70 101,69 93,82" />
<polygon fill="#262019" fill-opacity="0.501961" points="48,114 -5,113 -7,92" />
<polygon fill="#3a2a22" fill-opacity="0.501961" points="17,91 6,63 8,82" />
<polygon fill="#eac798" fill-opacity="0.501961" points="95,23 120,-16 114,24" />
<polygon fill="#9a8371" fill-opacity="0.501961" points="145,58 167,39 146,31" />
<polygon fill="#a69587" fill-opacity="0.501961" points="196,121 192,117 197,103" />
<polygon fill="#7b756a" fill-opacity="0.501961" points="58,50 45,35 64,46" />
<polygon fill="#7a7869" fill-opacity="0.501961" points="173,102 163,119 165,99" />
<polygon fill="#b2a495" fill-opacity="0.501961" points="88,67 97,64 94,50" />
<polygon fill="#8f715e" fill-opacity="0.501961" points="222,71 212,81 177,72" />
<polygon fill="#30302e" fill-opacity="0.501961" points="132,27 150,-15 141,78" />
<polygon fill="#9a8373" fill-opacity="0.501961" points="223,30 219,68 235,51" />
<polygon fill="#2e3230" fill-opacity="0.501961" points="172,114 189,136 164,159" />
<polygon fill="#665a4a" fill-opacity="0.501961" points="8,75 9,97 1,73" />
<polygon fill="#c39e89" fill-opacity="0.501961" points="21,54 33,50 -2,38" />
<polygon fill="#79604f" fill-opacity="0.501961" points="177,89 139,101 140,90" />
<polygon fill="#615140" fill-opacity="0.501961" points="162,141 145,121 172,122" />
<polygon fill="#877665" fill-opacity="0.501961" points="108,44 90,39 77,49" />
<polygon fill="#846f5b" fill-opacity="0.501961" points="255,134 222,117 271,124" />
<polygon fill="#736356" fill-opacity="0.501961" points="221,26 209,57 223,103" />
<polygon fill="#515e55" fill-opacity="0.501961" points="195,108 164,109 182,101" />
<polygon fill="#3b3833" fill-opacity="0.501961" points="119,80 106,71 111,95" />
<polygon fill="#131314" fill-opacity="0.501961" points="43,68 58,53 86,53" />
<polygon fill="#1e1a17" fill-opacity="0.501961" points="150,159 123,159 100,123" />
<polygon fill="#827568" fill-opacity="0.501961" points="228,19 249,-15 220,-16" />
<polygon fill="#9e816e" fill-opacity="0.501961" points="214,80 193,102 208,97" />
<polygon fill="#6a5b4b" fill-opacity="0.501961" points="185,114 231,139 195,156" />
<polygon fill="#83766d" fill-opacity="0.501961" points="237,12 227,41 261,76" />
<polygon fill="#af998a" fill-opacity="0.501961" points="187,43 168,62 160,43" />
<polygon fill="#8a7967" fill-opacity="0.501961" points="16,85 11,68 26,51" />
<polygon fill="#52534a" fill-opacity="0.501961" points="90,55 73,43 79,53" />
<polygon fill="#5f5042" fill-opacity="0.501961" points="158,76 141,70 150,117" />
<polygon fill="#e5c298" fill-opacity="0.501961" points="202,28 195,-16 150,31" />
<polygon fill="#726659" fill-opacity="0.501961" points="176,89 197,96 183,85" />
<polygon fill="#a98e7c" fill-opacity="0.501961" points="92,26 116,49 116,30" />
<polygon fill="#ab8d7b" fill-opacity="0.501961" points="66,29 -16,26 24,40" />
<polygon fill="#484b45" fill-opacity="0.501961" points="81,73 52,65 77,65" />
<polygon fill="#1b1c1b" fill-opacity="0.501961" points="106,92 88,98 79,61" />
<polygon fill="#635344" fill-opacity="0.501961" points="151,129 132,151 134,132" />
<polygon fill="#8b7d70" fill-opacity="0.501961" points="185,57 146,49 146,69" />
<polygon fill="#7d4948" fill-opacity="0.501961" points="64,108 71,92 85,114" />
<polygon fill="#242323" fill-opacity="0.501961" points="139,-9 115,69 135,109" />
<polygon fill="#7a6c59" fill-opacity="0.501961" points="33,68 43,72 39,63" />
<polygon fill="#2e2c28" fill-opacity="0.501961" points="34,52 40,44 55,59" />
<polygon fill="#3c3930" fill-opacity="0.501961" points="54,45 57,49 49,60" />
<polygon fill="#bb8e71" fill-opacity="0.501961" points="168,84 160,79 166,73" />
<polygon fill="#ada899" fill-opacity="0.501961" points="72,41 67,47 58,39" />
<polygon fill="#8b7667" fill-opacity="0.501961" points="61,21 27,44 43,44" />
<polygon fill="#3b3b3a" fill-opacity="0.501961" points="188,84 183,105 189,99" />
<polygon fill="#746559" fill-opacity="0.501961" points="238,100 198,107 218,79" />
<polygon fill="#c8baa5" fill-opacity="0.501961" points="103,64 114,72 114,68" />
<polygon fill="#493e33" fill-opacity="0.501961" points="270,133 238,142 252,144" />
<polygon fill="#e8c89f" fill-opacity="0.501961" points="219,11 194,-16 197,25" />
<polygon fill="#74695e" fill-opacity="0.501961" points="221,39 211,22 206,27" />
<polygon fill="#4d4134" fill-opacity="0.501961" points="6,109 6,92 11,94" />
<polygon fill="#4f4337" fill-opacity="0.501961" points="165,95 159,120 146,96" />
<polygon fill="#937c6b" fill-opacity="0.501961" points="86,46 86,28 109,34" />
<polygon fill="#7d8275" fill-opacity="0.501961" points="78,56 80,62 86,65" />
<polygon fill="#675949" fill-opacity="0.501961" points="200,130 178,130 204,119" />
<polygon fill="#352920" fill-opacity="0.501961" points="102,110 97,93 90,131" />
<polygon fill="#e5b899" fill-opacity="0.501961" points="204,91 207,82 199,87" />
<polygon fill="#5f544a" fill-opacity="0.501961" points="191,65 205,59 189,39" />
<polygon fill="#796253" fill-opacity="0.501961" points="157,86 141,94 183,95" />
<polygon fill="#756053" fill-opacity="0.501961" points="105,109 111,114 101,114" />
<polygon fill="#967a67" fill-opacity="0.501961" points="195,68 203,80 234,83" />
<polygon fill="#6d5f54" fill-opacity="0.501961" points="223,74 228,43 236,81" />
<polygon fill="#b19280" fill-opacity="0.501961" points="228,32 223,34 224,49" />
<polygon fill="#202120" fill-opacity="0.501961" points="73,132 81,117 120,150" />
<polygon fill="#a17c65" fill-opacity="0.501961" points="199,99 187,95 194,91" />
<polygon fill="#836e5d" fill-opacity="0.501961" points="108,137 95,127 99,120" />
<polygon fill="#605547" fill-opacity="0.501961" points="118,72 116,83 110,85" />
<polygon fill="#1e1a15" fill-opacity="0.501961" points="20,126 5,115 18,87" />
<polygon fill="#5f5142" fill-opacity="0.501961" points="105,98 87,101 95,97" />
<polygon fill="#7a4745" fill-opacity="0.501961" points="82,115 82,101 65,110" />
<polygon fill="#1c1b1a" fill-opacity="0.501961" points="130,58 104,145 129,159" />
<polygon fill="#2c2c2d" fill-opacity="0.501961" points="114,65 144,6 129,-8" />
<polygon fill="#806d5e" fill-opacity="0.501961" points="254,80 237,101 253,62" />
<polygon fill="#7f7769" fill-opacity="0.501961" points="111,66 99,47 115,54" />
<polygon fill="#171717" fill-opacity="0.501961" points="100,71 98,97 108,95" />
<polygon fill="#c9aa88" fill-opacity="0.501961" points="39,25 65,7 15,2" />
<polygon fill="#402a2b" fill-opacity="0.501961" points="59,82 32,70 44,112" />
<polygon fill="#99816f" fill-opacity="0.501961" points="210,45 180,37 216,36" />
<polygon fill="#cfc392" fill-opacity="0.501961" points="175,109 172,113 185,113" />
<polygon fill="#2a211b" fill-opacity="0.501961" points="102,123 96,102 91,107" />
<polygon fill="#e3bf94" fill-opacity="0.501961" points="118,-2 119,28 97,24" />
<polygon fill="#242524" fill-opacity="0.501961" points="100,83 111,72 119,90" />
<polygon fill="#dcae96" fill-opacity="0.501961" points="0,41 -4,44 10,43" />
<polygon fill="#60574c" fill-opacity="0.501961" points="100,72 79,61 88,70" />
<polygon fill="#a3a293" fill-opacity="0.501961" points="95,56 81,47 91,50" />
<polygon fill="#a18976" fill-opacity="0.501961" points="8,46 32,52 7,59" />
<polygon fill="#836f5e" fill-opacity="0.501961" points="188,55 179,63 191,39" />
<polygon fill="#181513" fill-opacity="0.501961" points="9,121 -10,57 -9,159" />
<polygon fill="#c5ae94" fill-opacity="0.501961" points="248,28 244,10 251,10" />
<polygon fill="#2c312e" fill-opacity="0.501961" points="189,126 173,125 186,116" />
<polygon fill="#b39a8c" fill-opacity="0.501961" points="177,61 182,50 173,44" />
<polygon fill="#594f46" fill-opacity="0.501961" points="271,74 251,103 251,85" />
<polygon fill="#b89e82" fill-opacity="0.501961" points="221,19 217,24 206,12" />
<polygon fill="#827062" fill-opacity="0.501961" points="144,54 149,75 179,75" />
<polygon fill="#8a7364" fill-opacity="0.501961" points="24,75 21,84 21,71" />
<polygon fill="#4f3b32" fill-opacity="0.501961" points="22,110 26,86 19,98" />
<polygon fill="#dfbb90" fill-opacity="0.501961" points="76,20 77,-3 55,4" />
<polygon fill="#605245" fill-opacity="0.501961" points="205,116 197,103 225,114" />
<polygon fill="#91867a" fill-opacity="0.501961" points="234,-16 258,-5 237,18" />
<polygon fill="#ceae8e" fill-opacity="0.501961" points="188,29 189,9 201,35" />
<polygon fill="#1a130f" fill-opacity="0.501961" points="92,116 83,119 87,105" />
<polygon fill="#937f6f" fill-opacity="0.501961" points="102,104 104,107 111,97" />
<polygon fill="#7d7769" fill-opacity="0.501961" points="49,23 55,28 59,20" />
<polygon fill="#897a66" fill-opacity="0.501961" points="91,105 92,98 89,104" />
<polygon fill="#201e1b" fill-opacity="0.501961" points="40,48 37,64 19,68" />
<polygon fill="#1a1816" fill-opacity="0.501961" points="93,76 100,103 85,92" />
<polygon fill="#3c4039" fill-opacity="0.501961" points="144,159 192,159 189,132" />
<polygon fill="#4a4139" fill-opacity="0.501961" points="34,46 33,54 36,54" />
<polygon fill="#1f241f" fill-opacity="0.501961" points="86,54 81,50 88,60" />
<polygon fill="#cfa08d" fill-opacity="0.501961" points="81,21 85,38 80,48" />
<polygon fill="#b39c87" fill-opacity="0.501961" points="198,109 195,94 193,100" />
<polygon fill="#292928" fill-opacity="0.501961" points="82,70 95,70 90,81" />
<polygon fill="#504a43" fill-opacity="0.501961" points="149,10 149,-3 146,2" />
<polygon fill="#d0ae85" fill-opacity="0.501961" points="96,12 113,13 117,20" />
<polygon fill="#ece3b2" fill-opacity="0.501961" points="252,2 250,21 271,26" />
<polygon fill="#c19378" fill-opacity="0.501961" points="190,72 181,65 187,61" />
<polygon fill="#a2a8a1" fill-opacity="0.501961" points="183,114 184,107 196,114" />
<polygon fill="#9b8675" fill-opacity="0.501961" points="160,54 149,66 152,72" />
<polygon fill="#57524c" fill-opacity="0.501961" points="119,-16 127,-16 123,12" />
<polygon fill="#b5957f" fill-opacity="0.501961" points="70,28 59,18 61,32" />
<polygon fill="#7c6250" fill-opacity="0.501961" points="3,46 -5,42 6,57" />
<polygon fill="#bc9f88" fill-opacity="0.501961" points="79,24 112,31 89,19" />
<polygon fill="#e0b79c" fill-opacity="0.501961" points="230,28 225,29 234,20" />
<polygon fill="#847162" fill-opacity="0.501961" points="214,99 225,102 241,75" />
<polygon fill="#716252" fill-opacity="0.501961" points="151,133 165,139 165,133" />
<polygon fill="#d8b489" fill-opacity="0.501961" points="172,16 147,27 157,-11" />
<polygon fill="#747262" fill-opacity="0.501961" points="166,108 176,115 168,116" />
<polygon fill="#171816" fill-opacity="0.501961" points="42,69 55,55 49,74" />
<polygon fill="#623a3b" fill-opacity="0.501961" points="55,107 77,68 67,112" />
<polygon fill="#161616" fill-opacity="0.501961" points="79,66 53,58 54,49" />
<polygon fill="#0b0c0d" fill-opacity="0.501961" points="16,131 61,159 -16,157" />
<polygon fill="#746152" fill-opacity="0.501961" points="191,78 210,79 188,69" />
<polygon fill="#7f7567" fill-opacity="0.501961" points="163,107 165,117 172,93" />
<polygon fill="#826c5b" fill-opacity="0.501961" points="197,100 203,107 210,89" />
<polygon fill="#4a2f30" fill-opacity="0.501961" points="36,74 73,71 57,97" />
<polygon fill="#292a2c" fill-opacity="0.501961" points="179,75 191,82 174,83" />
<polygon fill="#272724" fill-opacity="0.501961" points="13,131 -12,116 7,136" />
<polygon fill="#b38d74" fill-opacity="0.501961" points="200,89 209,90 194,97" />
<polygon fill="#735f4d" fill-opacity="0.501961" points="191,130 211,128 239,159" />
<polygon fill="#151617" fill-opacity="0.501961" points="76,52 65,54 75,66" />
<polygon fill="#7d786e" fill-opacity="0.501961" points="194,110 190,117 195,119" />
<polygon fill="#cfbfac" fill-opacity="0.501961" points="95,50 93,66 102,63" />
<polygon fill="#271f1a" fill-opacity="0.501961" points="39,99 23,93 44,130" />
<polygon fill="#cac8a2" fill-opacity="0.501961" points="188,114 184,108 175,114" />
<polygon fill="#1d1c1a" fill-opacity="0.501961" points="127,112 137,104 103,109" />
<polygon fill="#353733" fill-opacity="0.501961" points="188,92 191,85 186,76" />
<polygon fill="#372f25" fill-opacity="0.501961" points="3,78 4,96 -16,72" />
<polygon fill="#222020" fill-opacity="0.501961" points="117,75 130,109 137,39" />
<polygon fill="#c19a82" fill-opacity="0.501961" points="236,93 238,84 242,89" />
<polygon fill="#6a635d" fill-opacity="0.501961" points="90,62 89,59 92,60" />
<polygon fill="#ebd9ad" fill-opacity="0.501961" points="77,17 81,5 82,25" />
<polygon fill="#e8c196" fill-opacity="0.501961" points="185,15 187,32 150,28" />
<polygon fill="#7b6d64" fill-opacity="0.501961" points="238,57 239,25 230,29" />
<polygon fill="#2a2a29" fill-opacity="0.501961" points="114,66 125,88 123,57" />
<polygon fill="#3a3a39" fill-opacity="0.501961" points="118,47 118,32 123,40" />
<polygon fill="#a48876" fill-opacity="0.501961" points="103,40 116,27 114,54" />
<polygon fill="#585446" fill-opacity="0.501961" points="168,112 174,101 169,99" />
<polygon fill="#5d5c5b" fill-opacity="0.501961" points="195,108 184,107 188,110" />
<polygon fill="#292c2b" fill-opacity="0.501961" points="191,134 168,141 173,129" />
<polygon fill="#675a4e" fill-opacity="0.501961" points="230,92 226,111 259,123" />
<polygon fill="#363d37" fill-opacity="0.501961" points="74,63 55,63 50,74" />
<polygon fill="#988e80" fill-opacity="0.501961" points="56,41 72,50 60,37" />
<polygon fill="#837663" fill-opacity="0.501961" points="89,99 87,102 92,99" />
<polygon fill="#897565" fill-opacity="0.501961" points="234,117 246,120 235,124" />
<polygon fill="#dcb595" fill-opacity="0.501961" points="16,30 19,15 10,22" />
<polygon fill="#584437" fill-opacity="0.501961" points="4,56 12,72 6,67" />
<polygon fill="#e2d3bd" fill-opacity="0.501961" points="94,49 100,61 108,63" />
<polygon fill="#9f816c" fill-opacity="0.501961" points="229,87 240,98 232,80" />
<polygon fill="#a2826f" fill-opacity="0.501961" points="81,41 28,33 76,27" />
<polygon fill="#7a6d5f" fill-opacity="0.501961" points="145,55 158,53 143,69" />
<polygon fill="#8c7b6b" fill-opacity="0.501961" points="19,62 12,76 7,53" />
<polygon fill="#ecdac2" fill-opacity="0.501961" points="70,47 74,48 69,43" />
<polygon fill="#978c80" fill-opacity="0.501961" points="244,7 252,49 241,32" />
<polygon fill="#a7927e" fill-opacity="0.501961" points="271,-2 243,6 251,-4" />
<polygon fill="#4c392d" fill-opacity="0.501961" points="105,130 100,124 102,113" />
<polygon fill="#958477" fill-opacity="0.501961" points="237,47 226,39 233,59" />
<polygon fill="#605141" fill-opacity="0.501961" points="139,106 169,97 149,93" />
<polygon fill="#6b5d51" fill-opacity="0.501961" points="224,78 258,78 236,62" />
<polygon fill="#9e9183" fill-opacity="0.501961" points="96,60 91,51 91,69" />
<polygon fill="#b89e8c" fill-opacity="0.501961" points="271,34 250,56 255,35" />
<polygon fill="#7a6755" fill-opacity="0.501961" points="182,91 193,93 196,99" />
<polygon fill="#b1ad90" fill-opacity="0.501961" points="187,112 191,116 196,115" />
<polygon fill="#57493e" fill-opacity="0.501961" points="144,67 141,74 150,86" />
<polygon fill="#ecd3a2" fill-opacity="0.501961" points="102,17 107,25 119,26" />
<polygon fill="#7e7160" fill-opacity="0.501961" points="116,75 115,81 117,82" />
<polygon fill="#8a7665" fill-opacity="0.501961" points="135,121 149,130 135,129" />
<polygon fill="#98755e" fill-opacity="0.501961" points="174,90 172,79 159,83" />
<polygon fill="#686760" fill-opacity="0.501961" points="41,41 35,42 45,47" />
<polygon fill="#1b1a1a" fill-opacity="0.501961" points="62,113 52,135 90,116" />
<polygon fill="#c39c89" fill-opacity="0.501961" points="74,18 78,32 85,29" />
<polygon fill="#7c6b5c" fill-opacity="0.501961" points="6,86 7,78 4,72" />
<polygon fill="#615040" fill-opacity="0.501961" points="138,96 152,137 153,107" />
<polygon fill="#6e6155" fill-opacity="0.501961" points="221,83 212,100 194,108" />
<polygon fill="#776152" fill-opacity="0.501961" points="174,60 183,71 170,81" />
<polygon fill="#716151" fill-opacity="0.501961" points="204,47 211,48 199,41" />
<polygon fill="#2c201e" fill-opacity="0.501961" points="27,82 32,71 33,101" />
<polygon fill="#beac9a" fill-opacity="0.501961" points="51,51 49,43 45,43" />
<polygon fill="#262524" fill-opacity="0.501961" points="129,109 138,88 135,123" />
<polygon fill="#ad907d" fill-opacity="0.501961" points="211,42 215,35 209,34" />
<polygon fill="#30302e" fill-opacity="0.501961" points="176,85 174,101 178,99" />
<polygon fill="#685a4f" fill-opacity="0.501961" points="217,64 209,69 217,40" />
<polygon fill="#4d4a41" fill-opacity="0.501961" points="51,44 52,50 55,46" />
<polygon fill="#9e8270" fill-opacity="0.501961" points="106,44 85,38 84,22" />
<polygon fill="#836f61" fill-opacity="0.501961" points="262,112 248,116 245,104" />
<polygon fill="#121313" fill-opacity="0.501961" points="83,81 99,94 83,94" />
<polygon fill="#231c18" fill-opacity="0.501961" points="11,84 26,124 10,109" />
<polygon fill="#9d8676" fill-opacity="0.501961" points="167,34 144,50 160,52" />
<polygon fill="#453832" fill-opacity="0.501961" points="123,85 109,83 119,81" />
<polygon fill="#8f7766" fill-opacity="0.501961" points="221,46 217,77 226,58" />
<polygon fill="#e1c0aa" fill-opacity="0.501961" points="249,28 262,26 249,24" />
<polygon fill="#4c3a34" fill-opacity="0.501961" points="87,94 90,106 74,90" />
<polygon fill="#191918" fill-opacity="0.501961" points="122,156 130,100 111,114" />
<polygon fill="#b49573" fill-opacity="0.501961" points="8,16 -4,8 42,-16" />
<polygon fill="#b79a86" fill-opacity="0.501961" points="12,31 5,24 34,24" />
<polygon fill="#7d6e64" fill-opacity="0.501961" points="224,27 204,29 220,35" />
<polygon fill="#363736" fill-opacity="0.501961" points="137,-15 146,20 151,-16" />
<polygon fill="#cca57d" fill-opacity="0.501961" points="-1,13 15,15 -16,44" />
<polygon fill="#8b7867" fill-opacity="0.501961" points="99,129 93,127 97,122" />
<polygon fill="#726a60" fill-opacity="0.501961" points="175,142 183,149 161,149" />
<polygon fill="#625448" fill-opacity="0.501961" points="216,120 249,128 238,159" />
<polygon fill="#2c2c28" fill-opacity="0.501961" points="189,119 174,126 170,119" />
<polygon fill="#6e3f3e" fill-opacity="0.501961" points="83,105 68,96 79,69" />
<polygon fill="#c2a38a" fill-opacity="0.501961" points="166,33 173,30 167,50" />
<polygon fill="#44423b" fill-opacity="0.501961" points="144,27 146,31 146,28" />
<polygon fill="#181918" fill-opacity="0.501961" points="110,89 101,84 106,97" />
<polygon fill="#947f6e" fill-opacity="0.501961" points="70,51 103,32 99,44" />
<polygon fill="#45443b" fill-opacity="0.501961" points="168,136 163,159 158,136" />
<polygon fill="#474b48" fill-opacity="0.501961" points="80,55 77,49 76,62" />
<polygon fill="#202224" fill-opacity="0.501961" points="98,71 113,77 99,78" />
<polygon fill="#e5c39a" fill-opacity="0.501961" points="213,12 195,27 192,11" />
<polygon fill="#977f6b" fill-opacity="0.501961" points="108,52 96,50 103,39" />
<polygon fill="#c1a480" fill-opacity="0.501961" points="29,5 46,10 60,-9" />
<polygon fill="#6d6052" fill-opacity="0.501961" points="236,94 213,83 227,85" />
<polygon fill="#b49988" fill-opacity="0.501961" points="201,26 200,38 188,34" />
<polygon fill="#323536" fill-opacity="0.501961" points="180,97 186,98 188,105" />
<polygon fill="#e9c497" fill-opacity="0.501961" points="83,-16 122,-4 119,10" />
<polygon fill="#3b2d27" fill-opacity="0.501961" points="101,105 96,112 96,97" />
<polygon fill="#b0907a" fill-opacity="0.501961" points="212,77 211,84 207,83" />
<polygon fill="#ddba90" fill-opacity="0.501961" points="184,23 150,23 177,10" />
<polygon fill="#7c6c62" fill-opacity="0.501961" points="246,70 233,44 262,71" />
<polygon fill="#bca088" fill-opacity="0.501961" points="160,31 147,29 147,37" />
</g>
</svg>