<svg xmlns="http://www.w3.org/2000/svg" version="1.1" width="1024" height="576">
<rect x="0" y="0" width="1024" height="576" fill="#413e3e" />
<g transform="scale(4.000000) translate(0.5 0.5)">
<polygon fill="#8f867b" fill-opacity="0.501961" points="190,75 258,156 157,108" />
<polygon fill="#615a54" fill-opacity="0.501961" points="266,159 -16,118 100,80" />
<polygon fill="#2a282b" fill-opacity="0.501961" points="248,-16 -16,77 271,68" />
<polygon fill="#afa598" fill-opacity="0.501961" points="199,125 242,148 211,116" />
<polygon fill="#524f4e" fill-opacity="0.501961" points="227,34 271,51 159,56" />
<polygon fill="#2b2a28" fill-opacity="0.501961" points="221,123 226,56 263,128" />
<polygon fill="#1c1c1c" fill-opacity="0.501961" points="257,15 163,20 267,43" />
<polygon fill="#494745" fill-opacity="0.501961" points="271,102 155,90 196,115" />
<polygon fill="#363238" fill-opacity="0.501961" points="-16,46 157,100 192,-16" />
<polygon fill="#504c4c" fill-opacity="0.501961" points="86,159 43,146 35,5" />
<polygon fill="#68645f" fill-opacity="0.501961" points="132,102 77,96 65,119" />
<polygon fill="#aaa099" fill-opacity="0.501961" points="103,91 114,89 96,86" />
<polygon fill="#1d1d1c" fill-opacity="0.501961" points="170,57 226,71 257,55" />
<polygon fill="#4b4641" fill-opacity="0.501961" points="-16,132 123,107 248,159" />
<polygon fill="#2b2931" fill-opacity="0.501961" points="-16,59 1,110 39,81" />
<polygon fill="#4d484a" fill-opacity="0.501961" points="89,44 146,53 78,62" />
<polygon fill="#2a2927" fill-opacity="0.501961" points="173,87 138,101 123,67" />
<polygon fill="#655f5d" fill-opacity="0.501961" points="15,119 57,111 47,91" />
<polygon fill="#191816" fill-opacity="0.501961" points="243,123 256,112 220,113" />
<polygon fill="#6b6560" fill-opacity="0.501961" points="188,111 124,113 193,90" />
<polygon fill="#524e4a" fill-opacity="0.501961" points="199,78 174,59 165,102" />
<polygon fill="#454243" fill-opacity="0.501961" points="149,35 116,58 197,53" />
<polygon fill="#706660" fill-opacity="0.501961" points="223,115 209,107 198,128" />
<polygon fill="#3f3a3e" fill-opacity="0.501961" points="40,73 90,64 63,107" />
<polygon fill="#1a1a1a" fill-opacity="0.501961" points="206,84 233,83 242,95" />
<polygon fill="#5b5a61" fill-opacity="0.501961" points="47,-16 34,-16 38,32" />
<polygon fill="#484745" fill-opacity="0.501961" points="254,61 266,86 217,80" />
<polygon fill="#58554f" fill-opacity="0.501961" points="255,151 216,117 238,124" />
<polygon fill="#504c4a" fill-opacity="0.501961" points="233,64 223,58 243,59" />
<polygon fill="#363436" fill-opacity="0.501961" points="93,105 96,91 115,94" />
<polygon fill="#7b7771" fill-opacity="0.501961" points="107,87 120,87 117,98" />
<polygon fill="#222122" fill-opacity="0.501961" points="125,59 169,56 160,70" />
<polygon fill="#a9a096" fill-opacity="0.501961" points="211,123 214,133 237,138" />
<polygon fill="#514d49" fill-opacity="0.501961" points="246,36 221,43 192,34" />
<polygon fill="#4c4744" fill-opacity="0.501961" points="-2,114 -16,159 164,146" />
<polygon fill="#282628" fill-opacity="0.501961" points="140,34 164,17 223,34" />
<polygon fill="#7d736c" fill-opacity="0.501961" points="197,88 187,95 178,78" />
<polygon fill="#635e5a" fill-opacity="0.501961" points="91,101 132,98 154,116" />
<polygon fill="#43403d" fill-opacity="0.501961" points="96,121 173,114 172,135" />
<polygon fill="#5f5953" fill-opacity="0.501961" points="171,38 189,39 182,33" />
<polygon fill="#1a1a1c" fill-opacity="0.501961" points="205,69 206,56 179,62" />
<polygon fill="#545259" fill-opacity="0.501961" points="40,61 45,39 36,19" />
<polygon fill="#56524e" fill-opacity="0.501961" points="192,71 204,123 214,103" />
<polygon fill="#79706c" fill-opacity="0.501961" points="208,129 179,104 161,107" />
<polygon fill="#37333a" fill-opacity="0.501961" points="50,90 96,31 41,-7" />
<polygon fill="#655e5a" fill-opacity="0.501961" points="86,86 62,114 91,118" />
<polygon fill="#3c393a" fill-opacity="0.501961" points="146,67 118,87 82,86" />
<polygon fill="#414346" fill-opacity="0.501961" points="3,85 41,95 -16,103" />
<polygon fill="#24211d" fill-opacity="0.501961" points="248,97 234,98 248,83" />
<polygon fill="#4f4c56" fill-opacity="0.501961" points="31,21 -14,-3 -5,-16" />
<polygon fill="#3f3d3c" fill-opacity="0.501961" points="221,72 207,59 217,107" />
<polygon fill="#312c38" fill-opacity="0.501961" points="36,33 -16,-8 -16,15" />
<polygon fill="#494750" fill-opacity="0.501961" points="39,44 -15,12 8,38" />
<polygon fill="#464547" fill-opacity="0.501961" points="271,112 271,79 228,110" />
<polygon fill="#332f36" fill-opacity="0.501961" points="37,81 -14,26 36,53" />
<polygon fill="#1b1a1c" fill-opacity="0.501961" points="216,64 232,72 247,63" />
<polygon fill="#514a44" fill-opacity="0.501961" points="164,111 221,138 173,136" />
<polygon fill="#383534" fill-opacity="0.501961" points="160,95 172,65 173,101" />
<polygon fill="#322f31" fill-opacity="0.501961" points="136,0 260,-16 255,17" />
<polygon fill="#434048" fill-opacity="0.501961" points="54,74 0,67 -6,49" />
<polygon fill="#1e1c1e" fill-opacity="0.501961" points="172,44 194,36 200,42" />
<polygon fill="#464442" fill-opacity="0.501961" points="239,67 271,52 234,93" />
<polygon fill="#312e33" fill-opacity="0.501961" points="175,16 108,50 63,33" />
<polygon fill="#6d6761" fill-opacity="0.501961" points="239,131 213,159 248,143" />
<polygon fill="#4d4848" fill-opacity="0.501961" points="76,74 98,79 101,121" />
<polygon fill="#413c44" fill-opacity="0.501961" points="74,35 40,-16 137,-8" />
<polygon fill="#262520" fill-opacity="0.501961" points="216,91 202,81 214,96" />
<polygon fill="#1c1b1e" fill-opacity="0.501961" points="249,122 266,96 271,130" />
<polygon fill="#191819" fill-opacity="0.501961" points="271,28 253,38 222,28" />
<polygon fill="#524e4a" fill-opacity="0.501961" points="209,107 193,116 168,94" />
<polygon fill="#464443" fill-opacity="0.501961" points="206,65 221,83 262,82" />
<polygon fill="#434140" fill-opacity="0.501961" points="271,32 271,55 218,55" />
<polygon fill="#3a3838" fill-opacity="0.501961" points="204,26 176,24 182,31" />
<polygon fill="#766f68" fill-opacity="0.501961" points="224,130 206,108 214,104" />
<polygon fill="#989186" fill-opacity="0.501961" points="214,123 232,134 227,141" />
<polygon fill="#3d3a39" fill-opacity="0.501961" points="245,28 230,24 259,23" />
<polygon fill="#3f3e3e" fill-opacity="0.501961" points="189,66 140,82 175,84" />
<polygon fill="#72706e" fill-opacity="0.501961" points="104,109 106,102 121,96" />
<polygon fill="#524d4b" fill-opacity="0.501961" points="-16,159 38,98 2,110" />
<polygon fill="#514e53" fill-opacity="0.501961" points="36,67 45,65 41,36" />
<polygon fill="#141315" fill-opacity="0.501961" points="254,156 271,140 250,140" />
<polygon fill="#524f4a" fill-opacity="0.501961" points="124,89 123,112 109,96" />
<polygon fill="#2f2b31" fill-opacity="0.501961" points="37,90 36,67 8,82" />
<polygon fill="#2c2a2d" fill-opacity="0.501961" points="85,64 145,56 130,72" />
<polygon fill="#565459" fill-opacity="0.501961" points="44,24 37,42 37,0" />
<polygon fill="#4d4b46" fill-opacity="0.501961" points="219,111 244,134 227,128" />
<polygon fill="#42403d" fill-opacity="0.501961" points="19,121 86,151 63,127" />
<polygon fill="#252425" fill-opacity="0.501961" points="195,34 216,26 174,29" />
<polygon fill="#383736" fill-opacity="0.501961" points="224,22 211,26 237,27" />
<polygon fill="#766e67" fill-opacity="0.501961" points="179,99 194,97 195,79" />
<polygon fill="#58534f" fill-opacity="0.501961" points="177,81 196,71 168,102" />
<polygon fill="#575351" fill-opacity="0.501961" points="99,51 87,55 89,47" />
<polygon fill="#1c1b1b" fill-opacity="0.501961" points="232,16 213,24 253,22" />
<polygon fill="#161618" fill-opacity="0.501961" points="218,84 236,85 226,92" />
<polygon fill="#514b43" fill-opacity="0.501961" points="124,87 121,76 135,88" />
<polygon fill="#837c75" fill-opacity="0.501961" points="171,104 179,108 162,111" />
<polygon fill="#504d48" fill-opacity="0.501961" points="232,98 217,87 219,95" />
<polygon fill="#393539" fill-opacity="0.501961" points="223,-16 171,20 94,9" />
<polygon fill="#554d49" fill-opacity="0.501961" points="102,159 123,130 215,148" />
<polygon fill="#444041" fill-opacity="0.501961" points="93,42 47,107 74,100" />
<polygon fill="#645f5b" fill-opacity="0.501961" points="44,98 50,113 25,115" />
<polygon fill="#2e2c2e" fill-opacity="0.501961" points="99,85 121,81 113,87" />
<polygon fill="#484749" fill-opacity="0.501961" points="177,50 192,44 172,44" />
<polygon fill="#5b564f" fill-opacity="0.501961" points="82,109 118,118 66,119" />
<polygon fill="#212022" fill-opacity="0.501961" points="183,67 217,56 179,55" />
<polygon fill="#312e30" fill-opacity="0.501961" points="180,45 115,44 158,19" />
<polygon fill="#232224" fill-opacity="0.501961" points="165,83 160,94 149,83" />
<polygon fill="#272526" fill-opacity="0.501961" points="13,103 -8,101 -16,120" />
<polygon fill="#4f4a43" fill-opacity="0.501961" points="143,91 141,83 136,92" />
<polygon fill="#403c3b" fill-opacity="0.501961" points="230,34 247,49 247,34" />
<polygon fill="#4d4a45" fill-opacity="0.501961" points="159,106 168,98 138,102" />
<polygon fill="#554f4b" fill-opacity="0.501961" points="35,120 58,124 81,93" />
<polygon fill="#222122" fill-opacity="0.501961" points="139,72 144,78 132,91" />
<polygon fill="#474441" fill-opacity="0.501961" points="175,71 193,67 217,80" />
<polygon fill="#474440" fill-opacity="0.501961" points="113,108 97,129 92,108" />
<polygon fill="#49444a" fill-opacity="0.501961" points="89,-16 84,10 137,-2" />
<polygon fill="#403d40" fill-opacity="0.501961" points="148,34 169,54 110,59" />
<polygon fill="#3c3a42" fill-opacity="0.501961" points="3,-16 35,-16 35,34" />
<polygon fill="#5d5752" fill-opacity="0.501961" points="126,114 118,97 148,117" />
<polygon fill="#716661" fill-opacity="0.501961" points="202,127 189,121 211,117" />
<polygon fill="#43403e" fill-opacity="0.501961" points="218,49 213,39 190,34" />
<polygon fill="#3d3b3b" fill-opacity="0.501961" points="214,24 209,28 199,26" />
<polygon fill="#353433" fill-opacity="0.501961" points="132,97 131,80 148,103" />
<polygon fill="#504c4d" fill-opacity="0.501961" points="39,93 62,111 41,72" />
<polygon fill="#3d3b3d" fill-opacity="0.501961" points="23,97 28,77 37,104" />
<polygon fill="#58534d" fill-opacity="0.501961" points="179,59 175,67 174,59" />
<polygon fill="#403c42" fill-opacity="0.501961" points="122,28 129,33 108,33" />
<polygon fill="#5c5756" fill-opacity="0.501961" points="21,120 27,102 35,108" />
<polygon fill="#29252a" fill-opacity="0.501961" points="-16,59 6,70 4,85" />
<polygon fill="#252320" fill-opacity="0.501961" points="242,126 247,112 223,114" />
<polygon fill="#3e3a3e" fill-opacity="0.501961" points="56,15 142,5 87,31" />
<polygon fill="#514c48" fill-opacity="0.501961" points="190,34 182,41 172,35" />
<polygon fill="#413d3e" fill-opacity="0.501961" points="180,26 157,26 167,30" />
<polygon fill="#403e3f" fill-opacity="0.501961" points="249,114 245,138 251,132" />
<polygon fill="#645d59" fill-opacity="0.501961" points="95,91 62,111 76,119" />
<polygon fill="#4b4748" fill-opacity="0.501961" points="92,91 64,73 61,82" />
<polygon fill="#4b4946" fill-opacity="0.501961" points="231,94 231,99 220,92" />
<polygon fill="#837a6f" fill-opacity="0.501961" points="235,138 236,151 226,132" />
<polygon fill="#484240" fill-opacity="0.501961" points="55,114 80,129 102,125" />
<polygon fill="#1b1b1d" fill-opacity="0.501961" points="237,72 229,67 241,62" />
<polygon fill="#494743" fill-opacity="0.501961" points="235,83 244,87 235,90" />
<polygon fill="#4c4842" fill-opacity="0.501961" points="216,108 202,75 203,95" />
<polygon fill="#363336" fill-opacity="0.501961" points="52,30 91,34 55,85" />
<polygon fill="#403d3f" fill-opacity="0.501961" points="83,75 115,84 138,73" />
<polygon fill="#534c48" fill-opacity="0.501961" points="218,136 187,122 177,132" />
<polygon fill="#403d3e" fill-opacity="0.501961" points="148,83 180,78 146,71" />
<polygon fill="#363436" fill-opacity="0.501961" points="99,99 99,92 117,94" />
<polygon fill="#201e1f" fill-opacity="0.501961" points="215,27 229,33 195,33" />
<polygon fill="#a69e94" fill-opacity="0.501961" points="214,126 224,131 222,138" />
<polygon fill="#5f5a55" fill-opacity="0.501961" points="185,111 179,117 158,111" />
<polygon fill="#3c393c" fill-opacity="0.501961" points="59,62 43,16 47,73" />
<polygon fill="#1e1b1d" fill-opacity="0.501961" points="251,55 239,59 227,56" />
<polygon fill="#313231" fill-opacity="0.501961" points="237,82 259,82 251,87" />
<polygon fill="#423e3b" fill-opacity="0.501961" points="125,123 117,113 121,103" />
<polygon fill="#4a474c" fill-opacity="0.501961" points="-2,-16 -16,-8 33,28" />
<polygon fill="#444243" fill-opacity="0.501961" points="261,62 240,111 256,110" />
<polygon fill="#716f6c" fill-opacity="0.501961" points="118,100 111,106 106,100" />
<polygon fill="#302b34" fill-opacity="0.501961" points="3,53 6,35 -16,46" />
<polygon fill="#413d3f" fill-opacity="0.501961" points="185,26 201,24 192,28" />
<polygon fill="#534e4b" fill-opacity="0.501961" points="217,86 220,91 212,85" />
<polygon fill="#3b373a" fill-opacity="0.501961" points="74,81 84,51 65,58" />
<polygon fill="#2a2a2e" fill-opacity="0.501961" points="112,49 132,46 129,32" />
<polygon fill="#322f30" fill-opacity="0.501961" points="259,-16 256,17 210,17" />
<polygon fill="#5c5757" fill-opacity="0.501961" points="195,75 179,80 197,82" />
<polygon fill="#555251" fill-opacity="0.501961" points="230,43 211,35 231,37" />
<polygon fill="#544f4a" fill-opacity="0.501961" points="196,124 189,135 155,127" />
<polygon fill="#2a2726" fill-opacity="0.501961" points="207,89 219,92 213,96" />
<polygon fill="#444141" fill-opacity="0.501961" points="205,55 260,53 200,37" />
<polygon fill="#55504a" fill-opacity="0.501961" points="218,121 223,114 227,128" />
<polygon fill="#55514d" fill-opacity="0.501961" points="204,117 213,103 196,80" />
<polygon fill="#1c1c1d" fill-opacity="0.501961" points="226,65 216,68 209,56" />
<polygon fill="#45403d" fill-opacity="0.501961" points="167,130 213,159 247,154" />
<polygon fill="#2d2b2e" fill-opacity="0.501961" points="18,97 7,104 16,104" />
<polygon fill="#454240" fill-opacity="0.501961" points="228,59 244,61 230,63" />
<polygon fill="#302e2e" fill-opacity="0.501961" points="147,85 141,97 171,97" />
<polygon fill="#2e2b2b" fill-opacity="0.501961" points="206,32 215,32 208,41" />
<polygon fill="#373634" fill-opacity="0.501961" points="35,122 24,121 37,128" />
<polygon fill="#736d68" fill-opacity="0.501961" points="118,94 122,90 112,88" />
<polygon fill="#0f1312" fill-opacity="0.501961" points="271,61 250,58 261,55" />
<polygon fill="#423f44" fill-opacity="0.501961" points="41,0 44,31 55,-10" />
<polygon fill="#3f3c39" fill-opacity="0.501961" points="228,65 218,58 227,58" />
<polygon fill="#3b383a" fill-opacity="0.501961" points="180,17 111,24 178,-5" />
<polygon fill="#5f5a55" fill-opacity="0.501961" points="115,104 146,109 113,92" />
<polygon fill="#36313a" fill-opacity="0.501961" points="13,27 37,31 36,41" />
<polygon fill="#5c5853" fill-opacity="0.501961" points="105,120 119,119 116,113" />
<polygon fill="#484441" fill-opacity="0.501961" points="91,159 -16,139 68,121" />
<polygon fill="#7b716c" fill-opacity="0.501961" points="182,93 194,84 184,84" />
<polygon fill="#322e34" fill-opacity="0.501961" points="129,21 161,30 101,30" />
<polygon fill="#3b383a" fill-opacity="0.501961" points="58,94 67,82 75,95" />
<polygon fill="#3d3a3d" fill-opacity="0.501961" points="89,60 109,41 129,56" />
<polygon fill="#4b4947" fill-opacity="0.501961" points="107,97 123,97 121,92" />
<polygon fill="#292826" fill-opacity="0.501961" points="205,33 200,39 193,39" />
<polygon fill="#2b272a" fill-opacity="0.501961" points="179,31 161,43 166,28" />
<polygon fill="#434240" fill-opacity="0.501961" points="175,50 171,34 170,48" />
<polygon fill="#54504a" fill-opacity="0.501961" points="180,85 170,87 171,103" />
<polygon fill="#49494a" fill-opacity="0.501961" points="251,42 271,52 264,30" />
<polygon fill="#403c35" fill-opacity="0.501961" points="126,93 120,95 122,91" />
<polygon fill="#444044" fill-opacity="0.501961" points="158,46 147,57 123,48" />
<polygon fill="#47454b" fill-opacity="0.501961" points="-10,29 26,44 9,25" />
<polygon fill="#282322" fill-opacity="0.501961" points="244,43 244,27 240,30" />
<polygon fill="#4e4e50" fill-opacity="0.501961" points="251,66 251,60 271,62" />
<polygon fill="#3b393a" fill-opacity="0.501961" points="141,26 154,29 127,32" />
<polygon fill="#4d4843" fill-opacity="0.501961" points="12,121 35,127 -1,137" />
<polygon fill="#5d5851" fill-opacity="0.501961" points="37,118 59,122 48,124" />
<polygon fill="#645d5a" fill-opacity="0.501961" points="178,102 184,117 183,83" />
<polygon fill="#3e3b3f" fill-opacity="0.501961" points="36,75 14,66 29,58" />
<polygon fill="#5a5552" fill-opacity="0.501961" points="78,91 95,120 92,88" />
<polygon fill="#7e7a76" fill-opacity="0.501961" points="113,92 102,92 113,89" />
<polygon fill="#777069" fill-opacity="0.501961" points="215,123 218,114 210,104" />
<polygon fill="#514d49" fill-opacity="0.501961" points="199,118 205,103 184,103" />
<polygon fill="#494646" fill-opacity="0.501961" points="220,45 240,41 242,34" />
<polygon fill="#434146" fill-opacity="0.501961" points="-16,63 9,49 18,69" />
<polygon fill="#29272b" fill-opacity="0.501961" points="116,73 138,65 115,66" />
<polygon fill="#2a282c" fill-opacity="0.501961" points="162,21 127,24 144,28" />
<polygon fill="#48433f" fill-opacity="0.501961" points="211,96 205,98 212,89" />
<polygon fill="#383535" fill-opacity="0.501961" points="182,38 188,39 181,42" />
<polygon fill="#1d1f1a" fill-opacity="0.501961" points="244,97 237,96 241,89" />
<polygon fill="#403e3c" fill-opacity="0.501961" points="157,99 139,103 131,95" />
<polygon fill="#625d5a" fill-opacity="0.501961" points="51,111 46,95 35,114" />
<polygon fill="#3f3d3f" fill-opacity="0.501961" points="10,99 37,102 39,88" />
<polygon fill="#746b65" fill-opacity="0.501961" points="193,114 205,129 173,109" />
<polygon fill="#2c282e" fill-opacity="0.501961" points="37,75 26,86 37,87" />
<polygon fill="#262426" fill-opacity="0.501961" points="182,34 196,28 164,30" />
<polygon fill="#363234" fill-opacity="0.501961" points="117,62 153,67 135,59" />
<polygon fill="#3c3a3c" fill-opacity="0.501961" points="212,96 231,96 221,111" />
<polygon fill="#48464b" fill-opacity="0.501961" points="21,-3 29,-16 34,11" />
<polygon fill="#212023" fill-opacity="0.501961" points="174,40 174,44 181,43" />
<polygon fill="#302f30" fill-opacity="0.501961" points="164,83 167,90 175,83" />
<polygon fill="#44423f" fill-opacity="0.501961" points="188,68 178,81 169,62" />
<polygon fill="#423e39" fill-opacity="0.501961" points="228,119 224,124 239,125" />
<polygon fill="#605b58" fill-opacity="0.501961" points="243,154 247,141 234,124" />
<polygon fill="#4b4844" fill-opacity="0.501961" points="152,108 142,103 155,102" />
<polygon fill="#222424" fill-opacity="0.501961" points="189,57 193,61 176,68" />
<polygon fill="#615b56" fill-opacity="0.501961" points="136,112 166,111 123,101" />
<polygon fill="#282627" fill-opacity="0.501961" points="150,70 163,59 169,67" />
<polygon fill="#242123" fill-opacity="0.501961" points="230,62 226,72 220,62" />
<polygon fill="#212121" fill-opacity="0.501961" points="216,17 197,24 238,24" />
<polygon fill="#2e2a30" fill-opacity="0.501961" points="131,3 171,-1 179,-16" />
<polygon fill="#6e6761" fill-opacity="0.501961" points="81,104 72,108 87,109" />
<polygon fill="#413f3b" fill-opacity="0.501961" points="149,131 180,135 160,126" />
<polygon fill="#615f5b" fill-opacity="0.501961" points="154,112 165,102 154,105" />
<polygon fill="#3c3c3a" fill-opacity="0.501961" points="206,76 196,84 220,82" />
<polygon fill="#4c4744" fill-opacity="0.501961" points="62,113 41,113 31,123" />
<polygon fill="#38353c" fill-opacity="0.501961" points="90,12 49,34 45,19" />
<polygon fill="#4b4647" fill-opacity="0.501961" points="7,106 6,126 16,105" />
<polygon fill="#434240" fill-opacity="0.501961" points="246,91 221,73 240,71" />
<polygon fill="#4e4c48" fill-opacity="0.501961" points="176,129 170,121 144,130" />
<polygon fill="#3f3d42" fill-opacity="0.501961" points="-4,103 -16,86 24,88" />
<polygon fill="#29271f" fill-opacity="0.501961" points="245,60 243,64 246,70" />
<polygon fill="#42403f" fill-opacity="0.501961" points="261,76 266,65 238,65" />
<polygon fill="#5d595a" fill-opacity="0.501961" points="-16,121 7,116 -16,111" />
<polygon fill="#59544f" fill-opacity="0.501961" points="56,117 66,120 47,121" />
<polygon fill="#232223" fill-opacity="0.501961" points="202,56 179,56 207,72" />
<polygon fill="#938b82" fill-opacity="0.501961" points="212,133 210,121 222,138" />
<polygon fill="#554e49" fill-opacity="0.501961" points="178,159 224,154 177,136" />
<polygon fill="#413e44" fill-opacity="0.501961" points="30,49 38,44 12,27" />
<polygon fill="#55524c" fill-opacity="0.501961" points="119,95 134,98 118,102" />
<polygon fill="#403b40" fill-opacity="0.501961" points="54,26 110,8 119,24" />
<polygon fill="#35302d" fill-opacity="0.501961" points="250,120 245,116 241,129" />
<polygon fill="#423f45" fill-opacity="0.501961" points="51,72 39,86 38,72" />
<polygon fill="#434140" fill-opacity="0.501961" points="250,26 271,22 271,28" />
<polygon fill="#4c4746" fill-opacity="0.501961" points="51,89 56,109 68,108" />
<polygon fill="#272425" fill-opacity="0.501961" points="212,83 226,89 219,83" />
<polygon fill="#4e4a48" fill-opacity="0.501961" points="222,69 208,69 219,72" />
<polygon fill="#454146" fill-opacity="0.501961" points="27,80 30,82 27,90" />
<polygon fill="#302d31" fill-opacity="0.501961" points="92,60 92,73 139,58" />
<polygon fill="#1c1a1d" fill-opacity="0.501961" points="271,28 271,18 243,18" />
<polygon fill="#4b4748" fill-opacity="0.501961" points="76,84 94,81 102,92" />
<polygon fill="#534e4a" fill-opacity="0.501961" points="150,111 142,118 163,111" />
<polygon fill="#6d6862" fill-opacity="0.501961" points="244,138 233,133 235,143" />
<polygon fill="#3f3a3d" fill-opacity="0.501961" points="114,77 108,64 108,76" />
<polygon fill="#312f34" fill-opacity="0.501961" points="125,2 117,8 103,8" />
<polygon fill="#3d3c3d" fill-opacity="0.501961" points="247,142 250,125 271,133" />
<polygon fill="#3e3c41" fill-opacity="0.501961" points="8,94 -9,107 10,74" />
<polygon fill="#363335" fill-opacity="0.501961" points="220,-16 173,9 234,12" />
<polygon fill="#252526" fill-opacity="0.501961" points="114,84 112,87 120,87" />
<polygon fill="#4c4c4c" fill-opacity="0.501961" points="253,86 271,81 252,93" />
<polygon fill="#554f4f" fill-opacity="0.501961" points="97,50 88,52 91,46" />
<polygon fill="#2c292e" fill-opacity="0.501961" points="29,91 35,75 30,73" />
<polygon fill="#424041" fill-opacity="0.501961" points="183,56 163,44 209,44" />
<polygon fill="#312e33" fill-opacity="0.501961" points="36,54 36,65 13,41" />
<polygon fill="#716f6d" fill-opacity="0.501961" points="114,100 101,100 107,102" />
<polygon fill="#49443f" fill-opacity="0.501961" points="55,118 54,114 68,115" />
<polygon fill="#5c5753" fill-opacity="0.501961" points="173,88 181,93 183,109" />
<polygon fill="#3d3b3b" fill-opacity="0.501961" points="162,28 174,25 185,29" />
<polygon fill="#494647" fill-opacity="0.501961" points="114,92 107,92 113,101" />
<polygon fill="#464443" fill-opacity="0.501961" points="198,53 203,35 224,54" />
<polygon fill="#5b5650" fill-opacity="0.501961" points="72,119 105,119 77,111" />
<polygon fill="#55524e" fill-opacity="0.501961" points="197,102 218,105 195,91" />
<polygon fill="#33302e" fill-opacity="0.501961" points="135,74 149,64 161,70" />
<polygon fill="#423f41" fill-opacity="0.501961" points="44,78 51,89 55,65" />
<polygon fill="#585250" fill-opacity="0.501961" points="38,111 37,102 22,109" />
<polygon fill="#938a80" fill-opacity="0.501961" points="225,139 232,141 220,125" />
<polygon fill="#4f4948" fill-opacity="0.501961" points="-16,159 30,141 -10,142" />
<polygon fill="#554d47" fill-opacity="0.501961" points="212,157 258,159 202,129" />
<polygon fill="#3f3a3f" fill-opacity="0.501961" points="111,30 124,31 100,36" />
<polygon fill="#4f4d49" fill-opacity="0.501961" points="90,109 93,100 102,104" />
<polygon fill="#131515" fill-opacity="0.501961" points="248,58 253,56 245,56" />
<polygon fill="#534e4c" fill-opacity="0.501961" points="56,112 47,103 52,92" />
<polygon fill="#605b5a" fill-opacity="0.501961" points="83,91 76,93 88,101" />
<polygon fill="#3b3936" fill-opacity="0.501961" points="204,66 208,60 211,66" />
<polygon fill="#383234" fill-opacity="0.501961" points="138,39 163,44 132,46" />
<polygon fill="#292728" fill-opacity="0.501961" points="145,85 143,95 154,84" />
<polygon fill="#595555" fill-opacity="0.501961" points="40,97 45,88 53,112" />
<polygon fill="#262528" fill-opacity="0.501961" points="180,18 193,22 171,25" />
<polygon fill="#302d2f" fill-opacity="0.501961" points="100,98 107,93 102,92" />
<polygon fill="#201e21" fill-opacity="0.501961" points="188,36 198,41 191,43" />
<polygon fill="#3d383c" fill-opacity="0.501961" points="68,56 98,86 81,55" />
<polygon fill="#454340" fill-opacity="0.501961" points="112,107 98,113 118,112" />
<polygon fill="#535155" fill-opacity="0.501961" points="36,35 41,15 42,31" />
<polygon fill="#918983" fill-opacity="0.501961" points="118,90 113,88 117,88" />
<polygon fill="#575150" fill-opacity="0.501961" points="17,119 40,120 19,111" />
<polygon fill="#534b47" fill-opacity="0.501961" points="131,126 92,133 155,139" />
<polygon fill="#7a746d" fill-opacity="0.501961" points="177,103 178,112 160,107" />
<polygon fill="#2e2f2e" fill-opacity="0.501961" points="118,82 116,88 122,87" />
<polygon fill="#3f3d3d" fill-opacity="0.501961" points="152,83 178,70 144,74" />
<polygon fill="#3e3c3f" fill-opacity="0.501961" points="56,61 46,23 44,40" />
<polygon fill="#625d58" fill-opacity="0.501961" points="221,122 223,117 220,116" />
<polygon fill="#454342" fill-opacity="0.501961" points="222,83 252,83 226,72" />
<polygon fill="#44413f" fill-opacity="0.501961" points="175,67 210,79 197,67" />
<polygon fill="#474341" fill-opacity="0.501961" points="215,98 222,96 221,88" />
<polygon fill="#675e51" fill-opacity="0.501961" points="242,67 244,67 242,69" />
<polygon fill="#222122" fill-opacity="0.501961" points="141,80 132,81 132,78" />
<polygon fill="#222020" fill-opacity="0.501961" points="217,55 225,59 239,55" />
<polygon fill="#888076" fill-opacity="0.501961" points="201,127 211,120 216,124" />
<polygon fill="#898178" fill-opacity="0.501961" points="225,140 229,133 233,142" />
<polygon fill="#29282a" fill-opacity="0.501961" points="138,32 151,36 163,30" />
<polygon fill="#1a1a1d" fill-opacity="0.501961" points="248,40 271,28 251,28" />
<polygon fill="#3c3937" fill-opacity="0.501961" points="169,100 170,82 159,93" />
<polygon fill="#59544f" fill-opacity="0.501961" points="124,108 133,107 126,120" />
<polygon fill="#403a3b" fill-opacity="0.501961" points="146,35 161,39 130,42" />
<polygon fill="#4f4947" fill-opacity="0.501961" points="101,128 80,125 66,140" />
<polygon fill="#57514c" fill-opacity="0.501961" points="168,129 180,128 188,136" />
<polygon fill="#1e1c1e" fill-opacity="0.501961" points="230,62 239,71 230,69" />
<polygon fill="#2e2d2c" fill-opacity="0.501961" points="170,55 165,61 177,55" />
<polygon fill="#756e65" fill-opacity="0.501961" points="211,117 219,125 217,110" />
<polygon fill="#5c5652" fill-opacity="0.501961" points="136,100 128,93 130,114" />
<polygon fill="#33312f" fill-opacity="0.501961" points="126,85 134,97 144,97" />
<polygon fill="#45423d" fill-opacity="0.501961" points="102,124 136,114 127,125" />
<polygon fill="#454247" fill-opacity="0.501961" points="100,6 140,-1 117,-16" />
<polygon fill="#46413b" fill-opacity="0.501961" points="142,86 140,93 142,100" />
<polygon fill="#262525" fill-opacity="0.501961" points="185,65 192,68 188,58" />
<polygon fill="#3c393d" fill-opacity="0.501961" points="159,1 153,20 115,10" />
<polygon fill="#38383c" fill-opacity="0.501961" points="25,97 3,86 31,88" />
<polygon fill="#3a3737" fill-opacity="0.501961" points="235,27 249,23 262,27" />
<polygon fill="#6e6360" fill-opacity="0.501961" points="211,115 201,124 183,120" />
<polygon fill="#615b57" fill-opacity="0.501961" points="191,93 177,105 199,97" />
<polygon fill="#23221f" fill-opacity="0.501961" points="222,28 238,33 215,34" />
<polygon fill="#a29a90" fill-opacity="0.501961" points="212,130 218,126 229,139" />
<polygon fill="#3e3c3c" fill-opacity="0.501961" points="254,127 239,125 244,134" />
</g>
</svg>