<svg xmlns="http://www.w3.org/2000/svg" version="1.1" width="1024" height="576">
<rect x="0" y="0" width="1024" height="576" fill="#2d3a34" />
<g transform="scale(4.000000) translate(0.5 0.5)">
<polygon fill="#b4cdbc" fill-opacity="0.501961" points="254,159 268,73 196,43" />
<polygon fill="#b7c0b9" fill-opacity="0.501961" points="-16,137 93,159 58,118" />
<polygon fill="#c8dfd3" fill-opacity="0.501961" points="68,65 49,54 17,95" />
<polygon fill="#0a1210" fill-opacity="0.501961" points="-16,8 160,-16 192,159" />
<polygon fill="#718978" fill-opacity="0.501961" points="214,36 115,-16 197,-16" />
<polygon fill="#e0f2ec" fill-opacity="0.501961" points="271,74 230,92 219,63" />
<polygon fill="#0a1413" fill-opacity="0.501961" points="0,109 72,66 213,159" />
<polygon fill="#465a4c" fill-opacity="0.501961" points="243,159 178,26 271,130" />
<polygon fill="#868e87" fill-opacity="0.501961" points="0,159 39,122 -16,119" />
<polygon fill="#0c1413" fill-opacity="0.501961" points="-6,-16 66,-5 -16,117" />
<polygon fill="#646c54" fill-opacity="0.501961" points="111,22 128,34 114,73" />
<polygon fill="#1a2622" fill-opacity="0.501961" points="46,46 213,159 229,92" />
<polygon fill="#ffffff" fill-opacity="0.501961" points="44,72 60,68 33,86" />
<polygon fill="#465a51" fill-opacity="0.501961" points="-6,117 58,57 36,46" />
<polygon fill="#586a5e" fill-opacity="0.501961" points="232,159 271,80 224,112" />
<polygon fill="#455a4a" fill-opacity="0.501961" points="190,41 271,75 208,6" />
<polygon fill="#3a4e40" fill-opacity="0.501961" points="136,-16 203,28 152,16" />
<polygon fill="#aec6b9" fill-opacity="0.501961" points="70,65 73,57 49,69" />
<polygon fill="#5c746f" fill-opacity="0.501961" points="-16,98 -1,109 45,80" />
<polygon fill="#2b3a34" fill-opacity="0.501961" points="73,146 116,78 153,103" />
<polygon fill="#7b8e82" fill-opacity="0.501961" points="214,17 123,-14 177,-16" />
<polygon fill="#adbfb6" fill-opacity="0.501961" points="207,48 249,79 227,89" />
<polygon fill="#5b6e60" fill-opacity="0.501961" points="225,72 210,84 179,61" />
<polygon fill="#121c1a" fill-opacity="0.501961" points="114,43 176,14 182,76" />
<polygon fill="#0b0d0c" fill-opacity="0.501961" points="138,108 131,152 226,148" />
<polygon fill="#54685b" fill-opacity="0.501961" points="220,60 271,51 265,69" />
<polygon fill="#a4a576" fill-opacity="0.501961" points="115,24 118,40 123,34" />
<polygon fill="#0c1514" fill-opacity="0.501961" points="108,-16 164,26 50,26" />
<polygon fill="#b2a689" fill-opacity="0.501961" points="111,59 119,56 111,64" />
<polygon fill="#728578" fill-opacity="0.501961" points="243,114 227,108 227,137" />
<polygon fill="#575f57" fill-opacity="0.501961" points="8,135 -2,116 54,122" />
<polygon fill="#1a2521" fill-opacity="0.501961" points="5,90 42,71 4,68" />
<polygon fill="#192720" fill-opacity="0.501961" points="260,-16 271,23 187,-2" />
<polygon fill="#374335" fill-opacity="0.501961" points="103,35 75,66 65,58" />
<polygon fill="#131e1b" fill-opacity="0.501961" points="51,81 98,41 134,132" />
<polygon fill="#4e6054" fill-opacity="0.501961" points="271,153 253,95 222,135" />
<polygon fill="#8da296" fill-opacity="0.501961" points="271,81 219,81 231,96" />
<polygon fill="#a1aea9" fill-opacity="0.501961" points="17,154 -2,123 -3,159" />
<polygon fill="#c3d4cd" fill-opacity="0.501961" points="226,70 271,72 233,85" />
<polygon fill="#808b83" fill-opacity="0.501961" points="76,159 -4,159 69,123" />
<polygon fill="#576a5b" fill-opacity="0.501961" points="32,77 50,48 59,64" />
<polygon fill="#101917" fill-opacity="0.501961" points="195,122 220,131 220,93" />
<polygon fill="#212e28" fill-opacity="0.501961" points="139,159 179,38 186,89" />
<polygon fill="#3c4e42" fill-opacity="0.501961" points="210,25 230,59 150,6" />
<polygon fill="#101a16" fill-opacity="0.501961" points="115,37 115,58 85,51" />
<polygon fill="#0a1412" fill-opacity="0.501961" points="71,135 86,127 84,83" />
<polygon fill="#38504a" fill-opacity="0.501961" points="232,139 204,139 172,115" />
<polygon fill="#415448" fill-opacity="0.501961" points="150,106 148,91 133,112" />
<polygon fill="#d7e9e2" fill-opacity="0.501961" points="39,73 61,69 34,82" />
<polygon fill="#727c75" fill-opacity="0.501961" points="37,136 67,123 -2,125" />
<polygon fill="#52544b" fill-opacity="0.501961" points="81,136 125,159 113,138" />
<polygon fill="#16211e" fill-opacity="0.501961" points="191,36 118,25 161,74" />
<polygon fill="#44554b" fill-opacity="0.501961" points="179,12 149,-16 154,16" />
<polygon fill="#1d2824" fill-opacity="0.501961" points="70,24 26,-3 10,67" />
<polygon fill="#4a5c50" fill-opacity="0.501961" points="205,94 216,71 195,40" />
<polygon fill="#424935" fill-opacity="0.501961" points="85,45 110,30 120,38" />
<polygon fill="#283835" fill-opacity="0.501961" points="55,80 56,130 73,110" />
<polygon fill="#e4eeea" fill-opacity="0.501961" points="58,65 48,72 63,67" />
<polygon fill="#566b5c" fill-opacity="0.501961" points="28,52 24,66 36,50" />
<polygon fill="#425653" fill-opacity="0.501961" points="105,119 92,112 87,120" />
<polygon fill="#24312c" fill-opacity="0.501961" points="45,72 -16,92 14,71" />
<polygon fill="#161f1c" fill-opacity="0.501961" points="142,76 109,61 143,106" />
<polygon fill="#222e29" fill-opacity="0.501961" points="161,116 227,102 207,81" />
<polygon fill="#37433e" fill-opacity="0.501961" points="-1,128 12,135 16,128" />
<polygon fill="#3b4f42" fill-opacity="0.501961" points="164,109 156,122 176,110" />
<polygon fill="#343c38" fill-opacity="0.501961" points="19,124 2,107 44,119" />
<polygon fill="#6a7770" fill-opacity="0.501961" points="77,136 46,119 63,140" />
<polygon fill="#2f4237" fill-opacity="0.501961" points="217,48 199,-10 271,57" />
<polygon fill="#2a3a34" fill-opacity="0.501961" points="67,84 64,67 39,85" />
<polygon fill="#344539" fill-opacity="0.501961" points="134,116 122,94 149,102" />
<polygon fill="#1f2f2c" fill-opacity="0.501961" points="258,148 180,125 234,159" />
<polygon fill="#6b7d71" fill-opacity="0.501961" points="225,113 245,113 235,137" />
<polygon fill="#0f1615" fill-opacity="0.501961" points="119,11 105,37 44,-16" />
<polygon fill="#1d2825" fill-opacity="0.501961" points="149,81 217,86 111,49" />
<polygon fill="#94a69c" fill-opacity="0.501961" points="238,66 267,66 271,76" />
<polygon fill="#0c0c0c" fill-opacity="0.501961" points="162,107 137,146 133,118" />
<polygon fill="#141c1a" fill-opacity="0.501961" points="-16,56 8,-16 43,36" />
<polygon fill="#42574f" fill-opacity="0.501961" points="197,125 187,126 196,108" />
<polygon fill="#6d7f72" fill-opacity="0.501961" points="228,87 202,80 220,76" />
<polygon fill="#8b9791" fill-opacity="0.501961" points="30,132 26,141 11,125" />
<polygon fill="#425348" fill-opacity="0.501961" points="218,26 207,1 180,71" />
<polygon fill="#121e1a" fill-opacity="0.501961" points="77,84 98,77 77,150" />
<polygon fill="#54675b" fill-opacity="0.501961" points="271,55 250,68 230,61" />
<polygon fill="#455d50" fill-opacity="0.501961" points="65,66 77,61 74,56" />
<polygon fill="#8fa6a1" fill-opacity="0.501961" points="38,85 38,76 25,83" />
<polygon fill="#708478" fill-opacity="0.501961" points="192,15 202,6 163,-5" />
<polygon fill="#4b5c4f" fill-opacity="0.501961" points="255,132 266,80 238,121" />
<polygon fill="#54675b" fill-opacity="0.501961" points="241,117 216,82 271,118" />
<polygon fill="#95a29c" fill-opacity="0.501961" points="-16,120 9,126 -16,132" />
<polygon fill="#8f9891" fill-opacity="0.501961" points="60,135 36,138 41,159" />
<polygon fill="#0a1110" fill-opacity="0.501961" points="66,90 89,61 72,102" />
<polygon fill="#3a4847" fill-opacity="0.501961" points="146,51 153,40 149,54" />
<polygon fill="#828966" fill-opacity="0.501961" points="122,36 125,31 109,27" />
<polygon fill="#16211d" fill-opacity="0.501961" points="106,31 183,-16 115,2" />
<polygon fill="#a1987d" fill-opacity="0.501961" points="114,61 117,53 120,62" />
<polygon fill="#121e1b" fill-opacity="0.501961" points="106,37 119,53 78,56" />
<polygon fill="#5a5c58" fill-opacity="0.501961" points="41,120 30,127 34,137" />
<polygon fill="#65786a" fill-opacity="0.501961" points="53,51 42,60 62,65" />
<polygon fill="#222f29" fill-opacity="0.501961" points="47,38 38,53 63,50" />
<polygon fill="#16211d" fill-opacity="0.501961" points="127,27 175,32 172,16" />
<polygon fill="#3e5042" fill-opacity="0.501961" points="236,111 227,97 225,110" />
<polygon fill="#16201e" fill-opacity="0.501961" points="153,26 126,11 122,70" />
<polygon fill="#a6b1ac" fill-opacity="0.501961" points="-5,142 -16,130 15,140" />
<polygon fill="#5b6f61" fill-opacity="0.501961" points="191,67 182,61 180,65" />
<polygon fill="#b7ad92" fill-opacity="0.501961" points="119,58 108,58 111,61" />
<polygon fill="#17201e" fill-opacity="0.501961" points="179,112 156,84 146,103" />
<polygon fill="#3e5345" fill-opacity="0.501961" points="64,61 48,67 56,60" />
<polygon fill="#5a6044" fill-opacity="0.501961" points="112,25 108,37 117,31" />
<polygon fill="#45574a" fill-opacity="0.501961" points="224,57 239,63 250,53" />
<polygon fill="#3e5045" fill-opacity="0.501961" points="136,-16 158,19 173,11" />
<polygon fill="#405447" fill-opacity="0.501961" points="176,16 177,35 187,35" />
<polygon fill="#465c51" fill-opacity="0.501961" points="138,106 151,110 131,96" />
<polygon fill="#25362e" fill-opacity="0.501961" points="140,108 112,83 108,59" />
<polygon fill="#506358" fill-opacity="0.501961" points="25,84 48,68 43,61" />
<polygon fill="#3e514d" fill-opacity="0.501961" points="63,103 72,106 74,113" />
<polygon fill="#869a8e" fill-opacity="0.501961" points="211,48 234,67 205,59" />
<polygon fill="#2d3f35" fill-opacity="0.501961" points="200,72 178,52 191,40" />
<polygon fill="#2f3e37" fill-opacity="0.501961" points="22,79 43,43 44,62" />
<polygon fill="#172321" fill-opacity="0.501961" points="51,94 12,104 88,131" />
<polygon fill="#56645b" fill-opacity="0.501961" points="45,130 33,137 51,133" />
<polygon fill="#1a2521" fill-opacity="0.501961" points="82,49 59,62 34,-3" />
<polygon fill="#26382e" fill-opacity="0.501961" points="266,63 222,31 246,10" />
<polygon fill="#1e2724" fill-opacity="0.501961" points="142,79 220,123 225,100" />
<polygon fill="#111911" fill-opacity="0.501961" points="140,117 146,114 129,98" />
<polygon fill="#4e5953" fill-opacity="0.501961" points="0,134 9,125 16,135" />
<polygon fill="#394946" fill-opacity="0.501961" points="43,120 68,125 68,115" />
<polygon fill="#1e2a27" fill-opacity="0.501961" points="120,87 91,80 138,155" />
<polygon fill="#85998d" fill-opacity="0.501961" points="228,114 240,113 239,117" />
<polygon fill="#18231f" fill-opacity="0.501961" points="13,13 24,59 55,27" />
<polygon fill="#4b6662" fill-opacity="0.501961" points="120,45 124,53 114,45" />
<polygon fill="#4e6154" fill-opacity="0.501961" points="194,46 198,40 218,50" />
<polygon fill="#434e41" fill-opacity="0.501961" points="96,58 88,45 84,47" />
<polygon fill="#182422" fill-opacity="0.501961" points="-12,118 88,86 34,88" />
<polygon fill="#182320" fill-opacity="0.501961" points="144,108 119,49 119,76" />
<polygon fill="#0e1514" fill-opacity="0.501961" points="99,70 84,59 63,96" />
<polygon fill="#23312d" fill-opacity="0.501961" points="53,24 80,27 28,2" />
<polygon fill="#4a5d50" fill-opacity="0.501961" points="218,69 192,71 215,81" />
<polygon fill="#4d605b" fill-opacity="0.501961" points="10,87 -3,109 31,81" />
<polygon fill="#818d85" fill-opacity="0.501961" points="51,148 45,124 37,126" />
<polygon fill="#768a7e" fill-opacity="0.501961" points="227,94 245,99 220,79" />
<polygon fill="#3c4e48" fill-opacity="0.501961" points="128,134 138,159 148,158" />
<polygon fill="#4a5d56" fill-opacity="0.501961" points="40,87 37,84 49,77" />
<polygon fill="#303e3c" fill-opacity="0.501961" points="74,-6 75,2 62,14" />
<polygon fill="#889d93" fill-opacity="0.501961" points="248,81 241,80 243,90" />
<polygon fill="#202c28" fill-opacity="0.501961" points="46,80 69,88 32,91" />
<polygon fill="#475a4d" fill-opacity="0.501961" points="207,62 186,75 216,74" />
<polygon fill="#9fb1a7" fill-opacity="0.501961" points="219,66 228,73 232,87" />
<polygon fill="#4c524b" fill-opacity="0.501961" points="26,125 24,114 -6,122" />
<polygon fill="#15211e" fill-opacity="0.501961" points="80,119 103,110 113,62" />
<polygon fill="#424a39" fill-opacity="0.501961" points="116,48 113,40 117,31" />
<polygon fill="#0f1514" fill-opacity="0.501961" points="58,14 -3,-16 85,-16" />
<polygon fill="#19241f" fill-opacity="0.501961" points="248,10 207,-7 271,-1" />
<polygon fill="#a7bfb4" fill-opacity="0.501961" points="56,65 62,68 68,62" />
<polygon fill="#aeb286" fill-opacity="0.501961" points="120,31 118,33 124,35" />
<polygon fill="#4d6155" fill-opacity="0.501961" points="29,58 26,66 20,62" />
<polygon fill="#5d7164" fill-opacity="0.501961" points="221,70 195,46 205,64" />
<polygon fill="#404f4f" fill-opacity="0.501961" points="195,91 191,86 199,86" />
<polygon fill="#424a42" fill-opacity="0.501961" points="91,159 122,141 82,132" />
<polygon fill="#3b5049" fill-opacity="0.501961" points="225,136 212,138 192,124" />
<polygon fill="#242f2b" fill-opacity="0.501961" points="195,68 149,77 147,93" />
<polygon fill="#1a2521" fill-opacity="0.501961" points="86,35 41,44 70,61" />
<polygon fill="#596c5f" fill-opacity="0.501961" points="190,22 210,12 172,4" />
<polygon fill="#68746c" fill-opacity="0.501961" points="22,144 12,128 42,152" />
<polygon fill="#637668" fill-opacity="0.501961" points="215,82 199,79 193,70" />
<polygon fill="#111a18" fill-opacity="0.501961" points="130,22 76,33 68,-16" />
<polygon fill="#0c1513" fill-opacity="0.501961" points="81,131 71,122 73,134" />
<polygon fill="#799389" fill-opacity="0.501961" points="116,49 115,46 116,46" />
<polygon fill="#506256" fill-opacity="0.501961" points="151,14 158,9 166,14" />
<polygon fill="#8c9791" fill-opacity="0.501961" points="21,154 20,141 1,132" />
<polygon fill="#ebefeb" fill-opacity="0.501961" points="45,77 55,71 50,69" />
<polygon fill="#1a2623" fill-opacity="0.501961" points="134,147 111,135 110,73" />
<polygon fill="#25302a" fill-opacity="0.501961" points="200,77 197,85 179,75" />
<polygon fill="#35413b" fill-opacity="0.501961" points="174,70 186,76 181,62" />
<polygon fill="#88938c" fill-opacity="0.501961" points="13,138 26,125 35,132" />
<polygon fill="#5b5e42" fill-opacity="0.501961" points="110,36 120,33 114,28" />
<polygon fill="#4e564f" fill-opacity="0.501961" points="63,138 57,156 45,159" />
<polygon fill="#808e85" fill-opacity="0.501961" points="77,159 75,136 65,135" />
<polygon fill="#0d1211" fill-opacity="0.501961" points="204,143 148,156 165,118" />
<polygon fill="#3e5246" fill-opacity="0.501961" points="190,113 184,105 193,109" />
<polygon fill="#2a3835" fill-opacity="0.501961" points="97,20 91,38 91,28" />
<polygon fill="#7f9487" fill-opacity="0.501961" points="221,69 219,84 226,75" />
<polygon fill="#324439" fill-opacity="0.501961" points="227,6 195,-1 234,29" />
<polygon fill="#1f2e26" fill-opacity="0.501961" points="167,103 146,156 149,126" />
<polygon fill="#0c1716" fill-opacity="0.501961" points="3,82 -16,81 2,93" />
<polygon fill="#c1d2cb" fill-opacity="0.501961" points="224,81 266,75 245,72" />
<polygon fill="#2e3e3b" fill-opacity="0.501961" points="107,117 108,125 83,124" />
<polygon fill="#576d59" fill-opacity="0.501961" points="142,104 140,109 145,109" />
<polygon fill="#0e100f" fill-opacity="0.501961" points="131,124 146,108 141,159" />
<polygon fill="#131e1b" fill-opacity="0.501961" points="117,42 83,51 111,57" />
<polygon fill="#283830" fill-opacity="0.501961" points="110,63 101,65 125,86" />
<polygon fill="#718578" fill-opacity="0.501961" points="47,55 50,61 57,60" />
<polygon fill="#35473c" fill-opacity="0.501961" points="198,28 196,48 167,11" />
<polygon fill="#16201d" fill-opacity="0.501961" points="148,6 121,30 155,32" />
<polygon fill="#223630" fill-opacity="0.501961" points="180,126 191,126 172,114" />
<polygon fill="#97a89d" fill-opacity="0.501961" points="208,56 206,49 223,57" />
<polygon fill="#374539" fill-opacity="0.501961" points="137,108 134,118 127,101" />
<polygon fill="#15201d" fill-opacity="0.501961" points="192,120 186,108 163,101" />
<polygon fill="#2f3d33" fill-opacity="0.501961" points="224,91 204,81 229,106" />
<polygon fill="#1f2b25" fill-opacity="0.501961" points="67,65 62,91 76,65" />
<polygon fill="#35443d" fill-opacity="0.501961" points="121,94 128,96 115,81" />
<polygon fill="#55685b" fill-opacity="0.501961" points="27,63 38,50 32,50" />
<polygon fill="#212e28" fill-opacity="0.501961" points="80,84 78,98 91,73" />
<polygon fill="#6f7b74" fill-opacity="0.501961" points="36,122 19,133 9,129" />
<polygon fill="#2b372f" fill-opacity="0.501961" points="166,15 167,20 157,29" />
<polygon fill="#46574d" fill-opacity="0.501961" points="200,34 222,39 216,29" />
<polygon fill="#5c6e62" fill-opacity="0.501961" points="242,112 241,136 225,132" />
<polygon fill="#3e584f" fill-opacity="0.501961" points="196,122 195,127 182,119" />
<polygon fill="#b5c6be" fill-opacity="0.501961" points="241,87 229,65 227,82" />
<polygon fill="#8ba196" fill-opacity="0.501961" points="237,79 243,86 261,87" />
<polygon fill="#4b5d4f" fill-opacity="0.501961" points="133,-16 200,3 183,-16" />
<polygon fill="#283630" fill-opacity="0.501961" points="44,43 54,38 39,63" />
<polygon fill="#95a59c" fill-opacity="0.501961" points="225,61 244,71 235,71" />
<polygon fill="#23342f" fill-opacity="0.501961" points="25,103 2,107 23,95" />
<polygon fill="#33453d" fill-opacity="0.501961" points="12,68 32,67 20,64" />
<polygon fill="#1a2421" fill-opacity="0.501961" points="23,70 17,84 20,59" />
<polygon fill="#151d1b" fill-opacity="0.501961" points="52,19 -9,42 -6,-16" />
<polygon fill="#263530" fill-opacity="0.501961" points="93,133 95,99 84,131" />
<polygon fill="#2b3c33" fill-opacity="0.501961" points="222,51 243,45 257,52" />
<polygon fill="#0f1715" fill-opacity="0.501961" points="182,48 165,49 173,43" />
<polygon fill="#141e1c" fill-opacity="0.501961" points="28,118 23,98 51,101" />
<polygon fill="#60736d" fill-opacity="0.501961" points="-5,111 -16,109 13,98" />
<polygon fill="#4b5e52" fill-opacity="0.501961" points="271,97 271,133 237,101" />
<polygon fill="#56685c" fill-opacity="0.501961" points="227,57 228,63 217,51" />
<polygon fill="#35443f" fill-opacity="0.501961" points="145,89 146,102 150,87" />
<polygon fill="#585c4b" fill-opacity="0.501961" points="100,35 103,38 89,43" />
<polygon fill="#111c1a" fill-opacity="0.501961" points="107,31 80,46 97,27" />
<polygon fill="#3c4f49" fill-opacity="0.501961" points="3,99 20,89 7,86" />
<polygon fill="#43574b" fill-opacity="0.501961" points="168,108 175,113 165,113" />
<polygon fill="#2e4036" fill-opacity="0.501961" points="157,9 156,-12 143,1" />
<polygon fill="#3d4c4a" fill-opacity="0.501961" points="204,94 210,95 201,83" />
<polygon fill="#0f1815" fill-opacity="0.501961" points="172,35 154,27 174,23" />
<polygon fill="#606d67" fill-opacity="0.501961" points="58,129 47,119 70,127" />
<polygon fill="#152320" fill-opacity="0.501961" points="191,130 218,159 254,159" />
<polygon fill="#9fb5ae" fill-opacity="0.501961" points="42,81 30,85 36,77" />
<polygon fill="#354543" fill-opacity="0.501961" points="128,31 121,43 121,37" />
<polygon fill="#354a3f" fill-opacity="0.501961" points="85,62 81,50 79,53" />
<polygon fill="#131f1b" fill-opacity="0.501961" points="107,31 96,51 113,51" />
<polygon fill="#212f2d" fill-opacity="0.501961" points="138,36 148,37 126,47" />
<polygon fill="#36423b" fill-opacity="0.501961" points="40,136 36,135 39,133" />
<polygon fill="#121c1a" fill-opacity="0.501961" points="129,30 122,47 165,69" />
<polygon fill="#7a847e" fill-opacity="0.501961" points="69,129 39,126 63,137" />
<polygon fill="#3d4f42" fill-opacity="0.501961" points="189,64 215,72 196,55" />
<polygon fill="#202c29" fill-opacity="0.501961" points="164,40 140,21 154,26" />
<polygon fill="#16241e" fill-opacity="0.501961" points="130,102 137,104 125,90" />
<polygon fill="#576b65" fill-opacity="0.501961" points="14,96 22,87 33,87" />
<polygon fill="#728076" fill-opacity="0.501961" points="48,120 52,132 40,120" />
<polygon fill="#708276" fill-opacity="0.501961" points="193,11 209,11 189,1" />
<polygon fill="#455753" fill-opacity="0.501961" points="91,117 95,114 103,118" />
<polygon fill="#121c1b" fill-opacity="0.501961" points="157,70 171,85 179,83" />
<polygon fill="#c8d9d1" fill-opacity="0.501961" points="232,68 243,77 231,74" />
<polygon fill="#15201c" fill-opacity="0.501961" points="214,101 218,130 197,114" />
<polygon fill="#3a4d48" fill-opacity="0.501961" points="217,132 240,159 250,144" />
<polygon fill="#1e2a26" fill-opacity="0.501961" points="132,121 114,130 101,69" />
<polygon fill="#6e8377" fill-opacity="0.501961" points="233,96 248,88 255,91" />
<polygon fill="#717c78" fill-opacity="0.501961" points="33,159 -16,147 6,141" />
<polygon fill="#374837" fill-opacity="0.501961" points="146,108 145,102 154,108" />
<polygon fill="#4d6257" fill-opacity="0.501961" points="225,135 271,149 271,135" />
<polygon fill="#48594e" fill-opacity="0.501961" points="216,13 210,19 203,8" />
<polygon fill="#21302a" fill-opacity="0.501961" points="225,129 213,114 223,110" />
<polygon fill="#565450" fill-opacity="0.501961" points="33,134 37,130 37,121" />
<polygon fill="#2f352e" fill-opacity="0.501961" points="24,123 39,119 27,117" />
<polygon fill="#2f3f39" fill-opacity="0.501961" points="73,115 58,96 64,94" />
<polygon fill="#1a2321" fill-opacity="0.501961" points="155,80 188,111 158,107" />
<polygon fill="#1f2a24" fill-opacity="0.501961" points="85,149 74,139 92,144" />
<polygon fill="#222f2c" fill-opacity="0.501961" points="28,79 13,74 -4,94" />
<polygon fill="#1d2c29" fill-opacity="0.501961" points="73,114 70,126 50,104" />
<polygon fill="#111c18" fill-opacity="0.501961" points="79,62 63,94 74,107" />
<polygon fill="#1b2622" fill-opacity="0.501961" points="144,79 151,54 101,69" />
<polygon fill="#26352c" fill-opacity="0.501961" points="114,62 112,73 105,60" />
<polygon fill="#748578" fill-opacity="0.501961" points="205,52 215,52 201,46" />
<polygon fill="#36473b" fill-opacity="0.501961" points="223,52 199,39 250,42" />
<polygon fill="#949e99" fill-opacity="0.501961" points="23,135 25,132 33,136" />
<polygon fill="#606964" fill-opacity="0.501961" points="39,159 27,138 -3,159" />
<polygon fill="#1c2623" fill-opacity="0.501961" points="101,35 23,10 50,51" />
<polygon fill="#141e1c" fill-opacity="0.501961" points="92,91 102,114 125,123" />
<polygon fill="#121c19" fill-opacity="0.501961" points="105,84 120,90 108,74" />
<polygon fill="#637569" fill-opacity="0.501961" points="238,112 242,118 249,116" />
<polygon fill="#25342d" fill-opacity="0.501961" points="235,5 220,13 258,21" />
<polygon fill="#192320" fill-opacity="0.501961" points="152,88 182,102 146,105" />
<polygon fill="#282d2a" fill-opacity="0.501961" points="-16,135 4,114 -16,88" />
<polygon fill="#243029" fill-opacity="0.501961" points="179,83 181,72 192,67" />
<polygon fill="#1b2521" fill-opacity="0.501961" points="163,45 186,59 166,70" />
<polygon fill="#111918" fill-opacity="0.501961" points="39,2 62,8 66,20" />
<polygon fill="#37483e" fill-opacity="0.501961" points="219,11 228,43 204,25" />
<polygon fill="#1d2a23" fill-opacity="0.501961" points="168,40 190,45 186,35" />
<polygon fill="#4a5d59" fill-opacity="0.501961" points="102,115 100,120 95,115" />
<polygon fill="#6d7871" fill-opacity="0.501961" points="62,142 57,136 69,130" />
<polygon fill="#222e2a" fill-opacity="0.501961" points="135,116 113,122 130,125" />
<polygon fill="#4e6053" fill-opacity="0.501961" points="44,58 39,66 52,67" />
<polygon fill="#979d76" fill-opacity="0.501961" points="116,26 120,38 124,33" />
<polygon fill="#131c19" fill-opacity="0.501961" points="148,5 116,25 135,31" />
<polygon fill="#182522" fill-opacity="0.501961" points="101,124 123,125 131,147" />
<polygon fill="#2b3734" fill-opacity="0.501961" points="109,138 91,114 96,134" />
<polygon fill="#0f1916" fill-opacity="0.501961" points="76,56 98,70 92,80" />
<polygon fill="#11201d" fill-opacity="0.501961" points="167,117 194,133 181,133" />
<polygon fill="#56685c" fill-opacity="0.501961" points="250,110 227,112 228,93" />
<polygon fill="#88928b" fill-opacity="0.501961" points="34,137 37,142 29,142" />
<polygon fill="#5e6b64" fill-opacity="0.501961" points="51,136 40,130 47,130" />
<polygon fill="#314237" fill-opacity="0.501961" points="214,11 220,28 268,28" />
<polygon fill="#b4c7bf" fill-opacity="0.501961" points="56,67 67,64 65,67" />
<polygon fill="#899f92" fill-opacity="0.501961" points="222,83 243,89 231,90" />
<polygon fill="#3d5346" fill-opacity="0.501961" points="75,61 73,56 64,61" />
<polygon fill="#141c1b" fill-opacity="0.501961" points="144,59 151,39 143,32" />
<polygon fill="#596047" fill-opacity="0.501961" points="115,26 120,36 112,28" />
<polygon fill="#18231f" fill-opacity="0.501961" points="66,-16 126,-2 148,31" />
<polygon fill="#6a776f" fill-opacity="0.501961" points="17,139 6,134 11,139" />
<polygon fill="#121b19" fill-opacity="0.501961" points="10,83 -16,76 -16,90" />
<polygon fill="#343e37" fill-opacity="0.501961" points="12,130 5,127 2,130" />
<polygon fill="#b1c1ba" fill-opacity="0.501961" points="230,75 218,64 236,68" />
<polygon fill="#4c5e52" fill-opacity="0.501961" points="197,27 195,15 209,14" />
<polygon fill="#293532" fill-opacity="0.501961" points="35,10 19,-8 23,-16" />
<polygon fill="#101917" fill-opacity="0.501961" points="11,104 32,110 17,111" />
<polygon fill="#1e2a27" fill-opacity="0.501961" points="64,72 31,111 43,82" />
<polygon fill="#2e3c36" fill-opacity="0.501961" points="121,44 119,39 127,32" />
<polygon fill="#101816" fill-opacity="0.501961" points="75,13 104,30 126,20" />
<polygon fill="#5f7063" fill-opacity="0.501961" points="201,46 199,49 195,48" />
<polygon fill="#8e9b94" fill-opacity="0.501961" points="69,140 105,159 48,159" />
<polygon fill="#939e97" fill-opacity="0.501961" points="9,124 -6,124 -6,129" />
<polygon fill="#495b4f" fill-opacity="0.501961" points="159,17 151,13 163,6" />
<polygon fill="#384b43" fill-opacity="0.501961" points="122,86 126,85 132,96" />
<polygon fill="#27342f" fill-opacity="0.501961" points="25,73 42,60 25,83" />
<polygon fill="#182722" fill-opacity="0.501961" points="119,49 114,53 121,55" />
<polygon fill="#9eaca6" fill-opacity="0.501961" points="247,68 266,77 256,68" />
<polygon fill="#485a4e" fill-opacity="0.501961" points="206,75 218,86 204,57" />
<polygon fill="#99aca1" fill-opacity="0.501961" points="217,53 222,56 208,55" />
<polygon fill="#14201c" fill-opacity="0.501961" points="112,46 114,57 93,39" />
<polygon fill="#202b28" fill-opacity="0.501961" points="93,27 101,16 98,26" />
<polygon fill="#a0a9a4" fill-opacity="0.501961" points="-2,136 16,145 10,138" />
<polygon fill="#1c2523" fill-opacity="0.501961" points="39,43 12,67 -16,42" />
<polygon fill="#64796d" fill-opacity="0.501961" points="271,70 266,63 247,65" />
<polygon fill="#687e79" fill-opacity="0.501961" points="37,85 28,83 27,89" />
<polygon fill="#6e8175" fill-opacity="0.501961" points="204,56 209,57 200,47" />
<polygon fill="#1a2421" fill-opacity="0.501961" points="201,103 195,123 224,111" />
<polygon fill="#1e2726" fill-opacity="0.501961" points="48,119 40,109 19,114" />
<polygon fill="#131e18" fill-opacity="0.501961" points="119,59 120,65 123,62" />
<polygon fill="#6e8275" fill-opacity="0.501961" points="219,54 231,64 225,63" />
<polygon fill="#0f1211" fill-opacity="0.501961" points="136,159 155,110 141,110" />
<polygon fill="#2a3631" fill-opacity="0.501961" points="25,67 18,83 34,76" />
<polygon fill="#0e1514" fill-opacity="0.501961" points="137,9 137,-16 127,1" />
<polygon fill="#18221f" fill-opacity="0.501961" points="139,101 108,62 144,79" />
<polygon fill="#28352e" fill-opacity="0.501961" points="53,38 45,34 42,58" />
<polygon fill="#111b18" fill-opacity="0.501961" points="98,67 89,58 70,66" />
<polygon fill="#2b3c35" fill-opacity="0.501961" points="114,80 117,75 108,62" />
<polygon fill="#192725" fill-opacity="0.501961" points="102,110 92,101 94,115" />
<polygon fill="#838e87" fill-opacity="0.501961" points="41,133 40,130 37,132" />
<polygon fill="#849a8e" fill-opacity="0.501961" points="250,85 271,73 271,108" />
<polygon fill="#86918b" fill-opacity="0.501961" points="25,140 19,136 33,130" />
<polygon fill="#1f2a28" fill-opacity="0.501961" points="72,20 70,13 77,11" />
<polygon fill="#1d2d29" fill-opacity="0.501961" points="95,82 97,93 103,68" />
<polygon fill="#40473f" fill-opacity="0.501961" points="124,144 86,150 92,131" />
</g>
</svg>