<svg xmlns="http://www.w3.org/2000/svg" version="1.1" width="1024" height="576">
<rect x="0" y="0" width="1024" height="576" fill="#455750" />
<g transform="scale(4.000000) translate(0.5 0.5)">
<polygon fill="#6b8075" fill-opacity="0.501961" points="-4,124 -16,55 193,44" />
<polygon fill="#243330" fill-opacity="0.501961" points="271,138 90,159 155,54" />
<polygon fill="#6f8278" fill-opacity="0.501961" points="271,56 147,86 221,20" />
<polygon fill="#d1e3df" fill-opacity="0.501961" points="122,60 114,42 121,38" />
<polygon fill="#000807" fill-opacity="0.501961" points="137,90 150,62 181,51" />
<polygon fill="#2b3a36" fill-opacity="0.501961" points="204,85 251,159 271,76" />
<polygon fill="#4d5f59" fill-opacity="0.501961" points="-16,129 115,53 140,110" />
<polygon fill="#111512" fill-opacity="0.501961" points="124,48 121,11 131,32" />
<polygon fill="#6b7f74" fill-opacity="0.501961" points="88,61 6,51 -16,92" />
<polygon fill="#68796f" fill-opacity="0.501961" points="227,62 146,41 271,29" />
<polygon fill="#30413c" fill-opacity="0.501961" points="31,135 114,116 92,159" />
<polygon fill="#05100e" fill-opacity="0.501961" points="138,88 140,109 160,103" />
<polygon fill="#475b54" fill-opacity="0.501961" points="162,103 153,73 271,60" />
<polygon fill="#2f3d38" fill-opacity="0.501961" points="271,-3 258,26 202,-5" />
<polygon fill="#32413d" fill-opacity="0.501961" points="-5,56 42,-16 -16,-1" />
<polygon fill="#4b5d56" fill-opacity="0.501961" points="10,93 150,65 32,132" />
<polygon fill="#3e514b" fill-opacity="0.501961" points="122,10 113,54 55,53" />
<polygon fill="#52665e" fill-opacity="0.501961" points="148,17 190,-16 49,6" />
<polygon fill="#66786e" fill-opacity="0.501961" points="151,62 180,44 143,43" />
<polygon fill="#364742" fill-opacity="0.501961" points="217,20 117,14 123,47" />
<polygon fill="#283531" fill-opacity="0.501961" points="257,151 163,159 266,104" />
<polygon fill="#606f66" fill-opacity="0.501961" points="-16,103 49,108 18,130" />
<polygon fill="#40544e" fill-opacity="0.501961" points="138,103 58,120 146,125" />
<polygon fill="#0b1816" fill-opacity="0.501961" points="168,65 162,59 178,55" />
<polygon fill="#3c4e48" fill-opacity="0.501961" points="236,116 132,84 271,75" />
<polygon fill="#54675f" fill-opacity="0.501961" points="271,59 238,20 224,77" />
<polygon fill="#40534d" fill-opacity="0.501961" points="229,27 193,-16 178,40" />
<polygon fill="#596d65" fill-opacity="0.501961" points="114,55 143,68 129,85" />
<polygon fill="#abbeb7" fill-opacity="0.501961" points="115,61 118,36 122,52" />
<polygon fill="#596d64" fill-opacity="0.501961" points="119,66 53,73 115,45" />
<polygon fill="#3d514c" fill-opacity="0.501961" points="22,2 94,51 -1,44" />
<polygon fill="#232922" fill-opacity="0.501961" points="127,15 117,17 129,45" />
<polygon fill="#6b7f73" fill-opacity="0.501961" points="59,52 69,75 8,64" />
<polygon fill="#6f7f75" fill-opacity="0.501961" points="225,54 180,55 228,35" />
<polygon fill="#475a53" fill-opacity="0.501961" points="177,60 141,89 205,83" />
<polygon fill="#1e2d28" fill-opacity="0.501961" points="141,97 144,74 133,83" />
<polygon fill="#3f524d" fill-opacity="0.501961" points="117,50 59,34 114,30" />
<polygon fill="#485b55" fill-opacity="0.501961" points="101,90 85,118 -16,92" />
<polygon fill="#3b4c46" fill-opacity="0.501961" points="176,140 55,119 6,159" />
<polygon fill="#52675e" fill-opacity="0.501961" points="47,49 12,59 -16,50" />
<polygon fill="#4b5e56" fill-opacity="0.501961" points="125,18 184,-16 162,21" />
<polygon fill="#9cb0a8" fill-opacity="0.501961" points="115,37 120,36 122,46" />
<polygon fill="#53655c" fill-opacity="0.501961" points="219,17 254,29 184,43" />
<polygon fill="#33433f" fill-opacity="0.501961" points="156,99 271,98 192,157" />
<polygon fill="#495c56" fill-opacity="0.501961" points="110,28 20,13 136,-16" />
<polygon fill="#2b3630" fill-opacity="0.501961" points="117,21 131,44 121,38" />
<polygon fill="#4c5e56" fill-opacity="0.501961" points="163,33 123,47 130,56" />
<polygon fill="#576960" fill-opacity="0.501961" points="144,52 143,72 109,60" />
<polygon fill="#40524c" fill-opacity="0.501961" points="172,15 262,26 203,-10" />
<polygon fill="#a9bab5" fill-opacity="0.501961" points="116,38 118,56 124,57" />
<polygon fill="#5c7068" fill-opacity="0.501961" points="67,74 -16,69 -16,91" />
<polygon fill="#374742" fill-opacity="0.501961" points="212,100 64,134 114,152" />
<polygon fill="#1b2a26" fill-opacity="0.501961" points="182,53 163,70 166,56" />
<polygon fill="#5a6e65" fill-opacity="0.501961" points="157,60 133,57 169,52" />
<polygon fill="#40544d" fill-opacity="0.501961" points="136,125 111,78 136,93" />
<polygon fill="#495d55" fill-opacity="0.501961" points="115,31 91,48 118,58" />
<polygon fill="#495750" fill-opacity="0.501961" points="-10,119 -2,154 62,135" />
<polygon fill="#23332e" fill-opacity="0.501961" points="178,56 168,55 183,49" />
<polygon fill="#566960" fill-opacity="0.501961" points="218,73 176,62 257,60" />
<polygon fill="#445751" fill-opacity="0.501961" points="157,72 200,81 148,96" />
<polygon fill="#4d5d57" fill-opacity="0.501961" points="98,73 139,116 61,90" />
<polygon fill="#50645b" fill-opacity="0.501961" points="136,81 149,58 126,68" />
<polygon fill="#374743" fill-opacity="0.501961" points="159,92 167,124 271,101" />
<polygon fill="#74887f" fill-opacity="0.501961" points="126,73 122,69 121,63" />
<polygon fill="#162420" fill-opacity="0.501961" points="135,104 146,95 160,101" />
<polygon fill="#34423c" fill-opacity="0.501961" points="265,-16 213,-16 270,30" />
<polygon fill="#66776e" fill-opacity="0.501961" points="236,31 193,60 182,46" />
<polygon fill="#3d514b" fill-opacity="0.501961" points="271,88 175,89 230,73" />
<polygon fill="#51645a" fill-opacity="0.501961" points="180,-16 97,-16 132,18" />
<polygon fill="#64756c" fill-opacity="0.501961" points="25,119 -16,88 -3,113" />
<polygon fill="#293430" fill-opacity="0.501961" points="271,124 207,145 271,143" />
<polygon fill="#111c1b" fill-opacity="0.501961" points="139,80 159,59 147,85" />
<polygon fill="#44544d" fill-opacity="0.501961" points="121,20 107,34 109,49" />
<polygon fill="#556559" fill-opacity="0.501961" points="-16,129 -8,150 39,151" />
<polygon fill="#35423e" fill-opacity="0.501961" points="-16,39 15,10 -16,-6" />
<polygon fill="#506159" fill-opacity="0.501961" points="262,6 260,64 240,75" />
<polygon fill="#708378" fill-opacity="0.501961" points="61,60 47,67 28,61" />
<polygon fill="#13201d" fill-opacity="0.501961" points="144,91 144,101 138,83" />
<polygon fill="#50615a" fill-opacity="0.501961" points="192,63 155,73 185,79" />
<polygon fill="#5e7269" fill-opacity="0.501961" points="15,76 85,63 40,88" />
<polygon fill="#31423f" fill-opacity="0.501961" points="153,105 173,112 177,97" />
<polygon fill="#52625a" fill-opacity="0.501961" points="59,107 35,103 24,131" />
<polygon fill="#53655d" fill-opacity="0.501961" points="125,73 123,44 144,69" />
<polygon fill="#31403d" fill-opacity="0.501961" points="258,109 234,137 153,130" />
<polygon fill="#2f3f3a" fill-opacity="0.501961" points="147,82 131,94 134,82" />
<polygon fill="#1b2926" fill-opacity="0.501961" points="139,87 147,94 144,117" />
<polygon fill="#3f504a" fill-opacity="0.501961" points="23,-4 44,0 -2,52" />
<polygon fill="#53685e" fill-opacity="0.501961" points="68,75 64,93 15,91" />
<polygon fill="#42544e" fill-opacity="0.501961" points="121,106 155,108 105,120" />
<polygon fill="#61726a" fill-opacity="0.501961" points="224,31 242,29 231,68" />
<polygon fill="#1c2524" fill-opacity="0.501961" points="125,42 128,29 122,32" />
<polygon fill="#54685f" fill-opacity="0.501961" points="-16,76 27,86 -11,107" />
<polygon fill="#566a61" fill-opacity="0.501961" points="76,54 116,50 122,68" />
<polygon fill="#3c4b45" fill-opacity="0.501961" points="130,48 127,14 142,31" />
<polygon fill="#576c63" fill-opacity="0.501961" points="51,48 68,56 27,56" />
<polygon fill="#3c4a42" fill-opacity="0.501961" points="124,38 122,27 113,27" />
<polygon fill="#3d514b" fill-opacity="0.501961" points="96,110 57,133 130,117" />
<polygon fill="#63746b" fill-opacity="0.501961" points="179,56 192,43 208,62" />
<polygon fill="#3e514b" fill-opacity="0.501961" points="115,37 16,35 70,52" />
<polygon fill="#576b62" fill-opacity="0.501961" points="138,42 159,42 141,76" />
<polygon fill="#435650" fill-opacity="0.501961" points="36,37 122,36 20,7" />
<polygon fill="#62746e" fill-opacity="0.501961" points="128,70 124,73 127,82" />
<polygon fill="#475b52" fill-opacity="0.501961" points="137,48 128,42 124,49" />
<polygon fill="#4b5e57" fill-opacity="0.501961" points="124,64 143,70 129,81" />
<polygon fill="#41554f" fill-opacity="0.501961" points="141,28 131,22 165,17" />
<polygon fill="#4e6259" fill-opacity="0.501961" points="157,37 204,35 183,43" />
<polygon fill="#4a5c56" fill-opacity="0.501961" points="218,74 160,85 165,68" />
<polygon fill="#40514b" fill-opacity="0.501961" points="47,122 23,139 82,159" />
<polygon fill="#4f6059" fill-opacity="0.501961" points="115,109 87,100 102,77" />
<polygon fill="#141f1d" fill-opacity="0.501961" points="142,77 148,64 171,61" />
<polygon fill="#3d4d47" fill-opacity="0.501961" points="169,117 146,118 146,107" />
<polygon fill="#5a6c64" fill-opacity="0.501961" points="202,40 161,40 180,50" />
<polygon fill="#40534d" fill-opacity="0.501961" points="148,92 175,81 141,85" />
<polygon fill="#5b6d65" fill-opacity="0.501961" points="119,58 164,47 147,65" />
<polygon fill="#4c5f58" fill-opacity="0.501961" points="107,23 82,5 138,-16" />
<polygon fill="#50645a" fill-opacity="0.501961" points="89,50 116,56 116,44" />
<polygon fill="#20312e" fill-opacity="0.501961" points="148,63 145,71 154,61" />
<polygon fill="#1d2221" fill-opacity="0.501961" points="131,36 120,24 126,23" />
<polygon fill="#65776c" fill-opacity="0.501961" points="178,50 158,44 152,53" />
<polygon fill="#475953" fill-opacity="0.501961" points="83,91 16,97 112,114" />
<polygon fill="#283531" fill-opacity="0.501961" points="271,113 263,154 248,116" />
<polygon fill="#3f534d" fill-opacity="0.501961" points="114,20 116,47 104,37" />
<polygon fill="#40544e" fill-opacity="0.501961" points="123,77 137,103 127,120" />
<polygon fill="#3d514b" fill-opacity="0.501961" points="209,25 158,13 160,37" />
<polygon fill="#5a6d64" fill-opacity="0.501961" points="76,75 68,56 123,59" />
<polygon fill="#435751" fill-opacity="0.501961" points="103,107 37,123 79,125" />
<polygon fill="#536761" fill-opacity="0.501961" points="139,80 133,81 123,73" />
<polygon fill="#384a44" fill-opacity="0.501961" points="145,118 105,121 131,159" />
<polygon fill="#3c4d48" fill-opacity="0.501961" points="269,54 233,99 268,108" />
<polygon fill="#22312d" fill-opacity="0.501961" points="170,56 180,52 172,65" />
<polygon fill="#55685f" fill-opacity="0.501961" points="172,63 215,63 178,74" />
<polygon fill="#1c2a26" fill-opacity="0.501961" points="144,104 143,109 137,100" />
<polygon fill="#2d3e39" fill-opacity="0.501961" points="144,93 133,89 128,80" />
<polygon fill="#3c4a44" fill-opacity="0.501961" points="15,13 42,-1 -16,-5" />
<polygon fill="#55685f" fill-opacity="0.501961" points="127,51 124,72 150,62" />
<polygon fill="#4d6158" fill-opacity="0.501961" points="-11,48 7,55 30,49" />
<polygon fill="#182522" fill-opacity="0.501961" points="156,64 175,59 165,55" />
<polygon fill="#6b7c72" fill-opacity="0.501961" points="181,53 226,51 216,39" />
<polygon fill="#596961" fill-opacity="0.501961" points="271,43 229,26 249,52" />
<polygon fill="#4e5f57" fill-opacity="0.501961" points="24,132 -12,121 41,121" />
<polygon fill="#475b52" fill-opacity="0.501961" points="235,19 201,29 218,13" />
<polygon fill="#62766c" fill-opacity="0.501961" points="52,54 -2,73 -16,59" />
<polygon fill="#384a44" fill-opacity="0.501961" points="243,88 228,110 179,91" />
<polygon fill="#495c53" fill-opacity="0.501961" points="141,39 131,48 162,38" />
<polygon fill="#4e5d58" fill-opacity="0.501961" points="74,103 52,111 81,116" />
<polygon fill="#2c3b36" fill-opacity="0.501961" points="204,155 244,134 162,144" />
<polygon fill="#5b6d65" fill-opacity="0.501961" points="152,43 123,59 159,58" />
<polygon fill="#4a5c55" fill-opacity="0.501961" points="69,-16 98,12 42,13" />
<polygon fill="#192724" fill-opacity="0.501961" points="148,108 160,100 139,99" />
<polygon fill="#4a5a52" fill-opacity="0.501961" points="271,42 237,24 271,24" />
<polygon fill="#3f524c" fill-opacity="0.501961" points="5,41 37,48 21,10" />
<polygon fill="#33433f" fill-opacity="0.501961" points="172,112 148,108 175,96" />
<polygon fill="#465a55" fill-opacity="0.501961" points="163,13 133,22 134,13" />
<polygon fill="#445852" fill-opacity="0.501961" points="177,13 158,-7 209,10" />
<polygon fill="#475953" fill-opacity="0.501961" points="135,107 117,93 117,118" />
<polygon fill="#586a62" fill-opacity="0.501961" points="40,111 17,122 -1,118" />
<polygon fill="#62766d" fill-opacity="0.501961" points="22,74 56,76 81,61" />
<polygon fill="#5c7067" fill-opacity="0.501961" points="232,64 208,57 188,64" />
<polygon fill="#41554f" fill-opacity="0.501961" points="112,91 123,75 131,93" />
<polygon fill="#40504a" fill-opacity="0.501961" points="243,16 200,-13 183,-4" />
<polygon fill="#3b4f49" fill-opacity="0.501961" points="160,97 152,93 153,74" />
<polygon fill="#3a4d47" fill-opacity="0.501961" points="198,100 157,91 236,86" />
<polygon fill="#4f635c" fill-opacity="0.501961" points="136,60 128,73 130,92" />
<polygon fill="#3a4c48" fill-opacity="0.501961" points="161,98 151,97 143,88" />
<polygon fill="#53645c" fill-opacity="0.501961" points="259,40 259,30 227,25" />
<polygon fill="#364740" fill-opacity="0.501961" points="115,127 91,149 72,135" />
<polygon fill="#6b7e73" fill-opacity="0.501961" points="55,70 51,55 19,64" />
<polygon fill="#455852" fill-opacity="0.501961" points="36,35 53,13 118,18" />
<polygon fill="#263631" fill-opacity="0.501961" points="173,55 173,52 183,56" />
<polygon fill="#4b5f57" fill-opacity="0.501961" points="120,67 77,80 123,80" />
<polygon fill="#32423f" fill-opacity="0.501961" points="157,133 186,121 129,121" />
<polygon fill="#51645b" fill-opacity="0.501961" points="4,98 41,106 28,112" />
<polygon fill="#3b4e48" fill-opacity="0.501961" points="45,142 58,122 81,128" />
<polygon fill="#14211e" fill-opacity="0.501961" points="140,98 148,98 140,86" />
<polygon fill="#40534d" fill-opacity="0.501961" points="64,33 119,24 113,38" />
<polygon fill="#4f635a" fill-opacity="0.501961" points="174,7 127,11 130,-4" />
<polygon fill="#65776d" fill-opacity="0.501961" points="223,32 225,56 236,38" />
<polygon fill="#5c7067" fill-opacity="0.501961" points="43,85 76,57 87,67" />
<polygon fill="#596c63" fill-opacity="0.501961" points="94,55 120,61 116,52" />
<polygon fill="#141f1c" fill-opacity="0.501961" points="139,81 152,63 172,58" />
<polygon fill="#3d4c44" fill-opacity="0.501961" points="135,18 124,18 136,45" />
<polygon fill="#182623" fill-opacity="0.501961" points="164,62 155,61 176,53" />
<polygon fill="#41524d" fill-opacity="0.501961" points="132,77 134,74 139,76" />
<polygon fill="#40544e" fill-opacity="0.501961" points="131,22 136,33 157,15" />
<polygon fill="#45564d" fill-opacity="0.501961" points="49,131 17,129 19,140" />
<polygon fill="#42554f" fill-opacity="0.501961" points="28,4 13,22 57,50" />
<polygon fill="#3d514b" fill-opacity="0.501961" points="205,29 210,15 172,14" />
<polygon fill="#233332" fill-opacity="0.501961" points="151,76 148,80 149,85" />
<polygon fill="#445752" fill-opacity="0.501961" points="238,78 253,72 220,73" />
<polygon fill="#4e5e58" fill-opacity="0.501961" points="197,73 225,74 214,67" />
<polygon fill="#3e4e48" fill-opacity="0.501961" points="239,22 229,3 259,26" />
<polygon fill="#21322d" fill-opacity="0.501961" points="143,116 143,108 148,119" />
<polygon fill="#384943" fill-opacity="0.501961" points="109,159 101,128 159,115" />
<polygon fill="#62746b" fill-opacity="0.501961" points="169,54 147,51 172,46" />
<polygon fill="#64766c" fill-opacity="0.501961" points="169,43 179,47 164,55" />
<polygon fill="#4f645b" fill-opacity="0.501961" points="68,54 86,58 98,52" />
<polygon fill="#4c6056" fill-opacity="0.501961" points="108,36 119,36 120,32" />
<polygon fill="#5b6c65" fill-opacity="0.501961" points="227,26 210,36 234,31" />
<polygon fill="#4c5f59" fill-opacity="0.501961" points="67,96 87,82 40,95" />
<polygon fill="#37423a" fill-opacity="0.501961" points="121,30 115,33 120,24" />
<polygon fill="#3b4b47" fill-opacity="0.501961" points="183,52 184,47 178,55" />
<polygon fill="#43554e" fill-opacity="0.501961" points="108,24 110,46 119,23" />
<polygon fill="#37443d" fill-opacity="0.501961" points="117,27 122,38 123,31" />
<polygon fill="#63776d" fill-opacity="0.501961" points="4,62 42,71 7,74" />
<polygon fill="#4f6259" fill-opacity="0.501961" points="166,68 185,75 175,65" />
<polygon fill="#3b4b46" fill-opacity="0.501961" points="76,146 179,159 137,137" />
<polygon fill="#5a6d68" fill-opacity="0.501961" points="129,84 133,93 129,89" />
<polygon fill="#1a2724" fill-opacity="0.501961" points="154,100 141,106 139,86" />
<polygon fill="#21302c" fill-opacity="0.501961" points="146,114 138,104 141,99" />
<polygon fill="#40524b" fill-opacity="0.501961" points="141,121 140,108 131,110" />
<polygon fill="#435750" fill-opacity="0.501961" points="171,78 145,91 156,74" />
<polygon fill="#62736b" fill-opacity="0.501961" points="18,112 9,118 7,103" />
<polygon fill="#4a5e56" fill-opacity="0.501961" points="192,34 209,31 205,37" />
<polygon fill="#3c4f48" fill-opacity="0.501961" points="135,102 123,98 138,89" />
<polygon fill="#a3b6af" fill-opacity="0.501961" points="116,35 121,52 121,41" />
<polygon fill="#455952" fill-opacity="0.501961" points="110,46 102,46 118,34" />
<polygon fill="#3b4743" fill-opacity="0.501961" points="130,41 135,45 131,29" />
<polygon fill="#3c4e48" fill-opacity="0.501961" points="146,121 146,108 155,108" />
<polygon fill="#52665d" fill-opacity="0.501961" points="30,54 18,52 32,50" />
<polygon fill="#5a6f66" fill-opacity="0.501961" points="91,56 74,62 53,56" />
<polygon fill="#5b6f66" fill-opacity="0.501961" points="35,79 11,88 -11,78" />
<polygon fill="#5e7168" fill-opacity="0.501961" points="172,41 154,44 145,54" />
<polygon fill="#4a5c55" fill-opacity="0.501961" points="158,-15 155,13 173,8" />
<polygon fill="#32423f" fill-opacity="0.501961" points="247,114 199,141 203,111" />
<polygon fill="#576b62" fill-opacity="0.501961" points="28,89 52,89 70,73" />
<polygon fill="#a8b9b7" fill-opacity="0.501961" points="119,54 118,47 122,52" />
<polygon fill="#475852" fill-opacity="0.501961" points="126,73 130,74 129,80" />
<polygon fill="#334642" fill-opacity="0.501961" points="171,112 192,98 158,94" />
<polygon fill="#495d54" fill-opacity="0.501961" points="53,49 57,53 66,49" />
<polygon fill="#596e65" fill-opacity="0.501961" points="-12,62 -6,49 10,59" />
<polygon fill="#122621" fill-opacity="0.501961" points="125,17 123,16 125,15" />
<polygon fill="#586860" fill-opacity="0.501961" points="139,54 122,52 137,64" />
<polygon fill="#41544e" fill-opacity="0.501961" points="158,26 182,13 128,22" />
<polygon fill="#2c3732" fill-opacity="0.501961" points="116,29 119,18 116,20" />
<polygon fill="#475a55" fill-opacity="0.501961" points="120,28 80,18 101,9" />
<polygon fill="#62756b" fill-opacity="0.501961" points="49,54 78,62 70,71" />
<polygon fill="#4b6056" fill-opacity="0.501961" points="209,29 219,17 231,23" />
<polygon fill="#1f302e" fill-opacity="0.501961" points="153,76 153,78 150,78" />
<polygon fill="#364742" fill-opacity="0.501961" points="136,91 133,90 130,96" />
<polygon fill="#475953" fill-opacity="0.501961" points="118,79 120,96 101,81" />
<polygon fill="#48594e" fill-opacity="0.501961" points="117,11 131,16 128,11" />
<polygon fill="#41544e" fill-opacity="0.501961" points="118,94 143,114 127,86" />
<polygon fill="#4b5c57" fill-opacity="0.501961" points="127,101 84,102 109,110" />
<polygon fill="#4b5d57" fill-opacity="0.501961" points="79,96 71,84 122,74" />
<polygon fill="#63726b" fill-opacity="0.501961" points="117,59 121,58 122,62" />
<polygon fill="#42544e" fill-opacity="0.501961" points="103,27 111,47 119,24" />
<polygon fill="#9fb3ab" fill-opacity="0.501961" points="121,44 117,39 116,43" />
<polygon fill="#637872" fill-opacity="0.501961" points="133,78 135,81 131,80" />
<polygon fill="#5b7067" fill-opacity="0.501961" points="210,60 232,64 238,55" />
<polygon fill="#6c7d77" fill-opacity="0.501961" points="129,79 124,72 124,75" />
<polygon fill="#3f534d" fill-opacity="0.501961" points="257,70 234,81 271,80" />
<polygon fill="#44564f" fill-opacity="0.501961" points="126,42 139,42 128,46" />
<polygon fill="#65776f" fill-opacity="0.501961" points="199,58 190,49 226,55" />
<polygon fill="#4f6059" fill-opacity="0.501961" points="87,76 101,105 112,94" />
<polygon fill="#6c634f" fill-opacity="0.501961" points="119,24 120,24 120,21" />
<polygon fill="#32423d" fill-opacity="0.501961" points="160,143 205,134 181,152" />
<polygon fill="#697f72" fill-opacity="0.501961" points="118,37 118,35 116,37" />
<polygon fill="#4d6057" fill-opacity="0.501961" points="118,8 73,5 151,-11" />
<polygon fill="#182523" fill-opacity="0.501961" points="128,40 122,42 126,31" />
<polygon fill="#485b54" fill-opacity="0.501961" points="126,71 131,87 132,69" />
<polygon fill="#65776a" fill-opacity="0.501961" points="184,47 188,51 196,44" />
<polygon fill="#51655c" fill-opacity="0.501961" points="128,79 147,63 123,63" />
<polygon fill="#445851" fill-opacity="0.501961" points="33,130 59,115 43,132" />
<polygon fill="#3a4d47" fill-opacity="0.501961" points="105,128 93,118 140,118" />
<polygon fill="#394c46" fill-opacity="0.501961" points="17,35 -14,49 -16,29" />
<polygon fill="#374843" fill-opacity="0.501961" points="182,114 232,95 180,97" />
<polygon fill="#51615a" fill-opacity="0.501961" points="-16,107 -10,124 10,123" />
<polygon fill="#4a5e58" fill-opacity="0.501961" points="89,3 64,14 56,8" />
<polygon fill="#3d504a" fill-opacity="0.501961" points="179,18 146,27 196,34" />
<polygon fill="#5a6c64" fill-opacity="0.501961" points="178,59 180,65 200,64" />
<polygon fill="#3a4943" fill-opacity="0.501961" points="246,5 202,-1 212,-16" />
<polygon fill="#6c8075" fill-opacity="0.501961" points="50,57 62,64 33,66" />
<polygon fill="#3f524c" fill-opacity="0.501961" points="6,25 31,25 13,44" />
<polygon fill="#5a6d64" fill-opacity="0.501961" points="128,55 131,68 119,60" />
<polygon fill="#3b4b46" fill-opacity="0.501961" points="56,136 86,159 77,128" />
<polygon fill="#52675e" fill-opacity="0.501961" points="155,45 156,41 141,44" />
<polygon fill="#485a54" fill-opacity="0.501961" points="190,77 170,84 153,74" />
<polygon fill="#55655a" fill-opacity="0.501961" points="31,152 -10,154 -16,133" />
<polygon fill="#50645b" fill-opacity="0.501961" points="132,13 158,3 118,3" />
<polygon fill="#6b7c72" fill-opacity="0.501961" points="200,54 208,41 223,49" />
<polygon fill="#425650" fill-opacity="0.501961" points="189,76 196,83 219,78" />
<polygon fill="#1c2925" fill-opacity="0.501961" points="172,53 164,68 171,61" />
<polygon fill="#4b5f57" fill-opacity="0.501961" points="141,14 136,20 116,5" />
<polygon fill="#52655c" fill-opacity="0.501961" points="140,77 140,66 127,65" />
<polygon fill="#3e514a" fill-opacity="0.501961" points="129,118 139,107 143,115" />
<polygon fill="#40534d" fill-opacity="0.501961" points="195,85 167,85 172,94" />
<polygon fill="#4d6057" fill-opacity="0.501961" points="175,38 199,36 183,42" />
<polygon fill="#394744" fill-opacity="0.501961" points="136,30 125,42 132,39" />
<polygon fill="#51665c" fill-opacity="0.501961" points="118,64 124,73 89,70" />
<polygon fill="#344441" fill-opacity="0.501961" points="246,114 195,124 203,108" />
<polygon fill="#40534d" fill-opacity="0.501961" points="200,-16 187,6 171,-2" />
<polygon fill="#3b4f48" fill-opacity="0.501961" points="155,37 133,30 178,26" />
<polygon fill="#475a55" fill-opacity="0.501961" points="126,76 130,74 130,79" />
<polygon fill="#435650" fill-opacity="0.501961" points="214,16 195,33 207,30" />
<polygon fill="#54685f" fill-opacity="0.501961" points="238,68 222,69 256,51" />
<polygon fill="#1d2b26" fill-opacity="0.501961" points="138,85 138,82 141,82" />
<polygon fill="#374641" fill-opacity="0.501961" points="188,134 144,137 167,151" />
<polygon fill="#34433e" fill-opacity="0.501961" points="-6,25 -16,5 9,11" />
<polygon fill="#4b5c56" fill-opacity="0.501961" points="76,117 68,119 66,101" />
<polygon fill="#4f635a" fill-opacity="0.501961" points="11,89 36,89 3,98" />
<polygon fill="#4a5c56" fill-opacity="0.501961" points="120,75 127,83 121,68" />
<polygon fill="#455852" fill-opacity="0.501961" points="66,50 100,46 86,53" />
<polygon fill="#52625b" fill-opacity="0.501961" points="191,73 177,67 200,68" />
<polygon fill="#b3c5bd" fill-opacity="0.501961" points="117,46 120,47 118,48" />
<polygon fill="#576a61" fill-opacity="0.501961" points="250,55 234,65 250,37" />
<polygon fill="#465953" fill-opacity="0.501961" points="57,20 61,35 76,22" />
<polygon fill="#1d2c28" fill-opacity="0.501961" points="145,115 143,114 143,117" />
<polygon fill="#4c5f59" fill-opacity="0.501961" points="112,18 102,16 113,5" />
<polygon fill="#3d504a" fill-opacity="0.501961" points="144,111 113,119 130,120" />
<polygon fill="#51665c" fill-opacity="0.501961" points="219,23 225,27 208,34" />
<polygon fill="#32413d" fill-opacity="0.501961" points="141,104 144,104 141,102" />
<polygon fill="#455852" fill-opacity="0.501961" points="60,106 51,98 86,97" />
<polygon fill="#101a1c" fill-opacity="0.501961" points="147,82 148,72 142,79" />
<polygon fill="#465954" fill-opacity="0.501961" points="183,7 157,17 171,3" />
<polygon fill="#3e514b" fill-opacity="0.501961" points="46,49 88,30 95,43" />
<polygon fill="#576961" fill-opacity="0.501961" points="24,116 10,103 36,111" />
<polygon fill="#61766b" fill-opacity="0.501961" points="55,55 43,58 39,53" />
<polygon fill="#5b6c64" fill-opacity="0.501961" points="237,32 246,32 248,56" />
<polygon fill="#485b54" fill-opacity="0.501961" points="47,48 64,52 55,46" />
<polygon fill="#5c7167" fill-opacity="0.501961" points="56,76 42,85 20,78" />
<polygon fill="#445852" fill-opacity="0.501961" points="107,25 69,19 92,31" />
<polygon fill="#485c55" fill-opacity="0.501961" points="16,93 19,103 49,100" />
<polygon fill="#425650" fill-opacity="0.501961" points="16,46 -16,44 0,51" />
<polygon fill="#3f524c" fill-opacity="0.501961" points="91,122 73,128 59,121" />
<polygon fill="#5d7067" fill-opacity="0.501961" points="164,55 152,46 155,57" />
<polygon fill="#455852" fill-opacity="0.501961" points="120,101 141,113 110,82" />
<polygon fill="#3f4e49" fill-opacity="0.501961" points="68,137 43,136 19,159" />
<polygon fill="#54685f" fill-opacity="0.501961" points="77,75 43,84 53,89" />
<polygon fill="#283026" fill-opacity="0.501961" points="121,18 129,25 121,22" />
<polygon fill="#384843" fill-opacity="0.501961" points="189,105 189,119 162,119" />
<polygon fill="#30403b" fill-opacity="0.501961" points="226,135 218,120 244,127" />
<polygon fill="#42544e" fill-opacity="0.501961" points="232,9 237,19 207,6" />
<polygon fill="#4d5d55" fill-opacity="0.501961" points="155,1 160,-16 105,0" />
<polygon fill="#445751" fill-opacity="0.501961" points="46,3 25,15 38,32" />
<polygon fill="#3b4e48" fill-opacity="0.501961" points="201,84 195,92 229,89" />
<polygon fill="#506159" fill-opacity="0.501961" points="54,113 49,101 35,118" />
<polygon fill="#3d4d49" fill-opacity="0.501961" points="246,98 258,99 262,65" />
<polygon fill="#384741" fill-opacity="0.501961" points="257,105 236,113 221,95" />
<polygon fill="#51635b" fill-opacity="0.501961" points="256,39 249,65 271,56" />
<polygon fill="#4b5953" fill-opacity="0.501961" points="30,154 0,135 30,144" />
<polygon fill="#485a55" fill-opacity="0.501961" points="240,72 271,73 265,59" />
<polygon fill="#475850" fill-opacity="0.501961" points="254,26 238,27 231,20" />
<polygon fill="#1b2b25" fill-opacity="0.501961" points="136,101 139,102 139,97" />
<polygon fill="#586c62" fill-opacity="0.501961" points="175,66 182,53 182,65" />
<polygon fill="#5b6d65" fill-opacity="0.501961" points="21,110 10,119 18,120" />
<polygon fill="#3d5249" fill-opacity="0.501961" points="136,102 136,99 131,106" />
<polygon fill="#4f6459" fill-opacity="0.501961" points="152,38 159,42 167,38" />
<polygon fill="#3e524c" fill-opacity="0.501961" points="136,82 129,84 130,81" />
<polygon fill="#2d3c37" fill-opacity="0.501961" points="256,113 242,136 240,120" />
<polygon fill="#5e6e67" fill-opacity="0.501961" points="180,57 190,61 197,58" />
</g>
</svg>