<svg xmlns="http://www.w3.org/2000/svg" version="1.1" width="1024" height="576">
<rect x="0" y="0" width="1024" height="576" fill="#8c7778" />
<g transform="scale(4.000000) translate(0.5 0.5)">
<polygon fill="#ffffff" fill-opacity="0.501961" points="78,81 1,68 98,159" />
<polygon fill="#1b2009" fill-opacity="0.501961" points="271,21 189,41 255,159" />
<polygon fill="#e3a6bc" fill-opacity="0.501961" points="78,5 156,15 109,159" />
<polygon fill="#6f001c" fill-opacity="0.501961" points="-16,93 68,112 11,159" />
<polygon fill="#101b19" fill-opacity="0.501961" points="156,70 197,106 121,99" />
<polygon fill="#2c4964" fill-opacity="0.501961" points="93,27 -1,31 46,80" />
<polygon fill="#edf5e6" fill-opacity="0.501961" points="230,110 218,95 178,151" />
<polygon fill="#ffd7ff" fill-opacity="0.501961" points="142,51 71,10 149,29" />
<polygon fill="#cfd5df" fill-opacity="0.501961" points="77,16 -9,8 3,29" />
<polygon fill="#60442f" fill-opacity="0.501961" points="176,39 178,103 271,8" />
<polygon fill="#bad7ea" fill-opacity="0.501961" points="122,138 154,135 127,101" />
<polygon fill="#dbdae2" fill-opacity="0.501961" points="102,121 68,73 53,159" />
<polygon fill="#b94162" fill-opacity="0.501961" points="67,8 89,90 119,47" />
<polygon fill="#04194b" fill-opacity="0.501961" points="7,58 13,84 -8,114" />
<polygon fill="#dabca1" fill-opacity="0.501961" points="153,5 241,16 157,29" />
<polygon fill="#46222c" fill-opacity="0.501961" points="56,155 167,144 103,133" />
<polygon fill="#f2e9aa" fill-opacity="0.501961" points="159,73 177,85 170,39" />
<polygon fill="#5c3b3d" fill-opacity="0.501961" points="167,159 160,36 133,61" />
<polygon fill="#b6c0fd" fill-opacity="0.501961" points="184,113 202,95 186,94" />
<polygon fill="#dde3dc" fill-opacity="0.501961" points="10,88 53,98 10,58" />
<polygon fill="#f18cb7" fill-opacity="0.501961" points="81,33 155,63 142,37" />
<polygon fill="#ffe36d" fill-opacity="0.501961" points="228,77 208,91 225,68" />
<polygon fill="#d3c8cb" fill-opacity="0.501961" points="166,126 195,159 172,101" />
<polygon fill="#ecf4c9" fill-opacity="0.501961" points="142,75 94,79 112,60" />
<polygon fill="#6b5761" fill-opacity="0.501961" points="97,33 93,-16 116,-16" />
<polygon fill="#f17da3" fill-opacity="0.501961" points="86,72 97,15 64,79" />
<polygon fill="#652e3c" fill-opacity="0.501961" points="98,99 128,100 97,88" />
<polygon fill="#614e3d" fill-opacity="0.501961" points="252,147 186,137 237,123" />
<polygon fill="#6887a9" fill-opacity="0.501961" points="28,40 -16,111 -13,19" />
<polygon fill="#4b452b" fill-opacity="0.501961" points="220,98 204,58 205,102" />
<polygon fill="#a7b8d1" fill-opacity="0.501961" points="108,138 99,109 165,133" />
<polygon fill="#1e0500" fill-opacity="0.501961" points="125,80 113,76 123,88" />
<polygon fill="#473333" fill-opacity="0.501961" points="170,139 131,112 162,115" />
<polygon fill="#e1e6e0" fill-opacity="0.501961" points="214,108 206,138 193,124" />
<polygon fill="#9b3954" fill-opacity="0.501961" points="83,76 102,42 99,122" />
<polygon fill="#a295a9" fill-opacity="0.501961" points="12,86 28,96 -16,122" />
<polygon fill="#926c53" fill-opacity="0.501961" points="196,63 213,27 139,23" />
<polygon fill="#2d241e" fill-opacity="0.501961" points="180,60 176,107 193,74" />
<polygon fill="#6a767c" fill-opacity="0.501961" points="70,119 53,129 46,97" />
<polygon fill="#63635a" fill-opacity="0.501961" points="253,90 271,-1 228,-14" />
<polygon fill="#49424b" fill-opacity="0.501961" points="87,26 53,22 64,75" />
<polygon fill="#ebeee6" fill-opacity="0.501961" points="227,109 231,127 211,107" />
<polygon fill="#945858" fill-opacity="0.501961" points="118,41 145,62 101,60" />
<polygon fill="#562429" fill-opacity="0.501961" points="157,159 185,116 136,159" />
<polygon fill="#bc9480" fill-opacity="0.501961" points="211,5 238,12 239,46" />
<polygon fill="#392727" fill-opacity="0.501961" points="188,42 249,51 240,79" />
<polygon fill="#c1a97b" fill-opacity="0.501961" points="190,94 194,48 203,90" />
<polygon fill="#6f2439" fill-opacity="0.501961" points="48,151 52,103 -16,139" />
<polygon fill="#f5aad5" fill-opacity="0.501961" points="98,24 59,14 84,7" />
<polygon fill="#969fa3" fill-opacity="0.501961" points="242,88 264,84 254,69" />
<polygon fill="#e6c555" fill-opacity="0.501961" points="198,117 201,100 216,85" />
<polygon fill="#eaf0bf" fill-opacity="0.501961" points="136,87 116,96 139,70" />
<polygon fill="#8b9988" fill-opacity="0.501961" points="88,5 139,26 186,6" />
<polygon fill="#e8e8df" fill-opacity="0.501961" points="47,98 66,71 92,132" />
<polygon fill="#354336" fill-opacity="0.501961" points="227,75 271,102 236,159" />
<polygon fill="#5c5f48" fill-opacity="0.501961" points="270,11 234,-16 144,0" />
<polygon fill="#ded7bd" fill-opacity="0.501961" points="98,68 108,91 123,56" />
<polygon fill="#a74762" fill-opacity="0.501961" points="117,99 130,98 115,125" />
<polygon fill="#e6db9d" fill-opacity="0.501961" points="213,159 152,159 179,130" />
<polygon fill="#314b56" fill-opacity="0.501961" points="65,7 37,15 33,7" />
<polygon fill="#594134" fill-opacity="0.501961" points="167,38 190,89 190,45" />
<polygon fill="#4f3f2d" fill-opacity="0.501961" points="147,26 162,46 158,85" />
<polygon fill="#ead8f2" fill-opacity="0.501961" points="105,22 135,21 150,51" />
<polygon fill="#353336" fill-opacity="0.501961" points="194,65 226,37 213,85" />
<polygon fill="#a6a9af" fill-opacity="0.501961" points="-1,-13 54,26 -16,29" />
<polygon fill="#0a081e" fill-opacity="0.501961" points="11,84 3,95 10,68" />
<polygon fill="#ebddb1" fill-opacity="0.501961" points="158,64 173,87 171,57" />
<polygon fill="#bb2f56" fill-opacity="0.501961" points="99,30 64,14 48,23" />
<polygon fill="#8c8bd1" fill-opacity="0.501961" points="99,125 86,87 83,112" />
<polygon fill="#3d352f" fill-opacity="0.501961" points="163,116 168,84 187,80" />
<polygon fill="#48586b" fill-opacity="0.501961" points="49,79 2,55 82,55" />
<polygon fill="#6e1743" fill-opacity="0.501961" points="103,29 99,17 93,34" />
<polygon fill="#d5f6f7" fill-opacity="0.501961" points="113,101 119,127 108,117" />
<polygon fill="#4c4351" fill-opacity="0.501961" points="193,120 191,109 171,121" />
<polygon fill="#858e83" fill-opacity="0.501961" points="161,98 166,111 125,113" />
<polygon fill="#3b3c3c" fill-opacity="0.501961" points="185,97 154,101 133,62" />
<polygon fill="#ccbd96" fill-opacity="0.501961" points="190,49 200,49 195,67" />
<polygon fill="#d55b8a" fill-opacity="0.501961" points="99,84 103,130 91,104" />
<polygon fill="#5a71ac" fill-opacity="0.501961" points="112,99 107,115 98,97" />
<polygon fill="#7e6949" fill-opacity="0.501961" points="181,136 197,136 189,115" />
<polygon fill="#c7c9ba" fill-opacity="0.501961" points="31,159 72,119 86,145" />
<polygon fill="#d6d3cc" fill-opacity="0.501961" points="74,73 85,111 12,85" />
<polygon fill="#6a1f30" fill-opacity="0.501961" points="92,82 98,67 77,79" />
<polygon fill="#ba9378" fill-opacity="0.501961" points="155,31 214,33 232,5" />
<polygon fill="#d2778c" fill-opacity="0.501961" points="81,43 68,76 94,69" />
<polygon fill="#342f35" fill-opacity="0.501961" points="210,101 234,74 223,99" />
<polygon fill="#dd6d90" fill-opacity="0.501961" points="133,60 152,67 148,45" />
<polygon fill="#e7d5a0" fill-opacity="0.501961" points="202,87 186,98 194,85" />
<polygon fill="#5b555e" fill-opacity="0.501961" points="71,14 29,13 52,7" />
<polygon fill="#79574c" fill-opacity="0.501961" points="266,84 222,28 243,27" />
<polygon fill="#7c5a19" fill-opacity="0.501961" points="198,114 206,115 212,101" />
<polygon fill="#2c3761" fill-opacity="0.501961" points="217,76 197,93 204,95" />
<polygon fill="#caddff" fill-opacity="0.501961" points="165,120 174,104 179,113" />
<polygon fill="#caaaa2" fill-opacity="0.501961" points="174,10 229,10 152,31" />
<polygon fill="#855b4b" fill-opacity="0.501961" points="215,119 195,159 235,137" />
<polygon fill="#5a6799" fill-opacity="0.501961" points="89,88 80,79 86,115" />
<polygon fill="#c8d5d1" fill-opacity="0.501961" points="45,15 17,22 -7,14" />
<polygon fill="#cabc98" fill-opacity="0.501961" points="166,39 163,72 179,76" />
<polygon fill="#413634" fill-opacity="0.501961" points="171,55 162,52 169,50" />
<polygon fill="#261d44" fill-opacity="0.501961" points="6,60 11,69 8,85" />
<polygon fill="#413534" fill-opacity="0.501961" points="191,64 175,87 180,115" />
<polygon fill="#d1ccc4" fill-opacity="0.501961" points="186,133 201,114 227,114" />
<polygon fill="#6b5561" fill-opacity="0.501961" points="41,109 31,99 46,105" />
<polygon fill="#a29bd3" fill-opacity="0.501961" points="3,58 6,80 -8,73" />
<polygon fill="#f6f8f8" fill-opacity="0.501961" points="75,123 90,131 81,98" />
<polygon fill="#9f72b1" fill-opacity="0.501961" points="168,122 186,112 162,136" />
<polygon fill="#bd6181" fill-opacity="0.501961" points="92,128 78,133 102,133" />
<polygon fill="#42413f" fill-opacity="0.501961" points="153,66 122,102 182,100" />
<polygon fill="#9b304b" fill-opacity="0.501961" points="74,159 107,134 94,132" />
<polygon fill="#9ba8bd" fill-opacity="0.501961" points="153,121 91,125 135,138" />
<polygon fill="#c0b6ad" fill-opacity="0.501961" points="233,143 227,159 230,127" />
<polygon fill="#5c757b" fill-opacity="0.501961" points="64,118 41,159 26,153" />
<polygon fill="#d3acb0" fill-opacity="0.501961" points="134,116 126,124 119,90" />
<polygon fill="#714840" fill-opacity="0.501961" points="101,51 97,68 88,51" />
<polygon fill="#6a7d8f" fill-opacity="0.501961" points="32,77 33,32 -16,35" />
<polygon fill="#2d4850" fill-opacity="0.501961" points="261,99 247,30 271,30" />
<polygon fill="#232332" fill-opacity="0.501961" points="0,80 10,91 -16,112" />
<polygon fill="#fefad0" fill-opacity="0.501961" points="174,131 184,124 177,134" />
<polygon fill="#d17793" fill-opacity="0.501961" points="-12,128 -7,103 13,101" />
<polygon fill="#4c413d" fill-opacity="0.501961" points="107,159 108,138 171,138" />
<polygon fill="#2f1810" fill-opacity="0.501961" points="126,82 121,91 121,79" />
<polygon fill="#e0ddd5" fill-opacity="0.501961" points="11,82 29,78 13,62" />
<polygon fill="#352121" fill-opacity="0.501961" points="251,71 250,81 242,62" />
<polygon fill="#583e36" fill-opacity="0.501961" points="110,49 115,56 111,62" />
<polygon fill="#833e48" fill-opacity="0.501961" points="132,69 132,54 155,74" />
<polygon fill="#6c5244" fill-opacity="0.501961" points="149,51 162,29 173,35" />
<polygon fill="#0c1211" fill-opacity="0.501961" points="256,-8 254,47 269,46" />
<polygon fill="#df8dae" fill-opacity="0.501961" points="80,44 88,29 130,42" />
<polygon fill="#02182a" fill-opacity="0.501961" points="36,138 51,159 20,155" />
<polygon fill="#7e858c" fill-opacity="0.501961" points="49,137 54,106 66,116" />
<polygon fill="#898690" fill-opacity="0.501961" points="-8,8 54,7 14,-14" />
<polygon fill="#8c90c1" fill-opacity="0.501961" points="191,94 175,119 206,95" />
<polygon fill="#c55576" fill-opacity="0.501961" points="124,95 115,115 126,120" />
<polygon fill="#979888" fill-opacity="0.501961" points="101,2 158,12 100,21" />
<polygon fill="#9c7868" fill-opacity="0.501961" points="183,18 218,37 148,31" />
<polygon fill="#c7cfa4" fill-opacity="0.501961" points="93,70 92,57 85,57" />
<polygon fill="#959a98" fill-opacity="0.501961" points="243,87 245,74 251,86" />
<polygon fill="#98acc3" fill-opacity="0.501961" points="103,119 112,139 136,118" />
<polygon fill="#d9c9a3" fill-opacity="0.501961" points="179,78 169,84 160,64" />
<polygon fill="#7d7b69" fill-opacity="0.501961" points="59,1 138,-16 212,10" />
<polygon fill="#99a1a4" fill-opacity="0.501961" points="201,126 220,149 197,133" />
<polygon fill="#593a46" fill-opacity="0.501961" points="105,90 113,98 109,105" />
<polygon fill="#453f43" fill-opacity="0.501961" points="196,144 220,127 214,139" />
<polygon fill="#423532" fill-opacity="0.501961" points="199,50 226,28 210,74" />
<polygon fill="#ca6384" fill-opacity="0.501961" points="64,74 82,77 94,40" />
<polygon fill="#4e575f" fill-opacity="0.501961" points="87,28 39,28 58,76" />
<polygon fill="#a4a7a8" fill-opacity="0.501961" points="60,112 37,87 45,105" />
<polygon fill="#a2888d" fill-opacity="0.501961" points="51,28 58,17 13,20" />
<polygon fill="#dbd1ad" fill-opacity="0.501961" points="120,96 102,86 97,72" />
<polygon fill="#d3c5ad" fill-opacity="0.501961" points="158,130 154,138 142,124" />
<polygon fill="#84293f" fill-opacity="0.501961" points="-16,153 55,110 14,103" />
<polygon fill="#372e25" fill-opacity="0.501961" points="146,118 142,113 164,114" />
<polygon fill="#933256" fill-opacity="0.501961" points="163,138 148,145 167,122" />
<polygon fill="#4a3731" fill-opacity="0.501961" points="155,62 147,39 164,59" />
<polygon fill="#e9a9d0" fill-opacity="0.501961" points="138,41 101,25 114,44" />
<polygon fill="#dee6e4" fill-opacity="0.501961" points="121,58 116,59 121,73" />
<polygon fill="#ceaa5e" fill-opacity="0.501961" points="213,94 228,69 214,82" />
<polygon fill="#d06f87" fill-opacity="0.501961" points="92,87 100,64 99,106" />
<polygon fill="#896091" fill-opacity="0.501961" points="96,133 91,117 109,114" />
<polygon fill="#817e94" fill-opacity="0.501961" points="121,122 117,135 132,139" />
<polygon fill="#c3ae5c" fill-opacity="0.501961" points="190,117 204,98 203,111" />
<polygon fill="#3c2b24" fill-opacity="0.501961" points="169,88 161,72 155,76" />
<polygon fill="#c8b2a6" fill-opacity="0.501961" points="227,6 235,17 205,13" />
<polygon fill="#7d5236" fill-opacity="0.501961" points="111,82 115,83 116,77" />
<polygon fill="#504238" fill-opacity="0.501961" points="132,108 155,122 138,118" />
<polygon fill="#9d7d5c" fill-opacity="0.501961" points="194,68 206,76 185,97" />
<polygon fill="#433530" fill-opacity="0.501961" points="248,66 187,70 235,41" />
<polygon fill="#d1d0ca" fill-opacity="0.501961" points="224,100 212,100 231,125" />
<polygon fill="#584d46" fill-opacity="0.501961" points="253,110 227,106 249,159" />
<polygon fill="#7c293d" fill-opacity="0.501961" points="57,21 45,32 74,22" />
<polygon fill="#702a41" fill-opacity="0.501961" points="81,76 90,69 94,94" />
<polygon fill="#728790" fill-opacity="0.501961" points="-5,109 21,94 12,87" />
<polygon fill="#7d94a2" fill-opacity="0.501961" points="18,31 -16,32 -16,84" />
<polygon fill="#d9d0b5" fill-opacity="0.501961" points="108,79 126,64 135,73" />
<polygon fill="#a6a3a1" fill-opacity="0.501961" points="48,77 62,87 61,95" />
<polygon fill="#284b32" fill-opacity="0.501961" points="271,87 234,88 232,112" />
<polygon fill="#44322b" fill-opacity="0.501961" points="240,89 251,55 223,81" />
<polygon fill="#e190ad" fill-opacity="0.501961" points="62,11 85,16 55,20" />
<polygon fill="#6a665d" fill-opacity="0.501961" points="254,-5 255,34 208,-16" />
<polygon fill="#938a88" fill-opacity="0.501961" points="152,29 172,2 127,21" />
<polygon fill="#2f3151" fill-opacity="0.501961" points="6,52 4,59 12,70" />
<polygon fill="#7a675d" fill-opacity="0.501961" points="183,133 207,140 188,126" />
<polygon fill="#9d3f57" fill-opacity="0.501961" points="117,42 124,49 95,63" />
<polygon fill="#8d467f" fill-opacity="0.501961" points="101,-16 100,20 91,-8" />
<polygon fill="#cbcad1" fill-opacity="0.501961" points="118,134 104,131 94,120" />
<polygon fill="#cf738f" fill-opacity="0.501961" points="80,43 116,46 84,34" />
<polygon fill="#d4d2cc" fill-opacity="0.501961" points="10,59 46,103 14,88" />
<polygon fill="#6a6759" fill-opacity="0.501961" points="253,-15 182,-16 206,13" />
<polygon fill="#72737b" fill-opacity="0.501961" points="249,62 254,50 256,76" />
<polygon fill="#906552" fill-opacity="0.501961" points="199,27 201,47 226,22" />
<polygon fill="#d6a2a2" fill-opacity="0.501961" points="125,59 130,50 124,44" />
<polygon fill="#8d919a" fill-opacity="0.501961" points="11,83 37,102 14,99" />
<polygon fill="#d8c8a0" fill-opacity="0.501961" points="176,65 159,64 176,80" />
<polygon fill="#b59486" fill-opacity="0.501961" points="149,35 203,18 153,18" />
<polygon fill="#b692bc" fill-opacity="0.501961" points="97,100 102,114 110,98" />
<polygon fill="#7f5741" fill-opacity="0.501961" points="100,85 115,96 99,95" />
<polygon fill="#3c302b" fill-opacity="0.501961" points="169,42 178,56 172,37" />
<polygon fill="#95ae95" fill-opacity="0.501961" points="97,22 96,7 87,6" />
<polygon fill="#4e555e" fill-opacity="0.501961" points="75,33 76,59 55,76" />
<polygon fill="#696057" fill-opacity="0.501961" points="225,101 229,88 236,119" />
<polygon fill="#d198b8" fill-opacity="0.501961" points="89,108 85,119 93,133" />
<polygon fill="#5f1c33" fill-opacity="0.501961" points="94,38 96,28 101,26" />
<polygon fill="#575862" fill-opacity="0.501961" points="172,130 160,154 169,151" />
<polygon fill="#d2c096" fill-opacity="0.501961" points="156,159 195,141 180,133" />
<polygon fill="#b1adb2" fill-opacity="0.501961" points="-12,27 41,27 23,17" />
<polygon fill="#e8e8e3" fill-opacity="0.501961" points="107,118 114,119 114,101" />
<polygon fill="#9294c3" fill-opacity="0.501961" points="83,81 89,88 87,103" />
<polygon fill="#593c3d" fill-opacity="0.501961" points="108,132 106,134 108,140" />
<polygon fill="#45493f" fill-opacity="0.501961" points="129,63 123,56 122,62" />
<polygon fill="#dbd0b0" fill-opacity="0.501961" points="109,84 109,57 100,82" />
<polygon fill="#883046" fill-opacity="0.501961" points="54,111 11,99 44,136" />
<polygon fill="#d5c7a5" fill-opacity="0.501961" points="160,64 173,52 172,78" />
<polygon fill="#704e4c" fill-opacity="0.501961" points="166,134 183,115 172,137" />
<polygon fill="#d5e4e6" fill-opacity="0.501961" points="118,138 116,131 109,133" />
<polygon fill="#5c6475" fill-opacity="0.501961" points="14,28 71,44 22,68" />
<polygon fill="#b67f65" fill-opacity="0.501961" points="226,125 215,137 223,139" />
<polygon fill="#c9c9c0" fill-opacity="0.501961" points="202,136 209,124 210,131" />
<polygon fill="#e1d9bb" fill-opacity="0.501961" points="177,140 183,123 176,128" />
<polygon fill="#e091b3" fill-opacity="0.501961" points="136,39 116,42 153,57" />
<polygon fill="#d0cdc7" fill-opacity="0.501961" points="198,124 216,100 227,117" />
<polygon fill="#d3cfc9" fill-opacity="0.501961" points="32,72 14,67 11,86" />
<polygon fill="#403d3a" fill-opacity="0.501961" points="227,65 197,46 208,87" />
<polygon fill="#161b19" fill-opacity="0.501961" points="255,77 255,132 271,136" />
<polygon fill="#9d3659" fill-opacity="0.501961" points="102,28 67,19 86,30" />
<polygon fill="#31588d" fill-opacity="0.501961" points="171,122 167,121 163,125" />
<polygon fill="#c4527d" fill-opacity="0.501961" points="98,110 104,120 100,129" />
<polygon fill="#544036" fill-opacity="0.501961" points="195,84 179,82 178,56" />
<polygon fill="#a9afd9" fill-opacity="0.501961" points="87,110 99,128 86,88" />
<polygon fill="#85847e" fill-opacity="0.501961" points="164,114 126,103 166,102" />
<polygon fill="#d5bbba" fill-opacity="0.501961" points="185,9 165,15 205,14" />
<polygon fill="#9d9bc7" fill-opacity="0.501961" points="184,111 184,101 204,96" />
<polygon fill="#efd573" fill-opacity="0.501961" points="216,13 210,13 219,26" />
<polygon fill="#41342b" fill-opacity="0.501961" points="163,56 161,42 154,70" />
<polygon fill="#825d20" fill-opacity="0.501961" points="202,111 191,124 195,115" />
<polygon fill="#958d83" fill-opacity="0.501961" points="161,16 125,6 192,3" />
<polygon fill="#83604f" fill-opacity="0.501961" points="190,28 175,39 184,73" />
<polygon fill="#e7d5a6" fill-opacity="0.501961" points="168,45 163,50 165,40" />
<polygon fill="#506293" fill-opacity="0.501961" points="97,131 90,119 94,117" />
<polygon fill="#5b2821" fill-opacity="0.501961" points="221,159 228,132 213,156" />
<polygon fill="#d8d5ce" fill-opacity="0.501961" points="56,133 65,120 93,130" />
<polygon fill="#d5cab1" fill-opacity="0.501961" points="111,68 134,83 140,75" />
<polygon fill="#8f6653" fill-opacity="0.501961" points="239,47 245,37 238,16" />
<polygon fill="#682936" fill-opacity="0.501961" points="-16,98 36,159 -16,156" />
<polygon fill="#848684" fill-opacity="0.501961" points="67,9 53,-16 83,10" />
<polygon fill="#2c4538" fill-opacity="0.501961" points="115,96 108,99 117,100" />
<polygon fill="#a0a4a3" fill-opacity="0.501961" points="251,85 254,69 255,82" />
<polygon fill="#969a96" fill-opacity="0.501961" points="63,6 26,8 36,0" />
<polygon fill="#574941" fill-opacity="0.501961" points="162,127 134,114 166,112" />
<polygon fill="#5c597c" fill-opacity="0.501961" points="85,103 82,92 86,88" />
<polygon fill="#d4f1e2" fill-opacity="0.501961" points="41,16 50,17 54,14" />
<polygon fill="#c4bdb7" fill-opacity="0.501961" points="93,134 72,132 67,159" />
<polygon fill="#91716a" fill-opacity="0.501961" points="163,30 139,20 157,42" />
<polygon fill="#88787c" fill-opacity="0.501961" points="81,3 6,-16 -16,8" />
<polygon fill="#e9d5f1" fill-opacity="0.501961" points="116,20 148,31 144,39" />
<polygon fill="#e5e5e0" fill-opacity="0.501961" points="194,121 204,116 196,124" />
<polygon fill="#677380" fill-opacity="0.501961" points="227,159 201,159 193,129" />
<polygon fill="#df7a9c" fill-opacity="0.501961" points="152,61 148,47 145,72" />
<polygon fill="#886550" fill-opacity="0.501961" points="217,120 229,124 209,125" />
<polygon fill="#405340" fill-opacity="0.501961" points="242,125 249,79 253,108" />
<polygon fill="#933551" fill-opacity="0.501961" points="96,54 100,45 108,42" />
<polygon fill="#723942" fill-opacity="0.501961" points="139,82 147,70 142,57" />
<polygon fill="#5e4d55" fill-opacity="0.501961" points="190,113 185,122 175,119" />
<polygon fill="#4a4640" fill-opacity="0.501961" points="232,141 234,114 271,149" />
<polygon fill="#dcdbd4" fill-opacity="0.501961" points="64,95 43,94 38,75" />
<polygon fill="#f397bd" fill-opacity="0.501961" points="100,103 105,124 99,113" />
<polygon fill="#4a443d" fill-opacity="0.501961" points="213,90 226,104 221,85" />
<polygon fill="#a03555" fill-opacity="0.501961" points="90,102 98,111 92,78" />
<polygon fill="#cec282" fill-opacity="0.501961" points="219,123 214,125 213,130" />
<polygon fill="#786449" fill-opacity="0.501961" points="192,107 194,127 183,134" />
<polygon fill="#443936" fill-opacity="0.501961" points="165,89 188,77 181,111" />
<polygon fill="#bea486" fill-opacity="0.501961" points="94,92 117,82 121,89" />
<polygon fill="#6d7e91" fill-opacity="0.501961" points="18,56 -3,56 22,29" />
<polygon fill="#7585ab" fill-opacity="0.501961" points="117,121 108,126 116,117" />
<polygon fill="#95959e" fill-opacity="0.501961" points="-16,15 -14,2 32,13" />
<polygon fill="#c96684" fill-opacity="0.501961" points="129,47 137,61 141,59" />
<polygon fill="#a94e66" fill-opacity="0.501961" points="80,131 77,134 87,132" />
<polygon fill="#cc708b" fill-opacity="0.501961" points="91,50 59,76 81,76" />
<polygon fill="#e9b8da" fill-opacity="0.501961" points="97,25 88,11 73,13" />
<polygon fill="#e1bdc9" fill-opacity="0.501961" points="100,130 100,134 98,130" />
<polygon fill="#3c2927" fill-opacity="0.501961" points="213,137 215,132 210,128" />
<polygon fill="#453633" fill-opacity="0.501961" points="203,40 192,40 188,49" />
<polygon fill="#cc5b85" fill-opacity="0.501961" points="80,18 70,17 86,25" />
<polygon fill="#3f3352" fill-opacity="0.501961" points="84,92 81,77 80,85" />
<polygon fill="#484968" fill-opacity="0.501961" points="6,79 11,80 11,72" />
<polygon fill="#d4dad9" fill-opacity="0.501961" points="129,132 139,128 133,135" />
<polygon fill="#e5d5ab" fill-opacity="0.501961" points="194,51 198,59 198,51" />
<polygon fill="#464a49" fill-opacity="0.501961" points="148,73 122,103 162,98" />
<polygon fill="#cfc1ab" fill-opacity="0.501961" points="104,88 127,92 123,98" />
<polygon fill="#b9a07f" fill-opacity="0.501961" points="182,146 195,121 187,159" />
<polygon fill="#c7ac63" fill-opacity="0.501961" points="209,93 194,113 205,109" />
<polygon fill="#e391b9" fill-opacity="0.501961" points="100,35 102,26 119,43" />
<polygon fill="#dcdecf" fill-opacity="0.501961" points="125,110 126,118 135,118" />
<polygon fill="#474856" fill-opacity="0.501961" points="176,109 176,93 184,113" />
<polygon fill="#7c767e" fill-opacity="0.501961" points="60,116 72,122 64,114" />
<polygon fill="#515a8e" fill-opacity="0.501961" points="106,109 108,115 110,100" />
<polygon fill="#574245" fill-opacity="0.501961" points="195,105 184,114 186,118" />
<polygon fill="#ccae5c" fill-opacity="0.501961" points="210,89 229,69 223,82" />
<polygon fill="#b5b5ad" fill-opacity="0.501961" points="228,132 231,124 231,130" />
<polygon fill="#a0a092" fill-opacity="0.501961" points="142,25 142,11 102,16" />
<polygon fill="#8a3a4d" fill-opacity="0.501961" points="115,106 119,97 117,115" />
<polygon fill="#cfc2a1" fill-opacity="0.501961" points="161,71 158,64 173,75" />
<polygon fill="#555b68" fill-opacity="0.501961" points="84,34 22,68 45,75" />
<polygon fill="#5c202b" fill-opacity="0.501961" points="147,159 157,159 162,129" />
<polygon fill="#cbd1e7" fill-opacity="0.501961" points="164,120 174,118 171,108" />
<polygon fill="#eceded" fill-opacity="0.501961" points="88,130 70,118 81,98" />
<polygon fill="#4c4e57" fill-opacity="0.501961" points="88,28 76,41 30,28" />
<polygon fill="#707782" fill-opacity="0.501961" points="-2,93 -16,45 1,-6" />
<polygon fill="#7b5c4e" fill-opacity="0.501961" points="198,49 197,35 220,31" />
<polygon fill="#90859b" fill-opacity="0.501961" points="114,127 126,134 133,127" />
<polygon fill="#e99bbc" fill-opacity="0.501961" points="122,39 111,37 107,49" />
<polygon fill="#7f531c" fill-opacity="0.501961" points="213,96 208,99 206,107" />
<polygon fill="#b6badc" fill-opacity="0.501961" points="91,124 94,120 101,126" />
<polygon fill="#dad8d1" fill-opacity="0.501961" points="70,84 46,78 59,76" />
<polygon fill="#403e37" fill-opacity="0.501961" points="131,70 133,65 139,67" />
<polygon fill="#44332f" fill-opacity="0.501961" points="212,51 224,28 244,87" />
<polygon fill="#686d78" fill-opacity="0.501961" points="-9,98 13,99 -12,105" />
<polygon fill="#63466c" fill-opacity="0.501961" points="96,132 98,127 103,124" />
<polygon fill="#dacdb0" fill-opacity="0.501961" points="130,63 136,84 129,92" />
<polygon fill="#79493f" fill-opacity="0.501961" points="117,77 117,80 110,84" />
<polygon fill="#8e9497" fill-opacity="0.501961" points="251,62 251,78 254,72" />
<polygon fill="#82848c" fill-opacity="0.501961" points="50,135 55,104 63,115" />
<polygon fill="#7976a1" fill-opacity="0.501961" points="109,109 100,101 107,118" />
<polygon fill="#805f4e" fill-opacity="0.501961" points="187,39 194,61 165,30" />
<polygon fill="#804948" fill-opacity="0.501961" points="100,47 91,63 98,70" />
<polygon fill="#3f4a4f" fill-opacity="0.501961" points="58,9 70,10 69,7" />
<polygon fill="#2a274a" fill-opacity="0.501961" points="8,59 7,65 3,55" />
<polygon fill="#d66987" fill-opacity="0.501961" points="124,95 120,95 118,107" />
<polygon fill="#52386a" fill-opacity="0.501961" points="149,30 149,25 146,30" />
<polygon fill="#a68666" fill-opacity="0.501961" points="192,64 194,85 203,75" />
<polygon fill="#c7c5b5" fill-opacity="0.501961" points="253,159 210,141 194,159" />
<polygon fill="#826b47" fill-opacity="0.501961" points="173,63 176,57 174,69" />
<polygon fill="#ac4169" fill-opacity="0.501961" points="95,115 93,101 105,126" />
<polygon fill="#3f3e5d" fill-opacity="0.501961" points="87,80 83,80 90,89" />
<polygon fill="#663a41" fill-opacity="0.501961" points="156,53 154,76 149,72" />
<polygon fill="#76433a" fill-opacity="0.501961" points="223,159 215,145 220,120" />
<polygon fill="#c6bcad" fill-opacity="0.501961" points="224,157 253,159 228,141" />
<polygon fill="#605546" fill-opacity="0.501961" points="253,-16 254,2 188,1" />
<polygon fill="#afb9eb" fill-opacity="0.501961" points="166,121 176,117 168,116" />
<polygon fill="#cd5e79" fill-opacity="0.501961" points="20,100 1,107 2,114" />
<polygon fill="#c66380" fill-opacity="0.501961" points="99,67 98,77 107,59" />
<polygon fill="#999796" fill-opacity="0.501961" points="39,81 27,71 32,81" />
<polygon fill="#ce6c85" fill-opacity="0.501961" points="100,98 95,102 93,91" />
<polygon fill="#d6d4ce" fill-opacity="0.501961" points="77,80 64,76 61,111" />
<polygon fill="#c1a194" fill-opacity="0.501961" points="185,27 178,28 172,15" />
<polygon fill="#67666e" fill-opacity="0.501961" points="49,130 44,139 57,137" />
<polygon fill="#687084" fill-opacity="0.501961" points="17,29 33,41 -2,28" />
<polygon fill="#dbcfb5" fill-opacity="0.501961" points="134,88 123,69 128,61" />
<polygon fill="#234b2d" fill-opacity="0.501961" points="245,31 271,30 249,37" />
<polygon fill="#837f76" fill-opacity="0.501961" points="176,5 209,12 217,2" />
<polygon fill="#cb9094" fill-opacity="0.501961" points="115,54 131,52 129,46" />
</g>
</svg>