<svg xmlns="http://www.w3.org/2000/svg" version="1.1" width="1024" height="576">
<rect x="0" y="0" width="1024" height="576" fill="#23303f" />
<g transform="scale(4.000000) translate(0.5 0.5)">
<polygon fill="#5a7891" fill-opacity="0.501961" points="241,28 -15,67 187,90" />
<polygon fill="#0b0601" fill-opacity="0.501961" points="-16,78 7,159 271,111" />
<polygon fill="#101216" fill-opacity="0.501961" points="254,159 259,75 -16,141" />
<polygon fill="#23436d" fill-opacity="0.501961" points="202,34 29,19 -16,75" />
<polygon fill="#74807b" fill-opacity="0.501961" points="153,57 191,77 84,82" />
<polygon fill="#b0d3d8" fill-opacity="0.501961" points="20,30 36,34 27,41" />
<polygon fill="#2b4462" fill-opacity="0.501961" points="188,88 184,27 271,56" />
<polygon fill="#2f3435" fill-opacity="0.501961" points="49,62 -16,65 62,124" />
<polygon fill="#10244a" fill-opacity="0.501961" points="1,17 271,-16 203,46" />
<polygon fill="#ecdfbe" fill-opacity="0.501961" points="52,78 58,63 60,76" />
<polygon fill="#e7e2cf" fill-opacity="0.501961" points="170,46 181,49 178,40" />
<polygon fill="#ccecf4" fill-opacity="0.501961" points="230,36 223,29 225,40" />
<polygon fill="#fffbde" fill-opacity="0.501961" points="5,123 4,120 10,118" />
<polygon fill="#8b897b" fill-opacity="0.501961" points="38,86 30,96 36,108" />
<polygon fill="#eceadd" fill-opacity="0.501961" points="81,65 76,55 83,58" />
<polygon fill="#aebfcb" fill-opacity="0.501961" points="145,68 146,56 162,62" />
<polygon fill="#383a2d" fill-opacity="0.501961" points="157,102 81,80 235,81" />
<polygon fill="#060e29" fill-opacity="0.501961" points="-2,-3 -2,39 70,-11" />
<polygon fill="#1c3a5e" fill-opacity="0.501961" points="229,29 98,22 108,60" />
<polygon fill="#56554f" fill-opacity="0.501961" points="101,121 85,110 55,116" />
<polygon fill="#aeaa99" fill-opacity="0.501961" points="247,96 240,98 245,104" />
<polygon fill="#6f8ca6" fill-opacity="0.501961" points="129,60 116,68 91,52" />
<polygon fill="#b9b6a6" fill-opacity="0.501961" points="163,134 160,155 147,157" />
<polygon fill="#335276" fill-opacity="0.501961" points="231,35 271,67 161,62" />
<polygon fill="#4d5753" fill-opacity="0.501961" points="41,80 94,65 133,87" />
<polygon fill="#454a4e" fill-opacity="0.501961" points="183,130 205,111 207,130" />
<polygon fill="#08122a" fill-opacity="0.501961" points="219,-16 271,10 236,34" />
<polygon fill="#96907f" fill-opacity="0.501961" points="220,-8 215,6 222,10" />
<polygon fill="#beb79c" fill-opacity="0.501961" points="127,7 137,9 130,4" />
<polygon fill="#0b1018" fill-opacity="0.501961" points="271,109 187,122 237,159" />
<polygon fill="#606f72" fill-opacity="0.501961" points="44,20 48,31 14,34" />
<polygon fill="#263d58" fill-opacity="0.501961" points="135,62 112,71 166,71" />
<polygon fill="#494d47" fill-opacity="0.501961" points="242,71 180,91 175,68" />
<polygon fill="#9e998d" fill-opacity="0.501961" points="60,119 56,109 55,117" />
<polygon fill="#4d7297" fill-opacity="0.501961" points="196,56 150,56 173,70" />
<polygon fill="#15191b" fill-opacity="0.501961" points="30,97 81,123 83,89" />
<polygon fill="#213c5d" fill-opacity="0.501961" points="162,58 63,30 181,31" />
<polygon fill="#31455c" fill-opacity="0.501961" points="36,22 20,71 57,82" />
<polygon fill="#0d1d3e" fill-opacity="0.501961" points="101,-16 66,42 46,-6" />
<polygon fill="#10141a" fill-opacity="0.501961" points="-6,56 16,141 34,101" />
<polygon fill="#87857c" fill-opacity="0.501961" points="93,118 81,112 89,120" />
<polygon fill="#1b2939" fill-opacity="0.501961" points="91,68 65,73 64,65" />
<polygon fill="#a09f95" fill-opacity="0.501961" points="190,131 187,125 193,127" />
<polygon fill="#20354f" fill-opacity="0.501961" points="193,33 256,50 193,51" />
<polygon fill="#f1e9d6" fill-opacity="0.501961" points="55,74 59,66 55,65" />
<polygon fill="#748582" fill-opacity="0.501961" points="149,71 139,83 111,73" />
<polygon fill="#11171f" fill-opacity="0.501961" points="204,118 124,87 109,159" />
<polygon fill="#eee7cf" fill-opacity="0.501961" points="33,106 34,107 36,102" />
<polygon fill="#c1d8e1" fill-opacity="0.501961" points="31,32 25,32 24,39" />
<polygon fill="#454848" fill-opacity="0.501961" points="199,93 209,112 204,133" />
<polygon fill="#676763" fill-opacity="0.501961" points="95,2 98,13 102,-10" />
<polygon fill="#70797a" fill-opacity="0.501961" points="186,92 185,77 162,58" />
<polygon fill="#f5ead1" fill-opacity="0.501961" points="102,56 102,52 99,55" />
<polygon fill="#416175" fill-opacity="0.501961" points="35,43 21,42 17,30" />
<polygon fill="#11151a" fill-opacity="0.501961" points="216,91 188,114 261,93" />
<polygon fill="#3a618b" fill-opacity="0.501961" points="146,67 107,55 147,55" />
<polygon fill="#3e5f77" fill-opacity="0.501961" points="240,27 220,24 216,34" />
<polygon fill="#213f61" fill-opacity="0.501961" points="122,20 105,60 145,50" />
<polygon fill="#a0a9a8" fill-opacity="0.501961" points="109,65 111,61 124,67" />
<polygon fill="#c9c9be" fill-opacity="0.501961" points="172,50 173,42 181,46" />
<polygon fill="#161b1e" fill-opacity="0.501961" points="180,84 162,86 201,139" />
<polygon fill="#2a3034" fill-opacity="0.501961" points="-16,91 100,91 3,64" />
<polygon fill="#0f1b32" fill-opacity="0.501961" points="225,22 160,1 209,-9" />
<polygon fill="#233546" fill-opacity="0.501961" points="162,72 169,64 154,67" />
<polygon fill="#b3b5b2" fill-opacity="0.501961" points="173,67 172,73 167,63" />
<polygon fill="#2b333b" fill-opacity="0.501961" points="189,67 271,64 245,87" />
<polygon fill="#0b0e13" fill-opacity="0.501961" points="-16,136 39,135 62,103" />
<polygon fill="#254263" fill-opacity="0.501961" points="76,56 116,51 76,28" />
<polygon fill="#57626d" fill-opacity="0.501961" points="177,33 166,30 183,50" />
<polygon fill="#172844" fill-opacity="0.501961" points="-10,30 29,19 -3,65" />
<polygon fill="#3c6690" fill-opacity="0.501961" points="82,55 109,64 83,65" />
<polygon fill="#bbd2d9" fill-opacity="0.501961" points="220,37 228,36 225,30" />
<polygon fill="#b5b39b" fill-opacity="0.501961" points="42,105 44,103 45,104" />
<polygon fill="#898a89" fill-opacity="0.501961" points="52,10 48,5 46,10" />
<polygon fill="#928367" fill-opacity="0.501961" points="45,25 46,34 39,23" />
<polygon fill="#989585" fill-opacity="0.501961" points="71,113 73,117 67,113" />
<polygon fill="#fff4d5" fill-opacity="0.501961" points="149,66 152,61 150,57" />
<polygon fill="#5d6967" fill-opacity="0.501961" points="77,81 56,71 111,73" />
<polygon fill="#1e4267" fill-opacity="0.501961" points="164,39 111,56 178,54" />
<polygon fill="#202e3f" fill-opacity="0.501961" points="71,72 110,69 90,65" />
<polygon fill="#12181f" fill-opacity="0.501961" points="73,111 96,159 113,130" />
<polygon fill="#172947" fill-opacity="0.501961" points="243,51 220,5 271,44" />
<polygon fill="#4b5664" fill-opacity="0.501961" points="203,14 193,26 197,15" />
<polygon fill="#c9ccc4" fill-opacity="0.501961" points="80,56 82,62 76,64" />
<polygon fill="#49565d" fill-opacity="0.501961" points="238,71 212,79 183,71" />
<polygon fill="#5a5853" fill-opacity="0.501961" points="151,94 164,96 146,99" />
<polygon fill="#a5a294" fill-opacity="0.501961" points="33,91 34,96 39,92" />
<polygon fill="#0c1421" fill-opacity="0.501961" points="199,154 158,133 228,129" />
<polygon fill="#111519" fill-opacity="0.501961" points="66,119 39,85 75,102" />
<polygon fill="#36434a" fill-opacity="0.501961" points="60,83 41,63 20,74" />
<polygon fill="#334c6e" fill-opacity="0.501961" points="42,68 86,54 12,53" />
<polygon fill="#436283" fill-opacity="0.501961" points="75,57 50,63 83,67" />
<polygon fill="#10161d" fill-opacity="0.501961" points="193,104 271,102 271,151" />
<polygon fill="#a9a89c" fill-opacity="0.501961" points="202,113 206,115 202,116" />
<polygon fill="#193759" fill-opacity="0.501961" points="104,41 94,59 31,33" />
<polygon fill="#465153" fill-opacity="0.501961" points="60,79 58,65 73,80" />
<polygon fill="#5d656c" fill-opacity="0.501961" points="146,7 143,8 142,0" />
<polygon fill="#73797f" fill-opacity="0.501961" points="77,34 83,35 74,29" />
<polygon fill="#38587d" fill-opacity="0.501961" points="223,63 164,66 179,48" />
<polygon fill="#4a5758" fill-opacity="0.501961" points="186,72 192,81 156,80" />
<polygon fill="#0e2349" fill-opacity="0.501961" points="92,18 155,9 204,34" />
<polygon fill="#475468" fill-opacity="0.501961" points="130,28 130,38 120,22" />
<polygon fill="#d5d0c1" fill-opacity="0.501961" points="57,63 54,67 58,77" />
<polygon fill="#edead3" fill-opacity="0.501961" points="243,99 243,102 247,98" />
<polygon fill="#101418" fill-opacity="0.501961" points="40,85 -16,132 5,87" />
<polygon fill="#837d71" fill-opacity="0.501961" points="4,86 -16,93 -12,83" />
<polygon fill="#afaa99" fill-opacity="0.501961" points="199,100 200,97 201,100" />
<polygon fill="#121f3b" fill-opacity="0.501961" points="54,-2 118,-16 165,5" />
<polygon fill="#1d2021" fill-opacity="0.501961" points="178,103 221,90 189,85" />
<polygon fill="#5f6973" fill-opacity="0.501961" points="179,18 183,16 181,22" />
<polygon fill="#5f819a" fill-opacity="0.501961" points="254,56 240,56 248,53" />
<polygon fill="#112647" fill-opacity="0.501961" points="40,20 104,9 90,33" />
<polygon fill="#1d2b38" fill-opacity="0.501961" points="202,72 181,70 210,65" />
<polygon fill="#a9a59d" fill-opacity="0.501961" points="271,12 271,34 254,29" />
<polygon fill="#1a273f" fill-opacity="0.501961" points="16,20 22,1 43,32" />
<polygon fill="#9f9d8e" fill-opacity="0.501961" points="133,9 134,3 128,9" />
<polygon fill="#4a6481" fill-opacity="0.501961" points="127,55 114,69 142,63" />
<polygon fill="#2e3635" fill-opacity="0.501961" points="126,86 51,81 88,94" />
<polygon fill="#4b6f83" fill-opacity="0.501961" points="238,33 233,37 223,29" />
<polygon fill="#d9d5c4" fill-opacity="0.501961" points="174,49 181,43 173,43" />
<polygon fill="#152739" fill-opacity="0.501961" points="31,64 49,69 31,71" />
<polygon fill="#233851" fill-opacity="0.501961" points="235,22 233,52 251,53" />
<polygon fill="#9c9989" fill-opacity="0.501961" points="72,118 69,118 69,115" />
<polygon fill="#3c5268" fill-opacity="0.501961" points="203,45 232,42 205,37" />
<polygon fill="#162a4a" fill-opacity="0.501961" points="232,19 164,22 196,42" />
<polygon fill="#5d656c" fill-opacity="0.501961" points="161,4 162,10 164,6" />
<polygon fill="#16191b" fill-opacity="0.501961" points="89,101 153,90 100,137" />
<polygon fill="#111720" fill-opacity="0.501961" points="231,159 242,96 203,120" />
<polygon fill="#192e4a" fill-opacity="0.501961" points="21,72 28,62 -15,63" />
<polygon fill="#183054" fill-opacity="0.501961" points="107,36 170,30 155,47" />
<polygon fill="#4b6a89" fill-opacity="0.501961" points="198,63 172,58 157,66" />
<polygon fill="#404f60" fill-opacity="0.501961" points="20,58 38,50 28,76" />
<polygon fill="#687a7a" fill-opacity="0.501961" points="129,72 96,75 130,81" />
<polygon fill="#3b5c74" fill-opacity="0.501961" points="35,26 15,38 20,28" />
<polygon fill="#2e4e6f" fill-opacity="0.501961" points="184,50 158,47 153,60" />
<polygon fill="#4e5760" fill-opacity="0.501961" points="71,9 66,8 67,2" />
<polygon fill="#111923" fill-opacity="0.501961" points="121,134 180,134 210,107" />
<polygon fill="#807b6d" fill-opacity="0.501961" points="7,117 13,121 4,119" />
<polygon fill="#4b5c6c" fill-opacity="0.501961" points="193,45 179,39 171,43" />
<polygon fill="#202424" fill-opacity="0.501961" points="165,92 158,98 157,84" />
<polygon fill="#c3d7dd" fill-opacity="0.501961" points="31,35 29,32 22,36" />
<polygon fill="#44657e" fill-opacity="0.501961" points="27,44 32,30 39,37" />
<polygon fill="#b6b4a9" fill-opacity="0.501961" points="156,142 162,138 160,141" />
<polygon fill="#555850" fill-opacity="0.501961" points="208,130 205,124 200,128" />
<polygon fill="#101d36" fill-opacity="0.501961" points="75,-3 45,23 60,-13" />
<polygon fill="#949994" fill-opacity="0.501961" points="73,77 70,73 73,74" />
<polygon fill="#243249" fill-opacity="0.501961" points="135,0 131,16 137,6" />
<polygon fill="#646257" fill-opacity="0.501961" points="6,125 9,121 4,123" />
<polygon fill="#4f4e47" fill-opacity="0.501961" points="45,108 47,101 36,102" />
<polygon fill="#5a585b" fill-opacity="0.501961" points="22,4 24,-10 30,-8" />
<polygon fill="#121d32" fill-opacity="0.501961" points="220,17 226,-16 271,30" />
<polygon fill="#4d5a5c" fill-opacity="0.501961" points="158,80 112,78 133,86" />
<polygon fill="#1a3150" fill-opacity="0.501961" points="58,21 83,41 28,52" />
<polygon fill="#2d3439" fill-opacity="0.501961" points="179,87 225,91 263,66" />
<polygon fill="#213c5e" fill-opacity="0.501961" points="177,56 189,50 186,36" />
<polygon fill="#767971" fill-opacity="0.501961" points="182,81 188,77 184,91" />
<polygon fill="#335779" fill-opacity="0.501961" points="105,47 112,66 104,65" />
<polygon fill="#101723" fill-opacity="0.501961" points="197,120 187,144 218,149" />
<polygon fill="#45667a" fill-opacity="0.501961" points="221,29 232,26 215,37" />
<polygon fill="#35506e" fill-opacity="0.501961" points="205,47 227,65 189,68" />
<polygon fill="#33373b" fill-opacity="0.501961" points="105,138 115,138 104,147" />
<polygon fill="#404240" fill-opacity="0.501961" points="245,105 249,101 240,101" />
<polygon fill="#2a3332" fill-opacity="0.501961" points="138,91 95,93 116,85" />
<polygon fill="#81827f" fill-opacity="0.501961" points="228,-12 217,8 217,-1" />
<polygon fill="#101418" fill-opacity="0.501961" points="65,121 29,144 -4,97" />
<polygon fill="#13223e" fill-opacity="0.501961" points="138,-6 96,-12 122,13" />
<polygon fill="#16253d" fill-opacity="0.501961" points="22,50 4,52 -16,16" />
<polygon fill="#616361" fill-opacity="0.501961" points="144,30 147,29 149,35" />
<polygon fill="#1a1a21" fill-opacity="0.501961" points="269,111 234,88 271,83" />
<polygon fill="#1f2833" fill-opacity="0.501961" points="255,67 270,83 220,65" />
<polygon fill="#304864" fill-opacity="0.501961" points="138,64 119,65 126,72" />
<polygon fill="#12213a" fill-opacity="0.501961" points="226,-8 190,21 138,-12" />
<polygon fill="#2a3e58" fill-opacity="0.501961" points="33,54 54,27 -9,66" />
<polygon fill="#323838" fill-opacity="0.501961" points="28,96 36,84 44,85" />
<polygon fill="#4e4e47" fill-opacity="0.501961" points="31,107 35,109 33,103" />
<polygon fill="#8f8c85" fill-opacity="0.501961" points="199,117 205,116 204,113" />
<polygon fill="#101c35" fill-opacity="0.501961" points="32,22 22,4 57,-5" />
<polygon fill="#233e62" fill-opacity="0.501961" points="32,60 73,59 40,50" />
<polygon fill="#537586" fill-opacity="0.501961" points="221,39 220,33 232,44" />
<polygon fill="#3e4547" fill-opacity="0.501961" points="147,153 152,159 161,134" />
<polygon fill="#242d32" fill-opacity="0.501961" points="60,70 74,71 74,67" />
<polygon fill="#465155" fill-opacity="0.501961" points="24,72 57,80 52,71" />
<polygon fill="#718692" fill-opacity="0.501961" points="154,62 151,55 145,53" />
<polygon fill="#11172a" fill-opacity="0.501961" points="-16,72 20,-2 -2,-16" />
<polygon fill="#45545b" fill-opacity="0.501961" points="191,80 172,66 184,82" />
<polygon fill="#4f5e6e" fill-opacity="0.501961" points="104,33 99,26 103,37" />
<polygon fill="#395570" fill-opacity="0.501961" points="81,44 93,66 77,53" />
<polygon fill="#47677a" fill-opacity="0.501961" points="23,29 20,37 28,45" />
<polygon fill="#4c698d" fill-opacity="0.501961" points="199,58 198,52 205,52" />
<polygon fill="#484d49" fill-opacity="0.501961" points="164,138 161,154 150,159" />
<polygon fill="#151a20" fill-opacity="0.501961" points="190,91 208,111 178,129" />
<polygon fill="#38444b" fill-opacity="0.501961" points="153,65 148,70 164,70" />
<polygon fill="#384246" fill-opacity="0.501961" points="248,69 228,81 207,80" />
<polygon fill="#64696f" fill-opacity="0.501961" points="198,17 202,16 202,20" />
<polygon fill="#344053" fill-opacity="0.501961" points="103,13 109,9 111,-3" />
<polygon fill="#5f615f" fill-opacity="0.501961" points="99,6 92,7 100,-1" />
<polygon fill="#0f1529" fill-opacity="0.501961" points="234,-16 271,11 263,37" />
<polygon fill="#121f3a" fill-opacity="0.501961" points="27,-3 53,18 47,26" />
<polygon fill="#284c6e" fill-opacity="0.501961" points="148,53 129,48 138,61" />
<polygon fill="#343d3b" fill-opacity="0.501961" points="179,81 142,84 183,93" />
<polygon fill="#b7b4a7" fill-opacity="0.501961" points="56,116 55,115 58,113" />
<polygon fill="#c2d4db" fill-opacity="0.501961" points="224,36 230,34 222,33" />
<polygon fill="#13294b" fill-opacity="0.501961" points="113,28 90,36 117,15" />
<polygon fill="#1b2229" fill-opacity="0.501961" points="209,111 210,130 202,122" />
<polygon fill="#3e6487" fill-opacity="0.501961" points="79,65 114,60 94,56" />
<polygon fill="#40566c" fill-opacity="0.501961" points="113,42 119,44 121,37" />
<polygon fill="#5c728c" fill-opacity="0.501961" points="118,59 129,63 133,55" />
<polygon fill="#8999a2" fill-opacity="0.501961" points="148,61 143,68 148,67" />
<polygon fill="#161a20" fill-opacity="0.501961" points="50,135 66,138 47,97" />
<polygon fill="#183054" fill-opacity="0.501961" points="105,47 129,27 107,29" />
<polygon fill="#3e5e73" fill-opacity="0.501961" points="236,38 233,29 227,39" />
<polygon fill="#dcd3be" fill-opacity="0.501961" points="172,70 170,66 170,72" />
<polygon fill="#a0a8af" fill-opacity="0.501961" points="155,63 156,66 159,63" />
<polygon fill="#a6afad" fill-opacity="0.501961" points="117,66 113,64 117,60" />
<polygon fill="#10161e" fill-opacity="0.501961" points="156,159 155,113 92,133" />
<polygon fill="#16191c" fill-opacity="0.501961" points="73,125 60,98 41,97" />
<polygon fill="#14233d" fill-opacity="0.501961" points="263,59 251,26 220,2" />
<polygon fill="#34597d" fill-opacity="0.501961" points="123,58 114,58 123,65" />
<polygon fill="#4d5f73" fill-opacity="0.501961" points="27,58 28,62 15,60" />
<polygon fill="#5a6873" fill-opacity="0.501961" points="235,52 230,51 230,54" />
<polygon fill="#517493" fill-opacity="0.501961" points="77,59 76,63 66,62" />
<polygon fill="#38475a" fill-opacity="0.501961" points="113,10 114,15 119,10" />
<polygon fill="#374345" fill-opacity="0.501961" points="85,87 111,83 67,78" />
<polygon fill="#293136" fill-opacity="0.501961" points="134,139 139,139 132,130" />
<polygon fill="#294a6e" fill-opacity="0.501961" points="95,60 99,51 84,59" />
<polygon fill="#294464" fill-opacity="0.501961" points="76,69 76,63 61,68" />
<polygon fill="#344148" fill-opacity="0.501961" points="128,91 148,83 112,82" />
<polygon fill="#27364d" fill-opacity="0.501961" points="90,0 97,-1 94,8" />
<polygon fill="#1a3051" fill-opacity="0.501961" points="194,23 178,40 205,45" />
<polygon fill="#1b2732" fill-opacity="0.501961" points="51,70 49,66 36,71" />
<polygon fill="#152b4b" fill-opacity="0.501961" points="52,21 66,36 98,19" />
<polygon fill="#1f2222" fill-opacity="0.501961" points="43,93 36,95 40,107" />
<polygon fill="#193151" fill-opacity="0.501961" points="143,23 168,30 169,52" />
<polygon fill="#203e5f" fill-opacity="0.501961" points="50,67 37,68 26,62" />
<polygon fill="#64747f" fill-opacity="0.501961" points="160,49 157,47 159,45" />
<polygon fill="#11151d" fill-opacity="0.501961" points="192,95 180,155 172,94" />
<polygon fill="#2f302d" fill-opacity="0.501961" points="-15,139 -16,120 4,119" />
<polygon fill="#31475d" fill-opacity="0.501961" points="3,56 20,63 -11,63" />
<polygon fill="#17273e" fill-opacity="0.501961" points="217,7 228,21 190,12" />
<polygon fill="#31587d" fill-opacity="0.501961" points="175,58 157,60 166,51" />
<polygon fill="#12213c" fill-opacity="0.501961" points="132,-12 155,17 164,11" />
<polygon fill="#8f9189" fill-opacity="0.501961" points="188,131 191,126 188,124" />
<polygon fill="#121822" fill-opacity="0.501961" points="142,136 172,113 207,121" />
<polygon fill="#1a1d25" fill-opacity="0.501961" points="17,93 24,82 -16,73" />
<polygon fill="#4d585c" fill-opacity="0.501961" points="201,79 179,71 205,72" />
<polygon fill="#5e7993" fill-opacity="0.501961" points="173,61 162,61 173,66" />
<polygon fill="#c5c4b8" fill-opacity="0.501961" points="218,-12 224,-16 219,1" />
<polygon fill="#445563" fill-opacity="0.501961" points="118,30 119,27 115,26" />
<polygon fill="#e4e1d0" fill-opacity="0.501961" points="149,59 150,63 148,66" />
<polygon fill="#36444c" fill-opacity="0.501961" points="163,65 145,71 170,71" />
<polygon fill="#415165" fill-opacity="0.501961" points="89,36 77,31 86,38" />
<polygon fill="#0f1217" fill-opacity="0.501961" points="108,137 72,124 77,114" />
<polygon fill="#1c4064" fill-opacity="0.501961" points="116,59 105,55 119,44" />
<polygon fill="#273e5b" fill-opacity="0.501961" points="212,27 214,52 219,26" />
<polygon fill="#27405b" fill-opacity="0.501961" points="226,52 237,38 200,52" />
<polygon fill="#4e4c4a" fill-opacity="0.501961" points="155,93 151,103 150,95" />
<polygon fill="#181a19" fill-opacity="0.501961" points="137,100 192,101 159,116" />
<polygon fill="#2e353c" fill-opacity="0.501961" points="191,133 195,122 191,125" />
<polygon fill="#6b7b78" fill-opacity="0.501961" points="160,72 136,81 138,74" />
<polygon fill="#262b29" fill-opacity="0.501961" points="152,85 163,85 173,102" />
<polygon fill="#63879a" fill-opacity="0.501961" points="27,33 32,32 29,30" />
<polygon fill="#132f53" fill-opacity="0.501961" points="92,26 102,39 90,43" />
<polygon fill="#9c988c" fill-opacity="0.501961" points="34,93 31,95 38,96" />
<polygon fill="#3a4243" fill-opacity="0.501961" points="76,85 57,77 56,83" />
<polygon fill="#23292a" fill-opacity="0.501961" points="68,96 33,85 84,87" />
<polygon fill="#8b8d86" fill-opacity="0.501961" points="180,82 186,85 182,81" />
<polygon fill="#1c3252" fill-opacity="0.501961" points="87,29 82,22 79,42" />
<polygon fill="#6d7068" fill-opacity="0.501961" points="52,71 54,67 54,76" />
<polygon fill="#2f3e4f" fill-opacity="0.501961" points="164,8 171,10 171,16" />
<polygon fill="#41423c" fill-opacity="0.501961" points="253,141 268,159 243,145" />
<polygon fill="#556466" fill-opacity="0.501961" points="115,82 105,71 79,72" />
<polygon fill="#1d2429" fill-opacity="0.501961" points="193,71 215,70 203,67" />
<polygon fill="#2f3e49" fill-opacity="0.501961" points="84,71 118,71 103,65" />
<polygon fill="#253953" fill-opacity="0.501961" points="232,25 248,51 238,54" />
<polygon fill="#223551" fill-opacity="0.501961" points="23,23 14,41 15,27" />
<polygon fill="#465d73" fill-opacity="0.501961" points="227,73 232,71 220,71" />
<polygon fill="#4b6c80" fill-opacity="0.501961" points="219,31 223,29 221,36" />
<polygon fill="#78766a" fill-opacity="0.501961" points="98,5 97,10 96,7" />
<polygon fill="#798184" fill-opacity="0.501961" points="168,73 173,76 169,65" />
<polygon fill="#55606a" fill-opacity="0.501961" points="141,3 147,9 141,7" />
<polygon fill="#2c425c" fill-opacity="0.501961" points="35,23 38,41 48,38" />
<polygon fill="#b7b8a7" fill-opacity="0.501961" points="132,5 132,8 131,5" />
<polygon fill="#b6bab6" fill-opacity="0.501961" points="99,56 100,52 102,57" />
<polygon fill="#0f1319" fill-opacity="0.501961" points="265,58 271,159 244,126" />
<polygon fill="#0f1114" fill-opacity="0.501961" points="24,159 -16,95 -3,152" />
<polygon fill="#30373e" fill-opacity="0.501961" points="188,123 184,133 189,132" />
<polygon fill="#47504e" fill-opacity="0.501961" points="170,81 186,88 180,79" />
<polygon fill="#112548" fill-opacity="0.501961" points="118,23 93,8 79,24" />
<polygon fill="#18263e" fill-opacity="0.501961" points="117,5 193,-1 156,-9" />
<polygon fill="#22262c" fill-opacity="0.501961" points="93,126 98,132 110,132" />
<polygon fill="#607485" fill-opacity="0.501961" points="53,61 62,66 58,61" />
<polygon fill="#4f4d45" fill-opacity="0.501961" points="34,97 39,94 35,94" />
<polygon fill="#908b81" fill-opacity="0.501961" points="202,98 200,100 198,98" />
<polygon fill="#324963" fill-opacity="0.501961" points="220,66 259,56 235,55" />
<polygon fill="#3b4d65" fill-opacity="0.501961" points="179,29 173,43 170,29" />
<polygon fill="#1b2121" fill-opacity="0.501961" points="131,104 86,94 128,91" />
<polygon fill="#244364" fill-opacity="0.501961" points="85,57 103,51 77,49" />
<polygon fill="#3f4250" fill-opacity="0.501961" points="23,9 17,11 20,12" />
<polygon fill="#18263f" fill-opacity="0.501961" points="102,-16 108,-1 98,16" />
<polygon fill="#4b4a4d" fill-opacity="0.501961" points="109,143 106,140 108,146" />
<polygon fill="#1d201f" fill-opacity="0.501961" points="171,89 176,100 200,100" />
<polygon fill="#142b4f" fill-opacity="0.501961" points="144,20 146,34 128,26" />
<polygon fill="#222426" fill-opacity="0.501961" points="74,114 67,112 81,110" />
<polygon fill="#567084" fill-opacity="0.501961" points="147,59 146,69 142,69" />
<polygon fill="#1e2123" fill-opacity="0.501961" points="93,122 98,108 107,119" />
<polygon fill="#566469" fill-opacity="0.501961" points="171,78 172,70 193,74" />
<polygon fill="#5b738c" fill-opacity="0.501961" points="152,64 157,65 154,63" />
<polygon fill="#2a4c71" fill-opacity="0.501961" points="188,61 185,53 214,59" />
<polygon fill="#b3ae9f" fill-opacity="0.501961" points="7,122 5,120 8,118" />
<polygon fill="#343634" fill-opacity="0.501961" points="3,117 10,115 1,122" />
<polygon fill="#d6d2ba" fill-opacity="0.501961" points="35,106 36,104 34,103" />
<polygon fill="#748386" fill-opacity="0.501961" points="129,72 143,77 115,76" />
<polygon fill="#828592" fill-opacity="0.501961" points="125,61 128,63 128,60" />
<polygon fill="#bec0b7" fill-opacity="0.501961" points="78,62 84,62 78,56" />
<polygon fill="#495a6f" fill-opacity="0.501961" points="129,33 132,28 124,31" />
<polygon fill="#2e3432" fill-opacity="0.501961" points="245,130 240,130 246,135" />
<polygon fill="#1e262d" fill-opacity="0.501961" points="64,139 55,135 59,127" />
<polygon fill="#214163" fill-opacity="0.501961" points="204,65 190,69 184,65" />
<polygon fill="#14181b" fill-opacity="0.501961" points="44,92 36,102 72,97" />
<polygon fill="#2b405c" fill-opacity="0.501961" points="169,40 166,34 180,36" />
<polygon fill="#687380" fill-opacity="0.501961" points="79,30 78,37 75,34" />
<polygon fill="#546160" fill-opacity="0.501961" points="141,77 156,79 141,82" />
<polygon fill="#687e93" fill-opacity="0.501961" points="78,54 75,64 78,62" />
<polygon fill="#1c2f4b" fill-opacity="0.501961" points="254,52 241,28 246,54" />
<polygon fill="#787b7c" fill-opacity="0.501961" points="51,7 47,11 46,7" />
<polygon fill="#464643" fill-opacity="0.501961" points="58,110 60,117 61,113" />
<polygon fill="#7698a9" fill-opacity="0.501961" points="25,31 27,29 26,33" />
<polygon fill="#20232a" fill-opacity="0.501961" points="210,89 263,80 238,92" />
<polygon fill="#415a6d" fill-opacity="0.501961" points="232,38 226,40 223,48" />
<polygon fill="#434441" fill-opacity="0.501961" points="197,102 201,102 198,98" />
<polygon fill="#49575b" fill-opacity="0.501961" points="81,81 73,71 107,81" />
<polygon fill="#1b385a" fill-opacity="0.501961" points="79,35 75,54 43,51" />
<polygon fill="#8d8879" fill-opacity="0.501961" points="179,91 183,90 182,89" />
<polygon fill="#243648" fill-opacity="0.501961" points="21,65 30,64 15,77" />
<polygon fill="#11203b" fill-opacity="0.501961" points="91,16 70,9 87,-16" />
<polygon fill="#101319" fill-opacity="0.501961" points="41,105 59,129 35,156" />
<polygon fill="#242b30" fill-opacity="0.501961" points="165,143 164,126 161,131" />
<polygon fill="#12213d" fill-opacity="0.501961" points="107,8 125,12 120,-16" />
<polygon fill="#5f676f" fill-opacity="0.501961" points="129,9 133,9 130,10" />
<polygon fill="#2c2e2e" fill-opacity="0.501961" points="69,117 75,118 67,121" />
<polygon fill="#34567d" fill-opacity="0.501961" points="110,67 100,67 96,63" />
<polygon fill="#151a20" fill-opacity="0.501961" points="253,107 200,110 210,93" />
<polygon fill="#5d6d6a" fill-opacity="0.501961" points="102,71 117,72 94,78" />
<polygon fill="#3e4b60" fill-opacity="0.501961" points="104,7 107,14 104,12" />
<polygon fill="#53718c" fill-opacity="0.501961" points="248,57 258,54 239,54" />
<polygon fill="#3a4445" fill-opacity="0.501961" points="184,78 212,77 190,85" />
<polygon fill="#64707a" fill-opacity="0.501961" points="123,24 121,25 126,27" />
<polygon fill="#6c7a88" fill-opacity="0.501961" points="87,60 82,59 79,55" />
<polygon fill="#2b435e" fill-opacity="0.501961" points="239,55 243,66 271,57" />
<polygon fill="#928d83" fill-opacity="0.501961" points="61,118 55,113 59,113" />
</g>
</svg>