<svg xmlns="http://www.w3.org/2000/svg" version="1.1" width="1024" height="580">
<rect x="0" y="0" width="1024" height="580" fill="#0e101e" />
<g transform="scale(4.000000) translate(0.5 0.5)">
<polygon fill="#1c49a6" fill-opacity="0.501961" points="91,160 271,112 -16,111" />
<polygon fill="#627596" fill-opacity="0.501961" points="42,115 121,115 39,156" />
<polygon fill="#043497" fill-opacity="0.501961" points="252,157 252,119 146,146" />
<polygon fill="#000000" fill-opacity="0.501961" points="-6,137 149,25 3,-16" />
<polygon fill="#988a97" fill-opacity="0.501961" points="129,40 121,80 134,84" />
<polygon fill="#060000" fill-opacity="0.501961" points="271,123 150,69 253,-16" />
<polygon fill="#2d1910" fill-opacity="0.501961" points="205,112 115,12 205,-16" />
<polygon fill="#002274" fill-opacity="0.501961" points="7,103 2,160 61,160" />
<polygon fill="#00104f" fill-opacity="0.501961" points="266,114 90,160 111,113" />
<polygon fill="#070000" fill-opacity="0.501961" points="-16,121 -11,-16 142,55" />
<polygon fill="#000000" fill-opacity="0.501961" points="226,112 197,-16 271,9" />
<polygon fill="#5193ff" fill-opacity="0.501961" points="238,130 248,132 246,141" />
<polygon fill="#3cdaff" fill-opacity="0.501961" points="124,49 133,49 127,40" />
<polygon fill="#000000" fill-opacity="0.501961" points="26,109 66,-16 101,110" />
<polygon fill="#000940" fill-opacity="0.501961" points="31,139 76,160 101,139" />
<polygon fill="#5a6d8e" fill-opacity="0.501961" points="61,115 98,140 40,137" />
<polygon fill="#ffd4fe" fill-opacity="0.501961" points="131,73 133,78 121,76" />
<polygon fill="#001a52" fill-opacity="0.501961" points="69,123 -6,125 22,108" />
<polygon fill="#595148" fill-opacity="0.501961" points="194,117 207,89 193,92" />
<polygon fill="#000000" fill-opacity="0.501961" points="244,-16 200,110 271,109" />
<polygon fill="#1a0e1a" fill-opacity="0.501961" points="120,39 81,46 125,101" />
<polygon fill="#19090e" fill-opacity="0.501961" points="197,107 137,33 126,110" />
<polygon fill="#00144b" fill-opacity="0.501961" points="216,154 252,122 208,113" />
<polygon fill="#8d1706" fill-opacity="0.501961" points="-16,110 0,61 1,160" />
<polygon fill="#191222" fill-opacity="0.501961" points="161,37 143,73 119,51" />
<polygon fill="#180f19" fill-opacity="0.501961" points="24,50 63,65 34,88" />
<polygon fill="#7a8ba4" fill-opacity="0.501961" points="91,134 81,140 74,133" />
<polygon fill="#080000" fill-opacity="0.501961" points="48,143 73,160 132,144" />
<polygon fill="#8a1306" fill-opacity="0.501961" points="0,-16 -16,38 -1,60" />
<polygon fill="#c4cbd9" fill-opacity="0.501961" points="100,120 107,122 105,114" />
<polygon fill="#95a4b5" fill-opacity="0.501961" points="78,114 79,128 82,116" />
<polygon fill="#1b3464" fill-opacity="0.501961" points="66,140 88,130 52,130" />
<polygon fill="#001b59" fill-opacity="0.501961" points="202,137 112,112 90,141" />
<polygon fill="#010000" fill-opacity="0.501961" points="136,31 6,61 0,-16" />
<polygon fill="#0a0000" fill-opacity="0.501961" points="247,143 206,144 271,160" />
<polygon fill="#04215f" fill-opacity="0.501961" points="5,143 44,142 4,105" />
<polygon fill="#190d17" fill-opacity="0.501961" points="124,44 121,99 65,106" />
<polygon fill="#95a0b9" fill-opacity="0.501961" points="39,138 42,133 56,136" />
<polygon fill="#12091b" fill-opacity="0.501961" points="143,60 175,8 92,-16" />
<polygon fill="#312012" fill-opacity="0.501961" points="162,59 208,17 162,21" />
<polygon fill="#5c97ff" fill-opacity="0.501961" points="248,137 241,136 246,129" />
<polygon fill="#080202" fill-opacity="0.501961" points="153,110 188,57 187,110" />
<polygon fill="#020000" fill-opacity="0.501961" points="69,110 109,7 3,110" />
<polygon fill="#0b2564" fill-opacity="0.501961" points="165,143 101,110 220,111" />
<polygon fill="#9ea9be" fill-opacity="0.501961" points="59,120 55,117 55,122" />
<polygon fill="#caadcf" fill-opacity="0.501961" points="124,72 133,75 126,80" />
<polygon fill="#180700" fill-opacity="0.501961" points="185,144 98,143 130,160" />
<polygon fill="#4a3221" fill-opacity="0.501961" points="163,66 174,60 197,67" />
<polygon fill="#001750" fill-opacity="0.501961" points="59,112 7,112 15,141" />
<polygon fill="#0d0502" fill-opacity="0.501961" points="197,37 160,8 187,2" />
<polygon fill="#000000" fill-opacity="0.501961" points="271,107 211,108 213,-16" />
<polygon fill="#3e3b34" fill-opacity="0.501961" points="192,29 194,4 204,25" />
<polygon fill="#1f0200" fill-opacity="0.501961" points="253,160 254,45 271,110" />
<polygon fill="#808eaa" fill-opacity="0.501961" points="49,124 48,130 69,124" />
<polygon fill="#001a55" fill-opacity="0.501961" points="103,140 118,141 97,118" />
<polygon fill="#181223" fill-opacity="0.501961" points="161,63 107,42 84,59" />
<polygon fill="#000000" fill-opacity="0.501961" points="90,70 106,58 118,71" />
<polygon fill="#112b60" fill-opacity="0.501961" points="99,123 75,123 93,118" />
<polygon fill="#001b56" fill-opacity="0.501961" points="236,140 197,113 254,111" />
<polygon fill="#0c0000" fill-opacity="0.501961" points="49,143 29,160 -5,144" />
<polygon fill="#2d1c13" fill-opacity="0.501961" points="213,85 204,59 204,111" />
<polygon fill="#9ca7bc" fill-opacity="0.501961" points="90,121 91,118 88,116" />
<polygon fill="#18101e" fill-opacity="0.501961" points="133,75 173,91 131,31" />
<polygon fill="#001a54" fill-opacity="0.501961" points="54,139 88,139 75,145" />
<polygon fill="#a78074" fill-opacity="0.501961" points="122,67 132,65 124,63" />
<polygon fill="#4f341d" fill-opacity="0.501961" points="157,47 170,55 150,55" />
<polygon fill="#abb6c5" fill-opacity="0.501961" points="78,136 79,132 84,137" />
<polygon fill="#657697" fill-opacity="0.501961" points="54,132 62,137 73,135" />
<polygon fill="#010004" fill-opacity="0.501961" points="163,44 184,57 188,43" />
<polygon fill="#0e0906" fill-opacity="0.501961" points="3,111 16,36 34,106" />
<polygon fill="#574939" fill-opacity="0.501961" points="198,110 195,104 187,111" />
<polygon fill="#110600" fill-opacity="0.501961" points="269,143 224,158 183,143" />
<polygon fill="#9caab9" fill-opacity="0.501961" points="68,117 68,119 61,116" />
<polygon fill="#171020" fill-opacity="0.501961" points="60,73 40,54 31,70" />
<polygon fill="#000740" fill-opacity="0.501961" points="74,123 70,123 70,117" />
<polygon fill="#190e1b" fill-opacity="0.501961" points="73,86 123,110 200,80" />
<polygon fill="#00124a" fill-opacity="0.501961" points="233,142 229,135 251,140" />
<polygon fill="#4a0e04" fill-opacity="0.501961" points="271,96 256,126 255,40" />
<polygon fill="#1b0e16" fill-opacity="0.501961" points="155,-2 80,-10 76,18" />
<polygon fill="#462f1f" fill-opacity="0.501961" points="163,29 164,22 183,23" />
<polygon fill="#000001" fill-opacity="0.501961" points="192,34 164,33 181,29" />
<polygon fill="#0c0000" fill-opacity="0.501961" points="-16,131 3,115 5,160" />
<polygon fill="#7bffff" fill-opacity="0.501961" points="126,46 128,41 130,47" />
<polygon fill="#161021" fill-opacity="0.501961" points="129,40 107,60 84,49" />
<polygon fill="#2b170e" fill-opacity="0.501961" points="188,42 187,111 200,89" />
<polygon fill="#19101a" fill-opacity="0.501961" points="96,95 126,71 84,72" />
<polygon fill="#102f75" fill-opacity="0.501961" points="8,112 30,111 29,117" />
<polygon fill="#000000" fill-opacity="0.501961" points="206,-8 254,-10 255,116" />
<polygon fill="#011d56" fill-opacity="0.501961" points="248,130 199,114 252,110" />
<polygon fill="#570800" fill-opacity="0.501961" points="255,0 256,39 271,-16" />
<polygon fill="#001851" fill-opacity="0.501961" points="23,140 42,131 6,115" />
<polygon fill="#607092" fill-opacity="0.501961" points="40,132 54,123 40,123" />
<polygon fill="#1a0f0b" fill-opacity="0.501961" points="211,99 193,38 212,17" />
<polygon fill="#6b7c99" fill-opacity="0.501961" points="70,130 50,124 88,125" />
<polygon fill="#412b14" fill-opacity="0.501961" points="182,3 161,-16 165,4" />
<polygon fill="#09205e" fill-opacity="0.501961" points="118,118 104,109 111,125" />
<polygon fill="#263b69" fill-opacity="0.501961" points="99,129 82,132 92,127" />
<polygon fill="#233a6d" fill-opacity="0.501961" points="39,119 48,116 47,128" />
<polygon fill="#322017" fill-opacity="0.501961" points="78,30 75,23 79,12" />
<polygon fill="#000000" fill-opacity="0.501961" points="75,10 131,41 122,21" />
<polygon fill="#7d8ba7" fill-opacity="0.501961" points="87,136 90,132 83,132" />
<polygon fill="#070306" fill-opacity="0.501961" points="203,65 191,92 201,89" />
<polygon fill="#1f3466" fill-opacity="0.501961" points="196,108 206,126 201,147" />
<polygon fill="#463d33" fill-opacity="0.501961" points="206,101 195,106 204,89" />
<polygon fill="#000000" fill-opacity="0.501961" points="73,44 50,-16 80,-16" />
<polygon fill="#99a4bc" fill-opacity="0.501961" points="52,138 50,127 49,139" />
<polygon fill="#132b63" fill-opacity="0.501961" points="57,134 54,125 53,138" />
<polygon fill="#00174e" fill-opacity="0.501961" points="150,123 116,142 158,142" />
<polygon fill="#473020" fill-opacity="0.501961" points="179,35 161,41 183,42" />
<polygon fill="#9eaabf" fill-opacity="0.501961" points="101,116 103,121 110,122" />
<polygon fill="#071f5c" fill-opacity="0.501961" points="156,117 99,122 107,137" />
<polygon fill="#170e1d" fill-opacity="0.501961" points="152,60 108,107 148,109" />
<polygon fill="#080101" fill-opacity="0.501961" points="188,100 161,87 151,100" />
<polygon fill="#123171" fill-opacity="0.501961" points="5,132 4,112 10,111" />
<polygon fill="#34437a" fill-opacity="0.501961" points="154,142 176,148 190,142" />
<polygon fill="#080400" fill-opacity="0.501961" points="67,143 98,143 54,160" />
<polygon fill="#5f474e" fill-opacity="0.501961" points="122,76 122,84 132,84" />
<polygon fill="#266f7a" fill-opacity="0.501961" points="126,51 128,54 125,56" />
<polygon fill="#0c2c6a" fill-opacity="0.501961" points="84,143 116,143 104,136" />
<polygon fill="#001951" fill-opacity="0.501961" points="95,129 81,131 88,132" />
<polygon fill="#0a2358" fill-opacity="0.501961" points="76,131 65,128 65,133" />
<polygon fill="#0e0608" fill-opacity="0.501961" points="192,143 131,143 140,160" />
<polygon fill="#070201" fill-opacity="0.501961" points="154,56 149,65 176,55" />
<polygon fill="#002c5e" fill-opacity="0.501961" points="123,43 127,40 124,48" />
<polygon fill="#193169" fill-opacity="0.501961" points="46,136 51,130 48,130" />
<polygon fill="#5e7190" fill-opacity="0.501961" points="65,116 50,119 57,114" />
<polygon fill="#0d2663" fill-opacity="0.501961" points="91,111 93,128 96,110" />
<polygon fill="#170f19" fill-opacity="0.501961" points="119,75 97,31 127,51" />
<polygon fill="#3d291c" fill-opacity="0.501961" points="170,70 160,60 181,60" />
<polygon fill="#150e1a" fill-opacity="0.501961" points="125,97 124,81 70,101" />
<polygon fill="#422c1f" fill-opacity="0.501961" points="183,30 167,28 184,23" />
<polygon fill="#617297" fill-opacity="0.501961" points="49,117 41,118 46,119" />
<polygon fill="#050000" fill-opacity="0.501961" points="102,109 100,98 63,110" />
<polygon fill="#000000" fill-opacity="0.501961" points="67,109 36,92 87,67" />
<polygon fill="#001852" fill-opacity="0.501961" points="4,123 23,112 49,123" />
<polygon fill="#102d69" fill-opacity="0.501961" points="45,140 49,150 47,129" />
<polygon fill="#455881" fill-opacity="0.501961" points="90,129 92,123 101,130" />
<polygon fill="#160f1d" fill-opacity="0.501961" points="133,76 168,-16 131,6" />
<polygon fill="#001850" fill-opacity="0.501961" points="53,114 37,117 49,118" />
<polygon fill="#001950" fill-opacity="0.501961" points="136,128 120,142 86,140" />
<polygon fill="#342f24" fill-opacity="0.501961" points="190,15 199,9 198,-9" />
<polygon fill="#0b0400" fill-opacity="0.501961" points="216,10 196,18 208,-8" />
<polygon fill="#362014" fill-opacity="0.501961" points="187,43 192,59 192,25" />
<polygon fill="#0c0606" fill-opacity="0.501961" points="66,72 28,72 2,110" />
<polygon fill="#651811" fill-opacity="0.501961" points="0,143 -16,160 0,114" />
<polygon fill="#593b35" fill-opacity="0.501961" points="123,68 134,72 131,66" />
<polygon fill="#5d92ff" fill-opacity="0.501961" points="242,132 244,138 246,132" />
<polygon fill="#0d0707" fill-opacity="0.501961" points="40,-16 59,11 35,38" />
<polygon fill="#697999" fill-opacity="0.501961" points="90,128 85,130 87,118" />
<polygon fill="#001a56" fill-opacity="0.501961" points="80,110 88,114 74,115" />
<polygon fill="#041c58" fill-opacity="0.501961" points="190,113 196,141 127,112" />
<polygon fill="#b2bccc" fill-opacity="0.501961" points="102,120 103,115 100,119" />
<polygon fill="#020000" fill-opacity="0.501961" points="112,10 123,44 80,25" />
<polygon fill="#0e2d5d" fill-opacity="0.501961" points="70,124 69,118 80,122" />
<polygon fill="#110804" fill-opacity="0.501961" points="184,-6 186,31 194,0" />
<polygon fill="#011a51" fill-opacity="0.501961" points="6,140 5,112 42,112" />
<polygon fill="#0d0809" fill-opacity="0.501961" points="194,94 204,55 193,54" />
<polygon fill="#3d2c24" fill-opacity="0.501961" points="51,109 52,100 54,112" />
<polygon fill="#1e316e" fill-opacity="0.501961" points="102,115 121,111 103,110" />
<polygon fill="#150d1a" fill-opacity="0.501961" points="115,65 140,58 120,54" />
<polygon fill="#020103" fill-opacity="0.501961" points="187,21 187,44 183,33" />
<polygon fill="#284a92" fill-opacity="0.501961" points="185,111 196,114 198,111" />
<polygon fill="#8f9cb4" fill-opacity="0.501961" points="43,139 49,133 41,134" />
<polygon fill="#000000" fill-opacity="0.501961" points="212,27 213,110 257,109" />
<polygon fill="#38271b" fill-opacity="0.501961" points="204,62 193,67 206,66" />
<polygon fill="#3e2a1c" fill-opacity="0.501961" points="154,47 172,54 172,47" />
<polygon fill="#170f1b" fill-opacity="0.501961" points="128,99 82,100 124,80" />
<polygon fill="#001851" fill-opacity="0.501961" points="91,128 105,135 97,140" />
<polygon fill="#021a56" fill-opacity="0.501961" points="18,116 45,132 25,129" />
<polygon fill="#180f1a" fill-opacity="0.501961" points="135,80 100,110 121,111" />
<polygon fill="#281b15" fill-opacity="0.501961" points="165,111 165,89 169,100" />
<polygon fill="#000100" fill-opacity="0.501961" points="1,98 14,75 1,29" />
<polygon fill="#0b245b" fill-opacity="0.501961" points="84,122 95,124 91,121" />
<polygon fill="#301f17" fill-opacity="0.501961" points="190,84 189,77 203,78" />
<polygon fill="#5a6f8f" fill-opacity="0.501961" points="63,120 74,119 76,115" />
<polygon fill="#000000" fill-opacity="0.501961" points="109,62 113,73 89,66" />
<polygon fill="#030104" fill-opacity="0.501961" points="202,27 194,32 202,39" />
<polygon fill="#8895af" fill-opacity="0.501961" points="90,126 89,128 87,124" />
<polygon fill="#54678a" fill-opacity="0.501961" points="54,122 65,117 64,121" />
<polygon fill="#062256" fill-opacity="0.501961" points="81,129 80,132 70,132" />
<polygon fill="#0c0606" fill-opacity="0.501961" points="192,64 170,83 162,74" />
<polygon fill="#012059" fill-opacity="0.501961" points="77,114 53,115 66,110" />
<polygon fill="#637394" fill-opacity="0.501961" points="91,139 84,132 92,132" />
<polygon fill="#9aa6bc" fill-opacity="0.501961" points="52,132 50,132 54,137" />
<polygon fill="#2b1c14" fill-opacity="0.501961" points="177,97 181,98 183,110" />
<polygon fill="#160805" fill-opacity="0.501961" points="198,104 208,110 217,103" />
<polygon fill="#112f6a" fill-opacity="0.501961" points="252,117 252,110 241,112" />
<polygon fill="#16397d" fill-opacity="0.501961" points="247,143 230,143 237,140" />
<polygon fill="#0a2f7e" fill-opacity="0.501961" points="41,143 58,143 49,139" />
<polygon fill="#463e38" fill-opacity="0.501961" points="194,96 204,88 196,110" />
<polygon fill="#13336e" fill-opacity="0.501961" points="71,143 84,143 88,136" />
<polygon fill="#182e62" fill-opacity="0.501961" points="189,113 200,112 197,128" />
<polygon fill="#193465" fill-opacity="0.501961" points="61,117 66,123 61,112" />
<polygon fill="#001851" fill-opacity="0.501961" points="251,112 251,128 209,141" />
<polygon fill="#0e295a" fill-opacity="0.501961" points="77,121 71,123 78,114" />
<polygon fill="#001049" fill-opacity="0.501961" points="62,130 58,130 59,132" />
<polygon fill="#4c5a7a" fill-opacity="0.501961" points="199,142 206,142 200,146" />
<polygon fill="#54668b" fill-opacity="0.501961" points="94,126 98,132 96,115" />
<polygon fill="#051e53" fill-opacity="0.501961" points="52,115 54,118 55,116" />
<polygon fill="#94a0b5" fill-opacity="0.501961" points="73,134 75,131 70,135" />
<polygon fill="#4c3638" fill-opacity="0.501961" points="122,65 137,74 123,70" />
<polygon fill="#6d7b9a" fill-opacity="0.501961" points="65,130 69,128 63,124" />
<polygon fill="#000000" fill-opacity="0.501961" points="175,109 168,100 179,95" />
<polygon fill="#160e1d" fill-opacity="0.501961" points="115,21 108,-10 177,21" />
<polygon fill="#170f1d" fill-opacity="0.501961" points="131,110 167,68 134,70" />
<polygon fill="#0a060f" fill-opacity="0.501961" points="34,110 18,109 25,73" />
<polygon fill="#001951" fill-opacity="0.501961" points="222,142 209,131 252,141" />
<polygon fill="#193e8b" fill-opacity="0.501961" points="73,143 60,143 67,141" />
<polygon fill="#9cefff" fill-opacity="0.501961" points="131,46 127,46 126,44" />
<polygon fill="#0a1d3b" fill-opacity="0.501961" points="130,53 131,35 134,42" />
<polygon fill="#040300" fill-opacity="0.501961" points="2,117 15,69 1,51" />
<polygon fill="#2c1e15" fill-opacity="0.501961" points="38,84 34,87 37,78" />
<polygon fill="#000000" fill-opacity="0.501961" points="119,44 126,40 118,31" />
<polygon fill="#160e1b" fill-opacity="0.501961" points="139,56 166,31 120,9" />
<polygon fill="#251912" fill-opacity="0.501961" points="114,35 117,43 117,34" />
<polygon fill="#443120" fill-opacity="0.501961" points="199,38 202,39 195,42" />
<polygon fill="#080308" fill-opacity="0.501961" points="183,22 170,4 161,14" />
<polygon fill="#0b275a" fill-opacity="0.501961" points="73,120 69,113 71,123" />
<polygon fill="#1e3f88" fill-opacity="0.501961" points="33,142 37,141 41,143" />
<polygon fill="#0e0600" fill-opacity="0.501961" points="261,106 247,111 256,111" />
<polygon fill="#55678b" fill-opacity="0.501961" points="72,132 55,132 61,137" />
<polygon fill="#546789" fill-opacity="0.501961" points="85,136 94,138 87,139" />
<polygon fill="#1a1122" fill-opacity="0.501961" points="84,60 109,55 94,63" />
<polygon fill="#7e8fa7" fill-opacity="0.501961" points="73,115 75,121 72,117" />
<polygon fill="#ccadcf" fill-opacity="0.501961" points="123,76 134,80 126,73" />
<polygon fill="#3a271a" fill-opacity="0.501961" points="184,60 182,68 163,67" />
<polygon fill="#051e5b" fill-opacity="0.501961" points="106,113 162,112 119,137" />
<polygon fill="#7685a4" fill-opacity="0.501961" points="48,132 51,135 43,132" />
<polygon fill="#050105" fill-opacity="0.501961" points="194,54 207,38 194,47" />
<polygon fill="#001252" fill-opacity="0.501961" points="51,120 46,124 43,121" />
<polygon fill="#041d58" fill-opacity="0.501961" points="7,143 39,141 40,116" />
<polygon fill="#000000" fill-opacity="0.501961" points="100,43 81,7 80,47" />
<polygon fill="#120c18" fill-opacity="0.501961" points="56,71 23,72 32,52" />
<polygon fill="#1e3e8f" fill-opacity="0.501961" points="165,111 159,114 149,111" />
<polygon fill="#07205c" fill-opacity="0.501961" points="199,112 120,112 154,127" />
<polygon fill="#18101c" fill-opacity="0.501961" points="144,86 135,95 130,78" />
<polygon fill="#3b2716" fill-opacity="0.501961" points="103,40 100,35 102,44" />
<polygon fill="#94a0b4" fill-opacity="0.501961" points="80,115 79,117 84,120" />
<polygon fill="#0a2258" fill-opacity="0.501961" points="93,132 91,126 98,133" />
<polygon fill="#0d0d0c" fill-opacity="0.501961" points="189,143 229,143 199,155" />
<polygon fill="#183163" fill-opacity="0.501961" points="65,138 75,135 66,135" />
<polygon fill="#342418" fill-opacity="0.501961" points="206,47 207,51 196,53" />
<polygon fill="#1b3364" fill-opacity="0.501961" points="70,133 60,134 69,126" />
<polygon fill="#122c65" fill-opacity="0.501961" points="48,132 43,143 47,143" />
<polygon fill="#000000" fill-opacity="0.501961" points="89,84 59,86 58,13" />
<polygon fill="#1c4086" fill-opacity="0.501961" points="253,138 252,143 251,135" />
<polygon fill="#000000" fill-opacity="0.501961" points="86,110 45,86 57,110" />
<polygon fill="#000000" fill-opacity="0.501961" points="213,92 212,-2 255,-2" />
<polygon fill="#194291" fill-opacity="0.501961" points="53,113 60,111 46,111" />
<polygon fill="#021b4b" fill-opacity="0.501961" points="76,134 79,160 87,160" />
<polygon fill="#000000" fill-opacity="0.501961" points="163,104 153,104 158,110" />
<polygon fill="#6c7c9c" fill-opacity="0.501961" points="90,122 87,116 91,117" />
<polygon fill="#312a24" fill-opacity="0.501961" points="207,26 191,15 192,5" />
<polygon fill="#1d3e8e" fill-opacity="0.501961" points="127,111 116,111 116,114" />
<polygon fill="#153a7b" fill-opacity="0.501961" points="130,140 139,143 124,143" />
<polygon fill="#071f5b" fill-opacity="0.501961" points="101,142 113,112 161,112" />
<polygon fill="#001951" fill-opacity="0.501961" points="147,124 101,142 146,142" />
<polygon fill="#6a7b99" fill-opacity="0.501961" points="80,125 60,125 68,130" />
<polygon fill="#000f48" fill-opacity="0.501961" points="74,123 79,123 74,119" />
<polygon fill="#123274" fill-opacity="0.501961" points="252,135 253,122 249,122" />
<polygon fill="#001850" fill-opacity="0.501961" points="252,130 249,113 214,112" />
<polygon fill="#627595" fill-opacity="0.501961" points="76,126 74,130 73,120" />
<polygon fill="#030002" fill-opacity="0.501961" points="203,65 198,70 203,75" />
<polygon fill="#331f16" fill-opacity="0.501961" points="189,53 189,84 194,70" />
<polygon fill="#0f0917" fill-opacity="0.501961" points="153,47 166,47 158,36" />
<polygon fill="#1a0c0a" fill-opacity="0.501961" points="194,17 185,19 193,29" />
<polygon fill="#05010b" fill-opacity="0.501961" points="172,45 172,54 185,56" />
<polygon fill="#362719" fill-opacity="0.501961" points="205,45 207,38 204,31" />
<polygon fill="#6c7c9c" fill-opacity="0.501961" points="51,124 46,126 42,125" />
<polygon fill="#5c6e91" fill-opacity="0.501961" points="59,124 53,130 66,130" />
<polygon fill="#00174f" fill-opacity="0.501961" points="198,142 200,127 183,141" />
<polygon fill="#271b10" fill-opacity="0.501961" points="184,-8 184,12 176,10" />
<polygon fill="#372515" fill-opacity="0.501961" points="162,51 150,47 147,55" />
<polygon fill="#17347f" fill-opacity="0.501961" points="181,116 184,111 171,111" />
<polygon fill="#123377" fill-opacity="0.501961" points="74,115 60,111 79,111" />
<polygon fill="#1f120e" fill-opacity="0.501961" points="212,95 198,111 211,110" />
<polygon fill="#0a0b06" fill-opacity="0.501961" points="54,143 45,160 4,143" />
<polygon fill="#170f1d" fill-opacity="0.501961" points="81,46 105,60 133,50" />
<polygon fill="#160e1c" fill-opacity="0.501961" points="125,80 79,87 108,108" />
<polygon fill="#000a47" fill-opacity="0.501961" points="94,120 94,117 92,119" />
<polygon fill="#180e1c" fill-opacity="0.501961" points="79,4 120,-2 96,15" />
<polygon fill="#17101a" fill-opacity="0.501961" points="126,103 121,74 84,72" />
<polygon fill="#36312c" fill-opacity="0.501961" points="204,25 205,17 195,22" />
<polygon fill="#352512" fill-opacity="0.501961" points="108,80 105,74 112,77" />
<polygon fill="#000f4a" fill-opacity="0.501961" points="83,116 84,113 84,117" />
<polygon fill="#3c517b" fill-opacity="0.501961" points="87,133 84,132 84,137" />
<polygon fill="#071f5c" fill-opacity="0.501961" points="189,113 188,142 108,112" />
<polygon fill="#7686a1" fill-opacity="0.501961" points="64,116 68,115 70,121" />
<polygon fill="#163167" fill-opacity="0.501961" points="228,114 236,111 224,110" />
<polygon fill="#1a3263" fill-opacity="0.501961" points="82,130 86,124 84,117" />
<polygon fill="#1e3f8a" fill-opacity="0.501961" points="128,111 138,114 147,111" />
<polygon fill="#071f5c" fill-opacity="0.501961" points="116,112 165,112 98,139" />
<polygon fill="#001452" fill-opacity="0.501961" points="65,142 46,142 54,139" />
<polygon fill="#001653" fill-opacity="0.501961" points="252,135 248,130 251,141" />
<polygon fill="#224795" fill-opacity="0.501961" points="14,111 26,111 19,113" />
<polygon fill="#021b51" fill-opacity="0.501961" points="7,135 6,112 24,112" />
<polygon fill="#897070" fill-opacity="0.501961" points="133,67 124,66 128,63" />
<polygon fill="#040002" fill-opacity="0.501961" points="179,89 186,85 188,105" />
<polygon fill="#00174c" fill-opacity="0.501961" points="45,112 51,117 57,113" />
<polygon fill="#0f295c" fill-opacity="0.501961" points="71,129 72,132 78,132" />
<polygon fill="#58698d" fill-opacity="0.501961" points="94,127 98,126 92,130" />
<polygon fill="#3b507c" fill-opacity="0.501961" points="61,134 54,135 68,139" />
<polygon fill="#001b54" fill-opacity="0.501961" points="67,143 70,139 70,134" />
<polygon fill="#2f1507" fill-opacity="0.501961" points="190,110 193,101 189,95" />
<polygon fill="#021e56" fill-opacity="0.501961" points="89,143 102,137 79,140" />
<polygon fill="#3a140d" fill-opacity="0.501961" points="255,115 256,150 271,118" />
<polygon fill="#150d18" fill-opacity="0.501961" points="147,48 160,92 132,72" />
<polygon fill="#0e2c6a" fill-opacity="0.501961" points="17,138 2,143 31,142" />
<polygon fill="#00164e" fill-opacity="0.501961" points="5,132 39,141 8,142" />
<polygon fill="#000402" fill-opacity="0.501961" points="253,112 253,143 261,119" />
<polygon fill="#0c0809" fill-opacity="0.501961" points="24,64 22,27 31,34" />
<polygon fill="#365dbe" fill-opacity="0.501961" points="90,111 92,112 95,111" />
<polygon fill="#513b25" fill-opacity="0.501961" points="200,76 197,79 205,76" />
<polygon fill="#001b53" fill-opacity="0.501961" points="248,141 206,138 208,121" />
<polygon fill="#41130f" fill-opacity="0.501961" points="255,108 256,139 271,160" />
<polygon fill="#193a7f" fill-opacity="0.501961" points="252,113 250,119 253,124" />
<polygon fill="#213b68" fill-opacity="0.501961" points="59,128 61,116 63,120" />
<polygon fill="#7d8ca6" fill-opacity="0.501961" points="66,117 63,116 63,122" />
<polygon fill="#0e0904" fill-opacity="0.501961" points="18,109 18,50 3,104" />
<polygon fill="#183a7c" fill-opacity="0.501961" points="225,143 218,140 216,143" />
<polygon fill="#000000" fill-opacity="0.501961" points="254,110 212,110 214,2" />
<polygon fill="#000001" fill-opacity="0.501961" points="160,60 153,59 153,68" />
<polygon fill="#0a060b" fill-opacity="0.501961" points="187,41 181,47 186,67" />
<polygon fill="#95a2b8" fill-opacity="0.501961" points="77,136 85,136 78,134" />
<polygon fill="#241711" fill-opacity="0.501961" points="51,14 48,16 48,25" />
<polygon fill="#000000" fill-opacity="0.501961" points="84,46 76,97 33,31" />
<polygon fill="#07205d" fill-opacity="0.501961" points="105,137 106,120 108,128" />
<polygon fill="#8997b1" fill-opacity="0.501961" points="56,132 55,134 58,132" />
<polygon fill="#001952" fill-opacity="0.501961" points="251,115 207,141 234,142" />
<polygon fill="#3e3632" fill-opacity="0.501961" points="193,30 205,22 194,22" />
<polygon fill="#3a261b" fill-opacity="0.501961" points="168,35 183,41 185,34" />
<polygon fill="#6f809d" fill-opacity="0.501961" points="55,116 59,118 60,115" />
<polygon fill="#041d5c" fill-opacity="0.501961" points="123,130 110,122 96,122" />
<polygon fill="#060003" fill-opacity="0.501961" points="118,15 90,25 104,10" />
<polygon fill="#106980" fill-opacity="0.501961" points="131,54 127,56 127,54" />
<polygon fill="#190d17" fill-opacity="0.501961" points="133,64 133,53 126,59" />
<polygon fill="#001754" fill-opacity="0.501961" points="47,125 46,129 48,132" />
<polygon fill="#001952" fill-opacity="0.501961" points="252,114 250,128 229,126" />
<polygon fill="#001750" fill-opacity="0.501961" points="94,139 104,141 95,129" />
<polygon fill="#070205" fill-opacity="0.501961" points="202,90 204,77 195,84" />
<polygon fill="#051e51" fill-opacity="0.501961" points="67,112 60,112 72,117" />
<polygon fill="#2f4580" fill-opacity="0.501961" points="151,142 154,156 157,142" />
<polygon fill="#8794ae" fill-opacity="0.501961" points="51,138 44,138 41,132" />
<polygon fill="#56698c" fill-opacity="0.501961" points="85,137 75,139 70,135" />
<polygon fill="#394d7d" fill-opacity="0.501961" points="202,111 191,113 194,110" />
<polygon fill="#040000" fill-opacity="0.501961" points="35,88 15,71 34,74" />
<polygon fill="#76595b" fill-opacity="0.501961" points="129,84 123,80 129,80" />
<polygon fill="#0e0e0d" fill-opacity="0.501961" points="2,93 12,94 11,111" />
<polygon fill="#311c13" fill-opacity="0.501961" points="190,95 188,79 194,87" />
<polygon fill="#021b54" fill-opacity="0.501961" points="10,139 7,120 43,131" />
</g>
</svg>