<svg xmlns="http://www.w3.org/2000/svg" version="1.1" width="1024" height="580">
<rect x="0" y="0" width="1024" height="580" fill="#0f101f" />
<g transform="scale(4.000000) translate(0.5 0.5)">
<polygon fill="#1e4ca8" fill-opacity="0.501961" points="100,160 -16,112 271,111" />
<polygon fill="#003398" fill-opacity="0.501961" points="157,143 249,118 253,143" />
<polygon fill="#000000" fill-opacity="0.501961" points="-16,146 149,25 3,-16" />
<polygon fill="#050000" fill-opacity="0.501961" points="271,122 148,69 251,-16" />
<polygon fill="#4e638b" fill-opacity="0.501961" points="6,134 92,111 140,141" />
<polygon fill="#f9cadc" fill-opacity="0.501961" points="133,79 127,62 122,79" />
<polygon fill="#002073" fill-opacity="0.501961" points="66,143 4,106 4,142" />
<polygon fill="#2a1914" fill-opacity="0.501961" points="204,-16 90,54 209,105" />
<polygon fill="#00124e" fill-opacity="0.501961" points="202,156 271,109 95,123" />
<polygon fill="#040000" fill-opacity="0.501961" points="102,110 68,-16 -16,109" />
<polygon fill="#46ffff" fill-opacity="0.501961" points="131,39 129,49 125,45" />
<polygon fill="#000000" fill-opacity="0.501961" points="271,2 238,111 194,-13" />
<polygon fill="#6e7f99" fill-opacity="0.501961" points="74,132 105,115 53,116" />
<polygon fill="#5da2ff" fill-opacity="0.501961" points="240,137 245,129 251,139" />
<polygon fill="#000c3b" fill-opacity="0.501961" points="57,139 114,160 157,139" />
<polygon fill="#001859" fill-opacity="0.501961" points="133,109 203,129 88,132" />
<polygon fill="#927884" fill-opacity="0.501961" points="132,62 127,87 121,64" />
<polygon fill="#a2aebf" fill-opacity="0.501961" points="128,132 126,138 108,133" />
<polygon fill="#030000" fill-opacity="0.501961" points="-16,68 141,39 10,-16" />
<polygon fill="#5f574f" fill-opacity="0.501961" points="194,120 194,94 205,89" />
<polygon fill="#001651" fill-opacity="0.501961" points="7,110 38,113 44,160" />
<polygon fill="#000000" fill-opacity="0.501961" points="271,109 212,110 212,-5" />
<polygon fill="#0b0000" fill-opacity="0.501961" points="152,109 194,102 165,69" />
<polygon fill="#73839b" fill-opacity="0.501961" points="48,136 72,131 79,139" />
<polygon fill="#901709" fill-opacity="0.501961" points="-16,66 -1,93 0,20" />
<polygon fill="#040000" fill-opacity="0.501961" points="131,72 81,72 106,57" />
<polygon fill="#8e9bb5" fill-opacity="0.501961" points="106,117 79,115 96,121" />
<polygon fill="#150c0c" fill-opacity="0.501961" points="-16,125 58,75 26,42" />
<polygon fill="#243d6a" fill-opacity="0.501961" points="87,113 95,124 58,124" />
<polygon fill="#6b1206" fill-opacity="0.501961" points="0,44 -1,149 -16,100" />
<polygon fill="#03205b" fill-opacity="0.501961" points="4,111 5,143 60,113" />
<polygon fill="#291a0d" fill-opacity="0.501961" points="163,-16 162,56 212,21" />
<polygon fill="#000000" fill-opacity="0.501961" points="94,15 73,110 25,110" />
<polygon fill="#0d0000" fill-opacity="0.501961" points="92,143 145,160 167,143" />
<polygon fill="#a6b1c1" fill-opacity="0.501961" points="71,126 75,124 74,139" />
<polygon fill="#8793aa" fill-opacity="0.501961" points="42,129 40,124 57,130" />
<polygon fill="#d7bae3" fill-opacity="0.501961" points="129,73 122,76 134,80" />
<polygon fill="#1d0f18" fill-opacity="0.501961" points="124,99 122,61 68,100" />
<polygon fill="#7a89a5" fill-opacity="0.501961" points="118,137 108,132 98,138" />
<polygon fill="#000000" fill-opacity="0.501961" points="198,-16 263,134 250,-16" />
<polygon fill="#170c1a" fill-opacity="0.501961" points="175,5 122,-2 143,110" />
<polygon fill="#190d16" fill-opacity="0.501961" points="168,47 96,109 154,110" />
<polygon fill="#423f39" fill-opacity="0.501961" points="203,24 193,-2 195,28" />
<polygon fill="#0d2967" fill-opacity="0.501961" points="10,142 54,143 58,128" />
<polygon fill="#01215f" fill-opacity="0.501961" points="246,146 255,132 251,118" />
<polygon fill="#3a2717" fill-opacity="0.501961" points="150,44 165,67 194,67" />
<polygon fill="#0b2561" fill-opacity="0.501961" points="196,112 211,142 123,143" />
<polygon fill="#122a5b" fill-opacity="0.501961" points="76,132 53,125 57,133" />
<polygon fill="#080205" fill-opacity="0.501961" points="188,24 155,12 191,1" />
<polygon fill="#00114f" fill-opacity="0.501961" points="89,122 98,132 124,127" />
<polygon fill="#171124" fill-opacity="0.501961" points="25,72 37,51 56,71" />
<polygon fill="#140f25" fill-opacity="0.501961" points="108,36 152,65 89,58" />
<polygon fill="#8f9aae" fill-opacity="0.501961" points="66,123 67,130 62,126" />
<polygon fill="#190100" fill-opacity="0.501961" points="271,84 253,46 254,147" />
<polygon fill="#2784c5" fill-opacity="0.501961" points="123,47 130,39 131,50" />
<polygon fill="#092160" fill-opacity="0.501961" points="193,110 100,110 137,138" />
<polygon fill="#8b98b2" fill-opacity="0.501961" points="89,121 86,116 106,119" />
<polygon fill="#010000" fill-opacity="0.501961" points="110,10 -3,45 132,40" />
<polygon fill="#000344" fill-opacity="0.501961" points="81,112 85,116 95,112" />
<polygon fill="#00164e" fill-opacity="0.501961" points="256,112 201,112 220,134" />
<polygon fill="#000000" fill-opacity="0.501961" points="253,110 254,-16 203,109" />
<polygon fill="#7d686f" fill-opacity="0.501961" points="129,79 125,82 133,84" />
<polygon fill="#830f00" fill-opacity="0.501961" points="0,1 -1,21 -16,-16" />
<polygon fill="#49311d" fill-opacity="0.501961" points="163,29 184,24 162,21" />
<polygon fill="#0b0508" fill-opacity="0.501961" points="186,66 145,103 188,111" />
<polygon fill="#0f0707" fill-opacity="0.501961" points="204,26 202,49 145,66" />
<polygon fill="#331d13" fill-opacity="0.501961" points="188,31 198,41 188,78" />
<polygon fill="#423020" fill-opacity="0.501961" points="189,92 191,111 210,98" />
<polygon fill="#090000" fill-opacity="0.501961" points="58,143 75,160 126,143" />
<polygon fill="#550800" fill-opacity="0.501961" points="254,49 271,47 256,-16" />
<polygon fill="#4a321e" fill-opacity="0.501961" points="165,47 173,54 146,55" />
<polygon fill="#001650" fill-opacity="0.501961" points="48,121 66,122 55,125" />
<polygon fill="#121728" fill-opacity="0.501961" points="136,68 123,47 134,50" />
<polygon fill="#00164f" fill-opacity="0.501961" points="18,141 3,122 48,132" />
<polygon fill="#170d1a" fill-opacity="0.501961" points="94,-16 171,-16 138,54" />
<polygon fill="#422b1c" fill-opacity="0.501961" points="193,37 169,42 160,34" />
<polygon fill="#052055" fill-opacity="0.501961" points="81,130 59,130 70,133" />
<polygon fill="#2f1f17" fill-opacity="0.501961" points="75,31 78,10 81,24" />
<polygon fill="#5389ff" fill-opacity="0.501961" points="246,129 243,138 247,138" />
<polygon fill="#7a89a4" fill-opacity="0.501961" points="61,121 60,115 48,118" />
<polygon fill="#0b2c70" fill-opacity="0.501961" points="246,128 252,112 252,142" />
<polygon fill="#1c3165" fill-opacity="0.501961" points="205,110 188,111 205,151" />
<polygon fill="#040200" fill-opacity="0.501961" points="1,-16 88,-7 2,72" />
<polygon fill="#c8d0d5" fill-opacity="0.501961" points="129,139 128,135 127,136" />
<polygon fill="#4a5e81" fill-opacity="0.501961" points="87,139 93,129 64,139" />
<polygon fill="#0f295c" fill-opacity="0.501961" points="83,140 94,160 84,117" />
<polygon fill="#00134b" fill-opacity="0.501961" points="130,132 136,143 161,129" />
<polygon fill="#5f4949" fill-opacity="0.501961" points="133,73 121,70 129,65" />
<polygon fill="#1c100b" fill-opacity="0.501961" points="211,42 181,19 211,106" />
<polygon fill="#c4cdd7" fill-opacity="0.501961" points="74,125 73,130 72,124" />
<polygon fill="#150e1c" fill-opacity="0.501961" points="184,91 114,91 157,71" />
<polygon fill="#07215e" fill-opacity="0.501961" points="116,134 97,118 95,126" />
<polygon fill="#160f14" fill-opacity="0.501961" points="115,64 100,87 124,73" />
<polygon fill="#001a51" fill-opacity="0.501961" points="201,131 249,112 252,129" />
<polygon fill="#001047" fill-opacity="0.501961" points="43,113 55,117 46,118" />
<polygon fill="#000000" fill-opacity="0.501961" points="86,77 59,110 58,-16" />
<polygon fill="#16306a" fill-opacity="0.501961" points="33,110 22,117 7,111" />
<polygon fill="#041c58" fill-opacity="0.501961" points="95,112 202,142 192,112" />
<polygon fill="#113170" fill-opacity="0.501961" points="10,130 4,112 4,133" />
<polygon fill="#576a8c" fill-opacity="0.501961" points="73,132 97,132 83,138" />
<polygon fill="#1b0d18" fill-opacity="0.501961" points="128,-4 94,16 56,-16" />
<polygon fill="#001850" fill-opacity="0.501961" points="5,143 6,112 45,113" />
<polygon fill="#00164f" fill-opacity="0.501961" points="250,139 214,142 230,135" />
<polygon fill="#56688c" fill-opacity="0.501961" points="39,123 63,125 41,129" />
<polygon fill="#150e1c" fill-opacity="0.501961" points="84,47 121,68 124,43" />
<polygon fill="#659bff" fill-opacity="0.501961" points="244,131 248,137 242,135" />
<polygon fill="#526181" fill-opacity="0.501961" points="51,134 40,135 48,137" />
<polygon fill="#4b1106" fill-opacity="0.501961" points="255,54 255,160 271,112" />
<polygon fill="#d6b7dc" fill-opacity="0.501961" points="132,75 122,77 128,73" />
<polygon fill="#412c1e" fill-opacity="0.501961" points="184,67 181,59 159,68" />
<polygon fill="#412a17" fill-opacity="0.501961" points="158,4 168,-3 183,1" />
<polygon fill="#001044" fill-opacity="0.501961" points="90,160 84,134 100,160" />
<polygon fill="#060500" fill-opacity="0.501961" points="26,40 1,120 3,50" />
<polygon fill="#000000" fill-opacity="0.501961" points="117,70 106,59 87,70" />
<polygon fill="#3c4f7c" fill-opacity="0.501961" points="50,118 41,116 39,121" />
<polygon fill="#0e090b" fill-opacity="0.501961" points="59,8 39,35 37,-16" />
<polygon fill="#384373" fill-opacity="0.501961" points="159,143 186,142 205,160" />
<polygon fill="#000000" fill-opacity="0.501961" points="78,37 108,11 127,30" />
<polygon fill="#342315" fill-opacity="0.501961" points="99,36 102,45 102,34" />
<polygon fill="#1c0e05" fill-opacity="0.501961" points="214,160 216,143 158,143" />
<polygon fill="#8cffff" fill-opacity="0.501961" points="125,47 126,45 131,44" />
<polygon fill="#11556e" fill-opacity="0.501961" points="129,53 128,57 126,52" />
<polygon fill="#123982" fill-opacity="0.501961" points="71,143 89,143 81,140" />
<polygon fill="#000000" fill-opacity="0.501961" points="187,40 188,19 183,33" />
<polygon fill="#000b44" fill-opacity="0.501961" points="78,133 76,138 76,133" />
<polygon fill="#647795" fill-opacity="0.501961" points="82,121 68,116 82,116" />
<polygon fill="#011e53" fill-opacity="0.501961" points="79,123 75,124 76,111" />
<polygon fill="#130e1d" fill-opacity="0.501961" points="164,34 121,11 135,56" />
<polygon fill="#7887a0" fill-opacity="0.501961" points="99,135 95,133 92,135" />
<polygon fill="#2c160b" fill-opacity="0.501961" points="197,80 188,111 188,63" />
<polygon fill="#19101b" fill-opacity="0.501961" points="121,79 80,105 91,71" />
<polygon fill="#08030a" fill-opacity="0.501961" points="184,44 169,43 188,67" />
<polygon fill="#001854" fill-opacity="0.501961" points="50,124 37,120 52,119" />
<polygon fill="#000000" fill-opacity="0.501961" points="254,109 212,-16 214,110" />
<polygon fill="#072661" fill-opacity="0.501961" points="70,143 95,143 96,136" />
<polygon fill="#9aa6bb" fill-opacity="0.501961" points="58,132 55,136 59,135" />
<polygon fill="#7f8ca9" fill-opacity="0.501961" points="111,135 101,137 103,139" />
<polygon fill="#110e0b" fill-opacity="0.501961" points="8,111 1,88 35,109" />
<polygon fill="#9a7e78" fill-opacity="0.501961" points="128,67 132,65 122,64" />
<polygon fill="#011c51" fill-opacity="0.501961" points="62,132 64,122 58,132" />
<polygon fill="#041e5b" fill-opacity="0.501961" points="125,120 108,118 114,133" />
<polygon fill="#010000" fill-opacity="0.501961" points="97,100 70,110 104,109" />
<polygon fill="#110904" fill-opacity="0.501961" points="210,-9 213,10 193,21" />
<polygon fill="#170f1c" fill-opacity="0.501961" points="145,108 158,79 132,72" />
<polygon fill="#617194" fill-opacity="0.501961" points="89,123 91,125 84,130" />
<polygon fill="#7585a5" fill-opacity="0.501961" points="96,117 108,121 104,115" />
<polygon fill="#352f28" fill-opacity="0.501961" points="196,30 202,-16 191,9" />
<polygon fill="#153279" fill-opacity="0.501961" points="150,117 171,111 128,111" />
<polygon fill="#051d5a" fill-opacity="0.501961" points="127,112 185,112 155,142" />
<polygon fill="#072456" fill-opacity="0.501961" points="68,127 70,122 67,126" />
<polygon fill="#65fdff" fill-opacity="0.501961" points="130,45 125,47 128,42" />
<polygon fill="#160c07" fill-opacity="0.501961" points="17,85 17,33 9,62" />
<polygon fill="#919fb4" fill-opacity="0.501961" points="71,130 72,135 74,134" />
<polygon fill="#11377d" fill-opacity="0.501961" points="246,114 243,112 253,111" />
<polygon fill="#001750" fill-opacity="0.501961" points="68,123 69,112 71,122" />
<polygon fill="#060805" fill-opacity="0.501961" points="67,143 93,160 144,143" />
<polygon fill="#031c59" fill-opacity="0.501961" points="56,136 45,143 20,136" />
<polygon fill="#7d8ca7" fill-opacity="0.501961" points="78,119 80,122 82,121" />
<polygon fill="#050101" fill-opacity="0.501961" points="155,68 164,55 150,55" />
<polygon fill="#7985a3" fill-opacity="0.501961" points="66,125 64,137 63,129" />
<polygon fill="#0d0709" fill-opacity="0.501961" points="193,34 204,69 194,93" />
<polygon fill="#8191a9" fill-opacity="0.501961" points="68,117 75,117 75,119" />
<polygon fill="#a6b1c3" fill-opacity="0.501961" points="97,119 92,118 94,115" />
<polygon fill="#00124e" fill-opacity="0.501961" points="44,134 54,131 55,135" />
<polygon fill="#1d1120" fill-opacity="0.501961" points="101,46 97,65 88,60" />
<polygon fill="#0f2761" fill-opacity="0.501961" points="106,135 106,143 115,152" />
<polygon fill="#362415" fill-opacity="0.501961" points="49,110 54,109 52,102" />
<polygon fill="#1f130a" fill-opacity="0.501961" points="203,39 211,17 212,49" />
<polygon fill="#180f1a" fill-opacity="0.501961" points="100,57 123,64 116,34" />
<polygon fill="#001a56" fill-opacity="0.501961" points="68,114 82,111 81,115" />
<polygon fill="#432d1e" fill-opacity="0.501961" points="184,26 182,30 168,27" />
<polygon fill="#425174" fill-opacity="0.501961" points="216,160 203,141 197,146" />
<polygon fill="#0c2959" fill-opacity="0.501961" points="76,129 76,122 79,132" />
<polygon fill="#7584a3" fill-opacity="0.501961" points="85,119 106,121 95,115" />
<polygon fill="#021a54" fill-opacity="0.501961" points="42,122 9,132 31,136" />
<polygon fill="#0a0000" fill-opacity="0.501961" points="3,110 -1,120 3,122" />
<polygon fill="#001a53" fill-opacity="0.501961" points="200,114 241,142 237,112" />
<polygon fill="#564245" fill-opacity="0.501961" points="132,72 122,66 132,66" />
<polygon fill="#170f1b" fill-opacity="0.501961" points="162,27 162,-16 112,20" />
<polygon fill="#000000" fill-opacity="0.501961" points="88,85 35,50 69,-6" />
<polygon fill="#51648d" fill-opacity="0.501961" points="92,116 93,119 89,122" />
<polygon fill="#020000" fill-opacity="0.501961" points="3,130 4,144 -7,160" />
<polygon fill="#071f5a" fill-opacity="0.501961" points="53,128 53,113 58,130" />
<polygon fill="#433a33" fill-opacity="0.501961" points="192,105 205,85 205,101" />
<polygon fill="#39251b" fill-opacity="0.501961" points="192,33 192,52 189,41" />
<polygon fill="#52120c" fill-opacity="0.501961" points="0,145 -16,93 0,59" />
<polygon fill="#34241a" fill-opacity="0.501961" points="194,83 205,76 190,80" />
<polygon fill="#170e1c" fill-opacity="0.501961" points="152,86 78,85 112,110" />
<polygon fill="#497fff" fill-opacity="0.501961" points="249,133 245,138 242,137" />
<polygon fill="#1c0b04" fill-opacity="0.501961" points="213,103 203,111 198,103" />
<polygon fill="#160f1f" fill-opacity="0.501961" points="127,51 156,78 139,36" />
<polygon fill="#412b1e" fill-opacity="0.501961" points="161,42 174,34 183,42" />
<polygon fill="#00174e" fill-opacity="0.501961" points="250,114 238,121 250,133" />
<polygon fill="#050400" fill-opacity="0.501961" points="254,111 253,156 271,108" />
<polygon fill="#1c3066" fill-opacity="0.501961" points="43,160 54,157 63,133" />
<polygon fill="#000000" fill-opacity="0.501961" points="204,87 202,79 195,91" />
<polygon fill="#a3adb9" fill-opacity="0.501961" points="40,126 40,129 42,130" />
<polygon fill="#0b0306" fill-opacity="0.501961" points="187,35 164,32 185,29" />
<polygon fill="#15357c" fill-opacity="0.501961" points="70,143 51,143 63,139" />
<polygon fill="#070202" fill-opacity="0.501961" points="148,110 179,108 178,90" />
<polygon fill="#123370" fill-opacity="0.501961" points="225,139 210,142 223,143" />
<polygon fill="#1f3e86" fill-opacity="0.501961" points="42,140 33,143 52,143" />
<polygon fill="#3b2818" fill-opacity="0.501961" points="149,48 172,47 150,55" />
<polygon fill="#001852" fill-opacity="0.501961" points="165,141 123,142 150,129" />
<polygon fill="#271910" fill-opacity="0.501961" points="181,106 184,99 177,90" />
<polygon fill="#798ba3" fill-opacity="0.501961" points="68,116 69,121 64,118" />
<polygon fill="#dfc2e7" fill-opacity="0.501961" points="124,74 130,75 127,78" />
<polygon fill="#170e1c" fill-opacity="0.501961" points="129,111 160,103 130,80" />
<polygon fill="#312017" fill-opacity="0.501961" points="188,66 190,71 206,63" />
<polygon fill="#2a1c14" fill-opacity="0.501961" points="164,104 167,93 167,108" />
<polygon fill="#18387e" fill-opacity="0.501961" points="140,143 156,143 148,140" />
<polygon fill="#001a51" fill-opacity="0.501961" points="202,142 247,117 236,142" />
<polygon fill="#000000" fill-opacity="0.501961" points="128,37 116,45 120,21" />
<polygon fill="#000000" fill-opacity="0.501961" points="255,106 213,-6 254,-16" />
<polygon fill="#181122" fill-opacity="0.501961" points="185,83 158,82 173,91" />
<polygon fill="#011a53" fill-opacity="0.501961" points="5,114 11,142 45,142" />
<polygon fill="#000000" fill-opacity="0.501961" points="98,46 76,46 82,8" />
<polygon fill="#3c3732" fill-opacity="0.501961" points="192,31 205,21 203,16" />
<polygon fill="#362519" fill-opacity="0.501961" points="207,83 203,76 205,64" />
<polygon fill="#254690" fill-opacity="0.501961" points="191,114 202,111 187,111" />
<polygon fill="#051e5a" fill-opacity="0.501961" points="192,141 151,113 135,142" />
<polygon fill="#a0abbe" fill-opacity="0.501961" points="71,125 77,130 74,124" />
<polygon fill="#0c2d6a" fill-opacity="0.501961" points="117,142 115,143 114,135" />
<polygon fill="#041d58" fill-opacity="0.501961" points="107,114 107,126 144,136" />
<polygon fill="#5d6e8f" fill-opacity="0.501961" points="91,136 93,132 101,132" />
<polygon fill="#647495" fill-opacity="0.501961" points="88,133 88,139 91,130" />
<polygon fill="#0c2859" fill-opacity="0.501961" points="60,126 64,121 61,117" />
<polygon fill="#18357e" fill-opacity="0.501961" points="113,111 134,111 130,116" />
<polygon fill="#7d8da6" fill-opacity="0.501961" points="57,121 58,115 63,122" />
<polygon fill="#071f5d" fill-opacity="0.501961" points="150,112 190,140 113,113" />
<polygon fill="#0d0814" fill-opacity="0.501961" points="186,60 178,51 164,59" />
<polygon fill="#010000" fill-opacity="0.501961" points="18,81 18,60 52,110" />
<polygon fill="#7280a1" fill-opacity="0.501961" points="55,138 66,138 63,135" />
<polygon fill="#2a3e6d" fill-opacity="0.501961" points="89,129 89,135 92,135" />
<polygon fill="#00206a" fill-opacity="0.501961" points="89,112 97,115 94,111" />
<polygon fill="#100c18" fill-opacity="0.501961" points="20,71 20,57 52,60" />
<polygon fill="#160d19" fill-opacity="0.501961" points="140,69 126,58 161,33" />
<polygon fill="#000000" fill-opacity="0.501961" points="110,62 113,72 78,66" />
<polygon fill="#6c7e9b" fill-opacity="0.501961" points="68,116 63,118 65,122" />
<polygon fill="#322318" fill-opacity="0.501961" points="205,50 194,54 204,55" />
<polygon fill="#0f2f74" fill-opacity="0.501961" points="109,139 94,142 107,143" />
<polygon fill="#001a55" fill-opacity="0.501961" points="100,124 106,131 86,122" />
<polygon fill="#281c12" fill-opacity="0.501961" points="180,15 175,8 185,2" />
<polygon fill="#0a2057" fill-opacity="0.501961" points="220,112 179,127 189,112" />
<polygon fill="#133377" fill-opacity="0.501961" points="249,118 253,118 252,131" />
<polygon fill="#1e4488" fill-opacity="0.501961" points="4,134 7,143 4,140" />
<polygon fill="#09040b" fill-opacity="0.501961" points="165,6 167,20 195,21" />
<polygon fill="#6e7d9f" fill-opacity="0.501961" points="106,139 100,135 104,134" />
<polygon fill="#001746" fill-opacity="0.501961" points="110,137 110,152 101,160" />
<polygon fill="#3462b9" fill-opacity="0.501961" points="238,111 237,112 234,111" />
<polygon fill="#090907" fill-opacity="0.501961" points="7,143 46,143 59,160" />
<polygon fill="#00144e" fill-opacity="0.501961" points="61,112 64,115 61,117" />
<polygon fill="#080204" fill-opacity="0.501961" points="180,81 182,70 164,71" />
<polygon fill="#0c070f" fill-opacity="0.501961" points="18,106 26,66 33,106" />
<polygon fill="#030000" fill-opacity="0.501961" points="188,91 185,110 180,86" />
<polygon fill="#411613" fill-opacity="0.501961" points="255,156 257,62 271,109" />
<polygon fill="#000000" fill-opacity="0.501961" points="58,102 26,86 76,96" />
<polygon fill="#001850" fill-opacity="0.501961" points="251,117 252,134 237,121" />
<polygon fill="#1b111b" fill-opacity="0.501961" points="94,81 114,74 82,71" />
<polygon fill="#000f4c" fill-opacity="0.501961" points="128,139 112,139 123,142" />
<polygon fill="#1e3b7a" fill-opacity="0.501961" points="203,139 191,143 216,143" />
<polygon fill="#214593" fill-opacity="0.501961" points="17,113 12,111 23,111" />
<polygon fill="#021a53" fill-opacity="0.501961" points="5,136 50,112 13,112" />
<polygon fill="#0c2f6e" fill-opacity="0.501961" points="136,143 116,143 133,138" />
<polygon fill="#001a51" fill-opacity="0.501961" points="246,141 227,130 187,142" />
<polygon fill="#00154b" fill-opacity="0.501961" points="150,142 153,134 126,141" />
<polygon fill="#180a05" fill-opacity="0.501961" points="183,-16 189,15 194,-1" />
<polygon fill="#070705" fill-opacity="0.501961" points="255,143 213,160 189,143" />
<polygon fill="#00154f" fill-opacity="0.501961" points="63,142 67,139 53,140" />
<polygon fill="#364a7b" fill-opacity="0.501961" points="96,120 101,115 97,117" />
<polygon fill="#183162" fill-opacity="0.501961" points="88,130 82,138 82,128" />
<polygon fill="#947976" fill-opacity="0.501961" points="125,63 123,65 124,67" />
<polygon fill="#001447" fill-opacity="0.501961" points="77,153 84,160 77,138" />
<polygon fill="#160e1d" fill-opacity="0.501961" points="133,50 111,60 81,48" />
<polygon fill="#000002" fill-opacity="0.501961" points="203,61 202,53 194,65" />
<polygon fill="#7584a4" fill-opacity="0.501961" points="48,124 53,128 53,124" />
<polygon fill="#00154a" fill-opacity="0.501961" points="198,128 188,135 198,138" />
<polygon fill="#3c281d" fill-opacity="0.501961" points="184,21 185,29 163,28" />
<polygon fill="#150f1d" fill-opacity="0.501961" points="120,78 110,41 125,47" />
<polygon fill="#000000" fill-opacity="0.501961" points="1,-16 2,45 26,-6" />
<polygon fill="#667696" fill-opacity="0.501961" points="66,126 70,128 67,123" />
<polygon fill="#061f5a" fill-opacity="0.501961" points="91,127 137,113 137,133" />
<polygon fill="#6a5055" fill-opacity="0.501961" points="123,80 122,75 129,84" />
<polygon fill="#00134a" fill-opacity="0.501961" points="89,138 99,141 86,142" />
<polygon fill="#7483a3" fill-opacity="0.501961" points="50,129 52,131 53,129" />
<polygon fill="#324974" fill-opacity="0.501961" points="68,139 69,133 66,138" />
<polygon fill="#010000" fill-opacity="0.501961" points="165,97 159,88 165,107" />
<polygon fill="#070103" fill-opacity="0.501961" points="163,47 179,47 162,42" />
<polygon fill="#1a0e0c" fill-opacity="0.501961" points="205,97 211,109 211,83" />
<polygon fill="#324887" fill-opacity="0.501961" points="173,112 176,110 182,112" />
<polygon fill="#23190e" fill-opacity="0.501961" points="41,32 38,20 37,25" />
<polygon fill="#051d5b" fill-opacity="0.501961" points="98,121 121,125 96,130" />
<polygon fill="#430d0a" fill-opacity="0.501961" points="0,18 -1,98 -16,49" />
<polygon fill="#bec6d4" fill-opacity="0.501961" points="112,135 111,133 111,136" />
<polygon fill="#4c4138" fill-opacity="0.501961" points="195,105 188,111 199,110" />
<polygon fill="#110910" fill-opacity="0.501961" points="188,107 161,107 175,111" />
<polygon fill="#4f6287" fill-opacity="0.501961" points="77,120 81,122 73,121" />
<polygon fill="#3b281c" fill-opacity="0.501961" points="184,61 166,60 160,67" />
<polygon fill="#001a53" fill-opacity="0.501961" points="200,112 251,112 251,128" />
<polygon fill="#080302" fill-opacity="0.501961" points="177,5 168,16 165,4" />
<polygon fill="#0f2e6f" fill-opacity="0.501961" points="12,138 8,143 23,143" />
<polygon fill="#00174f" fill-opacity="0.501961" points="5,134 34,141 11,142" />
<polygon fill="#775852" fill-opacity="0.501961" points="132,79 129,82 131,78" />
<polygon fill="#001958" fill-opacity="0.501961" points="108,128 106,134 106,126" />
<polygon fill="#2a1611" fill-opacity="0.501961" points="194,104 185,106 191,72" />
<polygon fill="#8190a9" fill-opacity="0.501961" points="69,139 76,135 72,132" />
<polygon fill="#0b080c" fill-opacity="0.501961" points="98,160 76,143 113,143" />
<polygon fill="#001851" fill-opacity="0.501961" points="129,129 153,126 130,136" />
<polygon fill="#0f0a0b" fill-opacity="0.501961" points="24,24 25,55 31,34" />
<polygon fill="#192f65" fill-opacity="0.501961" points="204,120 190,113 197,129" />
<polygon fill="#0c2861" fill-opacity="0.501961" points="69,134 68,143 70,138" />
<polygon fill="#010000" fill-opacity="0.501961" points="95,109 55,108 58,97" />
<polygon fill="#160e19" fill-opacity="0.501961" points="98,-16 76,7 97,14" />
<polygon fill="#090407" fill-opacity="0.501961" points="204,27 191,32 196,39" />
<polygon fill="#000000" fill-opacity="0.501961" points="188,81 184,72 186,65" />
<polygon fill="#8f6f6e" fill-opacity="0.501961" points="129,82 129,81 132,83" />
<polygon fill="#000000" fill-opacity="0.501961" points="51,110 46,72 30,99" />
<polygon fill="#392918" fill-opacity="0.501961" points="114,75 106,76 108,78" />
<polygon fill="#153585" fill-opacity="0.501961" points="87,111 105,111 95,114" />
<polygon fill="#150d1a" fill-opacity="0.501961" points="123,72 116,59 113,93" />
<polygon fill="#160e1b" fill-opacity="0.501961" points="126,103 140,86 130,81" />
<polygon fill="#301e14" fill-opacity="0.501961" points="193,59 192,31 188,46" />
<polygon fill="#2f2319" fill-opacity="0.501961" points="203,38 192,44 193,40" />
<polygon fill="#001046" fill-opacity="0.501961" points="248,138 250,134 250,139" />
<polygon fill="#010100" fill-opacity="0.501961" points="14,58 1,50 1,93" />
<polygon fill="#392719" fill-opacity="0.501961" points="35,87 37,83 36,80" />
<polygon fill="#170f1c" fill-opacity="0.501961" points="88,-16 124,22 177,20" />
<polygon fill="#0a225e" fill-opacity="0.501961" points="102,111 101,115 91,114" />
<polygon fill="#364d75" fill-opacity="0.501961" points="119,137 122,135 115,137" />
<polygon fill="#3d5a9b" fill-opacity="0.501961" points="134,112 138,112 136,111" />
<polygon fill="#4e6188" fill-opacity="0.501961" points="47,120 40,118 44,117" />
<polygon fill="#19101c" fill-opacity="0.501961" points="124,84 155,109 132,111" />
<polygon fill="#372417" fill-opacity="0.501961" points="184,4 164,4 161,-5" />
<polygon fill="#010001" fill-opacity="0.501961" points="51,55 28,53 26,33" />
<polygon fill="#1b3267" fill-opacity="0.501961" points="59,129 53,129 55,122" />
<polygon fill="#140d1a" fill-opacity="0.501961" points="79,87 73,105 127,82" />
<polygon fill="#18131f" fill-opacity="0.501961" points="130,87 136,94 130,78" />
<polygon fill="#071f5d" fill-opacity="0.501961" points="190,139 104,114 180,113" />
<polygon fill="#010000" fill-opacity="0.501961" points="80,10 131,29 105,36" />
<polygon fill="#031b54" fill-opacity="0.501961" points="4,142 40,113 39,137" />
<polygon fill="#010003" fill-opacity="0.501961" points="200,51 199,45 204,41" />
<polygon fill="#0e0604" fill-opacity="0.501961" points="163,90 159,83 152,86" />
<polygon fill="#032464" fill-opacity="0.501961" points="70,117 68,111 74,111" />
<polygon fill="#314879" fill-opacity="0.501961" points="50,125 46,127 46,130" />
<polygon fill="#001a52" fill-opacity="0.501961" points="31,115 47,113 48,118" />
<polygon fill="#172f67" fill-opacity="0.501961" points="62,133 62,140 57,143" />
<polygon fill="#1f140f" fill-opacity="0.501961" points="54,18 49,16 48,24" />
<polygon fill="#170d09" fill-opacity="0.501961" points="188,20 202,17 187,16" />
<polygon fill="#97a7ba" fill-opacity="0.501961" points="88,116 86,121 86,115" />
<polygon fill="#031c55" fill-opacity="0.501961" points="44,120 11,115 5,141" />
</g>
</svg>