<svg xmlns="http://www.w3.org/2000/svg" version="1.1" width="1024" height="580">
<rect x="0" y="0" width="1024" height="580" fill="#0f101d" />
<g transform="scale(4.000000) translate(0.5 0.5)">
<polygon fill="#103b95" fill-opacity="0.501961" points="116,99 -16,142 271,143" />
<polygon fill="#3b5b99" fill-opacity="0.501961" points="126,112 -1,111 60,135" />
<polygon fill="#110500" fill-opacity="0.501961" points="252,-16 -16,109 271,110" />
<polygon fill="#382a21" fill-opacity="0.501961" points="45,21 180,124 180,20" />
<polygon fill="#002e92" fill-opacity="0.501961" points="252,112 255,141 159,111" />
<polygon fill="#090100" fill-opacity="0.501961" points="-5,117 -8,-6 209,-16" />
<polygon fill="#000000" fill-opacity="0.501961" points="224,117 271,5 155,-16" />
<polygon fill="#d7b3b7" fill-opacity="0.501961" points="144,71 133,79 143,83" />
<polygon fill="#3d3730" fill-opacity="0.501961" points="180,24 61,20 177,56" />
<polygon fill="#001666" fill-opacity="0.501961" points="56,113 5,110 4,144" />
<polygon fill="#68778e" fill-opacity="0.501961" points="102,130 30,129 56,116" />
<polygon fill="#5da0ff" fill-opacity="0.501961" points="238,141 249,134 244,130" />
<polygon fill="#ffb57b" fill-opacity="0.501961" points="148,70 156,66 154,73" />
<polygon fill="#231512" fill-opacity="0.501961" points="27,60 150,44 121,110" />
<polygon fill="#001651" fill-opacity="0.501961" points="85,112 232,115 250,160" />
<polygon fill="#000000" fill-opacity="0.501961" points="271,107 191,108 186,-16" />
<polygon fill="#000000" fill-opacity="0.501961" points="15,-16 -16,29 167,5" />
<polygon fill="#001147" fill-opacity="0.501961" points="-16,144 38,112 41,139" />
<polygon fill="#0e0505" fill-opacity="0.501961" points="56,48 149,71 173,45" />
<polygon fill="#000000" fill-opacity="0.501961" points="1,104 47,110 2,-6" />
<polygon fill="#6d7a92" fill-opacity="0.501961" points="75,114 98,117 87,130" />
<polygon fill="#140a11" fill-opacity="0.501961" points="155,111 99,108 175,64" />
<polygon fill="#000000" fill-opacity="0.501961" points="65,-16 263,58 249,-16" />
<polygon fill="#342d24" fill-opacity="0.501961" points="105,29 54,18 23,34" />
<polygon fill="#000744" fill-opacity="0.501961" points="68,108 74,124 79,112" />
<polygon fill="#000f4a" fill-opacity="0.501961" points="22,142 99,141 67,129" />
<polygon fill="#032054" fill-opacity="0.501961" points="27,114 65,122 43,124" />
<polygon fill="#851000" fill-opacity="0.501961" points="0,35 0,147 -16,90" />
<polygon fill="#c8d0d8" fill-opacity="0.501961" points="45,124 45,132 41,123" />
<polygon fill="#2a1c0f" fill-opacity="0.501961" points="45,48 137,76 33,76" />
<polygon fill="#120000" fill-opacity="0.501961" points="254,150 271,88 253,65" />
<polygon fill="#000000" fill-opacity="0.501961" points="260,110 178,110 240,-16" />
<polygon fill="#7d8aa5" fill-opacity="0.501961" points="49,120 66,113 70,119" />
<polygon fill="#001e59" fill-opacity="0.501961" points="54,112 5,151 4,115" />
<polygon fill="#45373a" fill-opacity="0.501961" points="138,76 123,92 115,81" />
<polygon fill="#05050a" fill-opacity="0.501961" points="117,32 116,53 40,33" />
<polygon fill="#3d3938" fill-opacity="0.501961" points="164,116 178,71 179,101" />
<polygon fill="#0d030a" fill-opacity="0.501961" points="165,71 167,52 135,60" />
<polygon fill="#100c17" fill-opacity="0.501961" points="56,111 153,111 95,69" />
<polygon fill="#070000" fill-opacity="0.501961" points="3,124 -6,148 3,155" />
<polygon fill="#001650" fill-opacity="0.501961" points="12,128 24,141 66,132" />
<polygon fill="#ec855a" fill-opacity="0.501961" points="151,75 156,72 151,62" />
<polygon fill="#0e0918" fill-opacity="0.501961" points="164,55 126,72 148,71" />
<polygon fill="#001759" fill-opacity="0.501961" points="171,136 93,143 92,122" />
<polygon fill="#39322e" fill-opacity="0.501961" points="113,24 131,50 173,34" />
<polygon fill="#001d5c" fill-opacity="0.501961" points="86,115 60,115 71,109" />
<polygon fill="#861207" fill-opacity="0.501961" points="-13,26 -1,36 0,-1" />
<polygon fill="#132d67" fill-opacity="0.501961" points="157,110 194,110 169,132" />
<polygon fill="#342413" fill-opacity="0.501961" points="160,111 127,98 156,100" />
<polygon fill="#3e4974" fill-opacity="0.501961" points="118,142 170,142 180,160" />
<polygon fill="#001952" fill-opacity="0.501961" points="226,110 243,140 147,141" />
<polygon fill="#000000" fill-opacity="0.501961" points="154,0 54,22 -16,-9" />
<polygon fill="#0e0b1a" fill-opacity="0.501961" points="164,88 150,72 126,105" />
<polygon fill="#c3a4b3" fill-opacity="0.501961" points="142,79 138,82 133,81" />
<polygon fill="#3b231f" fill-opacity="0.501961" points="133,65 135,93 120,64" />
<polygon fill="#352e2a" fill-opacity="0.501961" points="179,30 179,75 154,24" />
<polygon fill="#00174f" fill-opacity="0.501961" points="82,121 72,124 62,121" />
<polygon fill="#4f88ff" fill-opacity="0.501961" points="241,132 249,135 243,139" />
<polygon fill="#685857" fill-opacity="0.501961" points="142,71 156,81 137,74" />
<polygon fill="#041d54" fill-opacity="0.501961" points="28,122 30,111 60,123" />
<polygon fill="#6f809a" fill-opacity="0.501961" points="84,124 68,130 49,126" />
<polygon fill="#4d1507" fill-opacity="0.501961" points="255,92 255,152 269,137" />
<polygon fill="#3f5381" fill-opacity="0.501961" points="103,116 109,119 97,127" />
<polygon fill="#0d060c" fill-opacity="0.501961" points="162,111 148,77 167,95" />
<polygon fill="#190d0d" fill-opacity="0.501961" points="144,59 161,72 139,26" />
<polygon fill="#8e9bb3" fill-opacity="0.501961" points="59,115 55,117 60,128" />
<polygon fill="#120e09" fill-opacity="0.501961" points="37,89 9,35 39,17" />
<polygon fill="#000009" fill-opacity="0.501961" points="123,83 118,92 120,68" />
<polygon fill="#b0b9c7" fill-opacity="0.501961" points="82,122 80,116 79,118" />
<polygon fill="#041d5a" fill-opacity="0.501961" points="207,112 104,113 119,140" />
<polygon fill="#3b2918" fill-opacity="0.501961" points="79,72 55,81 81,79" />
<polygon fill="#000000" fill-opacity="0.501961" points="188,4 268,-16 187,104" />
<polygon fill="#00124f" fill-opacity="0.501961" points="91,122 102,137 104,122" />
<polygon fill="#1f120d" fill-opacity="0.501961" points="187,13 186,40 160,16" />
<polygon fill="#000000" fill-opacity="0.501961" points="62,14 268,14 158,-16" />
<polygon fill="#1c0f05" fill-opacity="0.501961" points="118,143 203,143 167,160" />
<polygon fill="#180c04" fill-opacity="0.501961" points="135,26 110,14 173,14" />
<polygon fill="#1a0f08" fill-opacity="0.501961" points="41,14 68,23 100,15" />
<polygon fill="#142d5f" fill-opacity="0.501961" points="55,115 56,124 33,116" />
<polygon fill="#0f0913" fill-opacity="0.501961" points="13,65 150,109 56,110" />
<polygon fill="#00144d" fill-opacity="0.501961" points="4,112 40,113 39,132" />
<polygon fill="#1d3466" fill-opacity="0.501961" points="84,128 82,115 87,111" />
<polygon fill="#b0bac8" fill-opacity="0.501961" points="45,129 44,123 40,128" />
<polygon fill="#3b322e" fill-opacity="0.501961" points="86,34 118,26 82,22" />
<polygon fill="#570a00" fill-opacity="0.501961" points="255,15 271,54 258,75" />
<polygon fill="#001851" fill-opacity="0.501961" points="63,142 26,130 103,132" />
<polygon fill="#000000" fill-opacity="0.501961" points="27,87 1,6 1,114" />
<polygon fill="#142c5e" fill-opacity="0.501961" points="67,124 56,123 62,120" />
<polygon fill="#5f7092" fill-opacity="0.501961" points="80,122 78,114 106,121" />
<polygon fill="#0e0808" fill-opacity="0.501961" points="83,27 10,58 71,56" />
<polygon fill="#0c2e72" fill-opacity="0.501961" points="224,117 204,111 244,111" />
<polygon fill="#1f0400" fill-opacity="0.501961" points="271,100 256,39 253,145" />
<polygon fill="#39322d" fill-opacity="0.501961" points="117,42 141,49 125,20" />
<polygon fill="#38312d" fill-opacity="0.501961" points="73,31 68,24 48,30" />
<polygon fill="#ffe19e" fill-opacity="0.501961" points="152,68 151,72 155,71" />
<polygon fill="#00154e" fill-opacity="0.501961" points="252,117 243,117 251,141" />
<polygon fill="#00184f" fill-opacity="0.501961" points="241,141 238,112 174,114" />
<polygon fill="#030000" fill-opacity="0.501961" points="60,87 78,94 87,80" />
<polygon fill="#040000" fill-opacity="0.501961" points="201,143 212,160 264,143" />
<polygon fill="#080100" fill-opacity="0.501961" points="165,56 159,57 166,39" />
<polygon fill="#000000" fill-opacity="0.501961" points="255,94 254,-11 190,110" />
<polygon fill="#211e18" fill-opacity="0.501961" points="28,38 43,20 33,46" />
<polygon fill="#52678a" fill-opacity="0.501961" points="48,119 44,118 40,120" />
<polygon fill="#271a12" fill-opacity="0.501961" points="112,76 116,54 41,66" />
<polygon fill="#08235c" fill-opacity="0.501961" points="99,128 92,117 90,120" />
<polygon fill="#000001" fill-opacity="0.501961" points="4,111 53,108 10,73" />
<polygon fill="#6a7e9d" fill-opacity="0.501961" points="90,119 94,130 87,125" />
<polygon fill="#2d1610" fill-opacity="0.501961" points="164,95 174,86 162,65" />
<polygon fill="#dbad99" fill-opacity="0.501961" points="143,77 142,81 141,79" />
<polygon fill="#001148" fill-opacity="0.501961" points="79,113 70,117 71,120" />
<polygon fill="#09205a" fill-opacity="0.501961" points="137,142 84,122 167,126" />
<polygon fill="#163061" fill-opacity="0.501961" points="61,127 62,117 68,138" />
<polygon fill="#0d0b0e" fill-opacity="0.501961" points="30,33 80,57 118,32" />
<polygon fill="#001a53" fill-opacity="0.501961" points="242,112 174,112 243,133" />
<polygon fill="#0e3171" fill-opacity="0.501961" points="4,141 4,116 10,119" />
<polygon fill="#110916" fill-opacity="0.501961" points="136,62 153,59 148,76" />
<polygon fill="#000000" fill-opacity="0.501961" points="74,-16 15,36 -4,-15" />
<polygon fill="#5b91ff" fill-opacity="0.501961" points="245,132 247,137 243,138" />
<polygon fill="#626677" fill-opacity="0.501961" points="115,85 118,81 116,82" />
<polygon fill="#0d0a17" fill-opacity="0.501961" points="133,81 132,101 164,91" />
<polygon fill="#72829e" fill-opacity="0.501961" points="66,128 53,123 68,123" />
<polygon fill="#040004" fill-opacity="0.501961" points="122,76 121,54 115,79" />
<polygon fill="#0a0000" fill-opacity="0.501961" points="3,114 -4,138 4,144" />
<polygon fill="#09286b" fill-opacity="0.501961" points="46,110 63,115 68,110" />
<polygon fill="#152d5f" fill-opacity="0.501961" points="83,111 87,119 83,120" />
<polygon fill="#721d13" fill-opacity="0.501961" points="-1,121 -16,112 2,160" />
<polygon fill="#001a54" fill-opacity="0.501961" points="5,135 54,136 5,115" />
<polygon fill="#393d41" fill-opacity="0.501961" points="121,89 129,94 133,86" />
<polygon fill="#150a07" fill-opacity="0.501961" points="173,108 184,110 188,90" />
<polygon fill="#110c17" fill-opacity="0.501961" points="163,85 119,108 89,95" />
<polygon fill="#150d14" fill-opacity="0.501961" points="122,78 126,85 107,99" />
<polygon fill="#362e28" fill-opacity="0.501961" points="172,20 143,20 145,46" />
<polygon fill="#412822" fill-opacity="0.501961" points="137,76 123,84 122,71" />
<polygon fill="#000103" fill-opacity="0.501961" points="3,144 72,143 66,160" />
<polygon fill="#001249" fill-opacity="0.501961" points="248,142 239,139 249,138" />
<polygon fill="#122f6d" fill-opacity="0.501961" points="171,143 180,136 199,143" />
<polygon fill="#3358a6" fill-opacity="0.501961" points="175,111 168,111 172,113" />
<polygon fill="#332213" fill-opacity="0.501961" points="139,98 137,109 156,99" />
<polygon fill="#3c0b05" fill-opacity="0.501961" points="255,42 256,121 271,91" />
<polygon fill="#030001" fill-opacity="0.501961" points="107,76 81,75 92,80" />
<polygon fill="#0d0407" fill-opacity="0.501961" points="165,93 173,69 173,83" />
<polygon fill="#021b57" fill-opacity="0.501961" points="100,123 99,114 103,113" />
<polygon fill="#0f0b15" fill-opacity="0.501961" points="149,76 141,86 163,94" />
<polygon fill="#000000" fill-opacity="0.501961" points="259,110 186,108 186,46" />
<polygon fill="#540800" fill-opacity="0.501961" points="255,15 256,-16 267,-2" />
<polygon fill="#001a52" fill-opacity="0.501961" points="55,123 17,123 32,116" />
<polygon fill="#244b9d" fill-opacity="0.501961" points="79,111 77,113 70,111" />
<polygon fill="#110c16" fill-opacity="0.501961" points="149,110 28,77 54,110" />
<polygon fill="#193166" fill-opacity="0.501961" points="168,111 181,128 167,129" />
<polygon fill="#001a53" fill-opacity="0.501961" points="198,115 243,141 168,142" />
<polygon fill="#21150e" fill-opacity="0.501961" points="84,51 53,51 91,72" />
<polygon fill="#6e7d9d" fill-opacity="0.501961" points="92,118 89,115 98,116" />
<polygon fill="#011a57" fill-opacity="0.501961" points="71,114 86,110 97,115" />
<polygon fill="#5b6d8e" fill-opacity="0.501961" points="65,130 40,129 54,125" />
<polygon fill="#5f93ff" fill-opacity="0.501961" points="245,134 242,137 243,132" />
<polygon fill="#342c28" fill-opacity="0.501961" points="170,103 166,74 180,102" />
<polygon fill="#102e71" fill-opacity="0.501961" points="109,137 87,143 123,143" />
<polygon fill="#001950" fill-opacity="0.501961" points="52,138 56,131 54,125" />
<polygon fill="#001851" fill-opacity="0.501961" points="92,130 82,142 119,140" />
<polygon fill="#120b12" fill-opacity="0.501961" points="130,84 178,84 151,99" />
<polygon fill="#183a80" fill-opacity="0.501961" points="253,113 250,113 252,123" />
<polygon fill="#291c13" fill-opacity="0.501961" points="116,74 81,73 117,57" />
<polygon fill="#3b3531" fill-opacity="0.501961" points="169,62 168,50 177,58" />
<polygon fill="#200f08" fill-opacity="0.501961" points="169,52 143,43 126,59" />
<polygon fill="#40211e" fill-opacity="0.501961" points="171,77 161,79 163,87" />
<polygon fill="#ac94b5" fill-opacity="0.501961" points="134,77 133,81 136,80" />
<polygon fill="#192b5b" fill-opacity="0.501961" points="137,131 151,123 161,132" />
<polygon fill="#1d1813" fill-opacity="0.501961" points="39,20 27,31 59,21" />
<polygon fill="#37302c" fill-opacity="0.501961" points="130,33 86,26 119,22" />
<polygon fill="#382520" fill-opacity="0.501961" points="129,67 129,80 136,77" />
<polygon fill="#001851" fill-opacity="0.501961" points="251,112 252,133 222,112" />
<polygon fill="#687b9c" fill-opacity="0.501961" points="91,130 91,125 84,130" />
<polygon fill="#28150c" fill-opacity="0.501961" points="127,43 122,52 141,60" />
<polygon fill="#0e0a0f" fill-opacity="0.501961" points="125,46 73,29 69,47" />
<polygon fill="#001a53" fill-opacity="0.501961" points="47,128 47,142 44,137" />
<polygon fill="#0e275b" fill-opacity="0.501961" points="62,121 63,126 60,122" />
<polygon fill="#140b0b" fill-opacity="0.501961" points="132,20 143,17 144,31" />
<polygon fill="#041d5d" fill-opacity="0.501961" points="135,112 104,119 136,139" />
<polygon fill="#a62500" fill-opacity="0.501961" points="151,67 153,66 150,71" />
<polygon fill="#00144c" fill-opacity="0.501961" points="46,119 50,121 39,123" />
<polygon fill="#0b255c" fill-opacity="0.501961" points="91,120 90,116 92,115" />
<polygon fill="#756a4c" fill-opacity="0.501961" points="156,80 150,79 152,81" />
<polygon fill="#100813" fill-opacity="0.501961" points="154,85 160,60 165,75" />
<polygon fill="#02000d" fill-opacity="0.501961" points="150,76 152,81 147,77" />
<polygon fill="#a0acbe" fill-opacity="0.501961" points="79,121 81,116 83,117" />
<polygon fill="#647695" fill-opacity="0.501961" points="70,127 86,128 72,123" />
<polygon fill="#aebac9" fill-opacity="0.501961" points="41,127 40,130 42,128" />
<polygon fill="#282431" fill-opacity="0.501961" points="109,79 112,87 111,72" />
<polygon fill="#3b352f" fill-opacity="0.501961" points="179,78 176,64 174,80" />
<polygon fill="#261a11" fill-opacity="0.501961" points="36,54 49,72 35,75" />
<polygon fill="#143679" fill-opacity="0.501961" points="252,127 249,137 252,137" />
<polygon fill="#2c436f" fill-opacity="0.501961" points="83,126 87,116 84,114" />
<polygon fill="#001a52" fill-opacity="0.501961" points="6,131 58,112 7,112" />
<polygon fill="#607094" fill-opacity="0.501961" points="102,118 104,114 105,118" />
<polygon fill="#001b53" fill-opacity="0.501961" points="84,130 112,141 42,142" />
<polygon fill="#051d5a" fill-opacity="0.501961" points="134,113 123,142 104,114" />
<polygon fill="#8c6f6c" fill-opacity="0.501961" points="139,72 142,79 143,72" />
<polygon fill="#1a0e08" fill-opacity="0.501961" points="169,87 145,110 165,110" />
<polygon fill="#342418" fill-opacity="0.501961" points="157,99 159,106 135,105" />
<polygon fill="#ffb696" fill-opacity="0.501961" points="152,68 156,73 153,72" />
<polygon fill="#08050f" fill-opacity="0.501961" points="35,58 38,83 13,72" />
<polygon fill="#352e2a" fill-opacity="0.501961" points="65,31 60,24 74,22" />
<polygon fill="#000000" fill-opacity="0.501961" points="218,14 91,13 192,-16" />
<polygon fill="#14347a" fill-opacity="0.501961" points="143,114 151,112 136,111" />
<polygon fill="#180b09" fill-opacity="0.501961" points="146,62 160,68 178,62" />
<polygon fill="#37302d" fill-opacity="0.501961" points="159,44 148,25 173,23" />
<polygon fill="#051c52" fill-opacity="0.501961" points="138,113 168,130 166,112" />
<polygon fill="#0c0503" fill-opacity="0.501961" points="21,66 55,48 9,45" />
<polygon fill="#0f0b18" fill-opacity="0.501961" points="95,86 112,109 118,84" />
<polygon fill="#080103" fill-opacity="0.501961" points="92,91 61,94 65,81" />
<polygon fill="#1e1610" fill-opacity="0.501961" points="29,44 37,61 37,23" />
<polygon fill="#0b2158" fill-opacity="0.501961" points="189,124 186,138 142,141" />
<polygon fill="#001a51" fill-opacity="0.501961" points="77,122 69,123 78,114" />
<polygon fill="#120905" fill-opacity="0.501961" points="189,52 180,26 181,83" />
<polygon fill="#53688a" fill-opacity="0.501961" points="87,131 94,129 89,127" />
<polygon fill="#09060d" fill-opacity="0.501961" points="30,110 5,97 30,100" />
<polygon fill="#1d4189" fill-opacity="0.501961" points="240,141 246,143 236,143" />
<polygon fill="#808da8" fill-opacity="0.501961" points="104,122 103,119 102,122" />
<polygon fill="#150e18" fill-opacity="0.501961" points="160,57 137,71 147,72" />
<polygon fill="#9eabbc" fill-opacity="0.501961" points="60,125 60,128 57,126" />
<polygon fill="#110808" fill-opacity="0.501961" points="172,104 189,100 180,111" />
<polygon fill="#011b59" fill-opacity="0.501961" points="107,122 92,127 123,137" />
<polygon fill="#95a1ba" fill-opacity="0.501961" points="92,122 93,116 94,121" />
<polygon fill="#291b13" fill-opacity="0.501961" points="60,58 60,81 76,56" />
<polygon fill="#263b74" fill-opacity="0.501961" points="138,110 127,110 135,113" />
<polygon fill="#8b7170" fill-opacity="0.501961" points="144,77 146,78 145,74" />
<polygon fill="#0d0a0c" fill-opacity="0.501961" points="115,57 117,32 38,32" />
<polygon fill="#1a3c86" fill-opacity="0.501961" points="204,111 193,111 197,114" />
<polygon fill="#342b33" fill-opacity="0.501961" points="137,79 138,73 132,73" />
<polygon fill="#011b53" fill-opacity="0.501961" points="207,112 171,112 198,137" />
<polygon fill="#001a52" fill-opacity="0.501961" points="57,142 30,132 92,130" />
<polygon fill="#0c0815" fill-opacity="0.501961" points="100,87 113,77 97,80" />
<polygon fill="#00174e" fill-opacity="0.501961" points="251,124 246,123 251,138" />
<polygon fill="#4e87ff" fill-opacity="0.501961" points="243,130 244,135 246,131" />
<polygon fill="#160d06" fill-opacity="0.501961" points="89,23 66,14 118,14" />
<polygon fill="#37312b" fill-opacity="0.501961" points="179,91 172,111 169,88" />
<polygon fill="#627396" fill-opacity="0.501961" points="102,120 104,117 102,115" />
<polygon fill="#153677" fill-opacity="0.501961" points="68,143 92,143 82,139" />
<polygon fill="#435980" fill-opacity="0.501961" points="38,117 55,117 44,120" />
<polygon fill="#1e4389" fill-opacity="0.501961" points="209,143 201,143 203,141" />
<polygon fill="#154293" fill-opacity="0.501961" points="44,111 37,113 32,111" />
<polygon fill="#001952" fill-opacity="0.501961" points="199,113 243,141 186,142" />
<polygon fill="#001950" fill-opacity="0.501961" points="93,132 66,141 107,142" />
<polygon fill="#0f0d14" fill-opacity="0.501961" points="68,35 101,42 37,46" />
<polygon fill="#001a52" fill-opacity="0.501961" points="21,135 24,112 44,112" />
<polygon fill="#0d275c" fill-opacity="0.501961" points="72,123 71,117 83,124" />
<polygon fill="#082257" fill-opacity="0.501961" points="59,123 46,124 47,120" />
<polygon fill="#000000" fill-opacity="0.501961" points="1,111 1,118 7,103" />
<polygon fill="#193b7e" fill-opacity="0.501961" points="234,143 215,143 224,140" />
<polygon fill="#001a52" fill-opacity="0.501961" points="246,118 237,142 190,141" />
<polygon fill="#120c17" fill-opacity="0.501961" points="135,94 138,111 79,106" />
<polygon fill="#132e60" fill-opacity="0.501961" points="87,136 82,129 84,117" />
<polygon fill="#080404" fill-opacity="0.501961" points="140,42 141,63 145,57" />
<polygon fill="#051d5a" fill-opacity="0.501961" points="165,112 98,113 130,128" />
<polygon fill="#37302c" fill-opacity="0.501961" points="139,41 117,44 139,27" />
<polygon fill="#6f809d" fill-opacity="0.501961" points="90,123 80,128 90,127" />
<polygon fill="#1e3d83" fill-opacity="0.501961" points="180,111 188,112 181,113" />
<polygon fill="#000000" fill-opacity="0.501961" points="255,103 204,110 254,18" />
<polygon fill="#234388" fill-opacity="0.501961" points="163,111 167,111 171,115" />
<polygon fill="#000300" fill-opacity="0.501961" points="253,144 259,151 253,131" />
<polygon fill="#001a53" fill-opacity="0.501961" points="40,113 9,141 38,142" />
<polygon fill="#001a53" fill-opacity="0.501961" points="234,129 178,112 225,112" />
<polygon fill="#2e1f15" fill-opacity="0.501961" points="89,73 63,73 60,81" />
<polygon fill="#647393" fill-opacity="0.501961" points="53,123 49,127 50,123" />
<polygon fill="#b5c0d0" fill-opacity="0.501961" points="57,118 60,115 56,115" />
<polygon fill="#0d0407" fill-opacity="0.501961" points="129,25 136,16 141,24" />
<polygon fill="#001a54" fill-opacity="0.501961" points="181,129 251,118 233,142" />
<polygon fill="#051f54" fill-opacity="0.501961" points="69,128 78,138 71,136" />
<polygon fill="#285cb1" fill-opacity="0.501961" points="5,111 10,111 7,112" />
<polygon fill="#050507" fill-opacity="0.501961" points="63,51 37,33 41,50" />
<polygon fill="#2c4f9b" fill-opacity="0.501961" points="158,113 159,111 154,111" />
<polygon fill="#0d0a13" fill-opacity="0.501961" points="119,78 121,79 117,85" />
<polygon fill="#0b0704" fill-opacity="0.501961" points="146,111 159,106 132,106" />
<polygon fill="#1a110e" fill-opacity="0.501961" points="62,71 81,66 91,76" />
<polygon fill="#100c16" fill-opacity="0.501961" points="127,89 164,87 147,98" />
<polygon fill="#001a53" fill-opacity="0.501961" points="7,135 7,117 46,120" />
<polygon fill="#342d29" fill-opacity="0.501961" points="171,27 180,32 168,65" />
<polygon fill="#7989a3" fill-opacity="0.501961" points="85,117 87,121 84,122" />
<polygon fill="#060308" fill-opacity="0.501961" points="82,29 85,44 73,30" />
<polygon fill="#0c2258" fill-opacity="0.501961" points="189,112 147,112 183,123" />
<polygon fill="#231009" fill-opacity="0.501961" points="163,44 158,56 147,44" />
<polygon fill="#3f547c" fill-opacity="0.501961" points="90,126 89,130 84,126" />
<polygon fill="#000000" fill-opacity="0.501961" points="49,111 45,97 34,107" />
<polygon fill="#110a0b" fill-opacity="0.501961" points="180,103 175,110 194,111" />
<polygon fill="#120c16" fill-opacity="0.501961" points="84,105 85,80 115,77" />
<polygon fill="#982519" fill-opacity="0.501961" points="154,68 156,69 157,71" />
<polygon fill="#133579" fill-opacity="0.501961" points="13,143 18,140 27,143" />
<polygon fill="#6f7e9a" fill-opacity="0.501961" points="62,115 74,125 67,115" />
<polygon fill="#000000" fill-opacity="0.501961" points="41,-16 146,12 1,14" />
<polygon fill="#0d2e78" fill-opacity="0.501961" points="51,111 69,111 63,115" />
<polygon fill="#001a53" fill-opacity="0.501961" points="13,122 74,141 16,142" />
<polygon fill="#433227" fill-opacity="0.501961" points="152,143 152,157 136,143" />
<polygon fill="#374e77" fill-opacity="0.501961" points="77,128 81,132 77,120" />
<polygon fill="#000842" fill-opacity="0.501961" points="88,123 86,122 84,123" />
<polygon fill="#130f13" fill-opacity="0.501961" points="68,41 99,34 114,44" />
<polygon fill="#2b181a" fill-opacity="0.501961" points="162,70 168,66 171,84" />
<polygon fill="#051d5b" fill-opacity="0.501961" points="128,135 89,122 110,122" />
<polygon fill="#100c18" fill-opacity="0.501961" points="154,92 162,102 160,64" />
<polygon fill="#28221c" fill-opacity="0.501961" points="52,32 68,22 39,28" />
<polygon fill="#7785a0" fill-opacity="0.501961" points="77,122 79,120 78,115" />
<polygon fill="#2e241a" fill-opacity="0.501961" points="128,20 131,25 114,20" />
<polygon fill="#0a0502" fill-opacity="0.501961" points="55,75 58,83 35,76" />
<polygon fill="#0e0c0b" fill-opacity="0.501961" points="33,21 21,51 15,33" />
<polygon fill="#352f2c" fill-opacity="0.501961" points="172,40 143,24 143,44" />
<polygon fill="#345cad" fill-opacity="0.501961" points="212,142 214,143 213,142" />
<polygon fill="#0b0817" fill-opacity="0.501961" points="119,62 133,65 126,56" />
<polygon fill="#8c8d88" fill-opacity="0.501961" points="127,87 122,89 124,87" />
<polygon fill="#38221b" fill-opacity="0.501961" points="123,65 133,83 134,66" />
<polygon fill="#001a53" fill-opacity="0.501961" points="109,142 42,138 81,130" />
<polygon fill="#6e7e9b" fill-opacity="0.501961" points="72,121 60,116 66,115" />
<polygon fill="#051d5c" fill-opacity="0.501961" points="107,141 133,142 91,125" />
<polygon fill="#011c53" fill-opacity="0.501961" points="62,127 72,140 68,142" />
<polygon fill="#1e0e04" fill-opacity="0.501961" points="164,84 183,84 160,91" />
<polygon fill="#001a54" fill-opacity="0.501961" points="69,121 69,124 73,122" />
<polygon fill="#0a0503" fill-opacity="0.501961" points="61,19 40,14 19,23" />
<polygon fill="#341412" fill-opacity="0.501961" points="255,107 256,147 270,149" />
<polygon fill="#1e0c17" fill-opacity="0.501961" points="150,59 152,81 146,66" />
<polygon fill="#231710" fill-opacity="0.501961" points="117,55 85,58 118,76" />
<polygon fill="#110d18" fill-opacity="0.501961" points="47,86 35,98 68,96" />
<polygon fill="#001a51" fill-opacity="0.501961" points="230,132 248,142 207,142" />
<polygon fill="#110c17" fill-opacity="0.501961" points="125,87 102,97 84,79" />
<polygon fill="#15111c" fill-opacity="0.501961" points="87,111 90,100 49,110" />
<polygon fill="#000000" fill-opacity="0.501961" points="186,-16 188,109 261,-16" />
<polygon fill="#37302c" fill-opacity="0.501961" points="168,90 177,88 168,97" />
<polygon fill="#170d08" fill-opacity="0.501961" points="185,74 180,94 186,110" />
<polygon fill="#0c0307" fill-opacity="0.501961" points="167,65 173,71 173,64" />
<polygon fill="#040407" fill-opacity="0.501961" points="62,51 104,51 83,44" />
<polygon fill="#100703" fill-opacity="0.501961" points="168,54 162,47 161,72" />
<polygon fill="#24448a" fill-opacity="0.501961" points="159,111 154,113 151,111" />
<polygon fill="#5186ff" fill-opacity="0.501961" points="242,132 247,134 242,135" />
<polygon fill="#140a06" fill-opacity="0.501961" points="153,22 150,14 172,17" />
<polygon fill="#021c53" fill-opacity="0.501961" points="158,121 166,112 131,112" />
<polygon fill="#001345" fill-opacity="0.501961" points="63,115 60,113 59,115" />
<polygon fill="#617393" fill-opacity="0.501961" points="55,128 64,127 60,130" />
<polygon fill="#2a231f" fill-opacity="0.501961" points="171,32 168,22 166,42" />
<polygon fill="#0c0b17" fill-opacity="0.501961" points="135,74 144,56 152,57" />
<polygon fill="#9aa8b9" fill-opacity="0.501961" points="89,124 86,125 91,126" />
<polygon fill="#1e417f" fill-opacity="0.501961" points="5,141 10,142 3,143" />
<polygon fill="#001a53" fill-opacity="0.501961" points="5,142 66,142 8,116" />
<polygon fill="#1b3674" fill-opacity="0.501961" points="192,143 165,143 178,139" />
<polygon fill="#021a51" fill-opacity="0.501961" points="173,131 189,141 167,142" />
<polygon fill="#080304" fill-opacity="0.501961" points="83,63 77,61 78,63" />
<polygon fill="#254082" fill-opacity="0.501961" points="153,143 138,143 149,140" />
<polygon fill="#0d2356" fill-opacity="0.501961" points="138,141 136,120 163,142" />
<polygon fill="#162e66" fill-opacity="0.501961" points="173,113 169,122 166,112" />
<polygon fill="#001950" fill-opacity="0.501961" points="56,113 51,118 44,117" />
<polygon fill="#1b3f88" fill-opacity="0.501961" points="43,143 56,143 50,141" />
<polygon fill="#000506" fill-opacity="0.501961" points="253,134 253,116 258,116" />
<polygon fill="#1f1d1b" fill-opacity="0.501961" points="37,44 27,44 35,33" />
<polygon fill="#4e5657" fill-opacity="0.501961" points="132,85 129,85 130,88" />
</g>
</svg>