<svg xmlns="http://www.w3.org/2000/svg" version="1.1" width="1024" height="580">
<rect x="0" y="0" width="1024" height="580" fill="#10111d" />
<g transform="scale(4.000000) translate(0.5 0.5)">
<polygon fill="#1644a3" fill-opacity="0.501961" points="105,160 271,111 -16,112" />
<polygon fill="#000000" fill-opacity="0.501961" points="118,-16 271,139 271,-16" />
<polygon fill="#00339f" fill-opacity="0.501961" points="168,143 254,143 251,119" />
<polygon fill="#0d0300" fill-opacity="0.501961" points="-13,131 186,-13 -6,-2" />
<polygon fill="#38271a" fill-opacity="0.501961" points="181,111 24,20 180,21" />
<polygon fill="#49618c" fill-opacity="0.501961" points="56,115 128,116 5,154" />
<polygon fill="#000000" fill-opacity="0.501961" points="177,109 201,-16 270,110" />
<polygon fill="#001765" fill-opacity="0.501961" points="71,147 1,160 6,111" />
<polygon fill="#b68784" fill-opacity="0.501961" points="134,75 138,84 160,67" />
<polygon fill="#120805" fill-opacity="0.501961" points="32,111 174,56 -16,14" />
<polygon fill="#60a1ff" fill-opacity="0.501961" points="244,131 237,138 251,135" />
<polygon fill="#00144e" fill-opacity="0.501961" points="207,151 271,110 74,124" />
<polygon fill="#2e1e13" fill-opacity="0.501961" points="31,80 149,71 48,50" />
<polygon fill="#000000" fill-opacity="0.501961" points="18,-16 -16,27 160,10" />
<polygon fill="#3f3933" fill-opacity="0.501961" points="180,52 80,23 178,25" />
<polygon fill="#6c7c96" fill-opacity="0.501961" points="56,115 55,140 87,115" />
<polygon fill="#000000" fill-opacity="0.501961" points="271,132 147,-6 253,-9" />
<polygon fill="#617493" fill-opacity="0.501961" points="113,136 85,130 85,140" />
<polygon fill="#000000" fill-opacity="0.501961" points="2,111 2,17 47,109" />
<polygon fill="#0b020e" fill-opacity="0.501961" points="144,96 146,66 173,102" />
<polygon fill="#919eb6" fill-opacity="0.501961" points="97,117 120,115 120,123" />
<polygon fill="#00104b" fill-opacity="0.501961" points="68,132 95,130 102,111" />
<polygon fill="#ff9561" fill-opacity="0.501961" points="152,75 152,66 158,70" />
<polygon fill="#586c8c" fill-opacity="0.501961" points="39,124 78,140 76,125" />
<polygon fill="#001a51" fill-opacity="0.501961" points="68,153 16,109 -3,157" />
<polygon fill="#000000" fill-opacity="0.501961" points="224,-16 178,110 271,109" />
<polygon fill="#17070a" fill-opacity="0.501961" points="160,106 177,68 155,55" />
<polygon fill="#402a26" fill-opacity="0.501961" points="114,83 134,96 134,64" />
<polygon fill="#00174d" fill-opacity="0.501961" points="65,130 36,130 17,144" />
<polygon fill="#05050d" fill-opacity="0.501961" points="113,31 17,36 126,60" />
<polygon fill="#1b0f0e" fill-opacity="0.501961" points="94,109 190,110 138,83" />
<polygon fill="#840f00" fill-opacity="0.501961" points="-16,106 -1,160 0,72" />
<polygon fill="#001a55" fill-opacity="0.501961" points="50,112 4,160 4,112" />
<polygon fill="#3c342c" fill-opacity="0.501961" points="178,107 164,111 179,63" />
<polygon fill="#34302a" fill-opacity="0.501961" points="34,31 68,32 73,18" />
<polygon fill="#3c3730" fill-opacity="0.501961" points="142,50 123,21 116,41" />
<polygon fill="#00144e" fill-opacity="0.501961" points="174,112 234,113 242,141" />
<polygon fill="#000000" fill-opacity="0.501961" points="155,2 1,25 1,-16" />
<polygon fill="#9d8786" fill-opacity="0.501961" points="142,72 135,78 144,83" />
<polygon fill="#061f5a" fill-opacity="0.501961" points="128,111 87,160 205,117" />
<polygon fill="#250a00" fill-opacity="0.501961" points="76,143 188,143 133,160" />
<polygon fill="#170806" fill-opacity="0.501961" points="107,51 167,45 167,71" />
<polygon fill="#840f05" fill-opacity="0.501961" points="0,72 -16,52 0,0" />
<polygon fill="#310400" fill-opacity="0.501961" points="252,160 271,112 256,65" />
<polygon fill="#2a2820" fill-opacity="0.501961" points="35,23 28,38 37,48" />
<polygon fill="#00124c" fill-opacity="0.501961" points="90,122 97,122 93,141" />
<polygon fill="#022362" fill-opacity="0.501961" points="252,109 232,116 252,127" />
<polygon fill="#072057" fill-opacity="0.501961" points="70,121 59,123 72,126" />
<polygon fill="#0a0610" fill-opacity="0.501961" points="134,62 146,52 136,79" />
<polygon fill="#508aff" fill-opacity="0.501961" points="246,139 248,133 240,134" />
<polygon fill="#0e0610" fill-opacity="0.501961" points="16,66 52,110 156,110" />
<polygon fill="#000000" fill-opacity="0.501961" points="271,-16 194,110 181,51" />
<polygon fill="#455a86" fill-opacity="0.501961" points="112,130 111,142 98,135" />
<polygon fill="#080000" fill-opacity="0.501961" points="48,143 -16,143 35,159" />
<polygon fill="#38342f" fill-opacity="0.501961" points="125,22 98,31 67,23" />
<polygon fill="#001a51" fill-opacity="0.501961" points="60,122 10,126 5,110" />
<polygon fill="#00154d" fill-opacity="0.501961" points="250,114 241,111 252,143" />
<polygon fill="#422a14" fill-opacity="0.501961" points="136,106 159,105 154,97" />
<polygon fill="#050000" fill-opacity="0.501961" points="58,160 82,143 2,143" />
<polygon fill="#050000" fill-opacity="0.501961" points="3,110 -12,155 3,149" />
<polygon fill="#112c5e" fill-opacity="0.501961" points="61,125 70,132 61,133" />
<polygon fill="#001754" fill-opacity="0.501961" points="102,134 120,122 73,122" />
<polygon fill="#382f28" fill-opacity="0.501961" points="167,57 177,74 180,29" />
<polygon fill="#7989a1" fill-opacity="0.501961" points="39,129 50,125 41,123" />
<polygon fill="#f5daf6" fill-opacity="0.501961" points="135,81 140,79 134,79" />
<polygon fill="#010000" fill-opacity="0.501961" points="162,-16 141,29 92,-6" />
<polygon fill="#0f0915" fill-opacity="0.501961" points="128,97 183,85 134,82" />
<polygon fill="#122c6d" fill-opacity="0.501961" points="112,110 87,117 71,110" />
<polygon fill="#241214" fill-opacity="0.501961" points="168,97 165,76 145,72" />
<polygon fill="#302013" fill-opacity="0.501961" points="81,80 60,82 60,54" />
<polygon fill="#f8bc9a" fill-opacity="0.501961" points="151,68 152,71 159,73" />
<polygon fill="#001a52" fill-opacity="0.501961" points="240,139 150,141 244,113" />
<polygon fill="#580900" fill-opacity="0.501961" points="255,14 257,62 271,60" />
<polygon fill="#c2cad4" fill-opacity="0.501961" points="56,116 59,115 57,121" />
<polygon fill="#5f7294" fill-opacity="0.501961" points="88,116 86,118 94,123" />
<polygon fill="#291518" fill-opacity="0.501961" points="171,88 167,63 152,76" />
<polygon fill="#576d8c" fill-opacity="0.501961" points="48,135 39,138 40,135" />
<polygon fill="#23396d" fill-opacity="0.501961" points="174,111 170,131 167,109" />
<polygon fill="#6e7e9f" fill-opacity="0.501961" points="115,119 101,120 104,123" />
<polygon fill="#00174c" fill-opacity="0.501961" points="73,130 101,146 89,149" />
<polygon fill="#1f110b" fill-opacity="0.501961" points="140,15 191,33 180,14" />
<polygon fill="#000000" fill-opacity="0.501961" points="1,66 2,105 56,110" />
<polygon fill="#647596" fill-opacity="0.501961" points="67,114 55,121 87,121" />
<polygon fill="#1c0e0c" fill-opacity="0.501961" points="168,42 151,70 92,56" />
<polygon fill="#001956" fill-opacity="0.501961" points="119,112 127,128 181,112" />
<polygon fill="#00164c" fill-opacity="0.501961" points="79,134 86,115 87,126" />
<polygon fill="#07225e" fill-opacity="0.501961" points="103,131 107,115 109,135" />
<polygon fill="#001a55" fill-opacity="0.501961" points="39,136 44,143 65,141" />
<polygon fill="#000000" fill-opacity="0.501961" points="88,12 220,15 202,-16" />
<polygon fill="#190f09" fill-opacity="0.501961" points="40,14 95,14 63,23" />
<polygon fill="#aab6c4" fill-opacity="0.501961" points="85,132 85,139 91,132" />
<polygon fill="#7c8ca5" fill-opacity="0.501961" points="73,133 80,138 71,136" />
<polygon fill="#7c808e" fill-opacity="0.501961" points="117,80 114,85 118,82" />
<polygon fill="#f4c557" fill-opacity="0.501961" points="152,81 153,79 154,80" />
<polygon fill="#36302b" fill-opacity="0.501961" points="169,21 129,27 180,44" />
<polygon fill="#1b0e09" fill-opacity="0.501961" points="186,86 173,109 187,109" />
<polygon fill="#6a1a12" fill-opacity="0.501961" points="0,115 -16,141 1,149" />
<polygon fill="#3a4c76" fill-opacity="0.501961" points="162,142 169,146 183,142" />
<polygon fill="#667a96" fill-opacity="0.501961" points="68,132 57,133 61,139" />
<polygon fill="#07010a" fill-opacity="0.501961" points="116,93 119,62 124,80" />
<polygon fill="#9ba7ba" fill-opacity="0.501961" points="79,115 81,120 84,117" />
<polygon fill="#000000" fill-opacity="0.501961" points="255,-16 254,95 183,110" />
<polygon fill="#0d090b" fill-opacity="0.501961" points="79,28 111,55 17,57" />
<polygon fill="#130a12" fill-opacity="0.501961" points="118,104 120,84 83,88" />
<polygon fill="#4b4b45" fill-opacity="0.501961" points="127,83 128,87 135,90" />
<polygon fill="#818fa7" fill-opacity="0.501961" points="90,139 91,133 86,133" />
<polygon fill="#031b5b" fill-opacity="0.501961" points="114,118 124,136 113,142" />
<polygon fill="#1a0d04" fill-opacity="0.501961" points="186,86 187,34 177,50" />
<polygon fill="#3f557b" fill-opacity="0.501961" points="49,120 38,118 58,116" />
<polygon fill="#0f3374" fill-opacity="0.501961" points="4,116 5,141 9,124" />
<polygon fill="#5a5e5b" fill-opacity="0.501961" points="121,90 128,85 128,88" />
<polygon fill="#5087ff" fill-opacity="0.501961" points="243,133 247,128 244,138" />
<polygon fill="#19110c" fill-opacity="0.501961" points="135,16 143,46 144,11" />
<polygon fill="#001953" fill-opacity="0.501961" points="39,114 40,142 2,110" />
<polygon fill="#072355" fill-opacity="0.501961" points="65,138 61,129 61,138" />
<polygon fill="#261a12" fill-opacity="0.501961" points="102,68 33,71 39,54" />
<polygon fill="#6b7c9b" fill-opacity="0.501961" points="65,124 74,127 54,128" />
<polygon fill="#0d2967" fill-opacity="0.501961" points="72,111 77,111 77,121" />
<polygon fill="#030300" fill-opacity="0.501961" points="253,160 253,110 267,160" />
<polygon fill="#0e0a18" fill-opacity="0.501961" points="165,101 149,75 135,92" />
<polygon fill="#011d56" fill-opacity="0.501961" points="252,118 250,131 235,124" />
<polygon fill="#00184e" fill-opacity="0.501961" points="54,126 49,117 56,122" />
<polygon fill="#001855" fill-opacity="0.501961" points="100,138 99,114 90,113" />
<polygon fill="#110b12" fill-opacity="0.501961" points="99,84 132,84 117,90" />
<polygon fill="#3a352f" fill-opacity="0.501961" points="140,50 139,37 129,47" />
<polygon fill="#7d8da2" fill-opacity="0.501961" points="47,128 40,129 44,130" />
<polygon fill="#452820" fill-opacity="0.501961" points="135,82 123,65 123,83" />
<polygon fill="#0e0700" fill-opacity="0.501961" points="203,160 212,143 161,144" />
<polygon fill="#0b0a0f" fill-opacity="0.501961" points="116,32 44,43 115,54" />
<polygon fill="#4a5479" fill-opacity="0.501961" points="137,142 144,145 154,142" />
<polygon fill="#001d54" fill-opacity="0.501961" points="102,130 84,117 85,132" />
<polygon fill="#060100" fill-opacity="0.501961" points="84,96 52,81 83,83" />
<polygon fill="#031c5b" fill-opacity="0.501961" points="114,144 118,138 106,140" />
<polygon fill="#929db5" fill-opacity="0.501961" points="118,120 109,121 109,116" />
<polygon fill="#331f06" fill-opacity="0.501961" points="161,143 140,143 144,152" />
<polygon fill="#0b0817" fill-opacity="0.501961" points="131,61 144,72 162,56" />
<polygon fill="#271a12" fill-opacity="0.501961" points="80,56 111,78 118,57" />
<polygon fill="#000000" fill-opacity="0.501961" points="186,-9 264,-16 186,109" />
<polygon fill="#000000" fill-opacity="0.501961" points="190,110 254,-16 255,110" />
<polygon fill="#3d342d" fill-opacity="0.501961" points="85,32 108,32 87,24" />
<polygon fill="#0f0c18" fill-opacity="0.501961" points="70,99 39,97 24,66" />
<polygon fill="#0c0909" fill-opacity="0.501961" points="127,143 116,158 68,143" />
<polygon fill="#001b50" fill-opacity="0.501961" points="70,137 71,130 68,131" />
<polygon fill="#707f9c" fill-opacity="0.501961" points="41,124 46,129 57,128" />
<polygon fill="#46170f" fill-opacity="0.501961" points="271,154 255,153 255,98" />
<polygon fill="#00124b" fill-opacity="0.501961" points="73,140 89,142 86,138" />
<polygon fill="#001952" fill-opacity="0.501961" points="245,139 194,141 177,115" />
<polygon fill="#000000" fill-opacity="0.501961" points="100,-16 1,-16 1,37" />
<polygon fill="#08205d" fill-opacity="0.501961" points="114,139 114,115 124,144" />
<polygon fill="#11295f" fill-opacity="0.501961" points="178,114 181,141 163,114" />
<polygon fill="#352f2b" fill-opacity="0.501961" points="179,55 169,65 172,32" />
<polygon fill="#160b08" fill-opacity="0.501961" points="122,14 131,26 164,16" />
<polygon fill="#806c6b" fill-opacity="0.501961" points="145,72 137,72 146,79" />
<polygon fill="#150b0b" fill-opacity="0.501961" points="168,79 173,86 174,63" />
<polygon fill="#001a52" fill-opacity="0.501961" points="5,121 48,119 5,142" />
<polygon fill="#38302a" fill-opacity="0.501961" points="177,82 181,102 168,103" />
<polygon fill="#0b2a69" fill-opacity="0.501961" points="60,143 48,137 26,143" />
<polygon fill="#4f638d" fill-opacity="0.501961" points="89,122 87,119 94,121" />
<polygon fill="#000e47" fill-opacity="0.501961" points="47,129 45,134 54,133" />
<polygon fill="#11316f" fill-opacity="0.501961" points="202,138 216,143 195,143" />
<polygon fill="#001951" fill-opacity="0.501961" points="188,142 214,142 206,113" />
<polygon fill="#122e6d" fill-opacity="0.501961" points="71,110 48,111 66,115" />
<polygon fill="#b3938d" fill-opacity="0.501961" points="143,80 143,75 134,81" />
<polygon fill="#120a1a" fill-opacity="0.501961" points="143,65 140,69 155,79" />
<polygon fill="#72819f" fill-opacity="0.501961" points="103,139 100,132 105,136" />
<polygon fill="#0d0917" fill-opacity="0.501961" points="153,89 162,88 160,59" />
<polygon fill="#3b2421" fill-opacity="0.501961" points="171,83 159,87 167,76" />
<polygon fill="#163167" fill-opacity="0.501961" points="26,110 5,116 4,110" />
<polygon fill="#161613" fill-opacity="0.501961" points="45,20 20,52 19,31" />
<polygon fill="#001952" fill-opacity="0.501961" points="251,112 242,119 252,139" />
<polygon fill="#342212" fill-opacity="0.501961" points="154,101 137,99 136,104" />
<polygon fill="#627397" fill-opacity="0.501961" points="102,132 100,135 112,133" />
<polygon fill="#0d235b" fill-opacity="0.501961" points="166,132 100,132 144,120" />
<polygon fill="#3c3632" fill-opacity="0.501961" points="70,31 57,29 71,24" />
<polygon fill="#301d1b" fill-opacity="0.501961" points="136,74 124,79 124,62" />
<polygon fill="#112b5e" fill-opacity="0.501961" points="61,130 61,119 64,120" />
<polygon fill="#580900" fill-opacity="0.501961" points="255,0 270,13 258,26" />
<polygon fill="#001a53" fill-opacity="0.501961" points="236,142 181,112 250,112" />
<polygon fill="#070307" fill-opacity="0.501961" points="-6,112 30,108 35,88" />
<polygon fill="#021c58" fill-opacity="0.501961" points="108,128 111,145 105,160" />
<polygon fill="#001248" fill-opacity="0.501961" points="70,137 72,142 55,142" />
<polygon fill="#000000" fill-opacity="0.501961" points="1,37 26,95 2,100" />
<polygon fill="#ffffe8" fill-opacity="0.501961" points="156,72 151,71 153,70" />
<polygon fill="#110c1a" fill-opacity="0.501961" points="130,87 96,109 138,107" />
<polygon fill="#00144b" fill-opacity="0.501961" points="35,135 59,141 24,142" />
<polygon fill="#0b0707" fill-opacity="0.501961" points="73,69 33,77 52,80" />
<polygon fill="#00114a" fill-opacity="0.501961" points="55,117 49,112 36,116" />
<polygon fill="#001650" fill-opacity="0.501961" points="52,115 63,115 63,112" />
<polygon fill="#273b6e" fill-opacity="0.501961" points="166,115 149,110 183,110" />
<polygon fill="#062357" fill-opacity="0.501961" points="76,138 80,124 81,135" />
<polygon fill="#8794af" fill-opacity="0.501961" points="115,118 116,122 120,114" />
<polygon fill="#16367a" fill-opacity="0.501961" points="252,127 252,116 249,116" />
<polygon fill="#37302b" fill-opacity="0.501961" points="139,26 138,47 118,44" />
<polygon fill="#1d326d" fill-opacity="0.501961" points="122,114 121,109 140,111" />
<polygon fill="#031b58" fill-opacity="0.501961" points="157,112 138,123 119,113" />
<polygon fill="#001a52" fill-opacity="0.501961" points="251,129 251,112 187,115" />
<polygon fill="#130703" fill-opacity="0.501961" points="179,89 187,83 182,55" />
<polygon fill="#120c16" fill-opacity="0.501961" points="67,110 137,110 101,77" />
<polygon fill="#687b98" fill-opacity="0.501961" points="71,124 75,131 77,125" />
<polygon fill="#1e0d01" fill-opacity="0.501961" points="162,87 168,102 163,111" />
<polygon fill="#38332f" fill-opacity="0.501961" points="179,94 168,89 169,112" />
<polygon fill="#251711" fill-opacity="0.501961" points="60,51 80,52 71,74" />
<polygon fill="#00164f" fill-opacity="0.501961" points="95,126 93,137 88,121" />
<polygon fill="#4a0901" fill-opacity="0.501961" points="255,75 256,36 265,59" />
<polygon fill="#588eff" fill-opacity="0.501961" points="249,137 244,130 243,134" />
<polygon fill="#6f7e9e" fill-opacity="0.501961" points="70,118 75,116 62,115" />
<polygon fill="#38312c" fill-opacity="0.501961" points="173,45 144,20 150,42" />
<polygon fill="#0f2f6f" fill-opacity="0.501961" points="6,143 7,137 24,143" />
<polygon fill="#272321" fill-opacity="0.501961" points="40,22 59,28 33,30" />
<polygon fill="#041d5b" fill-opacity="0.501961" points="138,140 134,123 85,122" />
<polygon fill="#001951" fill-opacity="0.501961" points="9,142 5,112 40,112" />
<polygon fill="#140a08" fill-opacity="0.501961" points="189,17 183,50 179,12" />
<polygon fill="#4b6285" fill-opacity="0.501961" points="75,130 80,129 75,126" />
<polygon fill="#051d55" fill-opacity="0.501961" points="122,112 161,124 194,112" />
<polygon fill="#00164f" fill-opacity="0.501961" points="81,140 76,130 82,131" />
<polygon fill="#620b10" fill-opacity="0.501961" points="148,72 150,65 152,72" />
<polygon fill="#001952" fill-opacity="0.501961" points="6,128 6,142 47,141" />
<polygon fill="#383143" fill-opacity="0.501961" points="113,83 110,82 111,75" />
<polygon fill="#4a3a3d" fill-opacity="0.501961" points="129,81 135,75 141,75" />
<polygon fill="#312014" fill-opacity="0.501961" points="57,73 82,75 79,82" />
<polygon fill="#052156" fill-opacity="0.501961" points="65,124 70,122 72,124" />
<polygon fill="#183976" fill-opacity="0.501961" points="250,112 240,113 241,110" />
<polygon fill="#100d1a" fill-opacity="0.501961" points="146,57 153,64 136,73" />
<polygon fill="#1a0e06" fill-opacity="0.501961" points="54,62 31,55 26,40" />
<polygon fill="#000000" fill-opacity="0.501961" points="82,14 85,-16 197,13" />
<polygon fill="#a8b0c1" fill-opacity="0.501961" points="49,125 52,128 48,126" />
<polygon fill="#0c0406" fill-opacity="0.501961" points="173,111 188,108 176,104" />
<polygon fill="#6d7f9c" fill-opacity="0.501961" points="66,132 67,138 64,135" />
<polygon fill="#221109" fill-opacity="0.501961" points="132,63 160,50 124,49" />
<polygon fill="#050000" fill-opacity="0.501961" points="162,52 168,63 164,44" />
<polygon fill="#0e0a0b" fill-opacity="0.501961" points="115,55 118,32 84,33" />
<polygon fill="#5e7192" fill-opacity="0.501961" points="51,118 43,118 49,120" />
<polygon fill="#98a4b9" fill-opacity="0.501961" points="57,135 61,137 60,134" />
<polygon fill="#0f0c11" fill-opacity="0.501961" points="56,48 43,31 115,38" />
<polygon fill="#000000" fill-opacity="0.501961" points="8,96 2,117 1,89" />
<polygon fill="#060002" fill-opacity="0.501961" points="111,78 103,74 94,79" />
<polygon fill="#264690" fill-opacity="0.501961" points="124,143 118,141 113,143" />
<polygon fill="#07205e" fill-opacity="0.501961" points="126,140 117,135 106,143" />
<polygon fill="#070411" fill-opacity="0.501961" points="119,69 120,59 132,55" />
<polygon fill="#010100" fill-opacity="0.501961" points="239,105 241,111 253,109" />
<polygon fill="#000004" fill-opacity="0.501961" points="86,34 75,29 69,35" />
<polygon fill="#00164d" fill-opacity="0.501961" points="77,123 83,133 82,126" />
<polygon fill="#090403" fill-opacity="0.501961" points="18,48 33,56 7,78" />
<polygon fill="#0b0805" fill-opacity="0.501961" points="31,15 7,36 52,16" />
<polygon fill="#6d7f9b" fill-opacity="0.501961" points="56,133 56,139 64,136" />
<polygon fill="#200d0d" fill-opacity="0.501961" points="158,74 156,66 182,60" />
<polygon fill="#160b05" fill-opacity="0.501961" points="130,13 82,15 106,21" />
<polygon fill="#495d83" fill-opacity="0.501961" points="67,126 76,129 68,130" />
<polygon fill="#2f4675" fill-opacity="0.501961" points="72,118 69,122 70,113" />
<polygon fill="#060500" fill-opacity="0.501961" points="49,152 72,143 53,143" />
<polygon fill="#6e7d9c" fill-opacity="0.501961" points="66,114 59,118 74,121" />
<polygon fill="#011a57" fill-opacity="0.501961" points="69,116 65,112 82,112" />
<polygon fill="#001952" fill-opacity="0.501961" points="20,117 30,128 48,120" />
<polygon fill="#53658d" fill-opacity="0.501961" points="113,133 109,141 111,131" />
<polygon fill="#070304" fill-opacity="0.501961" points="146,60 141,45 140,59" />
<polygon fill="#0c2257" fill-opacity="0.501961" points="138,123 184,142 132,141" />
<polygon fill="#123376" fill-opacity="0.501961" points="91,140 98,143 84,142" />
<polygon fill="#142c63" fill-opacity="0.501961" points="185,120 167,111 172,131" />
<polygon fill="#001750" fill-opacity="0.501961" points="75,122 93,122 85,131" />
<polygon fill="#2f1f14" fill-opacity="0.501961" points="106,74 97,68 82,73" />
<polygon fill="#000104" fill-opacity="0.501961" points="264,160 252,143 218,143" />
<polygon fill="#090611" fill-opacity="0.501961" points="33,82 14,70 36,58" />
<polygon fill="#160d0c" fill-opacity="0.501961" points="176,109 185,88 185,111" />
<polygon fill="#062056" fill-opacity="0.501961" points="66,123 61,118 61,123" />
<polygon fill="#071e5a" fill-opacity="0.501961" points="121,126 110,141 161,142" />
<polygon fill="#1a4192" fill-opacity="0.501961" points="205,113 198,111 210,111" />
<polygon fill="#001952" fill-opacity="0.501961" points="185,141 194,112 210,112" />
<polygon fill="#2c2622" fill-opacity="0.501961" points="166,50 164,33 180,51" />
<polygon fill="#0b245c" fill-opacity="0.501961" points="113,126 112,119 116,128" />
<polygon fill="#183465" fill-opacity="0.501961" points="60,138 61,143 66,130" />
<polygon fill="#001a52" fill-opacity="0.501961" points="88,120 84,130 102,132" />
<polygon fill="#001a53" fill-opacity="0.501961" points="250,130 250,112 187,113" />
<polygon fill="#261b12" fill-opacity="0.501961" points="35,73 38,63 57,75" />
<polygon fill="#12316f" fill-opacity="0.501961" points="220,143 217,140 228,142" />
<polygon fill="#36312d" fill-opacity="0.501961" points="104,31 121,30 131,21" />
<polygon fill="#1e3e84" fill-opacity="0.501961" points="169,115 177,111 163,111" />
<polygon fill="#001a52" fill-opacity="0.501961" points="248,141 189,142 185,116" />
<polygon fill="#00164e" fill-opacity="0.501961" points="70,130 86,130 80,134" />
<polygon fill="#000000" fill-opacity="0.501961" points="40,110 21,89 53,106" />
<polygon fill="#73839f" fill-opacity="0.501961" points="78,116 86,121 78,122" />
<polygon fill="#041e55" fill-opacity="0.501961" points="86,121 77,121 86,127" />
<polygon fill="#0a2457" fill-opacity="0.501961" points="45,117 47,127 48,122" />
<polygon fill="#273d79" fill-opacity="0.501961" points="120,109 131,112 109,112" />
<polygon fill="#130d17" fill-opacity="0.501961" points="48,111 105,81 127,110" />
<polygon fill="#484541" fill-opacity="0.501961" points="132,88 128,87 130,83" />
<polygon fill="#251f1b" fill-opacity="0.501961" points="36,30 38,44 28,40" />
<polygon fill="#2e1f13" fill-opacity="0.501961" points="157,104 138,99 157,98" />
<polygon fill="#909db5" fill-opacity="0.501961" points="65,118 63,115 70,115" />
<polygon fill="#071d55" fill-opacity="0.501961" points="188,112 168,112 185,127" />
<polygon fill="#24130b" fill-opacity="0.501961" points="116,53 127,43 137,57" />
<polygon fill="#2c416d" fill-opacity="0.501961" points="50,124 56,131 53,122" />
<polygon fill="#0f0b13" fill-opacity="0.501961" points="136,104 137,92 128,87" />
<polygon fill="#110c15" fill-opacity="0.501961" points="156,80 106,109 131,110" />
<polygon fill="#001854" fill-opacity="0.501961" points="80,112 94,113 84,115" />
<polygon fill="#08215d" fill-opacity="0.501961" points="103,133 112,130 111,126" />
<polygon fill="#3b231c" fill-opacity="0.501961" points="120,84 131,64 134,83" />
<polygon fill="#041c5b" fill-opacity="0.501961" points="117,142 112,134 136,134" />
<polygon fill="#38302d" fill-opacity="0.501961" points="161,44 149,23 170,23" />
<polygon fill="#082255" fill-opacity="0.501961" points="103,141 97,142 99,134" />
<polygon fill="#1f1108" fill-opacity="0.501961" points="109,58 111,51 88,51" />
<polygon fill="#390a04" fill-opacity="0.501961" points="255,61 271,98 257,117" />
<polygon fill="#061f5d" fill-opacity="0.501961" points="148,120 136,126 117,113" />
<polygon fill="#39322b" fill-opacity="0.501961" points="180,81 174,75 175,64" />
<polygon fill="#39322e" fill-opacity="0.501961" points="170,59 179,56 169,50" />
<polygon fill="#0c0505" fill-opacity="0.501961" points="85,75 96,75 73,85" />
<polygon fill="#1b3c80" fill-opacity="0.501961" points="252,116 248,112 252,111" />
<polygon fill="#16285b" fill-opacity="0.501961" points="159,125 138,124 144,132" />
<polygon fill="#000000" fill-opacity="0.501961" points="271,-14 188,52 187,3" />
<polygon fill="#361f1c" fill-opacity="0.501961" points="122,64 122,73 129,65" />
<polygon fill="#090817" fill-opacity="0.501961" points="132,87 143,85 136,82" />
<polygon fill="#1a0f0a" fill-opacity="0.501961" points="78,55 92,54 83,75" />
<polygon fill="#08215d" fill-opacity="0.501961" points="62,112 56,115 70,114" />
<polygon fill="#2f2016" fill-opacity="0.501961" points="60,80 61,73 84,80" />
<polygon fill="#001549" fill-opacity="0.501961" points="88,138 98,141 88,142" />
<polygon fill="#000000" fill-opacity="0.501961" points="248,48 236,92 255,113" />
<polygon fill="#040306" fill-opacity="0.501961" points="41,43 70,50 35,51" />
<polygon fill="#1b0f07" fill-opacity="0.501961" points="159,90 183,84 172,81" />
<polygon fill="#0d0911" fill-opacity="0.501961" points="31,57 27,84 45,94" />
<polygon fill="#120d17" fill-opacity="0.501961" points="48,86 53,107 64,81" />
<polygon fill="#16295b" fill-opacity="0.501961" points="139,140 149,136 160,141" />
<polygon fill="#7a89a4" fill-opacity="0.501961" points="55,128 57,126 55,125" />
<polygon fill="#09050c" fill-opacity="0.501961" points="31,104 16,111 13,94" />
<polygon fill="#001850" fill-opacity="0.501961" points="243,123 252,112 242,112" />
<polygon fill="#120c15" fill-opacity="0.501961" points="84,83 117,77 88,101" />
<polygon fill="#00174b" fill-opacity="0.501961" points="57,142 54,136 51,142" />
<polygon fill="#283c6e" fill-opacity="0.501961" points="86,110 79,112 77,110" />
<polygon fill="#0e0604" fill-opacity="0.501961" points="167,19 146,14 137,20" />
<polygon fill="#120f12" fill-opacity="0.501961" points="63,41 111,46 100,35" />
<polygon fill="#102e6a" fill-opacity="0.501961" points="183,143 197,142 187,138" />
<polygon fill="#001a52" fill-opacity="0.501961" points="200,123 245,141 184,142" />
<polygon fill="#110a09" fill-opacity="0.501961" points="158,56 162,77 166,40" />
<polygon fill="#496081" fill-opacity="0.501961" points="50,135 56,134 57,136" />
<polygon fill="#001858" fill-opacity="0.501961" points="92,119 101,119 90,114" />
<polygon fill="#2d251d" fill-opacity="0.501961" points="141,29 164,21 140,20" />
<polygon fill="#000000" fill-opacity="0.501961" points="26,13 239,14 134,-16" />
<polygon fill="#362f2b" fill-opacity="0.501961" points="139,31 126,44 115,27" />
<polygon fill="#100c17" fill-opacity="0.501961" points="134,83 162,98 160,86" />
<polygon fill="#031c54" fill-opacity="0.501961" points="174,140 192,129 142,134" />
<polygon fill="#001b51" fill-opacity="0.501961" points="55,130 57,132 48,132" />
<polygon fill="#000941" fill-opacity="0.501961" points="76,118 75,119 77,119" />
<polygon fill="#060104" fill-opacity="0.501961" points="80,85 61,95 67,81" />
<polygon fill="#001750" fill-opacity="0.501961" points="83,129 80,129 83,139" />
<polygon fill="#3f1e13" fill-opacity="0.501961" points="164,86 161,80 166,77" />
<polygon fill="#7a88a7" fill-opacity="0.501961" points="102,134 105,133 107,136" />
<polygon fill="#234792" fill-opacity="0.501961" points="155,113 153,111 159,111" />
<polygon fill="#0d3d9d" fill-opacity="0.501961" points="243,138 240,134 240,136" />
<polygon fill="#37302c" fill-opacity="0.501961" points="145,44 144,25 162,42" />
<polygon fill="#07205b" fill-opacity="0.501961" points="96,124 111,137 107,126" />
<polygon fill="#3e352c" fill-opacity="0.501961" points="168,108 164,110 176,111" />
<polygon fill="#170d03" fill-opacity="0.501961" points="141,106 156,111 163,107" />
</g>
</svg>