<svg xmlns="http://www.w3.org/2000/svg" version="1.1" width="1024" height="580">
<rect x="0" y="0" width="1024" height="580" fill="#0f101d" />
<g transform="scale(4.000000) translate(0.5 0.5)">
<polygon fill="#0f3d9d" fill-opacity="0.501961" points="-16,112 271,111 125,160" />
<polygon fill="#000000" fill-opacity="0.501961" points="239,126 271,-1 144,-5" />
<polygon fill="#00349e" fill-opacity="0.501961" points="252,142 176,143 252,118" />
<polygon fill="#3e2b1a" fill-opacity="0.501961" points="181,20 72,21 177,115" />
<polygon fill="#0a0200" fill-opacity="0.501961" points="195,-16 -16,-13 -8,125" />
<polygon fill="#7e8dab" fill-opacity="0.501961" points="98,127 143,116 56,114" />
<polygon fill="#001760" fill-opacity="0.501961" points="3,121 7,160 144,123" />
<polygon fill="#000000" fill-opacity="0.501961" points="250,-16 145,92 271,114" />
<polygon fill="#b58c8b" fill-opacity="0.501961" points="135,85 134,76 160,68" />
<polygon fill="#a0abbc" fill-opacity="0.501961" points="64,123 54,115 90,116" />
<polygon fill="#3d3731" fill-opacity="0.501961" points="67,24 180,54 178,23" />
<polygon fill="#1d110a" fill-opacity="0.501961" points="25,15 184,52 50,110" />
<polygon fill="#87d4ff" fill-opacity="0.501961" points="240,131 244,137 248,133" />
<polygon fill="#000000" fill-opacity="0.501961" points="49,0 271,-14 267,44" />
<polygon fill="#adb8c9" fill-opacity="0.501961" points="130,118 142,115 143,122" />
<polygon fill="#001b54" fill-opacity="0.501961" points="6,119 5,160 158,127" />
<polygon fill="#00154d" fill-opacity="0.501961" points="140,113 215,160 257,112" />
<polygon fill="#3a2a24" fill-opacity="0.501961" points="180,31 182,108 159,88" />
<polygon fill="#000000" fill-opacity="0.501961" points="9,-16 -16,110 49,109" />
<polygon fill="#2a1b12" fill-opacity="0.501961" points="30,73 152,87 56,49" />
<polygon fill="#000000" fill-opacity="0.501961" points="206,-16 175,111 271,106" />
<polygon fill="#000000" fill-opacity="0.501961" points="157,6 0,-16 4,25" />
<polygon fill="#372f28" fill-opacity="0.501961" points="121,32 28,32 73,18" />
<polygon fill="#0b0108" fill-opacity="0.501961" points="92,41 151,77 149,52" />
<polygon fill="#a1abc1" fill-opacity="0.501961" points="110,120 107,113 121,119" />
<polygon fill="#47312a" fill-opacity="0.501961" points="130,94 115,84 134,62" />
<polygon fill="#1a0c10" fill-opacity="0.501961" points="95,108 164,111 175,63" />
<polygon fill="#c7a9a4" fill-opacity="0.501961" points="137,80 143,73 144,82" />
<polygon fill="#130509" fill-opacity="0.501961" points="163,43 176,85 145,59" />
<polygon fill="#001a52" fill-opacity="0.501961" points="18,123 -9,160 125,122" />
<polygon fill="#c8734d" fill-opacity="0.501961" points="151,64 155,64 156,77" />
<polygon fill="#8b1307" fill-opacity="0.501961" points="0,29 0,121 -16,68" />
<polygon fill="#7d8da5" fill-opacity="0.501961" points="60,123 60,118 48,117" />
<polygon fill="#3f3935" fill-opacity="0.501961" points="142,47 118,19 118,44" />
<polygon fill="#011b5b" fill-opacity="0.501961" points="121,110 123,141 130,113" />
<polygon fill="#110000" fill-opacity="0.501961" points="70,144 130,159 120,143" />
<polygon fill="#1c0000" fill-opacity="0.501961" points="271,111 253,150 254,66" />
<polygon fill="#06070d" fill-opacity="0.501961" points="114,57 20,36 117,31" />
<polygon fill="#2d1300" fill-opacity="0.501961" points="146,160 131,143 202,144" />
<polygon fill="#100000" fill-opacity="0.501961" points="3,107 5,160 -10,144" />
<polygon fill="#001d58" fill-opacity="0.501961" points="4,160 55,115 4,111" />
<polygon fill="#0d0610" fill-opacity="0.501961" points="54,110 16,66 148,109" />
<polygon fill="#001e59" fill-opacity="0.501961" points="167,110 213,142 251,111" />
<polygon fill="#4e8aff" fill-opacity="0.501961" points="243,130 241,139 245,132" />
<polygon fill="#1b0e0a" fill-opacity="0.501961" points="73,59 160,67 166,43" />
<polygon fill="#160e19" fill-opacity="0.501961" points="154,109 146,73 160,74" />
<polygon fill="#07030e" fill-opacity="0.501961" points="125,75 43,109 84,77" />
<polygon fill="#000000" fill-opacity="0.501961" points="271,108 189,111 187,-16" />
<polygon fill="#0d0000" fill-opacity="0.501961" points="48,143 -4,143 9,159" />
<polygon fill="#37302a" fill-opacity="0.501961" points="176,64 182,101 165,112" />
<polygon fill="#362f2a" fill-opacity="0.501961" points="151,20 171,20 179,74" />
<polygon fill="#8390a8" fill-opacity="0.501961" points="81,122 97,116 77,116" />
<polygon fill="#840f03" fill-opacity="0.501961" points="-16,25 0,-9 1,29" />
<polygon fill="#021e63" fill-opacity="0.501961" points="110,115 106,110 90,114" />
<polygon fill="#1a3268" fill-opacity="0.501961" points="149,110 177,130 182,111" />
<polygon fill="#011b51" fill-opacity="0.501961" points="62,115 67,152 55,160" />
<polygon fill="#3f2a12" fill-opacity="0.501961" points="133,106 161,106 151,97" />
<polygon fill="#042061" fill-opacity="0.501961" points="70,110 86,114 55,115" />
<polygon fill="#7b190c" fill-opacity="0.501961" points="-16,113 -2,84 1,151" />
<polygon fill="#2b1b11" fill-opacity="0.501961" points="95,53 144,77 80,72" />
<polygon fill="#0a0500" fill-opacity="0.501961" points="11,143 62,157 103,143" />
<polygon fill="#857276" fill-opacity="0.501961" points="136,72 138,74 144,73" />
<polygon fill="#372f29" fill-opacity="0.501961" points="76,22 127,20 123,33" />
<polygon fill="#0b2968" fill-opacity="0.501961" points="4,143 63,143 35,134" />
<polygon fill="#000000" fill-opacity="0.501961" points="156,-2 1,28 3,-14" />
<polygon fill="#190e07" fill-opacity="0.501961" points="143,14 92,15 145,29" />
<polygon fill="#001951" fill-opacity="0.501961" points="217,114 247,142 115,141" />
<polygon fill="#090817" fill-opacity="0.501961" points="166,58 140,56 133,75" />
<polygon fill="#1a150e" fill-opacity="0.501961" points="35,57 14,45 38,20" />
<polygon fill="#f3a16a" fill-opacity="0.501961" points="148,73 157,65 155,72" />
<polygon fill="#120709" fill-opacity="0.501961" points="175,70 155,68 158,50" />
<polygon fill="#000000" fill-opacity="0.501961" points="8,110 3,64 57,110" />
<polygon fill="#560a00" fill-opacity="0.501961" points="256,90 255,-11 271,44" />
<polygon fill="#011b52" fill-opacity="0.501961" points="93,160 84,118 79,133" />
<polygon fill="#3d72f9" fill-opacity="0.501961" points="240,131 252,131 241,137" />
<polygon fill="#061e5c" fill-opacity="0.501961" points="114,117 105,160 117,145" />
<polygon fill="#0c080a" fill-opacity="0.501961" points="104,56 28,55 78,26" />
<polygon fill="#261618" fill-opacity="0.501961" points="146,78 179,88 170,65" />
<polygon fill="#617392" fill-opacity="0.501961" points="56,116 43,118 68,122" />
<polygon fill="#1e100a" fill-opacity="0.501961" points="185,60 187,110 173,111" />
<polygon fill="#7484a3" fill-opacity="0.501961" points="129,117 129,121 141,115" />
<polygon fill="#011b51" fill-opacity="0.501961" points="37,142 54,109 54,137" />
<polygon fill="#001851" fill-opacity="0.501961" points="243,114 254,133 202,113" />
<polygon fill="#051e52" fill-opacity="0.501961" points="73,138 82,155 77,117" />
<polygon fill="#20120b" fill-opacity="0.501961" points="185,14 186,31 136,15" />
<polygon fill="#001851" fill-opacity="0.501961" points="124,141 5,110 8,142" />
<polygon fill="#08010a" fill-opacity="0.501961" points="124,75 119,95 118,56" />
<polygon fill="#bca2a8" fill-opacity="0.501961" points="131,79 143,83 142,79" />
<polygon fill="#3c2723" fill-opacity="0.501961" points="124,62 136,84 121,90" />
<polygon fill="#2e1e13" fill-opacity="0.501961" points="81,81 61,80 73,52" />
<polygon fill="#0d0a18" fill-opacity="0.501961" points="136,82 115,109 160,86" />
<polygon fill="#11337a" fill-opacity="0.501961" points="235,116 243,111 218,111" />
<polygon fill="#180513" fill-opacity="0.501961" points="152,77 146,87 149,65" />
<polygon fill="#441307" fill-opacity="0.501961" points="270,123 255,79 255,148" />
<polygon fill="#1c3472" fill-opacity="0.501961" points="112,110 96,115 87,111" />
<polygon fill="#332d28" fill-opacity="0.501961" points="70,23 39,24 73,32" />
<polygon fill="#bec6d4" fill-opacity="0.501961" points="113,120 106,118 110,116" />
<polygon fill="#130904" fill-opacity="0.501961" points="40,21 95,19 65,12" />
<polygon fill="#160903" fill-opacity="0.501961" points="188,39 181,65 180,23" />
<polygon fill="#457eff" fill-opacity="0.501961" points="245,138 249,133 241,136" />
<polygon fill="#1d3676" fill-opacity="0.501961" points="116,111 132,115 140,110" />
<polygon fill="#4d5858" fill-opacity="0.501961" points="133,87 128,85 123,89" />
<polygon fill="#000000" fill-opacity="0.501961" points="192,-16 256,16 80,12" />
<polygon fill="#775d2d" fill-opacity="0.501961" points="152,79 154,82 156,81" />
<polygon fill="#2d4686" fill-opacity="0.501961" points="149,143 138,140 134,143" />
<polygon fill="#09215a" fill-opacity="0.501961" points="223,143 107,140 159,114" />
<polygon fill="#143676" fill-opacity="0.501961" points="4,144 8,134 4,124" />
<polygon fill="#535869" fill-opacity="0.501961" points="119,81 115,79 116,85" />
<polygon fill="#120b0a" fill-opacity="0.501961" points="89,143 136,143 78,160" />
<polygon fill="#090817" fill-opacity="0.501961" points="161,64 151,94 161,98" />
<polygon fill="#000100" fill-opacity="0.501961" points="229,160 271,143 191,144" />
<polygon fill="#130b14" fill-opacity="0.501961" points="128,85 87,83 84,111" />
<polygon fill="#362f2b" fill-opacity="0.501961" points="129,22 135,51 108,22" />
<polygon fill="#00144c" fill-opacity="0.501961" points="45,118 25,113 58,112" />
<polygon fill="#244d9e" fill-opacity="0.501961" points="10,113 6,111 15,111" />
<polygon fill="#39332f" fill-opacity="0.501961" points="180,87 178,102 168,89" />
<polygon fill="#294c91" fill-opacity="0.501961" points="78,143 69,143 75,141" />
<polygon fill="#38322e" fill-opacity="0.501961" points="143,24 171,22 148,45" />
<polygon fill="#6f7fa0" fill-opacity="0.501961" points="125,118 136,121 132,117" />
<polygon fill="#001a53" fill-opacity="0.501961" points="52,120 110,141 17,142" />
<polygon fill="#051d5a" fill-opacity="0.501961" points="142,141 82,142 128,119" />
<polygon fill="#000000" fill-opacity="0.501961" points="254,86 160,-16 254,11" />
<polygon fill="#001951" fill-opacity="0.501961" points="172,112 193,140 253,112" />
<polygon fill="#020000" fill-opacity="0.501961" points="63,84 83,83 66,95" />
<polygon fill="#120809" fill-opacity="0.501961" points="166,39 161,74 154,65" />
<polygon fill="#160902" fill-opacity="0.501961" points="167,106 167,86 156,108" />
<polygon fill="#120c17" fill-opacity="0.501961" points="29,76 52,109 126,110" />
<polygon fill="#001750" fill-opacity="0.501961" points="246,140 250,138 250,131" />
<polygon fill="#201c16" fill-opacity="0.501961" points="39,20 31,35 71,20" />
<polygon fill="#203d85" fill-opacity="0.501961" points="174,115 166,111 184,111" />
<polygon fill="#7e6564" fill-opacity="0.501961" points="140,72 143,76 136,78" />
<polygon fill="#0b2358" fill-opacity="0.501961" points="135,129 136,117 141,138" />
<polygon fill="#001953" fill-opacity="0.501961" points="69,124 114,121 80,134" />
<polygon fill="#38201c" fill-opacity="0.501961" points="167,68 160,87 171,82" />
<polygon fill="#140c08" fill-opacity="0.501961" points="142,31 138,56 144,49" />
<polygon fill="#172e65" fill-opacity="0.501961" points="168,133 187,122 168,120" />
<polygon fill="#231811" fill-opacity="0.501961" points="33,58 118,56 77,77" />
<polygon fill="#37312d" fill-opacity="0.501961" points="139,29 117,39 140,50" />
<polygon fill="#8c99b1" fill-opacity="0.501961" points="72,120 64,118 67,121" />
<polygon fill="#7a89a7" fill-opacity="0.501961" points="100,122 101,116 112,115" />
<polygon fill="#030307" fill-opacity="0.501961" points="37,52 76,49 38,41" />
<polygon fill="#041c53" fill-opacity="0.501961" points="184,112 159,128 144,112" />
<polygon fill="#001952" fill-opacity="0.501961" points="180,138 233,113 242,140" />
<polygon fill="#001754" fill-opacity="0.501961" points="132,114 124,117 117,113" />
<polygon fill="#143177" fill-opacity="0.501961" points="123,137 102,143 132,143" />
<polygon fill="#000000" fill-opacity="0.501961" points="253,112 254,119 255,114" />
<polygon fill="#0d0b11" fill-opacity="0.501961" points="114,51 47,39 117,32" />
<polygon fill="#001851" fill-opacity="0.501961" points="5,139 49,112 7,112" />
<polygon fill="#322d40" fill-opacity="0.501961" points="112,85 111,75 109,86" />
<polygon fill="#110d16" fill-opacity="0.501961" points="146,81 104,99 163,97" />
<polygon fill="#35211f" fill-opacity="0.501961" points="129,63 139,79 123,72" />
<polygon fill="#7e817f" fill-opacity="0.501961" points="122,90 123,91 126,88" />
<polygon fill="#081e59" fill-opacity="0.501961" points="140,121 102,141 149,142" />
<polygon fill="#140d15" fill-opacity="0.501961" points="174,86 123,111 101,92" />
<polygon fill="#0f0b15" fill-opacity="0.501961" points="123,94 107,106 119,81" />
<polygon fill="#0f0708" fill-opacity="0.501961" points="173,87 174,61 169,73" />
<polygon fill="#000000" fill-opacity="0.501961" points="188,-11 186,108 246,110" />
<polygon fill="#0d2a68" fill-opacity="0.501961" points="60,136 36,143 68,143" />
<polygon fill="#00164d" fill-opacity="0.501961" points="42,141 54,134 81,142" />
<polygon fill="#163273" fill-opacity="0.501961" points="74,112 59,110 51,115" />
<polygon fill="#0a235e" fill-opacity="0.501961" points="76,116 85,110 85,114" />
<polygon fill="#070411" fill-opacity="0.501961" points="123,55 132,63 117,66" />
<polygon fill="#2f2012" fill-opacity="0.501961" points="139,97 162,101 137,104" />
<polygon fill="#ffe3ba" fill-opacity="0.501961" points="154,73 153,71 151,73" />
<polygon fill="#001952" fill-opacity="0.501961" points="251,125 249,112 220,142" />
<polygon fill="#7b8aa7" fill-opacity="0.501961" points="144,121 131,116 142,116" />
<polygon fill="#1e0b17" fill-opacity="0.501961" points="141,63 148,76 152,74" />
<polygon fill="#000000" fill-opacity="0.501961" points="1,107 25,83 1,32" />
<polygon fill="#304673" fill-opacity="0.501961" points="70,118 69,121 67,121" />
<polygon fill="#2a160d" fill-opacity="0.501961" points="121,52 140,58 126,43" />
<polygon fill="#001952" fill-opacity="0.501961" points="98,140 88,121 94,121" />
<polygon fill="#0d070e" fill-opacity="0.501961" points="20,73 30,92 38,46" />
<polygon fill="#2d427c" fill-opacity="0.501961" points="157,142 149,140 144,143" />
<polygon fill="#97a4b9" fill-opacity="0.501961" points="88,117 89,121 90,120" />
<polygon fill="#0c2667" fill-opacity="0.501961" points="121,115 115,110 105,115" />
<polygon fill="#112558" fill-opacity="0.501961" points="137,141 159,142 143,119" />
<polygon fill="#0c2c6a" fill-opacity="0.501961" points="12,126 4,124 4,111" />
<polygon fill="#0c0712" fill-opacity="0.501961" points="82,75 91,86 119,79" />
<polygon fill="#0d090f" fill-opacity="0.501961" points="48,44 82,27 83,48" />
<polygon fill="#000000" fill-opacity="0.501961" points="6,13 134,14 28,-16" />
<polygon fill="#38332e" fill-opacity="0.501961" points="167,60 180,61 172,48" />
<polygon fill="#211f1b" fill-opacity="0.501961" points="34,44 37,29 29,38" />
<polygon fill="#0d0a06" fill-opacity="0.501961" points="12,36 30,21 21,67" />
<polygon fill="#1c100a" fill-opacity="0.501961" points="80,61 45,51 115,52" />
<polygon fill="#001a53" fill-opacity="0.501961" points="49,142 7,124 81,122" />
<polygon fill="#120d19" fill-opacity="0.501961" points="84,80 125,108 108,79" />
<polygon fill="#102f6e" fill-opacity="0.501961" points="230,138 213,143 238,143" />
<polygon fill="#070003" fill-opacity="0.501961" points="181,103 174,104 175,111" />
<polygon fill="#001952" fill-opacity="0.501961" points="186,142 197,113 248,142" />
<polygon fill="#143371" fill-opacity="0.501961" points="92,142 81,143 77,139" />
<polygon fill="#42251b" fill-opacity="0.501961" points="123,80 133,75 133,82" />
<polygon fill="#001a51" fill-opacity="0.501961" points="56,142 101,128 104,142" />
<polygon fill="#393330" fill-opacity="0.501961" points="109,30 82,31 86,24" />
<polygon fill="#000000" fill-opacity="0.501961" points="1,85 1,116 11,99" />
<polygon fill="#365aae" fill-opacity="0.501961" points="76,111 78,112 73,112" />
<polygon fill="#051f5a" fill-opacity="0.501961" points="113,114 114,116 113,117" />
<polygon fill="#37312c" fill-opacity="0.501961" points="168,91 181,98 168,109" />
<polygon fill="#0f0706" fill-opacity="0.501961" points="181,41 180,108 191,75" />
<polygon fill="#233f7e" fill-opacity="0.501961" points="179,143 176,141 183,142" />
<polygon fill="#372517" fill-opacity="0.501961" points="75,74 60,79 81,80" />
<polygon fill="#120d17" fill-opacity="0.501961" points="163,99 112,94 156,81" />
<polygon fill="#000000" fill-opacity="0.501961" points="2,123 1,116 4,109" />
<polygon fill="#140f19" fill-opacity="0.501961" points="141,86 55,110 117,111" />
<polygon fill="#0d0306" fill-opacity="0.501961" points="133,26 124,14 139,22" />
<polygon fill="#081f56" fill-opacity="0.501961" points="184,142 185,112 172,141" />
<polygon fill="#fffff8" fill-opacity="0.501961" points="154,72 152,71 154,69" />
<polygon fill="#120900" fill-opacity="0.501961" points="160,106 151,110 138,106" />
<polygon fill="#140e1a" fill-opacity="0.501961" points="131,74 148,58 152,67" />
<polygon fill="#364d75" fill-opacity="0.501961" points="42,121 43,117 38,117" />
<polygon fill="#021b53" fill-opacity="0.501961" points="23,120 54,119 70,141" />
<polygon fill="#112559" fill-opacity="0.501961" points="69,119 69,109 72,109" />
<polygon fill="#133374" fill-opacity="0.501961" points="252,127 253,114 249,114" />
<polygon fill="#484137" fill-opacity="0.501961" points="172,110 169,111 167,107" />
<polygon fill="#443425" fill-opacity="0.501961" points="137,144 139,160 159,143" />
<polygon fill="#160d0b" fill-opacity="0.501961" points="82,73 94,63 59,73" />
<polygon fill="#0e0c10" fill-opacity="0.501961" points="29,30 58,48 109,40" />
<polygon fill="#7382a2" fill-opacity="0.501961" points="85,115 90,118 99,115" />
<polygon fill="#102966" fill-opacity="0.501961" points="99,115 113,110 120,115" />
<polygon fill="#28140c" fill-opacity="0.501961" points="140,55 160,53 166,42" />
<polygon fill="#001952" fill-opacity="0.501961" points="250,125 251,113 211,124" />
<polygon fill="#b18f83" fill-opacity="0.501961" points="141,83 138,79 144,76" />
<polygon fill="#7b8aa6" fill-opacity="0.501961" points="81,116 83,116 84,121" />
<polygon fill="#3b342f" fill-opacity="0.501961" points="174,65 176,83 179,74" />
<polygon fill="#0e0914" fill-opacity="0.501961" points="133,82 128,86 145,85" />
<polygon fill="#37312c" fill-opacity="0.501961" points="136,44 163,29 163,44" />
<polygon fill="#72829e" fill-opacity="0.501961" points="62,122 73,118 76,122" />
<polygon fill="#0a0406" fill-opacity="0.501961" points="84,78 115,80 104,73" />
<polygon fill="#372f29" fill-opacity="0.501961" points="69,32 59,30 70,21" />
<polygon fill="#001955" fill-opacity="0.501961" points="141,112 122,112 132,115" />
<polygon fill="#8897ac" fill-opacity="0.501961" points="57,121 59,114 56,114" />
<polygon fill="#291c12" fill-opacity="0.501961" points="118,58 120,74 84,73" />
<polygon fill="#190e0c" fill-opacity="0.501961" points="186,68 179,50 185,27" />
<polygon fill="#576b8c" fill-opacity="0.501961" points="49,120 56,118 46,118" />
<polygon fill="#150c08" fill-opacity="0.501961" points="79,23 92,14 59,16" />
<polygon fill="#011b53" fill-opacity="0.501961" points="25,139 49,119 106,139" />
<polygon fill="#0b2561" fill-opacity="0.501961" points="80,110 78,115 97,115" />
<polygon fill="#001a53" fill-opacity="0.501961" points="7,113 89,141 5,137" />
<polygon fill="#c4cad7" fill-opacity="0.501961" points="111,119 111,116 109,117" />
<polygon fill="#000000" fill-opacity="0.501961" points="54,104 39,110 28,96" />
<polygon fill="#120701" fill-opacity="0.501961" points="14,59 56,56 31,45" />
<polygon fill="#67779a" fill-opacity="0.501961" points="126,117 119,117 117,122" />
<polygon fill="#001146" fill-opacity="0.501961" points="53,114 57,115 59,113" />
<polygon fill="#15357a" fill-opacity="0.501961" points="183,111 193,115 207,111" />
<polygon fill="#001952" fill-opacity="0.501961" points="240,131 179,112 241,112" />
<polygon fill="#090504" fill-opacity="0.501961" points="127,47 109,54 91,46" />
<polygon fill="#051d5b" fill-opacity="0.501961" points="104,139 100,122 161,134" />
<polygon fill="#241811" fill-opacity="0.501961" points="103,59 37,56 35,76" />
<polygon fill="#051f5a" fill-opacity="0.501961" points="121,119 136,141 137,123" />
<polygon fill="#080203" fill-opacity="0.501961" points="86,93 59,92 74,81" />
<polygon fill="#921f08" fill-opacity="0.501961" points="152,66 155,66 159,73" />
<polygon fill="#1c0e12" fill-opacity="0.501961" points="159,74 150,57 169,76" />
<polygon fill="#100b15" fill-opacity="0.501961" points="49,109 104,92 147,110" />
<polygon fill="#193878" fill-opacity="0.501961" points="21,140 15,143 31,143" />
<polygon fill="#00184f" fill-opacity="0.501961" points="28,134 8,142 44,141" />
<polygon fill="#7282a2" fill-opacity="0.501961" points="131,119 132,115 146,121" />
<polygon fill="#000000" fill-opacity="0.501961" points="188,24 252,110 187,109" />
<polygon fill="#162e66" fill-opacity="0.501961" points="172,130 173,115 166,113" />
<polygon fill="#a3aec0" fill-opacity="0.501961" points="65,117 65,120 62,121" />
<polygon fill="#14306d" fill-opacity="0.501961" points="158,143 195,143 178,137" />
<polygon fill="#031b51" fill-opacity="0.501961" points="160,142 196,141 159,127" />
<polygon fill="#080402" fill-opacity="0.501961" points="51,82 58,75 35,75" />
<polygon fill="#364b7b" fill-opacity="0.501961" points="102,121 107,118 110,123" />
<polygon fill="#09050c" fill-opacity="0.501961" points="31,98 28,109 9,99" />
<polygon fill="#061e5a" fill-opacity="0.501961" points="124,141 88,123 137,122" />
<polygon fill="#180f17" fill-opacity="0.501961" points="171,77 143,79 163,71" />
<polygon fill="#001a53" fill-opacity="0.501961" points="6,125 20,142 54,119" />
<polygon fill="#000000" fill-opacity="0.501961" points="172,-16 254,-6 255,113" />
<polygon fill="#14275a" fill-opacity="0.501961" points="134,123 160,127 146,133" />
<polygon fill="#0b0502" fill-opacity="0.501961" points="160,65 167,55 164,45" />
<polygon fill="#143479" fill-opacity="0.501961" points="53,111 58,115 72,111" />
<polygon fill="#224693" fill-opacity="0.501961" points="160,113 166,111 156,111" />
<polygon fill="#080307" fill-opacity="0.501961" points="122,71 119,83 118,67" />
<polygon fill="#000f42" fill-opacity="0.501961" points="65,115 55,112 62,112" />
<polygon fill="#7d8ba8" fill-opacity="0.501961" points="94,121 85,121 93,116" />
<polygon fill="#394e79" fill-opacity="0.501961" points="87,114 81,117 85,117" />
<polygon fill="#133272" fill-opacity="0.501961" points="253,141 249,137 252,123" />
<polygon fill="#110909" fill-opacity="0.501961" points="178,28 166,14 186,14" />
<polygon fill="#041c54" fill-opacity="0.501961" points="69,120 69,130 77,141" />
<polygon fill="#37221b" fill-opacity="0.501961" points="133,84 122,70 133,71" />
<polygon fill="#001a53" fill-opacity="0.501961" points="223,112 234,142 174,112" />
<polygon fill="#000000" fill-opacity="0.501961" points="2,141 19,160 0,160" />
<polygon fill="#190b02" fill-opacity="0.501961" points="163,97 171,85 162,88" />
<polygon fill="#2c2a2e" fill-opacity="0.501961" points="130,92 126,94 125,90" />
<polygon fill="#1b1718" fill-opacity="0.501961" points="150,143 187,143 160,151" />
<polygon fill="#000000" fill-opacity="0.501961" points="1,-11 2,35 53,-16" />
<polygon fill="#001a53" fill-opacity="0.501961" points="212,114 251,116 252,129" />
<polygon fill="#1e1713" fill-opacity="0.501961" points="140,46 140,20 144,33" />
<polygon fill="#a8b3c6" fill-opacity="0.501961" points="93,118 93,116 96,116" />
<polygon fill="#415ea6" fill-opacity="0.501961" points="154,143 157,142 151,142" />
<polygon fill="#061f5c" fill-opacity="0.501961" points="116,140 135,139 129,118" />
<polygon fill="#0a0703" fill-opacity="0.501961" points="33,14 13,31 53,15" />
<polygon fill="#745f5e" fill-opacity="0.501961" points="138,73 142,81 141,72" />
<polygon fill="#041d56" fill-opacity="0.501961" points="91,127 104,138 91,118" />
<polygon fill="#5b6d93" fill-opacity="0.501961" points="105,122 104,117 108,117" />
<polygon fill="#041d56" fill-opacity="0.501961" points="167,113 149,112 141,128" />
<polygon fill="#050105" fill-opacity="0.501961" points="75,29 80,31 65,35" />
<polygon fill="#150804" fill-opacity="0.501961" points="146,46 136,53 161,46" />
<polygon fill="#7080a2" fill-opacity="0.501961" points="139,120 143,122 143,120" />
<polygon fill="#070606" fill-opacity="0.501961" points="75,143 41,143 57,149" />
<polygon fill="#001850" fill-opacity="0.501961" points="251,117 243,117 251,136" />
<polygon fill="#2c221a" fill-opacity="0.501961" points="97,20 67,20 77,29" />
<polygon fill="#011a53" fill-opacity="0.501961" points="75,122 37,124 88,140" />
<polygon fill="#293e71" fill-opacity="0.501961" points="136,119 137,117 135,114" />
<polygon fill="#627099" fill-opacity="0.501961" points="97,122 94,121 92,122" />
<polygon fill="#0b0810" fill-opacity="0.501961" points="22,69 35,57 38,78" />
<polygon fill="#0f3378" fill-opacity="0.501961" points="43,111 43,115 29,111" />
<polygon fill="#110d11" fill-opacity="0.501961" points="64,40 103,46 118,32" />
<polygon fill="#001952" fill-opacity="0.501961" points="25,141 8,112 43,112" />
<polygon fill="#302a26" fill-opacity="0.501961" points="180,59 164,37 179,32" />
<polygon fill="#001349" fill-opacity="0.501961" points="247,138 251,139 251,135" />
<polygon fill="#5f93ff" fill-opacity="0.501961" points="242,136 247,132 244,137" />
<polygon fill="#2d4676" fill-opacity="0.501961" points="140,112 144,116 141,116" />
<polygon fill="#0d245f" fill-opacity="0.501961" points="95,130 99,117 100,123" />
<polygon fill="#6e6160" fill-opacity="0.501961" points="140,76 146,75 144,73" />
<polygon fill="#37302c" fill-opacity="0.501961" points="93,24 139,38 127,25" />
<polygon fill="#2d160e" fill-opacity="0.501961" points="131,57 136,62 138,53" />
<polygon fill="#120d16" fill-opacity="0.501961" points="53,88 76,100 35,96" />
<polygon fill="#361c17" fill-opacity="0.501961" points="166,67 160,85 168,84" />
<polygon fill="#3559a6" fill-opacity="0.501961" points="32,143 31,142 35,142" />
<polygon fill="#140c0f" fill-opacity="0.501961" points="157,67 170,50 150,62" />
<polygon fill="#1c336e" fill-opacity="0.501961" points="89,114 87,110 75,110" />
<polygon fill="#474057" fill-opacity="0.501961" points="110,83 112,84 111,82" />
<polygon fill="#070404" fill-opacity="0.501961" points="59,32 36,32 42,39" />
<polygon fill="#8f2c1d" fill-opacity="0.501961" points="151,68 154,75 148,69" />
<polygon fill="#100c18" fill-opacity="0.501961" points="136,67 148,74 153,56" />
<polygon fill="#001a54" fill-opacity="0.501961" points="62,120 58,137 70,140" />
<polygon fill="#110b15" fill-opacity="0.501961" points="114,82 98,95 126,105" />
<polygon fill="#462b23" fill-opacity="0.501961" points="134,84 127,76 124,83" />
<polygon fill="#0d0a13" fill-opacity="0.501961" points="161,107 157,93 161,86" />
<polygon fill="#130d19" fill-opacity="0.501961" points="78,110 87,82 86,111" />
<polygon fill="#001a52" fill-opacity="0.501961" points="82,122 106,131 75,142" />
<polygon fill="#0d0401" fill-opacity="0.501961" points="131,64 143,62 143,54" />
<polygon fill="#332c29" fill-opacity="0.501961" points="172,23 163,23 177,44" />
<polygon fill="#251309" fill-opacity="0.501961" points="182,64 178,61 167,64" />
<polygon fill="#1d3e82" fill-opacity="0.501961" points="218,143 212,141 209,143" />
<polygon fill="#001a52" fill-opacity="0.501961" points="182,120 240,141 210,142" />
<polygon fill="#10245a" fill-opacity="0.501961" points="171,130 163,123 164,141" />
<polygon fill="#001950" fill-opacity="0.501961" points="55,118 52,113 38,113" />
<polygon fill="#324164" fill-opacity="0.501961" points="147,112 147,110 154,110" />
<polygon fill="#0d2459" fill-opacity="0.501961" points="55,122 51,133 50,120" />
<polygon fill="#1f0e05" fill-opacity="0.501961" points="177,85 167,89 169,84" />
<polygon fill="#000000" fill-opacity="0.501961" points="55,14 162,-16 189,13" />
<polygon fill="#000000" fill-opacity="0.501961" points="254,137 253,148 257,154" />
<polygon fill="#050303" fill-opacity="0.501961" points="4,78 20,75 11,20" />
<polygon fill="#0e0910" fill-opacity="0.501961" points="149,75 158,79 168,75" />
<polygon fill="#1d0b12" fill-opacity="0.501961" points="149,66 154,63 147,72" />
<polygon fill="#a1acc1" fill-opacity="0.501961" points="112,122 108,116 112,118" />
<polygon fill="#35302b" fill-opacity="0.501961" points="128,49 137,48 135,31" />
<polygon fill="#031c57" fill-opacity="0.501961" points="128,119 131,140 122,119" />
<polygon fill="#2d1e14" fill-opacity="0.501961" points="83,81 62,76 79,73" />
</g>
</svg>