<svg xmlns="http://www.w3.org/2000/svg" version="1.1" width="1024" height="580">
<rect x="0" y="0" width="1024" height="580" fill="#030915" />
<g transform="scale(4.000000) translate(0.5 0.5)">
<polygon fill="#1c47a2" fill-opacity="0.501961" points="84,160 -16,109 265,113" />
<polygon fill="#073393" fill-opacity="0.501961" points="97,158 269,113 240,160" />
<polygon fill="#000000" fill-opacity="0.501961" points="-16,-16 271,20 36,118" />
<polygon fill="#213f7d" fill-opacity="0.501961" points="87,126 4,95 6,158" />
<polygon fill="#000000" fill-opacity="0.501961" points="29,111 247,-16 271,109" />
<polygon fill="#5b6e8c" fill-opacity="0.501961" points="28,128 134,130 87,111" />
<polygon fill="#7f9ac6" fill-opacity="0.501961" points="10,100 16,108 29,101" />
<polygon fill="#5c9eff" fill-opacity="0.501961" points="242,135 247,129 247,142" />
<polygon fill="#000e44" fill-opacity="0.501961" points="85,160 27,152 65,116" />
<polygon fill="#000000" fill-opacity="0.501961" points="239,111 -16,12 271,-16" />
<polygon fill="#000000" fill-opacity="0.501961" points="0,-16 -2,100 266,6" />
<polygon fill="#00134f" fill-opacity="0.501961" points="271,113 194,109 119,154" />
<polygon fill="#000841" fill-opacity="0.501961" points="26,150 36,114 -5,109" />
<polygon fill="#8190a4" fill-opacity="0.501961" points="51,129 26,130 54,117" />
<polygon fill="#000e46" fill-opacity="0.501961" points="131,156 88,160 83,113" />
<polygon fill="#a7b2c0" fill-opacity="0.501961" points="72,129 80,122 84,131" />
<polygon fill="#000000" fill-opacity="0.501961" points="254,105 271,140 251,160" />
<polygon fill="#001754" fill-opacity="0.501961" points="53,139 -16,160 23,124" />
<polygon fill="#001a4e" fill-opacity="0.501961" points="14,123 26,98 49,123" />
<polygon fill="#000000" fill-opacity="0.501961" points="271,111 -3,-16 32,108" />
<polygon fill="#001652" fill-opacity="0.501961" points="129,115 258,147 209,111" />
<polygon fill="#000000" fill-opacity="0.501961" points="3,51 -16,110 4,149" />
<polygon fill="#00164a" fill-opacity="0.501961" points="69,150 183,160 137,124" />
<polygon fill="#96a4b9" fill-opacity="0.501961" points="77,121 84,116 69,116" />
<polygon fill="#91a0b5" fill-opacity="0.501961" points="146,125 147,131 150,124" />
<polygon fill="#8191ab" fill-opacity="0.501961" points="119,125 117,130 103,126" />
<polygon fill="#03225e" fill-opacity="0.501961" points="253,110 200,110 251,130" />
<polygon fill="#708198" fill-opacity="0.501961" points="59,114 44,118 63,121" />
<polygon fill="#617595" fill-opacity="0.501961" points="117,116 90,122 101,114" />
<polygon fill="#0c2d6e" fill-opacity="0.501961" points="35,102 26,95 13,98" />
<polygon fill="#080000" fill-opacity="0.501961" points="34,144 131,143 83,160" />
<polygon fill="#808fa8" fill-opacity="0.501961" points="36,122 57,130 34,128" />
<polygon fill="#000000" fill-opacity="0.501961" points="1,-16 187,96 -2,97" />
<polygon fill="#090000" fill-opacity="0.501961" points="248,143 129,143 188,160" />
<polygon fill="#538cff" fill-opacity="0.501961" points="244,140 242,133 246,129" />
<polygon fill="#000746" fill-opacity="0.501961" points="83,119 95,113 83,112" />
<polygon fill="#001551" fill-opacity="0.501961" points="99,122 101,140 54,142" />
<polygon fill="#00164c" fill-opacity="0.501961" points="84,123 76,121 70,124" />
<polygon fill="#8392ab" fill-opacity="0.501961" points="83,120 72,115 70,121" />
<polygon fill="#495f84" fill-opacity="0.501961" points="156,131 167,127 142,126" />
<polygon fill="#a8b3c1" fill-opacity="0.501961" points="82,126 70,124 70,129" />
<polygon fill="#001a53" fill-opacity="0.501961" points="187,125 105,122 144,110" />
<polygon fill="#001952" fill-opacity="0.501961" points="49,139 73,140 69,115" />
<polygon fill="#0c265b" fill-opacity="0.501961" points="22,123 34,114 58,122" />
<polygon fill="#607494" fill-opacity="0.501961" points="99,132 101,124 124,123" />
<polygon fill="#2e4670" fill-opacity="0.501961" points="113,122 133,118 108,116" />
<polygon fill="#001d5b" fill-opacity="0.501961" points="4,140 5,113 54,143" />
<polygon fill="#000000" fill-opacity="0.501961" points="29,110 33,34 95,109" />
<polygon fill="#000000" fill-opacity="0.501961" points="269,110 44,110 259,-16" />
<polygon fill="#000000" fill-opacity="0.501961" points="3,83 2,151 -16,144" />
<polygon fill="#011e5b" fill-opacity="0.501961" points="253,134 250,111 200,111" />
<polygon fill="#000000" fill-opacity="0.501961" points="253,86 253,148 271,103" />
<polygon fill="#070000" fill-opacity="0.501961" points="65,144 10,160 2,143" />
<polygon fill="#031c4e" fill-opacity="0.501961" points="256,138 249,144 242,139" />
<polygon fill="#052156" fill-opacity="0.501961" points="106,129 113,115 105,120" />
<polygon fill="#6a7c9b" fill-opacity="0.501961" points="25,107 10,106 12,101" />
<polygon fill="#000d4a" fill-opacity="0.501961" points="69,126 70,115 62,112" />
<polygon fill="#001754" fill-opacity="0.501961" points="97,130 178,130 130,143" />
<polygon fill="#092a65" fill-opacity="0.501961" points="29,108 11,115 13,106" />
<polygon fill="#00174f" fill-opacity="0.501961" points="55,112 62,112 54,119" />
<polygon fill="#061d49" fill-opacity="0.501961" points="76,124 86,105 76,115" />
<polygon fill="#00164d" fill-opacity="0.501961" points="49,142 23,134 54,130" />
<polygon fill="#05235f" fill-opacity="0.501961" points="256,111 182,112 214,123" />
<polygon fill="#5c7394" fill-opacity="0.501961" points="95,115 90,115 87,129" />
<polygon fill="#001952" fill-opacity="0.501961" points="144,134 231,111 237,142" />
<polygon fill="#6d7f9b" fill-opacity="0.501961" points="65,127 79,129 78,123" />
<polygon fill="#53698c" fill-opacity="0.501961" points="133,126 134,131 130,123" />
<polygon fill="#7585a1" fill-opacity="0.501961" points="107,124 120,123 120,131" />
<polygon fill="#0d2f70" fill-opacity="0.501961" points="103,137 115,143 83,143" />
<polygon fill="#6e809b" fill-opacity="0.501961" points="48,115 60,119 61,115" />
<polygon fill="#001750" fill-opacity="0.501961" points="88,121 101,130 100,143" />
<polygon fill="#001851" fill-opacity="0.501961" points="252,113 233,143 148,112" />
<polygon fill="#4880fe" fill-opacity="0.501961" points="240,138 243,131 250,136" />
<polygon fill="#00114b" fill-opacity="0.501961" points="68,121 53,124 68,126" />
<polygon fill="#072258" fill-opacity="0.501961" points="122,137 114,127 116,134" />
<polygon fill="#001a52" fill-opacity="0.501961" points="98,117 89,113 103,114" />
<polygon fill="#00164f" fill-opacity="0.501961" points="131,121 120,122 132,132" />
<polygon fill="#06225c" fill-opacity="0.501961" points="246,125 251,145 254,138" />
<polygon fill="#001651" fill-opacity="0.501961" points="7,124 10,112 52,113" />
<polygon fill="#09317f" fill-opacity="0.501961" points="13,100 4,98 13,97" />
<polygon fill="#1a3263" fill-opacity="0.501961" points="48,131 46,127 47,123" />
<polygon fill="#062a6d" fill-opacity="0.501961" points="4,115 11,98 5,97" />
<polygon fill="#374d76" fill-opacity="0.501961" points="32,118 46,120 37,115" />
<polygon fill="#153a85" fill-opacity="0.501961" points="28,97 17,100 7,97" />
<polygon fill="#7e90ad" fill-opacity="0.501961" points="79,115 83,115 77,119" />
<polygon fill="#042467" fill-opacity="0.501961" points="29,99 30,115 24,101" />
<polygon fill="#092968" fill-opacity="0.501961" points="139,143 153,135 182,143" />
<polygon fill="#40597e" fill-opacity="0.501961" points="170,129 167,127 177,125" />
<polygon fill="#000000" fill-opacity="0.501961" points="42,-16 271,99 -16,96" />
<polygon fill="#203f75" fill-opacity="0.501961" points="16,108 23,112 5,112" />
<polygon fill="#a9b3bf" fill-opacity="0.501961" points="22,104 17,104 18,101" />
<polygon fill="#395078" fill-opacity="0.501961" points="149,129 155,130 158,120" />
<polygon fill="#001750" fill-opacity="0.501961" points="155,113 139,122 189,127" />
<polygon fill="#7d8da7" fill-opacity="0.501961" points="48,123 33,125 55,128" />
<polygon fill="#05286d" fill-opacity="0.501961" points="42,117 54,111 22,111" />
<polygon fill="#001952" fill-opacity="0.501961" points="253,142 139,142 192,119" />
<polygon fill="#000000" fill-opacity="0.501961" points="30,110 34,24 193,110" />
<polygon fill="#0e2e6e" fill-opacity="0.501961" points="189,111 223,111 201,117" />
<polygon fill="#000000" fill-opacity="0.501961" points="271,118 269,-5 -16,0" />
<polygon fill="#010000" fill-opacity="0.501961" points="253,139 270,160 254,116" />
<polygon fill="#607392" fill-opacity="0.501961" points="145,130 151,129 144,123" />
<polygon fill="#103172" fill-opacity="0.501961" points="11,143 25,138 38,143" />
<polygon fill="#00174f" fill-opacity="0.501961" points="33,120 30,141 5,142" />
<polygon fill="#001951" fill-opacity="0.501961" points="156,140 244,112 193,112" />
<polygon fill="#070500" fill-opacity="0.501961" points="189,143 162,160 101,143" />
<polygon fill="#0d2e6d" fill-opacity="0.501961" points="46,137 38,143 67,143" />
<polygon fill="#00174f" fill-opacity="0.501961" points="22,142 64,129 110,141" />
<polygon fill="#001650" fill-opacity="0.501961" points="135,113 149,115 135,141" />
<polygon fill="#001b54" fill-opacity="0.501961" points="134,115 239,142 243,113" />
<polygon fill="#40567e" fill-opacity="0.501961" points="114,127 114,114 118,128" />
<polygon fill="#607292" fill-opacity="0.501961" points="100,116 92,119 101,121" />
<polygon fill="#070200" fill-opacity="0.501961" points="238,160 213,144 259,143" />
<polygon fill="#06235c" fill-opacity="0.501961" points="119,117 117,110 142,110" />
<polygon fill="#001852" fill-opacity="0.501961" points="86,141 126,129 165,139" />
<polygon fill="#637695" fill-opacity="0.501961" points="43,131 36,124 64,127" />
<polygon fill="#00104b" fill-opacity="0.501961" points="89,122 85,111 84,123" />
<polygon fill="#001b52" fill-opacity="0.501961" points="53,137 55,116 58,129" />
<polygon fill="#001a54" fill-opacity="0.501961" points="86,140 102,138 96,120" />
<polygon fill="#576a8c" fill-opacity="0.501961" points="112,119 94,118 106,115" />
<polygon fill="#123576" fill-opacity="0.501961" points="4,114 8,125 4,139" />
<polygon fill="#001850" fill-opacity="0.501961" points="43,120 5,130 6,117" />
<polygon fill="#001b55" fill-opacity="0.501961" points="4,138 16,105 33,134" />
<polygon fill="#001a53" fill-opacity="0.501961" points="66,115 57,112 72,123" />
<polygon fill="#001a51" fill-opacity="0.501961" points="31,142 14,130 51,130" />
<polygon fill="#000000" fill-opacity="0.501961" points="-16,88 3,160 4,111" />
<polygon fill="#000c41" fill-opacity="0.501961" points="30,117 35,113 45,116" />
<polygon fill="#395079" fill-opacity="0.501961" points="126,120 135,120 126,117" />
<polygon fill="#00154b" fill-opacity="0.501961" points="71,115 90,115 95,108" />
<polygon fill="#001952" fill-opacity="0.501961" points="128,113 144,135 144,123" />
<polygon fill="#000000" fill-opacity="0.501961" points="139,109 37,110 20,78" />
<polygon fill="#070603" fill-opacity="0.501961" points="61,143 65,160 110,143" />
<polygon fill="#112c61" fill-opacity="0.501961" points="104,115 100,112 106,121" />
<polygon fill="#123678" fill-opacity="0.501961" points="69,140 68,143 78,142" />
<polygon fill="#103279" fill-opacity="0.501961" points="153,111 150,115 141,111" />
<polygon fill="#00154e" fill-opacity="0.501961" points="113,118 134,116 124,112" />
<polygon fill="#0d2a69" fill-opacity="0.501961" points="231,143 213,136 195,143" />
<polygon fill="#001952" fill-opacity="0.501961" points="131,112 251,112 224,142" />
<polygon fill="#001a53" fill-opacity="0.501961" points="245,142 222,116 133,141" />
<polygon fill="#112d68" fill-opacity="0.501961" points="250,158 245,146 253,126" />
<polygon fill="#0e2c6b" fill-opacity="0.501961" points="152,143 118,143 136,137" />
<polygon fill="#050504" fill-opacity="0.501961" points="221,143 271,157 252,143" />
<polygon fill="#001850" fill-opacity="0.501961" points="124,141 165,137 136,132" />
<polygon fill="#001a52" fill-opacity="0.501961" points="26,142 67,129 90,141" />
<polygon fill="#001952" fill-opacity="0.501961" points="122,129 171,134 137,142" />
<polygon fill="#6c7e9b" fill-opacity="0.501961" points="104,114 107,120 107,114" />
<polygon fill="#75859d" fill-opacity="0.501961" points="12,101 13,106 22,102" />
<polygon fill="#001a52" fill-opacity="0.501961" points="96,129 133,142 60,142" />
<polygon fill="#011c53" fill-opacity="0.501961" points="150,141 152,127 155,142" />
<polygon fill="#072259" fill-opacity="0.501961" points="78,134 88,139 76,128" />
<polygon fill="#001547" fill-opacity="0.501961" points="17,102 13,97 16,99" />
<polygon fill="#00154f" fill-opacity="0.501961" points="29,104 23,105 24,99" />
<polygon fill="#788aa7" fill-opacity="0.501961" points="23,101 22,106 24,107" />
<polygon fill="#000100" fill-opacity="0.501961" points="255,95 252,144 267,142" />
<polygon fill="#001a53" fill-opacity="0.501961" points="5,120 5,142 60,142" />
<polygon fill="#aab4c4" fill-opacity="0.501961" points="77,130 78,126 82,129" />
<polygon fill="#000f4a" fill-opacity="0.501961" points="96,122 89,123 101,125" />
<polygon fill="#2a54a2" fill-opacity="0.501961" points="94,112 90,112 93,111" />
<polygon fill="#001b52" fill-opacity="0.501961" points="114,118 112,123 100,123" />
<polygon fill="#7e8ca7" fill-opacity="0.501961" points="51,131 51,121 53,128" />
<polygon fill="#123073" fill-opacity="0.501961" points="253,142 252,121 249,132" />
<polygon fill="#00144b" fill-opacity="0.501961" points="246,115 246,130 252,129" />
<polygon fill="#000000" fill-opacity="0.501961" points="89,111 174,93 46,85" />
<polygon fill="#001951" fill-opacity="0.501961" points="251,115 251,132 234,121" />
<polygon fill="#0d2c6b" fill-opacity="0.501961" points="222,117 233,112 221,111" />
<polygon fill="#001a53" fill-opacity="0.501961" points="229,112 145,112 210,142" />
<polygon fill="#294171" fill-opacity="0.501961" points="15,110 29,109 25,112" />
<polygon fill="#001952" fill-opacity="0.501961" points="90,123 98,124 103,140" />
<polygon fill="#001850" fill-opacity="0.501961" points="158,126 165,141 170,140" />
<polygon fill="#001a52" fill-opacity="0.501961" points="209,142 140,142 163,128" />
<polygon fill="#123374" fill-opacity="0.501961" points="232,112 251,111 241,115" />
<polygon fill="#b4bdcb" fill-opacity="0.501961" points="82,125 81,128 81,124" />
<polygon fill="#00134d" fill-opacity="0.501961" points="130,125 130,119 115,119" />
<polygon fill="#00174e" fill-opacity="0.501961" points="250,113 224,120 221,112" />
<polygon fill="#8492aa" fill-opacity="0.501961" points="40,123 33,123 34,128" />
<polygon fill="#677e9c" fill-opacity="0.501961" points="62,122 59,120 63,119" />
<polygon fill="#001a53" fill-opacity="0.501961" points="9,112 33,113 31,142" />
<polygon fill="#56698a" fill-opacity="0.501961" points="45,119 50,116 49,121" />
<polygon fill="#000000" fill-opacity="0.501961" points="3,-15 28,96 -13,96" />
<polygon fill="#001f54" fill-opacity="0.501961" points="69,131 69,118 63,115" />
<polygon fill="#173369" fill-opacity="0.501961" points="18,113 21,110 13,109" />
<polygon fill="#070906" fill-opacity="0.501961" points="232,111 206,111 221,106" />
<polygon fill="#163367" fill-opacity="0.501961" points="181,114 175,110 194,110" />
<polygon fill="#7a89a3" fill-opacity="0.501961" points="36,130 47,129 38,124" />
<polygon fill="#001a53" fill-opacity="0.501961" points="214,140 215,112 136,112" />
<polygon fill="#001851" fill-opacity="0.501961" points="64,128 74,136 57,129" />
<polygon fill="#000000" fill-opacity="0.501961" points="183,43 172,110 243,110" />
<polygon fill="#00154d" fill-opacity="0.501961" points="43,123 47,118 49,123" />
<polygon fill="#0e2f72" fill-opacity="0.501961" points="145,111 138,116 121,111" />
<polygon fill="#00174f" fill-opacity="0.501961" points="157,123 117,112 154,112" />
<polygon fill="#041f59" fill-opacity="0.501961" points="102,115 116,115 106,112" />
<polygon fill="#627594" fill-opacity="0.501961" points="111,130 118,127 120,131" />
<polygon fill="#031e55" fill-opacity="0.501961" points="96,130 95,118 101,133" />
<polygon fill="#627695" fill-opacity="0.501961" points="124,118 118,117 121,119" />
<polygon fill="#8291ab" fill-opacity="0.501961" points="83,117 82,120 73,117" />
<polygon fill="#001a54" fill-opacity="0.501961" points="155,123 157,113 129,121" />
<polygon fill="#001952" fill-opacity="0.501961" points="17,123 39,123 24,115" />
<polygon fill="#001952" fill-opacity="0.501961" points="134,141 73,141 114,130" />
<polygon fill="#96a2b6" fill-opacity="0.501961" points="118,125 117,127 119,128" />
<polygon fill="#143374" fill-opacity="0.501961" points="236,143 249,143 238,139" />
<polygon fill="#1f3a6a" fill-opacity="0.501961" points="75,124 80,122 79,116" />
<polygon fill="#5e7092" fill-opacity="0.501961" points="115,115 115,121 113,122" />
<polygon fill="#001a52" fill-opacity="0.501961" points="176,140 252,142 203,123" />
<polygon fill="#000000" fill-opacity="0.501961" points="152,89 183,111 238,106" />
<polygon fill="#314b75" fill-opacity="0.501961" points="124,128 126,125 132,128" />
<polygon fill="#002261" fill-opacity="0.501961" points="85,116 79,111 91,113" />
<polygon fill="#001a53" fill-opacity="0.501961" points="164,139 136,142 122,129" />
<polygon fill="#001752" fill-opacity="0.501961" points="10,107 4,101 8,98" />
<polygon fill="#0a2e77" fill-opacity="0.501961" points="65,111 83,111 76,115" />
<polygon fill="#5a6f90" fill-opacity="0.501961" points="61,126 52,126 59,128" />
<polygon fill="#021d55" fill-opacity="0.501961" points="16,125 31,130 16,104" />
<polygon fill="#000000" fill-opacity="0.501961" points="172,102 73,83 118,111" />
<polygon fill="#001952" fill-opacity="0.501961" points="163,126 177,122 150,119" />
<polygon fill="#9da9bc" fill-opacity="0.501961" points="75,119 72,121 73,118" />
<polygon fill="#000000" fill-opacity="0.501961" points="-16,140 4,160 2,97" />
<polygon fill="#0c275b" fill-opacity="0.501961" points="50,131 54,132 61,127" />
<polygon fill="#7686a1" fill-opacity="0.501961" points="72,116 74,118 72,121" />
<polygon fill="#001953" fill-opacity="0.501961" points="169,116 158,128 156,114" />
<polygon fill="#060400" fill-opacity="0.501961" points="33,143 21,160 -5,143" />
<polygon fill="#415880" fill-opacity="0.501961" points="131,125 138,124 133,128" />
<polygon fill="#001951" fill-opacity="0.501961" points="89,135 83,142 85,124" />
<polygon fill="#98a4b7" fill-opacity="0.501961" points="72,130 74,124 80,124" />
<polygon fill="#000f4b" fill-opacity="0.501961" points="135,132 138,124 135,123" />
<polygon fill="#001650" fill-opacity="0.501961" points="29,98 17,98 28,101" />
<polygon fill="#001a53" fill-opacity="0.501961" points="90,135 45,141 57,128" />
<polygon fill="#7f91ac" fill-opacity="0.501961" points="11,104 10,102 10,107" />
<polygon fill="#001a52" fill-opacity="0.501961" points="27,142 16,142 41,129" />
<polygon fill="#011c53" fill-opacity="0.501961" points="154,117 163,110 150,128" />
<polygon fill="#00154d" fill-opacity="0.501961" points="57,112 74,112 67,117" />
<polygon fill="#5b6e8f" fill-opacity="0.501961" points="101,122 105,118 95,120" />
<polygon fill="#001a53" fill-opacity="0.501961" points="155,113 135,114 135,130" />
<polygon fill="#021f55" fill-opacity="0.501961" points="121,131 121,123 127,138" />
<polygon fill="#4f6487" fill-opacity="0.501961" points="100,119 109,119 96,115" />
<polygon fill="#001953" fill-opacity="0.501961" points="131,128 125,142 115,135" />
<polygon fill="#173779" fill-opacity="0.501961" points="74,143 72,140 61,143" />
<polygon fill="#030300" fill-opacity="0.501961" points="31,111 30,94 36,110" />
<polygon fill="#516589" fill-opacity="0.501961" points="48,119 56,120 49,123" />
<polygon fill="#001952" fill-opacity="0.501961" points="108,138 54,128 62,142" />
<polygon fill="#001952" fill-opacity="0.501961" points="168,141 143,141 154,130" />
<polygon fill="#18356b" fill-opacity="0.501961" points="47,111 55,110 56,113" />
<polygon fill="#001953" fill-opacity="0.501961" points="50,136 47,138 47,128" />
<polygon fill="#00164c" fill-opacity="0.501961" points="27,112 52,112 41,117" />
<polygon fill="#000000" fill-opacity="0.501961" points="219,109 37,110 8,49" />
<polygon fill="#001b54" fill-opacity="0.501961" points="240,138 243,113 150,133" />
<polygon fill="#102a5c" fill-opacity="0.501961" points="108,130 105,127 106,123" />
<polygon fill="#001b53" fill-opacity="0.501961" points="61,112 65,112 66,125" />
<polygon fill="#55688c" fill-opacity="0.501961" points="155,125 153,126 158,130" />
<polygon fill="#00174d" fill-opacity="0.501961" points="88,114 73,115 79,112" />
<polygon fill="#070501" fill-opacity="0.501961" points="182,143 208,143 196,151" />
<polygon fill="#020303" fill-opacity="0.501961" points="47,111 52,102 56,111" />
<polygon fill="#000000" fill-opacity="0.501961" points="271,119 271,-2 9,-1" />
<polygon fill="#001a53" fill-opacity="0.501961" points="76,140 97,137 100,122" />
<polygon fill="#3559a6" fill-opacity="0.501961" points="100,142 100,143 102,142" />
<polygon fill="#001a53" fill-opacity="0.501961" points="129,142 150,139 137,122" />
<polygon fill="#143374" fill-opacity="0.501961" points="173,143 194,143 183,139" />
<polygon fill="#173a7b" fill-opacity="0.501961" points="4,131 9,143 4,142" />
<polygon fill="#1d3f85" fill-opacity="0.501961" points="248,111 253,121 252,111" />
<polygon fill="#001449" fill-opacity="0.501961" points="186,138 194,142 172,142" />
<polygon fill="#001850" fill-opacity="0.501961" points="250,134 251,113 241,118" />
<polygon fill="#001a53" fill-opacity="0.501961" points="251,128 201,112 251,112" />
<polygon fill="#092455" fill-opacity="0.501961" points="43,117 47,118 47,115" />
<polygon fill="#001951" fill-opacity="0.501961" points="132,122 130,127 121,121" />
<polygon fill="#00144c" fill-opacity="0.501961" points="112,123 118,120 125,123" />
<polygon fill="#18387a" fill-opacity="0.501961" points="226,142 230,141 235,143" />
<polygon fill="#00164e" fill-opacity="0.501961" points="6,142 5,133 14,141" />
<polygon fill="#00174e" fill-opacity="0.501961" points="225,142 232,137 248,140" />
<polygon fill="#8f9db4" fill-opacity="0.501961" points="104,125 105,124 101,124" />
<polygon fill="#001d57" fill-opacity="0.501961" points="116,119 124,113 121,111" />
<polygon fill="#082a6e" fill-opacity="0.501961" points="94,111 106,112 98,115" />
<polygon fill="#001a53" fill-opacity="0.501961" points="179,113 243,141 179,142" />
<polygon fill="#0f2a5c" fill-opacity="0.501961" points="76,123 81,122 80,124" />
<polygon fill="#001a53" fill-opacity="0.501961" points="98,131 46,132 72,142" />
<polygon fill="#001340" fill-opacity="0.501961" points="5,98 14,98 12,100" />
<polygon fill="#000000" fill-opacity="0.501961" points="255,109 271,157 254,148" />
<polygon fill="#030200" fill-opacity="0.501961" points="255,143 249,160 226,147" />
<polygon fill="#07090f" fill-opacity="0.501961" points="154,143 177,160 214,143" />
<polygon fill="#364d76" fill-opacity="0.501961" points="77,127 75,123 78,118" />
<polygon fill="#7b8ba4" fill-opacity="0.501961" points="131,127 133,126 134,124" />
<polygon fill="#5d7192" fill-opacity="0.501961" points="105,130 103,127 100,131" />
<polygon fill="#98a4b8" fill-opacity="0.501961" points="52,128 52,124 49,127" />
<polygon fill="#001a52" fill-opacity="0.501961" points="85,142 100,126 65,140" />
<polygon fill="#73839f" fill-opacity="0.501961" points="33,123 45,123 34,129" />
<polygon fill="#8e9fb2" fill-opacity="0.501961" points="87,124 89,124 88,127" />
<polygon fill="#00114a" fill-opacity="0.501961" points="113,121 110,117 112,116" />
<polygon fill="#354d76" fill-opacity="0.501961" points="100,118 91,122 90,118" />
<polygon fill="#001952" fill-opacity="0.501961" points="143,137 136,134 134,115" />
<polygon fill="#102e6d" fill-opacity="0.501961" points="105,143 119,143 102,138" />
<polygon fill="#001a52" fill-opacity="0.501961" points="97,141 87,127 122,142" />
<polygon fill="#22468e" fill-opacity="0.501961" points="28,104 29,105 29,102" />
<polygon fill="#011b51" fill-opacity="0.501961" points="120,118 120,115 130,117" />
<polygon fill="#001a53" fill-opacity="0.501961" points="90,129 106,141 135,135" />
<polygon fill="#173f8e" fill-opacity="0.501961" points="118,111 112,113 105,111" />
<polygon fill="#001a53" fill-opacity="0.501961" points="82,133 118,131 107,142" />
<polygon fill="#000d42" fill-opacity="0.501961" points="103,114 109,112 96,112" />
<polygon fill="#001a53" fill-opacity="0.501961" points="144,128 138,120 125,119" />
<polygon fill="#000000" fill-opacity="0.501961" points="-16,34 14,97 0,-4" />
<polygon fill="#133781" fill-opacity="0.501961" points="169,111 177,114 187,111" />
<polygon fill="#001951" fill-opacity="0.501961" points="181,121 149,112 188,112" />
<polygon fill="#4a5f83" fill-opacity="0.501961" points="39,124 42,128 39,127" />
<polygon fill="#a5b3c3" fill-opacity="0.501961" points="63,120 62,120 64,122" />
<polygon fill="#072357" fill-opacity="0.501961" points="132,126 134,133 131,128" />
<polygon fill="#173367" fill-opacity="0.501961" points="16,112 16,103 21,113" />
<polygon fill="#00063c" fill-opacity="0.501961" points="116,112 112,114 111,112" />
<polygon fill="#001a53" fill-opacity="0.501961" points="235,142 137,112 193,112" />
<polygon fill="#070a12" fill-opacity="0.501961" points="87,143 27,143 70,160" />
<polygon fill="#000000" fill-opacity="0.501961" points="32,110 25,31 102,110" />
<polygon fill="#001b54" fill-opacity="0.501961" points="39,113 22,113 40,118" />
<polygon fill="#001a53" fill-opacity="0.501961" points="5,116 33,123 14,136" />
<polygon fill="#001851" fill-opacity="0.501961" points="133,134 128,138 130,123" />
<polygon fill="#001a53" fill-opacity="0.501961" points="242,115 251,139 251,116" />
<polygon fill="#324a72" fill-opacity="0.501961" points="146,129 147,127 144,128" />
<polygon fill="#001a53" fill-opacity="0.501961" points="5,139 29,112 5,113" />
<polygon fill="#001a53" fill-opacity="0.501961" points="6,142 7,127 55,134" />
<polygon fill="#001a53" fill-opacity="0.501961" points="148,115 123,113 149,123" />
<polygon fill="#010202" fill-opacity="0.501961" points="185,108 178,111 173,107" />
<polygon fill="#53688b" fill-opacity="0.501961" points="144,125 153,131 147,130" />
<polygon fill="#193a7c" fill-opacity="0.501961" points="216,112 222,111 219,113" />
<polygon fill="#000000" fill-opacity="0.501961" points="221,111 250,81 264,86" />
<polygon fill="#001a53" fill-opacity="0.501961" points="250,127 206,112 249,112" />
<polygon fill="#1b4491" fill-opacity="0.501961" points="67,111 56,111 63,113" />
<polygon fill="#001b54" fill-opacity="0.501961" points="58,138 68,138 62,127" />
<polygon fill="#001a53" fill-opacity="0.501961" points="180,113 170,142 250,142" />
<polygon fill="#455b81" fill-opacity="0.501961" points="92,122 88,119 95,121" />
<polygon fill="#001953" fill-opacity="0.501961" points="185,128 161,129 155,140" />
<polygon fill="#000c45" fill-opacity="0.501961" points="51,123 45,123 46,121" />
<polygon fill="#001a53" fill-opacity="0.501961" points="132,141 121,128 169,139" />
<polygon fill="#001a52" fill-opacity="0.501961" points="105,142 151,142 126,128" />
<polygon fill="#001a53" fill-opacity="0.501961" points="12,112 34,140 28,112" />
<polygon fill="#6f7f9d" fill-opacity="0.501961" points="89,116 90,121 92,116" />
<polygon fill="#001a53" fill-opacity="0.501961" points="140,142 144,125 136,124" />
<polygon fill="#72839f" fill-opacity="0.501961" points="77,120 78,117 81,121" />
<polygon fill="#001a53" fill-opacity="0.501961" points="199,140 162,140 160,129" />
<polygon fill="#001b54" fill-opacity="0.501961" points="157,126 162,113 200,119" />
<polygon fill="#3d537b" fill-opacity="0.501961" points="89,121 92,122 92,118" />
<polygon fill="#011c54" fill-opacity="0.501961" points="147,131 149,142 136,130" />
<polygon fill="#051f54" fill-opacity="0.501961" points="38,124 40,120 46,119" />
<polygon fill="#021e54" fill-opacity="0.501961" points="59,116 59,113 54,115" />
<polygon fill="#445a80" fill-opacity="0.501961" points="171,129 166,126 174,126" />
<polygon fill="#5b6f8f" fill-opacity="0.501961" points="35,118 41,120 39,118" />
<polygon fill="#001951" fill-opacity="0.501961" points="184,141 166,128 177,128" />
<polygon fill="#00154e" fill-opacity="0.501961" points="91,124 87,121 78,122" />
<polygon fill="#00154d" fill-opacity="0.501961" points="93,114 98,113 94,116" />
<polygon fill="#001a53" fill-opacity="0.501961" points="173,129 186,114 179,142" />
<polygon fill="#000000" fill-opacity="0.501961" points="-3,96 41,96 12,77" />
<polygon fill="#001a53" fill-opacity="0.501961" points="211,116 177,131 167,114" />
<polygon fill="#001150" fill-opacity="0.501961" points="8,105 8,109 5,105" />
<polygon fill="#1d3e82" fill-opacity="0.501961" points="215,143 215,141 221,143" />
<polygon fill="#001a53" fill-opacity="0.501961" points="130,131 125,139 146,128" />
<polygon fill="#6f7f9d" fill-opacity="0.501961" points="57,122 60,116 56,117" />
<polygon fill="#00164f" fill-opacity="0.501961" points="169,130 166,128 172,129" />
<polygon fill="#001950" fill-opacity="0.501961" points="226,137 212,142 233,142" />
</g>
</svg>