<svg xmlns="http://www.w3.org/2000/svg" version="1.1" width="1024" height="580">
<rect x="0" y="0" width="1024" height="580" fill="#1f2431" />
<g transform="scale(4.000000) translate(0.5 0.5)">
<polygon fill="#ffebe1" fill-opacity="0.501961" points="121,94 122,0 194,107" />
<polygon fill="#000000" fill-opacity="0.501961" points="261,-14 271,142 120,22" />
<polygon fill="#000000" fill-opacity="0.501961" points="5,-16 143,53 -13,106" />
<polygon fill="#0c3699" fill-opacity="0.501961" points="147,160 271,110 -16,112" />
<polygon fill="#ffffed" fill-opacity="0.501961" points="129,91 181,91 156,47" />
<polygon fill="#796a81" fill-opacity="0.501961" points="155,16 117,46 104,-9" />
<polygon fill="#000015" fill-opacity="0.501961" points="162,88 128,99 173,103" />
<polygon fill="#6a634c" fill-opacity="0.501961" points="75,80 50,65 57,129" />
<polygon fill="#322f27" fill-opacity="0.501961" points="198,7 103,82 174,-16" />
<polygon fill="#082d76" fill-opacity="0.501961" points="14,94 0,152 86,150" />
<polygon fill="#030300" fill-opacity="0.501961" points="98,-7 122,114 -16,0" />
<polygon fill="#697c97" fill-opacity="0.501961" points="50,113 102,129 25,130" />
<polygon fill="#000000" fill-opacity="0.501961" points="271,-9 166,63 220,138" />
<polygon fill="#c6a185" fill-opacity="0.501961" points="142,76 132,30 121,116" />
<polygon fill="#062778" fill-opacity="0.501961" points="256,160 103,111 250,111" />
<polygon fill="#e3d8dc" fill-opacity="0.501961" points="193,111 175,108 164,62" />
<polygon fill="#3c262a" fill-opacity="0.501961" points="157,75 166,110 180,108" />
<polygon fill="#030300" fill-opacity="0.501961" points="120,109 84,85 51,111" />
<polygon fill="#4e4f8e" fill-opacity="0.501961" points="203,111 136,112 155,98" />
<polygon fill="#030300" fill-opacity="0.501961" points="142,-16 -14,-4 -16,91" />
<polygon fill="#000000" fill-opacity="0.501961" points="201,-16 271,-16 271,160" />
<polygon fill="#595c7b" fill-opacity="0.501961" points="123,-6 101,22 149,28" />
<polygon fill="#001750" fill-opacity="0.501961" points="153,131 64,160 72,113" />
<polygon fill="#000006" fill-opacity="0.501961" points="132,112 165,92 125,100" />
<polygon fill="#f3ecef" fill-opacity="0.501961" points="153,48 132,69 162,57" />
<polygon fill="#826273" fill-opacity="0.501961" points="118,26 135,62 162,76" />
<polygon fill="#dbcab7" fill-opacity="0.501961" points="117,65 154,69 126,78" />
<polygon fill="#64b5ff" fill-opacity="0.501961" points="241,138 249,134 243,129" />
<polygon fill="#000000" fill-opacity="0.501961" points="-16,2 -6,160 30,-5" />
<polygon fill="#000008" fill-opacity="0.501961" points="121,44 104,44 134,72" />
<polygon fill="#eae4ed" fill-opacity="0.501961" points="152,61 140,94 158,92" />
<polygon fill="#232924" fill-opacity="0.501961" points="50,115 18,51 52,27" />
<polygon fill="#6b6f9a" fill-opacity="0.501961" points="190,149 185,131 138,160" />
<polygon fill="#a4835b" fill-opacity="0.501961" points="121,79 137,71 123,126" />
<polygon fill="#6b6d9c" fill-opacity="0.501961" points="202,130 186,98 185,124" />
<polygon fill="#8ea3c3" fill-opacity="0.501961" points="24,99 9,103 22,107" />
<polygon fill="#21241a" fill-opacity="0.501961" points="234,46 143,44 141,-16" />
<polygon fill="#c1cdd6" fill-opacity="0.501961" points="93,129 98,129 95,121" />
<polygon fill="#000001" fill-opacity="0.501961" points="-7,79 74,109 36,110" />
<polygon fill="#001356" fill-opacity="0.501961" points="4,150 4,100 57,152" />
<polygon fill="#af7473" fill-opacity="0.501961" points="137,47 116,32 114,44" />
<polygon fill="#f4ece0" fill-opacity="0.501961" points="174,76 152,54 171,99" />
<polygon fill="#181a18" fill-opacity="0.501961" points="92,115 63,61 127,48" />
<polygon fill="#00134a" fill-opacity="0.501961" points="201,113 193,153 271,117" />
<polygon fill="#8d9eb7" fill-opacity="0.501961" points="55,121 39,116 70,115" />
<polygon fill="#2b2c24" fill-opacity="0.501961" points="88,16 133,-4 75,-2" />
<polygon fill="#feffff" fill-opacity="0.501961" points="134,68 153,82 147,70" />
<polygon fill="#352332" fill-opacity="0.501961" points="118,31 132,18 120,15" />
<polygon fill="#080915" fill-opacity="0.501961" points="134,24 169,53 136,39" />
<polygon fill="#4c252b" fill-opacity="0.501961" points="143,63 140,70 149,67" />
<polygon fill="#030400" fill-opacity="0.501961" points="166,65 191,102 221,92" />
<polygon fill="#b3c0cd" fill-opacity="0.501961" points="80,123 85,131 78,127" />
<polygon fill="#717698" fill-opacity="0.501961" points="145,29 140,11 120,2" />
<polygon fill="#010200" fill-opacity="0.501961" points="194,110 254,-16 257,111" />
<polygon fill="#f2f1f6" fill-opacity="0.501961" points="125,79 132,65 123,71" />
<polygon fill="#010018" fill-opacity="0.501961" points="161,94 130,109 128,96" />
<polygon fill="#000000" fill-opacity="0.501961" points="-16,97 4,25 3,160" />
<polygon fill="#224583" fill-opacity="0.501961" points="32,97 8,97 4,119" />
<polygon fill="#00000b" fill-opacity="0.501961" points="167,92 175,111 160,94" />
<polygon fill="#000000" fill-opacity="0.501961" points="254,35 271,92 253,157" />
<polygon fill="#ecda74" fill-opacity="0.501961" points="137,73 129,81 139,89" />
<polygon fill="#b58a63" fill-opacity="0.501961" points="132,93 119,69 124,98" />
<polygon fill="#5c5442" fill-opacity="0.501961" points="53,70 74,74 65,108" />
<polygon fill="#4c527b" fill-opacity="0.501961" points="131,74 128,63 141,53" />
<polygon fill="#2a2c23" fill-opacity="0.501961" points="121,-16 158,37 198,13" />
<polygon fill="#0b0c08" fill-opacity="0.501961" points="116,43 122,95 99,51" />
<polygon fill="#001a56" fill-opacity="0.501961" points="94,110 141,127 68,121" />
<polygon fill="#596b89" fill-opacity="0.501961" points="69,127 32,129 33,114" />
<polygon fill="#9d7074" fill-opacity="0.501961" points="130,41 114,38 140,21" />
<polygon fill="#c5bcc0" fill-opacity="0.501961" points="137,68 130,59 134,48" />
<polygon fill="#d9dadf" fill-opacity="0.501961" points="176,99 171,84 195,105" />
<polygon fill="#00164f" fill-opacity="0.501961" points="122,160 119,130 10,132" />
<polygon fill="#001546" fill-opacity="0.501961" points="198,160 173,111 219,160" />
<polygon fill="#9facbd" fill-opacity="0.501961" points="65,129 69,130 66,116" />
<polygon fill="#bb9568" fill-opacity="0.501961" points="164,87 181,104 174,105" />
<polygon fill="#000000" fill-opacity="0.501961" points="-16,100 22,94 15,-16" />
<polygon fill="#080000" fill-opacity="0.501961" points="23,160 81,143 -8,143" />
<polygon fill="#90a0b4" fill-opacity="0.501961" points="106,128 95,123 92,127" />
<polygon fill="#000000" fill-opacity="0.501961" points="220,160 199,143 271,143" />
<polygon fill="#41538c" fill-opacity="0.501961" points="121,125 135,112 123,110" />
<polygon fill="#03040a" fill-opacity="0.501961" points="97,52 127,46 124,65" />
<polygon fill="#4e89ff" fill-opacity="0.501961" points="248,140 246,133 241,132" />
<polygon fill="#212627" fill-opacity="0.501961" points="49,41 30,53 55,123" />
<polygon fill="#001041" fill-opacity="0.501961" points="31,112 31,132 -4,113" />
<polygon fill="#845e2f" fill-opacity="0.501961" points="159,75 158,81 153,68" />
<polygon fill="#656687" fill-opacity="0.501961" points="104,15 118,3 141,17" />
<polygon fill="#00114d" fill-opacity="0.501961" points="135,160 129,116 142,108" />
<polygon fill="#161613" fill-opacity="0.501961" points="237,36 189,63 184,-16" />
<polygon fill="#7c78b3" fill-opacity="0.501961" points="192,100 195,109 179,102" />
<polygon fill="#0e1111" fill-opacity="0.501961" points="227,68 235,106 190,101" />
<polygon fill="#4e5c8d" fill-opacity="0.501961" points="153,48 130,69 140,42" />
<polygon fill="#f3f2eb" fill-opacity="0.501961" points="146,56 155,48 169,70" />
<polygon fill="#00114b" fill-opacity="0.501961" points="79,131 75,120 65,122" />
<polygon fill="#a9b1bd" fill-opacity="0.501961" points="146,62 148,49 135,62" />
<polygon fill="#0b0e0d" fill-opacity="0.501961" points="52,69 79,73 55,47" />
<polygon fill="#9c795c" fill-opacity="0.501961" points="119,71 131,86 122,90" />
<polygon fill="#3e4081" fill-opacity="0.501961" points="172,111 163,94 143,109" />
<polygon fill="#193467" fill-opacity="0.501961" points="40,125 54,111 31,124" />
<polygon fill="#0e3f98" fill-opacity="0.501961" points="9,97 4,97 4,108" />
<polygon fill="#04286f" fill-opacity="0.501961" points="252,111 251,131 243,129" />
<polygon fill="#000000" fill-opacity="0.501961" points="59,43 -5,-10 131,50" />
<polygon fill="#e3e1dc" fill-opacity="0.501961" points="177,101 173,76 149,52" />
<polygon fill="#1a2e81" fill-opacity="0.501961" points="141,116 147,148 171,113" />
<polygon fill="#110600" fill-opacity="0.501961" points="67,143 126,143 110,160" />
<polygon fill="#a68d73" fill-opacity="0.501961" points="131,88 143,78 130,100" />
<polygon fill="#2d2e22" fill-opacity="0.501961" points="188,2 86,3 133,-16" />
<polygon fill="#3e1600" fill-opacity="0.501961" points="167,143 129,143 174,160" />
<polygon fill="#ca9d77" fill-opacity="0.501961" points="122,101 128,108 125,111" />
<polygon fill="#030502" fill-opacity="0.501961" points="149,36 225,76 178,80" />
<polygon fill="#070905" fill-opacity="0.501961" points="72,104 87,101 74,75" />
<polygon fill="#978b93" fill-opacity="0.501961" points="187,142 199,158 165,145" />
<polygon fill="#393548" fill-opacity="0.501961" points="126,14 139,25 135,29" />
<polygon fill="#aaafb7" fill-opacity="0.501961" points="22,101 19,102 17,108" />
<polygon fill="#102b5f" fill-opacity="0.501961" points="49,120 57,124 38,124" />
<polygon fill="#001066" fill-opacity="0.501961" points="46,114 56,110 66,114" />
<polygon fill="#11140e" fill-opacity="0.501961" points="31,69 53,110 29,111" />
<polygon fill="#001953" fill-opacity="0.501961" points="195,113 247,112 236,148" />
<polygon fill="#000000" fill-opacity="0.501961" points="-16,89 3,57 4,160" />
<polygon fill="#808fa7" fill-opacity="0.501961" points="53,126 48,130 38,124" />
<polygon fill="#86696e" fill-opacity="0.501961" points="134,21 111,36 119,46" />
<polygon fill="#8787c8" fill-opacity="0.501961" points="138,89 158,92 133,95" />
<polygon fill="#05081b" fill-opacity="0.501961" points="146,95 127,98 126,105" />
<polygon fill="#131615" fill-opacity="0.501961" points="99,35 57,18 105,9" />
<polygon fill="#1a1c1c" fill-opacity="0.501961" points="117,66 58,51 111,106" />
<polygon fill="#0e3581" fill-opacity="0.501961" points="22,108 29,100 30,113" />
<polygon fill="#1d1e1b" fill-opacity="0.501961" points="193,-10 214,30 143,45" />
<polygon fill="#efeeea" fill-opacity="0.501961" points="155,63 160,76 177,84" />
<polygon fill="#171023" fill-opacity="0.501961" points="135,37 139,45 141,28" />
<polygon fill="#d3c5b9" fill-opacity="0.501961" points="160,84 145,78 159,92" />
<polygon fill="#be9161" fill-opacity="0.501961" points="155,80 156,73 162,88" />
<polygon fill="#333d78" fill-opacity="0.501961" points="190,142 181,125 166,138" />
<polygon fill="#f3f1e8" fill-opacity="0.501961" points="150,67 155,79 137,90" />
<polygon fill="#00184f" fill-opacity="0.501961" points="124,112 103,142 104,112" />
<polygon fill="#4e473a" fill-opacity="0.501961" points="53,75 61,106 74,94" />
<polygon fill="#001b55" fill-opacity="0.501961" points="85,131 85,111 103,115" />
<polygon fill="#f2f2ee" fill-opacity="0.501961" points="142,72 138,64 132,65" />
<polygon fill="#000000" fill-opacity="0.501961" points="54,110 48,103 72,108" />
<polygon fill="#253663" fill-opacity="0.501961" points="186,118 179,114 180,104" />
<polygon fill="#554f7a" fill-opacity="0.501961" points="142,144 164,149 158,141" />
<polygon fill="#687790" fill-opacity="0.501961" points="24,105 12,100 9,106" />
<polygon fill="#31332b" fill-opacity="0.501961" points="167,-6 191,27 131,-5" />
<polygon fill="#3e3a4a" fill-opacity="0.501961" points="138,39 143,50 134,67" />
<polygon fill="#001d58" fill-opacity="0.501961" points="31,131 3,133 17,103" />
<polygon fill="#787ca1" fill-opacity="0.501961" points="134,6 139,15 124,3" />
<polygon fill="#a0747a" fill-opacity="0.501961" points="133,25 137,49 116,41" />
<polygon fill="#885e47" fill-opacity="0.501961" points="132,86 129,76 124,85" />
<polygon fill="#e2dfd9" fill-opacity="0.501961" points="177,91 159,51 158,73" />
<polygon fill="#0e1111" fill-opacity="0.501961" points="183,70 234,40 154,45" />
<polygon fill="#030200" fill-opacity="0.501961" points="270,-1 233,17 179,-7" />
<polygon fill="#383448" fill-opacity="0.501961" points="129,11 140,33 129,21" />
<polygon fill="#0a0418" fill-opacity="0.501961" points="142,99 145,108 135,110" />
<polygon fill="#decb82" fill-opacity="0.501961" points="129,76 140,85 132,86" />
<polygon fill="#2e3c76" fill-opacity="0.501961" points="122,130 128,113 127,144" />
<polygon fill="#5b5571" fill-opacity="0.501961" points="112,10 104,28 106,11" />
<polygon fill="#2e2b39" fill-opacity="0.501961" points="122,60 134,65 115,65" />
<polygon fill="#dad1c4" fill-opacity="0.501961" points="165,77 155,57 172,74" />
<polygon fill="#11205a" fill-opacity="0.501961" points="130,140 164,141 182,124" />
<polygon fill="#001851" fill-opacity="0.501961" points="77,130 68,136 70,110" />
<polygon fill="#523844" fill-opacity="0.501961" points="124,30 122,18 113,35" />
<polygon fill="#ba9268" fill-opacity="0.501961" points="119,68 122,82 123,68" />
<polygon fill="#939dbb" fill-opacity="0.501961" points="151,45 144,49 156,49" />
<polygon fill="#f8f9ef" fill-opacity="0.501961" points="128,72 122,76 128,66" />
<polygon fill="#000000" fill-opacity="0.501961" points="253,76 271,141 253,157" />
<polygon fill="#604e3c" fill-opacity="0.501961" points="169,91 157,74 160,86" />
<polygon fill="#021f55" fill-opacity="0.501961" points="60,129 62,117 63,127" />
<polygon fill="#020605" fill-opacity="0.501961" points="142,35 145,45 160,45" />
<polygon fill="#ac896b" fill-opacity="0.501961" points="129,111 122,97 123,111" />
<polygon fill="#d8d5cd" fill-opacity="0.501961" points="162,82 180,104 183,96" />
<polygon fill="#111415" fill-opacity="0.501961" points="24,31 19,76 50,22" />
<polygon fill="#8d8bbb" fill-opacity="0.501961" points="157,89 152,94 138,92" />
<polygon fill="#252c2b" fill-opacity="0.501961" points="35,65 51,47 50,83" />
<polygon fill="#0c0e0a" fill-opacity="0.501961" points="120,87 92,109 120,110" />
<polygon fill="#000000" fill-opacity="0.501961" points="-15,95 2,51 32,97" />
<polygon fill="#a88157" fill-opacity="0.501961" points="173,95 179,106 174,107" />
<polygon fill="#090300" fill-opacity="0.501961" points="255,143 214,160 194,144" />
<polygon fill="#8897ab" fill-opacity="0.501961" points="62,119 68,116 65,114" />
<polygon fill="#666884" fill-opacity="0.501961" points="129,5 143,20 137,27" />
<polygon fill="#04317d" fill-opacity="0.501961" points="55,115 67,111 43,111" />
<polygon fill="#001953" fill-opacity="0.501961" points="206,116 242,138 198,141" />
<polygon fill="#3e4075" fill-opacity="0.501961" points="150,100 157,111 163,95" />
<polygon fill="#000000" fill-opacity="0.501961" points="211,110 200,69 199,102" />
<polygon fill="#0b0c1a" fill-opacity="0.501961" points="137,94 146,105 153,95" />
<polygon fill="#fefdeb" fill-opacity="0.501961" points="139,63 149,58 148,55" />
<polygon fill="#121312" fill-opacity="0.501961" points="106,52 127,66 104,59" />
<polygon fill="#524c3f" fill-opacity="0.501961" points="71,73 53,103 52,70" />
<polygon fill="#151615" fill-opacity="0.501961" points="50,83 52,108 23,93" />
<polygon fill="#e2ce7d" fill-opacity="0.501961" points="137,73 144,79 129,78" />
<polygon fill="#465284" fill-opacity="0.501961" points="183,111 198,134 192,108" />
<polygon fill="#001b5d" fill-opacity="0.501961" points="145,138 139,123 99,128" />
<polygon fill="#856066" fill-opacity="0.501961" points="124,46 139,45 111,35" />
<polygon fill="#969adc" fill-opacity="0.501961" points="129,97 139,93 135,91" />
<polygon fill="#252625" fill-opacity="0.501961" points="133,43 163,-5 159,23" />
<polygon fill="#001c57" fill-opacity="0.501961" points="8,97 3,131 14,128" />
<polygon fill="#001246" fill-opacity="0.501961" points="158,130 166,160 169,147" />
<polygon fill="#e1dfdc" fill-opacity="0.501961" points="156,67 177,100 182,90" />
<polygon fill="#000000" fill-opacity="0.501961" points="181,85 168,65 233,61" />
<polygon fill="#578dff" fill-opacity="0.501961" points="240,138 245,130 247,136" />
<polygon fill="#012260" fill-opacity="0.501961" points="18,142 58,131 99,143" />
<polygon fill="#656a8a" fill-opacity="0.501961" points="130,7 119,5 128,22" />
<polygon fill="#4e3e42" fill-opacity="0.501961" points="198,111 190,111 189,108" />
<polygon fill="#7a5553" fill-opacity="0.501961" points="146,56 149,66 143,67" />
<polygon fill="#00154e" fill-opacity="0.501961" points="47,139 74,142 47,128" />
<polygon fill="#6c7d9d" fill-opacity="0.501961" points="62,129 59,124 51,128" />
<polygon fill="#7a8ba6" fill-opacity="0.501961" points="76,128 85,124 80,130" />
<polygon fill="#bbabb1" fill-opacity="0.501961" points="136,71 131,66 132,57" />
<polygon fill="#a56c70" fill-opacity="0.501961" points="129,56 136,47 128,50" />
<polygon fill="#ebe8e0" fill-opacity="0.501961" points="142,90 154,64 144,71" />
<polygon fill="#8699ba" fill-opacity="0.501961" points="57,120 49,115 61,116" />
<polygon fill="#1e3f75" fill-opacity="0.501961" points="208,111 217,113 223,110" />
<polygon fill="#524b3f" fill-opacity="0.501961" points="57,104 54,82 67,103" />
<polygon fill="#60688d" fill-opacity="0.501961" points="134,55 131,65 144,57" />
<polygon fill="#030506" fill-opacity="0.501961" points="209,41 237,28 238,58" />
<polygon fill="#001b54" fill-opacity="0.501961" points="82,119 102,139 86,131" />
<polygon fill="#121517" fill-opacity="0.501961" points="144,28 181,44 152,46" />
<polygon fill="#696886" fill-opacity="0.501961" points="111,25 116,7 120,20" />
<polygon fill="#0c2e71" fill-opacity="0.501961" points="203,138 191,142 219,143" />
<polygon fill="#000042" fill-opacity="0.501961" points="62,122 56,122 54,125" />
<polygon fill="#001a53" fill-opacity="0.501961" points="245,142 223,114 195,141" />
<polygon fill="#919fb3" fill-opacity="0.501961" points="69,119 68,115 63,116" />
<polygon fill="#565164" fill-opacity="0.501961" points="134,26 145,32 138,15" />
<polygon fill="#938bbe" fill-opacity="0.501961" points="186,110 190,102 180,104" />
<polygon fill="#70829e" fill-opacity="0.501961" points="32,130 49,125 32,125" />
<polygon fill="#627595" fill-opacity="0.501961" points="42,121 53,120 38,116" />
<polygon fill="#8897ae" fill-opacity="0.501961" points="77,130 81,128 78,124" />
<polygon fill="#000000" fill-opacity="0.501961" points="232,110 271,109 259,-16" />
<polygon fill="#857f92" fill-opacity="0.501961" points="170,142 186,144 161,154" />
<polygon fill="#3c4266" fill-opacity="0.501961" points="129,100 123,101 131,95" />
<polygon fill="#27283d" fill-opacity="0.501961" points="136,58 136,51 141,54" />
<polygon fill="#101212" fill-opacity="0.501961" points="76,108 122,105 119,92" />
<polygon fill="#001757" fill-opacity="0.501961" points="251,130 244,150 253,160" />
<polygon fill="#27366c" fill-opacity="0.501961" points="199,137 186,126 199,122" />
<polygon fill="#062561" fill-opacity="0.501961" points="55,116 54,122 56,125" />
<polygon fill="#000000" fill-opacity="0.501961" points="60,4 -2,38 -3,-16" />
<polygon fill="#0b0d0e" fill-opacity="0.501961" points="48,24 54,68 83,76" />
<polygon fill="#00000d" fill-opacity="0.501961" points="170,100 163,87 164,98" />
<polygon fill="#705057" fill-opacity="0.501961" points="139,74 132,71 132,68" />
<polygon fill="#000000" fill-opacity="0.501961" points="3,84 -16,138 2,144" />
<polygon fill="#062458" fill-opacity="0.501961" points="105,134 100,132 99,124" />
<polygon fill="#c9cbd4" fill-opacity="0.501961" points="134,62 131,58 135,61" />
<polygon fill="#2c2d21" fill-opacity="0.501961" points="156,11 143,13 122,-4" />
<polygon fill="#c3a27e" fill-opacity="0.501961" points="163,86 156,76 154,83" />
<polygon fill="#363444" fill-opacity="0.501961" points="118,65 123,58 135,65" />
<polygon fill="#021f58" fill-opacity="0.501961" points="40,135 40,123 34,143" />
<polygon fill="#e3e1d8" fill-opacity="0.501961" points="157,84 136,91 142,83" />
<polygon fill="#d7d4ce" fill-opacity="0.501961" points="184,94 166,89 178,97" />
<polygon fill="#f0eceb" fill-opacity="0.501961" points="138,63 141,68 133,68" />
<polygon fill="#131314" fill-opacity="0.501961" points="63,5 74,-16 113,38" />
<polygon fill="#001952" fill-opacity="0.501961" points="74,115 78,130 65,140" />
<polygon fill="#04215b" fill-opacity="0.501961" points="103,111 65,114 128,131" />
<polygon fill="#030303" fill-opacity="0.501961" points="176,62 193,80 168,70" />
<polygon fill="#101313" fill-opacity="0.501961" points="188,100 200,97 195,78" />
<polygon fill="#c3a480" fill-opacity="0.501961" points="150,68 153,73 157,66" />
<polygon fill="#0e0d09" fill-opacity="0.501961" points="227,7 226,30 182,-16" />
<polygon fill="#001b52" fill-opacity="0.501961" points="63,124 56,122 69,122" />
<polygon fill="#00124a" fill-opacity="0.501961" points="28,104 24,94 25,109" />
<polygon fill="#232521" fill-opacity="0.501961" points="116,-3 101,18 83,4" />
<polygon fill="#9d6661" fill-opacity="0.501961" points="140,62 148,62 142,69" />
<polygon fill="#00194f" fill-opacity="0.501961" points="250,113 250,131 211,112" />
<polygon fill="#4a5a88" fill-opacity="0.501961" points="128,114 121,108 121,123" />
<polygon fill="#f5f6f6" fill-opacity="0.501961" points="156,61 146,58 151,53" />
<polygon fill="#050607" fill-opacity="0.501961" points="109,62 129,51 116,45" />
<polygon fill="#0d0f10" fill-opacity="0.501961" points="202,85 222,69 229,106" />
<polygon fill="#e5e3e0" fill-opacity="0.501961" points="168,86 157,62 183,92" />
<polygon fill="#191b1b" fill-opacity="0.501961" points="118,63 121,91 67,68" />
<polygon fill="#ebe9e2" fill-opacity="0.501961" points="150,70 151,87 155,75" />
<polygon fill="#133168" fill-opacity="0.501961" points="89,117 65,110 94,110" />
<polygon fill="#44517a" fill-opacity="0.501961" points="129,123 128,111 121,119" />
<polygon fill="#001852" fill-opacity="0.501961" points="5,141 30,120 36,141" />
<polygon fill="#001a57" fill-opacity="0.501961" points="129,110 129,143 140,121" />
<polygon fill="#1a1222" fill-opacity="0.501961" points="127,54 130,46 120,57" />
<polygon fill="#2b3572" fill-opacity="0.501961" points="176,127 163,134 170,142" />
<polygon fill="#201825" fill-opacity="0.501961" points="114,27 110,32 115,32" />
<polygon fill="#bb9064" fill-opacity="0.501961" points="125,67 119,64 121,75" />
<polygon fill="#101211" fill-opacity="0.501961" points="104,103 73,74 74,109" />
<polygon fill="#1b1f1e" fill-opacity="0.501961" points="19,66 38,38 46,104" />
<polygon fill="#14397c" fill-opacity="0.501961" points="7,121 4,122 4,132" />
<polygon fill="#909eb5" fill-opacity="0.501961" points="63,127 65,130 68,126" />
<polygon fill="#b78f8f" fill-opacity="0.501961" points="134,39 121,37 134,31" />
<polygon fill="#141516" fill-opacity="0.501961" points="160,56 201,49 223,22" />
<polygon fill="#514c3f" fill-opacity="0.501961" points="53,72 72,74 73,97" />
<polygon fill="#3d4889" fill-opacity="0.501961" points="154,104 160,111 136,112" />
<polygon fill="#041f54" fill-opacity="0.501961" points="53,144 55,125 58,137" />
<polygon fill="#1b4186" fill-opacity="0.501961" points="223,112 232,111 227,113" />
<polygon fill="#9d8066" fill-opacity="0.501961" points="121,99 129,90 125,82" />
<polygon fill="#011d54" fill-opacity="0.501961" points="87,125 71,112 119,113" />
<polygon fill="#001651" fill-opacity="0.501961" points="62,117 58,112 62,112" />
<polygon fill="#0d2d66" fill-opacity="0.501961" points="10,107 5,99 4,125" />
<polygon fill="#001851" fill-opacity="0.501961" points="35,114 12,113 4,121" />
<polygon fill="#dedbd4" fill-opacity="0.501961" points="168,70 173,88 184,93" />
<polygon fill="#001851" fill-opacity="0.501961" points="173,115 189,139 205,142" />
<polygon fill="#020404" fill-opacity="0.501961" points="203,72 183,91 180,79" />
<polygon fill="#1b1c14" fill-opacity="0.501961" points="66,92 70,100 72,98" />
<polygon fill="#4379fa" fill-opacity="0.501961" points="246,139 248,134 242,133" />
<polygon fill="#001453" fill-opacity="0.501961" points="25,100 17,97 8,100" />
<polygon fill="#416bca" fill-opacity="0.501961" points="252,126 252,128 251,129" />
<polygon fill="#3d3b6d" fill-opacity="0.501961" points="141,111 158,96 167,108" />
<polygon fill="#9c767c" fill-opacity="0.501961" points="133,42 127,46 131,25" />
<polygon fill="#825960" fill-opacity="0.501961" points="126,143 140,150 123,147" />
<polygon fill="#0f1113" fill-opacity="0.501961" points="119,63 47,70 84,49" />
<polygon fill="#18152f" fill-opacity="0.501961" points="141,70 145,66 143,66" />
<polygon fill="#7c535b" fill-opacity="0.501961" points="127,33 117,37 120,26" />
<polygon fill="#2a436f" fill-opacity="0.501961" points="45,116 46,124 42,121" />
<polygon fill="#0f120e" fill-opacity="0.501961" points="34,97 21,97 20,55" />
<polygon fill="#c0a366" fill-opacity="0.501961" points="139,83 135,71 141,80" />
<polygon fill="#936b70" fill-opacity="0.501961" points="136,45 136,41 122,43" />
<polygon fill="#c2b7ad" fill-opacity="0.501961" points="157,53 159,62 155,59" />
<polygon fill="#1c1e1d" fill-opacity="0.501961" points="116,81 78,93 97,67" />
<polygon fill="#20231d" fill-opacity="0.501961" points="155,9 144,3 145,46" />
<polygon fill="#f2f7f7" fill-opacity="0.501961" points="144,72 138,73 140,69" />
<polygon fill="#000000" fill-opacity="0.501961" points="22,15 16,95 -16,98" />
<polygon fill="#0d0a07" fill-opacity="0.501961" points="170,107 166,95 177,111" />
<polygon fill="#001951" fill-opacity="0.501961" points="5,120 8,142 54,142" />
<polygon fill="#070a1d" fill-opacity="0.501961" points="160,92 155,94 165,95" />
<polygon fill="#7586a3" fill-opacity="0.501961" points="97,129 96,125 91,132" />
<polygon fill="#001a53" fill-opacity="0.501961" points="93,131 82,143 86,125" />
<polygon fill="#9d7958" fill-opacity="0.501961" points="166,92 176,100 177,109" />
<polygon fill="#e7da8c" fill-opacity="0.501961" points="137,86 134,75 140,75" />
<polygon fill="#f7f5f1" fill-opacity="0.501961" points="149,63 157,51 154,48" />
<polygon fill="#454983" fill-opacity="0.501961" points="165,99 158,103 159,97" />
<polygon fill="#53688c" fill-opacity="0.501961" points="32,127 38,131 49,129" />
<polygon fill="#060600" fill-opacity="0.501961" points="47,160 50,144 -3,143" />
<polygon fill="#102f6d" fill-opacity="0.501961" points="81,142 106,143 94,139" />
<polygon fill="#6f4a50" fill-opacity="0.501961" points="121,43 131,38 126,43" />
<polygon fill="#070907" fill-opacity="0.501961" points="45,108 31,110 31,95" />
<polygon fill="#181a3a" fill-opacity="0.501961" points="131,63 125,52 123,60" />
<polygon fill="#101312" fill-opacity="0.501961" points="122,103 106,94 120,89" />
<polygon fill="#876d56" fill-opacity="0.501961" points="181,103 176,110 172,104" />
<polygon fill="#bd9b77" fill-opacity="0.501961" points="131,92 127,84 125,94" />
<polygon fill="#001851" fill-opacity="0.501961" points="123,141 73,142 92,131" />
<polygon fill="#001c55" fill-opacity="0.501961" points="238,138 196,112 253,112" />
<polygon fill="#001650" fill-opacity="0.501961" points="173,129 164,116 167,128" />
<polygon fill="#3c4f88" fill-opacity="0.501961" points="177,133 186,137 165,142" />
<polygon fill="#a1a3aa" fill-opacity="0.501961" points="125,29 126,26 128,32" />
<polygon fill="#7c6167" fill-opacity="0.501961" points="125,29 133,29 128,33" />
<polygon fill="#293775" fill-opacity="0.501961" points="155,133 161,143 139,142" />
<polygon fill="#23241f" fill-opacity="0.501961" points="203,31 172,-16 184,25" />
<polygon fill="#f2f3f2" fill-opacity="0.501961" points="167,68 159,54 159,60" />
<polygon fill="#77869f" fill-opacity="0.501961" points="22,100 21,104 12,103" />
<polygon fill="#001b5a" fill-opacity="0.501961" points="241,143 248,139 232,138" />
<polygon fill="#0d295e" fill-opacity="0.501961" points="28,108 16,106 2,113" />
<polygon fill="#686886" fill-opacity="0.501961" points="109,9 138,14 120,2" />
<polygon fill="#5a5c7e" fill-opacity="0.501961" points="137,58 130,62 133,59" />
<polygon fill="#143475" fill-opacity="0.501961" points="111,139 120,143 102,143" />
<polygon fill="#565675" fill-opacity="0.501961" points="140,39 143,47 138,49" />
<polygon fill="#365294" fill-opacity="0.501961" points="116,111 126,111 127,115" />
<polygon fill="#54546e" fill-opacity="0.501961" points="148,61 145,61 147,63" />
<polygon fill="#a2a2b6" fill-opacity="0.501961" points="141,55 143,53 149,57" />
<polygon fill="#9db3ba" fill-opacity="0.501961" points="130,28 129,26 131,25" />
<polygon fill="#2f3127" fill-opacity="0.501961" points="141,3 109,0 114,-11" />
<polygon fill="#ba9b7b" fill-opacity="0.501961" points="159,70 153,65 155,76" />
</g>
</svg>