<svg xmlns="http://www.w3.org/2000/svg" version="1.1" width="1024" height="580">
<rect x="0" y="0" width="1024" height="580" fill="#2c2b3d" />
<g transform="scale(4.000000) translate(0.5 0.5)">
<polygon fill="#fffffa" fill-opacity="0.501961" points="17,12 51,13 33,125" />
<polygon fill="#efceca" fill-opacity="0.501961" points="189,26 204,118 217,21" />
<polygon fill="#6e86b6" fill-opacity="0.501961" points="100,119 12,61 -1,147" />
<polygon fill="#080000" fill-opacity="0.501961" points="74,115 271,0 44,-12" />
<polygon fill="#000000" fill-opacity="0.501961" points="209,62 267,160 253,-16" />
<polygon fill="#10348e" fill-opacity="0.501961" points="222,97 271,160 -2,140" />
<polygon fill="#ffffd9" fill-opacity="0.501961" points="55,21 21,12 32,63" />
<polygon fill="#000000" fill-opacity="0.501961" points="29,61 4,-16 -10,63" />
<polygon fill="#ac8285" fill-opacity="0.501961" points="225,107 203,13 182,117" />
<polygon fill="#715f56" fill-opacity="0.501961" points="8,64 45,47 81,117" />
<polygon fill="#0e0000" fill-opacity="0.501961" points="171,110 242,89 174,89" />
<polygon fill="#060000" fill-opacity="0.501961" points="132,101 199,66 173,1" />
<polygon fill="#000000" fill-opacity="0.501961" points="68,-13 -7,33 -8,-16" />
<polygon fill="#000000" fill-opacity="0.501961" points="271,6 233,160 215,-16" />
<polygon fill="#c8c8ca" fill-opacity="0.501961" points="208,17 190,28 209,92" />
<polygon fill="#6d7ca2" fill-opacity="0.501961" points="161,122 92,122 126,99" />
<polygon fill="#020000" fill-opacity="0.501961" points="60,3 39,62 103,66" />
<polygon fill="#000000" fill-opacity="0.501961" points="24,-16 -3,147 -16,27" />
<polygon fill="#ffffff" fill-opacity="0.501961" points="16,34 25,13 44,10" />
<polygon fill="#001e69" fill-opacity="0.501961" points="250,160 253,109 71,133" />
<polygon fill="#000000" fill-opacity="0.501961" points="271,18 173,-16 163,21" />
<polygon fill="#fffffe" fill-opacity="0.501961" points="224,100 211,100 221,110" />
<polygon fill="#aac7f7" fill-opacity="0.501961" points="40,134 53,125 23,124" />
<polygon fill="#8f647b" fill-opacity="0.501961" points="182,72 187,119 213,57" />
<polygon fill="#2c192e" fill-opacity="0.501961" points="173,48 106,119 106,-16" />
<polygon fill="#ffe9df" fill-opacity="0.501961" points="35,112 36,64 28,87" />
<polygon fill="#000000" fill-opacity="0.501961" points="-5,73 30,52 -6,3" />
<polygon fill="#110200" fill-opacity="0.501961" points="45,108 59,114 55,88" />
<polygon fill="#000000" fill-opacity="0.501961" points="61,19 75,-16 -16,-12" />
<polygon fill="#f4ccb3" fill-opacity="0.501961" points="16,20 55,27 37,57" />
<polygon fill="#000000" fill-opacity="0.501961" points="260,30 204,61 271,109" />
<polygon fill="#aa6a8a" fill-opacity="0.501961" points="223,91 226,75 213,66" />
<polygon fill="#fffff5" fill-opacity="0.501961" points="193,52 206,60 209,38" />
<polygon fill="#000000" fill-opacity="0.501961" points="163,52 186,-10 181,117" />
<polygon fill="#6e6e7e" fill-opacity="0.501961" points="220,30 186,52 188,28" />
<polygon fill="#726f76" fill-opacity="0.501961" points="10,60 69,100 60,60" />
<polygon fill="#ffffff" fill-opacity="0.501961" points="199,66 194,88 201,85" />
<polygon fill="#ffffff" fill-opacity="0.501961" points="-5,159 12,160 3,136" />
<polygon fill="#ffebb6" fill-opacity="0.501961" points="122,102 128,111 134,99" />
<polygon fill="#ffffff" fill-opacity="0.501961" points="50,17 29,30 33,10" />
<polygon fill="#a09097" fill-opacity="0.501961" points="131,70 123,69 128,50" />
<polygon fill="#8699c1" fill-opacity="0.501961" points="56,160 70,143 67,114" />
<polygon fill="#1d1026" fill-opacity="0.501961" points="131,113 159,114 161,14" />
<polygon fill="#000000" fill-opacity="0.501961" points="219,99 260,116 255,-16" />
<polygon fill="#3b0c38" fill-opacity="0.501961" points="195,117 208,118 203,76" />
<polygon fill="#2b4b8e" fill-opacity="0.501961" points="30,160 29,80 2,127" />
<polygon fill="#070000" fill-opacity="0.501961" points="48,4 104,62 72,106" />
<polygon fill="#846a50" fill-opacity="0.501961" points="173,91 159,90 171,116" />
<polygon fill="#1e1839" fill-opacity="0.501961" points="100,74 128,115 57,115" />
<polygon fill="#549bff" fill-opacity="0.501961" points="247,126 249,135 239,137" />
<polygon fill="#6e6874" fill-opacity="0.501961" points="217,57 203,22 221,25" />
<polygon fill="#000000" fill-opacity="0.501961" points="148,-10 271,-16 264,46" />
<polygon fill="#5975aa" fill-opacity="0.501961" points="110,117 40,122 64,108" />
<polygon fill="#0e0312" fill-opacity="0.501961" points="218,96 193,99 186,89" />
<polygon fill="#766460" fill-opacity="0.501961" points="19,109 9,72 35,73" />
<polygon fill="#94a2be" fill-opacity="0.501961" points="159,114 158,121 137,116" />
<polygon fill="#000000" fill-opacity="0.501961" points="22,-16 -16,-4 0,123" />
<polygon fill="#000000" fill-opacity="0.501961" points="77,53 38,65 60,15" />
<polygon fill="#fdd6c2" fill-opacity="0.501961" points="194,46 214,49 203,66" />
<polygon fill="#700522" fill-opacity="0.501961" points="205,81 200,77 204,61" />
<polygon fill="#000000" fill-opacity="0.501961" points="4,24 32,-16 32,8" />
<polygon fill="#fff5df" fill-opacity="0.501961" points="28,49 24,39 47,38" />
<polygon fill="#858ea5" fill-opacity="0.501961" points="214,20 212,36 198,21" />
<polygon fill="#2a1823" fill-opacity="0.501961" points="166,-16 166,65 48,14" />
<polygon fill="#ae947f" fill-opacity="0.501961" points="53,26 29,29 48,42" />
<polygon fill="#000000" fill-opacity="0.501961" points="209,69 256,-15 262,73" />
<polygon fill="#fcf5e2" fill-opacity="0.501961" points="19,38 31,11 19,17" />
<polygon fill="#000000" fill-opacity="0.501961" points="197,58 162,56 196,70" />
<polygon fill="#5d5c64" fill-opacity="0.501961" points="65,71 37,122 38,52" />
<polygon fill="#231528" fill-opacity="0.501961" points="80,74 151,110 175,72" />
<polygon fill="#332e35" fill-opacity="0.501961" points="209,45 220,56 224,29" />
<polygon fill="#071c5c" fill-opacity="0.501961" points="180,122 72,156 69,122" />
<polygon fill="#ffffff" fill-opacity="0.501961" points="206,88 205,66 210,79" />
<polygon fill="#000000" fill-opacity="0.501961" points="168,-8 219,-16 169,58" />
<polygon fill="#977285" fill-opacity="0.501961" points="190,103 216,97 182,116" />
<polygon fill="#fffcd7" fill-opacity="0.501961" points="218,98 224,107 211,100" />
<polygon fill="#244691" fill-opacity="0.501961" points="7,131 62,110 8,113" />
<polygon fill="#011b51" fill-opacity="0.501961" points="254,112 226,157 208,107" />
<polygon fill="#718cc4" fill-opacity="0.501961" points="38,134 20,132 34,108" />
<polygon fill="#000000" fill-opacity="0.501961" points="16,30 -16,29 30,64" />
<polygon fill="#000000" fill-opacity="0.501961" points="186,106 174,118 174,74" />
<polygon fill="#321c1c" fill-opacity="0.501961" points="92,41 77,91 77,17" />
<polygon fill="#2b4889" fill-opacity="0.501961" points="180,160 183,110 212,160" />
<polygon fill="#ffffff" fill-opacity="0.501961" points="36,84 31,88 35,105" />
<polygon fill="#0a245d" fill-opacity="0.501961" points="10,131 40,136 12,144" />
<polygon fill="#000000" fill-opacity="0.501961" points="51,16 51,-7 15,-5" />
<polygon fill="#d37f6c" fill-opacity="0.501961" points="40,52 31,53 32,85" />
<polygon fill="#95aed3" fill-opacity="0.501961" points="11,101 25,101 13,107" />
<polygon fill="#000000" fill-opacity="0.501961" points="268,58 266,111 223,110" />
<polygon fill="#6f4761" fill-opacity="0.501961" points="192,67 183,93 197,88" />
<polygon fill="#040002" fill-opacity="0.501961" points="86,50 128,49 83,82" />
<polygon fill="#2c52a3" fill-opacity="0.501961" points="134,111 112,120 83,111" />
<polygon fill="#4c4655" fill-opacity="0.501961" points="198,47 199,36 187,34" />
<polygon fill="#7f4c67" fill-opacity="0.501961" points="224,93 209,83 224,77" />
<polygon fill="#241623" fill-opacity="0.501961" points="121,110 123,59 68,109" />
<polygon fill="#001e5e" fill-opacity="0.501961" points="252,113 253,132 191,115" />
<polygon fill="#000000" fill-opacity="0.501961" points="67,34 67,101 78,72" />
<polygon fill="#aca18e" fill-opacity="0.501961" points="196,67 206,70 208,57" />
<polygon fill="#fffff0" fill-opacity="0.501961" points="45,13 17,24 52,24" />
<polygon fill="#000000" fill-opacity="0.501961" points="1,137 6,60 -16,113" />
<polygon fill="#011a51" fill-opacity="0.501961" points="56,147 54,110 62,133" />
<polygon fill="#517bc5" fill-opacity="0.501961" points="185,110 209,111 187,116" />
<polygon fill="#150b03" fill-opacity="0.501961" points="53,84 50,108 57,106" />
<polygon fill="#07276f" fill-opacity="0.501961" points="182,112 155,111 181,121" />
<polygon fill="#ffe5d1" fill-opacity="0.501961" points="-6,160 5,153 4,133" />
<polygon fill="#000000" fill-opacity="0.501961" points="252,158 254,113 271,143" />
<polygon fill="#92a5c6" fill-opacity="0.501961" points="61,126 31,123 42,132" />
<polygon fill="#76819e" fill-opacity="0.501961" points="128,115 80,115 106,122" />
<polygon fill="#453c3f" fill-opacity="0.501961" points="27,37 26,35 33,37" />
<polygon fill="#00216f" fill-opacity="0.501961" points="123,115 139,109 159,115" />
<polygon fill="#bdafa4" fill-opacity="0.501961" points="124,59 128,56 132,61" />
<polygon fill="#1b0c05" fill-opacity="0.501961" points="83,41 82,-16 43,10" />
<polygon fill="#000000" fill-opacity="0.501961" points="43,49 66,67 61,32" />
<polygon fill="#000000" fill-opacity="0.501961" points="-9,78 27,49 -16,-15" />
<polygon fill="#122861" fill-opacity="0.501961" points="83,108 100,115 61,114" />
<polygon fill="#797f98" fill-opacity="0.501961" points="196,22 184,38 219,28" />
<polygon fill="#fff5dd" fill-opacity="0.501961" points="193,51 210,42 208,37" />
<polygon fill="#3c2026" fill-opacity="0.501961" points="190,62 191,55 202,60" />
<polygon fill="#fae4d6" fill-opacity="0.501961" points="214,54 201,59 192,45" />
<polygon fill="#1d3d83" fill-opacity="0.501961" points="4,98 4,115 33,130" />
<polygon fill="#8b6381" fill-opacity="0.501961" points="189,69 182,77 183,94" />
<polygon fill="#5995ff" fill-opacity="0.501961" points="242,139 249,133 243,130" />
<polygon fill="#5b4b34" fill-opacity="0.501961" points="69,97 83,111 57,109" />
<polygon fill="#1c0b19" fill-opacity="0.501961" points="225,101 230,90 201,90" />
<polygon fill="#1f1631" fill-opacity="0.501961" points="126,54 76,19 165,7" />
<polygon fill="#38160a" fill-opacity="0.501961" points="96,143 127,160 180,143" />
<polygon fill="#ffedda" fill-opacity="0.501961" points="33,21 40,49 31,54" />
<polygon fill="#000000" fill-opacity="0.501961" points="170,60 187,29 180,95" />
<polygon fill="#700008" fill-opacity="0.501961" points="203,78 204,91 198,95" />
<polygon fill="#ffffff" fill-opacity="0.501961" points="29,102 32,106 34,99" />
<polygon fill="#646a6c" fill-opacity="0.501961" points="11,63 6,88 38,53" />
<polygon fill="#6b5849" fill-opacity="0.501961" points="173,88 164,116 160,88" />
<polygon fill="#000000" fill-opacity="0.501961" points="-16,64 -11,-1 36,-5" />
<polygon fill="#1b0b00" fill-opacity="0.501961" points="261,143 208,143 209,160" />
<polygon fill="#4b6693" fill-opacity="0.501961" points="47,138 7,160 74,160" />
<polygon fill="#6b656b" fill-opacity="0.501961" points="36,99 49,112 48,64" />
<polygon fill="#451f09" fill-opacity="0.501961" points="164,1 109,7 116,-16" />
<polygon fill="#000000" fill-opacity="0.501961" points="200,4 241,51 248,-16" />
<polygon fill="#d2b9b5" fill-opacity="0.501961" points="204,54 193,48 216,47" />
<polygon fill="#808eab" fill-opacity="0.501961" points="79,114 56,118 86,122" />
<polygon fill="#814c5d" fill-opacity="0.501961" points="213,108 211,100 184,99" />
<polygon fill="#8a5f77" fill-opacity="0.501961" points="215,69 222,71 225,89" />
<polygon fill="#5f585e" fill-opacity="0.501961" points="188,60 191,37 194,55" />
<polygon fill="#1f1428" fill-opacity="0.501961" points="101,49 164,109 138,110" />
<polygon fill="#ffffff" fill-opacity="0.501961" points="196,82 201,90 197,72" />
<polygon fill="#52638b" fill-opacity="0.501961" points="162,160 181,142 221,143" />
<polygon fill="#91002b" fill-opacity="0.501961" points="201,72 200,91 204,80" />
<polygon fill="#718bc5" fill-opacity="0.501961" points="18,131 30,131 11,122" />
<polygon fill="#7685b2" fill-opacity="0.501961" points="8,133 11,150 -2,160" />
<polygon fill="#000000" fill-opacity="0.501961" points="8,64 -15,107 7,95" />
<polygon fill="#6f455d" fill-opacity="0.501961" points="213,72 206,91 225,82" />
<polygon fill="#d6bea5" fill-opacity="0.501961" points="26,46 16,23 25,27" />
<polygon fill="#ffffe3" fill-opacity="0.501961" points="129,103 130,99 120,104" />
<polygon fill="#23182b" fill-opacity="0.501961" points="130,100 174,84 87,72" />
<polygon fill="#000000" fill-opacity="0.501961" points="69,-4 30,11 -14,3" />
<polygon fill="#321a10" fill-opacity="0.501961" points="84,105 68,106 84,72" />
<polygon fill="#3b334a" fill-opacity="0.501961" points="131,69 121,66 135,62" />
<polygon fill="#1d3979" fill-opacity="0.501961" points="21,139 6,132 4,102" />
<polygon fill="#37345d" fill-opacity="0.501961" points="225,111 196,106 190,116" />
<polygon fill="#4f361b" fill-opacity="0.501961" points="139,41 155,39 151,54" />
<polygon fill="#000000" fill-opacity="0.501961" points="219,12 176,29 168,15" />
<polygon fill="#736157" fill-opacity="0.501961" points="53,35 47,38 39,36" />
<polygon fill="#0d265d" fill-opacity="0.501961" points="51,133 58,152 62,116" />
<polygon fill="#a2b0c6" fill-opacity="0.501961" points="53,116 47,115 55,122" />
<polygon fill="#696a70" fill-opacity="0.501961" points="32,66 17,61 26,102" />
<polygon fill="#d1cfd7" fill-opacity="0.501961" points="189,108 193,112 186,112" />
<polygon fill="#656571" fill-opacity="0.501961" points="66,79 53,59 63,109" />
<polygon fill="#562f35" fill-opacity="0.501961" points="203,104 185,108 214,111" />
<polygon fill="#ffe7d4" fill-opacity="0.501961" points="29,43 40,50 46,37" />
<polygon fill="#2e3337" fill-opacity="0.501961" points="39,55 52,60 37,67" />
<polygon fill="#fce3d3" fill-opacity="0.501961" points="195,55 205,59 210,34" />
<polygon fill="#253f70" fill-opacity="0.501961" points="18,91 13,98 30,103" />
<polygon fill="#fffffa" fill-opacity="0.501961" points="33,71 36,67 34,68" />
<polygon fill="#020000" fill-opacity="0.501961" points="54,0 71,69 52,56" />
<polygon fill="#5772aa" fill-opacity="0.501961" points="32,112 12,100 6,112" />
<polygon fill="#0a2a6d" fill-opacity="0.501961" points="226,111 252,111 252,123" />
<polygon fill="#af906e" fill-opacity="0.501961" points="28,53 43,51 35,60" />
<polygon fill="#ffeccf" fill-opacity="0.501961" points="214,103 218,100 222,111" />
<polygon fill="#322f3a" fill-opacity="0.501961" points="221,47 210,48 214,35" />
<polygon fill="#000000" fill-opacity="0.501961" points="225,71 227,110 271,104" />
<polygon fill="#fff9e9" fill-opacity="0.501961" points="40,11 51,20 15,22" />
<polygon fill="#20110c" fill-opacity="0.501961" points="165,49 135,46 171,88" />
<polygon fill="#1a1420" fill-opacity="0.501961" points="60,113 52,115 56,93" />
<polygon fill="#000000" fill-opacity="0.501961" points="30,60 23,46 -8,52" />
<polygon fill="#41392f" fill-opacity="0.501961" points="78,-16 68,-16 70,21" />
<polygon fill="#062d7b" fill-opacity="0.501961" points="50,123 37,123 41,119" />
<polygon fill="#152d6a" fill-opacity="0.501961" points="112,112 138,118 137,109" />
<polygon fill="#00164d" fill-opacity="0.501961" points="245,142 223,107 223,142" />
<polygon fill="#98a6bf" fill-opacity="0.501961" points="115,117 127,117 119,120" />
<polygon fill="#ffe8d1" fill-opacity="0.501961" points="43,29 37,32 48,35" />
<polygon fill="#636985" fill-opacity="0.501961" points="165,116 175,119 164,119" />
<polygon fill="#d1b0a9" fill-opacity="0.501961" points="213,48 193,49 205,52" />
<polygon fill="#36437b" fill-opacity="0.501961" points="125,156 77,142 163,142" />
<polygon fill="#595a5a" fill-opacity="0.501961" points="130,51 124,53 132,61" />
<polygon fill="#221631" fill-opacity="0.501961" points="75,-16 108,-16 109,58" />
<polygon fill="#1b1016" fill-opacity="0.501961" points="228,42 211,69 208,60" />
<polygon fill="#59545e" fill-opacity="0.501961" points="200,46 196,31 186,39" />
<polygon fill="#001055" fill-opacity="0.501961" points="123,114 121,120 121,111" />
<polygon fill="#292227" fill-opacity="0.501961" points="185,56 185,39 197,59" />
<polygon fill="#223c75" fill-opacity="0.501961" points="75,130 67,136 60,131" />
<polygon fill="#66615e" fill-opacity="0.501961" points="11,67 8,97 27,97" />
<polygon fill="#d3b283" fill-opacity="0.501961" points="226,103 223,103 226,107" />
<polygon fill="#e7eee9" fill-opacity="0.501961" points="34,91 30,81 29,98" />
<polygon fill="#000000" fill-opacity="0.501961" points="51,-16 50,15 -12,-16" />
<polygon fill="#0b2164" fill-opacity="0.501961" points="132,142 82,120 83,141" />
<polygon fill="#fbfffb" fill-opacity="0.501961" points="210,81 206,72 205,90" />
<polygon fill="#fffeef" fill-opacity="0.501961" points="30,11 40,11 18,29" />
<polygon fill="#210f1c" fill-opacity="0.501961" points="144,143 84,143 124,160" />
<polygon fill="#08235b" fill-opacity="0.501961" points="53,136 58,130 35,135" />
<polygon fill="#000000" fill-opacity="0.501961" points="173,68 195,68 197,60" />
<polygon fill="#000000" fill-opacity="0.501961" points="264,48 255,105 221,111" />
<polygon fill="#000000" fill-opacity="0.501961" points="2,135 0,107 -13,156" />
<polygon fill="#42132b" fill-opacity="0.501961" points="205,68 199,72 204,74" />
<polygon fill="#43598c" fill-opacity="0.501961" points="13,160 35,149 15,135" />
<polygon fill="#ffffff" fill-opacity="0.501961" points="198,88 200,76 197,82" />
<polygon fill="#9b8171" fill-opacity="0.501961" points="53,29 51,36 47,23" />
<polygon fill="#fff5df" fill-opacity="0.501961" points="215,99 221,109 223,103" />
<polygon fill="#0b0003" fill-opacity="0.501961" points="141,104 131,111 134,106" />
<polygon fill="#b78e85" fill-opacity="0.501961" points="198,64 208,58 206,69" />
<polygon fill="#0b2166" fill-opacity="0.501961" points="190,116 226,111 193,147" />
<polygon fill="#665a58" fill-opacity="0.501961" points="31,40 28,38 30,34" />
<polygon fill="#193d89" fill-opacity="0.501961" points="34,118 42,111 61,112" />
<polygon fill="#000000" fill-opacity="0.501961" points="173,92 181,63 184,111" />
<polygon fill="#2a192a" fill-opacity="0.501961" points="213,92 189,91 191,101" />
<polygon fill="#647db5" fill-opacity="0.501961" points="25,134 38,118 29,107" />
<polygon fill="#0f2565" fill-opacity="0.501961" points="101,135 96,129 100,112" />
<polygon fill="#82536c" fill-opacity="0.501961" points="186,102 215,98 196,108" />
<polygon fill="#36549a" fill-opacity="0.501961" points="182,119 211,112 179,111" />
<polygon fill="#0d2265" fill-opacity="0.501961" points="99,138 106,118 117,140" />
<polygon fill="#000000" fill-opacity="0.501961" points="58,42 68,88 76,37" />
<polygon fill="#152866" fill-opacity="0.501961" points="178,119 171,110 145,112" />
<polygon fill="#c0134c" fill-opacity="0.501961" points="31,78 31,71 35,79" />
<polygon fill="#000000" fill-opacity="0.501961" points="167,1 168,53 226,-16" />
<polygon fill="#00144b" fill-opacity="0.501961" points="249,130 252,114 224,113" />
<polygon fill="#ffe4d1" fill-opacity="0.501961" points="43,45 36,53 23,37" />
<polygon fill="#000e3b" fill-opacity="0.501961" points="173,121 179,125 183,107" />
<polygon fill="#6e4863" fill-opacity="0.501961" points="209,81 210,71 217,77" />
<polygon fill="#381c12" fill-opacity="0.501961" points="212,106 203,110 220,109" />
<polygon fill="#625f65" fill-opacity="0.501961" points="52,108 38,76 36,107" />
<polygon fill="#bc9c7a" fill-opacity="0.501961" points="38,58 32,65 28,50" />
<polygon fill="#b6bac7" fill-opacity="0.501961" points="103,119 105,115 100,116" />
<polygon fill="#ac8f76" fill-opacity="0.501961" points="25,26 31,26 21,33" />
<polygon fill="#807266" fill-opacity="0.501961" points="136,112 122,109 122,103" />
<polygon fill="#1d142d" fill-opacity="0.501961" points="123,68 91,118 105,56" />
<polygon fill="#83757b" fill-opacity="0.501961" points="215,22 216,33 194,41" />
<polygon fill="#001242" fill-opacity="0.501961" points="14,143 9,145 13,129" />
<polygon fill="#8790ae" fill-opacity="0.501961" points="194,24 189,39 202,21" />
<polygon fill="#23181b" fill-opacity="0.501961" points="196,43 195,38 198,42" />
<polygon fill="#8090ad" fill-opacity="0.501961" points="11,107 10,100 24,104" />
<polygon fill="#183571" fill-opacity="0.501961" points="16,105 7,109 23,109" />
<polygon fill="#522c19" fill-opacity="0.501961" points="118,13 119,-16 111,9" />
<polygon fill="#080000" fill-opacity="0.501961" points="124,46 112,59 93,57" />
<polygon fill="#524027" fill-opacity="0.501961" points="75,143 9,143 42,152" />
<polygon fill="#a6aed3" fill-opacity="0.501961" points="69,150 68,139 62,160" />
<polygon fill="#000000" fill-opacity="0.501961" points="183,111 172,111 181,75" />
<polygon fill="#092b6d" fill-opacity="0.501961" points="252,124 252,136 246,144" />
<polygon fill="#0b040b" fill-opacity="0.501961" points="121,15 123,-8 129,5" />
<polygon fill="#0b246a" fill-opacity="0.501961" points="74,115 104,115 89,110" />
<polygon fill="#000000" fill-opacity="0.501961" points="243,-16 222,31 234,91" />
<polygon fill="#a8b2ce" fill-opacity="0.501961" points="91,115 86,119 88,121" />
<polygon fill="#010000" fill-opacity="0.501961" points="159,71 149,56 152,72" />
<polygon fill="#000000" fill-opacity="0.501961" points="-7,16 -1,71 28,50" />
<polygon fill="#0f0700" fill-opacity="0.501961" points="177,105 184,109 165,111" />
<polygon fill="#fffff5" fill-opacity="0.501961" points="46,20 43,21 47,31" />
<polygon fill="#ad9f94" fill-opacity="0.501961" points="211,71 197,67 199,60" />
<polygon fill="#0c317a" fill-opacity="0.501961" points="10,99 9,110 4,98" />
<polygon fill="#8f9cb7" fill-opacity="0.501961" points="158,116 146,122 147,117" />
<polygon fill="#04205a" fill-opacity="0.501961" points="40,160 31,160 31,127" />
<polygon fill="#261b2e" fill-opacity="0.501961" points="83,-5 96,13 83,55" />
<polygon fill="#6d7482" fill-opacity="0.501961" points="9,70 21,59 28,73" />
<polygon fill="#1a2f6b" fill-opacity="0.501961" points="152,115 154,122 151,120" />
<polygon fill="#243b74" fill-opacity="0.501961" points="26,128 8,112 28,112" />
<polygon fill="#b59b84" fill-opacity="0.501961" points="38,25 43,27 31,34" />
<polygon fill="#846d86" fill-opacity="0.501961" points="182,76 199,70 190,69" />
<polygon fill="#6a465b" fill-opacity="0.501961" points="197,88 192,88 191,73" />
<polygon fill="#000000" fill-opacity="0.501961" points="189,67 175,77 185,50" />
<polygon fill="#000000" fill-opacity="0.501961" points="253,147 253,105 271,114" />
<polygon fill="#ceb989" fill-opacity="0.501961" points="30,95 25,95 27,97" />
<polygon fill="#21162a" fill-opacity="0.501961" points="161,111 159,71 133,111" />
<polygon fill="#b6c3d8" fill-opacity="0.501961" points="32,123 38,125 35,131" />
<polygon fill="#1a2c4d" fill-opacity="0.501961" points="19,94 17,105 16,93" />
<polygon fill="#0e2e75" fill-opacity="0.501961" points="28,99 24,101 28,110" />
<polygon fill="#a8aebb" fill-opacity="0.501961" points="31,108 25,110 39,111" />
<polygon fill="#68584d" fill-opacity="0.501961" points="161,107 164,88 173,109" />
<polygon fill="#805870" fill-opacity="0.501961" points="184,98 183,84 189,99" />
<polygon fill="#5670ad" fill-opacity="0.501961" points="8,144 5,129 3,146" />
<polygon fill="#180a0a" fill-opacity="0.501961" points="72,-14 60,32 49,16" />
<polygon fill="#1e1327" fill-opacity="0.501961" points="124,111 118,90 88,107" />
<polygon fill="#fffaee" fill-opacity="0.501961" points="36,11 22,16 37,26" />
<polygon fill="#23378d" fill-opacity="0.501961" points="212,136 205,128 213,124" />
<polygon fill="#e6c5b7" fill-opacity="0.501961" points="211,52 214,50 206,49" />
<polygon fill="#000000" fill-opacity="0.501961" points="-16,-16 6,86 19,7" />
<polygon fill="#000000" fill-opacity="0.501961" points="235,-16 199,13 234,31" />
<polygon fill="#31190f" fill-opacity="0.501961" points="163,88 159,61 175,85" />
<polygon fill="#000000" fill-opacity="0.501961" points="105,72 84,72 84,52" />
<polygon fill="#7b8cad" fill-opacity="0.501961" points="61,120 79,115 56,115" />
<polygon fill="#fff8e8" fill-opacity="0.501961" points="193,51 210,53 200,56" />
<polygon fill="#b4c1d8" fill-opacity="0.501961" points="17,105 17,102 18,104" />
<polygon fill="#000000" fill-opacity="0.501961" points="249,84 243,55 209,63" />
<polygon fill="#7d7d8d" fill-opacity="0.501961" points="216,24 195,36 208,20" />
<polygon fill="#1b0f1f" fill-opacity="0.501961" points="86,36 133,51 88,52" />
<polygon fill="#102153" fill-opacity="0.501961" points="71,122 77,158 87,130" />
<polygon fill="#000000" fill-opacity="0.501961" points="58,61 44,51 59,30" />
<polygon fill="#061e62" fill-opacity="0.501961" points="106,115 100,113 115,111" />
<polygon fill="#a89c91" fill-opacity="0.501961" points="214,97 211,104 213,107" />
<polygon fill="#a5bab2" fill-opacity="0.501961" points="208,63 210,75 205,67" />
<polygon fill="#fcccb4" fill-opacity="0.501961" points="200,36 200,39 197,41" />
<polygon fill="#331d2e" fill-opacity="0.501961" points="207,99 200,89 221,93" />
<polygon fill="#fbf1e5" fill-opacity="0.501961" points="49,21 14,23 43,13" />
<polygon fill="#254ea4" fill-opacity="0.501961" points="18,101 7,97 29,97" />
<polygon fill="#294b93" fill-opacity="0.501961" points="51,136 33,143 54,143" />
<polygon fill="#260f15" fill-opacity="0.501961" points="218,55 221,61 203,61" />
<polygon fill="#010000" fill-opacity="0.501961" points="223,107 230,109 239,104" />
<polygon fill="#98a2bb" fill-opacity="0.501961" points="118,121 121,115 117,115" />
<polygon fill="#000000" fill-opacity="0.501961" points="190,62 167,72 167,28" />
<polygon fill="#666872" fill-opacity="0.501961" points="40,68 58,62 64,74" />
<polygon fill="#a69681" fill-opacity="0.501961" points="131,107 124,109 122,103" />
<polygon fill="#888eaa" fill-opacity="0.501961" points="207,28 192,26 198,22" />
<polygon fill="#fffff6" fill-opacity="0.501961" points="36,18 31,26 34,31" />
<polygon fill="#ddc0bc" fill-opacity="0.501961" points="129,60 128,57 126,62" />
<polygon fill="#503e4f" fill-opacity="0.501961" points="120,64 133,61 130,71" />
<polygon fill="#645f62" fill-opacity="0.501961" points="20,97 28,94 28,82" />
<polygon fill="#000000" fill-opacity="0.501961" points="76,93 76,18 58,57" />
<polygon fill="#2d170c" fill-opacity="0.501961" points="152,-16 166,32 166,-3" />
<polygon fill="#6d5f59" fill-opacity="0.501961" points="41,50 47,55 39,52" />
<polygon fill="#0b215f" fill-opacity="0.501961" points="180,142 182,121 110,123" />
<polygon fill="#331e17" fill-opacity="0.501961" points="68,101 88,111 68,90" />
<polygon fill="#132968" fill-opacity="0.501961" points="114,114 115,127 112,122" />
<polygon fill="#8f7161" fill-opacity="0.501961" points="26,55 35,54 29,51" />
<polygon fill="#21172d" fill-opacity="0.501961" points="101,100 145,57 158,99" />
<polygon fill="#1d1327" fill-opacity="0.501961" points="132,61 166,54 136,71" />
<polygon fill="#e76c8f" fill-opacity="0.501961" points="34,84 37,69 33,74" />
<polygon fill="#63575a" fill-opacity="0.501961" points="190,45 201,33 195,34" />
<polygon fill="#1b0a07" fill-opacity="0.501961" points="85,28 74,-2 73,21" />
<polygon fill="#8591a6" fill-opacity="0.501961" points="194,37 198,35 198,30" />
<polygon fill="#796059" fill-opacity="0.501961" points="42,55 38,52 33,55" />
<polygon fill="#3f3634" fill-opacity="0.501961" points="238,160 180,143 212,143" />
<polygon fill="#3a548b" fill-opacity="0.501961" points="42,116 46,117 38,128" />
<polygon fill="#000001" fill-opacity="0.501961" points="202,69 202,70 204,71" />
<polygon fill="#2c2d32" fill-opacity="0.501961" points="26,53 26,61 31,66" />
<polygon fill="#ffe2ce" fill-opacity="0.501961" points="25,44 34,37 36,53" />
<polygon fill="#ffe5cd" fill-opacity="0.501961" points="23,33 26,29 30,35" />
<polygon fill="#606374" fill-opacity="0.501961" points="67,105 59,114 60,98" />
<polygon fill="#000000" fill-opacity="0.501961" points="250,-9 224,102 260,112" />
<polygon fill="#e3dfd2" fill-opacity="0.501961" points="20,16 18,28 25,19" />
<polygon fill="#d1c0a1" fill-opacity="0.501961" points="34,70 35,65 30,59" />
<polygon fill="#aa917f" fill-opacity="0.501961" points="53,29 52,23 43,38" />
<polygon fill="#edfef0" fill-opacity="0.501961" points="197,68 200,77 197,78" />
<polygon fill="#345199" fill-opacity="0.501961" points="158,110 151,112 162,112" />
<polygon fill="#2b1b1e" fill-opacity="0.501961" points="154,111 147,102 172,110" />
</g>
</svg>