<svg xmlns="http://www.w3.org/2000/svg" version="1.1" width="1024" height="580">
<rect x="0" y="0" width="1024" height="580" fill="#16192a" />
<g transform="scale(4.000000) translate(0.5 0.5)">
<polygon fill="#fffbff" fill-opacity="0.501961" points="15,56 2,96 47,96" />
<polygon fill="#063489" fill-opacity="0.501961" points="8,102 9,160 227,131" />
<polygon fill="#7fadb8" fill-opacity="0.501961" points="135,71 74,70 116,47" />
<polygon fill="#080000" fill-opacity="0.501961" points="271,110 81,110 249,-16" />
<polygon fill="#7f90a9" fill-opacity="0.501961" points="35,113 30,133 101,118" />
<polygon fill="#001d73" fill-opacity="0.501961" points="234,160 83,112 269,111" />
<polygon fill="#aca4a7" fill-opacity="0.501961" points="40,57 20,108 10,59" />
<polygon fill="#060000" fill-opacity="0.501961" points="14,-16 84,71 -16,45" />
<polygon fill="#110400" fill-opacity="0.501961" points="100,103 35,118 64,28" />
<polygon fill="#ccbae2" fill-opacity="0.501961" points="119,79 117,71 106,80" />
<polygon fill="#26ffff" fill-opacity="0.501961" points="109,61 98,51 101,72" />
<polygon fill="#424870" fill-opacity="0.501961" points="42,57 42,88 25,98" />
<polygon fill="#0c0200" fill-opacity="0.501961" points="1,-16 271,-13 271,61" />
<polygon fill="#4d5b83" fill-opacity="0.501961" points="35,57 9,57 3,89" />
<polygon fill="#fff3e8" fill-opacity="0.501961" points="4,98 27,86 24,72" />
<polygon fill="#55a1ff" fill-opacity="0.501961" points="240,137 254,138 243,130" />
<polygon fill="#514238" fill-opacity="0.501961" points="96,6 97,31 32,30" />
<polygon fill="#020000" fill-opacity="0.501961" points="66,-6 7,66 -16,-9" />
<polygon fill="#e7bf9f" fill-opacity="0.501961" points="83,64 92,80 92,62" />
<polygon fill="#3bdeff" fill-opacity="0.501961" points="129,72 125,62 132,58" />
<polygon fill="#100007" fill-opacity="0.501961" points="121,67 116,24 137,18" />
<polygon fill="#463427" fill-opacity="0.501961" points="129,76 180,92 83,92" />
<polygon fill="#3f161b" fill-opacity="0.501961" points="108,70 105,47 130,75" />
<polygon fill="#000000" fill-opacity="0.501961" points="-16,136 7,160 2,66" />
<polygon fill="#160814" fill-opacity="0.501961" points="25,77 161,-16 98,58" />
<polygon fill="#af857d" fill-opacity="0.501961" points="109,58 120,78 118,46" />
<polygon fill="#000000" fill-opacity="0.501961" points="48,90 121,110 29,110" />
<polygon fill="#00174e" fill-opacity="0.501961" points="162,160 51,123 271,112" />
<polygon fill="#000000" fill-opacity="0.501961" points="271,3 265,160 212,-16" />
<polygon fill="#5f4f46" fill-opacity="0.501961" points="162,27 136,24 135,47" />
<polygon fill="#433326" fill-opacity="0.501961" points="227,93 191,91 231,60" />
<polygon fill="#082967" fill-opacity="0.501961" points="36,92 3,99 6,160" />
<polygon fill="#1c111b" fill-opacity="0.501961" points="169,-6 124,82 240,36" />
<polygon fill="#0d0004" fill-opacity="0.501961" points="89,89 103,78 95,59" />
<polygon fill="#31281e" fill-opacity="0.501961" points="28,19 26,55 90,-16" />
<polygon fill="#000000" fill-opacity="0.501961" points="271,110 270,78 151,109" />
<polygon fill="#7e94b5" fill-opacity="0.501961" points="38,114 33,122 61,116" />
<polygon fill="#00134c" fill-opacity="0.501961" points="73,160 3,105 6,160" />
<polygon fill="#6a7d9d" fill-opacity="0.501961" points="22,105 22,94 6,106" />
<polygon fill="#c5daff" fill-opacity="0.501961" points="38,96 42,83 37,84" />
<polygon fill="#2a2a30" fill-opacity="0.501961" points="33,100 45,51 32,71" />
<polygon fill="#5d7292" fill-opacity="0.501961" points="59,130 87,127 62,123" />
<polygon fill="#4a68ce" fill-opacity="0.501961" points="4,87 17,90 4,68" />
<polygon fill="#030000" fill-opacity="0.501961" points="197,83 112,86 169,61" />
<polygon fill="#000000" fill-opacity="0.501961" points="-16,89 3,156 3,37" />
<polygon fill="#2a1e25" fill-opacity="0.501961" points="68,56 111,89 44,93" />
<polygon fill="#d6e3ff" fill-opacity="0.501961" points="5,88 6,96 28,96" />
<polygon fill="#fff4d1" fill-opacity="0.501961" points="14,83 30,79 29,87" />
<polygon fill="#607391" fill-opacity="0.501961" points="100,124 70,117 98,114" />
<polygon fill="#000000" fill-opacity="0.501961" points="166,98 86,98 123,110" />
<polygon fill="#60f3ff" fill-opacity="0.501961" points="106,67 98,71 101,56" />
<polygon fill="#00174e" fill-opacity="0.501961" points="108,160 4,130 218,131" />
<polygon fill="#120810" fill-opacity="0.501961" points="106,84 112,67 108,49" />
<polygon fill="#68656c" fill-opacity="0.501961" points="5,66 17,81 23,61" />
<polygon fill="#a3afbf" fill-opacity="0.501961" points="54,125 33,124 35,130" />
<polygon fill="#7a6c7b" fill-opacity="0.501961" points="110,51 120,79 112,83" />
<polygon fill="#11060d" fill-opacity="0.501961" points="44,38 98,64 82,27" />
<polygon fill="#075dc4" fill-opacity="0.501961" points="124,55 133,55 124,67" />
<polygon fill="#000000" fill-opacity="0.501961" points="30,99 35,112 78,98" />
<polygon fill="#47465a" fill-opacity="0.501961" points="43,82 41,72 23,75" />
<polygon fill="#3ceaff" fill-opacity="0.501961" points="98,55 106,57 103,72" />
<polygon fill="#1b2f58" fill-opacity="0.501961" points="14,106 25,90 14,98" />
<polygon fill="#150b16" fill-opacity="0.501961" points="94,35 164,77 104,2" />
<polygon fill="#544735" fill-opacity="0.501961" points="77,90 64,85 44,92" />
<polygon fill="#51d9ff" fill-opacity="0.501961" points="128,60 134,68 125,68" />
<polygon fill="#fae6c7" fill-opacity="0.501961" points="93,64 89,67 84,61" />
<polygon fill="#0f081a" fill-opacity="0.501961" points="85,42 44,83 82,85" />
<polygon fill="#274a8b" fill-opacity="0.501961" points="32,111 35,123 54,111" />
<polygon fill="#48413f" fill-opacity="0.501961" points="49,34 68,5 72,28" />
<polygon fill="#070000" fill-opacity="0.501961" points="65,143 13,158 -1,143" />
<polygon fill="#060000" fill-opacity="0.501961" points="250,143 134,143 188,160" />
<polygon fill="#000000" fill-opacity="0.501961" points="180,92 243,108 117,111" />
<polygon fill="#120700" fill-opacity="0.501961" points="27,-16 44,58 47,-16" />
<polygon fill="#000000" fill-opacity="0.501961" points="24,57 -16,57 8,-16" />
<polygon fill="#342d26" fill-opacity="0.501961" points="39,57 36,5 28,43" />
<polygon fill="#130611" fill-opacity="0.501961" points="110,88 96,86 95,62" />
<polygon fill="#5c76d2" fill-opacity="0.501961" points="42,76 35,86 42,91" />
<polygon fill="#4a3c33" fill-opacity="0.501961" points="185,82 154,90 177,91" />
<polygon fill="#4e87ff" fill-opacity="0.501961" points="245,129 250,140 242,136" />
<polygon fill="#feffff" fill-opacity="0.501961" points="41,90 37,90 41,96" />
<polygon fill="#090000" fill-opacity="0.501961" points="51,143 91,160 129,143" />
<polygon fill="#032564" fill-opacity="0.501961" points="247,143 256,155 252,114" />
<polygon fill="#092d6f" fill-opacity="0.501961" points="4,96 5,125 12,96" />
<polygon fill="#000000" fill-opacity="0.501961" points="252,147 271,144 254,91" />
<polygon fill="#1f1214" fill-opacity="0.501961" points="177,64 229,25 214,93" />
<polygon fill="#140c18" fill-opacity="0.501961" points="132,37 54,43 77,66" />
<polygon fill="#001d58" fill-opacity="0.501961" points="211,112 92,110 127,142" />
<polygon fill="#0a287c" fill-opacity="0.501961" points="130,54 135,63 124,61" />
<polygon fill="#150c17" fill-opacity="0.501961" points="124,69 112,68 128,80" />
<polygon fill="#ffd4b7" fill-opacity="0.501961" points="114,57 118,52 111,52" />
<polygon fill="#000000" fill-opacity="0.501961" points="271,110 229,109 243,-16" />
<polygon fill="#0e050f" fill-opacity="0.501961" points="64,-16 110,10 74,13" />
<polygon fill="#a0ffff" fill-opacity="0.501961" points="129,70 125,71 129,65" />
<polygon fill="#6d7174" fill-opacity="0.501961" points="88,85 87,75 93,75" />
<polygon fill="#0e060d" fill-opacity="0.501961" points="119,84 139,61 203,87" />
<polygon fill="#082358" fill-opacity="0.501961" points="69,110 69,133 80,125" />
<polygon fill="#00164c" fill-opacity="0.501961" points="54,115 53,132 57,127" />
<polygon fill="#5a5052" fill-opacity="0.501961" points="95,13 84,16 85,32" />
<polygon fill="#d9dcdf" fill-opacity="0.501961" points="54,115 48,115 52,120" />
<polygon fill="#ffeacb" fill-opacity="0.501961" points="19,77 21,88 24,68" />
<polygon fill="#717581" fill-opacity="0.501961" points="11,61 36,58 7,80" />
<polygon fill="#001d59" fill-opacity="0.501961" points="145,143 236,141 257,110" />
<polygon fill="#33437d" fill-opacity="0.501961" points="5,77 4,61 17,89" />
<polygon fill="#6d7f9b" fill-opacity="0.501961" points="55,129 28,130 47,124" />
<polygon fill="#150f1c" fill-opacity="0.501961" points="138,2 122,69 114,-16" />
<polygon fill="#001952" fill-opacity="0.501961" points="87,123 176,143 247,110" />
<polygon fill="#7687a4" fill-opacity="0.501961" points="13,100 25,104 8,104" />
<polygon fill="#000000" fill-opacity="0.501961" points="23,111 87,90 157,109" />
<polygon fill="#2c2221" fill-opacity="0.501961" points="17,75 15,75 17,82" />
<polygon fill="#001341" fill-opacity="0.501961" points="33,96 20,100 11,96" />
<polygon fill="#d49883" fill-opacity="0.501961" points="33,89 25,95 23,83" />
<polygon fill="#130c18" fill-opacity="0.501961" points="102,29 113,59 81,39" />
<polygon fill="#001650" fill-opacity="0.501961" points="10,114 32,112 32,149" />
<polygon fill="#372e2a" fill-opacity="0.501961" points="26,75 28,80 31,73" />
<polygon fill="#000000" fill-opacity="0.501961" points="3,160 3,32 -16,94" />
<polygon fill="#ced0e0" fill-opacity="0.501961" points="24,94 5,86 7,95" />
<polygon fill="#251713" fill-opacity="0.501961" points="44,74 118,98 43,97" />
<polygon fill="#50483d" fill-opacity="0.501961" points="106,87 119,92 133,89" />
<polygon fill="#3e3932" fill-opacity="0.501961" points="219,66 231,69 220,93" />
<polygon fill="#4a4141" fill-opacity="0.501961" points="142,26 156,42 134,43" />
<polygon fill="#0c0614" fill-opacity="0.501961" points="111,87 103,81 107,64" />
<polygon fill="#333132" fill-opacity="0.501961" points="33,94 34,65 42,69" />
<polygon fill="#000000" fill-opacity="0.501961" points="17,58 29,-16 -16,26" />
<polygon fill="#6d727f" fill-opacity="0.501961" points="31,62 37,63 31,77" />
<polygon fill="#19111e" fill-opacity="0.501961" points="124,0 197,83 208,28" />
<polygon fill="#8795ab" fill-opacity="0.501961" points="61,121 59,115 43,121" />
<polygon fill="#160d19" fill-opacity="0.501961" points="134,76 132,50 203,20" />
<polygon fill="#312f23" fill-opacity="0.501961" points="218,45 220,26 230,35" />
<polygon fill="#9ca9bc" fill-opacity="0.501961" points="66,131 64,128 65,124" />
<polygon fill="#ffe9d5" fill-opacity="0.501961" points="16,88 29,83 22,75" />
<polygon fill="#0a3485" fill-opacity="0.501961" points="69,111 53,111 54,116" />
<polygon fill="#7f8fa8" fill-opacity="0.501961" points="86,116 91,117 86,130" />
<polygon fill="#163060" fill-opacity="0.501961" points="53,125 36,123 47,120" />
<polygon fill="#00124e" fill-opacity="0.501961" points="39,127 44,140 40,137" />
<polygon fill="#00144f" fill-opacity="0.501961" points="107,123 94,133 87,122" />
<polygon fill="#26150d" fill-opacity="0.501961" points="189,88 156,98 220,97" />
<polygon fill="#494238" fill-opacity="0.501961" points="46,89 70,92 66,86" />
<polygon fill="#160f19" fill-opacity="0.501961" points="77,16 98,61 64,59" />
<polygon fill="#4b4033" fill-opacity="0.501961" points="195,92 217,91 191,85" />
<polygon fill="#040000" fill-opacity="0.501961" points="139,6 175,7 141,-16" />
<polygon fill="#150b14" fill-opacity="0.501961" points="156,86 211,87 219,66" />
<polygon fill="#100902" fill-opacity="0.501961" points="200,72 235,31 242,60" />
<polygon fill="#bead9c" fill-opacity="0.501961" points="28,66 28,74 22,71" />
<polygon fill="#000000" fill-opacity="0.501961" points="30,110 43,97 30,98" />
<polygon fill="#788ba9" fill-opacity="0.501961" points="13,60 11,72 9,64" />
<polygon fill="#000000" fill-opacity="0.501961" points="65,58 40,56 57,45" />
<polygon fill="#001656" fill-opacity="0.501961" points="49,115 32,113 48,110" />
<polygon fill="#332c2e" fill-opacity="0.501961" points="159,45 133,21 161,28" />
<polygon fill="#02215c" fill-opacity="0.501961" points="17,121 6,96 4,145" />
<polygon fill="#7b6361" fill-opacity="0.501961" points="117,65 109,79 111,54" />
<polygon fill="#b3acb7" fill-opacity="0.501961" points="13,76 12,91 19,93" />
<polygon fill="#778499" fill-opacity="0.501961" points="46,115 32,120 33,115" />
<polygon fill="#000000" fill-opacity="0.501961" points="226,-3 262,148 271,-1" />
<polygon fill="#021d58" fill-opacity="0.501961" points="149,143 241,143 240,113" />
<polygon fill="#050000" fill-opacity="0.501961" points="77,37 73,46 49,33" />
<polygon fill="#b0afc1" fill-opacity="0.501961" points="120,77 113,77 111,74" />
<polygon fill="#0e3174" fill-opacity="0.501961" points="108,116 90,111 124,111" />
<polygon fill="#001850" fill-opacity="0.501961" points="94,112 182,112 126,135" />
<polygon fill="#273e6c" fill-opacity="0.501961" points="44,123 47,117 49,133" />
<polygon fill="#4c4446" fill-opacity="0.501961" points="96,29 78,32 95,15" />
<polygon fill="#162961" fill-opacity="0.501961" points="44,57 37,57 42,74" />
<polygon fill="#22202b" fill-opacity="0.501961" points="112,61 120,64 109,64" />
<polygon fill="#071e64" fill-opacity="0.501961" points="9,58 7,68 4,56" />
<polygon fill="#7c6865" fill-opacity="0.501961" points="9,73 31,62 17,76" />
<polygon fill="#140d1c" fill-opacity="0.501961" points="44,53 43,85 96,85" />
<polygon fill="#453b31" fill-opacity="0.501961" points="162,87 130,87 146,94" />
<polygon fill="#001245" fill-opacity="0.501961" points="251,131 253,160 242,160" />
<polygon fill="#180c10" fill-opacity="0.501961" points="95,66 100,72 89,66" />
<polygon fill="#0a2a6b" fill-opacity="0.501961" points="192,119 219,111 165,111" />
<polygon fill="#0b2b6c" fill-opacity="0.501961" points="225,111 252,122 253,111" />
<polygon fill="#473b2c" fill-opacity="0.501961" points="105,85 89,91 114,92" />
<polygon fill="#1a101b" fill-opacity="0.501961" points="112,81 94,88 93,71" />
<polygon fill="#7a88a6" fill-opacity="0.501961" points="23,62 13,58 33,58" />
<polygon fill="#2e190e" fill-opacity="0.501961" points="211,64 219,73 218,37" />
<polygon fill="#04b8ff" fill-opacity="0.501961" points="98,57 105,54 98,67" />
<polygon fill="#170f19" fill-opacity="0.501961" points="101,36 91,-11 162,19" />
<polygon fill="#655957" fill-opacity="0.501961" points="27,68 36,81 37,76" />
<polygon fill="#68d1f4" fill-opacity="0.501961" points="127,72 124,65 126,65" />
<polygon fill="#2f2c2b" fill-opacity="0.501961" points="21,95 24,91 21,90" />
<polygon fill="#150d1a" fill-opacity="0.501961" points="111,52 94,55 98,3" />
<polygon fill="#001750" fill-opacity="0.501961" points="186,112 252,113 248,130" />
<polygon fill="#ccd2db" fill-opacity="0.501961" points="35,130 35,124 37,127" />
<polygon fill="#2b1912" fill-opacity="0.501961" points="44,55 42,43 23,58" />
<polygon fill="#000000" fill-opacity="0.501961" points="253,160 271,104 254,97" />
<polygon fill="#73f3ff" fill-opacity="0.501961" points="101,59 98,68 106,64" />
<polygon fill="#07286c" fill-opacity="0.501961" points="29,98 25,104 30,119" />
<polygon fill="#596d8d" fill-opacity="0.501961" points="72,122 59,115 75,116" />
<polygon fill="#150e1d" fill-opacity="0.501961" points="166,70 151,58 130,69" />
<polygon fill="#001952" fill-opacity="0.501961" points="130,112 249,113 235,142" />
<polygon fill="#000000" fill-opacity="0.501961" points="133,33 133,44 126,37" />
<polygon fill="#180801" fill-opacity="0.501961" points="144,99 154,92 120,93" />
<polygon fill="#211d1e" fill-opacity="0.501961" points="55,-13 48,6 82,17" />
<polygon fill="#092968" fill-opacity="0.501961" points="61,143 40,135 11,143" />
<polygon fill="#4d4548" fill-opacity="0.501961" points="135,25 148,25 137,43" />
<polygon fill="#0e0804" fill-opacity="0.501961" points="200,15 214,-16 223,29" />
<polygon fill="#001850" fill-opacity="0.501961" points="11,130 40,121 9,122" />
<polygon fill="#00154e" fill-opacity="0.501961" points="19,142 47,130 82,141" />
<polygon fill="#5e7191" fill-opacity="0.501961" points="99,115 98,123 87,115" />
<polygon fill="#080500" fill-opacity="0.501961" points="119,160 79,143 178,143" />
<polygon fill="#4e483e" fill-opacity="0.501961" points="78,91 66,90 76,87" />
<polygon fill="#020000" fill-opacity="0.501961" points="160,59 188,77 157,81" />
<polygon fill="#8191a9" fill-opacity="0.501961" points="56,129 47,130 48,124" />
<polygon fill="#001c54" fill-opacity="0.501961" points="56,126 42,140 54,138" />
<polygon fill="#001b53" fill-opacity="0.501961" points="92,112 91,120 95,127" />
<polygon fill="#1a0f09" fill-opacity="0.501961" points="235,97 215,98 232,81" />
<polygon fill="#070500" fill-opacity="0.501961" points="191,143 202,160 265,144" />
<polygon fill="#343132" fill-opacity="0.501961" points="72,12 45,35 45,14" />
<polygon fill="#06d4ff" fill-opacity="0.501961" points="98,58 103,62 107,59" />
<polygon fill="#0b2967" fill-opacity="0.501961" points="179,143 153,135 128,143" />
<polygon fill="#e7c9af" fill-opacity="0.501961" points="13,77 13,75 16,75" />
<polygon fill="#052259" fill-opacity="0.501961" points="22,98 2,102 4,96" />
<polygon fill="#001a53" fill-opacity="0.501961" points="98,114 192,138 110,143" />
<polygon fill="#b4becb" fill-opacity="0.501961" points="59,119 57,118 60,116" />
<polygon fill="#000b46" fill-opacity="0.501961" points="69,126 84,125 77,122" />
<polygon fill="#7889d0" fill-opacity="0.501961" points="3,89 11,82 15,88" />
<polygon fill="#001853" fill-opacity="0.501961" points="106,142 33,139 77,128" />
<polygon fill="#1f468b" fill-opacity="0.501961" points="7,143 4,143 4,133" />
<polygon fill="#1f3868" fill-opacity="0.501961" points="16,103 24,114 5,110" />
<polygon fill="#000000" fill-opacity="0.501961" points="164,110 204,98 120,98" />
<polygon fill="#000000" fill-opacity="0.501961" points="79,-16 82,7 71,8" />
<polygon fill="#e7c1b6" fill-opacity="0.501961" points="32,77 18,90 26,90" />
<polygon fill="#826461" fill-opacity="0.501961" points="29,87 34,88 22,93" />
<polygon fill="#7d574d" fill-opacity="0.501961" points="109,49 119,49 115,51" />
<polygon fill="#140e20" fill-opacity="0.501961" points="134,77 122,87 118,80" />
<polygon fill="#000a1c" fill-opacity="0.501961" points="107,58 105,73 110,64" />
<polygon fill="#a15658" fill-opacity="0.501961" points="24,85 23,88 22,86" />
<polygon fill="#160e1a" fill-opacity="0.501961" points="63,90 100,43 46,70" />
<polygon fill="#113477" fill-opacity="0.501961" points="163,111 135,111 152,116" />
<polygon fill="#160e1d" fill-opacity="0.501961" points="98,64 94,46 56,46" />
<polygon fill="#001a52" fill-opacity="0.501961" points="97,112 244,112 167,142" />
<polygon fill="#a693a7" fill-opacity="0.501961" points="115,62 118,60 112,59" />
<polygon fill="#001b53" fill-opacity="0.501961" points="60,135 62,123 53,138" />
<polygon fill="#776b6e" fill-opacity="0.501961" points="25,68 26,74 24,72" />
<polygon fill="#9b90ad" fill-opacity="0.501961" points="110,76 115,78 120,77" />
<polygon fill="#463c3e" fill-opacity="0.501961" points="27,93 35,91 24,98" />
<polygon fill="#00184b" fill-opacity="0.501961" points="56,119 53,120 55,113" />
<polygon fill="#120f1f" fill-opacity="0.501961" points="93,79 107,87 96,61" />
<polygon fill="#070500" fill-opacity="0.501961" points="19,160 81,143 -9,143" />
<polygon fill="#ffebd9" fill-opacity="0.501961" points="18,85 27,85 20,77" />
<polygon fill="#0f0a19" fill-opacity="0.501961" points="125,49 131,52 116,58" />
<polygon fill="#120f0b" fill-opacity="0.501961" points="28,-3 25,22 51,14" />
<polygon fill="#000000" fill-opacity="0.501961" points="-16,67 19,50 4,-16" />
<polygon fill="#5a90ff" fill-opacity="0.501961" points="247,137 243,131 247,133" />
<polygon fill="#595a9a" fill-opacity="0.501961" points="117,83 119,77 114,77" />
<polygon fill="#967675" fill-opacity="0.501961" points="110,61 111,56 117,55" />
<polygon fill="#001851" fill-opacity="0.501961" points="103,122 110,135 85,122" />
<polygon fill="#92fcff" fill-opacity="0.501961" points="103,68 103,62 100,61" />
<polygon fill="#0b0d19" fill-opacity="0.501961" points="40,78 34,84 34,80" />
<polygon fill="#8a98af" fill-opacity="0.501961" points="22,107 17,99 22,103" />
<polygon fill="#494043" fill-opacity="0.501961" points="71,13 58,13 66,31" />
<polygon fill="#001850" fill-opacity="0.501961" points="4,112 34,112 17,136" />
<polygon fill="#43382f" fill-opacity="0.501961" points="63,89 56,85 41,91" />
<polygon fill="#261e24" fill-opacity="0.501961" points="83,9 83,35 70,22" />
<polygon fill="#606e89" fill-opacity="0.501961" points="41,116 34,120 46,122" />
<polygon fill="#140a04" fill-opacity="0.501961" points="101,6 126,5 85,-16" />
<polygon fill="#032259" fill-opacity="0.501961" points="80,115 97,115 89,111" />
<polygon fill="#3d434d" fill-opacity="0.501961" points="36,70 25,65 32,71" />
<polygon fill="#0b2a68" fill-opacity="0.501961" points="207,143 224,136 244,143" />
<polygon fill="#001851" fill-opacity="0.501961" points="204,142 185,115 246,140" />
<polygon fill="#332c23" fill-opacity="0.501961" points="222,78 231,71 230,86" />
<polygon fill="#5b6d8f" fill-opacity="0.501961" points="69,128 66,125 76,128" />
<polygon fill="#153476" fill-opacity="0.501961" points="96,143 123,143 109,139" />
<polygon fill="#102e6e" fill-opacity="0.501961" points="188,142 199,143 204,139" />
<polygon fill="#160e1d" fill-opacity="0.501961" points="59,88 42,83 67,52" />
<polygon fill="#6cf5ff" fill-opacity="0.501961" points="128,69 125,64 130,65" />
<polygon fill="#125aad" fill-opacity="0.501961" points="129,55 125,58 129,63" />
<polygon fill="#000000" fill-opacity="0.501961" points="87,99 114,111 48,108" />
<polygon fill="#001349" fill-opacity="0.501961" points="108,137 119,142 96,142" />
<polygon fill="#100507" fill-opacity="0.501961" points="99,96 78,94 78,84" />
<polygon fill="#001445" fill-opacity="0.501961" points="22,109 30,104 16,108" />
<polygon fill="#100c1b" fill-opacity="0.501961" points="130,82 123,85 120,61" />
<polygon fill="#190902" fill-opacity="0.501961" points="212,66 213,90 220,81" />
<polygon fill="#214995" fill-opacity="0.501961" points="137,111 130,113 127,111" />
<polygon fill="#170f1c" fill-opacity="0.501961" points="101,6 116,48 143,10" />
<polygon fill="#5a6e8f" fill-opacity="0.501961" points="57,129 62,129 59,125" />
<polygon fill="#001952" fill-opacity="0.501961" points="245,141 218,115 132,142" />
<polygon fill="#533e3c" fill-opacity="0.501961" points="121,66 118,72 110,70" />
<polygon fill="#000a40" fill-opacity="0.501961" points="59,113 62,116 63,114" />
<polygon fill="#001952" fill-opacity="0.501961" points="7,118 5,142 45,142" />
<polygon fill="#443b31" fill-opacity="0.501961" points="183,92 161,90 173,86" />
<polygon fill="#0d2450" fill-opacity="0.501961" points="19,101 24,96 7,96" />
<polygon fill="#1b0e06" fill-opacity="0.501961" points="217,2 211,31 220,52" />
<polygon fill="#0b0302" fill-opacity="0.501961" points="174,70 150,87 128,73" />
<polygon fill="#4a4344" fill-opacity="0.501961" points="147,42 146,29 139,44" />
<polygon fill="#000000" fill-opacity="0.501961" points="4,100 2,56 -16,137" />
<polygon fill="#0b0203" fill-opacity="0.501961" points="38,18 45,36 44,6" />
<polygon fill="#100b19" fill-opacity="0.501961" points="194,19 212,13 213,68" />
<polygon fill="#160f1b" fill-opacity="0.501961" points="123,69 121,76 132,83" />
<polygon fill="#13377b" fill-opacity="0.501961" points="207,111 217,115 230,111" />
<polygon fill="#000000" fill-opacity="0.501961" points="238,111 194,98 270,98" />
<polygon fill="#001a53" fill-opacity="0.501961" points="197,142 242,112 94,113" />
<polygon fill="#545251" fill-opacity="0.501961" points="11,72 8,77 10,79" />
<polygon fill="#7988a0" fill-opacity="0.501961" points="41,122 42,115 47,115" />
<polygon fill="#1c0f10" fill-opacity="0.501961" points="86,86 114,87 111,80" />
<polygon fill="#5e616f" fill-opacity="0.501961" points="25,65 9,70 17,74" />
<polygon fill="#000000" fill-opacity="0.501961" points="30,99 30,107 57,108" />
<polygon fill="#ffecd5" fill-opacity="0.501961" points="30,82 26,80 28,87" />
<polygon fill="#1f4793" fill-opacity="0.501961" points="85,113 79,111 92,111" />
<polygon fill="#0d0805" fill-opacity="0.501961" points="237,72 237,36 218,44" />
<polygon fill="#082357" fill-opacity="0.501961" points="74,115 72,119 69,120" />
<polygon fill="#001a53" fill-opacity="0.501961" points="76,142 61,129 99,140" />
<polygon fill="#3a332d" fill-opacity="0.501961" points="28,47 38,50 36,39" />
<polygon fill="#ffe8d0" fill-opacity="0.501961" points="15,84 24,81 17,87" />
<polygon fill="#150d1c" fill-opacity="0.501961" points="195,65 127,55 187,36" />
<polygon fill="#fff8df" fill-opacity="0.501961" points="89,65 93,64 85,63" />
<polygon fill="#5589ff" fill-opacity="0.501961" points="240,138 246,136 243,133" />
<polygon fill="#4b6084" fill-opacity="0.501961" points="74,120 80,115 84,121" />
<polygon fill="#1f1319" fill-opacity="0.501961" points="172,78 189,87 164,87" />
<polygon fill="#170e1a" fill-opacity="0.501961" points="96,52 73,31 82,65" />
<polygon fill="#b4becb" fill-opacity="0.501961" points="20,102 20,105 19,105" />
<polygon fill="#214791" fill-opacity="0.501961" points="176,111 188,111 182,113" />
<polygon fill="#001652" fill-opacity="0.501961" points="27,98 25,109 24,101" />
<polygon fill="#252227" fill-opacity="0.501961" points="37,88 34,74 33,85" />
<polygon fill="#373739" fill-opacity="0.501961" points="35,92 37,97 31,94" />
<polygon fill="#121526" fill-opacity="0.501961" points="131,78 120,72 124,68" />
<polygon fill="#0e2a5c" fill-opacity="0.501961" points="83,126 77,116 73,117" />
<polygon fill="#394f76" fill-opacity="0.501961" points="41,127 40,118 33,119" />
<polygon fill="#19101f" fill-opacity="0.501961" points="99,-4 71,11 94,7" />
<polygon fill="#a7b3c2" fill-opacity="0.501961" points="91,122 90,117 88,119" />
<polygon fill="#88655c" fill-opacity="0.501961" points="112,48 113,58 110,52" />
<polygon fill="#021f55" fill-opacity="0.501961" points="39,123 43,121 45,123" />
<polygon fill="#143186" fill-opacity="0.501961" points="4,59 8,69 4,66" />
<polygon fill="#7484a0" fill-opacity="0.501961" points="53,119 39,122 43,117" />
<polygon fill="#6378cc" fill-opacity="0.501961" points="37,83 43,88 41,80" />
<polygon fill="#001a53" fill-opacity="0.501961" points="247,112 235,141 163,112" />
<polygon fill="#686669" fill-opacity="0.501961" points="91,80 85,69 93,76" />
<polygon fill="#ceafa1" fill-opacity="0.501961" points="113,51 116,50 115,59" />
<polygon fill="#160e1b" fill-opacity="0.501961" points="87,72 46,81 43,56" />
<polygon fill="#000000" fill-opacity="0.501961" points="48,48 44,60 66,54" />
<polygon fill="#0e295b" fill-opacity="0.501961" points="64,124 62,124 60,120" />
<polygon fill="#373430" fill-opacity="0.501961" points="30,58 26,55 32,50" />
<polygon fill="#07265f" fill-opacity="0.501961" points="49,110 33,114 56,115" />
<polygon fill="#54688b" fill-opacity="0.501961" points="82,126 77,128 73,127" />
<polygon fill="#201b19" fill-opacity="0.501961" points="32,10 42,22 25,37" />
<polygon fill="#15397d" fill-opacity="0.501961" points="238,143 254,143 249,140" />
<polygon fill="#150d1a" fill-opacity="0.501961" points="157,72 139,71 140,43" />
<polygon fill="#cccede" fill-opacity="0.501961" points="42,88 36,95 37,91" />
<polygon fill="#3a332f" fill-opacity="0.501961" points="224,91 225,67 219,79" />
<polygon fill="#312a2d" fill-opacity="0.501961" points="68,13 79,13 77,31" />
<polygon fill="#11367f" fill-opacity="0.501961" points="15,97 20,100 29,97" />
<polygon fill="#001a53" fill-opacity="0.501961" points="130,128 111,114 96,119" />
<polygon fill="#fff1d6" fill-opacity="0.501961" points="89,66 84,65 87,63" />
<polygon fill="#263e8c" fill-opacity="0.501961" points="40,77 42,65 43,73" />
<polygon fill="#5f7292" fill-opacity="0.501961" points="84,114 78,114 83,122" />
<polygon fill="#5f7191" fill-opacity="0.501961" points="39,118 33,121 42,122" />
<polygon fill="#272023" fill-opacity="0.501961" points="148,42 168,42 147,24" />
<polygon fill="#8997b0" fill-opacity="0.501961" points="45,125 42,124 43,126" />
<polygon fill="#53678b" fill-opacity="0.501961" points="8,110 18,102 12,103" />
<polygon fill="#241710" fill-opacity="0.501961" points="192,63 214,63 232,50" />
<polygon fill="#150e1f" fill-opacity="0.501961" points="183,50 194,84 214,85" />
</g>
</svg>