<svg xmlns="http://www.w3.org/2000/svg" version="1.1" width="1024" height="580">
<rect x="0" y="0" width="1024" height="580" fill="#151829" />
<g transform="scale(4.000000) translate(0.5 0.5)">
<polygon fill="#ffffff" fill-opacity="0.501961" points="46,96 16,54 4,96" />
<polygon fill="#7eb8c6" fill-opacity="0.501961" points="76,72 112,48 137,68" />
<polygon fill="#002684" fill-opacity="0.501961" points="271,111 -16,112 148,160" />
<polygon fill="#090000" fill-opacity="0.501961" points="77,109 271,110 252,-16" />
<polygon fill="#9b97a7" fill-opacity="0.501961" points="19,113 4,67 40,52" />
<polygon fill="#070000" fill-opacity="0.501961" points="-16,46 92,77 17,-16" />
<polygon fill="#003096" fill-opacity="0.501961" points="252,143 253,121 184,143" />
<polygon fill="#002066" fill-opacity="0.501961" points="3,160 185,159 5,102" />
<polygon fill="#9a7072" fill-opacity="0.501961" points="116,42 108,79 123,88" />
<polygon fill="#5e647e" fill-opacity="0.501961" points="42,57 44,96 6,58" />
<polygon fill="#28ffff" fill-opacity="0.501961" points="98,53 109,59 101,72" />
<polygon fill="#ffffea" fill-opacity="0.501961" points="23,70 11,95 27,88" />
<polygon fill="#0b0400" fill-opacity="0.501961" points="114,-16 271,130 271,1" />
<polygon fill="#000000" fill-opacity="0.501961" points="59,89 9,111 136,108" />
<polygon fill="#ecc4a1" fill-opacity="0.501961" points="91,79 82,61 91,63" />
<polygon fill="#768ca5" fill-opacity="0.501961" points="75,121 100,111 104,122" />
<polygon fill="#4e3f35" fill-opacity="0.501961" points="100,32 93,8 25,29" />
<polygon fill="#2db3ff" fill-opacity="0.501961" points="125,53 134,63 126,74" />
<polygon fill="#010000" fill-opacity="0.501961" points="-16,-5 69,-3 -11,85" />
<polygon fill="#2b4176" fill-opacity="0.501961" points="3,109 26,115 43,76" />
<polygon fill="#301e1a" fill-opacity="0.501961" points="168,91 44,95 47,62" />
<polygon fill="#55659a" fill-opacity="0.501961" points="4,94 5,65 26,58" />
<polygon fill="#35262a" fill-opacity="0.501961" points="107,78 135,22 169,22" />
<polygon fill="#1f1319" fill-opacity="0.501961" points="227,101 232,24 33,-16" />
<polygon fill="#14010d" fill-opacity="0.501961" points="115,22 101,26 109,75" />
<polygon fill="#64aaff" fill-opacity="0.501961" points="241,132 247,130 246,140" />
<polygon fill="#8899a9" fill-opacity="0.501961" points="62,125 51,118 60,114" />
<polygon fill="#000000" fill-opacity="0.501961" points="93,68 99,72 97,47" />
<polygon fill="#35281f" fill-opacity="0.501961" points="214,98 237,74 138,89" />
<polygon fill="#14070e" fill-opacity="0.501961" points="145,22 56,33 76,69" />
<polygon fill="#00154b" fill-opacity="0.501961" points="153,160 271,118 9,123" />
<polygon fill="#b1bded" fill-opacity="0.501961" points="6,94 30,96 4,80" />
<polygon fill="#978595" fill-opacity="0.501961" points="119,78 109,79 115,52" />
<polygon fill="#5a5452" fill-opacity="0.501961" points="135,25 158,27 136,46" />
<polygon fill="#2b231b" fill-opacity="0.501961" points="23,25 84,-16 34,58" />
<polygon fill="#ffffe0" fill-opacity="0.501961" points="23,82 31,78 28,89" />
<polygon fill="#50ffff" fill-opacity="0.501961" points="102,71 107,57 99,58" />
<polygon fill="#000000" fill-opacity="0.501961" points="252,-15 223,105 271,114" />
<polygon fill="#000000" fill-opacity="0.501961" points="2,86 6,160 -16,141" />
<polygon fill="#b0c2ff" fill-opacity="0.501961" points="36,83 42,80 41,97" />
<polygon fill="#26170d" fill-opacity="0.501961" points="32,78 34,94 39,68" />
<polygon fill="#283b7f" fill-opacity="0.501961" points="4,54 17,91 4,76" />
<polygon fill="#0a0208" fill-opacity="0.501961" points="208,86 132,83 133,43" />
<polygon fill="#000000" fill-opacity="0.501961" points="265,110 113,110 189,89" />
<polygon fill="#0d0614" fill-opacity="0.501961" points="138,23 119,-16 119,76" />
<polygon fill="#130915" fill-opacity="0.501961" points="92,55 45,67 42,102" />
<polygon fill="#000000" fill-opacity="0.501961" points="159,109 82,89 30,110" />
<polygon fill="#000000" fill-opacity="0.501961" points="26,57 -16,57 7,-16" />
<polygon fill="#001d5d" fill-opacity="0.501961" points="9,143 115,143 5,109" />
<polygon fill="#617ea6" fill-opacity="0.501961" points="22,108 6,102 24,100" />
<polygon fill="#c79885" fill-opacity="0.501961" points="120,49 110,49 114,62" />
<polygon fill="#433f34" fill-opacity="0.501961" points="231,65 218,67 222,90" />
<polygon fill="#000000" fill-opacity="0.501961" points="-16,91 3,160 3,43" />
<polygon fill="#574b3f" fill-opacity="0.501961" points="21,67 12,68 16,81" />
<polygon fill="#150c15" fill-opacity="0.501961" points="108,59 93,-2 145,-11" />
<polygon fill="#dcc8ac" fill-opacity="0.501961" points="84,69 85,60 94,65" />
<polygon fill="#595253" fill-opacity="0.501961" points="93,32 82,16 96,12" />
<polygon fill="#1d0e0f" fill-opacity="0.501961" points="124,68 113,72 103,68" />
<polygon fill="#7c8897" fill-opacity="0.501961" points="14,58 6,70 39,58" />
<polygon fill="#6d809c" fill-opacity="0.501961" points="77,116 83,124 99,115" />
<polygon fill="#4a4031" fill-opacity="0.501961" points="139,92 93,90 114,83" />
<polygon fill="#000000" fill-opacity="0.501961" points="196,-11 265,-2 271,87" />
<polygon fill="#110911" fill-opacity="0.501961" points="73,88 94,42 30,26" />
<polygon fill="#1c0a00" fill-opacity="0.501961" points="33,74 24,74 28,78" />
<polygon fill="#000d48" fill-opacity="0.501961" points="88,115 100,109 104,114" />
<polygon fill="#4f412f" fill-opacity="0.501961" points="78,91 43,92 57,84" />
<polygon fill="#ffc8ac" fill-opacity="0.501961" points="27,93 13,82 31,84" />
<polygon fill="#033c9a" fill-opacity="0.501961" points="134,61 118,63 129,53" />
<polygon fill="#002164" fill-opacity="0.501961" points="5,99 32,103 25,96" />
<polygon fill="#42362e" fill-opacity="0.501961" points="19,95 21,90 26,91" />
<polygon fill="#0c0406" fill-opacity="0.501961" points="118,87 177,78 122,71" />
<polygon fill="#453a2d" fill-opacity="0.501961" points="153,83 127,92 178,91" />
<polygon fill="#001650" fill-opacity="0.501961" points="81,128 88,127 84,111" />
<polygon fill="#443e3e" fill-opacity="0.501961" points="70,28 41,36 70,7" />
<polygon fill="#85ffff" fill-opacity="0.501961" points="129,69 127,70 125,62" />
<polygon fill="#686469" fill-opacity="0.501961" points="89,79 94,76 83,66" />
<polygon fill="#0d0000" fill-opacity="0.501961" points="84,143 94,160 141,144" />
<polygon fill="#72849e" fill-opacity="0.501961" points="64,117 54,121 48,115" />
<polygon fill="#0d0508" fill-opacity="0.501961" points="77,-16 176,4 66,12" />
<polygon fill="#000000" fill-opacity="0.501961" points="254,158 271,97 253,36" />
<polygon fill="#170f1d" fill-opacity="0.501961" points="91,62 132,23 48,61" />
<polygon fill="#010000" fill-opacity="0.501961" points="30,111 85,98 31,96" />
<polygon fill="#040000" fill-opacity="0.501961" points="95,143 72,160 14,144" />
<polygon fill="#e9eaed" fill-opacity="0.501961" points="2,96 24,94 7,91" />
<polygon fill="#694f4f" fill-opacity="0.501961" points="110,51 111,73 122,72" />
<polygon fill="#010000" fill-opacity="0.501961" points="146,88 170,60 187,74" />
<polygon fill="#19110b" fill-opacity="0.501961" points="47,55 14,58 40,-16" />
<polygon fill="#170f1e" fill-opacity="0.501961" points="113,86 206,49 199,1" />
<polygon fill="#538eff" fill-opacity="0.501961" points="245,132 244,139 240,135" />
<polygon fill="#080000" fill-opacity="0.501961" points="123,143 175,143 160,158" />
<polygon fill="#0d0111" fill-opacity="0.501961" points="106,82 94,87 94,63" />
<polygon fill="#322d29" fill-opacity="0.501961" points="38,50 25,46 37,14" />
<polygon fill="#41ecff" fill-opacity="0.501961" points="99,58 104,55 105,72" />
<polygon fill="#120913" fill-opacity="0.501961" points="92,86 110,64 107,87" />
<polygon fill="#858fcc" fill-opacity="0.501961" points="119,77 112,83 112,74" />
<polygon fill="#001850" fill-opacity="0.501961" points="48,135 61,142 54,114" />
<polygon fill="#001851" fill-opacity="0.501961" points="251,141 166,112 146,142" />
<polygon fill="#504639" fill-opacity="0.501961" points="196,93 213,87 192,88" />
<polygon fill="#fff0d5" fill-opacity="0.501961" points="22,71 26,87 19,78" />
<polygon fill="#a67563" fill-opacity="0.501961" points="17,95 29,88 32,91" />
<polygon fill="#4dd2ff" fill-opacity="0.501961" points="99,66 106,56 105,71" />
<polygon fill="#13152b" fill-opacity="0.501961" points="37,55 43,53 40,76" />
<polygon fill="#8492a9" fill-opacity="0.501961" points="22,100 12,100 23,107" />
<polygon fill="#546ccd" fill-opacity="0.501961" points="14,85 7,88 4,79" />
<polygon fill="#000000" fill-opacity="0.501961" points="3,122 -16,54 4,46" />
<polygon fill="#150e1b" fill-opacity="0.501961" points="136,-16 91,35 133,56" />
<polygon fill="#05215a" fill-opacity="0.501961" points="45,116 4,101 4,139" />
<polygon fill="#000000" fill-opacity="0.501961" points="203,110 92,109 145,93" />
<polygon fill="#001751" fill-opacity="0.501961" points="239,138 143,112 249,112" />
<polygon fill="#453e3f" fill-opacity="0.501961" points="162,43 134,23 138,42" />
<polygon fill="#000000" fill-opacity="0.501961" points="59,47 63,60 33,52" />
<polygon fill="#fff8de" fill-opacity="0.501961" points="83,65 89,61 91,65" />
<polygon fill="#140b19" fill-opacity="0.501961" points="86,39 81,87 50,86" />
<polygon fill="#020000" fill-opacity="0.501961" points="233,144 149,143 172,160" />
<polygon fill="#716969" fill-opacity="0.501961" points="15,79 6,70 28,61" />
<polygon fill="#110802" fill-opacity="0.501961" points="83,96 43,91 43,105" />
<polygon fill="#8b746c" fill-opacity="0.501961" points="27,73 37,79 37,75" />
<polygon fill="#7fffff" fill-opacity="0.501961" points="130,68 131,64 124,66" />
<polygon fill="#000000" fill-opacity="0.501961" points="17,58 34,-7 -15,2" />
<polygon fill="#00205a" fill-opacity="0.501961" points="7,96 24,97 5,102" />
<polygon fill="#322c26" fill-opacity="0.501961" points="216,89 230,73 232,87" />
<polygon fill="#c1a58c" fill-opacity="0.501961" points="30,70 23,76 25,66" />
<polygon fill="#150e1a" fill-opacity="0.501961" points="104,54 95,4 157,7" />
<polygon fill="#1a111c" fill-opacity="0.501961" points="147,72 148,18 191,0" />
<polygon fill="#150e1c" fill-opacity="0.501961" points="120,62 121,88 132,82" />
<polygon fill="#0a0200" fill-opacity="0.501961" points="35,16 46,50 44,-16" />
<polygon fill="#1a1320" fill-opacity="0.501961" points="62,75 91,67 50,62" />
<polygon fill="#dde4f9" fill-opacity="0.501961" points="42,93 40,87 35,96" />
<polygon fill="#514a4b" fill-opacity="0.501961" points="84,20 96,28 84,33" />
<polygon fill="#29281d" fill-opacity="0.501961" points="232,28 220,27 219,46" />
<polygon fill="#070603" fill-opacity="0.501961" points="32,90 35,107 46,108" />
<polygon fill="#150d19" fill-opacity="0.501961" points="44,32 91,60 73,65" />
<polygon fill="#000000" fill-opacity="0.501961" points="233,-5 256,128 271,3" />
<polygon fill="#1a111a" fill-opacity="0.501961" points="95,60 103,82 90,89" />
<polygon fill="#1a100f" fill-opacity="0.501961" points="222,52 216,96 191,47" />
<polygon fill="#001953" fill-opacity="0.501961" points="124,112 47,140 225,138" />
<polygon fill="#a3909f" fill-opacity="0.501961" points="108,61 116,57 119,60" />
<polygon fill="#5e728d" fill-opacity="0.501961" points="55,114 50,120 46,118" />
<polygon fill="#a9b4c4" fill-opacity="0.501961" points="96,116 95,120 89,118" />
<polygon fill="#001952" fill-opacity="0.501961" points="125,142 73,119 5,137" />
<polygon fill="#001b53" fill-opacity="0.501961" points="85,138 91,117 99,144" />
<polygon fill="#000000" fill-opacity="0.501961" points="254,110 168,108 261,80" />
<polygon fill="#746462" fill-opacity="0.501961" points="110,50 119,48 119,51" />
<polygon fill="#677a97" fill-opacity="0.501961" points="11,108 16,99 10,104" />
<polygon fill="#040300" fill-opacity="0.501961" points="252,30 224,66 218,44" />
<polygon fill="#000517" fill-opacity="0.501961" points="107,74 109,62 106,66" />
<polygon fill="#4c88ff" fill-opacity="0.501961" points="249,137 248,132 244,136" />
<polygon fill="#363841" fill-opacity="0.501961" points="25,96 34,91 33,96" />
<polygon fill="#5f656c" fill-opacity="0.501961" points="23,60 39,61 30,71" />
<polygon fill="#5c6e89" fill-opacity="0.501961" points="33,122 34,114 36,120" />
<polygon fill="#21120d" fill-opacity="0.501961" points="67,97 86,81 97,98" />
<polygon fill="#00174e" fill-opacity="0.501961" points="35,118 38,142 48,117" />
<polygon fill="#000000" fill-opacity="0.501961" points="5,97 -1,32 -14,94" />
<polygon fill="#090101" fill-opacity="0.501961" points="55,38 76,28 71,46" />
<polygon fill="#c6cfeb" fill-opacity="0.501961" points="15,92 4,87 5,95" />
<polygon fill="#140c1e" fill-opacity="0.501961" points="217,86 169,18 193,84" />
<polygon fill="#01175b" fill-opacity="0.501961" points="6,57 4,71 12,59" />
<polygon fill="#fff2de" fill-opacity="0.501961" points="17,84 21,76 31,85" />
<polygon fill="#001852" fill-opacity="0.501961" points="238,118 250,135 245,113" />
<polygon fill="#323132" fill-opacity="0.501961" points="46,33 69,12 47,16" />
<polygon fill="#21191f" fill-opacity="0.501961" points="82,34 69,10 85,9" />
<polygon fill="#4a4238" fill-opacity="0.501961" points="125,90 141,91 131,86" />
<polygon fill="#173574" fill-opacity="0.501961" points="93,139 81,143 103,143" />
<polygon fill="#0e2a5f" fill-opacity="0.501961" points="18,95 15,113 14,103" />
<polygon fill="#dfcbbb" fill-opacity="0.501961" points="19,78 27,73 27,69" />
<polygon fill="#8d89a8" fill-opacity="0.501961" points="114,72 110,78 121,79" />
<polygon fill="#0f0505" fill-opacity="0.501961" points="165,86 127,87 162,64" />
<polygon fill="#2f2b2c" fill-opacity="0.501961" points="39,75 33,88 34,67" />
<polygon fill="#000000" fill-opacity="0.501961" points="60,-16 95,-10 77,9" />
<polygon fill="#20100d" fill-opacity="0.501961" points="164,96 206,98 189,89" />
<polygon fill="#00b4ff" fill-opacity="0.501961" points="107,65 102,55 106,56" />
<polygon fill="#000000" fill-opacity="0.501961" points="126,37 134,34 135,45" />
<polygon fill="#504b52" fill-opacity="0.501961" points="14,68 18,74 17,82" />
<polygon fill="#332d2d" fill-opacity="0.501961" points="158,42 160,24 145,40" />
<polygon fill="#c6a08e" fill-opacity="0.501961" points="19,73 12,75 13,77" />
<polygon fill="#140c1a" fill-opacity="0.501961" points="70,34 100,35 112,58" />
<polygon fill="#0d0707" fill-opacity="0.501961" points="196,-16 239,33 199,19" />
<polygon fill="#133a83" fill-opacity="0.501961" points="249,112 252,123 252,111" />
<polygon fill="#635459" fill-opacity="0.501961" points="31,84 29,89 34,87" />
<polygon fill="#565146" fill-opacity="0.501961" points="180,88 170,88 176,90" />
<polygon fill="#170f1c" fill-opacity="0.501961" points="66,55 85,35 98,63" />
<polygon fill="#163570" fill-opacity="0.501961" points="4,109 10,109 4,130" />
<polygon fill="#0b2a67" fill-opacity="0.501961" points="135,135 109,143 162,143" />
<polygon fill="#001952" fill-opacity="0.501961" points="23,135 24,99 36,126" />
<polygon fill="#032569" fill-opacity="0.501961" points="12,97 3,97 6,106" />
<polygon fill="#001a52" fill-opacity="0.501961" points="66,141 152,111 210,142" />
<polygon fill="#000000" fill-opacity="0.501961" points="31,110 80,106 30,96" />
<polygon fill="#646368" fill-opacity="0.501961" points="88,74 89,84 91,73" />
<polygon fill="#10316e" fill-opacity="0.501961" points="17,109 35,113 24,105" />
<polygon fill="#405bcd" fill-opacity="0.501961" points="42,78 41,83 36,84" />
<polygon fill="#140d1b" fill-opacity="0.501961" points="41,82 87,32 81,80" />
<polygon fill="#110806" fill-opacity="0.501961" points="241,85 228,98 225,86" />
<polygon fill="#140a17" fill-opacity="0.501961" points="114,89 105,82 105,70" />
<polygon fill="#160e1b" fill-opacity="0.501961" points="57,61 43,79 91,72" />
<polygon fill="#00154c" fill-opacity="0.501961" points="37,112 5,112 10,137" />
<polygon fill="#4b3f30" fill-opacity="0.501961" points="109,91 90,86 91,92" />
<polygon fill="#505290" fill-opacity="0.501961" points="116,83 118,78 110,77" />
<polygon fill="#71f0ff" fill-opacity="0.501961" points="129,64 125,66 129,72" />
<polygon fill="#0d2c6d" fill-opacity="0.501961" points="48,143 9,143 27,137" />
<polygon fill="#030000" fill-opacity="0.501961" points="-2,143 20,143 26,156" />
<polygon fill="#150e19" fill-opacity="0.501961" points="144,77 150,59 131,68" />
<polygon fill="#a2ffff" fill-opacity="0.501961" points="104,62 100,65 106,68" />
<polygon fill="#312a23" fill-opacity="0.501961" points="38,47 36,30 26,58" />
<polygon fill="#ffe0cb" fill-opacity="0.501961" points="18,83 32,79 29,84" />
<polygon fill="#8b9ab0" fill-opacity="0.501961" points="97,122 96,116 99,121" />
<polygon fill="#e7ccb5" fill-opacity="0.501961" points="113,55 112,50 117,55" />
<polygon fill="#0a0205" fill-opacity="0.501961" points="192,92 189,78 180,89" />
<polygon fill="#001750" fill-opacity="0.501961" points="98,135 100,117 103,130" />
<polygon fill="#000000" fill-opacity="0.501961" points="256,96 271,129 252,156" />
<polygon fill="#001852" fill-opacity="0.501961" points="5,142 5,116 58,142" />
<polygon fill="#0a2e6f" fill-opacity="0.501961" points="215,117 201,111 234,111" />
<polygon fill="#2d180a" fill-opacity="0.501961" points="214,73 219,58 213,40" />
<polygon fill="#160a03" fill-opacity="0.501961" points="104,92 136,102 163,92" />
<polygon fill="#0c3274" fill-opacity="0.501961" points="68,112 56,115 49,111" />
<polygon fill="#fce6d3" fill-opacity="0.501961" points="21,90 14,82 22,85" />
<polygon fill="#001a52" fill-opacity="0.501961" points="240,112 165,114 241,141" />
<polygon fill="#6f7383" fill-opacity="0.501961" points="10,62 35,58 15,76" />
<polygon fill="#160e1b" fill-opacity="0.501961" points="128,20 122,62 113,5" />
<polygon fill="#898fac" fill-opacity="0.501961" points="17,92 16,86 11,86" />
<polygon fill="#170e1e" fill-opacity="0.501961" points="133,68 148,42 133,48" />
<polygon fill="#160f1c" fill-opacity="0.501961" points="97,21 94,60 144,-7" />
<polygon fill="#4b4245" fill-opacity="0.501961" points="69,29 69,15 57,32" />
<polygon fill="#010000" fill-opacity="0.501961" points="27,-15 25,57 0,57" />
<polygon fill="#150c16" fill-opacity="0.501961" points="44,91 54,59 43,60" />
<polygon fill="#001952" fill-opacity="0.501961" points="181,113 251,131 251,112" />
<polygon fill="#000000" fill-opacity="0.501961" points="103,99 183,98 145,110" />
<polygon fill="#8696ae" fill-opacity="0.501961" points="53,119 59,115 64,117" />
<polygon fill="#55eaff" fill-opacity="0.501961" points="100,58 98,68 101,66" />
<polygon fill="#0e295b" fill-opacity="0.501961" points="69,128 62,113 64,126" />
<polygon fill="#927172" fill-opacity="0.501961" points="111,54 118,55 111,63" />
<polygon fill="#7083c6" fill-opacity="0.501961" points="36,85 42,86 44,92" />
<polygon fill="#76c7fe" fill-opacity="0.501961" points="125,71 129,69 131,71" />
<polygon fill="#463b2e" fill-opacity="0.501961" points="47,87 42,92 60,91" />
<polygon fill="#130a0f" fill-opacity="0.501961" points="142,84 146,64 121,76" />
<polygon fill="#150a07" fill-opacity="0.501961" points="227,92 198,92 221,100" />
<polygon fill="#00b8ff" fill-opacity="0.501961" points="104,60 100,55 97,60" />
<polygon fill="#001a53" fill-opacity="0.501961" points="96,121 101,142 26,131" />
<polygon fill="#082265" fill-opacity="0.501961" points="38,59 43,67 42,58" />
<polygon fill="#77615f" fill-opacity="0.501961" points="112,49 118,48 110,53" />
<polygon fill="#22150e" fill-opacity="0.501961" points="141,98 170,98 153,93" />
<polygon fill="#ddcbb2" fill-opacity="0.501961" points="86,63 92,71 84,66" />
<polygon fill="#080002" fill-opacity="0.501961" points="139,-16 173,6 139,8" />
<polygon fill="#100a13" fill-opacity="0.501961" points="78,58 78,95 87,77" />
<polygon fill="#2e51b2" fill-opacity="0.501961" points="7,78 4,84 4,73" />
<polygon fill="#43464d" fill-opacity="0.501961" points="33,66 30,72 28,66" />
<polygon fill="#1f120c" fill-opacity="0.501961" points="86,98 126,98 106,91" />
<polygon fill="#49cbf5" fill-opacity="0.501961" points="126,62 133,66 125,70" />
<polygon fill="#140d19" fill-opacity="0.501961" points="132,64 158,53 155,78" />
<polygon fill="#0e2c69" fill-opacity="0.501961" points="182,137 169,143 200,142" />
<polygon fill="#1b121c" fill-opacity="0.501961" points="178,80 162,84 197,88" />
<polygon fill="#dda783" fill-opacity="0.501961" points="12,81 14,81 12,76" />
<polygon fill="#092b6c" fill-opacity="0.501961" points="151,118 131,111 174,111" />
<polygon fill="#001952" fill-opacity="0.501961" points="90,112 190,142 197,113" />
<polygon fill="#0a2e70" fill-opacity="0.501961" points="128,111 110,117 88,111" />
<polygon fill="#9df0ff" fill-opacity="0.501961" points="123,66 130,66 128,68" />
<polygon fill="#50494a" fill-opacity="0.501961" points="140,43 149,41 143,37" />
<polygon fill="#00164d" fill-opacity="0.501961" points="105,124 103,113 131,112" />
<polygon fill="#433a32" fill-opacity="0.501961" points="145,87 161,92 178,87" />
<polygon fill="#1a0c08" fill-opacity="0.501961" points="50,55 17,44 34,57" />
<polygon fill="#000000" fill-opacity="0.501961" points="192,79 170,68 188,85" />
<polygon fill="#000000" fill-opacity="0.501961" points="-16,85 3,94 3,155" />
<polygon fill="#2e261a" fill-opacity="0.501961" points="10,75 11,77 9,78" />
<polygon fill="#103071" fill-opacity="0.501961" points="51,142 72,143 63,139" />
<polygon fill="#393b47" fill-opacity="0.501961" points="35,97 29,96 35,89" />
<polygon fill="#48433b" fill-opacity="0.501961" points="214,91 196,91 207,88" />
<polygon fill="#17101c" fill-opacity="0.501961" points="213,58 207,18 178,72" />
<polygon fill="#0d3074" fill-opacity="0.501961" points="29,99 29,115 26,110" />
<polygon fill="#443644" fill-opacity="0.501961" points="111,71 115,74 118,72" />
<polygon fill="#000000" fill-opacity="0.501961" points="51,110 121,109 85,99" />
<polygon fill="#4983ff" fill-opacity="0.501961" points="245,129 249,135 243,131" />
<polygon fill="#001952" fill-opacity="0.501961" points="10,139 72,121 69,142" />
<polygon fill="#001a52" fill-opacity="0.501961" points="235,125 250,112 250,131" />
<polygon fill="#857d81" fill-opacity="0.501961" points="88,76 92,74 93,78" />
<polygon fill="#0f0d08" fill-opacity="0.501961" points="80,-16 25,-16 26,21" />
<polygon fill="#9f92a0" fill-opacity="0.501961" points="121,79 118,75 109,77" />
<polygon fill="#000000" fill-opacity="0.501961" points="238,95 239,16 271,130" />
<polygon fill="#141120" fill-opacity="0.501961" points="121,74 125,68 123,85" />
<polygon fill="#024ba7" fill-opacity="0.501961" points="121,65 130,57 131,60" />
<polygon fill="#150d1a" fill-opacity="0.501961" points="216,44 95,7 191,7" />
<polygon fill="#403333" fill-opacity="0.501961" points="117,65 111,63 119,62" />
<polygon fill="#080304" fill-opacity="0.501961" points="76,50 76,40 46,33" />
<polygon fill="#d7dce5" fill-opacity="0.501961" points="97,116 99,119 97,118" />
<polygon fill="#163875" fill-opacity="0.501961" points="13,152 8,160 4,135" />
<polygon fill="#9daabd" fill-opacity="0.501961" points="93,117 96,115 100,118" />
<polygon fill="#39332e" fill-opacity="0.501961" points="222,72 217,91 225,91" />
<polygon fill="#15336a" fill-opacity="0.501961" points="7,107 28,111 11,113" />
<polygon fill="#150d1a" fill-opacity="0.501961" points="105,75 92,75 94,67" />
<polygon fill="#120909" fill-opacity="0.501961" points="50,101 79,93 43,92" />
<polygon fill="#bc817d" fill-opacity="0.501961" points="20,83 21,87 24,88" />
<polygon fill="#050300" fill-opacity="0.501961" points="42,144 -14,160 -16,143" />
<polygon fill="#010100" fill-opacity="0.501961" points="222,-12 219,30 243,10" />
<polygon fill="#41393b" fill-opacity="0.501961" points="69,8 58,16 67,29" />
<polygon fill="#4b4246" fill-opacity="0.501961" points="94,18 84,14 84,32" />
<polygon fill="#001750" fill-opacity="0.501961" points="241,142 247,139 229,137" />
<polygon fill="#32404d" fill-opacity="0.501961" points="23,90 19,94 24,92" />
<polygon fill="#576b8c" fill-opacity="0.501961" points="18,102 11,104 12,107" />
<polygon fill="#4a4239" fill-opacity="0.501961" points="110,92 123,90 109,88" />
<polygon fill="#fff1dd" fill-opacity="0.501961" points="21,82 18,88 23,84" />
<polygon fill="#040827" fill-opacity="0.501961" points="110,62 107,57 107,67" />
<polygon fill="#1f1d1f" fill-opacity="0.501961" points="49,-10 60,11 49,35" />
<polygon fill="#22150a" fill-opacity="0.501961" points="114,-8 91,3 122,2" />
<polygon fill="#c9cbd2" fill-opacity="0.501961" points="12,95 20,93 18,89" />
<polygon fill="#23180f" fill-opacity="0.501961" points="195,47 201,68 211,60" />
<polygon fill="#26437a" fill-opacity="0.501961" points="36,112 25,109 22,112" />
<polygon fill="#4b4345" fill-opacity="0.501961" points="135,45 136,29 143,43" />
<polygon fill="#18111f" fill-opacity="0.501961" points="77,13 85,1 108,10" />
<polygon fill="#001851" fill-opacity="0.501961" points="77,116 65,112 72,140" />
<polygon fill="#6d7f9c" fill-opacity="0.501961" points="78,123 78,116 83,115" />
<polygon fill="#080201" fill-opacity="0.501961" points="170,74 130,72 149,85" />
<polygon fill="#0a060b" fill-opacity="0.501961" points="193,65 209,64 215,75" />
<polygon fill="#120b06" fill-opacity="0.501961" points="237,55 236,88 225,47" />
<polygon fill="#727987" fill-opacity="0.501961" points="37,63 28,64 34,60" />
<polygon fill="#1b1a17" fill-opacity="0.501961" points="39,7 29,19 31,35" />
<polygon fill="#ddcdb5" fill-opacity="0.501961" points="95,64 90,62 80,67" />
<polygon fill="#160e1a" fill-opacity="0.501961" points="80,41 86,91 53,69" />
<polygon fill="#000000" fill-opacity="0.501961" points="196,98 154,109 236,110" />
<polygon fill="#160e1b" fill-opacity="0.501961" points="139,43 132,73 159,70" />
<polygon fill="#001a52" fill-opacity="0.501961" points="139,114 174,142 247,140" />
<polygon fill="#001a53" fill-opacity="0.501961" points="42,122 159,123 96,142" />
<polygon fill="#75859e" fill-opacity="0.501961" points="9,69 19,59 12,59" />
<polygon fill="#170e1c" fill-opacity="0.501961" points="97,64 60,44 94,52" />
<polygon fill="#140d17" fill-opacity="0.501961" points="79,21 71,62 83,67" />
<polygon fill="#000000" fill-opacity="0.501961" points="240,143 271,143 244,154" />
<polygon fill="#08142d" fill-opacity="0.501961" points="95,73 102,77 96,57" />
<polygon fill="#887d82" fill-opacity="0.501961" points="120,63 116,59 117,57" />
<polygon fill="#b08a82" fill-opacity="0.501961" points="34,85 32,91 19,95" />
<polygon fill="#172d76" fill-opacity="0.501961" points="8,67 6,74 4,64" />
<polygon fill="#173c83" fill-opacity="0.501961" points="170,114 180,111 163,111" />
<polygon fill="#001953" fill-opacity="0.501961" points="171,112 208,130 134,116" />
<polygon fill="#070001" fill-opacity="0.501961" points="173,62 155,60 185,82" />
<polygon fill="#7c89c5" fill-opacity="0.501961" points="15,88 12,81 3,89" />
<polygon fill="#204288" fill-opacity="0.501961" points="87,143 80,141 76,143" />
<polygon fill="#1c0f06" fill-opacity="0.501961" points="218,10 211,23 217,47" />
<polygon fill="#524646" fill-opacity="0.501961" points="14,72 16,65 10,74" />
<polygon fill="#685857" fill-opacity="0.501961" points="36,80 37,76 30,72" />
<polygon fill="#160e1c" fill-opacity="0.501961" points="94,81 117,87 93,71" />
<polygon fill="#160e1a" fill-opacity="0.501961" points="147,10 91,32 117,47" />
<polygon fill="#726055" fill-opacity="0.501961" points="91,66 86,68 95,69" />
<polygon fill="#cdb299" fill-opacity="0.501961" points="91,64 92,70 93,65" />
<polygon fill="#080201" fill-opacity="0.501961" points="49,-16 37,2 43,22" />
<polygon fill="#000000" fill-opacity="0.501961" points="102,99 46,98 73,110" />
<polygon fill="#423b34" fill-opacity="0.501961" points="141,92 156,89 127,87" />
<polygon fill="#1b100d" fill-opacity="0.501961" points="196,97 210,92 227,98" />
<polygon fill="#070702" fill-opacity="0.501961" points="94,160 129,143 51,143" />
<polygon fill="#0c285b" fill-opacity="0.501961" points="54,112 52,122 55,117" />
<polygon fill="#131620" fill-opacity="0.501961" points="28,76 26,75 27,79" />
<polygon fill="#27231e" fill-opacity="0.501961" points="35,92 35,93 33,93" />
<polygon fill="#edebed" fill-opacity="0.501961" points="40,95 40,89 38,95" />
<polygon fill="#1c1f27" fill-opacity="0.501961" points="31,87 34,77 36,81" />
<polygon fill="#000000" fill-opacity="0.501961" points="52,46 43,57 63,57" />
</g>
</svg>