<svg xmlns="http://www.w3.org/2000/svg" version="1.1" width="1024" height="580">
<rect x="0" y="0" width="1024" height="580" fill="#131221" />
<g transform="scale(4.000000) translate(0.5 0.5)">
<polygon fill="#183a8a" fill-opacity="0.501961" points="269,143 181,87 -16,142" />
<polygon fill="#512d20" fill-opacity="0.501961" points="89,111 211,110 156,-16" />
<polygon fill="#000000" fill-opacity="0.501961" points="-16,140 130,34 3,-16" />
<polygon fill="#000000" fill-opacity="0.501961" points="150,68 253,-16 269,119" />
<polygon fill="#00226e" fill-opacity="0.501961" points="179,112 5,111 3,160" />
<polygon fill="#5a2f26" fill-opacity="0.501961" points="89,-5 99,58 206,-16" />
<polygon fill="#000000" fill-opacity="0.501961" points="92,111 -16,108 87,-16" />
<polygon fill="#857256" fill-opacity="0.501961" points="196,108 144,101 203,80" />
<polygon fill="#aeb2ba" fill-opacity="0.501961" points="137,53 141,68 144,54" />
<polygon fill="#052167" fill-opacity="0.501961" points="214,160 35,111 271,111" />
<polygon fill="#301418" fill-opacity="0.501961" points="205,25 103,6 205,97" />
<polygon fill="#000000" fill-opacity="0.501961" points="271,59 205,120 211,-16" />
<polygon fill="#6a85ab" fill-opacity="0.501961" points="32,121 53,119 34,110" />
<polygon fill="#000000" fill-opacity="0.501961" points="96,3 -7,-16 -16,135" />
<polygon fill="#807461" fill-opacity="0.501961" points="96,-16 110,8 96,28" />
<polygon fill="#715e52" fill-opacity="0.501961" points="112,-16 172,27 170,5" />
<polygon fill="#221428" fill-opacity="0.501961" points="90,2 151,109 91,109" />
<polygon fill="#665849" fill-opacity="0.501961" points="142,112 174,83 202,107" />
<polygon fill="#63b1ff" fill-opacity="0.501961" points="250,131 242,140 243,131" />
<polygon fill="#2d0101" fill-opacity="0.501961" points="105,-16 132,59 154,19" />
<polygon fill="#001247" fill-opacity="0.501961" points="82,111 117,141 -16,142" />
<polygon fill="#000000" fill-opacity="0.501961" points="271,110 247,-16 199,109" />
<polygon fill="#000000" fill-opacity="0.501961" points="-16,107 91,109 89,-16" />
<polygon fill="#15090d" fill-opacity="0.501961" points="143,97 177,69 163,8" />
<polygon fill="#000000" fill-opacity="0.501961" points="253,148 254,98 271,157" />
<polygon fill="#281b31" fill-opacity="0.501961" points="198,48 154,46 200,-14" />
<polygon fill="#00154f" fill-opacity="0.501961" points="252,116 205,111 209,160" />
<polygon fill="#6c6054" fill-opacity="0.501961" points="109,20 97,16 109,-5" />
<polygon fill="#1e1730" fill-opacity="0.501961" points="92,98 114,23 150,94" />
<polygon fill="#000000" fill-opacity="0.501961" points="176,-8 271,49 271,0" />
<polygon fill="#2e2725" fill-opacity="0.501961" points="167,81 158,92 167,122" />
<polygon fill="#030206" fill-opacity="0.501961" points="134,18 109,10 133,-16" />
<polygon fill="#000000" fill-opacity="0.501961" points="-16,7 39,115 99,-16" />
<polygon fill="#5a6261" fill-opacity="0.501961" points="140,71 147,62 135,57" />
<polygon fill="#000000" fill-opacity="0.501961" points="-16,109 4,100 3,160" />
<polygon fill="#4e2817" fill-opacity="0.501961" points="129,34 139,17 91,26" />
<polygon fill="#620402" fill-opacity="0.501961" points="133,8 151,6 145,23" />
<polygon fill="#96a4bb" fill-opacity="0.501961" points="39,116 38,122 32,122" />
<polygon fill="#404984" fill-opacity="0.501961" points="198,142 115,142 135,160" />
<polygon fill="#002467" fill-opacity="0.501961" points="253,110 251,136 230,110" />
<polygon fill="#736b6e" fill-opacity="0.501961" points="148,113 152,94 160,112" />
<polygon fill="#002366" fill-opacity="0.501961" points="4,145 4,111 37,110" />
<polygon fill="#22141b" fill-opacity="0.501961" points="218,33 130,-16 207,1" />
<polygon fill="#635d4f" fill-opacity="0.501961" points="186,77 189,67 185,55" />
<polygon fill="#695a52" fill-opacity="0.501961" points="166,7 152,2 154,22" />
<polygon fill="#685a51" fill-opacity="0.501961" points="164,106 199,110 198,83" />
<polygon fill="#000000" fill-opacity="0.501961" points="205,110 271,110 225,-16" />
<polygon fill="#24140a" fill-opacity="0.501961" points="90,92 95,111 135,109" />
<polygon fill="#030000" fill-opacity="0.501961" points="1,143 107,144 47,160" />
<polygon fill="#192962" fill-opacity="0.501961" points="217,111 134,133 62,110" />
<polygon fill="#2a160f" fill-opacity="0.501961" points="204,41 204,94 186,66" />
<polygon fill="#23172d" fill-opacity="0.501961" points="97,99 142,46 95,38" />
<polygon fill="#000000" fill-opacity="0.501961" points="90,110 89,-16 6,110" />
<polygon fill="#271925" fill-opacity="0.501961" points="91,81 143,61 90,30" />
<polygon fill="#3c76fa" fill-opacity="0.501961" points="250,143 241,133 246,129" />
<polygon fill="#00154d" fill-opacity="0.501961" points="209,141 200,127 249,140" />
<polygon fill="#754c43" fill-opacity="0.501961" points="156,4 139,-16 134,8" />
<polygon fill="#1c0c0d" fill-opacity="0.501961" points="162,84 153,70 204,83" />
<polygon fill="#430707" fill-opacity="0.501961" points="160,19 142,44 118,39" />
<polygon fill="#1f1629" fill-opacity="0.501961" points="118,105 147,77 148,111" />
<polygon fill="#1c0902" fill-opacity="0.501961" points="148,143 236,143 173,160" />
<polygon fill="#100c0f" fill-opacity="0.501961" points="109,-7 126,14 114,20" />
<polygon fill="#8a97af" fill-opacity="0.501961" points="32,119 34,115 46,115" />
<polygon fill="#0b205c" fill-opacity="0.501961" points="102,143 211,119 73,111" />
<polygon fill="#6e5f58" fill-opacity="0.501961" points="177,88 167,85 169,107" />
<polygon fill="#000000" fill-opacity="0.501961" points="271,110 253,59 254,160" />
<polygon fill="#6f5c4a" fill-opacity="0.501961" points="149,110 158,95 148,96" />
<polygon fill="#122f66" fill-opacity="0.501961" points="35,110 46,110 54,132" />
<polygon fill="#291112" fill-opacity="0.501961" points="134,15 176,28 152,70" />
<polygon fill="#38433b" fill-opacity="0.501961" points="150,80 134,73 145,66" />
<polygon fill="#201733" fill-opacity="0.501961" points="173,44 175,-16 198,45" />
<polygon fill="#252035" fill-opacity="0.501961" points="148,40 134,55 173,44" />
<polygon fill="#2e1a0f" fill-opacity="0.501961" points="102,107 89,111 91,63" />
<polygon fill="#221206" fill-opacity="0.501961" points="95,1 88,28 96,49" />
<polygon fill="#05296c" fill-opacity="0.501961" points="253,123 239,160 251,160" />
<polygon fill="#000000" fill-opacity="0.501961" points="99,-16 -16,-14 -7,125" />
<polygon fill="#40393a" fill-opacity="0.501961" points="160,71 159,57 162,62" />
<polygon fill="#0b0005" fill-opacity="0.501961" points="134,44 140,50 146,40" />
<polygon fill="#001953" fill-opacity="0.501961" points="48,137 5,140 26,111" />
<polygon fill="#001952" fill-opacity="0.501961" points="225,110 203,131 253,129" />
<polygon fill="#a8aaa2" fill-opacity="0.501961" points="141,64 144,68 138,67" />
<polygon fill="#0c2268" fill-opacity="0.501961" points="121,140 188,142 123,114" />
<polygon fill="#4e4c53" fill-opacity="0.501961" points="147,58 145,49 136,51" />
<polygon fill="#5f7190" fill-opacity="0.501961" points="46,115 39,117 45,121" />
<polygon fill="#1b0c0a" fill-opacity="0.501961" points="207,85 200,83 201,107" />
<polygon fill="#1e1210" fill-opacity="0.501961" points="206,-16 219,35 200,31" />
<polygon fill="#001953" fill-opacity="0.501961" points="89,111 88,138 9,130" />
<polygon fill="#000000" fill-opacity="0.501961" points="4,159 -16,92 3,111" />
<polygon fill="#000000" fill-opacity="0.501961" points="207,40 206,101 271,-15" />
<polygon fill="#143e8b" fill-opacity="0.501961" points="232,111 221,111 232,114" />
<polygon fill="#4b2a1e" fill-opacity="0.501961" points="137,34 98,19 134,21" />
<polygon fill="#000000" fill-opacity="0.501961" points="27,111 89,-14 90,105" />
<polygon fill="#23182f" fill-opacity="0.501961" points="95,36 97,97 121,31" />
<polygon fill="#63534f" fill-opacity="0.501961" points="143,2 172,15 145,-16" />
<polygon fill="#6f615b" fill-opacity="0.501961" points="182,103 197,104 197,87" />
<polygon fill="#5990ff" fill-opacity="0.501961" points="239,136 244,131 247,134" />
<polygon fill="#000000" fill-opacity="0.501961" points="206,111 271,110 235,-16" />
<polygon fill="#4d3f38" fill-opacity="0.501961" points="177,96 186,75 185,102" />
<polygon fill="#030003" fill-opacity="0.501961" points="164,78 176,55 162,54" />
<polygon fill="#542a17" fill-opacity="0.501961" points="168,37 164,28 174,32" />
<polygon fill="#220f0f" fill-opacity="0.501961" points="195,83 158,84 172,74" />
<polygon fill="#685a53" fill-opacity="0.501961" points="108,15 96,20 97,-7" />
<polygon fill="#684d47" fill-opacity="0.501961" points="147,15 159,11 162,-11" />
<polygon fill="#32130a" fill-opacity="0.501961" points="110,21 107,30 96,20" />
<polygon fill="#550302" fill-opacity="0.501961" points="134,11 156,5 137,20" />
<polygon fill="#2d1910" fill-opacity="0.501961" points="99,58 90,25 90,89" />
<polygon fill="#16080a" fill-opacity="0.501961" points="133,-16 133,19 108,20" />
<polygon fill="#253f80" fill-opacity="0.501961" points="157,117 179,111 137,111" />
<polygon fill="#ada6ad" fill-opacity="0.501961" points="138,53 141,56 136,58" />
<polygon fill="#132358" fill-opacity="0.501961" points="150,132 144,113 213,112" />
<polygon fill="#20162e" fill-opacity="0.501961" points="124,104 138,53 103,32" />
<polygon fill="#291a10" fill-opacity="0.501961" points="160,102 160,110 169,111" />
<polygon fill="#0e140f" fill-opacity="0.501961" points="132,86 142,82 148,67" />
<polygon fill="#0b0000" fill-opacity="0.501961" points="162,12 160,20 166,16" />
<polygon fill="#311f19" fill-opacity="0.501961" points="188,44 157,52 207,53" />
<polygon fill="#001a52" fill-opacity="0.501961" points="43,119 50,142 34,142" />
<polygon fill="#5d2e22" fill-opacity="0.501961" points="122,11 120,5 122,-1" />
<polygon fill="#001a53" fill-opacity="0.501961" points="205,118 239,143 243,110" />
<polygon fill="#25191f" fill-opacity="0.501961" points="154,71 148,36 143,60" />
<polygon fill="#4e0205" fill-opacity="0.501961" points="128,44 125,31 143,32" />
<polygon fill="#463829" fill-opacity="0.501961" points="157,91 170,85 160,102" />
<polygon fill="#514138" fill-opacity="0.501961" points="110,-12 100,8 111,12" />
<polygon fill="#2f2923" fill-opacity="0.501961" points="200,68 205,78 205,53" />
<polygon fill="#160506" fill-opacity="0.501961" points="188,74 189,55 204,74" />
<polygon fill="#00154d" fill-opacity="0.501961" points="250,114 252,136 243,125" />
<polygon fill="#695f53" fill-opacity="0.501961" points="160,4 169,9 173,25" />
<polygon fill="#000000" fill-opacity="0.501961" points="253,104 253,160 271,129" />
<polygon fill="#5c6d95" fill-opacity="0.501961" points="148,110 159,110 153,113" />
<polygon fill="#000000" fill-opacity="0.501961" points="207,143 262,160 271,143" />
<polygon fill="#472c11" fill-opacity="0.501961" points="132,92 133,99 125,88" />
<polygon fill="#001754" fill-opacity="0.501961" points="29,110 45,114 34,115" />
<polygon fill="#253976" fill-opacity="0.501961" points="190,117 175,111 211,111" />
<polygon fill="#021b52" fill-opacity="0.501961" points="246,112 238,135 178,112" />
<polygon fill="#0d0406" fill-opacity="0.501961" points="158,54 152,63 159,84" />
<polygon fill="#2c1d14" fill-opacity="0.501961" points="159,7 181,-2 163,-2" />
<polygon fill="#665a54" fill-opacity="0.501961" points="154,0 158,19 161,-15" />
<polygon fill="#3f170f" fill-opacity="0.501961" points="149,17 134,31 163,27" />
<polygon fill="#0d2369" fill-opacity="0.501961" points="187,141 157,123 201,122" />
<polygon fill="#563220" fill-opacity="0.501961" points="179,110 199,109 188,106" />
<polygon fill="#445067" fill-opacity="0.501961" points="107,108 110,110 109,116" />
<polygon fill="#4d0504" fill-opacity="0.501961" points="142,3 135,19 143,20" />
<polygon fill="#220e0d" fill-opacity="0.501961" points="203,93 189,53 202,53" />
<polygon fill="#230d18" fill-opacity="0.501961" points="121,31 132,57 109,28" />
<polygon fill="#665851" fill-opacity="0.501961" points="197,108 172,86 167,108" />
<polygon fill="#170702" fill-opacity="0.501961" points="111,31 104,28 95,32" />
<polygon fill="#261210" fill-opacity="0.501961" points="148,78 161,97 150,46" />
<polygon fill="#3b3d3b" fill-opacity="0.501961" points="131,83 146,67 138,67" />
<polygon fill="#14377c" fill-opacity="0.501961" points="238,115 232,111 251,111" />
<polygon fill="#000000" fill-opacity="0.501961" points="145,20 136,22 137,27" />
<polygon fill="#28192c" fill-opacity="0.501961" points="160,143 70,145 109,160" />
<polygon fill="#531110" fill-opacity="0.501961" points="147,39 134,32 127,39" />
<polygon fill="#575961" fill-opacity="0.501961" points="147,56 143,53 142,62" />
<polygon fill="#001953" fill-opacity="0.501961" points="250,112 201,113 231,142" />
<polygon fill="#22172f" fill-opacity="0.501961" points="147,82 147,104 122,110" />
<polygon fill="#43241b" fill-opacity="0.501961" points="122,13 122,25 115,30" />
<polygon fill="#51473f" fill-opacity="0.501961" points="184,58 188,56 185,71" />
<polygon fill="#6d5b4d" fill-opacity="0.501961" points="158,100 147,111 158,111" />
<polygon fill="#0f2357" fill-opacity="0.501961" points="90,143 91,115 123,114" />
<polygon fill="#0a2767" fill-opacity="0.501961" points="32,111 6,112 7,119" />
<polygon fill="#6d0c06" fill-opacity="0.501961" points="152,18 147,15 153,16" />
<polygon fill="#001750" fill-opacity="0.501961" points="252,143 250,138 235,138" />
<polygon fill="#27150e" fill-opacity="0.501961" points="117,98 93,111 122,109" />
<polygon fill="#736a5d" fill-opacity="0.501961" points="168,19 171,24 166,25" />
<polygon fill="#112f68" fill-opacity="0.501961" points="4,122 9,136 5,143" />
<polygon fill="#001750" fill-opacity="0.501961" points="9,142 6,115 32,112" />
<polygon fill="#510b09" fill-opacity="0.501961" points="145,21 150,3 141,15" />
<polygon fill="#1f3a7b" fill-opacity="0.501961" points="85,111 104,111 99,115" />
<polygon fill="#001a52" fill-opacity="0.501961" points="107,112 54,114 54,130" />
<polygon fill="#170807" fill-opacity="0.501961" points="159,42 165,36 163,18" />
<polygon fill="#524d4e" fill-opacity="0.501961" points="137,52 139,54 139,49" />
<polygon fill="#0e306e" fill-opacity="0.501961" points="208,143 225,138 228,143" />
<polygon fill="#113071" fill-opacity="0.501961" points="252,113 247,130 252,122" />
<polygon fill="#263d6e" fill-opacity="0.501961" points="109,114 107,131 111,127" />
<polygon fill="#001a53" fill-opacity="0.501961" points="103,142 49,119 25,141" />
<polygon fill="#211210" fill-opacity="0.501961" points="95,-2 96,23 90,4" />
<polygon fill="#472214" fill-opacity="0.501961" points="166,111 180,110 173,108" />
<polygon fill="#170f1d" fill-opacity="0.501961" points="202,-16 177,-16 170,15" />
<polygon fill="#68574f" fill-opacity="0.501961" points="145,8 137,-16 151,-16" />
<polygon fill="#1d0b07" fill-opacity="0.501961" points="158,31 165,25 167,17" />
<polygon fill="#1c0b21" fill-opacity="0.501961" points="139,52 150,31 157,33" />
<polygon fill="#2c1813" fill-opacity="0.501961" points="200,100 206,111 204,81" />
<polygon fill="#413427" fill-opacity="0.501961" points="103,103 109,110 112,103" />
<polygon fill="#6b6461" fill-opacity="0.501961" points="145,64 142,62 142,72" />
<polygon fill="#20295b" fill-opacity="0.501961" points="195,112 206,122 171,113" />
<polygon fill="#000000" fill-opacity="0.501961" points="205,76 205,39 271,9" />
<polygon fill="#0f0614" fill-opacity="0.501961" points="137,92 134,87 130,101" />
<polygon fill="#6c5e55" fill-opacity="0.501961" points="108,11 109,17 93,18" />
<polygon fill="#000000" fill-opacity="0.501961" points="206,8 271,5 231,-16" />
<polygon fill="#132f72" fill-opacity="0.501961" points="102,137 83,143 113,143" />
<polygon fill="#091e55" fill-opacity="0.501961" points="121,142 118,120 88,140" />
<polygon fill="#001951" fill-opacity="0.501961" points="229,142 249,122 202,141" />
<polygon fill="#190f21" fill-opacity="0.501961" points="104,71 101,82 130,68" />
<polygon fill="#0b060e" fill-opacity="0.501961" points="93,-16 121,8 120,-6" />
<polygon fill="#442e1f" fill-opacity="0.501961" points="145,97 158,91 148,89" />
<polygon fill="#23182e" fill-opacity="0.501961" points="142,76 110,32 95,60" />
<polygon fill="#100c1a" fill-opacity="0.501961" points="216,33 203,7 216,11" />
<polygon fill="#150c0c" fill-opacity="0.501961" points="174,41 172,36 161,42" />
<polygon fill="#22172d" fill-opacity="0.501961" points="171,46 177,-16 199,45" />
<polygon fill="#170403" fill-opacity="0.501961" points="131,56 136,52 125,55" />
<polygon fill="#1b3881" fill-opacity="0.501961" points="143,117 164,111 121,111" />
<polygon fill="#0c205e" fill-opacity="0.501961" points="101,112 133,122 155,112" />
<polygon fill="#462415" fill-opacity="0.501961" points="102,24 97,32 95,17" />
<polygon fill="#241718" fill-opacity="0.501961" points="121,16 116,17 115,1" />
<polygon fill="#000000" fill-opacity="0.501961" points="4,141 0,82 -16,160" />
<polygon fill="#362b2a" fill-opacity="0.501961" points="160,72 160,80 157,81" />
<polygon fill="#64442e" fill-opacity="0.501961" points="133,96 128,93 130,92" />
<polygon fill="#271712" fill-opacity="0.501961" points="177,47 197,47 190,58" />
<polygon fill="#44392f" fill-opacity="0.501961" points="161,104 167,87 168,109" />
<polygon fill="#3b72e8" fill-opacity="0.501961" points="250,133 248,138 241,138" />
<polygon fill="#0a2a61" fill-opacity="0.501961" points="52,118 50,111 63,110" />
<polygon fill="#23172e" fill-opacity="0.501961" points="124,45 137,90 99,32" />
<polygon fill="#1e0c0a" fill-opacity="0.501961" points="183,53 183,83 172,53" />
<polygon fill="#17090e" fill-opacity="0.501961" points="109,106 91,105 96,111" />
<polygon fill="#280001" fill-opacity="0.501961" points="130,37 132,30 122,37" />
<polygon fill="#615c58" fill-opacity="0.501961" points="135,56 137,59 137,52" />
<polygon fill="#211412" fill-opacity="0.501961" points="203,34 200,-3 216,34" />
<polygon fill="#281811" fill-opacity="0.501961" points="151,48 153,68 157,46" />
<polygon fill="#36251c" fill-opacity="0.501961" points="174,55 179,50 195,53" />
<polygon fill="#001a53" fill-opacity="0.501961" points="199,142 234,113 242,142" />
<polygon fill="#0e2c6b" fill-opacity="0.501961" points="251,135 248,132 253,122" />
<polygon fill="#301d18" fill-opacity="0.501961" points="163,79 196,81 179,75" />
<polygon fill="#001852" fill-opacity="0.501961" points="42,119 42,129 48,138" />
<polygon fill="#060500" fill-opacity="0.501961" points="0,143 15,153 38,143" />
<polygon fill="#55698c" fill-opacity="0.501961" points="46,118 45,122 33,116" />
<polygon fill="#514239" fill-opacity="0.501961" points="189,84 180,85 178,104" />
<polygon fill="#001851" fill-opacity="0.501961" points="88,127 41,113 79,112" />
<polygon fill="#231a34" fill-opacity="0.501961" points="149,34 146,49 153,42" />
<polygon fill="#5a1d0e" fill-opacity="0.501961" points="138,1 133,4 137,-12" />
<polygon fill="#6a4e49" fill-opacity="0.501961" points="136,6 141,-16 162,-16" />
<polygon fill="#100207" fill-opacity="0.501961" points="176,78 167,78 170,54" />
<polygon fill="#001a54" fill-opacity="0.501961" points="205,135 209,114 242,132" />
<polygon fill="#244385" fill-opacity="0.501961" points="110,114 119,111 111,111" />
<polygon fill="#615148" fill-opacity="0.501961" points="151,15 158,5 170,6" />
<polygon fill="#443d3a" fill-opacity="0.501961" points="149,82 148,75 136,69" />
<polygon fill="#00164e" fill-opacity="0.501961" points="252,138 241,119 251,113" />
<polygon fill="#000000" fill-opacity="0.501961" points="15,109 89,21 88,111" />
<polygon fill="#001a52" fill-opacity="0.501961" points="4,142 8,113 51,141" />
<polygon fill="#22172f" fill-opacity="0.501961" points="120,95 94,98 132,61" />
<polygon fill="#0d2263" fill-opacity="0.501961" points="146,132 150,112 109,112" />
<polygon fill="#190d03" fill-opacity="0.501961" points="209,-16 195,8 209,6" />
<polygon fill="#212a5b" fill-opacity="0.501961" points="153,130 149,114 158,124" />
<polygon fill="#1e0f12" fill-opacity="0.501961" points="201,52 161,51 185,45" />
<polygon fill="#000000" fill-opacity="0.501961" points="-8,-16 83,0 0,115" />
<polygon fill="#593224" fill-opacity="0.501961" points="117,21 126,23 134,20" />
<polygon fill="#0e0000" fill-opacity="0.501961" points="134,12 123,-2 133,-3" />
<polygon fill="#081c54" fill-opacity="0.501961" points="154,118 171,122 165,113" />
<polygon fill="#3e2019" fill-opacity="0.501961" points="112,29 130,22 99,23" />
<polygon fill="#5c4633" fill-opacity="0.501961" points="108,19 112,23 119,21" />
<polygon fill="#0d050b" fill-opacity="0.501961" points="111,4 111,20 120,17" />
<polygon fill="#0b2759" fill-opacity="0.501961" points="39,121 43,118 47,118" />
<polygon fill="#241829" fill-opacity="0.501961" points="191,13 179,22 211,21" />
<polygon fill="#63564d" fill-opacity="0.501961" points="162,9 159,10 166,13" />
<polygon fill="#281c2b" fill-opacity="0.501961" points="169,46 198,48 199,31" />
<polygon fill="#412215" fill-opacity="0.501961" points="168,39 172,24 167,26" />
<polygon fill="#0c2365" fill-opacity="0.501961" points="119,142 172,141 126,115" />
<polygon fill="#6c5d55" fill-opacity="0.501961" points="159,2 155,5 159,19" />
<polygon fill="#061a53" fill-opacity="0.501961" points="87,142 110,142 100,131" />
<polygon fill="#1c336a" fill-opacity="0.501961" points="109,127 106,143 111,141" />
<polygon fill="#080706" fill-opacity="0.501961" points="65,143 59,160 28,143" />
<polygon fill="#23182c" fill-opacity="0.501961" points="147,103 148,80 121,110" />
<polygon fill="#401612" fill-opacity="0.501961" points="140,17 152,28 158,20" />
<polygon fill="#2b0008" fill-opacity="0.501961" points="136,32 132,44 139,44" />
<polygon fill="#000000" fill-opacity="0.501961" points="164,0 191,-4 138,-16" />
<polygon fill="#59483d" fill-opacity="0.501961" points="111,-16 100,-16 109,11" />
<polygon fill="#2c2345" fill-opacity="0.501961" points="198,160 163,143 198,143" />
<polygon fill="#04215c" fill-opacity="0.501961" points="4,112 13,133 7,135" />
<polygon fill="#375a9f" fill-opacity="0.501961" points="202,142 200,143 205,143" />
<polygon fill="#65574f" fill-opacity="0.501961" points="148,94 158,110 158,95" />
<polygon fill="#000000" fill-opacity="0.501961" points="267,110 254,-16 213,110" />
<polygon fill="#5d1e1a" fill-opacity="0.501961" points="141,36 146,38 137,40" />
<polygon fill="#211213" fill-opacity="0.501961" points="197,77 206,84 177,83" />
<polygon fill="#442319" fill-opacity="0.501961" points="154,29 152,17 147,30" />
<polygon fill="#6b5c55" fill-opacity="0.501961" points="169,107 179,90 169,87" />
<polygon fill="#641f17" fill-opacity="0.501961" points="135,10 141,4 136,14" />
<polygon fill="#4c4139" fill-opacity="0.501961" points="206,79 203,78 204,68" />
<polygon fill="#513c2d" fill-opacity="0.501961" points="179,84 163,84 175,89" />
<polygon fill="#070c07" fill-opacity="0.501961" points="143,82 142,76 138,77" />
<polygon fill="#22172d" fill-opacity="0.501961" points="125,66 96,82 97,31" />
<polygon fill="#17191c" fill-opacity="0.501961" points="131,70 138,67 135,70" />
<polygon fill="#452c23" fill-opacity="0.501961" points="109,22 100,19 101,16" />
<polygon fill="#180809" fill-opacity="0.501961" points="198,60 203,56 204,78" />
<polygon fill="#120609" fill-opacity="0.501961" points="192,61 188,75 188,57" />
<polygon fill="#214790" fill-opacity="0.501961" points="7,113 4,111 14,111" />
<polygon fill="#201b23" fill-opacity="0.501961" points="144,45 139,55 139,50" />
<polygon fill="#2a1321" fill-opacity="0.501961" points="118,50 127,43 124,38" />
<polygon fill="#578aff" fill-opacity="0.501961" points="242,135 245,130 246,135" />
<polygon fill="#6f5f57" fill-opacity="0.501961" points="169,23 172,21 168,11" />
<polygon fill="#2b1915" fill-opacity="0.501961" points="97,31 90,47 90,8" />
<polygon fill="#1a0c0e" fill-opacity="0.501961" points="96,74 91,63 92,86" />
<polygon fill="#470609" fill-opacity="0.501961" points="157,41 160,38 151,37" />
<polygon fill="#170f21" fill-opacity="0.501961" points="175,2 194,-3 203,16" />
<polygon fill="#32201c" fill-opacity="0.501961" points="117,12 114,17 115,6" />
<polygon fill="#2a3c69" fill-opacity="0.501961" points="154,117 149,112 159,112" />
<polygon fill="#302231" fill-opacity="0.501961" points="97,97 101,83 96,80" />
<polygon fill="#3a1c15" fill-opacity="0.501961" points="194,65 200,62 188,63" />
<polygon fill="#352633" fill-opacity="0.501961" points="121,99 126,98 122,111" />
<polygon fill="#644b45" fill-opacity="0.501961" points="143,9 163,-9 154,-10" />
<polygon fill="#001951" fill-opacity="0.501961" points="6,138 9,112 36,112" />
<polygon fill="#615144" fill-opacity="0.501961" points="161,20 153,19 158,15" />
<polygon fill="#0c2156" fill-opacity="0.501961" points="196,142 205,114 207,141" />
<polygon fill="#3f271b" fill-opacity="0.501961" points="160,0 161,4 172,0" />
<polygon fill="#311712" fill-opacity="0.501961" points="132,22 122,22 120,26" />
<polygon fill="#092866" fill-opacity="0.501961" points="48,118 64,111 45,112" />
<polygon fill="#000000" fill-opacity="0.501961" points="264,26 207,107 206,35" />
<polygon fill="#627494" fill-opacity="0.501961" points="37,122 33,120 43,117" />
<polygon fill="#211215" fill-opacity="0.501961" points="144,54 144,48 164,49" />
<polygon fill="#1d172d" fill-opacity="0.501961" points="133,53 125,51 135,43" />
<polygon fill="#22172d" fill-opacity="0.501961" points="129,110 148,86 147,109" />
<polygon fill="#230105" fill-opacity="0.501961" points="147,19 143,22 153,21" />
<polygon fill="#4a0000" fill-opacity="0.501961" points="138,37 144,31 144,36" />
<polygon fill="#00154a" fill-opacity="0.501961" points="63,112 48,118 48,112" />
<polygon fill="#33272b" fill-opacity="0.501961" points="150,69 145,68 148,50" />
<polygon fill="#674843" fill-opacity="0.501961" points="143,-7 152,-5 135,8" />
<polygon fill="#3d5dad" fill-opacity="0.501961" points="176,112 177,111 173,111" />
<polygon fill="#473d37" fill-opacity="0.501961" points="204,66 203,63 203,67" />
<polygon fill="#475578" fill-opacity="0.501961" points="112,113 109,112 108,109" />
<polygon fill="#050008" fill-opacity="0.501961" points="120,15 117,6 120,7" />
<polygon fill="#695b55" fill-opacity="0.501961" points="182,92 167,93 171,87" />
<polygon fill="#1f050f" fill-opacity="0.501961" points="147,44 138,49 148,36" />
<polygon fill="#0f080e" fill-opacity="0.501961" points="126,87 128,87 127,94" />
<polygon fill="#001a54" fill-opacity="0.501961" points="5,112 25,112 46,140" />
<polygon fill="#532d22" fill-opacity="0.501961" points="127,28 116,28 112,22" />
<polygon fill="#231111" fill-opacity="0.501961" points="161,79 148,80 159,90" />
<polygon fill="#0b1d55" fill-opacity="0.501961" points="103,113 108,142 91,113" />
<polygon fill="#22172c" fill-opacity="0.501961" points="138,96 148,93 121,68" />
<polygon fill="#160b0e" fill-opacity="0.501961" points="126,96 127,100 134,95" />
<polygon fill="#001a52" fill-opacity="0.501961" points="244,113 236,114 246,130" />
<polygon fill="#695d56" fill-opacity="0.501961" points="96,-16 105,-10 99,14" />
<polygon fill="#25110f" fill-opacity="0.501961" points="173,53 172,84 180,80" />
<polygon fill="#1e0e0e" fill-opacity="0.501961" points="91,71 96,55 91,41" />
<polygon fill="#1d0d0d" fill-opacity="0.501961" points="106,100 120,105 120,99" />
<polygon fill="#351913" fill-opacity="0.501961" points="191,67 201,69 191,71" />
<polygon fill="#3c2a1e" fill-opacity="0.501961" points="198,51 189,53 205,54" />
<polygon fill="#6a5a54" fill-opacity="0.501961" points="108,9 99,13 105,18" />
<polygon fill="#1e1328" fill-opacity="0.501961" points="200,18 193,31 182,-3" />
<polygon fill="#000000" fill-opacity="0.501961" points="166,15 164,16 163,15" />
<polygon fill="#293c64" fill-opacity="0.501961" points="91,108 89,121 92,115" />
<polygon fill="#21172f" fill-opacity="0.501961" points="122,90 125,108 136,110" />
<polygon fill="#251511" fill-opacity="0.501961" points="91,4 89,-9 109,-16" />
<polygon fill="#858881" fill-opacity="0.501961" points="140,63 144,64 142,61" />
<polygon fill="#10080e" fill-opacity="0.501961" points="120,20 112,14 120,13" />
<polygon fill="#483b30" fill-opacity="0.501961" points="165,91 160,85 165,101" />
<polygon fill="#1d4792" fill-opacity="0.501961" points="69,111 62,113 57,111" />
<polygon fill="#071c52" fill-opacity="0.501961" points="117,118 111,113 112,134" />
<polygon fill="#0e0308" fill-opacity="0.501961" points="124,-2 125,18 132,19" />
<polygon fill="#102459" fill-opacity="0.501961" points="124,136 116,113 114,141" />
<polygon fill="#001a53" fill-opacity="0.501961" points="83,112 60,112 41,141" />
<polygon fill="#47291f" fill-opacity="0.501961" points="183,108 192,111 198,108" />
<polygon fill="#291510" fill-opacity="0.501961" points="199,92 199,106 206,110" />
<polygon fill="#392719" fill-opacity="0.501961" points="90,98 91,106 93,103" />
</g>
</svg>