<svg xmlns="http://www.w3.org/2000/svg" version="1.1" width="1024" height="580">
<rect x="0" y="0" width="1024" height="580" fill="#10111f" />
<g transform="scale(4.000000) translate(0.5 0.5)">
<polygon fill="#063597" fill-opacity="0.501961" points="271,112 111,160 -16,111" />
<polygon fill="#000000" fill-opacity="0.501961" points="107,-16 270,142 259,-14" />
<polygon fill="#5b442d" fill-opacity="0.501961" points="169,21 50,20 164,69" />
<polygon fill="#003095" fill-opacity="0.501961" points="263,117 249,143 169,142" />
<polygon fill="#0b2b6d" fill-opacity="0.501961" points="5,96 114,130 3,160" />
<polygon fill="#1d0e03" fill-opacity="0.501961" points="-16,-13 271,110 32,110" />
<polygon fill="#c3a1a1" fill-opacity="0.501961" points="129,82 115,80 135,71" />
<polygon fill="#000000" fill-opacity="0.501961" points="163,105 271,112 198,-16" />
<polygon fill="#000000" fill-opacity="0.501961" points="177,4 -16,32 8,-16" />
<polygon fill="#321e19" fill-opacity="0.501961" points="95,95 16,65 177,44" />
<polygon fill="#5d4f44" fill-opacity="0.501961" points="152,113 168,101 165,61" />
<polygon fill="#4d6fac" fill-opacity="0.501961" points="4,98 26,97 17,111" />
<polygon fill="#5e6c8b" fill-opacity="0.501961" points="40,117 77,124 84,113" />
<polygon fill="#000000" fill-opacity="0.501961" points="5,-16 29,97 -16,97" />
<polygon fill="#ff9b6d" fill-opacity="0.501961" points="141,52 137,61 144,61" />
<polygon fill="#376cd5" fill-opacity="0.501961" points="246,132 235,125 246,143" />
<polygon fill="#000000" fill-opacity="0.501961" points="130,-6 271,129 259,-16" />
<polygon fill="#00144f" fill-opacity="0.501961" points="7,117 7,155 128,128" />
<polygon fill="#00144d" fill-opacity="0.501961" points="158,112 257,112 219,160" />
<polygon fill="#413931" fill-opacity="0.501961" points="101,30 18,32 53,18" />
<polygon fill="#000000" fill-opacity="0.501961" points="156,-16 -11,5 127,24" />
<polygon fill="#000000" fill-opacity="0.501961" points="175,-16 174,109 271,110" />
<polygon fill="#64748f" fill-opacity="0.501961" points="62,122 35,121 39,114" />
<polygon fill="#66a8ff" fill-opacity="0.501961" points="243,133 246,130 250,138" />
<polygon fill="#49423d" fill-opacity="0.501961" points="102,42 169,44 156,19" />
<polygon fill="#000000" fill-opacity="0.501961" points="3,64 -16,91 4,159" />
<polygon fill="#000000" fill-opacity="0.501961" points="254,109 271,151 252,153" />
<polygon fill="#201626" fill-opacity="0.501961" points="157,103 109,73 53,111" />
<polygon fill="#213877" fill-opacity="0.501961" points="56,111 103,125 122,110" />
<polygon fill="#00174f" fill-opacity="0.501961" points="36,137 59,151 63,110" />
<polygon fill="#070104" fill-opacity="0.501961" points="164,90 141,72 151,40" />
<polygon fill="#2e3f6e" fill-opacity="0.501961" points="154,160 157,101 168,141" />
<polygon fill="#a38b8f" fill-opacity="0.501961" points="119,83 130,80 132,70" />
<polygon fill="#1b0a07" fill-opacity="0.501961" points="67,51 152,45 126,65" />
<polygon fill="#08080e" fill-opacity="0.501961" points="29,33 104,54 104,32" />
<polygon fill="#190e21" fill-opacity="0.501961" points="123,59 150,96 149,61" />
<polygon fill="#48403b" fill-opacity="0.501961" points="95,21 124,29 123,54" />
<polygon fill="#473329" fill-opacity="0.501961" points="115,63 122,85 109,92" />
<polygon fill="#442c15" fill-opacity="0.501961" points="120,97 134,108 152,101" />
<polygon fill="#9ba7b8" fill-opacity="0.501961" points="72,115 63,115 77,121" />
<polygon fill="#001c57" fill-opacity="0.501961" points="27,96 48,150 6,142" />
<polygon fill="#2f1600" fill-opacity="0.501961" points="155,160 208,143 92,143" />
<polygon fill="#0f0819" fill-opacity="0.501961" points="84,72 29,109 119,110" />
<polygon fill="#000000" fill-opacity="0.501961" points="170,110 247,-16 271,110" />
<polygon fill="#001850" fill-opacity="0.501961" points="164,113 251,141 174,142" />
<polygon fill="#050301" fill-opacity="0.501961" points="34,42 -5,-16 7,105" />
<polygon fill="#011f59" fill-opacity="0.501961" points="238,110 257,110 229,146" />
<polygon fill="#302013" fill-opacity="0.501961" points="116,54 21,58 55,84" />
<polygon fill="#70809c" fill-opacity="0.501961" points="11,109 24,100 9,100" />
<polygon fill="#423933" fill-opacity="0.501961" points="168,76 142,27 166,33" />
<polygon fill="#0e0000" fill-opacity="0.501961" points="20,143 64,157 101,143" />
<polygon fill="#23120c" fill-opacity="0.501961" points="176,14 173,29 130,15" />
<polygon fill="#9f847d" fill-opacity="0.501961" points="125,72 128,83 133,76" />
<polygon fill="#011d58" fill-opacity="0.501961" points="7,107 3,160 30,109" />
<polygon fill="#000000" fill-opacity="0.501961" points="12,-16 146,7 -13,22" />
<polygon fill="#000000" fill-opacity="0.501961" points="-16,98 4,110 2,160" />
<polygon fill="#26140b" fill-opacity="0.501961" points="91,23 60,15 117,14" />
<polygon fill="#72829d" fill-opacity="0.501961" points="38,118 46,122 46,115" />
<polygon fill="#000000" fill-opacity="0.501961" points="271,4 175,-16 174,107" />
<polygon fill="#4a4037" fill-opacity="0.501961" points="155,88 156,111 165,87" />
<polygon fill="#414b73" fill-opacity="0.501961" points="173,142 164,160 99,142" />
<polygon fill="#012161" fill-opacity="0.501961" points="30,103 31,96 8,98" />
<polygon fill="#ffd490" fill-opacity="0.501961" points="138,61 141,54 142,59" />
<polygon fill="#1a0e13" fill-opacity="0.501961" points="120,50 156,69 122,72" />
<polygon fill="#1a120d" fill-opacity="0.501961" points="75,14 10,36 31,14" />
<polygon fill="#48403a" fill-opacity="0.501961" points="113,30 85,22 67,32" />
<polygon fill="#030005" fill-opacity="0.501961" points="41,110 31,108 29,78" />
<polygon fill="#1d0c07" fill-opacity="0.501961" points="144,17 106,14 121,26" />
<polygon fill="#001951" fill-opacity="0.501961" points="80,140 108,119 31,128" />
<polygon fill="#1c0f0a" fill-opacity="0.501961" points="157,143 101,160 65,143" />
<polygon fill="#000000" fill-opacity="0.501961" points="253,89 253,160 268,114" />
<polygon fill="#1f3d79" fill-opacity="0.501961" points="31,111 5,112 4,104" />
<polygon fill="#030000" fill-opacity="0.501961" points="58,93 48,81 75,81" />
<polygon fill="#364c78" fill-opacity="0.501961" points="74,122 98,119 78,116" />
<polygon fill="#010000" fill-opacity="0.501961" points="-8,28 -2,97 25,97" />
<polygon fill="#070200" fill-opacity="0.501961" points="31,160 64,143 -16,143" />
<polygon fill="#000000" fill-opacity="0.501961" points="149,85 161,88 160,63" />
<polygon fill="#001a5d" fill-opacity="0.501961" points="10,100 7,112 5,94" />
<polygon fill="#190a01" fill-opacity="0.501961" points="177,51 168,23 167,79" />
<polygon fill="#0b0a0c" fill-opacity="0.501961" points="9,24 3,50 98,51" />
<polygon fill="#072767" fill-opacity="0.501961" points="252,138 252,112 237,111" />
<polygon fill="#384f7b" fill-opacity="0.501961" points="93,118 113,115 110,122" />
<polygon fill="#190f0b" fill-opacity="0.501961" points="133,50 126,57 128,26" />
<polygon fill="#000000" fill-opacity="0.501961" points="119,-16 220,15 73,12" />
<polygon fill="#233970" fill-opacity="0.501961" points="162,118 137,111 165,110" />
<polygon fill="#011958" fill-opacity="0.501961" points="118,130 151,112 109,113" />
<polygon fill="#131014" fill-opacity="0.501961" points="97,46 44,44 64,27" />
<polygon fill="#210a05" fill-opacity="0.501961" points="156,66 151,44 135,47" />
<polygon fill="#321c1f" fill-opacity="0.501961" points="141,72 129,84 145,56" />
<polygon fill="#03235f" fill-opacity="0.501961" points="244,141 254,144 251,134" />
<polygon fill="#8f9bb0" fill-opacity="0.501961" points="64,116 67,119 65,122" />
<polygon fill="#251412" fill-opacity="0.501961" points="164,86 172,71 172,110" />
<polygon fill="#7b8483" fill-opacity="0.501961" points="111,90 114,87 112,88" />
<polygon fill="#0f0916" fill-opacity="0.501961" points="42,110 53,84 5,68" />
<polygon fill="#001850" fill-opacity="0.501961" points="82,140 73,140 78,118" />
<polygon fill="#130c1a" fill-opacity="0.501961" points="134,93 118,105 119,80" />
<polygon fill="#1f1812" fill-opacity="0.501961" points="15,39 25,22 21,57" />
<polygon fill="#402b1e" fill-opacity="0.501961" points="47,73 73,73 47,81" />
<polygon fill="#0a215d" fill-opacity="0.501961" points="101,142 175,117 85,120" />
<polygon fill="#443e38" fill-opacity="0.501961" points="155,63 166,58 157,39" />
<polygon fill="#00154b" fill-opacity="0.501961" points="10,130 44,112 5,112" />
<polygon fill="#000c49" fill-opacity="0.501961" points="50,113 61,118 57,119" />
<polygon fill="#001952" fill-opacity="0.501961" points="251,125 175,112 220,142" />
<polygon fill="#443b37" fill-opacity="0.501961" points="127,50 126,28 105,41" />
<polygon fill="#342417" fill-opacity="0.501961" points="105,59 68,74 91,75" />
<polygon fill="#0e0915" fill-opacity="0.501961" points="118,101 97,76 68,75" />
<polygon fill="#66a1ff" fill-opacity="0.501961" points="249,133 242,133 243,138" />
<polygon fill="#000f4c" fill-opacity="0.501961" points="62,112 71,115 80,113" />
<polygon fill="#0f0c1d" fill-opacity="0.501961" points="151,83 132,58 123,67" />
<polygon fill="#7987a3" fill-opacity="0.501961" points="51,115 49,117 52,121" />
<polygon fill="#000000" fill-opacity="0.501961" points="205,160 173,144 264,143" />
<polygon fill="#3a231b" fill-opacity="0.501961" points="123,76 109,66 109,89" />
<polygon fill="#54474d" fill-opacity="0.501961" points="130,70 129,78 123,75" />
<polygon fill="#0e060c" fill-opacity="0.501961" points="115,56 105,53 107,83" />
<polygon fill="#403630" fill-opacity="0.501961" points="97,20 117,44 116,21" />
<polygon fill="#102e69" fill-opacity="0.501961" points="30,118 29,96 21,108" />
<polygon fill="#00114d" fill-opacity="0.501961" points="57,119 63,127 61,114" />
<polygon fill="#0a2968" fill-opacity="0.501961" points="41,135 19,142 63,143" />
<polygon fill="#3d3530" fill-opacity="0.501961" points="48,22 47,32 69,24" />
<polygon fill="#2b150c" fill-opacity="0.501961" points="121,62 136,49 104,49" />
<polygon fill="#00194f" fill-opacity="0.501961" points="31,142 49,142 39,118" />
<polygon fill="#160a09" fill-opacity="0.501961" points="175,106 169,100 159,107" />
<polygon fill="#0b0a0f" fill-opacity="0.501961" points="105,34 90,32 101,50" />
<polygon fill="#28140c" fill-opacity="0.501961" points="153,110 139,108 156,86" />
<polygon fill="#4b4c52" fill-opacity="0.501961" points="107,81 100,81 101,84" />
<polygon fill="#133982" fill-opacity="0.501961" points="4,124 4,137 7,127" />
<polygon fill="#170f1b" fill-opacity="0.501961" points="97,106 102,78 27,111" />
<polygon fill="#00174f" fill-opacity="0.501961" points="67,140 73,128 69,117" />
<polygon fill="#334d8d" fill-opacity="0.501961" points="170,110 177,112 165,112" />
<polygon fill="#000000" fill-opacity="0.501961" points="152,88 151,68 161,65" />
<polygon fill="#1e140e" fill-opacity="0.501961" points="33,53 51,78 17,72" />
<polygon fill="#000000" fill-opacity="0.501961" points="3,154 3,72 -16,113" />
<polygon fill="#443b37" fill-opacity="0.501961" points="166,32 131,22 139,44" />
<polygon fill="#001553" fill-opacity="0.501961" points="79,112 108,113 90,118" />
<polygon fill="#170f1d" fill-opacity="0.501961" points="138,84 49,105 112,109" />
<polygon fill="#000000" fill-opacity="0.501961" points="245,34 256,135 271,41" />
<polygon fill="#1a2a59" fill-opacity="0.501961" points="125,123 122,133 152,129" />
<polygon fill="#432e1e" fill-opacity="0.501961" points="125,105 147,106 142,99" />
<polygon fill="#001850" fill-opacity="0.501961" points="187,119 252,130 249,112" />
<polygon fill="#311e14" fill-opacity="0.501961" points="48,51 50,71 68,51" />
<polygon fill="#61728f" fill-opacity="0.501961" points="10,104 22,101 25,107" />
<polygon fill="#000b46" fill-opacity="0.501961" points="50,117 47,116 46,117" />
<polygon fill="#080201" fill-opacity="0.501961" points="20,19 48,12 68,20" />
<polygon fill="#0d2b69" fill-opacity="0.501961" points="239,143 223,136 202,143" />
<polygon fill="#39231c" fill-opacity="0.501961" points="108,66 121,64 119,84" />
<polygon fill="#0d2658" fill-opacity="0.501961" points="18,109 23,111 16,103" />
<polygon fill="#27221e" fill-opacity="0.501961" points="29,31 66,21 27,21" />
<polygon fill="#000000" fill-opacity="0.501961" points="271,110 174,14 176,109" />
<polygon fill="#00195a" fill-opacity="0.501961" points="103,129 110,131 106,114" />
<polygon fill="#001952" fill-opacity="0.501961" points="181,114 243,141 169,142" />
<polygon fill="#170f1b" fill-opacity="0.501961" points="74,109 115,85 75,82" />
<polygon fill="#aab4c5" fill-opacity="0.501961" points="10,105 15,103 14,102" />
<polygon fill="#170f1d" fill-opacity="0.501961" points="27,96 41,86 67,107" />
<polygon fill="#160e20" fill-opacity="0.501961" points="149,103 125,87 140,72" />
<polygon fill="#443a33" fill-opacity="0.501961" points="166,99 155,109 164,71" />
<polygon fill="#030100" fill-opacity="0.501961" points="0,12 -16,99 15,95" />
<polygon fill="#190e0f" fill-opacity="0.501961" points="176,29 169,50 167,22" />
<polygon fill="#342220" fill-opacity="0.501961" points="110,73 126,79 111,62" />
<polygon fill="#000000" fill-opacity="0.501961" points="32,103 30,111 42,103" />
<polygon fill="#0a071a" fill-opacity="0.501961" points="105,64 119,63 111,57" />
<polygon fill="#4e443e" fill-opacity="0.501961" points="117,82 119,89 114,81" />
<polygon fill="#513d1d" fill-opacity="0.501961" points="143,68 137,67 141,63" />
<polygon fill="#0d245a" fill-opacity="0.501961" points="173,112 174,125 145,112" />
<polygon fill="#110a14" fill-opacity="0.501961" points="132,71 143,64 113,62" />
<polygon fill="#001a53" fill-opacity="0.501961" points="58,143 5,127 29,114" />
<polygon fill="#0b0404" fill-opacity="0.501961" points="-2,73 46,47 13,45" />
<polygon fill="#7e8da6" fill-opacity="0.501961" points="72,121 76,115 75,121" />
<polygon fill="#040003" fill-opacity="0.501961" points="68,28 61,31 69,39" />
<polygon fill="#143374" fill-opacity="0.501961" points="17,139 22,143 6,143" />
<polygon fill="#7584a3" fill-opacity="0.501961" points="104,120 103,116 105,117" />
<polygon fill="#676361" fill-opacity="0.501961" points="103,78 105,79 104,82" />
<polygon fill="#102e6d" fill-opacity="0.501961" points="252,143 238,143 252,137" />
<polygon fill="#150f14" fill-opacity="0.501961" points="97,78 91,92 108,74" />
<polygon fill="#001952" fill-opacity="0.501961" points="4,142 95,141 5,117" />
<polygon fill="#071f5e" fill-opacity="0.501961" points="131,139 100,117 88,142" />
<polygon fill="#463d39" fill-opacity="0.501961" points="73,24 95,31 70,30" />
<polygon fill="#bea4ab" fill-opacity="0.501961" points="128,80 121,81 125,77" />
<polygon fill="#021c54" fill-opacity="0.501961" points="44,132 49,117 57,138" />
<polygon fill="#130908" fill-opacity="0.501961" points="178,107 168,111 159,103" />
<polygon fill="#001a54" fill-opacity="0.501961" points="97,125 41,138 65,122" />
<polygon fill="#151317" fill-opacity="0.501961" points="96,33 99,46 57,39" />
<polygon fill="#0f2a67" fill-opacity="0.501961" points="92,143 55,143 72,135" />
<polygon fill="#a7b3c2" fill-opacity="0.501961" points="41,117 43,120 43,116" />
<polygon fill="#3a2d23" fill-opacity="0.501961" points="167,43 161,67 168,90" />
<polygon fill="#001951" fill-opacity="0.501961" points="87,142 30,140 78,123" />
<polygon fill="#000000" fill-opacity="0.501961" points="156,-7 271,132 271,-2" />
<polygon fill="#584646" fill-opacity="0.501961" points="126,79 130,72 115,79" />
<polygon fill="#0f0806" fill-opacity="0.501961" points="111,75 105,84 107,64" />
<polygon fill="#413934" fill-opacity="0.501961" points="126,46 105,29 106,43" />
<polygon fill="#000000" fill-opacity="0.501961" points="-15,14 179,14 70,-16" />
<polygon fill="#00174f" fill-opacity="0.501961" points="252,143 240,139 250,138" />
<polygon fill="#0b0405" fill-opacity="0.501961" points="22,74 47,77 37,86" />
<polygon fill="#342018" fill-opacity="0.501961" points="118,85 122,74 103,69" />
<polygon fill="#031b59" fill-opacity="0.501961" points="83,117 81,133 95,140" />
<polygon fill="#2d1810" fill-opacity="0.501961" points="116,46 103,51 125,59" />
<polygon fill="#051e5a" fill-opacity="0.501961" points="105,136 101,130 106,116" />
<polygon fill="#170f1d" fill-opacity="0.501961" points="61,110 126,110 97,79" />
<polygon fill="#495e86" fill-opacity="0.501961" points="79,114 85,114 80,117" />
<polygon fill="#1b0e0a" fill-opacity="0.501961" points="56,18 74,23 86,17" />
<polygon fill="#001a53" fill-opacity="0.501961" points="240,136 188,113 242,114" />
<polygon fill="#1a3579" fill-opacity="0.501961" points="40,111 58,112 51,115" />
<polygon fill="#150e1b" fill-opacity="0.501961" points="123,82 118,96 153,98" />
<polygon fill="#3a2a1f" fill-opacity="0.501961" points="173,143 129,143 189,160" />
<polygon fill="#08050e" fill-opacity="0.501961" points="4,73 22,54 21,84" />
<polygon fill="#568cff" fill-opacity="0.501961" points="243,130 248,137 243,133" />
<polygon fill="#435d94" fill-opacity="0.501961" points="155,142 165,142 158,144" />
<polygon fill="#413934" fill-opacity="0.501961" points="167,85 155,93 158,109" />
<polygon fill="#193068" fill-opacity="0.501961" points="167,117 156,124 166,142" />
<polygon fill="#322218" fill-opacity="0.501961" points="67,68 35,58 56,57" />
<polygon fill="#120807" fill-opacity="0.501961" points="152,42 147,61 154,67" />
<polygon fill="#001b53" fill-opacity="0.501961" points="42,120 41,138 47,137" />
<polygon fill="#021a50" fill-opacity="0.501961" points="148,141 151,113 141,119" />
<polygon fill="#0e0708" fill-opacity="0.501961" points="101,80 68,80 80,74" />
<polygon fill="#0a0306" fill-opacity="0.501961" points="70,85 71,93 45,90" />
<polygon fill="#50150e" fill-opacity="0.501961" points="139,50 134,59 144,52" />
<polygon fill="#312218" fill-opacity="0.501961" points="105,58 106,68 81,57" />
<polygon fill="#596c92" fill-opacity="0.501961" points="90,117 86,119 96,118" />
<polygon fill="#001a53" fill-opacity="0.501961" points="54,119 57,135 43,142" />
<polygon fill="#0e050a" fill-opacity="0.501961" points="128,25 117,24 123,19" />
<polygon fill="#433b36" fill-opacity="0.501961" points="131,28 131,44 158,22" />
<polygon fill="#150f21" fill-opacity="0.501961" points="122,66 122,75 137,63" />
<polygon fill="#1e100c" fill-opacity="0.501961" points="65,54 91,54 65,64" />
<polygon fill="#2d1e14" fill-opacity="0.501961" points="24,74 58,68 28,64" />
<polygon fill="#040811" fill-opacity="0.501961" points="167,143 270,143 225,160" />
<polygon fill="#001349" fill-opacity="0.501961" points="25,108 24,101 28,97" />
<polygon fill="#06205c" fill-opacity="0.501961" points="87,115 80,113 73,115" />
<polygon fill="#352c29" fill-opacity="0.501961" points="152,36 156,57 159,24" />
<polygon fill="#4b80fe" fill-opacity="0.501961" points="249,138 243,130 244,136" />
<polygon fill="#2a407c" fill-opacity="0.501961" points="143,143 129,139 126,143" />
<polygon fill="#001952" fill-opacity="0.501961" points="193,140 251,122 231,141" />
<polygon fill="#68799c" fill-opacity="0.501961" points="108,115 107,121 111,119" />
<polygon fill="#ffbf7e" fill-opacity="0.501961" points="142,57 140,55 138,59" />
<polygon fill="#08205d" fill-opacity="0.501961" points="108,114 94,139 110,136" />
<polygon fill="#062059" fill-opacity="0.501961" points="26,107 9,107 17,112" />
<polygon fill="#4a3f32" fill-opacity="0.501961" points="161,102 154,111 160,110" />
<polygon fill="#393a3f" fill-opacity="0.501961" points="112,93 107,86 116,92" />
<polygon fill="#041e5b" fill-opacity="0.501961" points="130,114 111,115 113,130" />
<polygon fill="#06205d" fill-opacity="0.501961" points="98,118 83,113 89,118" />
<polygon fill="#391213" fill-opacity="0.501961" points="134,54 142,49 136,63" />
<polygon fill="#46403c" fill-opacity="0.501961" points="165,82 162,66 166,71" />
<polygon fill="#312118" fill-opacity="0.501961" points="97,72 78,76 78,57" />
<polygon fill="#102457" fill-opacity="0.501961" points="148,142 145,124 119,142" />
<polygon fill="#240e05" fill-opacity="0.501961" points="164,85 147,91 154,85" />
<polygon fill="#140d18" fill-opacity="0.501961" points="51,86 40,106 21,79" />
<polygon fill="#1b1324" fill-opacity="0.501961" points="70,84 86,79 73,79" />
<polygon fill="#17101e" fill-opacity="0.501961" points="148,97 133,71 150,68" />
<polygon fill="#060102" fill-opacity="0.501961" points="127,63 133,56 128,51" />
<polygon fill="#453c36" fill-opacity="0.501961" points="151,23 150,45 138,24" />
<polygon fill="#080400" fill-opacity="0.501961" points="20,143 12,160 6,143" />
<polygon fill="#1c0b06" fill-opacity="0.501961" points="162,62 173,59 172,64" />
<polygon fill="#133373" fill-opacity="0.501961" points="188,140 178,142 186,143" />
<polygon fill="#12347d" fill-opacity="0.501961" points="6,107 4,103 5,100" />
<polygon fill="#7e8ca3" fill-opacity="0.501961" points="49,114 51,117 53,114" />
<polygon fill="#39261a" fill-opacity="0.501961" points="67,83 50,73 69,76" />
<polygon fill="#180b04" fill-opacity="0.501961" points="21,49 14,57 46,56" />
<polygon fill="#2a251e" fill-opacity="0.501961" points="131,36 132,29 127,23" />
<polygon fill="#001a53" fill-opacity="0.501961" points="218,142 164,141 246,113" />
<polygon fill="#0d0709" fill-opacity="0.501961" points="62,40 59,26 64,30" />
<polygon fill="#443b38" fill-opacity="0.501961" points="167,102 157,89 156,99" />
<polygon fill="#1b100c" fill-opacity="0.501961" points="102,23 85,14 132,15" />
<polygon fill="#2d1a12" fill-opacity="0.501961" points="149,53 128,50 148,47" />
<polygon fill="#082360" fill-opacity="0.501961" points="76,115 81,120 79,112" />
<polygon fill="#140d18" fill-opacity="0.501961" points="103,98 116,90 90,95" />
<polygon fill="#1d0d09" fill-opacity="0.501961" points="121,52 136,57 135,45" />
<polygon fill="#180f0e" fill-opacity="0.501961" points="174,31 173,14 145,14" />
<polygon fill="#413933" fill-opacity="0.501961" points="60,32 59,25 50,29" />
<polygon fill="#193274" fill-opacity="0.501961" points="90,142 103,144 97,140" />
<polygon fill="#5387ff" fill-opacity="0.501961" points="243,137 246,134 248,137" />
<polygon fill="#284275" fill-opacity="0.501961" points="4,109 15,109 10,112" />
<polygon fill="#000000" fill-opacity="0.501961" points="31,110 30,98 36,110" />
<polygon fill="#1c3568" fill-opacity="0.501961" points="14,104 17,103 16,102" />
<polygon fill="#3e3732" fill-opacity="0.501961" points="116,23 90,32 64,22" />
<polygon fill="#1d4592" fill-opacity="0.501961" points="234,111 228,111 232,113" />
<polygon fill="#1c3572" fill-opacity="0.501961" points="119,114 134,111 121,110" />
<polygon fill="#071f5e" fill-opacity="0.501961" points="97,142 83,120 107,122" />
<polygon fill="#171613" fill-opacity="0.501961" points="31,23 17,23 20,41" />
<polygon fill="#3b5ba2" fill-opacity="0.501961" points="251,134 252,128 253,133" />
<polygon fill="#000000" fill-opacity="0.501961" points="175,-10 174,104 271,14" />
<polygon fill="#403732" fill-opacity="0.501961" points="166,57 155,64 157,38" />
<polygon fill="#1b120e" fill-opacity="0.501961" points="38,80 33,65 49,74" />
<polygon fill="#020001" fill-opacity="0.501961" points="1,95 32,97 -16,54" />
<polygon fill="#000000" fill-opacity="0.501961" points="271,106 252,160 254,125" />
<polygon fill="#5a6c8f" fill-opacity="0.501961" points="70,119 76,114 72,120" />
<polygon fill="#22469e" fill-opacity="0.501961" points="103,113 110,111 97,111" />
<polygon fill="#362f2b" fill-opacity="0.501961" points="164,34 158,28 168,28" />
<polygon fill="#080207" fill-opacity="0.501961" points="50,84 68,81 51,95" />
<polygon fill="#150e1a" fill-opacity="0.501961" points="108,81 109,92 76,106" />
<polygon fill="#180f0f" fill-opacity="0.501961" points="124,111 148,111 135,106" />
<polygon fill="#1c4594" fill-opacity="0.501961" points="214,111 202,111 209,113" />
<polygon fill="#001950" fill-opacity="0.501961" points="206,112 231,112 226,119" />
<polygon fill="#0f0b0f" fill-opacity="0.501961" points="105,32 89,33 99,55" />
<polygon fill="#2f4f96" fill-opacity="0.501961" points="143,111 137,111 137,113" />
<polygon fill="#373538" fill-opacity="0.501961" points="99,73 96,79 98,78" />
<polygon fill="#4b81ff" fill-opacity="0.501961" points="245,135 244,130 247,133" />
<polygon fill="#3b271c" fill-opacity="0.501961" points="38,67 54,67 52,71" />
<polygon fill="#001a53" fill-opacity="0.501961" points="252,130 244,112 188,112" />
<polygon fill="#01194b" fill-opacity="0.501961" points="249,137 246,148 250,144" />
<polygon fill="#1b3d81" fill-opacity="0.501961" points="28,107 29,103 30,111" />
<polygon fill="#1a100f" fill-opacity="0.501961" points="74,78 70,66 62,67" />
<polygon fill="#0f2557" fill-opacity="0.501961" points="38,109 38,120 40,115" />
<polygon fill="#0d0c21" fill-opacity="0.501961" points="117,143 125,160 69,143" />
<polygon fill="#0f0a0e" fill-opacity="0.501961" points="145,97 149,91 150,109" />
<polygon fill="#170f1c" fill-opacity="0.501961" points="130,61 126,70 149,76" />
<polygon fill="#432e28" fill-opacity="0.501961" points="114,80 119,75 114,88" />
<polygon fill="#041c54" fill-opacity="0.501961" points="155,123 145,112 115,113" />
<polygon fill="#0a0204" fill-opacity="0.501961" points="86,74 100,79 86,79" />
<polygon fill="#5c6e90" fill-opacity="0.501961" points="44,119 44,117 51,118" />
<polygon fill="#123579" fill-opacity="0.501961" points="16,110 22,107 24,110" />
<polygon fill="#150f1a" fill-opacity="0.501961" points="36,88 67,99 24,96" />
<polygon fill="#234288" fill-opacity="0.501961" points="162,111 156,115 146,111" />
<polygon fill="#0a2055" fill-opacity="0.501961" points="165,112 149,113 170,118" />
<polygon fill="#00093a" fill-opacity="0.501961" points="22,109 21,106 23,106" />
<polygon fill="#153575" fill-opacity="0.501961" points="196,140 193,143 203,142" />
<polygon fill="#2e1210" fill-opacity="0.501961" points="134,60 159,64 145,66" />
<polygon fill="#182a5e" fill-opacity="0.501961" points="145,124 125,125 145,132" />
<polygon fill="#001a53" fill-opacity="0.501961" points="175,113 179,142 244,142" />
<polygon fill="#373341" fill-opacity="0.501961" points="100,84 97,82 96,84" />
<polygon fill="#021c5a" fill-opacity="0.501961" points="98,115 90,112 105,113" />
<polygon fill="#001a53" fill-opacity="0.501961" points="7,141 29,113 55,142" />
<polygon fill="#1d0b07" fill-opacity="0.501961" points="171,83 171,86 162,85" />
<polygon fill="#001a56" fill-opacity="0.501961" points="59,121 51,112 58,113" />
<polygon fill="#28130d" fill-opacity="0.501961" points="115,45 117,53 98,57" />
<polygon fill="#3d251e" fill-opacity="0.501961" points="120,66 110,83 121,84" />
<polygon fill="#070509" fill-opacity="0.501961" points="48,50 66,45 78,51" />
<polygon fill="#372519" fill-opacity="0.501961" points="125,98 148,98 142,107" />
<polygon fill="#193b80" fill-opacity="0.501961" points="252,119 252,111 248,111" />
<polygon fill="#001a53" fill-opacity="0.501961" points="243,130 253,113 188,120" />
<polygon fill="#131016" fill-opacity="0.501961" points="89,35 33,40 64,47" />
<polygon fill="#22120a" fill-opacity="0.501961" points="49,57 63,51 31,51" />
<polygon fill="#051c55" fill-opacity="0.501961" points="116,132 153,133 130,139" />
<polygon fill="#271a10" fill-opacity="0.501961" points="97,74 107,76 99,59" />
<polygon fill="#011c59" fill-opacity="0.501961" points="53,117 69,113 55,112" />
<polygon fill="#2c3d74" fill-opacity="0.501961" points="70,142 65,160 77,143" />
<polygon fill="#000000" fill-opacity="0.501961" points="158,65 156,84 151,70" />
<polygon fill="#060207" fill-opacity="0.501961" points="106,64 108,75 109,68" />
<polygon fill="#092157" fill-opacity="0.501961" points="40,115 53,115 42,111" />
<polygon fill="#18101e" fill-opacity="0.501961" points="98,79 82,80 90,95" />
<polygon fill="#433a35" fill-opacity="0.501961" points="104,40 128,48 126,32" />
<polygon fill="#00184b" fill-opacity="0.501961" points="9,100 15,100 19,96" />
<polygon fill="#1d0d05" fill-opacity="0.501961" points="72,95 80,87 82,91" />
<polygon fill="#0c2157" fill-opacity="0.501961" points="173,142 166,139 173,129" />
<polygon fill="#540b11" fill-opacity="0.501961" points="145,57 145,59 142,55" />
<polygon fill="#33508e" fill-opacity="0.501961" points="252,119 252,123 254,124" />
<polygon fill="#011a53" fill-opacity="0.501961" points="76,123 52,142 96,142" />
<polygon fill="#000100" fill-opacity="0.501961" points="271,88 253,122 256,160" />
<polygon fill="#161017" fill-opacity="0.501961" points="62,143 69,160 75,143" />
<polygon fill="#000000" fill-opacity="0.501961" points="4,111 2,153 -15,110" />
<polygon fill="#0c0301" fill-opacity="0.501961" points="105,49 103,46 116,46" />
<polygon fill="#170f1c" fill-opacity="0.501961" points="136,82 147,58 146,95" />
<polygon fill="#000000" fill-opacity="0.501961" points="79,-3 0,28 -16,-1" />
</g>
</svg>