<svg xmlns="http://www.w3.org/2000/svg" version="1.1" width="1024" height="580">
<rect x="0" y="0" width="1024" height="580" fill="#0c0f1c" />
<g transform="scale(4.000000) translate(0.5 0.5)">
<polygon fill="#073796" fill-opacity="0.501961" points="-16,111 271,112 91,160" />
<polygon fill="#003299" fill-opacity="0.501961" points="252,119 251,144 160,142" />
<polygon fill="#0a0000" fill-opacity="0.501961" points="-16,-2 -16,123 271,0" />
<polygon fill="#a68d7e" fill-opacity="0.501961" points="205,97 168,87 234,86" />
<polygon fill="#f5dec4" fill-opacity="0.501961" points="133,64 123,60 128,83" />
<polygon fill="#8293ac" fill-opacity="0.501961" points="41,113 40,150 69,117" />
<polygon fill="#433327" fill-opacity="0.501961" points="135,97 92,-16 88,87" />
<polygon fill="#000000" fill-opacity="0.501961" points="102,111 -16,107 41,-16" />
<polygon fill="#002580" fill-opacity="0.501961" points="78,157 4,119 5,152" />
<polygon fill="#000000" fill-opacity="0.501961" points="202,90 130,109 266,110" />
<polygon fill="#010000" fill-opacity="0.501961" points="271,-1 183,-16 258,122" />
<polygon fill="#69afff" fill-opacity="0.501961" points="247,139 239,135 247,130" />
<polygon fill="#1f0f10" fill-opacity="0.501961" points="164,-16 231,59 84,62" />
<polygon fill="#6f819c" fill-opacity="0.501961" points="70,138 50,114 51,139" />
<polygon fill="#000000" fill-opacity="0.501961" points="82,-16 -16,11 82,108" />
<polygon fill="#c8c6c5" fill-opacity="0.501961" points="179,86 192,89 167,90" />
<polygon fill="#0a0000" fill-opacity="0.501961" points="67,92 197,93 130,111" />
<polygon fill="#9d8b8b" fill-opacity="0.501961" points="119,70 112,83 109,80" />
<polygon fill="#00124c" fill-opacity="0.501961" points="271,112 74,113 99,160" />
<polygon fill="#1e1013" fill-opacity="0.501961" points="115,74 242,48 145,101" />
<polygon fill="#b2b0af" fill-opacity="0.501961" points="197,92 186,87 210,87" />
<polygon fill="#0a0000" fill-opacity="0.501961" points="271,115 183,91 271,90" />
<polygon fill="#413b34" fill-opacity="0.501961" points="87,53 102,8 99,95" />
<polygon fill="#0e0508" fill-opacity="0.501961" points="136,13 101,-16 103,99" />
<polygon fill="#c7b8a4" fill-opacity="0.501961" points="127,60 125,69 138,70" />
<polygon fill="#070000" fill-opacity="0.501961" points="175,143 129,160 69,143" />
<polygon fill="#847e71" fill-opacity="0.501961" points="238,88 229,91 231,86" />
<polygon fill="#000000" fill-opacity="0.501961" points="-2,-16 -16,142 101,-16" />
<polygon fill="#190f14" fill-opacity="0.501961" points="126,45 189,92 138,-7" />
<polygon fill="#060100" fill-opacity="0.501961" points="198,8 254,-16 271,144" />
<polygon fill="#402f22" fill-opacity="0.501961" points="167,82 169,94 125,90" />
<polygon fill="#453f37" fill-opacity="0.501961" points="81,-12 101,25 102,-12" />
<polygon fill="#120a13" fill-opacity="0.501961" points="134,41 271,82 136,88" />
<polygon fill="#000000" fill-opacity="0.501961" points="10,110 115,110 -11,-16" />
<polygon fill="#110a0f" fill-opacity="0.501961" points="197,91 234,41 215,-7" />
<polygon fill="#130f1c" fill-opacity="0.501961" points="107,72 110,25 149,48" />
<polygon fill="#000000" fill-opacity="0.501961" points="200,109 85,110 136,92" />
<polygon fill="#052157" fill-opacity="0.501961" points="98,128 85,118 53,123" />
<polygon fill="#05183f" fill-opacity="0.501961" points="47,137 102,156 -16,158" />
<polygon fill="#001852" fill-opacity="0.501961" points="160,135 50,131 108,117" />
<polygon fill="#4b6083" fill-opacity="0.501961" points="63,122 74,115 78,121" />
<polygon fill="#001951" fill-opacity="0.501961" points="101,114 235,149 248,112" />
<polygon fill="#93a0b3" fill-opacity="0.501961" points="46,122 46,116 38,115" />
<polygon fill="#ffffe5" fill-opacity="0.501961" points="128,63 131,65 120,66" />
<polygon fill="#001856" fill-opacity="0.501961" points="13,126 48,113 3,110" />
<polygon fill="#31180c" fill-opacity="0.501961" points="172,15 189,36 197,-16" />
<polygon fill="#898987" fill-opacity="0.501961" points="212,87 231,87 227,92" />
<polygon fill="#0d0609" fill-opacity="0.501961" points="219,61 247,48 223,92" />
<polygon fill="#000000" fill-opacity="0.501961" points="-16,109 3,159 4,40" />
<polygon fill="#331a0f" fill-opacity="0.501961" points="132,6 155,34 155,-16" />
<polygon fill="#080000" fill-opacity="0.501961" points="215,160 271,143 212,144" />
<polygon fill="#dccbc6" fill-opacity="0.501961" points="116,76 115,79 118,80" />
<polygon fill="#001652" fill-opacity="0.501961" points="18,128 4,142 49,131" />
<polygon fill="#000000" fill-opacity="0.501961" points="160,110 263,108 224,90" />
<polygon fill="#8c8d93" fill-opacity="0.501961" points="126,70 130,74 125,79" />
<polygon fill="#cecfce" fill-opacity="0.501961" points="183,87 182,90 171,87" />
<polygon fill="#1d0f07" fill-opacity="0.501961" points="125,68 122,81 94,51" />
<polygon fill="#000000" fill-opacity="0.501961" points="271,-13 230,-16 256,127" />
<polygon fill="#050000" fill-opacity="0.501961" points="20,160 -16,143 50,143" />
<polygon fill="#68a1ff" fill-opacity="0.501961" points="243,137 248,134 243,131" />
<polygon fill="#120c18" fill-opacity="0.501961" points="159,26 131,75 242,88" />
<polygon fill="#251410" fill-opacity="0.501961" points="104,97 83,74 85,99" />
<polygon fill="#9a9593" fill-opacity="0.501961" points="213,91 213,87 225,86" />
<polygon fill="#00144d" fill-opacity="0.501961" points="4,120 48,122 14,130" />
<polygon fill="#553328" fill-opacity="0.501961" points="187,95 166,91 178,90" />
<polygon fill="#160c0f" fill-opacity="0.501961" points="212,87 241,85 197,75" />
<polygon fill="#090200" fill-opacity="0.501961" points="172,29 170,-16 150,41" />
<polygon fill="#1a0d09" fill-opacity="0.501961" points="103,32 83,1 83,28" />
<polygon fill="#f4e2c9" fill-opacity="0.501961" points="133,66 132,62 130,65" />
<polygon fill="#070100" fill-opacity="0.501961" points="-2,143 48,160 109,144" />
<polygon fill="#001851" fill-opacity="0.501961" points="71,140 61,116 81,135" />
<polygon fill="#1e1009" fill-opacity="0.501961" points="93,52 83,16 83,75" />
<polygon fill="#0c0502" fill-opacity="0.501961" points="187,41 212,-16 236,26" />
<polygon fill="#8a98ae" fill-opacity="0.501961" points="49,130 48,126 61,129" />
<polygon fill="#000b47" fill-opacity="0.501961" points="50,114 40,112 41,115" />
<polygon fill="#3e3630" fill-opacity="0.501961" points="90,82 105,94 92,49" />
<polygon fill="#5a6e8e" fill-opacity="0.501961" points="54,134 69,139 68,133" />
<polygon fill="#0c2f6f" fill-opacity="0.501961" points="4,130 13,111 5,111" />
<polygon fill="#c0bfbf" fill-opacity="0.501961" points="204,92 200,88 210,88" />
<polygon fill="#0f0b16" fill-opacity="0.501961" points="198,33 210,90 238,47" />
<polygon fill="#030000" fill-opacity="0.501961" points="204,89 212,105 203,109" />
<polygon fill="#504849" fill-opacity="0.501961" points="124,69 129,67 131,69" />
<polygon fill="#99a5b8" fill-opacity="0.501961" points="53,122 53,115 47,120" />
<polygon fill="#3f3930" fill-opacity="0.501961" points="141,85 126,91 158,91" />
<polygon fill="#000000" fill-opacity="0.501961" points="-16,1 82,92 82,-16" />
<polygon fill="#0f050b" fill-opacity="0.501961" points="118,87 129,87 109,78" />
<polygon fill="#341813" fill-opacity="0.501961" points="233,91 216,97 197,92" />
<polygon fill="#88817f" fill-opacity="0.501961" points="118,83 118,78 111,77" />
<polygon fill="#000000" fill-opacity="0.501961" points="83,-2 72,110 -6,109" />
<polygon fill="#6c7e99" fill-opacity="0.501961" points="39,139 45,138 43,126" />
<polygon fill="#0b2e75" fill-opacity="0.501961" points="34,138 52,143 19,143" />
<polygon fill="#042054" fill-opacity="0.501961" points="56,128 53,128 55,138" />
<polygon fill="#c0c1c1" fill-opacity="0.501961" points="193,91 188,89 196,87" />
<polygon fill="#261711" fill-opacity="0.501961" points="128,98 168,98 169,84" />
<polygon fill="#001750" fill-opacity="0.501961" points="17,119 28,142 42,131" />
<polygon fill="#ffffe5" fill-opacity="0.501961" points="128,63 128,65 130,62" />
<polygon fill="#b2bcca" fill-opacity="0.501961" points="55,125 47,128 49,125" />
<polygon fill="#120d16" fill-opacity="0.501961" points="135,24 142,62 106,59" />
<polygon fill="#080100" fill-opacity="0.501961" points="244,143 207,160 204,143" />
<polygon fill="#351c17" fill-opacity="0.501961" points="192,90 194,97 170,92" />
<polygon fill="#000000" fill-opacity="0.501961" points="271,114 254,145 253,96" />
<polygon fill="#000000" fill-opacity="0.501961" points="219,110 167,96 271,95" />
<polygon fill="#050100" fill-opacity="0.501961" points="134,4 131,38 96,-16" />
<polygon fill="#497eff" fill-opacity="0.501961" points="242,130 247,136 243,138" />
<polygon fill="#1f1a1f" fill-opacity="0.501961" points="195,66 188,74 192,91" />
<polygon fill="#0f0a05" fill-opacity="0.501961" points="222,89 252,64 228,65" />
<polygon fill="#092766" fill-opacity="0.501961" points="252,109 253,141 245,127" />
<polygon fill="#150e17" fill-opacity="0.501961" points="210,52 187,45 198,90" />
<polygon fill="#0c2a63" fill-opacity="0.501961" points="51,110 106,111 77,120" />
<polygon fill="#001953" fill-opacity="0.501961" points="73,142 79,112 189,139" />
<polygon fill="#311d12" fill-opacity="0.501961" points="103,30 101,-1 107,11" />
<polygon fill="#082662" fill-opacity="0.501961" points="148,132 110,143 174,143" />
<polygon fill="#001c56" fill-opacity="0.501961" points="43,140 4,143 27,117" />
<polygon fill="#000000" fill-opacity="0.501961" points="85,98 170,98 129,110" />
<polygon fill="#001951" fill-opacity="0.501961" points="110,142 244,142 216,113" />
<polygon fill="#8e9cb1" fill-opacity="0.501961" points="57,138 60,132 57,132" />
<polygon fill="#140d18" fill-opacity="0.501961" points="153,47 180,90 177,26" />
<polygon fill="#312114" fill-opacity="0.501961" points="124,66 117,75 113,58" />
<polygon fill="#001851" fill-opacity="0.501961" points="6,113 44,112 5,138" />
<polygon fill="#160f19" fill-opacity="0.501961" points="179,76 173,90 173,62" />
<polygon fill="#00154e" fill-opacity="0.501961" points="251,118 252,140 240,115" />
<polygon fill="#000000" fill-opacity="0.501961" points="4,83 -16,106 3,148" />
<polygon fill="#001852" fill-opacity="0.501961" points="55,117 49,113 55,112" />
<polygon fill="#001b51" fill-opacity="0.501961" points="66,128 61,127 61,138" />
<polygon fill="#2a150c" fill-opacity="0.501961" points="157,34 138,-16 138,34" />
<polygon fill="#70819c" fill-opacity="0.501961" points="63,122 51,119 59,117" />
<polygon fill="#3a332d" fill-opacity="0.501961" points="101,2 90,-9 89,15" />
<polygon fill="#3f3831" fill-opacity="0.501961" points="90,28 89,35 101,38" />
<polygon fill="#140d18" fill-opacity="0.501961" points="176,40 194,66 185,91" />
<polygon fill="#797875" fill-opacity="0.501961" points="235,90 234,86 225,89" />
<polygon fill="#050300" fill-opacity="0.501961" points="259,72 229,72 230,88" />
<polygon fill="#211e24" fill-opacity="0.501961" points="133,76 137,69 122,74" />
<polygon fill="#3a3430" fill-opacity="0.501961" points="105,28 96,28 98,1" />
<polygon fill="#457bf7" fill-opacity="0.501961" points="248,133 242,137 244,129" />
<polygon fill="#001a53" fill-opacity="0.501961" points="226,114 249,129 170,141" />
<polygon fill="#1f3967" fill-opacity="0.501961" points="56,129 55,115 53,124" />
<polygon fill="#000000" fill-opacity="0.501961" points="137,110 217,109 175,96" />
<polygon fill="#000105" fill-opacity="0.501961" points="118,77 121,73 129,86" />
<polygon fill="#000d46" fill-opacity="0.501961" points="251,138 245,139 247,141" />
<polygon fill="#8694a9" fill-opacity="0.501961" points="63,115 66,115 68,121" />
<polygon fill="#d8beba" fill-opacity="0.501961" points="115,76 113,75 116,79" />
<polygon fill="#090002" fill-opacity="0.501961" points="92,28 89,13 96,13" />
<polygon fill="#110705" fill-opacity="0.501961" points="160,92 128,101 107,92" />
<polygon fill="#29150d" fill-opacity="0.501961" points="177,-13 176,26 197,37" />
<polygon fill="#1b0b06" fill-opacity="0.501961" points="91,51 102,55 78,57" />
<polygon fill="#8997ad" fill-opacity="0.501961" points="61,130 55,123 60,123" />
<polygon fill="#1a0905" fill-opacity="0.501961" points="111,79 101,85 105,58" />
<polygon fill="#0a0511" fill-opacity="0.501961" points="106,79 107,55 113,74" />
<polygon fill="#1f4897" fill-opacity="0.501961" points="151,111 162,111 157,113" />
<polygon fill="#113070" fill-opacity="0.501961" points="122,143 108,138 92,143" />
<polygon fill="#070706" fill-opacity="0.501961" points="96,160 42,143 150,143" />
<polygon fill="#001952" fill-opacity="0.501961" points="187,142 99,141 144,113" />
<polygon fill="#120a0e" fill-opacity="0.501961" points="105,20 103,60 145,-5" />
<polygon fill="#191116" fill-opacity="0.501961" points="143,52 151,77 113,46" />
<polygon fill="#40382e" fill-opacity="0.501961" points="127,92 110,89 131,87" />
<polygon fill="#00134a" fill-opacity="0.501961" points="46,122 48,119 47,115" />
<polygon fill="#110b0a" fill-opacity="0.501961" points="227,54 238,67 236,90" />
<polygon fill="#7a8aa4" fill-opacity="0.501961" points="63,116 55,119 50,117" />
<polygon fill="#161117" fill-opacity="0.501961" points="119,83 120,88 111,79" />
<polygon fill="#30383d" fill-opacity="0.501961" points="122,85 129,83 131,77" />
<polygon fill="#001b55" fill-opacity="0.501961" points="252,112 172,135 93,112" />
<polygon fill="#a3adc0" fill-opacity="0.501961" points="52,124 54,126 48,125" />
<polygon fill="#b1b6b5" fill-opacity="0.501961" points="216,88 211,88 214,91" />
<polygon fill="#0f0b12" fill-opacity="0.501961" points="210,16 210,91 229,55" />
<polygon fill="#6b7c99" fill-opacity="0.501961" points="76,121 72,119 71,122" />
<polygon fill="#100a15" fill-opacity="0.501961" points="184,76 146,56 133,70" />
<polygon fill="#3f362e" fill-opacity="0.501961" points="156,91 167,83 148,90" />
<polygon fill="#160e16" fill-opacity="0.501961" points="210,85 128,87 135,66" />
<polygon fill="#10090b" fill-opacity="0.501961" points="122,72 105,76 107,70" />
<polygon fill="#371e1d" fill-opacity="0.501961" points="201,92 198,89 188,95" />
<polygon fill="#130901" fill-opacity="0.501961" points="235,34 215,37 215,6" />
<polygon fill="#667896" fill-opacity="0.501961" points="66,133 67,139 63,138" />
<polygon fill="#000000" fill-opacity="0.501961" points="215,109 271,89 252,110" />
<polygon fill="#6f809d" fill-opacity="0.501961" points="67,119 65,119 63,122" />
<polygon fill="#271312" fill-opacity="0.501961" points="208,95 216,95 211,88" />
<polygon fill="#001952" fill-opacity="0.501961" points="57,122 105,140 108,122" />
<polygon fill="#16111a" fill-opacity="0.501961" points="204,88 223,52 211,51" />
<polygon fill="#5f7291" fill-opacity="0.501961" points="68,133 68,135 62,132" />
<polygon fill="#2a1412" fill-opacity="0.501961" points="159,97 162,89 183,94" />
<polygon fill="#000000" fill-opacity="0.501961" points="106,4 131,-16 116,16" />
<polygon fill="#001a53" fill-opacity="0.501961" points="251,116 239,136 206,119" />
<polygon fill="#e6e6e4" fill-opacity="0.501961" points="206,87 209,89 206,90" />
<polygon fill="#000000" fill-opacity="0.501961" points="16,110 125,109 -16,72" />
<polygon fill="#00164e" fill-opacity="0.501961" points="70,121 71,112 67,114" />
<polygon fill="#090508" fill-opacity="0.501961" points="121,84 123,75 129,87" />
<polygon fill="#1a3d78" fill-opacity="0.501961" points="12,159 4,131 3,160" />
<polygon fill="#0d2b63" fill-opacity="0.501961" points="108,110 138,110 120,117" />
<polygon fill="#214a95" fill-opacity="0.501961" points="30,111 24,111 29,113" />
<polygon fill="#001952" fill-opacity="0.501961" points="81,113 68,142 128,112" />
<polygon fill="#100707" fill-opacity="0.501961" points="88,48 81,71 89,87" />
<polygon fill="#1c0a05" fill-opacity="0.501961" points="112,86 103,79 106,90" />
<polygon fill="#120d1b" fill-opacity="0.501961" points="119,54 111,17 108,69" />
<polygon fill="#070306" fill-opacity="0.501961" points="171,32 156,-8 159,33" />
<polygon fill="#001a52" fill-opacity="0.501961" points="19,135 48,131 5,125" />
<polygon fill="#173c84" fill-opacity="0.501961" points="180,111 172,114 163,111" />
<polygon fill="#d9dbd9" fill-opacity="0.501961" points="177,88 176,91 174,89" />
<polygon fill="#242022" fill-opacity="0.501961" points="210,91 214,91 209,89" />
<polygon fill="#001a53" fill-opacity="0.501961" points="104,134 163,112 74,119" />
<polygon fill="#0d2a67" fill-opacity="0.501961" points="207,136 190,143 225,143" />
<polygon fill="#ebefec" fill-opacity="0.501961" points="190,91 187,87 189,87" />
<polygon fill="#00154c" fill-opacity="0.501961" points="183,142 209,134 223,142" />
<polygon fill="#8f9cb2" fill-opacity="0.501961" points="58,138 61,139 58,137" />
<polygon fill="#001a53" fill-opacity="0.501961" points="249,118 198,141 165,112" />
<polygon fill="#87888a" fill-opacity="0.501961" points="129,76 124,77 129,78" />
<polygon fill="#3a3531" fill-opacity="0.501961" points="91,48 101,23 99,51" />
<polygon fill="#0b0403" fill-opacity="0.501961" points="197,38 208,25 170,41" />
<polygon fill="#23130c" fill-opacity="0.501961" points="236,94 225,95 230,90" />
<polygon fill="#020004" fill-opacity="0.501961" points="123,81 124,77 116,73" />
<polygon fill="#183d86" fill-opacity="0.501961" points="195,114 188,111 202,111" />
<polygon fill="#123166" fill-opacity="0.501961" points="47,116 31,111 46,110" />
<polygon fill="#001752" fill-opacity="0.501961" points="34,139 34,143 49,140" />
<polygon fill="#c0c1bf" fill-opacity="0.501961" points="189,91 189,88 187,91" />
<polygon fill="#1e4491" fill-opacity="0.501961" points="80,113 73,111 87,111" />
<polygon fill="#001951" fill-opacity="0.501961" points="136,112 65,112 102,124" />
<polygon fill="#000842" fill-opacity="0.501961" points="53,122 56,124 57,122" />
<polygon fill="#082358" fill-opacity="0.501961" points="54,160 46,151 47,130" />
<polygon fill="#37302c" fill-opacity="0.501961" points="132,89 130,77 126,88" />
<polygon fill="#001951" fill-opacity="0.501961" points="40,133 8,113 39,112" />
<polygon fill="#001a53" fill-opacity="0.501961" points="167,139 244,113 123,112" />
<polygon fill="#afb8c8" fill-opacity="0.501961" points="49,135 52,137 52,135" />
<polygon fill="#21438a" fill-opacity="0.501961" points="13,141 11,143 19,143" />
<polygon fill="#9da9bc" fill-opacity="0.501961" points="56,122 49,116 51,121" />
<polygon fill="#160b07" fill-opacity="0.501961" points="88,11 90,-16 81,-3" />
<polygon fill="#3c3633" fill-opacity="0.501961" points="100,90 91,58 101,59" />
<polygon fill="#000000" fill-opacity="0.501961" points="8,155 -13,140 12,145" />
<polygon fill="#110b17" fill-opacity="0.501961" points="179,86 147,63 130,77" />
<polygon fill="#0d0811" fill-opacity="0.501961" points="231,58 218,57 217,88" />
<polygon fill="#1f0e09" fill-opacity="0.501961" points="195,19 191,40 173,29" />
<polygon fill="#221009" fill-opacity="0.501961" points="101,13 108,17 105,-8" />
<polygon fill="#374e77" fill-opacity="0.501961" points="61,121 64,116 51,122" />
<polygon fill="#120600" fill-opacity="0.501961" points="138,40 158,38 139,29" />
<polygon fill="#193d85" fill-opacity="0.501961" points="8,111 10,114 21,111" />
<polygon fill="#050305" fill-opacity="0.501961" points="252,98 224,28 246,35" />
<polygon fill="#001a52" fill-opacity="0.501961" points="7,112 37,112 16,142" />
<polygon fill="#001952" fill-opacity="0.501961" points="132,140 68,142 72,125" />
<polygon fill="#030606" fill-opacity="0.501961" points="53,105 31,111 75,111" />
<polygon fill="#cdb39f" fill-opacity="0.501961" points="130,69 125,68 123,71" />
<polygon fill="#2f221c" fill-opacity="0.501961" points="105,62 128,67 114,69" />
<polygon fill="#190e08" fill-opacity="0.501961" points="102,99 123,97 93,90" />
<polygon fill="#0d0c1e" fill-opacity="0.501961" points="176,22 175,7 171,14" />
<polygon fill="#402d1f" fill-opacity="0.501961" points="127,74 122,66 120,70" />
<polygon fill="#878887" fill-opacity="0.501961" points="234,87 225,90 226,87" />
<polygon fill="#19387a" fill-opacity="0.501961" points="150,143 161,140 170,143" />
<polygon fill="#001a53" fill-opacity="0.501961" points="244,140 213,113 149,142" />
<polygon fill="#2e2b2a" fill-opacity="0.501961" points="116,77 118,81 121,81" />
<polygon fill="#160f15" fill-opacity="0.501961" points="146,53 122,62 130,31" />
<polygon fill="#000000" fill-opacity="0.501961" points="172,110 222,97 169,95" />
<polygon fill="#1c0e0a" fill-opacity="0.501961" points="102,57 104,29 114,76" />
<polygon fill="#c6beb9" fill-opacity="0.501961" points="194,88 191,90 194,86" />
<polygon fill="#1e1317" fill-opacity="0.501961" points="190,77 222,86 181,86" />
<polygon fill="#0c0810" fill-opacity="0.501961" points="231,89 219,51 230,41" />
<polygon fill="#0d2d6f" fill-opacity="0.501961" points="242,117 250,111 223,111" />
<polygon fill="#001449" fill-opacity="0.501961" points="250,120 246,112 226,112" />
<polygon fill="#0f3073" fill-opacity="0.501961" points="93,111 111,116 127,111" />
<polygon fill="#001953" fill-opacity="0.501961" points="136,113 77,112 93,139" />
<polygon fill="#2b1a15" fill-opacity="0.501961" points="137,3 139,23 152,18" />
<polygon fill="#fee8ce" fill-opacity="0.501961" points="131,64 126,62 126,64" />
<polygon fill="#050000" fill-opacity="0.501961" points="112,31 134,21 133,30" />
<polygon fill="#140e17" fill-opacity="0.501961" points="113,31 166,48 120,63" />
<polygon fill="#23241e" fill-opacity="0.501961" points="215,56 219,51 221,58" />
<polygon fill="#070305" fill-opacity="0.501961" points="194,-6 212,30 197,35" />
<polygon fill="#130c19" fill-opacity="0.501961" points="207,87 167,36 206,65" />
<polygon fill="#2c1612" fill-opacity="0.501961" points="189,91 181,96 172,93" />
<polygon fill="#847a7e" fill-opacity="0.501961" points="114,84 109,79 109,82" />
<polygon fill="#07040e" fill-opacity="0.501961" points="111,73 107,75 108,88" />
<polygon fill="#001952" fill-opacity="0.501961" points="41,140 5,126 6,142" />
<polygon fill="#432827" fill-opacity="0.501961" points="193,87 195,85 192,86" />
<polygon fill="#271f18" fill-opacity="0.501961" points="131,52 125,57 125,49" />
<polygon fill="#35221a" fill-opacity="0.501961" points="174,86 161,83 153,88" />
<polygon fill="#4f505d" fill-opacity="0.501961" points="126,73 130,72 131,76" />
<polygon fill="#001a54" fill-opacity="0.501961" points="123,138 61,131 120,118" />
<polygon fill="#2f200f" fill-opacity="0.501961" points="138,58 145,56 144,50" />
<polygon fill="#cdb8b4" fill-opacity="0.501961" points="115,80 112,76 113,79" />
<polygon fill="#000000" fill-opacity="0.501961" points="156,98 85,98 120,111" />
<polygon fill="#16336f" fill-opacity="0.501961" points="58,143 54,134 49,142" />
<polygon fill="#4b493f" fill-opacity="0.501961" points="237,84 237,91 239,90" />
<polygon fill="#0d0802" fill-opacity="0.501961" points="249,84 248,98 233,94" />
<polygon fill="#18387b" fill-opacity="0.501961" points="252,112 249,118 253,126" />
<polygon fill="#000001" fill-opacity="0.501961" points="271,81 229,85 268,61" />
<polygon fill="#030307" fill-opacity="0.501961" points="212,143 210,153 173,143" />
<polygon fill="#8190a5" fill-opacity="0.501961" points="74,118 76,117 71,117" />
<polygon fill="#00154b" fill-opacity="0.501961" points="251,113 248,129 247,118" />
<polygon fill="#000000" fill-opacity="0.501961" points="253,160 255,100 268,142" />
<polygon fill="#001a54" fill-opacity="0.501961" points="250,135 251,116 236,115" />
<polygon fill="#7686a0" fill-opacity="0.501961" points="44,124 52,127 38,128" />
<polygon fill="#b4b4b3" fill-opacity="0.501961" points="222,87 212,87 220,90" />
<polygon fill="#160b08" fill-opacity="0.501961" points="161,-7 181,-11 160,25" />
<polygon fill="#000000" fill-opacity="0.501961" points="234,-16 271,17 234,39" />
<polygon fill="#001a53" fill-opacity="0.501961" points="153,112 73,114 97,135" />
<polygon fill="#19397b" fill-opacity="0.501961" points="131,143 141,140 150,143" />
<polygon fill="#00164d" fill-opacity="0.501961" points="135,142 128,133 147,141" />
<polygon fill="#100b1b" fill-opacity="0.501961" points="108,52 113,62 110,75" />
<polygon fill="#382d23" fill-opacity="0.501961" points="121,86 101,91 117,92" />
<polygon fill="#173b83" fill-opacity="0.501961" points="225,111 215,114 213,111" />
<polygon fill="#001951" fill-opacity="0.501961" points="223,112 184,112 182,124" />
<polygon fill="#001a54" fill-opacity="0.501961" points="42,113 5,142 6,112" />
<polygon fill="#001a53" fill-opacity="0.501961" points="110,113 202,142 72,141" />
<polygon fill="#0f2d6a" fill-opacity="0.501961" points="220,138 228,143 237,142" />
<polygon fill="#0f0b16" fill-opacity="0.501961" points="185,85 212,70 231,85" />
<polygon fill="#001951" fill-opacity="0.501961" points="246,141 212,132 202,142" />
<polygon fill="#1d100e" fill-opacity="0.501961" points="102,81 103,76 113,79" />
<polygon fill="#000000" fill-opacity="0.501961" points="5,160 3,106 -16,126" />
<polygon fill="#100b16" fill-opacity="0.501961" points="184,82 126,86 157,66" />
<polygon fill="#8f9db3" fill-opacity="0.501961" points="38,121 43,120 44,116" />
<polygon fill="#160f18" fill-opacity="0.501961" points="220,71 217,89 214,70" />
<polygon fill="#151020" fill-opacity="0.501961" points="117,19 108,15 110,21" />
<polygon fill="#130a09" fill-opacity="0.501961" points="83,27 90,23 103,32" />
<polygon fill="#243e6b" fill-opacity="0.501961" points="42,129 50,122 48,119" />
<polygon fill="#040300" fill-opacity="0.501961" points="244,144 261,143 241,160" />
<polygon fill="#1f4084" fill-opacity="0.501961" points="223,143 217,141 212,143" />
<polygon fill="#001950" fill-opacity="0.501961" points="225,135 203,142 227,141" />
<polygon fill="#6d7f9a" fill-opacity="0.501961" points="73,116 74,121 71,122" />
<polygon fill="#d3d2d0" fill-opacity="0.501961" points="206,88 199,90 202,87" />
<polygon fill="#1a0806" fill-opacity="0.501961" points="124,87 109,86 116,84" />
<polygon fill="#2d1e1b" fill-opacity="0.501961" points="223,95 219,94 227,85" />
<polygon fill="#170f1a" fill-opacity="0.501961" points="195,78 195,71 203,87" />
<polygon fill="#30200f" fill-opacity="0.501961" points="195,48 198,55 200,51" />
<polygon fill="#646266" fill-opacity="0.501961" points="130,67 125,67 128,69" />
<polygon fill="#2f5aab" fill-opacity="0.501961" points="19,112 22,111 20,111" />
<polygon fill="#000f49" fill-opacity="0.501961" points="56,139 59,140 58,142" />
<polygon fill="#001a54" fill-opacity="0.501961" points="40,135 8,143 38,117" />
<polygon fill="#000000" fill-opacity="0.501961" points="82,12 79,110 -16,109" />
<polygon fill="#0a0300" fill-opacity="0.501961" points="215,41 237,37 216,31" />
<polygon fill="#001751" fill-opacity="0.501961" points="53,115 63,113 51,112" />
<polygon fill="#37312d" fill-opacity="0.501961" points="90,53 89,85 101,82" />
<polygon fill="#150a04" fill-opacity="0.501961" points="131,7 122,28 122,3" />
<polygon fill="#503f3e" fill-opacity="0.501961" points="174,90 174,93 177,90" />
<polygon fill="#3a332e" fill-opacity="0.501961" points="96,53 89,36 98,36" />
<polygon fill="#331d12" fill-opacity="0.501961" points="179,9 180,22 186,21" />
<polygon fill="#001953" fill-opacity="0.501961" points="67,117 71,119 71,112" />
<polygon fill="#160e19" fill-opacity="0.501961" points="193,58 212,89 216,72" />
<polygon fill="#123781" fill-opacity="0.501961" points="44,111 49,111 48,114" />
<polygon fill="#052054" fill-opacity="0.501961" points="64,113 60,117 64,115" />
<polygon fill="#0b2c6e" fill-opacity="0.501961" points="56,139 68,142 57,143" />
<polygon fill="#615f5d" fill-opacity="0.501961" points="120,82 117,79 115,81" />
<polygon fill="#110d18" fill-opacity="0.501961" points="137,-8 132,-1 136,16" />
<polygon fill="#281613" fill-opacity="0.501961" points="160,94 165,98 178,92" />
<polygon fill="#000000" fill-opacity="0.501961" points="143,62 147,56 145,53" />
<polygon fill="#331a17" fill-opacity="0.501961" points="188,95 200,93 187,91" />
<polygon fill="#21100e" fill-opacity="0.501961" points="161,85 169,94 169,86" />
<polygon fill="#113275" fill-opacity="0.501961" points="55,115 41,111 64,111" />
<polygon fill="#909db2" fill-opacity="0.501961" points="53,115 48,122 51,121" />
<polygon fill="#506586" fill-opacity="0.501961" points="48,138 56,137 54,139" />
<polygon fill="#21130f" fill-opacity="0.501961" points="121,88 115,82 138,87" />
<polygon fill="#1f0e0a" fill-opacity="0.501961" points="140,34 153,17 155,36" />
<polygon fill="#000002" fill-opacity="0.501961" points="120,-3 122,17 106,13" />
<polygon fill="#23151a" fill-opacity="0.501961" points="204,84 205,88 198,81" />
<polygon fill="#617393" fill-opacity="0.501961" points="45,125 48,124 44,127" />
<polygon fill="#140b07" fill-opacity="0.501961" points="228,17 218,36 216,11" />
<polygon fill="#160e08" fill-opacity="0.501961" points="227,69 241,75 241,65" />
</g>
</svg>