<svg xmlns="http://www.w3.org/2000/svg" version="1.1" width="1024" height="580">
<rect x="0" y="0" width="1024" height="580" fill="#0e101d" />
<g transform="scale(4.000000) translate(0.5 0.5)">
<polygon fill="#13439e" fill-opacity="0.501961" points="-16,112 91,160 271,111" />
<polygon fill="#090000" fill-opacity="0.501961" points="0,-16 -16,125 271,1" />
<polygon fill="#7587a0" fill-opacity="0.501961" points="41,142 40,116 127,115" />
<polygon fill="#46372c" fill-opacity="0.501961" points="87,89 91,-16 148,91" />
<polygon fill="#00319a" fill-opacity="0.501961" points="248,119 159,143 257,143" />
<polygon fill="#978273" fill-opacity="0.501961" points="243,87 168,87 204,98" />
<polygon fill="#fffffe" fill-opacity="0.501961" points="127,61 125,71 135,66" />
<polygon fill="#000000" fill-opacity="0.501961" points="148,91 206,112 271,92" />
<polygon fill="#000000" fill-opacity="0.501961" points="109,110 24,-16 -16,110" />
<polygon fill="#030000" fill-opacity="0.501961" points="271,144 256,-16 185,-7" />
<polygon fill="#000e49" fill-opacity="0.501961" points="92,157 271,119 117,110" />
<polygon fill="#002c92" fill-opacity="0.501961" points="4,143 4,123 51,143" />
<polygon fill="#61a6ff" fill-opacity="0.501961" points="246,138 239,134 249,129" />
<polygon fill="#1b0c0a" fill-opacity="0.501961" points="246,-16 104,8 100,78" />
<polygon fill="#a89c97" fill-opacity="0.501961" points="166,90 203,89 180,83" />
<polygon fill="#000000" fill-opacity="0.501961" points="130,90 64,111 193,109" />
<polygon fill="#190c0e" fill-opacity="0.501961" points="133,90 139,-16 265,79" />
<polygon fill="#000000" fill-opacity="0.501961" points="73,111 88,-16 -16,5" />
<polygon fill="#7f8fa7" fill-opacity="0.501961" points="54,133 77,132 58,139" />
<polygon fill="#a39688" fill-opacity="0.501961" points="123,58 135,66 126,81" />
<polygon fill="#8694ac" fill-opacity="0.501961" points="91,122 105,117 70,114" />
<polygon fill="#e4d0cd" fill-opacity="0.501961" points="109,83 116,79 114,75" />
<polygon fill="#00184a" fill-opacity="0.501961" points="105,160 68,160 70,120" />
<polygon fill="#0d0913" fill-opacity="0.501961" points="106,13 165,42 103,72" />
<polygon fill="#8e807a" fill-opacity="0.501961" points="201,85 228,87 205,93" />
<polygon fill="#000000" fill-opacity="0.501961" points="153,110 271,109 210,90" />
<polygon fill="#001350" fill-opacity="0.501961" points="11,137 4,110 52,119" />
<polygon fill="#000000" fill-opacity="0.501961" points="261,149 271,-4 227,-13" />
<polygon fill="#261712" fill-opacity="0.501961" points="145,71 180,97 88,98" />
<polygon fill="#000000" fill-opacity="0.501961" points="7,13 -16,81 3,140" />
<polygon fill="#273f6c" fill-opacity="0.501961" points="90,132 105,121 51,121" />
<polygon fill="#000000" fill-opacity="0.501961" points="254,96 252,158 271,142" />
<polygon fill="#443d36" fill-opacity="0.501961" points="89,66 101,95 99,24" />
<polygon fill="#040000" fill-opacity="0.501961" points="48,144 105,160 126,143" />
<polygon fill="#7889a4" fill-opacity="0.501961" points="105,114 96,121 120,122" />
<polygon fill="#001851" fill-opacity="0.501961" points="107,112 252,114 230,151" />
<polygon fill="#000000" fill-opacity="0.501961" points="95,106 3,-16 -16,111" />
<polygon fill="#341b0d" fill-opacity="0.501961" points="177,37 176,-16 195,23" />
<polygon fill="#140c17" fill-opacity="0.501961" points="185,92 178,46 202,45" />
<polygon fill="#261614" fill-opacity="0.501961" points="134,-16 157,2 135,75" />
<polygon fill="#000c46" fill-opacity="0.501961" points="45,131 52,127 61,132" />
<polygon fill="#110b17" fill-opacity="0.501961" points="128,86 144,37 212,85" />
<polygon fill="#c0c8d3" fill-opacity="0.501961" points="61,119 54,121 58,115" />
<polygon fill="#ffffed" fill-opacity="0.501961" points="133,64 127,65 125,62" />
<polygon fill="#464039" fill-opacity="0.501961" points="99,-11 82,-16 103,28" />
<polygon fill="#001851" fill-opacity="0.501961" points="70,141 235,142 135,113" />
<polygon fill="#110a17" fill-opacity="0.501961" points="201,39 197,94 218,43" />
<polygon fill="#000000" fill-opacity="0.501961" points="172,110 57,109 113,92" />
<polygon fill="#011f5d" fill-opacity="0.501961" points="232,116 252,135 253,111" />
<polygon fill="#0d0103" fill-opacity="0.501961" points="106,95 114,58 103,79" />
<polygon fill="#7686a2" fill-opacity="0.501961" points="68,131 69,124 51,125" />
<polygon fill="#000000" fill-opacity="0.501961" points="-16,72 68,-16 97,25" />
<polygon fill="#110909" fill-opacity="0.501961" points="204,-16 224,97 231,21" />
<polygon fill="#001049" fill-opacity="0.501961" points="45,116 54,118 58,123" />
<polygon fill="#42382d" fill-opacity="0.501961" points="171,94 128,90 151,86" />
<polygon fill="#5d99ff" fill-opacity="0.501961" points="241,137 243,138 244,134" />
<polygon fill="#000000" fill-opacity="0.501961" points="124,75 109,69 128,85" />
<polygon fill="#070000" fill-opacity="0.501961" points="161,143 122,144 178,160" />
<polygon fill="#140c13" fill-opacity="0.501961" points="162,24 125,62 91,55" />
<polygon fill="#001751" fill-opacity="0.501961" points="5,110 8,144 43,131" />
<polygon fill="#020000" fill-opacity="0.501961" points="131,36 131,-14 104,2" />
<polygon fill="#b5b7b8" fill-opacity="0.501961" points="210,88 206,91 196,87" />
<polygon fill="#0f0b16" fill-opacity="0.501961" points="209,93 215,47 236,39" />
<polygon fill="#a2adc0" fill-opacity="0.501961" points="81,130 78,127 82,125" />
<polygon fill="#b5b4b4" fill-opacity="0.501961" points="190,89 180,86 168,90" />
<polygon fill="#7f8ea7" fill-opacity="0.501961" points="90,118 67,115 74,122" />
<polygon fill="#3c1b15" fill-opacity="0.501961" points="182,95 178,94 188,86" />
<polygon fill="#6c7e9a" fill-opacity="0.501961" points="98,128 99,122 90,131" />
<polygon fill="#010000" fill-opacity="0.501961" points="93,110 211,105 152,91" />
<polygon fill="#130d19" fill-opacity="0.501961" points="175,25 153,44 187,92" />
<polygon fill="#0a2459" fill-opacity="0.501961" points="88,123 111,125 92,118" />
<polygon fill="#00003a" fill-opacity="0.501961" points="42,139 56,139 50,142" />
<polygon fill="#000000" fill-opacity="0.501961" points="4,102 3,150 -16,87" />
<polygon fill="#0d0b16" fill-opacity="0.501961" points="117,82 117,86 109,78" />
<polygon fill="#21120d" fill-opacity="0.501961" points="84,55 83,-16 94,19" />
<polygon fill="#00114a" fill-opacity="0.501961" points="65,123 69,119 69,115" />
<polygon fill="#4e86ff" fill-opacity="0.501961" points="244,129 248,138 241,137" />
<polygon fill="#3e2420" fill-opacity="0.501961" points="166,97 158,90 188,91" />
<polygon fill="#40382d" fill-opacity="0.501961" points="103,91 123,86 141,92" />
<polygon fill="#150e17" fill-opacity="0.501961" points="198,91 219,43 188,44" />
<polygon fill="#b1a29d" fill-opacity="0.501961" points="116,75 111,75 118,83" />
<polygon fill="#153161" fill-opacity="0.501961" points="45,114 56,129 51,116" />
<polygon fill="#3b2b1d" fill-opacity="0.501961" points="113,70 129,68 111,60" />
<polygon fill="#100602" fill-opacity="0.501961" points="77,80 89,102 88,37" />
<polygon fill="#d1dadc" fill-opacity="0.501961" points="219,89 212,87 216,90" />
<polygon fill="#010000" fill-opacity="0.501961" points="256,110 193,110 204,90" />
<polygon fill="#001750" fill-opacity="0.501961" points="250,131 189,112 244,112" />
<polygon fill="#607493" fill-opacity="0.501961" points="46,115 46,128 41,116" />
<polygon fill="#415880" fill-opacity="0.501961" points="74,139 65,139 74,126" />
<polygon fill="#190c09" fill-opacity="0.501961" points="118,70 104,47 101,85" />
<polygon fill="#000000" fill-opacity="0.501961" points="83,89 82,-3 -16,0" />
<polygon fill="#281f22" fill-opacity="0.501961" points="129,75 119,72 132,71" />
<polygon fill="#b5becb" fill-opacity="0.501961" points="113,118 110,115 107,119" />
<polygon fill="#001954" fill-opacity="0.501961" points="35,113 3,111 40,139" />
<polygon fill="#001252" fill-opacity="0.501961" points="103,111 99,113 109,116" />
<polygon fill="#331713" fill-opacity="0.501961" points="197,94 217,90 230,97" />
<polygon fill="#152f60" fill-opacity="0.501961" points="72,148 68,123 77,121" />
<polygon fill="#001b54" fill-opacity="0.501961" points="115,112 237,113 123,143" />
<polygon fill="#eddac0" fill-opacity="0.501961" points="129,62 125,68 123,64" />
<polygon fill="#7c807d" fill-opacity="0.501961" points="221,90 231,87 241,90" />
<polygon fill="#020100" fill-opacity="0.501961" points="235,90 271,35 235,-16" />
<polygon fill="#001951" fill-opacity="0.501961" points="48,122 29,113 14,126" />
<polygon fill="#1c489f" fill-opacity="0.501961" points="203,111 216,111 210,113" />
<polygon fill="#2e180e" fill-opacity="0.501961" points="155,-16 135,18 154,34" />
<polygon fill="#b5bfcc" fill-opacity="0.501961" points="41,136 43,136 41,132" />
<polygon fill="#000000" fill-opacity="0.501961" points="271,92 253,155 253,105" />
<polygon fill="#050204" fill-opacity="0.501961" points="176,27 155,-12 159,38" />
<polygon fill="#423d37" fill-opacity="0.501961" points="100,33 90,31 93,47" />
<polygon fill="#73849f" fill-opacity="0.501961" points="46,127 41,121 40,131" />
<polygon fill="#040000" fill-opacity="0.501961" points="243,143 193,143 205,160" />
<polygon fill="#0e0705" fill-opacity="0.501961" points="246,41 206,-16 243,99" />
<polygon fill="#312115" fill-opacity="0.501961" points="116,72 114,63 127,67" />
<polygon fill="#140e19" fill-opacity="0.501961" points="174,38 139,77 126,44" />
<polygon fill="#140e18" fill-opacity="0.501961" points="178,88 184,43 230,48" />
<polygon fill="#060100" fill-opacity="0.501961" points="216,100 229,102 224,88" />
<polygon fill="#092760" fill-opacity="0.501961" points="63,118 67,110 84,110" />
<polygon fill="#001650" fill-opacity="0.501961" points="90,130 70,142 132,142" />
<polygon fill="#001952" fill-opacity="0.501961" points="103,121 135,127 91,136" />
<polygon fill="#072359" fill-opacity="0.501961" points="84,142 92,141 84,116" />
<polygon fill="#5d6f90" fill-opacity="0.501961" points="61,134 49,138 73,139" />
<polygon fill="#3d3630" fill-opacity="0.501961" points="104,92 95,57 89,82" />
<polygon fill="#0d2c6d" fill-opacity="0.501961" points="253,119 251,134 247,132" />
<polygon fill="#7b8ba5" fill-opacity="0.501961" points="88,116 88,121 105,120" />
<polygon fill="#56698c" fill-opacity="0.501961" points="87,125 100,124 88,130" />
<polygon fill="#001a53" fill-opacity="0.501961" points="226,113 124,140 245,142" />
<polygon fill="#5b626d" fill-opacity="0.501961" points="129,73 127,78 129,84" />
<polygon fill="#000000" fill-opacity="0.501961" points="92,107 -9,-16 4,110" />
<polygon fill="#281611" fill-opacity="0.501961" points="165,101 171,83 158,84" />
<polygon fill="#001951" fill-opacity="0.501961" points="37,118 42,132 16,127" />
<polygon fill="#000000" fill-opacity="0.501961" points="169,95 172,110 216,95" />
<polygon fill="#0c080f" fill-opacity="0.501961" points="211,87 236,74 240,33" />
<polygon fill="#422d2b" fill-opacity="0.501961" points="182,94 173,89 176,93" />
<polygon fill="#190c08" fill-opacity="0.501961" points="121,96 86,100 80,86" />
<polygon fill="#0f316b" fill-opacity="0.501961" points="6,110 4,119 16,110" />
<polygon fill="#103271" fill-opacity="0.501961" points="98,143 124,143 109,138" />
<polygon fill="#fff5d9" fill-opacity="0.501961" points="131,66 124,64 131,63" />
<polygon fill="#060301" fill-opacity="0.501961" points="195,-16 196,40 231,-16" />
<polygon fill="#070200" fill-opacity="0.501961" points="59,143 77,160 140,143" />
<polygon fill="#12377c" fill-opacity="0.501961" points="121,115 113,111 133,111" />
<polygon fill="#110809" fill-opacity="0.501961" points="109,86 132,87 126,82" />
<polygon fill="#27140d" fill-opacity="0.501961" points="195,38 173,25 192,-16" />
<polygon fill="#000c45" fill-opacity="0.501961" points="64,130 59,132 67,132" />
<polygon fill="#00194e" fill-opacity="0.501961" points="70,130 80,155 69,142" />
<polygon fill="#000000" fill-opacity="0.501961" points="260,94 245,110 188,97" />
<polygon fill="#1e0f07" fill-opacity="0.501961" points="222,94 248,95 253,85" />
<polygon fill="#3c362f" fill-opacity="0.501961" points="89,13 99,13 91,-8" />
<polygon fill="#3e3832" fill-opacity="0.501961" points="103,28 100,11 95,26" />
<polygon fill="#dee3e1" fill-opacity="0.501961" points="188,87 194,88 186,89" />
<polygon fill="#221f1f" fill-opacity="0.501961" points="192,89 190,80 194,70" />
<polygon fill="#001950" fill-opacity="0.501961" points="10,124 6,137 48,142" />
<polygon fill="#627494" fill-opacity="0.501961" points="74,130 72,124 75,123" />
<polygon fill="#001952" fill-opacity="0.501961" points="120,141 146,114 115,112" />
<polygon fill="#000a48" fill-opacity="0.501961" points="49,118 47,112 42,113" />
<polygon fill="#001850" fill-opacity="0.501961" points="81,142 134,142 90,129" />
<polygon fill="#787874" fill-opacity="0.501961" points="117,78 117,81 119,82" />
<polygon fill="#261105" fill-opacity="0.501961" points="101,10 107,24 106,-11" />
<polygon fill="#130e18" fill-opacity="0.501961" points="137,20 135,59 102,66" />
<polygon fill="#c1aeab" fill-opacity="0.501961" points="113,84 112,81 111,83" />
<polygon fill="#0c2c69" fill-opacity="0.501961" points="123,143 134,137 152,142" />
<polygon fill="#acadac" fill-opacity="0.501961" points="225,90 213,88 221,87" />
<polygon fill="#120b0a" fill-opacity="0.501961" points="241,58 223,90 220,79" />
<polygon fill="#001851" fill-opacity="0.501961" points="151,141 108,142 99,123" />
<polygon fill="#0d2b63" fill-opacity="0.501961" points="105,116 119,111 90,110" />
<polygon fill="#94a0b5" fill-opacity="0.501961" points="68,126 63,124 67,127" />
<polygon fill="#0a0508" fill-opacity="0.501961" points="92,29 113,35 133,29" />
<polygon fill="#8695ad" fill-opacity="0.501961" points="76,118 69,121 72,115" />
<polygon fill="#c7ced9" fill-opacity="0.501961" points="100,121 102,118 101,116" />
<polygon fill="#1e3766" fill-opacity="0.501961" points="42,137 54,134 55,138" />
<polygon fill="#8593ab" fill-opacity="0.501961" points="55,129 57,124 59,127" />
<polygon fill="#39271c" fill-opacity="0.501961" points="227,86 240,84 236,87" />
<polygon fill="#361511" fill-opacity="0.501961" points="211,91 178,91 194,96" />
<polygon fill="#193c7f" fill-opacity="0.501961" points="170,143 160,140 153,143" />
<polygon fill="#001a53" fill-opacity="0.501961" points="236,141 252,112 131,113" />
<polygon fill="#0e0305" fill-opacity="0.501961" points="96,15 86,12 94,29" />
<polygon fill="#072357" fill-opacity="0.501961" points="37,123 47,120 56,123" />
<polygon fill="#0a2559" fill-opacity="0.501961" points="46,124 47,129 50,117" />
<polygon fill="#13316f" fill-opacity="0.501961" points="226,143 203,143 217,138" />
<polygon fill="#191317" fill-opacity="0.501961" points="126,88 117,85 111,78" />
<polygon fill="#3d3229" fill-opacity="0.501961" points="160,90 144,92 163,83" />
<polygon fill="#a2887b" fill-opacity="0.501961" points="202,88 199,85 201,85" />
<polygon fill="#120c16" fill-opacity="0.501961" points="220,86 141,83 139,60" />
<polygon fill="#243c6a" fill-opacity="0.501961" points="77,115 79,122 73,125" />
<polygon fill="#000a45" fill-opacity="0.501961" points="77,127 76,122 78,122" />
<polygon fill="#050101" fill-opacity="0.501961" points="227,73 268,82 227,85" />
<polygon fill="#3c527b" fill-opacity="0.501961" points="90,122 91,115 95,120" />
<polygon fill="#caaf9a" fill-opacity="0.501961" points="125,69 125,72 134,68" />
<polygon fill="#090713" fill-opacity="0.501961" points="130,83 142,81 134,67" />
<polygon fill="#00154b" fill-opacity="0.501961" points="216,136 232,142 203,142" />
<polygon fill="#657897" fill-opacity="0.501961" points="55,130 63,130 60,128" />
<polygon fill="#001a53" fill-opacity="0.501961" points="80,114 73,112 66,115" />
<polygon fill="#190c04" fill-opacity="0.501961" points="228,30 214,1 219,38" />
<polygon fill="#8c9ab0" fill-opacity="0.501961" points="73,120 82,117 80,121" />
<polygon fill="#000000" fill-opacity="0.501961" points="120,109 158,97 195,110" />
<polygon fill="#001a53" fill-opacity="0.501961" points="231,141 110,142 127,114" />
<polygon fill="#1e1210" fill-opacity="0.501961" points="82,89 89,87 83,61" />
<polygon fill="#0d2657" fill-opacity="0.501961" points="69,160 60,145 62,133" />
<polygon fill="#21130e" fill-opacity="0.501961" points="135,97 170,98 155,91" />
<polygon fill="#133376" fill-opacity="0.501961" points="90,142 82,140 76,143" />
<polygon fill="#120c16" fill-opacity="0.501961" points="205,32 211,91 221,45" />
<polygon fill="#001a53" fill-opacity="0.501961" points="7,128 36,136 41,111" />
<polygon fill="#210d04" fill-opacity="0.501961" points="96,51 82,51 109,60" />
<polygon fill="#000000" fill-opacity="0.501961" points="114,-16 122,14 107,14" />
<polygon fill="#143272" fill-opacity="0.501961" points="239,143 231,139 217,143" />
<polygon fill="#140800" fill-opacity="0.501961" points="137,40 139,29 160,39" />
<polygon fill="#001851" fill-opacity="0.501961" points="76,142 91,128 98,141" />
<polygon fill="#150d1a" fill-opacity="0.501961" points="199,69 215,60 218,88" />
<polygon fill="#092d73" fill-opacity="0.501961" points="47,111 65,111 61,115" />
<polygon fill="#1b0e0a" fill-opacity="0.501961" points="103,71 101,53 113,81" />
<polygon fill="#677998" fill-opacity="0.501961" points="52,124 49,128 51,115" />
<polygon fill="#000000" fill-opacity="0.501961" points="3,146 4,96 -16,147" />
<polygon fill="#102e6e" fill-opacity="0.501961" points="252,112 248,128 253,142" />
<polygon fill="#130703" fill-opacity="0.501961" points="178,26 176,39 201,40" />
<polygon fill="#3a332f" fill-opacity="0.501961" points="91,78 101,59 99,91" />
<polygon fill="#00144c" fill-opacity="0.501961" points="251,115 246,126 251,142" />
<polygon fill="#050305" fill-opacity="0.501961" points="245,98 228,8 271,96" />
<polygon fill="#120c19" fill-opacity="0.501961" points="108,30 132,34 109,69" />
<polygon fill="#585b59" fill-opacity="0.501961" points="237,90 240,90 237,85" />
<polygon fill="#140e07" fill-opacity="0.501961" points="244,64 227,68 238,86" />
<polygon fill="#00174f" fill-opacity="0.501961" points="215,142 241,142 240,131" />
<polygon fill="#322113" fill-opacity="0.501961" points="113,60 123,64 125,75" />
<polygon fill="#001a53" fill-opacity="0.501961" points="44,112 10,139 4,112" />
<polygon fill="#dddede" fill-opacity="0.501961" points="181,87 180,90 183,89" />
<polygon fill="#241519" fill-opacity="0.501961" points="190,87 163,84 180,81" />
<polygon fill="#0e0606" fill-opacity="0.501961" points="134,-12 133,34 114,30" />
<polygon fill="#598fff" fill-opacity="0.501961" points="241,137 248,135 245,131" />
<polygon fill="#0e0506" fill-opacity="0.501961" points="125,72 122,87 118,71" />
<polygon fill="#ebeeec" fill-opacity="0.501961" points="204,90 201,89 202,87" />
<polygon fill="#70819e" fill-opacity="0.501961" points="55,139 67,136 58,134" />
<polygon fill="#14387b" fill-opacity="0.501961" points="140,114 151,112 142,111" />
<polygon fill="#142e60" fill-opacity="0.501961" points="65,120 64,124 54,124" />
<polygon fill="#140d17" fill-opacity="0.501961" points="197,38 203,87 181,56" />
<polygon fill="#b3bcca" fill-opacity="0.501961" points="90,119 90,116 88,119" />
<polygon fill="#627694" fill-opacity="0.501961" points="67,115 69,121 66,119" />
<polygon fill="#909292" fill-opacity="0.501961" points="234,88 225,89 229,90" />
<polygon fill="#8291aa" fill-opacity="0.501961" points="40,124 46,126 46,130" />
<polygon fill="#3b342f" fill-opacity="0.501961" points="101,37 89,29 100,54" />
<polygon fill="#113271" fill-opacity="0.501961" points="40,143 26,139 16,143" />
<polygon fill="#1f1513" fill-opacity="0.501961" points="232,98 229,92 230,87" />
<polygon fill="#3d557d" fill-opacity="0.501961" points="72,141 75,128 76,134" />
<polygon fill="#001952" fill-opacity="0.501961" points="120,138 116,112 152,112" />
<polygon fill="#001850" fill-opacity="0.501961" points="13,141 41,123 28,142" />
<polygon fill="#000000" fill-opacity="0.501961" points="83,-16 -16,-2 82,106" />
<polygon fill="#00194e" fill-opacity="0.501961" points="47,160 52,150 47,136" />
<polygon fill="#1a0d12" fill-opacity="0.501961" points="197,79 197,91 201,79" />
<polygon fill="#060000" fill-opacity="0.501961" points="76,143 55,143 71,150" />
<polygon fill="#919eb4" fill-opacity="0.501961" points="41,133 44,135 41,138" />
<polygon fill="#130d16" fill-opacity="0.501961" points="167,31 154,42 174,88" />
<polygon fill="#000000" fill-opacity="0.501961" points="87,110 49,95 130,101" />
<polygon fill="#011d55" fill-opacity="0.501961" points="50,130 25,137 28,130" />
<polygon fill="#001953" fill-opacity="0.501961" points="120,132 82,142 76,131" />
<polygon fill="#163469" fill-opacity="0.501961" points="204,113 212,110 200,110" />
<polygon fill="#0d285c" fill-opacity="0.501961" points="69,127 76,132 69,116" />
<polygon fill="#204186" fill-opacity="0.501961" points="10,143 23,143 16,141" />
<polygon fill="#272720" fill-opacity="0.501961" points="214,54 223,58 216,51" />
<polygon fill="#0e3073" fill-opacity="0.501961" points="40,111 24,116 10,111" />
<polygon fill="#00174f" fill-opacity="0.501961" points="34,123 42,113 1,112" />
<polygon fill="#5d6f90" fill-opacity="0.501961" points="100,115 99,121 89,115" />
<polygon fill="#00184f" fill-opacity="0.501961" points="40,132 5,141 38,142" />
<polygon fill="#221915" fill-opacity="0.501961" points="143,50 145,57 123,57" />
<polygon fill="#3b211e" fill-opacity="0.501961" points="215,91 206,95 201,91" />
<polygon fill="#9eaabc" fill-opacity="0.501961" points="60,115 56,115 61,121" />
<polygon fill="#362e26" fill-opacity="0.501961" points="97,92 104,91 95,81" />
<polygon fill="#7d8da6" fill-opacity="0.501961" points="68,124 69,127 63,127" />
<polygon fill="#120c17" fill-opacity="0.501961" points="131,72 208,64 149,88" />
<polygon fill="#8f9db3" fill-opacity="0.501961" points="81,128 78,126 80,124" />
<polygon fill="#000000" fill-opacity="0.501961" points="255,144 271,144 253,108" />
<polygon fill="#7c8da6" fill-opacity="0.501961" points="96,124 98,130 95,126" />
<polygon fill="#7c8ca6" fill-opacity="0.501961" points="70,122 70,117 74,117" />
<polygon fill="#0a0405" fill-opacity="0.501961" points="196,27 207,36 219,-16" />
<polygon fill="#0b0604" fill-opacity="0.501961" points="242,78 259,89 239,94" />
<polygon fill="#657796" fill-opacity="0.501961" points="99,121 104,120 105,122" />
<polygon fill="#273f6c" fill-opacity="0.501961" points="63,130 62,121 59,127" />
<polygon fill="#011d55" fill-opacity="0.501961" points="106,118 113,134 105,136" />
<polygon fill="#000c43" fill-opacity="0.501961" points="68,112 67,115 60,112" />
<polygon fill="#11326e" fill-opacity="0.501961" points="4,126 11,143 5,143" />
<polygon fill="#312c28" fill-opacity="0.501961" points="137,89 126,79 127,91" />
<polygon fill="#2f5bb4" fill-opacity="0.501961" points="73,111 77,111 75,112" />
<polygon fill="#001850" fill-opacity="0.501961" points="6,122 19,142 5,142" />
<polygon fill="#53688b" fill-opacity="0.501961" points="56,128 45,121 50,127" />
<polygon fill="#e2e3e4" fill-opacity="0.501961" points="207,88 208,91 208,88" />
<polygon fill="#00144e" fill-opacity="0.501961" points="111,129 109,122 98,122" />
<polygon fill="#1a3464" fill-opacity="0.501961" points="91,119 90,124 95,128" />
<polygon fill="#1c131b" fill-opacity="0.501961" points="216,78 210,74 218,90" />
<polygon fill="#00174f" fill-opacity="0.501961" points="79,141 75,128 84,141" />
<polygon fill="#110c12" fill-opacity="0.501961" points="104,70 112,76 117,72" />
<polygon fill="#6e809d" fill-opacity="0.501961" points="110,122 103,120 115,120" />
<polygon fill="#00164d" fill-opacity="0.501961" points="66,112 61,116 61,112" />
<polygon fill="#001a53" fill-opacity="0.501961" points="114,117 164,141 224,112" />
<polygon fill="#001b53" fill-opacity="0.501961" points="114,119 141,122 124,114" />
<polygon fill="#140706" fill-opacity="0.501961" points="116,92 149,93 126,99" />
<polygon fill="#485d82" fill-opacity="0.501961" points="90,130 89,125 77,129" />
<polygon fill="#000000" fill-opacity="0.501961" points="93,109 3,110 -16,-16" />
<polygon fill="#2c1d0d" fill-opacity="0.501961" points="193,54 202,53 196,49" />
<polygon fill="#c8cac9" fill-opacity="0.501961" points="179,91 174,87 174,89" />
<polygon fill="#2b1a18" fill-opacity="0.501961" points="211,90 217,94 207,91" />
<polygon fill="#475c82" fill-opacity="0.501961" points="76,133 71,132 72,129" />
<polygon fill="#201010" fill-opacity="0.501961" points="169,82 159,94 171,95" />
<polygon fill="#020305" fill-opacity="0.501961" points="17,160 2,143 65,143" />
<polygon fill="#73849f" fill-opacity="0.501961" points="59,130 66,129 67,126" />
<polygon fill="#140d17" fill-opacity="0.501961" points="199,55 174,87 161,34" />
<polygon fill="#c1aaa5" fill-opacity="0.501961" points="114,75 113,76 115,79" />
<polygon fill="#00194d" fill-opacity="0.501961" points="62,112 62,115 51,113" />
<polygon fill="#0d0813" fill-opacity="0.501961" points="107,13 107,39 121,18" />
<polygon fill="#321b13" fill-opacity="0.501961" points="176,6 190,22 176,22" />
<polygon fill="#000000" fill-opacity="0.501961" points="150,100 199,95 209,111" />
<polygon fill="#16101e" fill-opacity="0.501961" points="171,16 176,7 175,33" />
<polygon fill="#0d0505" fill-opacity="0.501961" points="106,77 107,91 110,84" />
<polygon fill="#180d0c" fill-opacity="0.501961" points="84,98 83,73 94,97" />
<polygon fill="#0e0914" fill-opacity="0.501961" points="227,84 208,85 229,41" />
<polygon fill="#1b0b04" fill-opacity="0.501961" points="103,66 109,47 102,35" />
<polygon fill="#3d3c37" fill-opacity="0.501961" points="152,88 138,88 143,91" />
<polygon fill="#00174e" fill-opacity="0.501961" points="69,122 72,128 69,130" />
<polygon fill="#011c52" fill-opacity="0.501961" points="82,125 85,122 91,123" />
<polygon fill="#7686a2" fill-opacity="0.501961" points="67,123 65,127 63,123" />
<polygon fill="#011e53" fill-opacity="0.501961" points="55,127 52,123 54,115" />
<polygon fill="#001b56" fill-opacity="0.501961" points="86,127 79,143 72,141" />
<polygon fill="#051f55" fill-opacity="0.501961" points="50,116 49,126 47,119" />
<polygon fill="#1e3867" fill-opacity="0.501961" points="63,139 61,133 61,139" />
<polygon fill="#0c0302" fill-opacity="0.501961" points="173,33 170,0 157,30" />
<polygon fill="#331e1e" fill-opacity="0.501961" points="174,92 178,90 182,94" />
<polygon fill="#170b06" fill-opacity="0.501961" points="162,26 160,-16 172,2" />
<polygon fill="#170c0e" fill-opacity="0.501961" points="146,80 125,86 156,87" />
<polygon fill="#3a332e" fill-opacity="0.501961" points="101,5 91,12 102,-16" />
<polygon fill="#b1a089" fill-opacity="0.501961" points="134,66 133,68 132,63" />
<polygon fill="#0b0b1f" fill-opacity="0.501961" points="133,15 137,21 136,7" />
<polygon fill="#7f8fa8" fill-opacity="0.501961" points="45,119 41,118 42,116" />
<polygon fill="#190f0d" fill-opacity="0.501961" points="83,52 91,68 83,86" />
<polygon fill="#0f2b5d" fill-opacity="0.501961" points="67,131 75,128 81,132" />
<polygon fill="#2c1911" fill-opacity="0.501961" points="150,17 138,-11 138,26" />
<polygon fill="#030506" fill-opacity="0.501961" points="193,143 137,143 188,160" />
<polygon fill="#100b13" fill-opacity="0.501961" points="134,69 141,62 140,46" />
<polygon fill="#001b54" fill-opacity="0.501961" points="23,138 14,119 41,118" />
<polygon fill="#6e7e9b" fill-opacity="0.501961" points="61,139 52,139 59,136" />
<polygon fill="#0c275b" fill-opacity="0.501961" points="70,122 61,124 59,121" />
<polygon fill="#264a8a" fill-opacity="0.501961" points="3,117 4,111 5,116" />
<polygon fill="#000000" fill-opacity="0.501961" points="30,107 -13,113 -8,89" />
<polygon fill="#3c3531" fill-opacity="0.501961" points="89,71 101,58 92,60" />
<polygon fill="#808fa8" fill-opacity="0.501961" points="55,136 62,137 56,134" />
<polygon fill="#19397a" fill-opacity="0.501961" points="196,140 186,143 202,143" />
<polygon fill="#001a53" fill-opacity="0.501961" points="146,113 227,142 66,142" />
<polygon fill="#95a2b6" fill-opacity="0.501961" points="64,120 64,122 65,120" />
<polygon fill="#21100b" fill-opacity="0.501961" points="107,19 105,-5 101,16" />
<polygon fill="#5b6e8f" fill-opacity="0.501961" points="95,124 92,130 96,129" />
<polygon fill="#656462" fill-opacity="0.501961" points="119,82 116,80 116,82" />
<polygon fill="#000000" fill-opacity="0.501961" points="206,110 230,95 271,109" />
<polygon fill="#2c1b13" fill-opacity="0.501961" points="121,46 127,53 129,51" />
<polygon fill="#281413" fill-opacity="0.501961" points="191,90 191,93 200,96" />
<polygon fill="#262625" fill-opacity="0.501961" points="194,77 188,83 191,74" />
<polygon fill="#020001" fill-opacity="0.501961" points="161,69 153,67 163,66" />
<polygon fill="#20110e" fill-opacity="0.501961" points="185,93 184,86 186,89" />
</g>
</svg>