<svg xmlns="http://www.w3.org/2000/svg" version="1.1" width="1024" height="580">
<rect x="0" y="0" width="1024" height="580" fill="#161624" />
<g transform="scale(4.000000) translate(0.5 0.5)">
<polygon fill="#0d3a9f" fill-opacity="0.501961" points="90,160 271,112 -16,111" />
<polygon fill="#6c513a" fill-opacity="0.501961" points="83,17 223,38 187,69" />
<polygon fill="#000000" fill-opacity="0.501961" points="-14,-3 72,-6 -11,152" />
<polygon fill="#000000" fill-opacity="0.501961" points="258,-16 38,3 256,42" />
<polygon fill="#002e8f" fill-opacity="0.501961" points="250,114 160,143 252,142" />
<polygon fill="#ffeecf" fill-opacity="0.501961" points="121,61 132,63 129,79" />
<polygon fill="#573e28" fill-opacity="0.501961" points="27,81 121,20 54,20" />
<polygon fill="#63729a" fill-opacity="0.501961" points="90,107 141,120 43,123" />
<polygon fill="#000000" fill-opacity="0.501961" points="177,-16 262,-3 261,138" />
<polygon fill="#001b63" fill-opacity="0.501961" points="4,151 113,134 4,110" />
<polygon fill="#010000" fill-opacity="0.501961" points="-16,112 -13,5 71,107" />
<polygon fill="#000000" fill-opacity="0.501961" points="120,70 134,32 87,32" />
<polygon fill="#625246" fill-opacity="0.501961" points="126,23 165,19 148,45" />
<polygon fill="#589eff" fill-opacity="0.501961" points="245,128 238,134 248,137" />
<polygon fill="#000000" fill-opacity="0.501961" points="-16,-16 -16,80 119,-16" />
<polygon fill="#5a4638" fill-opacity="0.501961" points="49,90 32,47 62,65" />
<polygon fill="#594f49" fill-opacity="0.501961" points="172,37 232,38 160,67" />
<polygon fill="#270c01" fill-opacity="0.501961" points="148,85 217,65 116,37" />
<polygon fill="#78726d" fill-opacity="0.501961" points="67,44 84,40 66,22" />
<polygon fill="#010000" fill-opacity="0.501961" points="271,16 161,38 161,-16" />
<polygon fill="#210d13" fill-opacity="0.501961" points="39,38 92,116 127,53" />
<polygon fill="#ceb9b1" fill-opacity="0.501961" points="143,79 140,73 134,83" />
<polygon fill="#020000" fill-opacity="0.501961" points="241,19 -16,20 110,-16" />
<polygon fill="#00184e" fill-opacity="0.501961" points="131,124 265,110 230,141" />
<polygon fill="#5d5654" fill-opacity="0.501961" points="161,43 212,51 162,62" />
<polygon fill="#020000" fill-opacity="0.501961" points="223,109 271,111 249,-16" />
<polygon fill="#a0acc2" fill-opacity="0.501961" points="55,115 76,117 57,121" />
<polygon fill="#000000" fill-opacity="0.501961" points="153,54 125,76 162,73" />
<polygon fill="#6c7ca1" fill-opacity="0.501961" points="131,111 104,122 138,122" />
<polygon fill="#000e4a" fill-opacity="0.501961" points="113,114 66,115 93,105" />
<polygon fill="#160200" fill-opacity="0.501961" points="29,75 72,110 77,80" />
<polygon fill="#302015" fill-opacity="0.501961" points="224,27 169,27 240,47" />
<polygon fill="#331d13" fill-opacity="0.501961" points="124,29 160,14 73,15" />
<polygon fill="#0c0402" fill-opacity="0.501961" points="269,46 212,44 217,104" />
<polygon fill="#000000" fill-opacity="0.501961" points="89,49 126,59 125,30" />
<polygon fill="#8d9bb6" fill-opacity="0.501961" points="86,116 100,115 93,122" />
<polygon fill="#fffff7" fill-opacity="0.501961" points="124,63 123,67 129,64" />
<polygon fill="#3a2a2e" fill-opacity="0.501961" points="150,89 133,94 111,59" />
<polygon fill="#041f5b" fill-opacity="0.501961" points="4,160 4,117 102,125" />
<polygon fill="#e9d6b8" fill-opacity="0.501961" points="121,69 132,64 127,61" />
<polygon fill="#5a5049" fill-opacity="0.501961" points="128,32 119,23 87,30" />
<polygon fill="#1e0d09" fill-opacity="0.501961" points="160,45 173,45 170,3" />
<polygon fill="#5b524a" fill-opacity="0.501961" points="40,64 57,56 55,79" />
<polygon fill="#534844" fill-opacity="0.501961" points="210,34 161,52 212,59" />
<polygon fill="#071c55" fill-opacity="0.501961" points="269,112 134,152 137,112" />
<polygon fill="#000000" fill-opacity="0.501961" points="-16,-2 -10,143 59,-12" />
<polygon fill="#2e1a17" fill-opacity="0.501961" points="91,67 27,101 91,39" />
<polygon fill="#000000" fill-opacity="0.501961" points="22,14 239,13 131,-16" />
<polygon fill="#221510" fill-opacity="0.501961" points="63,12 26,81 27,46" />
<polygon fill="#42251a" fill-opacity="0.501961" points="127,57 126,27 150,53" />
<polygon fill="#1f0e1f" fill-opacity="0.501961" points="206,67 47,109 228,110" />
<polygon fill="#182f72" fill-opacity="0.501961" points="178,110 147,121 117,111" />
<polygon fill="#a0a7a6" fill-opacity="0.501961" points="73,37 74,41 83,35" />
<polygon fill="#060100" fill-opacity="0.501961" points="35,39 38,20 68,62" />
<polygon fill="#000000" fill-opacity="0.501961" points="-16,146 2,160 4,112" />
<polygon fill="#4d433c" fill-opacity="0.501961" points="81,22 84,38 57,24" />
<polygon fill="#000000" fill-opacity="0.501961" points="129,34 91,33 93,59" />
<polygon fill="#63a1ff" fill-opacity="0.501961" points="239,137 244,130 248,135" />
<polygon fill="#1e1425" fill-opacity="0.501961" points="120,53 128,94 60,62" />
<polygon fill="#06286e" fill-opacity="0.501961" points="242,125 253,138 252,113" />
<polygon fill="#000000" fill-opacity="0.501961" points="254,103 271,160 253,160" />
<polygon fill="#36180e" fill-opacity="0.501961" points="164,59 212,69 212,56" />
<polygon fill="#000000" fill-opacity="0.501961" points="43,95 77,90 75,110" />
<polygon fill="#59514e" fill-opacity="0.501961" points="135,45 159,24 136,22" />
<polygon fill="#000000" fill-opacity="0.501961" points="131,58 164,79 148,83" />
<polygon fill="#000000" fill-opacity="0.501961" points="-16,111 29,109 11,-16" />
<polygon fill="#475a84" fill-opacity="0.501961" points="37,117 48,121 57,117" />
<polygon fill="#747176" fill-opacity="0.501961" points="128,78 132,77 124,68" />
<polygon fill="#27191b" fill-opacity="0.501961" points="31,110 49,79 32,50" />
<polygon fill="#25150f" fill-opacity="0.501961" points="45,14 45,32 84,15" />
<polygon fill="#564c44" fill-opacity="0.501961" points="164,65 175,64 162,47" />
<polygon fill="#190400" fill-opacity="0.501961" points="82,143 -3,143 21,160" />
<polygon fill="#2a1714" fill-opacity="0.501961" points="174,15 150,14 171,34" />
<polygon fill="#381c12" fill-opacity="0.501961" points="83,34 92,61 92,21" />
<polygon fill="#270a00" fill-opacity="0.501961" points="154,143 179,159 123,144" />
<polygon fill="#00184f" fill-opacity="0.501961" points="47,113 8,140 4,112" />
<polygon fill="#47403c" fill-opacity="0.501961" points="41,46 57,74 36,68" />
<polygon fill="#133279" fill-opacity="0.501961" points="38,137 58,143 19,143" />
<polygon fill="#041c5f" fill-opacity="0.501961" points="99,141 101,117 137,141" />
<polygon fill="#b0a29e" fill-opacity="0.501961" points="137,84 138,83 137,80" />
<polygon fill="#000000" fill-opacity="0.501961" points="213,49 246,42 212,71" />
<polygon fill="#1c1323" fill-opacity="0.501961" points="241,73 206,106 167,70" />
<polygon fill="#7383a4" fill-opacity="0.501961" points="98,120 85,121 85,117" />
<polygon fill="#070000" fill-opacity="0.501961" points="139,57 129,56 121,62" />
<polygon fill="#818fad" fill-opacity="0.501961" points="75,115 75,121 55,116" />
<polygon fill="#7383a1" fill-opacity="0.501961" points="135,115 120,115 130,120" />
<polygon fill="#331710" fill-opacity="0.501961" points="174,57 161,74 208,59" />
<polygon fill="#2e1109" fill-opacity="0.501961" points="114,143 78,143 114,153" />
<polygon fill="#2a1005" fill-opacity="0.501961" points="91,49 50,42 67,58" />
<polygon fill="#331b14" fill-opacity="0.501961" points="125,21 134,51 134,22" />
<polygon fill="#2f130c" fill-opacity="0.501961" points="137,45 156,60 161,45" />
<polygon fill="#072158" fill-opacity="0.501961" points="252,110 184,131 252,129" />
<polygon fill="#10317d" fill-opacity="0.501961" points="71,111 80,118 96,112" />
<polygon fill="#6f687a" fill-opacity="0.501961" points="192,47 186,56 196,55" />
<polygon fill="#0b215c" fill-opacity="0.501961" points="78,140 90,132 76,114" />
<polygon fill="#152b62" fill-opacity="0.501961" points="183,110 227,111 204,132" />
<polygon fill="#102664" fill-opacity="0.501961" points="114,108 100,114 136,115" />
<polygon fill="#1b1326" fill-opacity="0.501961" points="66,84 96,108 137,80" />
<polygon fill="#071e5a" fill-opacity="0.501961" points="140,112 128,141 230,112" />
<polygon fill="#4e473e" fill-opacity="0.501961" points="52,37 82,43 66,45" />
<polygon fill="#463019" fill-opacity="0.501961" points="67,67 77,64 74,78" />
<polygon fill="#0e2763" fill-opacity="0.501961" points="68,122 69,115 74,127" />
<polygon fill="#0a215f" fill-opacity="0.501961" points="92,117 94,138 86,142" />
<polygon fill="#000000" fill-opacity="0.501961" points="225,-16 271,-16 257,124" />
<polygon fill="#494039" fill-opacity="0.501961" points="205,34 211,58 172,35" />
<polygon fill="#0a2263" fill-opacity="0.501961" points="153,119 67,141 172,143" />
<polygon fill="#00184e" fill-opacity="0.501961" points="225,117 245,114 236,143" />
<polygon fill="#001953" fill-opacity="0.501961" points="10,112 51,142 9,142" />
<polygon fill="#352e27" fill-opacity="0.501961" points="211,45 222,35 232,44" />
<polygon fill="#382a20" fill-opacity="0.501961" points="146,77 144,95 132,95" />
<polygon fill="#66779a" fill-opacity="0.501961" points="110,122 106,115 128,117" />
<polygon fill="#001155" fill-opacity="0.501961" points="113,117 114,113 115,122" />
<polygon fill="#524a46" fill-opacity="0.501961" points="139,45 159,39 135,32" />
<polygon fill="#130712" fill-opacity="0.501961" points="132,68 139,56 134,85" />
<polygon fill="#b09d9c" fill-opacity="0.501961" points="142,79 135,81 140,75" />
<polygon fill="#1d1829" fill-opacity="0.501961" points="136,81 131,80 139,79" />
<polygon fill="#504743" fill-opacity="0.501961" points="133,66 126,69 125,66" />
<polygon fill="#38261d" fill-opacity="0.501961" points="117,68 99,72 124,56" />
<polygon fill="#061d5a" fill-opacity="0.501961" points="29,119 40,136 55,119" />
<polygon fill="#000000" fill-opacity="0.501961" points="212,38 224,64 214,64" />
<polygon fill="#1c3373" fill-opacity="0.501961" points="32,110 76,110 45,119" />
<polygon fill="#190f09" fill-opacity="0.501961" points="250,60 224,53 229,73" />
<polygon fill="#75766e" fill-opacity="0.501961" points="142,79 146,82 141,81" />
<polygon fill="#4d362c" fill-opacity="0.501961" points="137,23 129,46 130,26" />
<polygon fill="#170906" fill-opacity="0.501961" points="27,104 25,70 44,72" />
<polygon fill="#452112" fill-opacity="0.501961" points="173,75 162,76 164,64" />
<polygon fill="#cbb09c" fill-opacity="0.501961" points="131,70 127,72 125,68" />
<polygon fill="#505056" fill-opacity="0.501961" points="128,82 124,70 132,75" />
<polygon fill="#1a111a" fill-opacity="0.501961" points="68,74 57,53 62,97" />
<polygon fill="#1b1223" fill-opacity="0.501961" points="88,111 75,53 136,108" />
<polygon fill="#1e0b05" fill-opacity="0.501961" points="87,41 74,59 91,59" />
<polygon fill="#000000" fill-opacity="0.501961" points="2,144 -16,143 5,77" />
<polygon fill="#020003" fill-opacity="0.501961" points="135,71 160,59 157,82" />
<polygon fill="#564c45" fill-opacity="0.501961" points="96,23 92,30 118,31" />
<polygon fill="#5e6e96" fill-opacity="0.501961" points="56,122 66,120 56,115" />
<polygon fill="#100804" fill-opacity="0.501961" points="241,41 199,28 245,29" />
<polygon fill="#504540" fill-opacity="0.501961" points="84,26 65,22 65,39" />
<polygon fill="#4f463c" fill-opacity="0.501961" points="53,40 51,27 58,38" />
<polygon fill="#1b1224" fill-opacity="0.501961" points="134,71 140,82 131,76" />
<polygon fill="#554940" fill-opacity="0.501961" points="46,76 57,76 56,52" />
<polygon fill="#452115" fill-opacity="0.501961" points="52,90 57,83 46,76" />
<polygon fill="#183e82" fill-opacity="0.501961" points="4,111 9,111 4,124" />
<polygon fill="#010000" fill-opacity="0.501961" points="45,88 44,109 64,101" />
<polygon fill="#313f73" fill-opacity="0.501961" points="144,160 142,142 93,143" />
<polygon fill="#2a261e" fill-opacity="0.501961" points="31,61 37,71 40,46" />
<polygon fill="#1b1222" fill-opacity="0.501961" points="126,71 78,73 119,110" />
<polygon fill="#000000" fill-opacity="0.501961" points="261,26 205,-16 174,27" />
<polygon fill="#3d3128" fill-opacity="0.501961" points="190,46 218,33 197,33" />
<polygon fill="#071e5e" fill-opacity="0.501961" points="111,142 106,116 103,141" />
<polygon fill="#150e22" fill-opacity="0.501961" points="46,87 37,111 32,80" />
<polygon fill="#000000" fill-opacity="0.501961" points="124,34 93,36 126,58" />
<polygon fill="#123278" fill-opacity="0.501961" points="253,139 252,120 249,127" />
<polygon fill="#50453e" fill-opacity="0.501961" points="164,44 162,62 193,42" />
<polygon fill="#00144a" fill-opacity="0.501961" points="252,129 235,127 251,116" />
<polygon fill="#011c54" fill-opacity="0.501961" points="47,114 6,112 4,137" />
<polygon fill="#473027" fill-opacity="0.501961" points="89,24 91,45 83,25" />
<polygon fill="#8896af" fill-opacity="0.501961" points="121,115 118,121 115,115" />
<polygon fill="#544a45" fill-opacity="0.501961" points="174,36 187,59 190,37" />
<polygon fill="#190b0d" fill-opacity="0.501961" points="93,143 121,158 164,143" />
<polygon fill="#1e0e0b" fill-opacity="0.501961" points="61,17 91,14 102,24" />
<polygon fill="#391c14" fill-opacity="0.501961" points="75,56 65,48 91,49" />
<polygon fill="#554a45" fill-opacity="0.501961" points="137,44 164,27 153,24" />
<polygon fill="#1c0e0c" fill-opacity="0.501961" points="46,55 74,58 47,36" />
<polygon fill="#000000" fill-opacity="0.501961" points="231,90 254,78 258,115" />
<polygon fill="#000000" fill-opacity="0.501961" points="24,109 -16,107 25,25" />
<polygon fill="#061e56" fill-opacity="0.501961" points="257,142 173,116 139,141" />
<polygon fill="#5d5a54" fill-opacity="0.501961" points="83,45 81,39 74,39" />
<polygon fill="#0c2160" fill-opacity="0.501961" points="78,141 73,121 47,125" />
<polygon fill="#1a3165" fill-opacity="0.501961" points="198,117 197,149 210,160" />
<polygon fill="#000000" fill-opacity="0.501961" points="93,34 94,54 119,51" />
<polygon fill="#3b271a" fill-opacity="0.501961" points="67,61 76,70 63,73" />
<polygon fill="#26100b" fill-opacity="0.501961" points="89,52 81,57 87,29" />
<polygon fill="#1d0e0d" fill-opacity="0.501961" points="172,43 173,16 161,30" />
<polygon fill="#524842" fill-opacity="0.501961" points="210,57 199,57 211,43" />
<polygon fill="#181121" fill-opacity="0.501961" points="165,98 150,96 136,78" />
<polygon fill="#16306f" fill-opacity="0.501961" points="175,143 136,143 154,137" />
<polygon fill="#3c271d" fill-opacity="0.501961" points="124,26 145,20 106,20" />
<polygon fill="#071d54" fill-opacity="0.501961" points="209,142 179,123 143,142" />
<polygon fill="#241f30" fill-opacity="0.501961" points="148,74 142,74 145,81" />
<polygon fill="#000000" fill-opacity="0.501961" points="254,103 252,148 270,144" />
<polygon fill="#000000" fill-opacity="0.501961" points="-16,37 42,39 48,-16" />
<polygon fill="#0a0102" fill-opacity="0.501961" points="70,86 82,106 57,84" />
<polygon fill="#8c99b2" fill-opacity="0.501961" points="136,117 133,115 132,119" />
<polygon fill="#1e1425" fill-opacity="0.501961" points="161,78 211,97 131,111" />
<polygon fill="#0f2664" fill-opacity="0.501961" points="110,140 99,129 100,110" />
<polygon fill="#071e5e" fill-opacity="0.501961" points="121,121 153,129 123,138" />
<polygon fill="#5b6d92" fill-opacity="0.501961" points="104,118 102,116 103,122" />
<polygon fill="#313d6c" fill-opacity="0.501961" points="205,110 195,114 181,110" />
<polygon fill="#7c6d5e" fill-opacity="0.501961" points="128,72 123,70 121,65" />
<polygon fill="#2d271e" fill-opacity="0.501961" points="65,24 58,25 57,48" />
<polygon fill="#0a1f58" fill-opacity="0.501961" points="223,112 167,132 130,112" />
<polygon fill="#0a215e" fill-opacity="0.501961" points="82,136 89,131 83,114" />
<polygon fill="#1c1321" fill-opacity="0.501961" points="94,109 118,87 124,52" />
<polygon fill="#50443c" fill-opacity="0.501961" points="79,30 84,36 83,46" />
<polygon fill="#3d5082" fill-opacity="0.501961" points="63,115 60,123 60,118" />
<polygon fill="#130b17" fill-opacity="0.501961" points="214,110 234,104 222,67" />
<polygon fill="#000000" fill-opacity="0.501961" points="70,11 209,15 147,-16" />
<polygon fill="#000000" fill-opacity="0.501961" points="76,73 79,72 77,81" />
<polygon fill="#15367c" fill-opacity="0.501961" points="252,112 244,111 253,117" />
<polygon fill="#564d47" fill-opacity="0.501961" points="114,29 125,25 126,31" />
<polygon fill="#311912" fill-opacity="0.501961" points="147,52 161,42 159,57" />
<polygon fill="#2c140e" fill-opacity="0.501961" points="174,59 212,59 213,72" />
<polygon fill="#291109" fill-opacity="0.501961" points="45,82 45,70 32,77" />
<polygon fill="#1d1112" fill-opacity="0.501961" points="60,73 73,72 61,98" />
<polygon fill="#0a2261" fill-opacity="0.501961" points="136,117 155,138 169,119" />
<polygon fill="#050002" fill-opacity="0.501961" points="132,67 152,79 143,59" />
<polygon fill="#1a367c" fill-opacity="0.501961" points="123,116 111,112 120,111" />
<polygon fill="#041c52" fill-opacity="0.501961" points="252,112 244,127 190,114" />
<polygon fill="#4c5f85" fill-opacity="0.501961" points="48,118 37,120 40,117" />
<polygon fill="#173271" fill-opacity="0.501961" points="208,142 184,143 196,138" />
<polygon fill="#011c53" fill-opacity="0.501961" points="188,142 213,131 252,141" />
<polygon fill="#021b54" fill-opacity="0.501961" points="6,128 56,113 10,112" />
<polygon fill="#15090b" fill-opacity="0.501961" points="144,53 132,62 168,66" />
<polygon fill="#120e1d" fill-opacity="0.501961" points="137,91 132,74 130,89" />
<polygon fill="#000000" fill-opacity="0.501961" points="228,143 249,160 258,143" />
<polygon fill="#31447b" fill-opacity="0.501961" points="88,142 63,142 75,146" />
<polygon fill="#08205d" fill-opacity="0.501961" points="46,141 71,124 24,117" />
<polygon fill="#110d0f" fill-opacity="0.501961" points="3,143 84,143 26,159" />
<polygon fill="#0c0000" fill-opacity="0.501961" points="124,33 127,31 126,35" />
<polygon fill="#160b0c" fill-opacity="0.501961" points="44,24 47,52 56,15" />
<polygon fill="#1c1223" fill-opacity="0.501961" points="81,110 91,59 150,110" />
<polygon fill="#3e2a1f" fill-opacity="0.501961" points="58,51 52,57 51,51" />
<polygon fill="#123579" fill-opacity="0.501961" points="17,143 6,143 10,139" />
<polygon fill="#240f0a" fill-opacity="0.501961" points="126,60 134,28 136,61" />
<polygon fill="#776e7a" fill-opacity="0.501961" points="187,48 196,52 195,48" />
<polygon fill="#477dff" fill-opacity="0.501961" points="248,133 245,138 241,135" />
<polygon fill="#001a53" fill-opacity="0.501961" points="37,140 6,142 5,116" />
<polygon fill="#00174d" fill-opacity="0.501961" points="251,117 252,139 247,129" />
<polygon fill="#382516" fill-opacity="0.501961" points="71,75 75,80 63,77" />
<polygon fill="#1b3f78" fill-opacity="0.501961" points="12,160 4,154 4,134" />
<polygon fill="#09205f" fill-opacity="0.501961" points="97,142 157,122 38,122" />
<polygon fill="#514842" fill-opacity="0.501961" points="168,64 173,62 167,48" />
<polygon fill="#4d4440" fill-opacity="0.501961" points="40,53 41,67 46,45" />
<polygon fill="#193778" fill-opacity="0.501961" points="217,139 204,143 230,143" />
<polygon fill="#092159" fill-opacity="0.501961" points="189,141 224,115 226,140" />
<polygon fill="#000000" fill-opacity="0.501961" points="-10,134 20,153 -16,149" />
<polygon fill="#001a51" fill-opacity="0.501961" points="251,117 210,141 232,142" />
<polygon fill="#381c15" fill-opacity="0.501961" points="198,68 212,60 175,62" />
<polygon fill="#3f3833" fill-opacity="0.501961" points="214,38 226,43 213,44" />
<polygon fill="#423028" fill-opacity="0.501961" points="72,34 91,36 89,25" />
<polygon fill="#203878" fill-opacity="0.501961" points="89,110 108,110 92,115" />
<polygon fill="#001858" fill-opacity="0.501961" points="131,112 117,112 127,115" />
<polygon fill="#241a12" fill-opacity="0.501961" points="232,33 237,42 212,33" />
<polygon fill="#180e0b" fill-opacity="0.501961" points="32,50 55,42 25,39" />
<polygon fill="#040003" fill-opacity="0.501961" points="84,102 51,104 47,94" />
<polygon fill="#000001" fill-opacity="0.501961" points="91,25 92,32 90,28" />
<polygon fill="#362a1f" fill-opacity="0.501961" points="201,39 197,33 184,34" />
<polygon fill="#092060" fill-opacity="0.501961" points="140,138 129,120 132,142" />
<polygon fill="#0c0911" fill-opacity="0.501961" points="192,60 191,57 199,57" />
<polygon fill="#1b0b0a" fill-opacity="0.501961" points="145,46 159,46 160,51" />
<polygon fill="#372218" fill-opacity="0.501961" points="64,89 60,98 63,98" />
<polygon fill="#8896b1" fill-opacity="0.501961" points="87,120 94,116 87,117" />
<polygon fill="#1f1726" fill-opacity="0.501961" points="110,55 128,60 118,64" />
<polygon fill="#304178" fill-opacity="0.501961" points="50,142 65,142 77,155" />
<polygon fill="#4c4e49" fill-opacity="0.501961" points="128,83 124,84 129,78" />
<polygon fill="#1d1222" fill-opacity="0.501961" points="78,143 49,144 102,160" />
<polygon fill="#1d1424" fill-opacity="0.501961" points="227,72 165,101 175,71" />
<polygon fill="#001a53" fill-opacity="0.501961" points="5,114 36,142 6,142" />
<polygon fill="#040003" fill-opacity="0.501961" points="159,59 162,76 145,84" />
<polygon fill="#1b1528" fill-opacity="0.501961" points="70,58 57,78 59,58" />
<polygon fill="#48261b" fill-opacity="0.501961" points="151,48 157,50 157,56" />
<polygon fill="#1c1323" fill-opacity="0.501961" points="119,109 72,93 98,111" />
<polygon fill="#1a0a07" fill-opacity="0.501961" points="181,64 207,69 185,71" />
<polygon fill="#173769" fill-opacity="0.501961" points="8,110 17,110 15,113" />
<polygon fill="#161213" fill-opacity="0.501961" points="199,160 144,143 218,143" />
<polygon fill="#102762" fill-opacity="0.501961" points="125,126 123,133 121,117" />
<polygon fill="#335cab" fill-opacity="0.501961" points="240,142 237,143 235,142" />
<polygon fill="#072666" fill-opacity="0.501961" points="253,143 245,138 252,139" />
<polygon fill="#180909" fill-opacity="0.501961" points="167,33 178,26 202,31" />
<polygon fill="#3d251c" fill-opacity="0.501961" points="149,56 150,41 146,46" />
<polygon fill="#153979" fill-opacity="0.501961" points="6,129 5,121 4,125" />
<polygon fill="#776870" fill-opacity="0.501961" points="134,81 130,77 129,72" />
<polygon fill="#4f4440" fill-opacity="0.501961" points="149,44 161,22 140,22" />
<polygon fill="#3f2a16" fill-opacity="0.501961" points="120,63 118,69 113,62" />
<polygon fill="#1a131d" fill-opacity="0.501961" points="132,77 142,97 128,87" />
<polygon fill="#02020b" fill-opacity="0.501961" points="72,59 81,56 89,58" />
<polygon fill="#160c0f" fill-opacity="0.501961" points="25,89 27,110 44,110" />
<polygon fill="#0b0811" fill-opacity="0.501961" points="248,83 228,85 239,72" />
<polygon fill="#8b97b3" fill-opacity="0.501961" points="64,117 75,120 76,117" />
<polygon fill="#21408b" fill-opacity="0.501961" points="148,111 169,111 158,114" />
<polygon fill="#091f55" fill-opacity="0.501961" points="196,113 196,141 151,112" />
<polygon fill="#3a261b" fill-opacity="0.501961" points="86,27 100,21 67,20" />
<polygon fill="#8a98b2" fill-opacity="0.501961" points="133,121 132,119 132,122" />
<polygon fill="#647599" fill-opacity="0.501961" points="43,118 47,120 53,118" />
<polygon fill="#08205f" fill-opacity="0.501961" points="73,126 25,136 47,119" />
<polygon fill="#150a09" fill-opacity="0.501961" points="100,20 111,14 87,18" />
<polygon fill="#20120e" fill-opacity="0.501961" points="125,14 168,14 154,22" />
<polygon fill="#384d85" fill-opacity="0.501961" points="199,112 206,110 212,112" />
<polygon fill="#0a215e" fill-opacity="0.501961" points="99,141 29,142 72,121" />
<polygon fill="#1f1524" fill-opacity="0.501961" points="189,98 175,110 215,111" />
<polygon fill="#00104e" fill-opacity="0.501961" points="76,117 80,117 79,114" />
<polygon fill="#000305" fill-opacity="0.501961" points="3,143 26,160 29,143" />
<polygon fill="#4c3a32" fill-opacity="0.501961" points="129,26 130,44 133,34" />
<polygon fill="#b7a3a5" fill-opacity="0.501961" points="143,76 142,75 141,75" />
<polygon fill="#4e433d" fill-opacity="0.501961" points="162,45 195,44 161,65" />
<polygon fill="#26130e" fill-opacity="0.501961" points="116,31 127,31 127,34" />
<polygon fill="#4f453e" fill-opacity="0.501961" points="57,58 48,56 58,75" />
<polygon fill="#0c0503" fill-opacity="0.501961" points="27,79 30,84 45,82" />
<polygon fill="#423832" fill-opacity="0.501961" points="190,46 198,34 200,47" />
<polygon fill="#040004" fill-opacity="0.501961" points="76,90 74,110 60,100" />
<polygon fill="#000000" fill-opacity="0.501961" points="44,38 -12,44 44,-1" />
<polygon fill="#081f5b" fill-opacity="0.501961" points="65,112 38,113 46,118" />
<polygon fill="#0a0400" fill-opacity="0.501961" points="174,79 172,76 164,79" />
<polygon fill="#000000" fill-opacity="0.501961" points="-2,13 134,14 33,-16" />
<polygon fill="#1f1514" fill-opacity="0.501961" points="127,31 126,21 129,20" />
<polygon fill="#696467" fill-opacity="0.501961" points="129,72 125,73 129,79" />
<polygon fill="#ded0b9" fill-opacity="0.501961" points="123,67 127,63 132,65" />
<polygon fill="#3f3733" fill-opacity="0.501961" points="88,31 88,46 91,42" />
<polygon fill="#36140b" fill-opacity="0.501961" points="134,22 133,30 132,26" />
<polygon fill="#19142a" fill-opacity="0.501961" points="58,76 59,85 67,84" />
<polygon fill="#150d1c" fill-opacity="0.501961" points="48,109 32,86 34,109" />
<polygon fill="#55473f" fill-opacity="0.501961" points="145,31 166,27 152,25" />
<polygon fill="#7c8aa7" fill-opacity="0.501961" points="122,122 117,121 120,116" />
<polygon fill="#344374" fill-opacity="0.501961" points="186,110 173,110 181,113" />
<polygon fill="#50453f" fill-opacity="0.501961" points="54,31 51,41 57,37" />
<polygon fill="#130a07" fill-opacity="0.501961" points="225,49 254,67 225,71" />
<polygon fill="#1d1425" fill-opacity="0.501961" points="126,72 108,97 79,106" />
<polygon fill="#4c423f" fill-opacity="0.501961" points="210,36 212,51 198,42" />
<polygon fill="#371b13" fill-opacity="0.501961" points="165,65 160,75 192,61" />
<polygon fill="#0f3074" fill-opacity="0.501961" points="252,142 248,131 252,126" />
<polygon fill="#181123" fill-opacity="0.501961" points="59,57 95,60 119,79" />
<polygon fill="#423b32" fill-opacity="0.501961" points="154,42 158,30 161,46" />
<polygon fill="#000000" fill-opacity="0.501961" points="175,-16 173,27 212,26" />
<polygon fill="#152b62" fill-opacity="0.501961" points="177,126 173,117 173,137" />
<polygon fill="#514642" fill-opacity="0.501961" points="73,23 78,28 64,44" />
<polygon fill="#0b2057" fill-opacity="0.501961" points="188,123 217,112 150,112" />
<polygon fill="#3d2615" fill-opacity="0.501961" points="145,89 134,96 139,88" />
<polygon fill="#554a47" fill-opacity="0.501961" points="192,38 175,56 174,43" />
<polygon fill="#3c303b" fill-opacity="0.501961" points="132,74 124,75 128,72" />
<polygon fill="#00174f" fill-opacity="0.501961" points="250,113 241,117 252,137" />
<polygon fill="#2e231b" fill-opacity="0.501961" points="53,30 59,20 68,21" />
<polygon fill="#12080d" fill-opacity="0.501961" points="145,58 142,78 152,59" />
<polygon fill="#1f3f8c" fill-opacity="0.501961" points="48,114 57,111 40,111" />
<polygon fill="#061d56" fill-opacity="0.501961" points="43,113 57,112 52,117" />
<polygon fill="#2c2620" fill-opacity="0.501961" points="32,70 38,52 40,67" />
<polygon fill="#2e271f" fill-opacity="0.501961" points="64,42 57,29 59,45" />
<polygon fill="#1c3a79" fill-opacity="0.501961" points="171,139 173,143 185,143" />
<polygon fill="#061d54" fill-opacity="0.501961" points="143,142 194,141 162,131" />
<polygon fill="#0c2362" fill-opacity="0.501961" points="163,134 161,113 134,120" />
<polygon fill="#21192e" fill-opacity="0.501961" points="53,111 58,105 65,105" />
<polygon fill="#402b19" fill-opacity="0.501961" points="171,92 173,93 173,97" />
<polygon fill="#071f5b" fill-opacity="0.501961" points="29,120 35,140 54,119" />
<polygon fill="#0f0507" fill-opacity="0.501961" points="61,75 74,76 67,72" />
<polygon fill="#6b625a" fill-opacity="0.501961" points="123,68 131,67 125,66" />
<polygon fill="#382e28" fill-opacity="0.501961" points="175,51 171,47 173,44" />
<polygon fill="#060307" fill-opacity="0.501961" points="235,97 233,109 271,110" />
<polygon fill="#030001" fill-opacity="0.501961" points="59,88 40,100 56,105" />
<polygon fill="#0a2160" fill-opacity="0.501961" points="123,140 113,141 114,118" />
<polygon fill="#112865" fill-opacity="0.501961" points="73,131 69,119 74,125" />
<polygon fill="#000000" fill-opacity="0.501961" points="2,87 5,153 -13,144" />
</g>
</svg>