<svg xmlns="http://www.w3.org/2000/svg" version="1.1" width="1024" height="580">
<rect x="0" y="0" width="1024" height="580" fill="#151524" />
<g transform="scale(4.000000) translate(0.5 0.5)">
<polygon fill="#0e3ca0" fill-opacity="0.501961" points="92,160 255,111 -16,112" />
<polygon fill="#6b5037" fill-opacity="0.501961" points="182,70 224,38 87,17" />
<polygon fill="#000000" fill-opacity="0.501961" points="78,-16 -6,143 -12,-4" />
<polygon fill="#002e8d" fill-opacity="0.501961" points="253,116 148,141 250,154" />
<polygon fill="#000000" fill-opacity="0.501961" points="253,-16 271,45 38,2" />
<polygon fill="#fffedb" fill-opacity="0.501961" points="131,78 130,61 121,65" />
<polygon fill="#7887a8" fill-opacity="0.501961" points="102,115 36,136 51,115" />
<polygon fill="#553c26" fill-opacity="0.501961" points="115,22 28,87 51,20" />
<polygon fill="#000000" fill-opacity="0.501961" points="259,135 271,-1 179,-16" />
<polygon fill="#030000" fill-opacity="0.501961" points="6,46 -16,111 91,107" />
<polygon fill="#002274" fill-opacity="0.501961" points="4,110 51,143 7,160" />
<polygon fill="#0c0000" fill-opacity="0.501961" points="126,31 83,36 183,90" />
<polygon fill="#000000" fill-opacity="0.501961" points="69,-3 -7,132 -6,-16" />
<polygon fill="#7b7771" fill-opacity="0.501961" points="83,40 66,44 66,23" />
<polygon fill="#635349" fill-opacity="0.501961" points="165,24 136,52 134,19" />
<polygon fill="#5f5652" fill-opacity="0.501961" points="157,51 212,33 210,58" />
<polygon fill="#5a493c" fill-opacity="0.501961" points="54,91 59,64 32,46" />
<polygon fill="#5aa0ff" fill-opacity="0.501961" points="241,137 243,130 254,139" />
<polygon fill="#000000" fill-opacity="0.501961" points="176,4 -16,-16 12,31" />
<polygon fill="#c4aca4" fill-opacity="0.501961" points="133,83 141,75 141,82" />
<polygon fill="#041b56" fill-opacity="0.501961" points="201,159 271,109 52,123" />
<polygon fill="#020000" fill-opacity="0.501961" points="248,-9 165,43 153,-12" />
<polygon fill="#190400" fill-opacity="0.501961" points="118,52 31,37 64,64" />
<polygon fill="#0f0300" fill-opacity="0.501961" points="271,42 166,63 271,122" />
<polygon fill="#190400" fill-opacity="0.501961" points="159,46 117,45 165,97" />
<polygon fill="#6b7d9d" fill-opacity="0.501961" points="40,122 47,135 40,143" />
<polygon fill="#24121f" fill-opacity="0.501961" points="225,111 209,58 88,98" />
<polygon fill="#00154c" fill-opacity="0.501961" points="10,109 7,137 49,132" />
<polygon fill="#71625e" fill-opacity="0.501961" points="134,62 124,70 126,86" />
<polygon fill="#1b0400" fill-opacity="0.501961" points="133,143 193,160 255,143" />
<polygon fill="#000000" fill-opacity="0.501961" points="99,58 128,37 89,31" />
<polygon fill="#ffeacf" fill-opacity="0.501961" points="124,60 123,68 129,63" />
<polygon fill="#2c1413" fill-opacity="0.501961" points="38,91 90,88 93,33" />
<polygon fill="#65759c" fill-opacity="0.501961" points="62,121 86,113 104,122" />
<polygon fill="#000000" fill-opacity="0.501961" points="254,-16 271,109 222,110" />
<polygon fill="#8693b0" fill-opacity="0.501961" points="52,130 40,123 62,124" />
<polygon fill="#201121" fill-opacity="0.501961" points="75,60 79,110 125,59" />
<polygon fill="#584d45" fill-opacity="0.501961" points="96,23 130,29 86,33" />
<polygon fill="#251005" fill-opacity="0.501961" points="80,22 180,23 134,7" />
<polygon fill="#001b54" fill-opacity="0.501961" points="56,122 6,129 4,110" />
<polygon fill="#59504e" fill-opacity="0.501961" points="213,56 176,35 167,57" />
<polygon fill="#402419" fill-opacity="0.501961" points="127,20 145,56 126,56" />
<polygon fill="#000000" fill-opacity="0.501961" points="170,13 142,-16 34,14" />
<polygon fill="#2f1f15" fill-opacity="0.501961" points="226,28 171,27 228,47" />
<polygon fill="#a3978f" fill-opacity="0.501961" points="142,78 145,83 135,75" />
<polygon fill="#5f544c" fill-opacity="0.501961" points="86,28 81,46 65,21" />
<polygon fill="#564439" fill-opacity="0.501961" points="180,43 164,77 162,46" />
<polygon fill="#332820" fill-opacity="0.501961" points="29,74 47,48 33,42" />
<polygon fill="#0d0201" fill-opacity="0.501961" points="185,70 129,75 137,59" />
<polygon fill="#fffff3" fill-opacity="0.501961" points="132,64 127,63 130,66" />
<polygon fill="#060000" fill-opacity="0.501961" points="75,110 40,95 76,81" />
<polygon fill="#0c0000" fill-opacity="0.501961" points="-8,143 58,144 -2,160" />
<polygon fill="#000000" fill-opacity="0.501961" points="266,47 259,0 126,-1" />
<polygon fill="#000f3e" fill-opacity="0.501961" points="245,146 257,157 250,134" />
<polygon fill="#000000" fill-opacity="0.501961" points="3,91 -16,86 4,154" />
<polygon fill="#000000" fill-opacity="0.501961" points="26,109 22,-16 -16,111" />
<polygon fill="#4981ff" fill-opacity="0.501961" points="248,135 240,137 244,128" />
<polygon fill="#37170c" fill-opacity="0.501961" points="174,57 215,59 160,79" />
<polygon fill="#031b5d" fill-opacity="0.501961" points="131,142 70,122 48,142" />
<polygon fill="#011f5b" fill-opacity="0.501961" points="204,128 252,110 252,130" />
<polygon fill="#000000" fill-opacity="0.501961" points="271,129 253,100 253,145" />
<polygon fill="#2d0f05" fill-opacity="0.501961" points="139,143 59,143 97,160" />
<polygon fill="#000000" fill-opacity="0.501961" points="128,31 93,47 120,57" />
<polygon fill="#23110e" fill-opacity="0.501961" points="176,16 161,14 162,44" />
<polygon fill="#808dac" fill-opacity="0.501961" points="55,115 54,121 69,117" />
<polygon fill="#554c48" fill-opacity="0.501961" points="136,23 163,20 138,46" />
<polygon fill="#7384a5" fill-opacity="0.501961" points="40,131 48,140 42,124" />
<polygon fill="#000000" fill-opacity="0.501961" points="212,75 214,46 238,45" />
<polygon fill="#a7b0b0" fill-opacity="0.501961" points="72,37 75,39 82,36" />
<polygon fill="#0d2466" fill-opacity="0.501961" points="86,141 104,110 180,111" />
<polygon fill="#564e47" fill-opacity="0.501961" points="39,67 56,78 56,56" />
<polygon fill="#142c69" fill-opacity="0.501961" points="53,123 58,110 30,110" />
<polygon fill="#000000" fill-opacity="0.501961" points="129,58 164,78 150,84" />
<polygon fill="#27160e" fill-opacity="0.501961" points="104,14 42,14 46,30" />
<polygon fill="#371e14" fill-opacity="0.501961" points="82,31 92,16 92,58" />
<polygon fill="#33211d" fill-opacity="0.501961" points="104,68 111,57 130,73" />
<polygon fill="#1c1424" fill-opacity="0.501961" points="196,99 137,79 154,103" />
<polygon fill="#352e26" fill-opacity="0.501961" points="205,45 231,43 232,33" />
<polygon fill="#00205e" fill-opacity="0.501961" points="2,142 48,143 13,120" />
<polygon fill="#21121d" fill-opacity="0.501961" points="31,95 47,65 42,111" />
<polygon fill="#081f5e" fill-opacity="0.501961" points="85,133 84,111 96,141" />
<polygon fill="#1a1326" fill-opacity="0.501961" points="241,74 175,69 177,111" />
<polygon fill="#001850" fill-opacity="0.501961" points="6,115 43,131 10,142" />
<polygon fill="#040100" fill-opacity="0.501961" points="51,-7 50,40 3,65" />
<polygon fill="#000000" fill-opacity="0.501961" points="126,34 93,56 94,32" />
<polygon fill="#47311d" fill-opacity="0.501961" points="74,73 61,69 79,63" />
<polygon fill="#463d35" fill-opacity="0.501961" points="67,45 88,19 51,39" />
<polygon fill="#21377d" fill-opacity="0.501961" points="88,115 104,110 73,111" />
<polygon fill="#1f1222" fill-opacity="0.501961" points="83,110 159,108 98,53" />
<polygon fill="#2f4576" fill-opacity="0.501961" points="46,117 48,127 39,117" />
<polygon fill="#170b07" fill-opacity="0.501961" points="38,83 26,36 25,93" />
<polygon fill="#483f39" fill-opacity="0.501961" points="171,34 212,55 211,37" />
<polygon fill="#08205e" fill-opacity="0.501961" points="49,147 46,131 79,130" />
<polygon fill="#95a1b7" fill-opacity="0.501961" points="81,121 76,117 84,115" />
<polygon fill="#776f81" fill-opacity="0.501961" points="193,54 195,49 186,48" />
<polygon fill="#362922" fill-opacity="0.501961" points="146,75 128,99 145,91" />
<polygon fill="#211210" fill-opacity="0.501961" points="157,13 174,48 172,15" />
<polygon fill="#160b0d" fill-opacity="0.501961" points="47,54 45,33 71,60" />
<polygon fill="#00195b" fill-opacity="0.501961" points="61,120 70,129 65,133" />
<polygon fill="#081e58" fill-opacity="0.501961" points="159,143 219,113 96,114" />
<polygon fill="#000000" fill-opacity="0.501961" points="3,76 5,150 -16,145" />
<polygon fill="#011b52" fill-opacity="0.501961" points="242,132 253,111 204,118" />
<polygon fill="#372219" fill-opacity="0.501961" points="136,19 120,19 133,42" />
<polygon fill="#110b0d" fill-opacity="0.501961" points="219,110 225,50 247,64" />
<polygon fill="#0a2260" fill-opacity="0.501961" points="85,141 91,113 94,140" />
<polygon fill="#1d3064" fill-opacity="0.501961" points="222,110 203,120 175,110" />
<polygon fill="#504641" fill-opacity="0.501961" points="174,34 198,40 161,64" />
<polygon fill="#37180f" fill-opacity="0.501961" points="159,56 126,53 161,45" />
<polygon fill="#818fac" fill-opacity="0.501961" points="93,119 96,118 100,122" />
<polygon fill="#001a53" fill-opacity="0.501961" points="4,129 6,112 55,112" />
<polygon fill="#081f54" fill-opacity="0.501961" points="232,112 151,113 175,140" />
<polygon fill="#092161" fill-opacity="0.501961" points="169,116 151,139 97,120" />
<polygon fill="#7f7776" fill-opacity="0.501961" points="136,85 145,80 137,75" />
<polygon fill="#3b1d11" fill-opacity="0.501961" points="211,56 212,68 174,65" />
<polygon fill="#291d2c" fill-opacity="0.501961" points="132,69 129,74 143,85" />
<polygon fill="#170d15" fill-opacity="0.501961" points="68,82 58,58 62,105" />
<polygon fill="#283f7f" fill-opacity="0.501961" points="46,112 73,110 77,118" />
<polygon fill="#082564" fill-opacity="0.501961" points="252,111 243,116 252,145" />
<polygon fill="#140d1a" fill-opacity="0.501961" points="131,78 130,88 140,71" />
<polygon fill="#49413f" fill-opacity="0.501961" points="42,70 54,69 40,46" />
<polygon fill="#58575b" fill-opacity="0.501961" points="128,87 130,75 125,69" />
<polygon fill="#000000" fill-opacity="0.501961" points="68,-16 -1,79 -1,-6" />
<polygon fill="#a89788" fill-opacity="0.501961" points="123,69 125,66 135,71" />
<polygon fill="#010004" fill-opacity="0.501961" points="164,76 146,65 130,72" />
<polygon fill="#31140b" fill-opacity="0.501961" points="52,89 39,78 64,77" />
<polygon fill="#150907" fill-opacity="0.501961" points="78,20 127,19 103,12" />
<polygon fill="#54473f" fill-opacity="0.501961" points="121,24 97,32 126,31" />
<polygon fill="#000000" fill-opacity="0.501961" points="232,13 123,-16 14,14" />
<polygon fill="#304072" fill-opacity="0.501961" points="112,158 107,142 171,142" />
<polygon fill="#000000" fill-opacity="0.501961" points="43,108 48,89 66,101" />
<polygon fill="#3b1d13" fill-opacity="0.501961" points="183,58 161,68 164,77" />
<polygon fill="#130806" fill-opacity="0.501961" points="139,160 198,143 110,143" />
<polygon fill="#534940" fill-opacity="0.501961" points="71,46 82,41 65,43" />
<polygon fill="#143370" fill-opacity="0.501961" points="207,137 185,143 224,143" />
<polygon fill="#0c0402" fill-opacity="0.501961" points="206,21 181,32 236,33" />
<polygon fill="#001a50" fill-opacity="0.501961" points="188,142 239,142 245,116" />
<polygon fill="#7b89a8" fill-opacity="0.501961" points="49,127 63,130 56,124" />
<polygon fill="#1a1220" fill-opacity="0.501961" points="101,109 138,72 128,105" />
<polygon fill="#2c1d18" fill-opacity="0.501961" points="133,51 103,71 118,70" />
<polygon fill="#000000" fill-opacity="0.501961" points="271,29 174,-16 175,24" />
<polygon fill="#181021" fill-opacity="0.501961" points="171,103 136,78 153,100" />
<polygon fill="#263d71" fill-opacity="0.501961" points="47,124 40,128 49,126" />
<polygon fill="#001752" fill-opacity="0.501961" points="60,112 50,117 46,112" />
<polygon fill="#534a47" fill-opacity="0.501961" points="135,25 159,39 135,44" />
<polygon fill="#4a3e38" fill-opacity="0.501961" points="62,28 93,41 71,20" />
<polygon fill="#193679" fill-opacity="0.501961" points="42,138 60,143 24,143" />
<polygon fill="#50628b" fill-opacity="0.501961" points="76,114 57,121 69,121" />
<polygon fill="#011a55" fill-opacity="0.501961" points="12,119 31,125 51,120" />
<polygon fill="#143674" fill-opacity="0.501961" points="8,121 4,112 5,131" />
<polygon fill="#001951" fill-opacity="0.501961" points="6,119 40,135 7,136" />
<polygon fill="#0f285f" fill-opacity="0.501961" points="229,123 196,120 196,142" />
<polygon fill="#001a58" fill-opacity="0.501961" points="84,115 94,113 79,112" />
<polygon fill="#1d1324" fill-opacity="0.501961" points="199,99 201,76 117,87" />
<polygon fill="#161020" fill-opacity="0.501961" points="118,55 75,95 78,58" />
<polygon fill="#000300" fill-opacity="0.501961" points="263,143 178,145 231,160" />
<polygon fill="#000000" fill-opacity="0.501961" points="212,45 227,46 214,71" />
<polygon fill="#130c18" fill-opacity="0.501961" points="214,109 236,102 216,65" />
<polygon fill="#0a215f" fill-opacity="0.501961" points="61,122 108,122 69,134" />
<polygon fill="#1a110e" fill-opacity="0.501961" points="27,40 26,71 44,40" />
<polygon fill="#19142d" fill-opacity="0.501961" points="60,57 74,59 58,69" />
<polygon fill="#939fb8" fill-opacity="0.501961" points="54,125 53,130 48,124" />
<polygon fill="#000000" fill-opacity="0.501961" points="271,68 255,143 252,92" />
<polygon fill="#020000" fill-opacity="0.501961" points="90,29 91,34 98,37" />
<polygon fill="#595049" fill-opacity="0.501961" points="161,62 165,44 166,55" />
<polygon fill="#737774" fill-opacity="0.501961" points="72,40 78,39 81,43" />
<polygon fill="#341910" fill-opacity="0.501961" points="50,53 88,42 85,55" />
<polygon fill="#594a41" fill-opacity="0.501961" points="149,23 148,28 164,27" />
<polygon fill="#2b261f" fill-opacity="0.501961" points="37,47 32,69 41,70" />
<polygon fill="#24182c" fill-opacity="0.501961" points="75,111 51,111 56,105" />
<polygon fill="#473b35" fill-opacity="0.501961" points="198,59 195,39 206,57" />
<polygon fill="#1c3a88" fill-opacity="0.501961" points="102,111 116,115 127,111" />
<polygon fill="#4d362c" fill-opacity="0.501961" points="130,28 129,45 135,27" />
<polygon fill="#061e5d" fill-opacity="0.501961" points="92,129 106,113 145,112" />
<polygon fill="#001952" fill-opacity="0.501961" points="5,114 6,141 44,142" />
<polygon fill="#1e3b85" fill-opacity="0.501961" points="145,111 169,111 158,115" />
<polygon fill="#e1c6c0" fill-opacity="0.501961" points="140,75 140,79 137,77" />
<polygon fill="#7786a3" fill-opacity="0.501961" points="46,129 42,137 46,139" />
<polygon fill="#0c0507" fill-opacity="0.501961" points="139,65 129,68 140,68" />
<polygon fill="#000000" fill-opacity="0.501961" points="124,35 97,34 126,56" />
<polygon fill="#3f2b25" fill-opacity="0.501961" points="91,44 81,37 89,29" />
<polygon fill="#68789c" fill-opacity="0.501961" points="97,117 97,122 85,114" />
<polygon fill="#000002" fill-opacity="0.501961" points="146,80 159,82 159,58" />
<polygon fill="#1c130a" fill-opacity="0.501961" points="235,33 217,33 236,43" />
<polygon fill="#707f9f" fill-opacity="0.501961" points="71,115 83,121 73,121" />
<polygon fill="#00134a" fill-opacity="0.501961" points="240,114 250,134 250,113" />
<polygon fill="#371b13" fill-opacity="0.501961" points="149,44 135,58 136,44" />
<polygon fill="#44291d" fill-opacity="0.501961" points="124,24 110,20 133,20" />
<polygon fill="#09205f" fill-opacity="0.501961" points="178,112 100,114 122,142" />
<polygon fill="#334d88" fill-opacity="0.501961" points="226,112 232,112 225,110" />
<polygon fill="#0f2763" fill-opacity="0.501961" points="64,120 54,124 48,121" />
<polygon fill="#2a251d" fill-opacity="0.501961" points="57,25 65,24 57,51" />
<polygon fill="#1a3d86" fill-opacity="0.501961" points="238,114 237,111 248,111" />
<polygon fill="#000000" fill-opacity="0.501961" points="-10,110 25,2 26,109" />
<polygon fill="#1e0a05" fill-opacity="0.501961" points="82,57 87,32 89,59" />
<polygon fill="#020001" fill-opacity="0.501961" points="78,80 69,85 82,70" />
<polygon fill="#031c5b" fill-opacity="0.501961" points="43,130 63,130 53,136" />
<polygon fill="#3b3734" fill-opacity="0.501961" points="225,42 214,36 216,43" />
<polygon fill="#4e433b" fill-opacity="0.501961" points="47,77 57,52 46,59" />
<polygon fill="#8e9ab5" fill-opacity="0.501961" points="54,116 62,121 60,117" />
<polygon fill="#1d0f0e" fill-opacity="0.501961" points="174,17 163,16 172,46" />
<polygon fill="#d7c1ae" fill-opacity="0.501961" points="130,70 128,72 126,68" />
<polygon fill="#5c5560" fill-opacity="0.501961" points="196,50 196,57 182,55" />
<polygon fill="#204688" fill-opacity="0.501961" points="4,143 4,133 7,142" />
<polygon fill="#00134f" fill-opacity="0.501961" points="54,142 36,142 44,139" />
<polygon fill="#1b0f0f" fill-opacity="0.501961" points="45,14 45,42 56,23" />
<polygon fill="#4c5e86" fill-opacity="0.501961" points="51,116 41,118 49,119" />
<polygon fill="#1b1223" fill-opacity="0.501961" points="121,64 84,100 128,94" />
<polygon fill="#362213" fill-opacity="0.501961" points="67,61 69,79 78,74" />
<polygon fill="#011954" fill-opacity="0.501961" points="42,116 55,117 53,113" />
<polygon fill="#827f83" fill-opacity="0.501961" points="131,77 130,80 127,76" />
<polygon fill="#020200" fill-opacity="0.501961" points="271,42 255,119 232,24" />
<polygon fill="#120e10" fill-opacity="0.501961" points="127,33 129,22 126,23" />
<polygon fill="#361209" fill-opacity="0.501961" points="132,25 132,39 135,32" />
<polygon fill="#1d4181" fill-opacity="0.501961" points="173,143 186,143 180,140" />
<polygon fill="#071d54" fill-opacity="0.501961" points="143,141 195,121 199,142" />
<polygon fill="#528aff" fill-opacity="0.501961" points="243,131 246,130 248,139" />
<polygon fill="#001951" fill-opacity="0.501961" points="248,113 251,132 224,112" />
<polygon fill="#423933" fill-opacity="0.501961" points="199,34 211,42 184,49" />
<polygon fill="#1f100d" fill-opacity="0.501961" points="55,41 67,52 42,57" />
<polygon fill="#0a2c6d" fill-opacity="0.501961" points="247,139 250,143 238,142" />
<polygon fill="#160d13" fill-opacity="0.501961" points="63,98 78,83 56,76" />
<polygon fill="#1c1425" fill-opacity="0.501961" points="81,81 81,68 129,72" />
<polygon fill="#1c131e" fill-opacity="0.501961" points="155,60 142,56 132,60" />
<polygon fill="#2d1f19" fill-opacity="0.501961" points="141,81 146,93 132,94" />
<polygon fill="#4d463f" fill-opacity="0.501961" points="84,43 83,39 70,44" />
<polygon fill="#17090b" fill-opacity="0.501961" points="163,37 161,28 190,28" />
<polygon fill="#49433c" fill-opacity="0.501961" points="174,48 172,64 165,64" />
<polygon fill="#301e18" fill-opacity="0.501961" points="116,18 95,23 124,24" />
<polygon fill="#4c4440" fill-opacity="0.501961" points="45,57 44,46 41,54" />
<polygon fill="#402b1c" fill-opacity="0.501961" points="104,69 118,62 118,67" />
<polygon fill="#1c1222" fill-opacity="0.501961" points="159,78 200,110 146,109" />
<polygon fill="#ffffed" fill-opacity="0.501961" points="126,65 125,63 129,65" />
<polygon fill="#5b504a" fill-opacity="0.501961" points="102,25 96,29 111,30" />
<polygon fill="#1b3677" fill-opacity="0.501961" points="91,143 68,143 79,138" />
<polygon fill="#150b1a" fill-opacity="0.501961" points="94,58 114,52 132,61" />
<polygon fill="#09205c" fill-opacity="0.501961" points="89,142 90,121 70,141" />
<polygon fill="#484038" fill-opacity="0.501961" points="57,38 51,36 53,28" />
<polygon fill="#201529" fill-opacity="0.501961" points="72,104 88,103 90,110" />
<polygon fill="#462319" fill-opacity="0.501961" points="47,83 51,90 52,80" />
<polygon fill="#000000" fill-opacity="0.501961" points="46,98 53,104 38,99" />
<polygon fill="#050000" fill-opacity="0.501961" points="63,94 75,91 73,111" />
<polygon fill="#090208" fill-opacity="0.501961" points="146,84 142,62 156,75" />
<polygon fill="#433125" fill-opacity="0.501961" points="141,20 153,20 142,24" />
<polygon fill="#1e356d" fill-opacity="0.501961" points="91,113 89,119 96,113" />
<polygon fill="#0d2e6d" fill-opacity="0.501961" points="15,111 4,112 12,117" />
<polygon fill="#072665" fill-opacity="0.501961" points="252,135 252,143 244,141" />
<polygon fill="#180d0c" fill-opacity="0.501961" points="43,33 53,21 59,28" />
<polygon fill="#011a53" fill-opacity="0.501961" points="250,142 227,127 216,136" />
<polygon fill="#412115" fill-opacity="0.501961" points="164,73 171,72 161,64" />
<polygon fill="#544944" fill-opacity="0.501961" points="187,57 191,37 173,39" />
<polygon fill="#412b1b" fill-opacity="0.501961" points="61,98 63,94 61,90" />
<polygon fill="#10070e" fill-opacity="0.501961" points="140,58 138,76 131,70" />
<polygon fill="#1a1223" fill-opacity="0.501961" points="70,85 127,75 83,98" />
<polygon fill="#140903" fill-opacity="0.501961" points="31,75 34,110 24,109" />
<polygon fill="#596b92" fill-opacity="0.501961" points="46,124 43,130 39,123" />
<polygon fill="#041d59" fill-opacity="0.501961" points="40,137 39,123 24,134" />
<polygon fill="#544840" fill-opacity="0.501961" points="50,57 57,75 46,76" />
<polygon fill="#001951" fill-opacity="0.501961" points="30,112 6,113 9,136" />
<polygon fill="#010003" fill-opacity="0.501961" points="59,55 70,57 61,58" />
<polygon fill="#244392" fill-opacity="0.501961" points="135,111 139,114 146,111" />
<polygon fill="#000000" fill-opacity="0.501961" points="173,-16 175,27 271,27" />
<polygon fill="#0a205c" fill-opacity="0.501961" points="101,112 201,112 151,127" />
<polygon fill="#584e4c" fill-opacity="0.501961" points="68,28 75,31 75,24" />
<polygon fill="#162c67" fill-opacity="0.501961" points="64,114 61,117 61,122" />
<polygon fill="#18131f" fill-opacity="0.501961" points="138,86 129,79 127,101" />
<polygon fill="#243d78" fill-opacity="0.501961" points="76,121 79,111 76,112" />
<polygon fill="#2f150c" fill-opacity="0.501961" points="58,87 42,70 37,75" />
<polygon fill="#191226" fill-opacity="0.501961" points="31,96 44,97 44,84" />
<polygon fill="#7b8aa7" fill-opacity="0.501961" points="55,122 59,114 55,115" />
<polygon fill="#1d1425" fill-opacity="0.501961" points="174,71 221,72 169,109" />
<polygon fill="#607096" fill-opacity="0.501961" points="60,131 61,126 58,128" />
<polygon fill="#4a5c87" fill-opacity="0.501961" points="55,125 56,128 53,130" />
<polygon fill="#f5e0c3" fill-opacity="0.501961" points="131,66 131,63 122,63" />
<polygon fill="#214289" fill-opacity="0.501961" points="22,143 19,141 17,143" />
<polygon fill="#001a53" fill-opacity="0.501961" points="4,142 30,141 8,113" />
<polygon fill="#41261e" fill-opacity="0.501961" points="97,33 110,33 109,29" />
<polygon fill="#100803" fill-opacity="0.501961" points="250,70 238,46 225,70" />
<polygon fill="#140908" fill-opacity="0.501961" points="161,51 155,49 159,46" />
<polygon fill="#38261a" fill-opacity="0.501961" points="174,44 172,39 158,40" />
<polygon fill="#120b17" fill-opacity="0.501961" points="228,83 211,103 228,111" />
<polygon fill="#001557" fill-opacity="0.501961" points="65,112 76,113 65,115" />
<polygon fill="#4f4441" fill-opacity="0.501961" points="196,54 209,38 210,57" />
<polygon fill="#0a0202" fill-opacity="0.501961" points="30,78 33,83 45,83" />
<polygon fill="#191425" fill-opacity="0.501961" points="122,63 122,60 119,64" />
<polygon fill="#544b45" fill-opacity="0.501961" points="109,25 126,28 106,31" />
<polygon fill="#3f2017" fill-opacity="0.501961" points="158,48 159,54 139,51" />
<polygon fill="#21438c" fill-opacity="0.501961" points="253,114 252,121 251,114" />
<polygon fill="#3c4c6c" fill-opacity="0.501961" points="208,142 198,142 186,160" />
<polygon fill="#0f0202" fill-opacity="0.501961" points="180,59 174,59 179,61" />
<polygon fill="#27130f" fill-opacity="0.501961" points="127,55 133,64 134,34" />
<polygon fill="#1d3983" fill-opacity="0.501961" points="105,140 108,143 95,142" />
<polygon fill="#16150f" fill-opacity="0.501961" points="226,143 178,156 183,143" />
<polygon fill="#09215f" fill-opacity="0.501961" points="41,142 119,141 86,121" />
<polygon fill="#2a4a9d" fill-opacity="0.501961" points="127,113 124,111 133,111" />
<polygon fill="#021b55" fill-opacity="0.501961" points="7,127 48,122 19,115" />
<polygon fill="#918583" fill-opacity="0.501961" points="138,80 138,84 135,81" />
<polygon fill="#011a5b" fill-opacity="0.501961" points="66,115 71,112 55,112" />
<polygon fill="#1a0b07" fill-opacity="0.501961" points="176,69 195,71 201,64" />
<polygon fill="#020500" fill-opacity="0.501961" points="-16,160 31,143 -6,143" />
<polygon fill="#1b1222" fill-opacity="0.501961" points="107,96 135,81 129,104" />
<polygon fill="#000000" fill-opacity="0.501961" points="3,148 3,100 -16,146" />
<polygon fill="#1f0f0f" fill-opacity="0.501961" points="119,16 136,20 151,15" />
<polygon fill="#092160" fill-opacity="0.501961" points="153,112 108,140 104,112" />
<polygon fill="#4e473f" fill-opacity="0.501961" points="159,41 146,43 155,44" />
<polygon fill="#000000" fill-opacity="0.501961" points="44,-16 -16,38 45,39" />
<polygon fill="#031c54" fill-opacity="0.501961" points="196,142 242,141 237,113" />
<polygon fill="#001951" fill-opacity="0.501961" points="251,115 234,126 251,130" />
<polygon fill="#2e160e" fill-opacity="0.501961" points="212,68 182,69 212,57" />
<polygon fill="#44190d" fill-opacity="0.501961" points="87,34 84,23 84,43" />
<polygon fill="#030000" fill-opacity="0.501961" points="212,41 212,62 220,54" />
<polygon fill="#183068" fill-opacity="0.501961" points="48,123 46,122 48,128" />
<polygon fill="#000000" fill-opacity="0.501961" points="193,14 83,-16 79,14" />
<polygon fill="#6c626b" fill-opacity="0.501961" points="196,49 189,47 195,56" />
<polygon fill="#000000" fill-opacity="0.501961" points="229,87 246,100 271,78" />
<polygon fill="#211410" fill-opacity="0.501961" points="205,35 216,27 177,27" />
<polygon fill="#1a1323" fill-opacity="0.501961" points="154,100 171,100 137,79" />
<polygon fill="#1c1425" fill-opacity="0.501961" points="121,55 98,67 71,63" />
<polygon fill="#372c22" fill-opacity="0.501961" points="220,33 201,39 181,34" />
<polygon fill="#5085fc" fill-opacity="0.501961" points="245,137 240,134 247,133" />
<polygon fill="#051f57" fill-opacity="0.501961" points="240,134 199,136 219,122" />
<polygon fill="#1b1529" fill-opacity="0.501961" points="58,62 64,84 58,84" />
<polygon fill="#0c0302" fill-opacity="0.501961" points="68,74 73,76 61,76" />
<polygon fill="#504740" fill-opacity="0.501961" points="56,37 51,39 55,31" />
<polygon fill="#0a2160" fill-opacity="0.501961" points="59,142 142,140 71,122" />
<polygon fill="#090300" fill-opacity="0.501961" points="93,58 82,59 86,56" />
<polygon fill="#939fb9" fill-opacity="0.501961" points="80,115 78,118 81,122" />
<polygon fill="#3e2a1f" fill-opacity="0.501961" points="83,25 100,20 67,20" />
<polygon fill="#432c19" fill-opacity="0.501961" points="143,94 144,89 139,88" />
<polygon fill="#170d12" fill-opacity="0.501961" points="195,61 187,58 196,57" />
<polygon fill="#182d64" fill-opacity="0.501961" points="176,127 173,117 173,137" />
<polygon fill="#38446e" fill-opacity="0.501961" points="160,110 172,111 161,113" />
<polygon fill="#0b0306" fill-opacity="0.501961" points="76,81 77,69 81,73" />
<polygon fill="#09215f" fill-opacity="0.501961" points="106,138 99,113 175,112" />
<polygon fill="#14090b" fill-opacity="0.501961" points="39,41 50,51 58,42" />
<polygon fill="#28211b" fill-opacity="0.501961" points="33,47 32,74 40,59" />
<polygon fill="#284897" fill-opacity="0.501961" points="190,111 196,113 197,111" />
<polygon fill="#110703" fill-opacity="0.501961" points="170,80 173,77 161,76" />
<polygon fill="#000000" fill-opacity="0.501961" points="81,104 83,101 76,101" />
<polygon fill="#452f1d" fill-opacity="0.501961" points="76,71 78,66 74,65" />
<polygon fill="#40281f" fill-opacity="0.501961" points="106,25 118,20 94,20" />
<polygon fill="#051850" fill-opacity="0.501961" points="205,112 196,116 191,112" />
<polygon fill="#1c1423" fill-opacity="0.501961" points="98,90 122,90 127,76" />
<polygon fill="#543f34" fill-opacity="0.501961" points="130,31 133,24 129,24" />
<polygon fill="#433f39" fill-opacity="0.501961" points="89,23 91,36 88,31" />
<polygon fill="#000000" fill-opacity="0.501961" points="92,52 126,53 96,35" />
<polygon fill="#050105" fill-opacity="0.501961" points="232,101 228,110 258,110" />
<polygon fill="#4e443f" fill-opacity="0.501961" points="161,54 190,46 162,44" />
<polygon fill="#22130f" fill-opacity="0.501961" points="87,23 75,14 120,14" />
<polygon fill="#09060f" fill-opacity="0.501961" points="228,85 248,83 240,72" />
<polygon fill="#808dac" fill-opacity="0.501961" points="53,119 60,116 58,119" />
</g>
</svg>