<svg xmlns="http://www.w3.org/2000/svg" version="1.1" width="1024" height="580">
<rect x="0" y="0" width="1024" height="580" fill="#0a0d1b" />
<g transform="scale(4.000000) translate(0.5 0.5)">
<polygon fill="#013091" fill-opacity="0.501961" points="125,160 271,111 -16,112" />
<polygon fill="#d09d8b" fill-opacity="0.501961" points="123,56 126,83 145,61" />
<polygon fill="#043496" fill-opacity="0.501961" points="251,160 254,118 130,160" />
<polygon fill="#0d0200" fill-opacity="0.501961" points="262,116 269,0 -16,-1" />
<polygon fill="#002d92" fill-opacity="0.501961" points="6,142 75,143 4,121" />
<polygon fill="#060000" fill-opacity="0.501961" points="137,98 0,-16 -16,113" />
<polygon fill="#a7b3c8" fill-opacity="0.501961" points="49,120 67,121 60,111" />
<polygon fill="#ffffeb" fill-opacity="0.501961" points="130,61 129,70 121,65" />
<polygon fill="#69b3ff" fill-opacity="0.501961" points="239,132 246,138 247,129" />
<polygon fill="#544544" fill-opacity="0.501961" points="110,76 109,90 150,63" />
<polygon fill="#0f0600" fill-opacity="0.501961" points="152,70 271,110 59,109" />
<polygon fill="#292115" fill-opacity="0.501961" points="172,12 41,-11 114,36" />
<polygon fill="#000000" fill-opacity="0.501961" points="271,-3 258,122 162,-16" />
<polygon fill="#000000" fill-opacity="0.501961" points="-11,145 52,10 0,-16" />
<polygon fill="#6d2d2b" fill-opacity="0.501961" points="142,72 122,53 147,62" />
<polygon fill="#fee9e0" fill-opacity="0.501961" points="115,76 111,76 119,82" />
<polygon fill="#11090b" fill-opacity="0.501961" points="123,66 59,114 56,-16" />
<polygon fill="#363d46" fill-opacity="0.501961" points="139,69 127,86 121,75" />
<polygon fill="#d4c9b0" fill-opacity="0.501961" points="120,69 132,62 132,67" />
<polygon fill="#1c1107" fill-opacity="0.501961" points="163,44 159,6 233,41" />
<polygon fill="#011f67" fill-opacity="0.501961" points="51,115 77,114 63,110" />
<polygon fill="#b4a19e" fill-opacity="0.501961" points="112,83 114,74 117,77" />
<polygon fill="#00184e" fill-opacity="0.501961" points="218,160 252,115 62,129" />
<polygon fill="#0d0000" fill-opacity="0.501961" points="163,143 102,160 71,143" />
<polygon fill="#30151a" fill-opacity="0.501961" points="144,44 133,80 133,55" />
<polygon fill="#000000" fill-opacity="0.501961" points="160,21 135,17 141,60" />
<polygon fill="#000000" fill-opacity="0.501961" points="-16,152 4,86 2,153" />
<polygon fill="#0a0000" fill-opacity="0.501961" points="248,143 235,160 172,144" />
<polygon fill="#000000" fill-opacity="0.501961" points="253,62 271,124 253,146" />
<polygon fill="#0f0707" fill-opacity="0.501961" points="76,14 124,85 108,22" />
<polygon fill="#8d9ab3" fill-opacity="0.501961" points="55,122 64,122 66,114" />
<polygon fill="#000000" fill-opacity="0.501961" points="183,73 271,56 250,-16" />
<polygon fill="#060200" fill-opacity="0.501961" points="180,-1 110,-10 112,17" />
<polygon fill="#142d6a" fill-opacity="0.501961" points="4,110 59,110 44,121" />
<polygon fill="#011a56" fill-opacity="0.501961" points="81,127 4,112 5,142" />
<polygon fill="#f1d3bc" fill-opacity="0.501961" points="124,58 127,65 135,66" />
<polygon fill="#2c2624" fill-opacity="0.501961" points="111,-16 107,20 81,8" />
<polygon fill="#649dff" fill-opacity="0.501961" points="244,132 246,138 247,136" />
<polygon fill="#29221c" fill-opacity="0.501961" points="172,7 160,25 176,34" />
<polygon fill="#807269" fill-opacity="0.501961" points="138,69 127,73 122,67" />
<polygon fill="#633e3f" fill-opacity="0.501961" points="146,69 136,57 118,55" />
<polygon fill="#000000" fill-opacity="0.501961" points="-16,139 44,55 1,-16" />
<polygon fill="#0b070f" fill-opacity="0.501961" points="143,89 208,67 131,71" />
<polygon fill="#08215b" fill-opacity="0.501961" points="62,110 129,110 70,128" />
<polygon fill="#070300" fill-opacity="0.501961" points="127,143 216,143 164,158" />
<polygon fill="#100e0d" fill-opacity="0.501961" points="121,80 123,108 113,80" />
<polygon fill="#0e0910" fill-opacity="0.501961" points="37,14 45,110 121,95" />
<polygon fill="#011b54" fill-opacity="0.501961" points="252,107 237,120 251,134" />
<polygon fill="#2e2923" fill-opacity="0.501961" points="119,17 122,38 108,38" />
<polygon fill="#66656d" fill-opacity="0.501961" points="132,79 131,84 123,76" />
<polygon fill="#0d070e" fill-opacity="0.501961" points="125,59 108,80 35,66" />
<polygon fill="#070401" fill-opacity="0.501961" points="178,-16 238,32 173,33" />
<polygon fill="#010100" fill-opacity="0.501961" points="271,108 226,111 226,-16" />
<polygon fill="#011952" fill-opacity="0.501961" points="49,119 72,142 4,139" />
<polygon fill="#110b08" fill-opacity="0.501961" points="84,17 6,12 146,61" />
<polygon fill="#001851" fill-opacity="0.501961" points="68,142 65,112 151,112" />
<polygon fill="#0e0904" fill-opacity="0.501961" points="171,110 249,84 92,85" />
<polygon fill="#3c73f4" fill-opacity="0.501961" points="250,132 246,137 240,136" />
<polygon fill="#082159" fill-opacity="0.501961" points="148,110 241,137 231,110" />
<polygon fill="#160c08" fill-opacity="0.501961" points="233,33 214,53 142,32" />
<polygon fill="#0c2b6b" fill-opacity="0.501961" points="253,142 252,112 246,128" />
<polygon fill="#27211d" fill-opacity="0.501961" points="136,40 134,8 125,11" />
<polygon fill="#0c2864" fill-opacity="0.501961" points="176,111 136,122 97,111" />
<polygon fill="#734442" fill-opacity="0.501961" points="122,56 139,61 128,62" />
<polygon fill="#b5a7a3" fill-opacity="0.501961" points="110,82 113,84 112,80" />
<polygon fill="#060100" fill-opacity="0.501961" points="123,31 139,34 120,60" />
<polygon fill="#8391ab" fill-opacity="0.501961" points="55,122 51,116 65,115" />
<polygon fill="#001953" fill-opacity="0.501961" points="4,142 6,112 48,112" />
<polygon fill="#00184d" fill-opacity="0.501961" points="93,112 132,125 170,112" />
<polygon fill="#0b070b" fill-opacity="0.501961" points="101,64 114,81 81,63" />
<polygon fill="#8f2e2d" fill-opacity="0.501961" points="136,57 136,54 140,53" />
<polygon fill="#030100" fill-opacity="0.501961" points="76,7 14,31 44,6" />
<polygon fill="#001751" fill-opacity="0.501961" points="186,113 250,140 195,141" />
<polygon fill="#000000" fill-opacity="0.501961" points="135,47 156,20 135,21" />
<polygon fill="#222323" fill-opacity="0.501961" points="69,21 57,14 55,20" />
<polygon fill="#102f6c" fill-opacity="0.501961" points="4,113 4,146 10,124" />
<polygon fill="#0d0811" fill-opacity="0.501961" points="216,89 156,79 132,42" />
<polygon fill="#072462" fill-opacity="0.501961" points="165,133 133,142 191,143" />
<polygon fill="#14337c" fill-opacity="0.501961" points="51,111 80,111 66,116" />
<polygon fill="#938170" fill-opacity="0.501961" points="128,73 122,63 122,69" />
<polygon fill="#872624" fill-opacity="0.501961" points="137,69 146,64 138,61" />
<polygon fill="#00174f" fill-opacity="0.501961" points="132,141 159,127 201,142" />
<polygon fill="#120b0a" fill-opacity="0.501961" points="133,107 140,65 152,110" />
<polygon fill="#0c070e" fill-opacity="0.501961" points="123,73 117,40 32,29" />
<polygon fill="#0b0710" fill-opacity="0.501961" points="82,35 124,83 108,32" />
<polygon fill="#454750" fill-opacity="0.501961" points="121,79 126,71 133,79" />
<polygon fill="#051e56" fill-opacity="0.501961" points="92,129 57,121 28,137" />
<polygon fill="#140d06" fill-opacity="0.501961" points="139,10 165,0 202,11" />
<polygon fill="#010100" fill-opacity="0.501961" points="32,110 9,-16 -5,109" />
<polygon fill="#000000" fill-opacity="0.501961" points="4,104 -16,76 3,151" />
<polygon fill="#fff9dc" fill-opacity="0.501961" points="128,63 124,65 124,62" />
<polygon fill="#000000" fill-opacity="0.501961" points="186,72 182,58 237,59" />
<polygon fill="#2b1617" fill-opacity="0.501961" points="136,68 133,65 136,59" />
<polygon fill="#5086ff" fill-opacity="0.501961" points="247,135 243,132 244,129" />
<polygon fill="#241e1a" fill-opacity="0.501961" points="146,11 131,19 173,18" />
<polygon fill="#755e5a" fill-opacity="0.501961" points="138,72 140,70 135,69" />
<polygon fill="#0b070e" fill-opacity="0.501961" points="133,72 134,92 170,67" />
<polygon fill="#150807" fill-opacity="0.501961" points="113,40 125,62 107,56" />
<polygon fill="#020000" fill-opacity="0.501961" points="249,158 245,143 271,143" />
<polygon fill="#5e92ff" fill-opacity="0.501961" points="242,134 246,131 247,136" />
<polygon fill="#465a82" fill-opacity="0.501961" points="47,121 45,118 39,117" />
<polygon fill="#00174f" fill-opacity="0.501961" points="251,112 209,113 251,131" />
<polygon fill="#292623" fill-opacity="0.501961" points="160,34 162,9 165,22" />
<polygon fill="#1d3f86" fill-opacity="0.501961" points="145,111 158,111 155,114" />
<polygon fill="#1d1406" fill-opacity="0.501961" points="63,76 73,93 78,79" />
<polygon fill="#123071" fill-opacity="0.501961" points="188,111 196,117 218,111" />
<polygon fill="#001649" fill-opacity="0.501961" points="190,120 190,112 215,112" />
<polygon fill="#193a7e" fill-opacity="0.501961" points="218,140 227,143 214,143" />
<polygon fill="#000000" fill-opacity="0.501961" points="253,97 253,160 270,158" />
<polygon fill="#163477" fill-opacity="0.501961" points="38,143 38,139 52,143" />
<polygon fill="#00174f" fill-opacity="0.501961" points="70,118 61,112 85,112" />
<polygon fill="#153679" fill-opacity="0.501961" points="252,116 238,111 252,112" />
<polygon fill="#0a0500" fill-opacity="0.501961" points="89,33 38,18 16,33" />
<polygon fill="#051e59" fill-opacity="0.501961" points="50,115 42,125 50,127" />
<polygon fill="#001952" fill-opacity="0.501961" points="159,142 234,141 252,112" />
<polygon fill="#001951" fill-opacity="0.501961" points="9,142 87,141 5,118" />
<polygon fill="#1a1a12" fill-opacity="0.501961" points="46,-16 51,6 80,6" />
<polygon fill="#26211d" fill-opacity="0.501961" points="97,18 84,4 84,20" />
<polygon fill="#031c54" fill-opacity="0.501961" points="245,113 133,112 171,142" />
<polygon fill="#123173" fill-opacity="0.501961" points="86,143 98,139 110,143" />
<polygon fill="#565554" fill-opacity="0.501961" points="118,79 121,81 115,82" />
<polygon fill="#1a3b7e" fill-opacity="0.501961" points="193,140 201,143 187,143" />
<polygon fill="#1a397d" fill-opacity="0.501961" points="86,143 80,140 69,143" />
<polygon fill="#00124a" fill-opacity="0.501961" points="111,142 92,135 69,142" />
<polygon fill="#120905" fill-opacity="0.501961" points="83,31 83,-14 59,26" />
<polygon fill="#212524" fill-opacity="0.501961" points="29,18 29,15 19,15" />
<polygon fill="#060400" fill-opacity="0.501961" points="254,160 218,143 271,143" />
<polygon fill="#0d080f" fill-opacity="0.501961" points="181,88 172,39 144,68" />
<polygon fill="#8d6c68" fill-opacity="0.501961" points="129,55 126,56 124,62" />
<polygon fill="#080700" fill-opacity="0.501961" points="94,143 107,160 132,143" />
<polygon fill="#110a0c" fill-opacity="0.501961" points="141,59 86,38 106,31" />
<polygon fill="#18387a" fill-opacity="0.501961" points="129,143 134,140 140,143" />
<polygon fill="#001952" fill-opacity="0.501961" points="250,142 215,123 183,142" />
<polygon fill="#09060e" fill-opacity="0.501961" points="120,49 112,61 123,86" />
<polygon fill="#000000" fill-opacity="0.501961" points="271,61 271,-6 183,-16" />
<polygon fill="#0b0601" fill-opacity="0.501961" points="160,12 147,45 161,49" />
<polygon fill="#0b0711" fill-opacity="0.501961" points="70,101 103,106 115,52" />
<polygon fill="#292421" fill-opacity="0.501961" points="111,37 118,18 110,20" />
<polygon fill="#24396b" fill-opacity="0.501961" points="127,110 148,110 138,113" />
<polygon fill="#071f5c" fill-opacity="0.501961" points="65,134 60,135 57,119" />
<polygon fill="#100b08" fill-opacity="0.501961" points="131,81 138,111 159,98" />
<polygon fill="#001952" fill-opacity="0.501961" points="151,126 198,142 106,142" />
<polygon fill="#90847b" fill-opacity="0.501961" points="125,67 133,68 125,72" />
<polygon fill="#150803" fill-opacity="0.501961" points="64,26 109,32 107,19" />
<polygon fill="#0a0402" fill-opacity="0.501961" points="88,106 131,95 133,111" />
<polygon fill="#0c0810" fill-opacity="0.501961" points="108,30 42,103 28,62" />
<polygon fill="#060302" fill-opacity="0.501961" points="106,8 185,6 164,-15" />
<polygon fill="#041c58" fill-opacity="0.501961" points="41,140 51,118 28,124" />
<polygon fill="#070306" fill-opacity="0.501961" points="222,90 234,27 244,91" />
<polygon fill="#010000" fill-opacity="0.501961" points="67,16 79,7 46,7" />
<polygon fill="#1a1913" fill-opacity="0.501961" points="197,94 212,96 198,102" />
<polygon fill="#221c16" fill-opacity="0.501961" points="187,111 188,99 184,95" />
<polygon fill="#6b4244" fill-opacity="0.501961" points="134,62 144,70 141,61" />
<polygon fill="#00174f" fill-opacity="0.501961" points="241,113 251,136 250,112" />
<polygon fill="#090500" fill-opacity="0.501961" points="59,91 77,96 80,82" />
<polygon fill="#4b4b53" fill-opacity="0.501961" points="132,70 122,84 129,83" />
<polygon fill="#0b070f" fill-opacity="0.501961" points="131,42 153,65 221,47" />
<polygon fill="#234895" fill-opacity="0.501961" points="235,113 242,111 232,111" />
<polygon fill="#170804" fill-opacity="0.501961" points="170,20 166,33 165,5" />
<polygon fill="#12306e" fill-opacity="0.501961" points="157,143 176,143 162,138" />
<polygon fill="#1b3c7e" fill-opacity="0.501961" points="114,143 116,140 127,143" />
<polygon fill="#001951" fill-opacity="0.501961" points="171,129 134,142 199,142" />
<polygon fill="#110c08" fill-opacity="0.501961" points="179,7 184,18 216,7" />
<polygon fill="#001a52" fill-opacity="0.501961" points="127,141 63,142 86,127" />
<polygon fill="#0a060c" fill-opacity="0.501961" points="4,77 70,111 29,108" />
<polygon fill="#15060b" fill-opacity="0.501961" points="142,47 138,61 146,55" />
<polygon fill="#0a0a04" fill-opacity="0.501961" points="234,89 220,110 179,110" />
<polygon fill="#211e18" fill-opacity="0.501961" points="172,103 175,92 170,99" />
<polygon fill="#051b52" fill-opacity="0.501961" points="65,115 57,115 53,110" />
<polygon fill="#001a54" fill-opacity="0.501961" points="249,124 238,113 233,138" />
<polygon fill="#143372" fill-opacity="0.501961" points="14,139 9,143 26,143" />
<polygon fill="#0e080c" fill-opacity="0.501961" points="83,64 102,75 124,62" />
<polygon fill="#001850" fill-opacity="0.501961" points="5,129 5,141 44,142" />
<polygon fill="#cfb8b4" fill-opacity="0.501961" points="115,77 110,78 116,75" />
<polygon fill="#1c222b" fill-opacity="0.501961" points="136,72 123,72 134,75" />
<polygon fill="#110c0d" fill-opacity="0.501961" points="141,69 131,93 137,108" />
<polygon fill="#060602" fill-opacity="0.501961" points="4,19 38,11 53,-13" />
<polygon fill="#120a12" fill-opacity="0.501961" points="135,50 138,60 115,46" />
<polygon fill="#0c0911" fill-opacity="0.501961" points="121,67 99,50 121,79" />
<polygon fill="#2a2320" fill-opacity="0.501961" points="128,33 131,10 135,32" />
<polygon fill="#163374" fill-opacity="0.501961" points="174,111 200,111 183,116" />
<polygon fill="#021b53" fill-opacity="0.501961" points="230,142 148,112 243,112" />
<polygon fill="#161613" fill-opacity="0.501961" points="146,95 147,110 161,95" />
<polygon fill="#292521" fill-opacity="0.501961" points="173,31 173,14 169,26" />
<polygon fill="#1d120c" fill-opacity="0.501961" points="75,33 79,-2 85,14" />
<polygon fill="#29251f" fill-opacity="0.501961" points="198,101 196,111 200,110" />
<polygon fill="#060305" fill-opacity="0.501961" points="177,32 174,13 225,32" />
<polygon fill="#2b2d30" fill-opacity="0.501961" points="69,20 67,25 69,24" />
<polygon fill="#120c09" fill-opacity="0.501961" points="128,7 116,16 127,20" />
<polygon fill="#26488b" fill-opacity="0.501961" points="6,112 4,118 4,111" />
<polygon fill="#13357a" fill-opacity="0.501961" points="100,115 111,111 94,111" />
<polygon fill="#170c04" fill-opacity="0.501961" points="110,46 124,57 121,36" />
<polygon fill="#1a3a7c" fill-opacity="0.501961" points="253,132 250,128 252,123" />
<polygon fill="#021b54" fill-opacity="0.501961" points="161,112 63,112 105,142" />
<polygon fill="#011953" fill-opacity="0.501961" points="46,114 7,132 5,115" />
<polygon fill="#020202" fill-opacity="0.501961" points="18,108 13,66 -16,115" />
<polygon fill="#1c3e83" fill-opacity="0.501961" points="121,114 124,111 116,111" />
<polygon fill="#15347e" fill-opacity="0.501961" points="37,115 23,111 48,111" />
<polygon fill="#011953" fill-opacity="0.501961" points="12,112 42,113 17,141" />
<polygon fill="#201c19" fill-opacity="0.501961" points="123,95 124,107 120,110" />
<polygon fill="#001349" fill-opacity="0.501961" points="251,121 250,130 249,126" />
<polygon fill="#214388" fill-opacity="0.501961" points="33,141 26,143 37,143" />
<polygon fill="#100703" fill-opacity="0.501961" points="191,46 150,44 148,29" />
<polygon fill="#000000" fill-opacity="0.501961" points="102,109 94,110 95,97" />
<polygon fill="#133373" fill-opacity="0.501961" points="209,139 213,143 200,143" />
<polygon fill="#001a52" fill-opacity="0.501961" points="5,141 40,142 5,114" />
<polygon fill="#16377b" fill-opacity="0.501961" points="210,111 231,111 222,115" />
<polygon fill="#031c53" fill-opacity="0.501961" points="211,142 238,112 154,112" />
<polygon fill="#041d54" fill-opacity="0.501961" points="105,112 206,112 146,134" />
<polygon fill="#1a100b" fill-opacity="0.501961" points="186,18 188,33 182,44" />
<polygon fill="#a9b3c5" fill-opacity="0.501961" points="64,116 59,116 59,121" />
<polygon fill="#001952" fill-opacity="0.501961" points="248,142 172,141 225,125" />
<polygon fill="#0d0911" fill-opacity="0.501961" points="36,111 59,21 61,104" />
<polygon fill="#000000" fill-opacity="0.501961" points="128,0 220,2 193,-16" />
<polygon fill="#224891" fill-opacity="0.501961" points="96,111 92,113 88,111" />
<polygon fill="#030000" fill-opacity="0.501961" points="141,31 135,11 134,43" />
<polygon fill="#818fa8" fill-opacity="0.501961" points="50,120 52,119 52,115" />
<polygon fill="#000100" fill-opacity="0.501961" points="237,110 271,108 247,83" />
<polygon fill="#000000" fill-opacity="0.501961" points="1,100 6,159 -16,144" />
<polygon fill="#001952" fill-opacity="0.501961" points="80,113 107,130 107,112" />
<polygon fill="#211d17" fill-opacity="0.501961" points="137,93 134,104 133,99" />
<polygon fill="#051e55" fill-opacity="0.501961" points="239,113 126,112 184,129" />
<polygon fill="#090100" fill-opacity="0.501961" points="146,99 141,111 135,87" />
<polygon fill="#9c8f7e" fill-opacity="0.501961" points="126,71 123,68 132,68" />
<polygon fill="#0d0811" fill-opacity="0.501961" points="133,72 137,84 164,69" />
<polygon fill="#0c080f" fill-opacity="0.501961" points="112,79 60,34 82,84" />
<polygon fill="#000102" fill-opacity="0.501961" points="159,111 168,94 161,93" />
<polygon fill="#656a79" fill-opacity="0.501961" points="130,78 127,81 124,78" />
<polygon fill="#1a110a" fill-opacity="0.501961" points="164,32 216,34 181,42" />
<polygon fill="#0b0811" fill-opacity="0.501961" points="120,60 91,36 122,82" />
<polygon fill="#051c58" fill-opacity="0.501961" points="39,142 61,121 69,133" />
<polygon fill="#0c080d" fill-opacity="0.501961" points="107,107 92,93 123,82" />
<polygon fill="#020000" fill-opacity="0.501961" points="114,92 120,93 119,109" />
<polygon fill="#7e3b38" fill-opacity="0.501961" points="123,58 122,60 126,62" />
<polygon fill="#183879" fill-opacity="0.501961" points="159,143 154,140 150,143" />
<polygon fill="#150f09" fill-opacity="0.501961" points="198,13 196,37 201,25" />
<polygon fill="#00174e" fill-opacity="0.501961" points="173,135 164,142 151,141" />
<polygon fill="#010100" fill-opacity="0.501961" points="-16,63 45,55 13,5" />
<polygon fill="#133474" fill-opacity="0.501961" points="231,143 237,139 251,143" />
<polygon fill="#314675" fill-opacity="0.501961" points="54,120 51,124 53,117" />
<polygon fill="#001a53" fill-opacity="0.501961" points="247,143 252,134 250,123" />
<polygon fill="#001952" fill-opacity="0.501961" points="244,142 231,124 164,142" />
<polygon fill="#292421" fill-opacity="0.501961" points="108,20 100,2 108,-5" />
<polygon fill="#241e1d" fill-opacity="0.501961" points="84,-13 85,19 109,-14" />
<polygon fill="#0f0907" fill-opacity="0.501961" points="113,1 155,3 108,15" />
<polygon fill="#0d0909" fill-opacity="0.501961" points="129,91 123,94 112,80" />
<polygon fill="#18100b" fill-opacity="0.501961" points="73,94 62,81 79,77" />
<polygon fill="#0a0100" fill-opacity="0.501961" points="168,25 166,35 169,36" />
<polygon fill="#0a080e" fill-opacity="0.501961" points="190,83 234,71 236,86" />
<polygon fill="#130a05" fill-opacity="0.501961" points="109,18 109,34 74,20" />
<polygon fill="#141212" fill-opacity="0.501961" points="46,21 47,27 57,12" />
<polygon fill="#0c0200" fill-opacity="0.501961" points="198,110 196,94 185,108" />
<polygon fill="#1c4081" fill-opacity="0.501961" points="4,142 8,143 4,136" />
<polygon fill="#0d0912" fill-opacity="0.501961" points="225,85 160,84 192,70" />
<polygon fill="#0d0912" fill-opacity="0.501961" points="126,47 174,65 191,46" />
<polygon fill="#191713" fill-opacity="0.501961" points="221,96 226,107 225,97" />
<polygon fill="#1b130f" fill-opacity="0.501961" points="135,7 158,15 181,9" />
<polygon fill="#090100" fill-opacity="0.501961" points="182,97 174,93 182,110" />
<polygon fill="#0e0903" fill-opacity="0.501961" points="45,65 42,79 33,60" />
<polygon fill="#0c0911" fill-opacity="0.501961" points="109,82 109,109 59,51" />
<polygon fill="#001951" fill-opacity="0.501961" points="5,132 5,142 39,141" />
<polygon fill="#001a52" fill-opacity="0.501961" points="109,142 188,142 140,129" />
<polygon fill="#153475" fill-opacity="0.501961" points="179,116 174,111 162,111" />
<polygon fill="#031b53" fill-opacity="0.501961" points="153,142 90,112 181,112" />
<polygon fill="#201f1c" fill-opacity="0.501961" points="59,24 59,29 56,30" />
<polygon fill="#082159" fill-opacity="0.501961" points="146,121 171,125 174,114" />
<polygon fill="#040508" fill-opacity="0.501961" points="9,143 82,143 67,160" />
<polygon fill="#18387a" fill-opacity="0.501961" points="184,140 187,143 175,143" />
<polygon fill="#001952" fill-opacity="0.501961" points="250,141 172,142 204,128" />
<polygon fill="#1c1a17" fill-opacity="0.501961" points="57,4 74,6 74,-2" />
<polygon fill="#09205f" fill-opacity="0.501961" points="81,120 75,123 63,117" />
<polygon fill="#4e82fe" fill-opacity="0.501961" points="243,136 241,132 249,137" />
<polygon fill="#605656" fill-opacity="0.501961" points="131,70 129,78 133,80" />
<polygon fill="#0d0811" fill-opacity="0.501961" points="64,35 116,74 91,34" />
<polygon fill="#8b99b0" fill-opacity="0.501961" points="63,115 64,121 60,115" />
<polygon fill="#0c0812" fill-opacity="0.501961" points="54,110 37,84 93,108" />
<polygon fill="#1e0f0b" fill-opacity="0.501961" points="95,31 93,24 79,22" />
<polygon fill="#323846" fill-opacity="0.501961" points="132,78 129,73 129,78" />
<polygon fill="#030001" fill-opacity="0.501961" points="226,66 193,44 204,66" />
<polygon fill="#54111a" fill-opacity="0.501961" points="140,61 141,66 138,64" />
<polygon fill="#4f608b" fill-opacity="0.501961" points="54,121 53,122 51,121" />
<polygon fill="#080402" fill-opacity="0.501961" points="210,39 246,36 220,50" />
<polygon fill="#13327a" fill-opacity="0.501961" points="65,111 54,112 62,114" />
<polygon fill="#1a1413" fill-opacity="0.501961" points="101,5 93,5 89,18" />
<polygon fill="#021a55" fill-opacity="0.501961" points="48,112 13,138 12,112" />
<polygon fill="#0c0704" fill-opacity="0.501961" points="167,87 108,85 112,100" />
<polygon fill="#26201d" fill-opacity="0.501961" points="121,21 119,40 110,18" />
<polygon fill="#060504" fill-opacity="0.501961" points="199,26 214,17 200,36" />
<polygon fill="#0e090f" fill-opacity="0.501961" points="145,80 144,67 181,56" />
<polygon fill="#080704" fill-opacity="0.501961" points="229,96 222,82 199,96" />
<polygon fill="#0f0b13" fill-opacity="0.501961" points="141,80 146,86 127,80" />
<polygon fill="#29272a" fill-opacity="0.501961" points="59,18 55,15 61,16" />
<polygon fill="#080403" fill-opacity="0.501961" points="23,24 49,10 42,51" />
<polygon fill="#0b0400" fill-opacity="0.501961" points="135,32 116,41 137,46" />
<polygon fill="#193981" fill-opacity="0.501961" points="123,111 144,111 134,114" />
<polygon fill="#031c53" fill-opacity="0.501961" points="91,112 140,127 184,112" />
<polygon fill="#30060b" fill-opacity="0.501961" points="143,60 150,60 145,63" />
<polygon fill="#211814" fill-opacity="0.501961" points="82,9 78,2 78,17" />
<polygon fill="#001c58" fill-opacity="0.501961" points="227,131 231,140 249,139" />
<polygon fill="#051d57" fill-opacity="0.501961" points="59,124 33,118 48,140" />
<polygon fill="#1f1336" fill-opacity="0.501961" points="132,71 135,67 134,71" />
<polygon fill="#13070a" fill-opacity="0.501961" points="141,55 149,53 140,61" />
<polygon fill="#153475" fill-opacity="0.501961" points="54,143 67,143 62,139" />
<polygon fill="#001248" fill-opacity="0.501961" points="66,137 64,142 57,141" />
<polygon fill="#0c0c0b" fill-opacity="0.501961" points="35,17 30,7 20,14" />
<polygon fill="#040201" fill-opacity="0.501961" points="121,53 110,54 109,49" />
<polygon fill="#27221b" fill-opacity="0.501961" points="172,100 174,106 174,103" />
<polygon fill="#20438e" fill-opacity="0.501961" points="73,113 78,111 72,111" />
<polygon fill="#051e56" fill-opacity="0.501961" points="173,126 175,112 122,112" />
<polygon fill="#061e58" fill-opacity="0.501961" points="42,113 30,121 59,113" />
<polygon fill="#1a3a7c" fill-opacity="0.501961" points="141,143 141,141 148,142" />
<polygon fill="#001a52" fill-opacity="0.501961" points="166,128 117,142 215,142" />
<polygon fill="#031b58" fill-opacity="0.501961" points="78,112 65,112 73,124" />
<polygon fill="#140b04" fill-opacity="0.501961" points="79,56 72,52 82,46" />
<polygon fill="#000000" fill-opacity="0.501961" points="137,44 150,21 137,22" />
<polygon fill="#0d080f" fill-opacity="0.501961" points="163,92 140,68 147,83" />
<polygon fill="#474650" fill-opacity="0.501961" points="124,78 128,77 123,72" />
<polygon fill="#3872ed" fill-opacity="0.501961" points="243,137 241,134 242,137" />
<polygon fill="#080709" fill-opacity="0.501961" points="156,143 179,143 155,160" />
<polygon fill="#050605" fill-opacity="0.501961" points="160,98 150,100 170,103" />
<polygon fill="#23201c" fill-opacity="0.501961" points="169,10 170,18 174,9" />
<polygon fill="#040103" fill-opacity="0.501961" points="199,10 188,33 187,11" />
<polygon fill="#0b0505" fill-opacity="0.501961" points="62,23 63,9 74,12" />
<polygon fill="#110905" fill-opacity="0.501961" points="89,61 107,62 86,69" />
<polygon fill="#27221e" fill-opacity="0.501961" points="161,27 164,19 164,33" />
<polygon fill="#1d3d80" fill-opacity="0.501961" points="4,136 4,131 6,131" />
<polygon fill="#000100" fill-opacity="0.501961" points="41,1 25,-16 0,7" />
<polygon fill="#2b2722" fill-opacity="0.501961" points="137,18 141,17 139,13" />
<polygon fill="#140905" fill-opacity="0.501961" points="86,30 81,4 79,30" />
<polygon fill="#021a54" fill-opacity="0.501961" points="67,119 87,142 53,141" />
<polygon fill="#fffff3" fill-opacity="0.501961" points="125,66 128,64 125,64" />
<polygon fill="#1c0f09" fill-opacity="0.501961" points="116,36 121,48 109,44" />
<polygon fill="#1b3b7f" fill-opacity="0.501961" points="227,143 224,141 230,143" />
<polygon fill="#001950" fill-opacity="0.501961" points="222,142 240,129 239,141" />
<polygon fill="#09060a" fill-opacity="0.501961" points="35,91 47,109 14,111" />
<polygon fill="#0e0e11" fill-opacity="0.501961" points="77,143 115,143 93,158" />
<polygon fill="#010102" fill-opacity="0.501961" points="259,130 271,25 234,48" />
<polygon fill="#050205" fill-opacity="0.501961" points="5,98 32,77 32,62" />
<polygon fill="#15367c" fill-opacity="0.501961" points="87,111 80,111 88,115" />
<polygon fill="#001a53" fill-opacity="0.501961" points="5,113 33,132 8,142" />
<polygon fill="#021a53" fill-opacity="0.501961" points="85,112 71,117 103,121" />
<polygon fill="#17397d" fill-opacity="0.501961" points="13,112 5,113 9,111" />
<polygon fill="#011a54" fill-opacity="0.501961" points="21,125 51,112 5,112" />
<polygon fill="#040100" fill-opacity="0.501961" points="73,85 68,89 62,85" />
<polygon fill="#183776" fill-opacity="0.501961" points="253,122 249,114 252,111" />
<polygon fill="#1a1918" fill-opacity="0.501961" points="49,25 46,24 51,30" />
<polygon fill="#040205" fill-opacity="0.501961" points="9,111 22,80 9,87" />
<polygon fill="#8d7878" fill-opacity="0.501961" points="132,66 139,70 126,67" />
<polygon fill="#030201" fill-opacity="0.501961" points="261,120 231,86 246,81" />
<polygon fill="#010001" fill-opacity="0.501961" points="176,60 208,70 200,59" />
</g>
</svg>