<svg xmlns="http://www.w3.org/2000/svg" version="1.1" width="1024" height="580">
<rect x="0" y="0" width="1024" height="580" fill="#0f101e" />
<g transform="scale(4.000000) translate(0.5 0.5)">
<polygon fill="#053494" fill-opacity="0.501961" points="-16,111 271,112 96,160" />
<polygon fill="#c48874" fill-opacity="0.501961" points="124,82 148,61 123,55" />
<polygon fill="#130600" fill-opacity="0.501961" points="271,120 -16,6 255,-16" />
<polygon fill="#00319a" fill-opacity="0.501961" points="254,117 247,142 163,143" />
<polygon fill="#b7c1d3" fill-opacity="0.501961" points="56,123 80,116 35,115" />
<polygon fill="#000000" fill-opacity="0.501961" points="77,67 4,-16 -16,128" />
<polygon fill="#00257e" fill-opacity="0.501961" points="8,120 -1,160 87,160" />
<polygon fill="#3b3126" fill-opacity="0.501961" points="34,-16 120,40 147,9" />
<polygon fill="#9b8075" fill-opacity="0.501961" points="105,89 135,66 129,55" />
<polygon fill="#000000" fill-opacity="0.501961" points="271,146 269,-1 187,-1" />
<polygon fill="#559aff" fill-opacity="0.501961" points="254,138 244,131 239,138" />
<polygon fill="#170b03" fill-opacity="0.501961" points="242,108 148,67 43,110" />
<polygon fill="#372a1f" fill-opacity="0.501961" points="185,42 136,9 171,8" />
<polygon fill="#ffffe5" fill-opacity="0.501961" points="132,71 132,65 123,66" />
<polygon fill="#180d11" fill-opacity="0.501961" points="65,-16 21,105 125,75" />
<polygon fill="#000000" fill-opacity="0.501961" points="62,-16 -6,-9 -16,160" />
<polygon fill="#7383a4" fill-opacity="0.501961" points="42,115 62,118 24,124" />
<polygon fill="#fff6ee" fill-opacity="0.501961" points="115,74 116,78 111,79" />
<polygon fill="#00154f" fill-opacity="0.501961" points="18,142 119,112 222,140" />
<polygon fill="#001652" fill-opacity="0.501961" points="47,160 -1,109 34,118" />
<polygon fill="#465b87" fill-opacity="0.501961" points="84,123 77,115 53,123" />
<polygon fill="#4c4d53" fill-opacity="0.501961" points="133,76 103,83 130,84" />
<polygon fill="#000000" fill-opacity="0.501961" points="271,70 257,-16 186,70" />
<polygon fill="#5c2931" fill-opacity="0.501961" points="132,57 132,73 150,68" />
<polygon fill="#060000" fill-opacity="0.501961" points="165,-9 111,3 114,18" />
<polygon fill="#042f84" fill-opacity="0.501961" points="253,145 243,160 252,123" />
<polygon fill="#00174f" fill-opacity="0.501961" points="145,113 252,112 236,143" />
<polygon fill="#23130b" fill-opacity="0.501961" points="147,37 220,50 236,29" />
<polygon fill="#3f3934" fill-opacity="0.501961" points="83,8 109,-16 108,18" />
<polygon fill="#170d0f" fill-opacity="0.501961" points="125,86 117,34 67,3" />
<polygon fill="#0a0000" fill-opacity="0.501961" points="97,144 38,160 8,143" />
<polygon fill="#100911" fill-opacity="0.501961" points="138,104 40,32 18,110" />
<polygon fill="#010000" fill-opacity="0.501961" points="115,143 168,160 229,143" />
<polygon fill="#000000" fill-opacity="0.501961" points="-16,143 5,152 3,68" />
<polygon fill="#001958" fill-opacity="0.501961" points="85,122 7,143 4,122" />
<polygon fill="#000000" fill-opacity="0.501961" points="159,21 135,51 135,20" />
<polygon fill="#3e3833" fill-opacity="0.501961" points="110,19 124,21 112,42" />
<polygon fill="#7584a3" fill-opacity="0.501961" points="35,120 52,122 35,115" />
<polygon fill="#7d3f3f" fill-opacity="0.501961" points="121,65 135,61 127,54" />
<polygon fill="#d4dbe0" fill-opacity="0.501961" points="82,115 79,125 79,115" />
<polygon fill="#9b9785" fill-opacity="0.501961" points="132,69 127,74 123,68" />
<polygon fill="#000000" fill-opacity="0.501961" points="271,144 252,149 254,77" />
<polygon fill="#649fff" fill-opacity="0.501961" points="241,134 243,131 248,136" />
<polygon fill="#06225e" fill-opacity="0.501961" points="92,118 16,143 61,142" />
<polygon fill="#110b1c" fill-opacity="0.501961" points="152,40 208,86 142,82" />
<polygon fill="#1a100a" fill-opacity="0.501961" points="48,37 112,20 14,12" />
<polygon fill="#021d5b" fill-opacity="0.501961" points="42,125 38,120 39,111" />
<polygon fill="#0d0500" fill-opacity="0.501961" points="120,143 106,158 51,144" />
<polygon fill="#6b292d" fill-opacity="0.501961" points="136,65 137,50 146,68" />
<polygon fill="#000000" fill-opacity="0.501961" points="227,110 226,85 271,109" />
<polygon fill="#28231b" fill-opacity="0.501961" points="95,5 46,6 41,-16" />
<polygon fill="#001a52" fill-opacity="0.501961" points="185,142 81,109 84,141" />
<polygon fill="#0b0603" fill-opacity="0.501961" points="229,31 175,-9 176,32" />
<polygon fill="#352f2a" fill-opacity="0.501961" points="147,11 168,19 128,19" />
<polygon fill="#000000" fill-opacity="0.501961" points="-5,-16 -1,87 45,53" />
<polygon fill="#433c36" fill-opacity="0.501961" points="128,25 135,35 133,11" />
<polygon fill="#120d18" fill-opacity="0.501961" points="51,32 40,110 115,39" />
<polygon fill="#362c24" fill-opacity="0.501961" points="173,29 174,5 158,31" />
<polygon fill="#3a3c41" fill-opacity="0.501961" points="55,15 56,21 63,14" />
<polygon fill="#00184f" fill-opacity="0.501961" points="236,120 159,142 242,141" />
<polygon fill="#072462" fill-opacity="0.501961" points="252,112 240,111 252,141" />
<polygon fill="#040000" fill-opacity="0.501961" points="155,37 124,31 120,42" />
<polygon fill="#ffecd3" fill-opacity="0.501961" points="128,63 128,69 125,66" />
<polygon fill="#342d29" fill-opacity="0.501961" points="83,18 108,19 88,-16" />
<polygon fill="#130c15" fill-opacity="0.501961" points="29,95 89,30 126,63" />
<polygon fill="#0f0a18" fill-opacity="0.501961" points="133,60 159,44 199,54" />
<polygon fill="#001857" fill-opacity="0.501961" points="54,115 55,120 53,124" />
<polygon fill="#291b0a" fill-opacity="0.501961" points="73,95 78,78 61,78" />
<polygon fill="#1e3a72" fill-opacity="0.501961" points="165,115 176,110 152,111" />
<polygon fill="#1d0c07" fill-opacity="0.501961" points="58,19 108,21 109,35" />
<polygon fill="#0f2a61" fill-opacity="0.501961" points="198,126 253,110 196,110" />
<polygon fill="#05215f" fill-opacity="0.501961" points="4,133 6,110 32,112" />
<polygon fill="#030001" fill-opacity="0.501961" points="137,25 160,17 159,33" />
<polygon fill="#150e0a" fill-opacity="0.501961" points="134,71 127,109 229,110" />
<polygon fill="#0f0803" fill-opacity="0.501961" points="121,77 133,98 113,111" />
<polygon fill="#95a1b7" fill-opacity="0.501961" points="65,117 63,120 71,122" />
<polygon fill="#9f8b8b" fill-opacity="0.501961" points="110,83 117,78 113,75" />
<polygon fill="#011a53" fill-opacity="0.501961" points="84,143 70,135 69,115" />
<polygon fill="#050103" fill-opacity="0.501961" points="23,74 -11,110 38,109" />
<polygon fill="#020000" fill-opacity="0.501961" points="70,6 40,11 79,15" />
<polygon fill="#020100" fill-opacity="0.501961" points="175,7 109,-3 218,-16" />
<polygon fill="#0f0805" fill-opacity="0.501961" points="113,80 123,89 114,111" />
<polygon fill="#000000" fill-opacity="0.501961" points="271,-2 198,-9 271,81" />
<polygon fill="#031c54" fill-opacity="0.501961" points="69,127 175,145 107,113" />
<polygon fill="#130d1c" fill-opacity="0.501961" points="113,58 147,50 139,42" />
<polygon fill="#050312" fill-opacity="0.501961" points="122,70 124,78 107,69" />
<polygon fill="#223a7a" fill-opacity="0.501961" points="63,110 65,117 44,111" />
<polygon fill="#3d3733" fill-opacity="0.501961" points="116,38 121,33 118,20" />
<polygon fill="#616367" fill-opacity="0.501961" points="133,83 126,79 128,74" />
<polygon fill="#110c16" fill-opacity="0.501961" points="50,30 45,73 115,80" />
<polygon fill="#0f3273" fill-opacity="0.501961" points="5,111 4,125 9,131" />
<polygon fill="#23231f" fill-opacity="0.501961" points="146,96 160,96 146,111" />
<polygon fill="#021b54" fill-opacity="0.501961" points="123,130 54,121 51,142" />
<polygon fill="#1a3269" fill-opacity="0.501961" points="116,110 130,116 152,110" />
<polygon fill="#b8c0cf" fill-opacity="0.501961" points="49,121 52,116 48,118" />
<polygon fill="#001953" fill-opacity="0.501961" points="6,114 35,115 4,141" />
<polygon fill="#000000" fill-opacity="0.501961" points="1,104 5,160 -16,160" />
<polygon fill="#000000" fill-opacity="0.501961" points="151,40 135,12 138,39" />
<polygon fill="#0e0b1a" fill-opacity="0.501961" points="135,84 173,71 132,72" />
<polygon fill="#574c47" fill-opacity="0.501961" points="124,79 134,85 132,79" />
<polygon fill="#000000" fill-opacity="0.501961" points="184,71 229,61 186,58" />
<polygon fill="#1d0902" fill-opacity="0.501961" points="169,44 161,42 168,15" />
<polygon fill="#130d17" fill-opacity="0.501961" points="92,83 87,69 127,69" />
<polygon fill="#241811" fill-opacity="0.501961" points="199,9 174,2 176,10" />
<polygon fill="#021c54" fill-opacity="0.501961" points="88,112 179,112 110,131" />
<polygon fill="#28180f" fill-opacity="0.501961" points="186,44 163,33 222,33" />
<polygon fill="#3c3832" fill-opacity="0.501961" points="160,10 165,15 162,30" />
<polygon fill="#457bf9" fill-opacity="0.501961" points="241,134 247,130 245,140" />
<polygon fill="#824a46" fill-opacity="0.501961" points="124,56 122,60 137,67" />
<polygon fill="#6e5d62" fill-opacity="0.501961" points="145,69 140,67 140,65" />
<polygon fill="#001247" fill-opacity="0.501961" points="243,118 250,113 248,131" />
<polygon fill="#18376e" fill-opacity="0.501961" points="13,160 4,160 4,128" />
<polygon fill="#0e0914" fill-opacity="0.501961" points="15,108 105,110 110,80" />
<polygon fill="#122c6c" fill-opacity="0.501961" points="60,114 81,115 68,110" />
<polygon fill="#2a1408" fill-opacity="0.501961" points="121,37 118,51 108,44" />
<polygon fill="#522927" fill-opacity="0.501961" points="140,72 138,61 129,60" />
<polygon fill="#00164c" fill-opacity="0.501961" points="245,139 230,136 237,141" />
<polygon fill="#36332a" fill-opacity="0.501961" points="173,103 173,93 171,99" />
<polygon fill="#0e2d6c" fill-opacity="0.501961" points="191,143 162,142 178,138" />
<polygon fill="#110803" fill-opacity="0.501961" points="160,46 150,45 160,11" />
<polygon fill="#001953" fill-opacity="0.501961" points="4,142 34,116 37,127" />
<polygon fill="#0a0500" fill-opacity="0.501961" points="166,143 112,143 159,157" />
<polygon fill="#2a251f" fill-opacity="0.501961" points="123,93 123,104 120,100" />
<polygon fill="#21120a" fill-opacity="0.501961" points="73,17 86,27 81,-16" />
<polygon fill="#dacdbc" fill-opacity="0.501961" points="127,70 125,73 129,73" />
<polygon fill="#0c1a44" fill-opacity="0.501961" points="73,107 79,117 70,109" />
<polygon fill="#242933" fill-opacity="0.501961" points="129,73 126,83 135,79" />
<polygon fill="#27251e" fill-opacity="0.501961" points="209,97 197,110 197,96" />
<polygon fill="#001951" fill-opacity="0.501961" points="232,140 148,142 177,124" />
<polygon fill="#0f0b19" fill-opacity="0.501961" points="177,86 238,80 213,66" />
<polygon fill="#15347d" fill-opacity="0.501961" points="25,115 36,111 11,111" />
<polygon fill="#00174f" fill-opacity="0.501961" points="251,113 223,112 252,134" />
<polygon fill="#221b16" fill-opacity="0.501961" points="133,33 122,10 120,29" />
<polygon fill="#1c100a" fill-opacity="0.501961" points="141,1 128,9 159,12" />
<polygon fill="#001851" fill-opacity="0.501961" points="37,112 6,140 5,112" />
<polygon fill="#100a15" fill-opacity="0.501961" points="141,61 224,48 181,42" />
<polygon fill="#2c1216" fill-opacity="0.501961" points="137,64 136,68 130,63" />
<polygon fill="#0c2d6c" fill-opacity="0.501961" points="32,143 9,142 23,138" />
<polygon fill="#040204" fill-opacity="0.501961" points="246,25 271,133 208,55" />
<polygon fill="#0b0704" fill-opacity="0.501961" points="20,-16 56,32 21,36" />
<polygon fill="#110b15" fill-opacity="0.501961" points="125,77 107,35 30,34" />
<polygon fill="#0b0504" fill-opacity="0.501961" points="205,7 108,7 140,-13" />
<polygon fill="#060603" fill-opacity="0.501961" points="83,144 2,143 38,160" />
<polygon fill="#000000" fill-opacity="0.501961" points="102,109 97,98 94,110" />
<polygon fill="#9e8a86" fill-opacity="0.501961" points="124,81 125,75 127,79" />
<polygon fill="#000000" fill-opacity="0.501961" points="271,116 253,160 253,50" />
<polygon fill="#0a0607" fill-opacity="0.501961" points="230,32 174,14 175,33" />
<polygon fill="#120c18" fill-opacity="0.501961" points="77,110 45,108 113,76" />
<polygon fill="#29407b" fill-opacity="0.501961" points="74,142 82,145 90,142" />
<polygon fill="#505051" fill-opacity="0.501961" points="136,71 126,70 132,69" />
<polygon fill="#120c18" fill-opacity="0.501961" points="139,84 147,64 192,85" />
<polygon fill="#010606" fill-opacity="0.501961" points="171,91 161,111 155,103" />
<polygon fill="#211611" fill-opacity="0.501961" points="191,33 184,40 185,14" />
<polygon fill="#b2bdca" fill-opacity="0.501961" points="68,116 70,118 63,116" />
<polygon fill="#000000" fill-opacity="0.501961" points="4,103 -16,110 3,156" />
<polygon fill="#110c16" fill-opacity="0.501961" points="120,61 126,78 104,69" />
<polygon fill="#011a54" fill-opacity="0.501961" points="4,142 57,141 25,114" />
<polygon fill="#0b0607" fill-opacity="0.501961" points="75,143 87,160 115,143" />
<polygon fill="#292119" fill-opacity="0.501961" points="138,101 132,91 134,111" />
<polygon fill="#09205e" fill-opacity="0.501961" points="60,133 46,121 63,124" />
<polygon fill="#8f7674" fill-opacity="0.501961" points="126,61 128,55 123,59" />
<polygon fill="#342e26" fill-opacity="0.501961" points="184,97 188,107 187,96" />
<polygon fill="#000000" fill-opacity="0.501961" points="253,143 271,160 207,145" />
<polygon fill="#0f0c19" fill-opacity="0.501961" points="122,49 132,46 132,57" />
<polygon fill="#204089" fill-opacity="0.501961" points="186,111 190,114 200,111" />
<polygon fill="#901b16" fill-opacity="0.501961" points="146,63 138,64 148,66" />
<polygon fill="#0a235b" fill-opacity="0.501961" points="160,121 199,114 177,111" />
<polygon fill="#130807" fill-opacity="0.501961" points="110,18 125,4 110,-12" />
<polygon fill="#051d54" fill-opacity="0.501961" points="237,114 185,112 178,134" />
<polygon fill="#000000" fill-opacity="0.501961" points="226,1 123,0 177,-16" />
<polygon fill="#0f0b08" fill-opacity="0.501961" points="221,6 196,9 200,36" />
<polygon fill="#090d0a" fill-opacity="0.501961" points="215,111 202,102 226,92" />
<polygon fill="#39080b" fill-opacity="0.501961" points="117,58 126,62 123,64" />
<polygon fill="#102b65" fill-opacity="0.501961" points="107,117 85,111 115,110" />
<polygon fill="#00154e" fill-opacity="0.501961" points="95,121 117,112 93,112" />
<polygon fill="#1f1c1f" fill-opacity="0.501961" points="76,19 52,18 68,24" />
<polygon fill="#191b1a" fill-opacity="0.501961" points="31,10 22,17 32,18" />
<polygon fill="#14357e" fill-opacity="0.501961" points="76,115 84,111 63,111" />
<polygon fill="#110c15" fill-opacity="0.501961" points="192,44 144,67 163,85" />
<polygon fill="#050000" fill-opacity="0.501961" points="80,90 75,96 65,94" />
<polygon fill="#7685a5" fill-opacity="0.501961" points="62,122 69,121 65,120" />
<polygon fill="#332c27" fill-opacity="0.501961" points="138,18 162,19 140,12" />
<polygon fill="#0a0606" fill-opacity="0.501961" points="228,41 229,110 248,111" />
<polygon fill="#120d15" fill-opacity="0.501961" points="170,66 136,58 180,43" />
<polygon fill="#271d19" fill-opacity="0.501961" points="88,29 100,7 93,3" />
<polygon fill="#0b0200" fill-opacity="0.501961" points="124,45 122,32 139,43" />
<polygon fill="#17397d" fill-opacity="0.501961" points="159,141 158,143 151,142" />
<polygon fill="#130a09" fill-opacity="0.501961" points="109,39 109,17 99,44" />
<polygon fill="#163575" fill-opacity="0.501961" points="97,143 115,143 108,139" />
<polygon fill="#071f56" fill-opacity="0.501961" points="73,132 77,114 78,127" />
<polygon fill="#0f0b16" fill-opacity="0.501961" points="121,57 126,91 113,63" />
<polygon fill="#455a86" fill-opacity="0.501961" points="69,122 78,117 75,122" />
<polygon fill="#031b54" fill-opacity="0.501961" points="135,131 75,113 119,112" />
<polygon fill="#08215a" fill-opacity="0.501961" points="70,113 68,128 73,124" />
<polygon fill="#0d0300" fill-opacity="0.501961" points="196,86 196,109 189,104" />
<polygon fill="#0d2a69" fill-opacity="0.501961" points="72,143 29,143 47,136" />
<polygon fill="#001850" fill-opacity="0.501961" points="77,142 50,131 24,142" />
<polygon fill="#120d16" fill-opacity="0.501961" points="89,32 45,44 127,77" />
<polygon fill="#100400" fill-opacity="0.501961" points="183,110 173,110 183,93" />
<polygon fill="#38312c" fill-opacity="0.501961" points="99,15 111,20 107,-16" />
<polygon fill="#00144c" fill-opacity="0.501961" points="251,129 251,136 246,143" />
<polygon fill="#0c0b0b" fill-opacity="0.501961" points="148,108 149,97 171,101" />
<polygon fill="#1b0d09" fill-opacity="0.501961" points="184,43 147,44 148,25" />
<polygon fill="#021b53" fill-opacity="0.501961" points="68,142 185,142 136,113" />
<polygon fill="#010000" fill-opacity="0.501961" points="14,-16 -16,80 32,77" />
<polygon fill="#130a06" fill-opacity="0.501961" points="77,-5 72,19 79,28" />
<polygon fill="#130806" fill-opacity="0.501961" points="144,101 146,111 124,110" />
<polygon fill="#110a0f" fill-opacity="0.501961" points="90,68 89,53 114,81" />
<polygon fill="#495c85" fill-opacity="0.501961" points="59,116 59,120 66,120" />
<polygon fill="#261a12" fill-opacity="0.501961" points="68,86 78,78 66,74" />
<polygon fill="#ecd3bd" fill-opacity="0.501961" points="129,62 130,68 132,67" />
<polygon fill="#2f1f18" fill-opacity="0.501961" points="85,-7 79,20 78,-2" />
<polygon fill="#100b13" fill-opacity="0.501961" points="144,82 140,67 154,89" />
<polygon fill="#100b15" fill-opacity="0.501961" points="100,111 25,105 27,79" />
<polygon fill="#130c07" fill-opacity="0.501961" points="176,86 222,99 234,85" />
<polygon fill="#221c16" fill-opacity="0.501961" points="111,17 133,8 127,19" />
<polygon fill="#6c3938" fill-opacity="0.501961" points="129,57 127,63 147,64" />
<polygon fill="#161011" fill-opacity="0.501961" points="47,61 40,71 25,59" />
<polygon fill="#020202" fill-opacity="0.501961" points="30,107 -1,111 -16,79" />
<polygon fill="#231009" fill-opacity="0.501961" points="81,19 110,28 71,31" />
<polygon fill="#100a16" fill-opacity="0.501961" points="133,78 155,87 134,70" />
<polygon fill="#030000" fill-opacity="0.501961" points="65,8 43,6 44,18" />
<polygon fill="#0e0703" fill-opacity="0.501961" points="64,84 57,93 72,87" />
<polygon fill="#0f0402" fill-opacity="0.501961" points="59,33 75,33 64,20" />
<polygon fill="#100913" fill-opacity="0.501961" points="145,42 144,64 153,48" />
<polygon fill="#0d0100" fill-opacity="0.501961" points="145,93 137,94 137,106" />
<polygon fill="#190e0a" fill-opacity="0.501961" points="175,3 146,2 167,11" />
<polygon fill="#0f0908" fill-opacity="0.501961" points="244,34 213,53 212,36" />
<polygon fill="#3a3430" fill-opacity="0.501961" points="134,31 129,18 132,8" />
<polygon fill="#3c3936" fill-opacity="0.501961" points="169,29 173,30 172,17" />
<polygon fill="#030004" fill-opacity="0.501961" points="175,60 200,70 235,57" />
<polygon fill="#625e5d" fill-opacity="0.501961" points="119,79 116,77 119,82" />
<polygon fill="#242118" fill-opacity="0.501961" points="223,92 224,107 227,92" />
<polygon fill="#274d9c" fill-opacity="0.501961" points="5,113 12,111 4,111" />
<polygon fill="#130c0a" fill-opacity="0.501961" points="133,96 141,93 119,79" />
<polygon fill="#51648c" fill-opacity="0.501961" points="73,122 76,118 72,120" />
<polygon fill="#18316d" fill-opacity="0.501961" points="42,110 32,115 23,110" />
<polygon fill="#110d19" fill-opacity="0.501961" points="123,82 121,70 117,77" />
<polygon fill="#071e59" fill-opacity="0.501961" points="31,139 79,134 25,120" />
<polygon fill="#061e56" fill-opacity="0.501961" points="99,112 115,139 177,112" />
<polygon fill="#011b54" fill-opacity="0.501961" points="192,132 251,112 237,142" />
<polygon fill="#031a56" fill-opacity="0.501961" points="22,127 35,115 7,113" />
<polygon fill="#143373" fill-opacity="0.501961" points="237,143 230,139 220,143" />
<polygon fill="#00174e" fill-opacity="0.501961" points="251,142 233,136 222,142" />
<polygon fill="#0a070b" fill-opacity="0.501961" points="242,82 206,105 241,59" />
<polygon fill="#010200" fill-opacity="0.501961" points="-16,-12 58,-4 16,9" />
<polygon fill="#251a11" fill-opacity="0.501961" points="201,23 198,34 198,17" />
<polygon fill="#110c18" fill-opacity="0.501961" points="133,50 175,62 193,45" />
<polygon fill="#223a70" fill-opacity="0.501961" points="184,113 175,111 185,110" />
<polygon fill="#010100" fill-opacity="0.501961" points="268,-8 271,110 239,110" />
<polygon fill="#332e29" fill-opacity="0.501961" points="94,17 84,-16 84,19" />
<polygon fill="#2b2722" fill-opacity="0.501961" points="74,1 56,3 70,6" />
<polygon fill="#1d428d" fill-opacity="0.501961" points="81,111 89,111 88,113" />
<polygon fill="#7786a6" fill-opacity="0.501961" points="66,118 72,117 75,119" />
<polygon fill="#100b17" fill-opacity="0.501961" points="165,82 218,67 235,84" />
<polygon fill="#352f2b" fill-opacity="0.501961" points="110,15 111,37 116,33" />
<polygon fill="#120c17" fill-opacity="0.501961" points="87,109 40,111 39,79" />
<polygon fill="#110c17" fill-opacity="0.501961" points="106,106 108,67 84,85" />
<polygon fill="#17336c" fill-opacity="0.501961" points="252,116 253,110 244,110" />
<polygon fill="#0b0301" fill-opacity="0.501961" points="183,93 177,111 175,94" />
<polygon fill="#040301" fill-opacity="0.501961" points="271,87 235,107 252,111" />
<polygon fill="#030000" fill-opacity="0.501961" points="120,97 114,110 120,109" />
<polygon fill="#001952" fill-opacity="0.501961" points="80,112 107,126 105,112" />
<polygon fill="#150c0a" fill-opacity="0.501961" points="119,83 154,90 103,94" />
<polygon fill="#20100b" fill-opacity="0.501961" points="120,50 122,40 99,36" />
<polygon fill="#110c17" fill-opacity="0.501961" points="71,60 59,92 36,38" />
<polygon fill="#a0a9be" fill-opacity="0.501961" points="40,118 39,120 41,119" />
<polygon fill="#000000" fill-opacity="0.501961" points="43,54 33,42 3,67" />
<polygon fill="#070404" fill-opacity="0.501961" points="216,1 199,38 200,20" />
<polygon fill="#030201" fill-opacity="0.501961" points="254,42 212,-2 215,27" />
<polygon fill="#1a0c0d" fill-opacity="0.501961" points="135,58 127,34 135,44" />
<polygon fill="#1e1b19" fill-opacity="0.501961" points="44,22 47,29 50,28" />
<polygon fill="#113172" fill-opacity="0.501961" points="123,143 133,139 145,143" />
<polygon fill="#170d08" fill-opacity="0.501961" points="194,105 181,111 177,107" />
<polygon fill="#001850" fill-opacity="0.501961" points="97,140 149,142 132,132" />
<polygon fill="#362f2b" fill-opacity="0.501961" points="122,31 112,18 119,19" />
<polygon fill="#040004" fill-opacity="0.501961" points="196,46 196,73 213,60" />
<polygon fill="#001552" fill-opacity="0.501961" points="77,118 78,117 78,120" />
<polygon fill="#924b40" fill-opacity="0.501961" points="138,71 137,68 138,65" />
<polygon fill="#011954" fill-opacity="0.501961" points="33,121 33,112 4,112" />
<polygon fill="#1a130f" fill-opacity="0.501961" points="200,96 191,89 213,91" />
<polygon fill="#c3cad5" fill-opacity="0.501961" points="39,115 36,115 36,122" />
<polygon fill="#0b0402" fill-opacity="0.501961" points="54,12 73,17 77,5" />
<polygon fill="#0a0403" fill-opacity="0.501961" points="51,8 14,28 38,47" />
<polygon fill="#051e55" fill-opacity="0.501961" points="159,112 184,126 226,112" />
<polygon fill="#0f0c18" fill-opacity="0.501961" points="223,46 208,52 198,48" />
<polygon fill="#2b2627" fill-opacity="0.501961" points="66,23 73,24 67,19" />
<polygon fill="#322b26" fill-opacity="0.501961" points="161,16 166,34 160,34" />
<polygon fill="#090501" fill-opacity="0.501961" points="243,84 230,109 224,88" />
<polygon fill="#0f265f" fill-opacity="0.501961" points="38,113 42,122 40,131" />
<polygon fill="#1f0f08" fill-opacity="0.501961" points="78,53 80,45 71,51" />
<polygon fill="#150b0b" fill-opacity="0.501961" points="115,-5 106,25 118,8" />
<polygon fill="#3c332c" fill-opacity="0.501961" points="132,31 133,27 128,32" />
<polygon fill="#0e0d0f" fill-opacity="0.501961" points="201,109 200,100 219,105" />
<polygon fill="#1b0f0b" fill-opacity="0.501961" points="100,66 112,58 85,64" />
<polygon fill="#0d0805" fill-opacity="0.501961" points="27,7 45,-16 40,33" />
<polygon fill="#8e827e" fill-opacity="0.501961" points="110,80 110,82 111,82" />
<polygon fill="#540000" fill-opacity="0.501961" points="140,68 137,68 139,67" />
<polygon fill="#1b3c84" fill-opacity="0.501961" points="110,111 123,111 117,114" />
<polygon fill="#031c54" fill-opacity="0.501961" points="77,113 146,142 137,112" />
<polygon fill="#021b53" fill-opacity="0.501961" points="81,115 95,128 89,142" />
<polygon fill="#3a3a3b" fill-opacity="0.501961" points="127,85 126,81 129,78" />
<polygon fill="#352d25" fill-opacity="0.501961" points="146,105 146,93 149,98" />
<polygon fill="#140f1a" fill-opacity="0.501961" points="110,80 97,79 113,71" />
<polygon fill="#020003" fill-opacity="0.501961" points="123,34 132,46 122,46" />
<polygon fill="#021b54" fill-opacity="0.501961" points="114,141 50,122 97,123" />
<polygon fill="#020000" fill-opacity="0.501961" points="42,146 13,160 -3,143" />
<polygon fill="#578dff" fill-opacity="0.501961" points="246,135 242,138 246,131" />
<polygon fill="#120c19" fill-opacity="0.501961" points="164,60 199,57 171,52" />
<polygon fill="#143274" fill-opacity="0.501961" points="50,143 44,140 39,142" />
<polygon fill="#001852" fill-opacity="0.501961" points="30,136 44,142 58,139" />
<polygon fill="#001950" fill-opacity="0.501961" points="19,134 44,142 12,141" />
<polygon fill="#29241b" fill-opacity="0.501961" points="208,99 216,96 197,96" />
<polygon fill="#8b98af" fill-opacity="0.501961" points="67,118 57,115 69,115" />
<polygon fill="#292620" fill-opacity="0.501961" points="173,101 176,108 172,110" />
<polygon fill="#17100a" fill-opacity="0.501961" points="219,9 189,11 204,5" />
<polygon fill="#271910" fill-opacity="0.501961" points="163,7 144,8 154,13" />
<polygon fill="#472e36" fill-opacity="0.501961" points="136,63 136,59 141,66" />
<polygon fill="#153375" fill-opacity="0.501961" points="153,112 139,115 137,111" />
<polygon fill="#061d54" fill-opacity="0.501961" points="153,112 109,112 109,142" />
<polygon fill="#621a19" fill-opacity="0.501961" points="143,55 135,56 135,52" />
<polygon fill="#13060c" fill-opacity="0.501961" points="141,52 148,52 139,61" />
<polygon fill="#0e0501" fill-opacity="0.501961" points="81,27 98,33 78,33" />
<polygon fill="#060508" fill-opacity="0.501961" points="159,20 162,34 146,29" />
<polygon fill="#100c17" fill-opacity="0.501961" points="108,33 48,34 108,58" />
<polygon fill="#0d0200" fill-opacity="0.501961" points="124,110 133,103 125,98" />
<polygon fill="#293d75" fill-opacity="0.501961" points="39,110 45,110 42,112" />
<polygon fill="#447bee" fill-opacity="0.501961" points="246,130 240,135 242,136" />
<polygon fill="#17377b" fill-opacity="0.501961" points="191,111 205,115 219,111" />
<polygon fill="#041b51" fill-opacity="0.501961" points="202,119 184,112 217,113" />
<polygon fill="#001952" fill-opacity="0.501961" points="234,119 232,137 242,138" />
<polygon fill="#021b53" fill-opacity="0.501961" points="201,114 250,130 249,113" />
<polygon fill="#22376a" fill-opacity="0.501961" points="60,116 66,118 59,113" />
<polygon fill="#0b245b" fill-opacity="0.501961" points="230,122 195,120 204,113" />
<polygon fill="#09225a" fill-opacity="0.501961" points="71,125 78,128 69,115" />
<polygon fill="#261a0d" fill-opacity="0.501961" points="67,93 64,89 73,92" />
<polygon fill="#0d2e6e" fill-opacity="0.501961" points="244,138 233,142 254,143" />
<polygon fill="#010004" fill-opacity="0.501961" points="180,28 175,27 175,11" />
<polygon fill="#001a52" fill-opacity="0.501961" points="150,141 213,122 248,142" />
<polygon fill="#1a0d08" fill-opacity="0.501961" points="71,21 102,19 70,31" />
<polygon fill="#120907" fill-opacity="0.501961" points="152,86 195,86 181,97" />
<polygon fill="#010003" fill-opacity="0.501961" points="190,17 191,33 187,30" />
<polygon fill="#0d0a12" fill-opacity="0.501961" points="22,110 46,111 37,70" />
<polygon fill="#113173" fill-opacity="0.501961" points="248,133 252,141 252,120" />
<polygon fill="#3a352d" fill-opacity="0.501961" points="198,108 200,110 196,111" />
<polygon fill="#0c265b" fill-opacity="0.501961" points="147,130 154,121 146,118" />
<polygon fill="#171015" fill-opacity="0.501961" points="187,76 224,86 167,86" />
<polygon fill="#3a281a" fill-opacity="0.501961" points="116,3 113,1 115,1" />
<polygon fill="#120a05" fill-opacity="0.501961" points="110,111 119,111 110,85" />
<polygon fill="#132d6b" fill-opacity="0.501961" points="105,137 121,143 112,143" />
</g>
</svg>