<svg xmlns="http://www.w3.org/2000/svg" version="1.1" width="1024" height="580">
<rect x="0" y="0" width="1024" height="580" fill="#010713" />
<g transform="scale(4.000000) translate(0.5 0.5)">
<polygon fill="#0e3b9d" fill-opacity="0.501961" points="-16,112 271,111 133,160" />
<polygon fill="#0b3da8" fill-opacity="0.501961" points="248,143 189,142 254,117" />
<polygon fill="#284789" fill-opacity="0.501961" points="70,110 63,160 -16,131" />
<polygon fill="#000000" fill-opacity="0.501961" points="107,-16 -16,110 271,109" />
<polygon fill="#000000" fill-opacity="0.501961" points="271,119 -16,7 253,-16" />
<polygon fill="#a2aab1" fill-opacity="0.501961" points="59,127 73,116 34,115" />
<polygon fill="#000000" fill-opacity="0.501961" points="-16,120 271,12 2,-16" />
<polygon fill="#62a6ff" fill-opacity="0.501961" points="252,139 241,136 245,129" />
<polygon fill="#001750" fill-opacity="0.501961" points="-5,114 12,160 116,130" />
<polygon fill="#000000" fill-opacity="0.501961" points="6,-16 271,109 -16,110" />
<polygon fill="#8291a5" fill-opacity="0.501961" points="43,131 52,116 38,122" />
<polygon fill="#00144d" fill-opacity="0.501961" points="139,160 69,115 271,112" />
<polygon fill="#000000" fill-opacity="0.501961" points="3,149 -16,95 5,22" />
<polygon fill="#7d8ea4" fill-opacity="0.501961" points="67,116 54,127 68,128" />
<polygon fill="#000000" fill-opacity="0.501961" points="120,-3 271,-1 271,127" />
<polygon fill="#001451" fill-opacity="0.501961" points="4,121 39,159 39,113" />
<polygon fill="#082668" fill-opacity="0.501961" points="251,118 254,141 246,152" />
<polygon fill="#080000" fill-opacity="0.501961" points="100,143 52,160 22,143" />
<polygon fill="#0a0000" fill-opacity="0.501961" points="192,143 86,143 146,160" />
<polygon fill="#051f57" fill-opacity="0.501961" points="61,118 81,149 64,147" />
<polygon fill="#000000" fill-opacity="0.501961" points="-16,109 253,-16 271,110" />
<polygon fill="#001347" fill-opacity="0.501961" points="192,142 260,113 232,140" />
<polygon fill="#9daabd" fill-opacity="0.501961" points="63,116 61,121 75,118" />
<polygon fill="#000000" fill-opacity="0.501961" points="3,100 5,160 -16,144" />
<polygon fill="#000000" fill-opacity="0.501961" points="252,84 255,157 271,142" />
<polygon fill="#0e2a60" fill-opacity="0.501961" points="68,110 108,110 71,123" />
<polygon fill="#001d59" fill-opacity="0.501961" points="41,122 4,110 5,156" />
<polygon fill="#000f47" fill-opacity="0.501961" points="45,121 51,121 57,134" />
<polygon fill="#012060" fill-opacity="0.501961" points="45,130 13,142 86,143" />
<polygon fill="#4479fa" fill-opacity="0.501961" points="249,132 244,140 240,134" />
<polygon fill="#6d7e9a" fill-opacity="0.501961" points="62,126 57,132 56,116" />
<polygon fill="#b6c0ce" fill-opacity="0.501961" points="53,121 46,116 55,116" />
<polygon fill="#0e2c6b" fill-opacity="0.501961" points="244,152 252,143 252,124" />
<polygon fill="#000000" fill-opacity="0.501961" points="-16,-3 266,-2 -16,119" />
<polygon fill="#00164d" fill-opacity="0.501961" points="52,129 16,142 88,141" />
<polygon fill="#001953" fill-opacity="0.501961" points="247,142 175,134 221,112" />
<polygon fill="#8896ac" fill-opacity="0.501961" points="65,130 68,123 65,123" />
<polygon fill="#00174f" fill-opacity="0.501961" points="38,135 6,113 40,114" />
<polygon fill="#0b2559" fill-opacity="0.501961" points="73,126 53,123 85,119" />
<polygon fill="#8f9eaf" fill-opacity="0.501961" points="48,130 40,129 42,127" />
<polygon fill="#001953" fill-opacity="0.501961" points="213,112 149,137 60,112" />
<polygon fill="#080000" fill-opacity="0.501961" points="-12,160 40,144 -5,143" />
<polygon fill="#001750" fill-opacity="0.501961" points="250,135 237,115 252,125" />
<polygon fill="#031f59" fill-opacity="0.501961" points="115,110 252,111 186,143" />
<polygon fill="#070200" fill-opacity="0.501961" points="39,143 87,143 57,152" />
<polygon fill="#0e2e6d" fill-opacity="0.501961" points="187,142 159,143 170,138" />
<polygon fill="#001952" fill-opacity="0.501961" points="170,112 251,142 70,142" />
<polygon fill="#0a2760" fill-opacity="0.501961" points="7,110 26,120 52,110" />
<polygon fill="#082564" fill-opacity="0.501961" points="20,142 4,123 6,143" />
<polygon fill="#001851" fill-opacity="0.501961" points="42,122 6,143 12,111" />
<polygon fill="#97a3b5" fill-opacity="0.501961" points="68,121 66,122 65,120" />
<polygon fill="#3b5278" fill-opacity="0.501961" points="70,119 84,118 79,115" />
<polygon fill="#8797ae" fill-opacity="0.501961" points="39,120 59,118 51,122" />
<polygon fill="#00154e" fill-opacity="0.501961" points="64,112 75,118 94,114" />
<polygon fill="#00174f" fill-opacity="0.501961" points="53,123 57,134 48,136" />
<polygon fill="#3f557c" fill-opacity="0.501961" points="45,123 48,115 43,119" />
<polygon fill="#020000" fill-opacity="0.501961" points="227,147 254,143 271,156" />
<polygon fill="#001a53" fill-opacity="0.501961" points="37,137 6,112 40,115" />
<polygon fill="#000000" fill-opacity="0.501961" points="4,147 3,92 -16,159" />
<polygon fill="#001952" fill-opacity="0.501961" points="62,141 74,120 150,140" />
<polygon fill="#0f2e6c" fill-opacity="0.501961" points="131,143 164,143 153,137" />
<polygon fill="#001a52" fill-opacity="0.501961" points="98,141 129,113 203,142" />
<polygon fill="#080600" fill-opacity="0.501961" points="177,144 102,143 118,160" />
<polygon fill="#010000" fill-opacity="0.501961" points="254,146 253,109 269,102" />
<polygon fill="#001a53" fill-opacity="0.501961" points="44,123 6,132 6,117" />
<polygon fill="#0f2e6c" fill-opacity="0.501961" points="89,143 68,142 80,138" />
<polygon fill="#538bff" fill-opacity="0.501961" points="242,131 246,130 245,136" />
<polygon fill="#000f43" fill-opacity="0.501961" points="50,112 62,112 56,115" />
<polygon fill="#113170" fill-opacity="0.501961" points="101,143 125,142 113,139" />
<polygon fill="#001952" fill-opacity="0.501961" points="152,142 91,115 49,142" />
<polygon fill="#001a53" fill-opacity="0.501961" points="193,138 231,113 249,129" />
<polygon fill="#a1adbe" fill-opacity="0.501961" points="44,122 42,119 42,116" />
<polygon fill="#13357a" fill-opacity="0.501961" points="165,115 151,111 175,111" />
<polygon fill="#234996" fill-opacity="0.501961" points="4,111 11,113 16,111" />
<polygon fill="#001952" fill-opacity="0.501961" points="152,142 243,112 89,112" />
<polygon fill="#385fad" fill-opacity="0.501961" points="5,142 7,143 8,142" />
<polygon fill="#14367a" fill-opacity="0.501961" points="118,111 136,111 123,115" />
<polygon fill="#001a53" fill-opacity="0.501961" points="176,113 98,137 82,112" />
<polygon fill="#19397c" fill-opacity="0.501961" points="252,115 252,125 250,120" />
<polygon fill="#143373" fill-opacity="0.501961" points="63,139 76,143 54,143" />
<polygon fill="#001951" fill-opacity="0.501961" points="10,142 76,141 5,122" />
<polygon fill="#00174f" fill-opacity="0.501961" points="54,121 59,123 48,123" />
<polygon fill="#001952" fill-opacity="0.501961" points="14,140 43,112 6,113" />
<polygon fill="#001850" fill-opacity="0.501961" points="251,118 252,134 234,118" />
<polygon fill="#001a52" fill-opacity="0.501961" points="69,137 61,124 65,140" />
<polygon fill="#5b6f8c" fill-opacity="0.501961" points="44,125 52,131 47,129" />
<polygon fill="#001952" fill-opacity="0.501961" points="44,130 99,138 71,142" />
<polygon fill="#001a53" fill-opacity="0.501961" points="65,140 53,138 47,122" />
<polygon fill="#7c8da7" fill-opacity="0.501961" points="65,123 56,123 57,128" />
<polygon fill="#092866" fill-opacity="0.501961" points="198,111 228,120 254,111" />
<polygon fill="#00144b" fill-opacity="0.501961" points="248,112 234,122 201,112" />
<polygon fill="#000000" fill-opacity="0.501961" points="271,49 66,111 -16,-16" />
<polygon fill="#153475" fill-opacity="0.501961" points="57,143 44,139 36,143" />
<polygon fill="#001a53" fill-opacity="0.501961" points="29,141 165,142 129,113" />
<polygon fill="#001a52" fill-opacity="0.501961" points="52,142 64,126 65,139" />
<polygon fill="#183b7a" fill-opacity="0.501961" points="7,122 4,119 4,133" />
<polygon fill="#0c2968" fill-opacity="0.501961" points="252,139 252,127 245,147" />
<polygon fill="#6f809a" fill-opacity="0.501961" points="61,127 58,131 55,128" />
<polygon fill="#00184f" fill-opacity="0.501961" points="250,138 231,138 242,142" />
<polygon fill="#1a3a7c" fill-opacity="0.501961" points="22,143 24,140 33,143" />
<polygon fill="#001a53" fill-opacity="0.501961" points="5,138 5,115 44,142" />
<polygon fill="#adb8c6" fill-opacity="0.501961" points="64,117 67,116 69,121" />
<polygon fill="#001a53" fill-opacity="0.501961" points="11,142 47,140 28,115" />
<polygon fill="#b5becc" fill-opacity="0.501961" points="48,119 53,116 53,120" />
<polygon fill="#001a53" fill-opacity="0.501961" points="208,122 250,125 251,113" />
<polygon fill="#102f70" fill-opacity="0.501961" points="96,142 102,139 105,143" />
<polygon fill="#001a53" fill-opacity="0.501961" points="97,142 132,117 70,120" />
<polygon fill="#001a52" fill-opacity="0.501961" points="47,130 77,142 4,142" />
<polygon fill="#325eb4" fill-opacity="0.501961" points="177,112 174,111 179,111" />
<polygon fill="#2f5db6" fill-opacity="0.501961" points="76,112 79,111 73,111" />
<polygon fill="#001a53" fill-opacity="0.501961" points="36,142 227,141 123,113" />
<polygon fill="#000000" fill-opacity="0.501961" points="255,-16 72,109 271,110" />
<polygon fill="#07090b" fill-opacity="0.501961" points="0,143 67,144 53,160" />
<polygon fill="#1b386d" fill-opacity="0.501961" points="107,111 115,110 118,113" />
<polygon fill="#040000" fill-opacity="0.501961" points="247,143 240,160 255,143" />
<polygon fill="#060807" fill-opacity="0.501961" points="118,111 107,111 110,108" />
<polygon fill="#133272" fill-opacity="0.501961" points="91,140 97,142 85,143" />
<polygon fill="#001a53" fill-opacity="0.501961" points="183,113 88,142 85,112" />
<polygon fill="#000000" fill-opacity="0.501961" points="4,142 -16,159 2,106" />
<polygon fill="#001449" fill-opacity="0.501961" points="252,132 249,137 249,127" />
<polygon fill="#102f6a" fill-opacity="0.501961" points="4,134 5,143 8,129" />
<polygon fill="#183779" fill-opacity="0.501961" points="179,143 187,140 198,143" />
<polygon fill="#001a53" fill-opacity="0.501961" points="238,141 155,113 52,142" />
<polygon fill="#001a53" fill-opacity="0.501961" points="241,113 147,142 240,142" />
<polygon fill="#7787a2" fill-opacity="0.501961" points="60,119 52,116 51,122" />
<polygon fill="#7687a2" fill-opacity="0.501961" points="44,115 41,118 47,118" />
<polygon fill="#001b54" fill-opacity="0.501961" points="205,125 71,113 137,140" />
<polygon fill="#021d54" fill-opacity="0.501961" points="61,140 67,140 62,121" />
<polygon fill="#001a53" fill-opacity="0.501961" points="14,113 5,135 50,140" />
<polygon fill="#000000" fill-opacity="0.501961" points="271,100 260,135 249,93" />
<polygon fill="#5b6f90" fill-opacity="0.501961" points="79,117 77,119 81,119" />
<polygon fill="#00154d" fill-opacity="0.501961" points="48,123 54,128 54,122" />
<polygon fill="#001b54" fill-opacity="0.501961" points="79,119 135,140 63,139" />
<polygon fill="#000000" fill-opacity="0.501961" points="-16,110 -16,-16 177,110" />
<polygon fill="#001952" fill-opacity="0.501961" points="5,125 46,112 9,112" />
<polygon fill="#0b0a0f" fill-opacity="0.501961" points="252,143 218,160 167,143" />
<polygon fill="#00174e" fill-opacity="0.501961" points="73,115 79,118 85,115" />
<polygon fill="#001a52" fill-opacity="0.501961" points="6,113 19,125 5,142" />
<polygon fill="#183778" fill-opacity="0.501961" points="7,143 20,143 13,140" />
<polygon fill="#001952" fill-opacity="0.501961" points="11,142 50,142 6,130" />
<polygon fill="#13357b" fill-opacity="0.501961" points="96,115 84,111 99,111" />
<polygon fill="#001a53" fill-opacity="0.501961" points="186,141 252,112 80,112" />
<polygon fill="#1f4691" fill-opacity="0.501961" points="145,113 149,111 144,111" />
<polygon fill="#183879" fill-opacity="0.501961" points="133,140 142,143 129,143" />
<polygon fill="#244582" fill-opacity="0.501961" points="54,112 64,112 58,110" />
<polygon fill="#000000" fill-opacity="0.501961" points="32,106 54,91 62,111" />
<polygon fill="#001449" fill-opacity="0.501961" points="139,141 128,137 131,142" />
<polygon fill="#193c82" fill-opacity="0.501961" points="232,111 242,114 253,111" />
<polygon fill="#001952" fill-opacity="0.501961" points="240,112 251,120 220,116" />
<polygon fill="#001951" fill-opacity="0.501961" points="236,112 251,134 251,112" />
<polygon fill="#001a53" fill-opacity="0.501961" points="118,129 179,112 70,112" />
<polygon fill="#001b54" fill-opacity="0.501961" points="247,115 193,140 242,132" />
<polygon fill="#001a52" fill-opacity="0.501961" points="28,142 7,126 7,141" />
<polygon fill="#00164e" fill-opacity="0.501961" points="70,114 74,114 70,118" />
<polygon fill="#001a53" fill-opacity="0.501961" points="67,121 157,122 135,141" />
<polygon fill="#14367a" fill-opacity="0.501961" points="202,115 203,111 188,111" />
<polygon fill="#001a53" fill-opacity="0.501961" points="167,112 198,136 251,112" />
<polygon fill="#667896" fill-opacity="0.501961" points="58,115 65,122 60,121" />
<polygon fill="#011c54" fill-opacity="0.501961" points="57,142 58,131 35,130" />
<polygon fill="#001a53" fill-opacity="0.501961" points="188,142 86,112 216,112" />
<polygon fill="#0f2a59" fill-opacity="0.501961" points="67,129 69,128 66,127" />
<polygon fill="#001b54" fill-opacity="0.501961" points="16,142 39,121 10,113" />
<polygon fill="#103174" fill-opacity="0.501961" points="31,116 27,111 34,111" />
<polygon fill="#001951" fill-opacity="0.501961" points="40,126 36,112 9,112" />
<polygon fill="#001a53" fill-opacity="0.501961" points="97,116 43,142 142,142" />
<polygon fill="#001a53" fill-opacity="0.501961" points="38,114 11,113 38,133" />
<polygon fill="#000000" fill-opacity="0.501961" points="75,109 67,86 55,110" />
<polygon fill="#19397a" fill-opacity="0.501961" points="232,141 231,143 224,142" />
<polygon fill="#8a99af" fill-opacity="0.501961" points="75,118 72,119 72,118" />
<polygon fill="#000000" fill-opacity="0.501961" points="253,160 254,85 271,140" />
<polygon fill="#103072" fill-opacity="0.501961" points="220,116 204,111 224,111" />
<polygon fill="#001952" fill-opacity="0.501961" points="245,112 232,142 192,112" />
<polygon fill="#001a53" fill-opacity="0.501961" points="232,142 160,141 250,118" />
<polygon fill="#001a53" fill-opacity="0.501961" points="74,118 90,136 75,128" />
<polygon fill="#5a8fff" fill-opacity="0.501961" points="244,134 243,131 249,135" />
<polygon fill="#497ff6" fill-opacity="0.501961" points="243,137 251,138 242,134" />
<polygon fill="#00144d" fill-opacity="0.501961" points="58,114 61,112 67,114" />
<polygon fill="#001a53" fill-opacity="0.501961" points="226,142 248,112 187,112" />
<polygon fill="#001b54" fill-opacity="0.501961" points="250,115 204,115 227,142" />
<polygon fill="#001349" fill-opacity="0.501961" points="246,142 249,136 249,141" />
<polygon fill="#8d98b0" fill-opacity="0.501961" points="57,116 55,116 57,120" />
<polygon fill="#000000" fill-opacity="0.501961" points="-15,148 3,97 3,160" />
<polygon fill="#001b52" fill-opacity="0.501961" points="66,117 78,116 75,113" />
<polygon fill="#041e54" fill-opacity="0.501961" points="45,131 56,132 55,129" />
<polygon fill="#000000" fill-opacity="0.501961" points="50,-16 271,102 94,110" />
<polygon fill="#1d3d81" fill-opacity="0.501961" points="121,143 122,141 115,143" />
<polygon fill="#001a53" fill-opacity="0.501961" points="155,142 189,114 81,140" />
<polygon fill="#12316f" fill-opacity="0.501961" points="153,142 137,143 145,140" />
<polygon fill="#001951" fill-opacity="0.501961" points="163,142 119,142 139,133" />
<polygon fill="#001a52" fill-opacity="0.501961" points="133,141 199,142 168,132" />
<polygon fill="#1d3d81" fill-opacity="0.501961" points="154,141 148,143 158,143" />
<polygon fill="#41567e" fill-opacity="0.501961" points="59,122 61,122 59,117" />
<polygon fill="#001a52" fill-opacity="0.501961" points="158,141 107,142 137,132" />
<polygon fill="#aeb8c7" fill-opacity="0.501961" points="65,119 68,120 68,116" />
<polygon fill="#c2c9d3" fill-opacity="0.501961" points="64,121 67,117 65,117" />
<polygon fill="#07090f" fill-opacity="0.501961" points="124,143 66,143 75,160" />
<polygon fill="#001a53" fill-opacity="0.501961" points="161,142 127,139 158,119" />
<polygon fill="#0b2d6d" fill-opacity="0.501961" points="244,138 247,142 255,143" />
<polygon fill="#0f2e6e" fill-opacity="0.501961" points="191,111 177,112 188,115" />
<polygon fill="#00144b" fill-opacity="0.501961" points="174,112 189,112 189,117" />
<polygon fill="#001a53" fill-opacity="0.501961" points="202,139 251,113 177,113" />
<polygon fill="#001a53" fill-opacity="0.501961" points="232,131 251,112 174,112" />
<polygon fill="#5e7392" fill-opacity="0.501961" points="67,123 70,124 70,123" />
<polygon fill="#193a79" fill-opacity="0.501961" points="6,137 5,140 4,134" />
<polygon fill="#001a53" fill-opacity="0.501961" points="34,113 3,138 38,137" />
<polygon fill="#001a53" fill-opacity="0.501961" points="76,121 62,136 85,138" />
<polygon fill="#183777" fill-opacity="0.501961" points="241,140 234,143 243,143" />
<polygon fill="#001951" fill-opacity="0.501961" points="224,142 228,133 252,142" />
<polygon fill="#001a53" fill-opacity="0.501961" points="17,122 24,128 45,122" />
<polygon fill="#050912" fill-opacity="0.501961" points="166,143 182,152 191,143" />
<polygon fill="#001851" fill-opacity="0.501961" points="70,129 70,120 86,120" />
<polygon fill="#8794ab" fill-opacity="0.501961" points="41,117 43,121 43,118" />
<polygon fill="#001a53" fill-opacity="0.501961" points="104,116 82,139 70,123" />
<polygon fill="#102d6b" fill-opacity="0.501961" points="198,139 213,142 205,143" />
<polygon fill="#001a53" fill-opacity="0.501961" points="146,141 231,119 244,142" />
<polygon fill="#1d428c" fill-opacity="0.501961" points="23,111 28,113 31,111" />
<polygon fill="#0e2c6a" fill-opacity="0.501961" points="139,111 133,116 143,112" />
<polygon fill="#001a53" fill-opacity="0.501961" points="139,112 97,134 191,116" />
<polygon fill="#1c4391" fill-opacity="0.501961" points="114,111 102,111 109,113" />
<polygon fill="#001a53" fill-opacity="0.501961" points="202,112 155,141 71,112" />
<polygon fill="#001a53" fill-opacity="0.501961" points="29,112 45,141 6,112" />
<polygon fill="#000000" fill-opacity="0.501961" points="191,111 211,88 210,50" />
<polygon fill="#7f8ea7" fill-opacity="0.501961" points="40,123 44,123 40,129" />
<polygon fill="#163a80" fill-opacity="0.501961" points="41,111 36,114 33,111" />
<polygon fill="#001a53" fill-opacity="0.501961" points="170,120 246,142 204,142" />
<polygon fill="#001b53" fill-opacity="0.501961" points="52,141 65,137 64,126" />
<polygon fill="#001952" fill-opacity="0.501961" points="15,112 47,112 8,123" />
<polygon fill="#001a53" fill-opacity="0.501961" points="83,112 92,141 151,112" />
<polygon fill="#001a53" fill-opacity="0.501961" points="14,142 24,119 5,136" />
<polygon fill="#163472" fill-opacity="0.501961" points="44,115 47,111 41,112" />
<polygon fill="#000000" fill-opacity="0.501961" points="45,111 78,81 69,100" />
<polygon fill="#001a53" fill-opacity="0.501961" points="16,127 64,142 6,140" />
<polygon fill="#001b54" fill-opacity="0.501961" points="36,113 40,120 11,120" />
<polygon fill="#000000" fill-opacity="0.501961" points="198,80 138,111 174,75" />
<polygon fill="#001b54" fill-opacity="0.501961" points="150,119 176,113 200,124" />
<polygon fill="#001a54" fill-opacity="0.501961" points="145,138 178,129 204,140" />
<polygon fill="#112f70" fill-opacity="0.501961" points="247,126 253,136 252,126" />
<polygon fill="#001a53" fill-opacity="0.501961" points="249,118 249,129 212,123" />
<polygon fill="#001a53" fill-opacity="0.501961" points="137,129 68,126 94,142" />
<polygon fill="#070910" fill-opacity="0.501961" points="7,143 32,143 4,154" />
<polygon fill="#001b54" fill-opacity="0.501961" points="32,117 27,141 41,122" />
<polygon fill="#001a52" fill-opacity="0.501961" points="55,123 47,122 51,127" />
<polygon fill="#001a53" fill-opacity="0.501961" points="49,134 5,142 7,126" />
<polygon fill="#001951" fill-opacity="0.501961" points="251,116 244,126 251,131" />
<polygon fill="#1d3e82" fill-opacity="0.501961" points="127,143 123,143 130,141" />
<polygon fill="#001a52" fill-opacity="0.501961" points="120,142 133,133 149,140" />
<polygon fill="#001a53" fill-opacity="0.501961" points="133,142 138,114 90,135" />
<polygon fill="#0d1010" fill-opacity="0.501961" points="18,111 6,111 13,109" />
<polygon fill="#001a53" fill-opacity="0.501961" points="202,141 180,121 252,141" />
<polygon fill="#000000" fill-opacity="0.501961" points="40,57 19,110 -3,109" />
<polygon fill="#00154a" fill-opacity="0.501961" points="251,142 248,142 250,135" />
<polygon fill="#001a53" fill-opacity="0.501961" points="230,123 248,120 252,130" />
<polygon fill="#001850" fill-opacity="0.501961" points="31,112 35,115 36,112" />
<polygon fill="#000000" fill-opacity="0.501961" points="16,-6 191,37 239,-16" />
<polygon fill="#001a52" fill-opacity="0.501961" points="52,130 65,141 22,141" />
<polygon fill="#487ff2" fill-opacity="0.501961" points="248,134 246,138 241,138" />
<polygon fill="#001a53" fill-opacity="0.501961" points="16,115 41,113 24,122" />
<polygon fill="#1d418a" fill-opacity="0.501961" points="185,111 189,111 192,113" />
<polygon fill="#14191b" fill-opacity="0.501961" points="45,110 41,110 42,111" />
<polygon fill="#001a53" fill-opacity="0.501961" points="207,112 188,113 187,139" />
<polygon fill="#001a53" fill-opacity="0.501961" points="43,123 7,118 11,130" />
<polygon fill="#051f57" fill-opacity="0.501961" points="55,135 46,129 53,130" />
<polygon fill="#000000" fill-opacity="0.501961" points="271,123 252,106 271,160" />
<polygon fill="#001a53" fill-opacity="0.501961" points="205,112 192,122 173,112" />
<polygon fill="#001a53" fill-opacity="0.501961" points="20,124 8,118 46,113" />
<polygon fill="#001952" fill-opacity="0.501961" points="62,134 50,129 51,137" />
<polygon fill="#183261" fill-opacity="0.501961" points="69,114 64,115 65,113" />
<polygon fill="#8e9bb2" fill-opacity="0.501961" points="41,126 43,126 39,128" />
<polygon fill="#8b99b1" fill-opacity="0.501961" points="56,119 58,117 57,121" />
<polygon fill="#001a53" fill-opacity="0.501961" points="12,132 42,112 6,112" />
<polygon fill="#001a53" fill-opacity="0.501961" points="66,142 70,124 106,125" />
<polygon fill="#001b54" fill-opacity="0.501961" points="245,139 225,138 212,127" />
<polygon fill="#001952" fill-opacity="0.501961" points="59,112 52,112 54,114" />
<polygon fill="#7a89a4" fill-opacity="0.501961" points="43,126 40,127 41,124" />
<polygon fill="#000000" fill-opacity="0.501961" points="54,110 87,110 79,99" />
<polygon fill="#001a53" fill-opacity="0.501961" points="108,113 124,142 216,142" />
<polygon fill="#070a13" fill-opacity="0.501961" points="248,143 190,143 235,160" />
<polygon fill="#000000" fill-opacity="0.501961" points="-3,78 1,109 101,110" />
<polygon fill="#001a53" fill-opacity="0.501961" points="252,125 247,125 251,137" />
<polygon fill="#092962" fill-opacity="0.501961" points="63,116 62,111 60,112" />
<polygon fill="#082357" fill-opacity="0.501961" points="73,124 73,121 65,122" />
<polygon fill="#001a51" fill-opacity="0.501961" points="244,140 250,142 250,138" />
<polygon fill="#163673" fill-opacity="0.501961" points="8,122 4,113 4,118" />
<polygon fill="#001952" fill-opacity="0.501961" points="5,116 12,122 9,138" />
<polygon fill="#001a54" fill-opacity="0.501961" points="251,114 246,122 252,140" />
<polygon fill="#001b53" fill-opacity="0.501961" points="9,137 5,114 12,117" />
<polygon fill="#001a53" fill-opacity="0.501961" points="26,132 42,140 59,131" />
<polygon fill="#133171" fill-opacity="0.501961" points="168,140 161,143 174,142" />
<polygon fill="#001950" fill-opacity="0.501961" points="151,141 164,137 180,142" />
<polygon fill="#001a53" fill-opacity="0.501961" points="180,141 143,142 195,122" />
<polygon fill="#163576" fill-opacity="0.501961" points="97,143 106,140 115,143" />
<polygon fill="#00184f" fill-opacity="0.501961" points="94,142 115,141 127,131" />
<polygon fill="#001a53" fill-opacity="0.501961" points="178,142 138,115 97,142" />
<polygon fill="#001a53" fill-opacity="0.501961" points="99,142 110,113 174,140" />
<polygon fill="#001a53" fill-opacity="0.501961" points="82,112 143,112 117,129" />
<polygon fill="#00194f" fill-opacity="0.501961" points="47,124 50,128 50,124" />
<polygon fill="#070a15" fill-opacity="0.501961" points="11,160 52,143 21,143" />
<polygon fill="#070912" fill-opacity="0.501961" points="110,143 50,143 76,154" />
<polygon fill="#1b3361" fill-opacity="0.501961" points="72,119 73,120 70,120" />
<polygon fill="#001a53" fill-opacity="0.501961" points="75,121 69,126 77,132" />
<polygon fill="#1f3c79" fill-opacity="0.501961" points="251,138 254,143 252,136" />
<polygon fill="#000000" fill-opacity="0.501961" points="252,144 256,155 271,130" />
<polygon fill="#677797" fill-opacity="0.501961" points="55,119 54,117 57,116" />
<polygon fill="#000000" fill-opacity="0.501961" points="268,147 248,156 262,117" />
<polygon fill="#5588ff" fill-opacity="0.501961" points="245,130 246,137 243,135" />
<polygon fill="#001b54" fill-opacity="0.501961" points="245,130 251,121 246,123" />
<polygon fill="#001a54" fill-opacity="0.501961" points="28,129 31,140 64,138" />
<polygon fill="#000000" fill-opacity="0.501961" points="256,123 271,136 253,144" />
<polygon fill="#001a53" fill-opacity="0.501961" points="70,121 101,122 72,140" />
<polygon fill="#001a54" fill-opacity="0.501961" points="152,140 104,139 137,129" />
<polygon fill="#001a53" fill-opacity="0.501961" points="137,133 107,141 67,125" />
<polygon fill="#000000" fill-opacity="0.501961" points="-16,137 -5,115 10,160" />
<polygon fill="#a5b0c1" fill-opacity="0.501961" points="66,116 67,121 63,119" />
<polygon fill="#001b53" fill-opacity="0.501961" points="185,142 152,142 166,132" />
<polygon fill="#001a53" fill-opacity="0.501961" points="59,139 52,124 50,134" />
<polygon fill="#001a53" fill-opacity="0.501961" points="15,124 48,112 13,112" />
<polygon fill="#001a53" fill-opacity="0.501961" points="171,122 199,112 176,112" />
<polygon fill="#001850" fill-opacity="0.501961" points="81,114 73,117 84,117" />
<polygon fill="#062b72" fill-opacity="0.501961" points="245,138 242,140 239,140" />
<polygon fill="#697b99" fill-opacity="0.501961" points="68,127 66,124 64,128" />
<polygon fill="#001a53" fill-opacity="0.501961" points="44,137 49,131 57,129" />
<polygon fill="#001a53" fill-opacity="0.501961" points="86,135 98,121 67,128" />
<polygon fill="#163574" fill-opacity="0.501961" points="45,143 34,140 24,143" />
<polygon fill="#00164d" fill-opacity="0.501961" points="43,142 30,137 22,142" />
<polygon fill="#001a53" fill-opacity="0.501961" points="6,141 52,142 6,113" />
<polygon fill="#001a53" fill-opacity="0.501961" points="24,142 46,142 18,127" />
<polygon fill="#001a53" fill-opacity="0.501961" points="195,114 247,141 193,138" />
<polygon fill="#001a51" fill-opacity="0.501961" points="235,140 228,133 246,142" />
<polygon fill="#001a53" fill-opacity="0.501961" points="72,120 108,141 65,139" />
<polygon fill="#000000" fill-opacity="0.501961" points="256,139 254,99 271,137" />
<polygon fill="#214289" fill-opacity="0.501961" points="253,133 252,126 251,133" />
<polygon fill="#234997" fill-opacity="0.501961" points="57,111 60,112 54,112" />
<polygon fill="#000000" fill-opacity="0.501961" points="68,99 57,111 63,97" />
<polygon fill="#001a54" fill-opacity="0.501961" points="7,135 7,120 18,137" />
<polygon fill="#001b52" fill-opacity="0.501961" points="11,142 46,141 30,135" />
<polygon fill="#03080a" fill-opacity="0.501961" points="3,143 33,152 23,160" />
<polygon fill="#000000" fill-opacity="0.501961" points="104,109 95,94 131,110" />
<polygon fill="#001850" fill-opacity="0.501961" points="248,122 252,131 246,125" />
<polygon fill="#001a54" fill-opacity="0.501961" points="8,124 23,113 8,114" />
<polygon fill="#001950" fill-opacity="0.501961" points="249,132 251,130 248,127" />
<polygon fill="#001a53" fill-opacity="0.501961" points="217,128 251,127 246,116" />
<polygon fill="#031d54" fill-opacity="0.501961" points="79,121 71,120 67,126" />
<polygon fill="#001a53" fill-opacity="0.501961" points="72,121 64,135 110,126" />
<polygon fill="#020507" fill-opacity="0.501961" points="253,133 253,115 262,119" />
<polygon fill="#000000" fill-opacity="0.501961" points="253,107 264,96 259,141" />
<polygon fill="#001a53" fill-opacity="0.501961" points="75,114 80,117 85,113" />
<polygon fill="#17397a" fill-opacity="0.501961" points="146,111 144,113 138,112" />
<polygon fill="#001a53" fill-opacity="0.501961" points="106,112 166,112 115,129" />
<polygon fill="#204084" fill-opacity="0.501961" points="219,143 210,143 212,141" />
<polygon fill="#00154a" fill-opacity="0.501961" points="216,139 216,142 210,141" />
</g>
</svg>