<svg xmlns="http://www.w3.org/2000/svg" version="1.1" width="1024" height="288">
<rect x="0" y="0" width="1024" height="288" fill="#28364a" />
<g transform="scale(4.000000) translate(0.5 0.5)">
<polygon fill="#e0ffff" fill-opacity="0.501961" points="53,87 106,12 26,-16" />
<polygon fill="#000000" fill-opacity="0.501961" points="84,9 243,87 271,-16" />
<polygon fill="#a0ffff" fill-opacity="0.501961" points="92,-16 30,19 86,87" />
<polygon fill="#000000" fill-opacity="0.501961" points="271,11 128,70 88,-16" />
<polygon fill="#2956bf" fill-opacity="0.501961" points="35,48 129,66 -12,87" />
<polygon fill="#000000" fill-opacity="0.501961" points="-16,76 -7,-16 42,-1" />
<polygon fill="#000000" fill-opacity="0.501961" points="271,61 92,36 252,-16" />
<polygon fill="#bbfaff" fill-opacity="0.501961" points="46,-16 44,59 88,39" />
<polygon fill="#082f85" fill-opacity="0.501961" points="117,54 240,87 220,54" />
<polygon fill="#5b6999" fill-opacity="0.501961" points="58,74 30,7 26,80" />
<polygon fill="#664572" fill-opacity="0.501961" points="105,73 82,46 101,10" />
<polygon fill="#001a63" fill-opacity="0.501961" points="247,87 124,68 271,51" />
<polygon fill="#81dfff" fill-opacity="0.501961" points="98,14 50,-16 34,28" />
<polygon fill="#7d2437" fill-opacity="0.501961" points="41,51 13,56 19,18" />
<polygon fill="#2d5fa9" fill-opacity="0.501961" points="8,59 96,54 89,87" />
<polygon fill="#480c15" fill-opacity="0.501961" points="98,54 99,-3 126,53" />
<polygon fill="#060000" fill-opacity="0.501961" points="-16,48 7,-16 26,29" />
<polygon fill="#000000" fill-opacity="0.501961" points="97,-16 150,56 271,49" />
<polygon fill="#dcf7ff" fill-opacity="0.501961" points="87,37 61,56 42,26" />
<polygon fill="#0d2269" fill-opacity="0.501961" points="152,87 142,48 83,60" />
<polygon fill="#374b69" fill-opacity="0.501961" points="102,33 101,8 77,-16" />
<polygon fill="#55a3d3" fill-opacity="0.501961" points="92,5 76,60 95,36" />
<polygon fill="#000000" fill-opacity="0.501961" points="134,49 108,-16 271,2" />
<polygon fill="#021560" fill-opacity="0.501961" points="-16,55 14,46 19,87" />
<polygon fill="#566b8a" fill-opacity="0.501961" points="142,63 194,64 161,54" />
<polygon fill="#000000" fill-opacity="0.501961" points="161,42 269,57 250,-16" />
<polygon fill="#94495f" fill-opacity="0.501961" points="108,54 103,39 83,52" />
<polygon fill="#435378" fill-opacity="0.501961" points="25,9 29,19 53,-7" />
<polygon fill="#92defa" fill-opacity="0.501961" points="36,7 41,39 85,1" />
<polygon fill="#0f0505" fill-opacity="0.501961" points="99,30 129,23 130,61" />
<polygon fill="#468cc3" fill-opacity="0.501961" points="74,79 34,25 51,87" />
<polygon fill="#413e7a" fill-opacity="0.501961" points="3,50 40,87 34,55" />
<polygon fill="#7c98bf" fill-opacity="0.501961" points="132,52 141,51 135,49" />
<polygon fill="#001e60" fill-opacity="0.501961" points="271,79 189,56 243,54" />
<polygon fill="#0a0504" fill-opacity="0.501961" points="-16,-14 51,-16 -1,37" />
<polygon fill="#ffffff" fill-opacity="0.501961" points="53,35 46,36 55,49" />
<polygon fill="#000000" fill-opacity="0.501961" points="134,87 126,87 128,57" />
<polygon fill="#000c48" fill-opacity="0.501961" points="151,69 160,77 163,55" />
<polygon fill="#000000" fill-opacity="0.501961" points="1,3 -16,23 1,86" />
<polygon fill="#001546" fill-opacity="0.501961" points="123,64 232,66 160,87" />
<polygon fill="#36242d" fill-opacity="0.501961" points="31,27 31,-8 3,49" />
<polygon fill="#64b4ee" fill-opacity="0.501961" points="83,45 88,53 57,56" />
<polygon fill="#591027" fill-opacity="0.501961" points="119,54 99,50 108,34" />
<polygon fill="#3263a9" fill-opacity="0.501961" points="43,55 105,55 28,76" />
<polygon fill="#477392" fill-opacity="0.501961" points="37,6 30,21 39,44" />
<polygon fill="#6dd5fd" fill-opacity="0.501961" points="62,55 49,44 45,52" />
<polygon fill="#77cbe8" fill-opacity="0.501961" points="92,32 60,16 90,7" />
<polygon fill="#579cff" fill-opacity="0.501961" points="246,68 252,67 251,64" />
<polygon fill="#000000" fill-opacity="0.501961" points="169,-16 128,46 215,55" />
<polygon fill="#7ebee2" fill-opacity="0.501961" points="60,84 95,70 32,70" />
<polygon fill="#7d5163" fill-opacity="0.501961" points="20,55 36,36 45,53" />
<polygon fill="#5a4f6a" fill-opacity="0.501961" points="86,49 94,62 95,21" />
<polygon fill="#000000" fill-opacity="0.501961" points="255,54 74,-16 271,0" />
<polygon fill="#00184d" fill-opacity="0.501961" points="183,68 169,55 178,87" />
<polygon fill="#a8f1ff" fill-opacity="0.501961" points="77,11 35,13 55,1" />
<polygon fill="#000000" fill-opacity="0.501961" points="255,32 256,85 271,52" />
<polygon fill="#231519" fill-opacity="0.501961" points="89,-1 113,-5 120,28" />
<polygon fill="#333a80" fill-opacity="0.501961" points="82,56 105,54 121,87" />
<polygon fill="#6083b9" fill-opacity="0.501961" points="61,69 73,59 55,55" />
<polygon fill="#495f82" fill-opacity="0.501961" points="191,64 168,59 186,56" />
<polygon fill="#c9f2ff" fill-opacity="0.501961" points="82,41 53,45 64,21" />
<polygon fill="#642940" fill-opacity="0.501961" points="32,54 26,28 8,46" />
<polygon fill="#3672e1" fill-opacity="0.501961" points="118,68 124,63 125,67" />
<polygon fill="#001752" fill-opacity="0.501961" points="129,71 144,68 143,47" />
<polygon fill="#448abb" fill-opacity="0.501961" points="73,-16 36,9 50,-16" />
<polygon fill="#8a99b2" fill-opacity="0.501961" points="146,64 154,63 142,61" />
<polygon fill="#000000" fill-opacity="0.501961" points="144,52 192,54 122,-16" />
<polygon fill="#366790" fill-opacity="0.501961" points="83,0 86,-15 96,12" />
<polygon fill="#526883" fill-opacity="0.501961" points="206,62 199,60 203,65" />
<polygon fill="#2c2329" fill-opacity="0.501961" points="107,18 105,39 89,42" />
<polygon fill="#430c21" fill-opacity="0.501961" points="23,23 13,15 11,23" />
<polygon fill="#72839d" fill-opacity="0.501961" points="165,66 166,62 163,59" />
<polygon fill="#7fcee4" fill-opacity="0.501961" points="67,17 37,32 38,21" />
<polygon fill="#7e7fa4" fill-opacity="0.501961" points="31,66 29,56 27,62" />
<polygon fill="#579fce" fill-opacity="0.501961" points="90,4 76,-1 94,13" />
<polygon fill="#8dd8f0" fill-opacity="0.501961" points="48,23 36,17 45,43" />
<polygon fill="#96e2fc" fill-opacity="0.501961" points="81,11 71,-11 68,30" />
<polygon fill="#0b2562" fill-opacity="0.501961" points="2,47 2,76 20,68" />
<polygon fill="#53586e" fill-opacity="0.501961" points="102,17 93,14 89,-6" />
<polygon fill="#000815" fill-opacity="0.501961" points="123,62 129,65 128,73" />
<polygon fill="#420c20" fill-opacity="0.501961" points="120,53 118,38 101,37" />
<polygon fill="#22306b" fill-opacity="0.501961" points="14,64 -5,87 35,65" />
<polygon fill="#000e0c" fill-opacity="0.501961" points="112,35 121,25 101,28" />
<polygon fill="#c1effe" fill-opacity="0.501961" points="70,28 68,54 84,37" />
<polygon fill="#673248" fill-opacity="0.501961" points="106,55 88,39 119,54" />
<polygon fill="#011c54" fill-opacity="0.501961" points="205,54 242,87 252,54" />
<polygon fill="#6abcd3" fill-opacity="0.501961" points="39,-16 91,-16 65,5" />
<polygon fill="#0d2064" fill-opacity="0.501961" points="111,57 125,58 116,71" />
<polygon fill="#000000" fill-opacity="0.501961" points="143,53 227,-16 271,54" />
<polygon fill="#3f4481" fill-opacity="0.501961" points="39,55 16,64 17,56" />
<polygon fill="#2063a9" fill-opacity="0.501961" points="87,56 72,55 71,87" />
<polygon fill="#ffffff" fill-opacity="0.501961" points="54,47 45,38 53,34" />
<polygon fill="#3f1322" fill-opacity="0.501961" points="115,26 121,13 106,26" />
<polygon fill="#00205a" fill-opacity="0.501961" points="147,57 130,83 130,51" />
<polygon fill="#53617f" fill-opacity="0.501961" points="32,19 43,-1 28,14" />
<polygon fill="#000000" fill-opacity="0.501961" points="254,81 271,43 259,10" />
<polygon fill="#001c53" fill-opacity="0.501961" points="158,85 171,87 161,54" />
<polygon fill="#66b7d1" fill-opacity="0.501961" points="82,20 91,35 81,32" />
<polygon fill="#6ec2ec" fill-opacity="0.501961" points="49,48 42,55 68,54" />
<polygon fill="#a0e9fe" fill-opacity="0.501961" points="39,23 43,4 78,4" />
<polygon fill="#668db9" fill-opacity="0.501961" points="43,59 48,45 43,52" />
<polygon fill="#02225d" fill-opacity="0.501961" points="163,54 150,55 163,58" />
<polygon fill="#5c4155" fill-opacity="0.501961" points="32,28 25,33 38,50" />
<polygon fill="#090708" fill-opacity="0.501961" points="124,11 104,23 115,-4" />
<polygon fill="#5fceff" fill-opacity="0.501961" points="76,55 81,43 74,52" />
<polygon fill="#91596b" fill-opacity="0.501961" points="92,50 96,40 101,41" />
<polygon fill="#616289" fill-opacity="0.501961" points="119,87 114,70 90,70" />
<polygon fill="#2465ac" fill-opacity="0.501961" points="45,56 50,70 58,55" />
<polygon fill="#303c45" fill-opacity="0.501961" points="77,-16 99,12 98,-16" />
<polygon fill="#011b50" fill-opacity="0.501961" points="179,87 119,87 177,61" />
<polygon fill="#050201" fill-opacity="0.501961" points="119,24 129,61 132,9" />
<polygon fill="#858ca9" fill-opacity="0.501961" points="18,61 15,63 23,63" />
<polygon fill="#4a1d2d" fill-opacity="0.501961" points="24,51 18,54 10,40" />
<polygon fill="#908fb1" fill-opacity="0.501961" points="35,56 35,61 38,58" />
<polygon fill="#3f2b39" fill-opacity="0.501961" points="103,7 105,26 97,30" />
<polygon fill="#afe2f8" fill-opacity="0.501961" points="59,45 58,56 65,48" />
<polygon fill="#8a98ae" fill-opacity="0.501961" points="170,64 165,58 164,62" />
<polygon fill="#323876" fill-opacity="0.501961" points="35,56 17,64 26,55" />
<polygon fill="#020301" fill-opacity="0.501961" points="-16,-11 0,70 7,-16" />
<polygon fill="#2e476d" fill-opacity="0.501961" points="203,61 204,64 214,63" />
<polygon fill="#1a3170" fill-opacity="0.501961" points="-1,48 16,65 14,49" />
<polygon fill="#324b92" fill-opacity="0.501961" points="31,65 42,55 32,85" />
<polygon fill="#637290" fill-opacity="0.501961" points="34,36 37,31 44,47" />
<polygon fill="#536483" fill-opacity="0.501961" points="100,16 96,35 93,8" />
<polygon fill="#103378" fill-opacity="0.501961" points="131,50 136,49 130,47" />
<polygon fill="#041c4e" fill-opacity="0.501961" points="192,63 255,72 135,87" />
<polygon fill="#509ac3" fill-opacity="0.501961" points="39,12 32,13 42,4" />
<polygon fill="#0d1111" fill-opacity="0.501961" points="-16,70 -13,32 19,26" />
<polygon fill="#001955" fill-opacity="0.501961" points="250,64 223,62 256,54" />
<polygon fill="#183363" fill-opacity="0.501961" points="168,61 162,60 168,59" />
<polygon fill="#252e6f" fill-opacity="0.501961" points="106,70 91,56 127,54" />
<polygon fill="#0a0a0c" fill-opacity="0.501961" points="101,32 128,40 124,18" />
<polygon fill="#000000" fill-opacity="0.501961" points="266,17 127,-16 129,48" />
<polygon fill="#2e0c18" fill-opacity="0.501961" points="127,37 123,55 105,43" />
<polygon fill="#5791b9" fill-opacity="0.501961" points="92,37 94,22 80,48" />
<polygon fill="#774157" fill-opacity="0.501961" points="23,45 15,36 35,48" />
<polygon fill="#031c4d" fill-opacity="0.501961" points="203,61 184,54 214,54" />
<polygon fill="#bbe9f8" fill-opacity="0.501961" points="48,34 44,32 46,43" />
<polygon fill="#0c2962" fill-opacity="0.501961" points="126,62 121,78 128,87" />
<polygon fill="#6cb2c3" fill-opacity="0.501961" points="67,15 57,20 67,18" />
<polygon fill="#0b0d0e" fill-opacity="0.501961" points="12,13 21,-16 23,21" />
<polygon fill="#3d3340" fill-opacity="0.501961" points="27,18 24,10 38,-2" />
<polygon fill="#697b98" fill-opacity="0.501961" points="165,59 169,64 169,57" />
<polygon fill="#0e1619" fill-opacity="0.501961" points="27,-14 19,17 44,-16" />
<polygon fill="#052055" fill-opacity="0.501961" points="149,82 156,60 198,87" />
<polygon fill="#011b51" fill-opacity="0.501961" points="196,76 193,87 170,59" />
<polygon fill="#858cb0" fill-opacity="0.501961" points="84,55 83,47 88,47" />
<polygon fill="#98cbdc" fill-opacity="0.501961" points="81,34 77,32 72,33" />
<polygon fill="#5f5a75" fill-opacity="0.501961" points="94,39 86,54 89,38" />
<polygon fill="#4d2e40" fill-opacity="0.501961" points="100,38 92,37 93,47" />
<polygon fill="#616388" fill-opacity="0.501961" points="33,70 17,71 42,77" />
<polygon fill="#052055" fill-opacity="0.501961" points="197,54 178,61 209,61" />
<polygon fill="#8998af" fill-opacity="0.501961" points="145,62 155,63 150,61" />
<polygon fill="#ffffff" fill-opacity="0.501961" points="63,38 61,39 62,41" />
<polygon fill="#3070b2" fill-opacity="0.501961" points="39,70 39,63 57,66" />
<polygon fill="#ecffff" fill-opacity="0.501961" points="77,31 78,35 74,31" />
<polygon fill="#566d92" fill-opacity="0.501961" points="139,53 133,50 139,48" />
<polygon fill="#65a6d3" fill-opacity="0.501961" points="39,70 88,70 44,83" />
<polygon fill="#2e4950" fill-opacity="0.501961" points="33,15 26,23 30,30" />
<polygon fill="#001751" fill-opacity="0.501961" points="132,66 139,56 149,69" />
<polygon fill="#6f819c" fill-opacity="0.501961" points="154,57 152,63 155,62" />
<polygon fill="#425482" fill-opacity="0.501961" points="10,50 7,48 9,54" />
<polygon fill="#000000" fill-opacity="0.501961" points="202,-16 158,54 271,54" />
<polygon fill="#63a7c1" fill-opacity="0.501961" points="64,0 83,-14 80,0" />
<polygon fill="#0c275c" fill-opacity="0.501961" points="166,59 177,63 176,59" />
<polygon fill="#31448a" fill-opacity="0.501961" points="94,72 101,55 82,57" />
<polygon fill="#594559" fill-opacity="0.501961" points="97,28 96,20 102,14" />
<polygon fill="#0a0400" fill-opacity="0.501961" points="-11,81 2,71 -3,33" />
<polygon fill="#2c67aa" fill-opacity="0.501961" points="83,56 61,70 90,69" />
<polygon fill="#192135" fill-opacity="0.501961" points="190,70 209,87 271,70" />
<polygon fill="#000000" fill-opacity="0.501961" points="126,75 129,60 131,76" />
<polygon fill="#0b275d" fill-opacity="0.501961" points="150,56 138,53 152,61" />
<polygon fill="#3d2132" fill-opacity="0.501961" points="5,48 22,48 13,38" />
<polygon fill="#7dcee6" fill-opacity="0.501961" points="74,22 71,12 91,21" />
<polygon fill="#773346" fill-opacity="0.501961" points="34,54 17,54 26,49" />
<polygon fill="#7ecde5" fill-opacity="0.501961" points="36,22 42,37 51,20" />
<polygon fill="#77bed9" fill-opacity="0.501961" points="75,46 81,42 83,45" />
<polygon fill="#96dff5" fill-opacity="0.501961" points="72,22 39,27 37,15" />
<polygon fill="#182137" fill-opacity="0.501961" points="133,70 136,82 178,71" />
<polygon fill="#6a83b6" fill-opacity="0.501961" points="61,67 63,61 56,58" />
<polygon fill="#7f5165" fill-opacity="0.501961" points="87,53 98,43 95,54" />
<polygon fill="#2865a8" fill-opacity="0.501961" points="46,70 53,60 61,70" />
<polygon fill="#09215e" fill-opacity="0.501961" points="2,71 17,56 2,55" />
<polygon fill="#7ac9df" fill-opacity="0.501961" points="46,22 47,30 51,15" />
<polygon fill="#09235f" fill-opacity="0.501961" points="123,55 126,62 108,64" />
<polygon fill="#000000" fill-opacity="0.501961" points="255,69 271,86 255,49" />
<polygon fill="#a1dbee" fill-opacity="0.501961" points="51,21 57,26 56,36" />
<polygon fill="#5b7faf" fill-opacity="0.501961" points="41,61 46,59 45,42" />
<polygon fill="#6dcaee" fill-opacity="0.501961" points="45,43 50,51 49,42" />
<polygon fill="#001c57" fill-opacity="0.501961" points="250,61 255,70 253,56" />
<polygon fill="#49172a" fill-opacity="0.501961" points="111,25 103,24 117,20" />
<polygon fill="#6cbfe0" fill-opacity="0.501961" points="84,41 85,30 88,32" />
<polygon fill="#53132a" fill-opacity="0.501961" points="111,37 104,54 103,39" />
<polygon fill="#17141a" fill-opacity="0.501961" points="93,-10 111,27 105,-16" />
<polygon fill="#95e3fb" fill-opacity="0.501961" points="84,17 67,1 79,2" />
<polygon fill="#546788" fill-opacity="0.501961" points="179,58 178,62 193,64" />
<polygon fill="#90c7dd" fill-opacity="0.501961" points="84,36 75,29 83,32" />
<polygon fill="#5a6d8e" fill-opacity="0.501961" points="182,59 181,57 175,58" />
<polygon fill="#301c2a" fill-opacity="0.501961" points="26,21 7,41 26,30" />
<polygon fill="#000201" fill-opacity="0.501961" points="41,-16 1,-16 -11,21" />
<polygon fill="#001a57" fill-opacity="0.501961" points="188,63 191,70 207,70" />
<polygon fill="#816b89" fill-opacity="0.501961" points="99,15 96,20 97,16" />
<polygon fill="#2a446b" fill-opacity="0.501961" points="194,64 189,64 196,61" />
<polygon fill="#001955" fill-opacity="0.501961" points="230,58 241,70 195,69" />
<polygon fill="#79c7de" fill-opacity="0.501961" points="91,14 73,21 92,27" />
<polygon fill="#92d3e3" fill-opacity="0.501961" points="56,15 48,34 55,25" />
<polygon fill="#84b9cd" fill-opacity="0.501961" points="72,28 70,27 67,30" />
<polygon fill="#fffffe" fill-opacity="0.501961" points="58,50 51,44 53,42" />
<polygon fill="#152960" fill-opacity="0.501961" points="150,87 110,61 115,82" />
<polygon fill="#6a2e43" fill-opacity="0.501961" points="89,54 102,46 112,51" />
<polygon fill="#2d2f37" fill-opacity="0.501961" points="99,29 100,41 94,39" />
<polygon fill="#b1ecff" fill-opacity="0.501961" points="44,30 59,25 52,24" />
<polygon fill="#355080" fill-opacity="0.501961" points="133,53 134,55 135,52" />
<polygon fill="#132628" fill-opacity="0.501961" points="104,29 100,24 101,35" />
<polygon fill="#a7eeff" fill-opacity="0.501961" points="43,15 45,25 48,5" />
<polygon fill="#2d161a" fill-opacity="0.501961" points="122,54 119,46 115,54" />
<polygon fill="#7dc2d3" fill-opacity="0.501961" points="73,36 74,32 71,32" />
<polygon fill="#a9e6ff" fill-opacity="0.501961" points="57,23 67,21 81,29" />
<polygon fill="#468ab6" fill-opacity="0.501961" points="92,9 95,17 93,24" />
<polygon fill="#4c6a8c" fill-opacity="0.501961" points="31,17 33,23 36,7" />
<polygon fill="#081f4a" fill-opacity="0.501961" points="254,64 249,75 257,82" />
<polygon fill="#2861ad" fill-opacity="0.501961" points="49,58 60,55 41,55" />
<polygon fill="#2f607b" fill-opacity="0.501961" points="92,6 88,-6 70,-14" />
<polygon fill="#0a255a" fill-opacity="0.501961" points="122,56 126,67 126,55" />
<polygon fill="#79cae0" fill-opacity="0.501961" points="73,5 50,-1 51,-10" />
<polygon fill="#0d2557" fill-opacity="0.501961" points="185,71 178,87 180,58" />
<polygon fill="#6ab8dd" fill-opacity="0.501961" points="42,6 47,3 50,-6" />
<polygon fill="#70b9d2" fill-opacity="0.501961" points="40,33 38,25 41,25" />
<polygon fill="#c2f1ff" fill-opacity="0.501961" points="76,47 64,25 63,52" />
<polygon fill="#4a6b8e" fill-opacity="0.501961" points="74,-16 56,-16 33,7" />
<polygon fill="#beeefb" fill-opacity="0.501961" points="83,41 83,33 65,38" />
<polygon fill="#65a3ff" fill-opacity="0.501961" points="122,68 123,68 122,66" />
<polygon fill="#607394" fill-opacity="0.501961" points="159,56 156,58 156,60" />
<polygon fill="#7a4a67" fill-opacity="0.501961" points="103,54 90,55 96,50" />
<polygon fill="#f0feff" fill-opacity="0.501961" points="50,32 51,38 57,39" />
<polygon fill="#000004" fill-opacity="0.501961" points="128,39 139,42 140,49" />
<polygon fill="#12080c" fill-opacity="0.501961" points="128,48 119,11 116,29" />
<polygon fill="#1e2e68" fill-opacity="0.501961" points="15,51 3,47 11,47" />
<polygon fill="#021b4f" fill-opacity="0.501961" points="169,55 161,58 156,54" />
<polygon fill="#8b90b2" fill-opacity="0.501961" points="25,65 30,62 30,59" />
<polygon fill="#23357b" fill-opacity="0.501961" points="36,70 23,63 21,68" />
<polygon fill="#1a376b" fill-opacity="0.501961" points="131,55 139,52 139,55" />
<polygon fill="#61bcf6" fill-opacity="0.501961" points="70,54 85,55 74,51" />
<polygon fill="#0a0606" fill-opacity="0.501961" points="131,42 128,60 123,29" />
<polygon fill="#313c7b" fill-opacity="0.501961" points="19,61 22,55 7,53" />
<polygon fill="#546a8c" fill-opacity="0.501961" points="152,58 152,60 159,60" />
<polygon fill="#73bbd4" fill-opacity="0.501961" points="92,17 82,31 89,34" />
<polygon fill="#314082" fill-opacity="0.501961" points="40,65 27,55 33,65" />
<polygon fill="#71bdc9" fill-opacity="0.501961" points="74,51 74,49 67,52" />
<polygon fill="#051f57" fill-opacity="0.501961" points="173,85 179,71 170,57" />
<polygon fill="#030808" fill-opacity="0.501961" points="17,26 -13,6 -16,45" />
<polygon fill="#001b55" fill-opacity="0.501961" points="140,60 146,70 141,48" />
<polygon fill="#112d33" fill-opacity="0.501961" points="28,-16 49,-16 30,6" />
<polygon fill="#27406f" fill-opacity="0.501961" points="193,59 186,59 192,56" />
<polygon fill="#3e557c" fill-opacity="0.501961" points="174,57 173,64 172,58" />
<polygon fill="#2c3574" fill-opacity="0.501961" points="92,57 113,63 100,70" />
<polygon fill="#596f91" fill-opacity="0.501961" points="86,43 92,39 92,29" />
<polygon fill="#000000" fill-opacity="0.501961" points="220,54 123,1 146,53" />
<polygon fill="#775466" fill-opacity="0.501961" points="15,41 18,37 19,39" />
<polygon fill="#2b2f70" fill-opacity="0.501961" points="29,60 23,59 23,62" />
<polygon fill="#cdf5ff" fill-opacity="0.501961" points="63,37 70,33 51,29" />
<polygon fill="#1e1114" fill-opacity="0.501961" points="127,40 117,53 127,54" />
<polygon fill="#001a52" fill-opacity="0.501961" points="193,63 177,68 194,73" />
<polygon fill="#393e54" fill-opacity="0.501961" points="11,70 18,70 10,80" />
<polygon fill="#110c0f" fill-opacity="0.501961" points="-11,25 1,70 2,45" />
<polygon fill="#fffffe" fill-opacity="0.501961" points="52,44 53,42 48,39" />
<polygon fill="#041f57" fill-opacity="0.501961" points="169,73 154,59 157,67" />
<polygon fill="#a0ebff" fill-opacity="0.501961" points="69,10 69,21 72,15" />
<polygon fill="#aae4f4" fill-opacity="0.501961" points="56,54 67,52 68,46" />
<polygon fill="#7dcde4" fill-opacity="0.501961" points="91,22 88,6 79,1" />
<polygon fill="#94e1f8" fill-opacity="0.501961" points="83,6 76,23 77,2" />
<polygon fill="#6b7d99" fill-opacity="0.501961" points="181,61 187,61 178,65" />
<polygon fill="#041c50" fill-opacity="0.501961" points="186,73 181,62 180,87" />
<polygon fill="#001d52" fill-opacity="0.501961" points="184,59 180,61 180,59" />
<polygon fill="#589cc1" fill-opacity="0.501961" points="35,25 42,41 43,35" />
<polygon fill="#9a7287" fill-opacity="0.501961" points="96,47 92,48 93,49" />
<polygon fill="#001b54" fill-opacity="0.501961" points="159,68 168,69 180,60" />
<polygon fill="#8ad1e5" fill-opacity="0.501961" points="56,24 57,12 49,34" />
<polygon fill="#594b64" fill-opacity="0.501961" points="31,28 32,42 42,54" />
<polygon fill="#001952" fill-opacity="0.501961" points="222,55 190,56 232,66" />
<polygon fill="#46172a" fill-opacity="0.501961" points="95,40 100,35 113,38" />
<polygon fill="#ccf5ff" fill-opacity="0.501961" points="72,30 54,30 70,37" />
<polygon fill="#5b1a34" fill-opacity="0.501961" points="23,30 20,29 16,31" />
<polygon fill="#8fd2e7" fill-opacity="0.501961" points="73,52 69,55 65,52" />
<polygon fill="#6cb8df" fill-opacity="0.501961" points="80,53 79,46 85,39" />
<polygon fill="#1f282c" fill-opacity="0.501961" points="98,-3 99,10 103,6" />
<polygon fill="#021d55" fill-opacity="0.501961" points="150,64 191,64 132,80" />
<polygon fill="#6483b9" fill-opacity="0.501961" points="64,63 57,56 63,78" />
<polygon fill="#80c1d2" fill-opacity="0.501961" points="62,53 61,50 53,50" />
<polygon fill="#042054" fill-opacity="0.501961" points="176,56 179,54 171,55" />
<polygon fill="#501c2e" fill-opacity="0.501961" points="102,50 117,52 106,54" />
<polygon fill="#8a6c89" fill-opacity="0.501961" points="39,55 33,55 35,52" />
<polygon fill="#6a2540" fill-opacity="0.501961" points="106,27 102,24 108,24" />
<polygon fill="#112b65" fill-opacity="0.501961" points="2,56 2,48 8,53" />
<polygon fill="#ace8fd" fill-opacity="0.501961" points="51,27 77,27 64,22" />
<polygon fill="#366eaf" fill-opacity="0.501961" points="65,65 75,65 62,59" />
<polygon fill="#3f0d1f" fill-opacity="0.501961" points="14,24 16,16 20,24" />
<polygon fill="#4a4c60" fill-opacity="0.501961" points="95,34 91,38 92,43" />
<polygon fill="#696d8d" fill-opacity="0.501961" points="40,37 36,42 39,46" />
<polygon fill="#15203d" fill-opacity="0.501961" points="158,83 139,71 199,70" />
<polygon fill="#70ccf0" fill-opacity="0.501961" points="53,55 44,40 55,50" />
<polygon fill="#082255" fill-opacity="0.501961" points="254,54 225,55 245,60" />
<polygon fill="#441b2c" fill-opacity="0.501961" points="29,8 22,11 26,16" />
<polygon fill="#9feafd" fill-opacity="0.501961" points="46,30 45,6 39,12" />
<polygon fill="#1e2427" fill-opacity="0.501961" points="26,15 29,27 20,26" />
<polygon fill="#3470b2" fill-opacity="0.501961" points="48,70 37,69 49,56" />
<polygon fill="#d4f9ff" fill-opacity="0.501961" points="73,36 76,31 77,38" />
<polygon fill="#091110" fill-opacity="0.501961" points="118,31 106,30 107,37" />
<polygon fill="#7a97bd" fill-opacity="0.501961" points="81,49 85,45 86,55" />
<polygon fill="#325096" fill-opacity="0.501961" points="43,54 40,56 41,63" />
<polygon fill="#1a0b12" fill-opacity="0.501961" points="14,19 5,12 24,18" />
<polygon fill="#8a5a70" fill-opacity="0.501961" points="91,50 104,40 97,42" />
<polygon fill="#000000" fill-opacity="0.501961" points="254,-16 178,-3 262,60" />
<polygon fill="#485f84" fill-opacity="0.501961" points="202,60 200,64 204,65" />
<polygon fill="#6e8cb6" fill-opacity="0.501961" points="42,48 47,55 42,54" />
<polygon fill="#5e354c" fill-opacity="0.501961" points="38,51 28,29 23,33" />
<polygon fill="#3e7794" fill-opacity="0.501961" points="95,22 93,23 98,24" />
<polygon fill="#00184f" fill-opacity="0.501961" points="173,87 182,84 173,61" />
<polygon fill="#73bbcd" fill-opacity="0.501961" points="66,20 60,18 60,14" />
<polygon fill="#64689b" fill-opacity="0.501961" points="91,70 107,72 104,82" />
<polygon fill="#001852" fill-opacity="0.501961" points="201,61 193,59 203,57" />
<polygon fill="#001a53" fill-opacity="0.501961" points="199,65 228,62 213,70" />
<polygon fill="#97cee4" fill-opacity="0.501961" points="55,27 59,27 64,33" />
<polygon fill="#474c83" fill-opacity="0.501961" points="17,57 25,61 34,58" />
<polygon fill="#c4f2ff" fill-opacity="0.501961" points="56,42 63,31 59,51" />
<polygon fill="#35667d" fill-opacity="0.501961" points="32,19 31,30 35,28" />
<polygon fill="#420b1e" fill-opacity="0.501961" points="117,48 112,39 106,47" />
<polygon fill="#90d8ef" fill-opacity="0.501961" points="69,25 77,23 68,21" />
<polygon fill="#c6f2ff" fill-opacity="0.501961" points="59,36 74,30 61,28" />
<polygon fill="#1d0c12" fill-opacity="0.501961" points="104,-16 116,-3 106,16" />
<polygon fill="#2b67aa" fill-opacity="0.501961" points="74,70 92,70 72,58" />
<polygon fill="#4c2d42" fill-opacity="0.501961" points="98,42 97,38 93,39" />
<polygon fill="#23171e" fill-opacity="0.501961" points="10,35 9,46 1,47" />
<polygon fill="#471b30" fill-opacity="0.501961" points="24,34 22,36 21,28" />
<polygon fill="#5dd0ff" fill-opacity="0.501961" points="55,54 49,49 52,54" />
<polygon fill="#437eae" fill-opacity="0.501961" points="87,3 74,-5 76,-11" />
<polygon fill="#81c7db" fill-opacity="0.501961" points="55,36 56,32 54,34" />
<polygon fill="#5c6f8f" fill-opacity="0.501961" points="43,49 39,41 42,43" />
<polygon fill="#001850" fill-opacity="0.501961" points="199,67 194,69 199,55" />
<polygon fill="#132c5d" fill-opacity="0.501961" points="159,54 145,59 147,54" />
<polygon fill="#001851" fill-opacity="0.501961" points="143,59 131,73 132,57" />
<polygon fill="#a3e0f4" fill-opacity="0.501961" points="78,39 81,34 84,39" />
<polygon fill="#000000" fill-opacity="0.501961" points="137,-16 144,54 271,54" />
<polygon fill="#defaff" fill-opacity="0.501961" points="51,33 52,30 55,37" />
<polygon fill="#080809" fill-opacity="0.501961" points="118,10 109,22 115,-7" />
<polygon fill="#2e343b" fill-opacity="0.501961" points="24,31 30,31 27,14" />
<polygon fill="#263a40" fill-opacity="0.501961" points="94,38 98,37 100,26" />
<polygon fill="#72b9d1" fill-opacity="0.501961" points="85,4 62,-16 40,-16" />
<polygon fill="#52688a" fill-opacity="0.501961" points="149,59 149,58 146,58" />
<polygon fill="#5f9cc3" fill-opacity="0.501961" points="49,50 45,54 44,41" />
</g>
</svg>