<svg xmlns="http://www.w3.org/2000/svg" version="1.1" width="1024" height="288">
<rect x="0" y="0" width="1024" height="288" fill="#1b1b29" />
<g transform="scale(4.000000) translate(0.5 0.5)">
<polygon fill="#ffffff" fill-opacity="0.501961" points="128,47 152,46 141,22" />
<polygon fill="#09368d" fill-opacity="0.501961" points="219,57 99,87 -16,53" />
<polygon fill="#000000" fill-opacity="0.501961" points="107,-16 215,-15 105,47" />
<polygon fill="#100400" fill-opacity="0.501961" points="148,51 149,-16 271,47" />
<polygon fill="#543730" fill-opacity="0.501961" points="61,-16 101,35 10,39" />
<polygon fill="#ffffeb" fill-opacity="0.501961" points="150,30 139,43 132,28" />
<polygon fill="#020000" fill-opacity="0.501961" points="-12,77 -16,-1 38,-3" />
<polygon fill="#012a79" fill-opacity="0.501961" points="271,54 224,87 142,54" />
<polygon fill="#000000" fill-opacity="0.501961" points="92,26 171,28 135,-16" />
<polygon fill="#7c8999" fill-opacity="0.501961" points="168,55 184,64 147,63" />
<polygon fill="#3f3025" fill-opacity="0.501961" points="235,5 171,3 175,54" />
<polygon fill="#000000" fill-opacity="0.501961" points="271,-4 225,-2 266,87" />
<polygon fill="#64759a" fill-opacity="0.501961" points="53,57 14,55 24,65" />
<polygon fill="#7d6c58" fill-opacity="0.501961" points="104,6 54,4 66,15" />
<polygon fill="#000000" fill-opacity="0.501961" points="151,49 138,-16 180,58" />
<polygon fill="#001a57" fill-opacity="0.501961" points="-16,64 75,87 146,52" />
<polygon fill="#000000" fill-opacity="0.501961" points="129,-2 112,33 131,74" />
<polygon fill="#24101c" fill-opacity="0.501961" points="128,54 25,53 51,10" />
<polygon fill="#928f8c" fill-opacity="0.501961" points="61,34 66,26 65,41" />
<polygon fill="#080004" fill-opacity="0.501961" points="208,11 271,63 176,22" />
<polygon fill="#8c8b89" fill-opacity="0.501961" points="195,31 189,27 190,42" />
<polygon fill="#5473c2" fill-opacity="0.501961" points="130,50 130,27 142,56" />
<polygon fill="#675543" fill-opacity="0.501961" points="49,3 15,13 46,15" />
<polygon fill="#756763" fill-opacity="0.501961" points="31,22 37,45 22,24" />
<polygon fill="#050000" fill-opacity="0.501961" points="48,-16 2,2 94,3" />
<polygon fill="#25488c" fill-opacity="0.501961" points="12,56 17,47 -3,49" />
<polygon fill="#361e0f" fill-opacity="0.501961" points="88,-16 113,13 77,23" />
<polygon fill="#725f4b" fill-opacity="0.501961" points="90,36 79,27 92,20" />
<polygon fill="#000000" fill-opacity="0.501961" points="118,-16 174,-13 167,58" />
<polygon fill="#050000" fill-opacity="0.501961" points="243,-16 177,1 271,7" />
<polygon fill="#453a2d" fill-opacity="0.501961" points="235,20 241,5 179,4" />
<polygon fill="#140811" fill-opacity="0.501961" points="58,10 70,31 33,21" />
<polygon fill="#4e453d" fill-opacity="0.501961" points="174,49 184,6 172,7" />
<polygon fill="#000000" fill-opacity="0.501961" points="-5,87 -16,-1 16,-13" />
<polygon fill="#ffffff" fill-opacity="0.501961" points="133,36 138,29 133,32" />
<polygon fill="#080000" fill-opacity="0.501961" points="218,27 184,30 178,14" />
<polygon fill="#001655" fill-opacity="0.501961" points="176,55 252,87 256,56" />
<polygon fill="#29190f" fill-opacity="0.501961" points="42,23 10,12 32,-3" />
<polygon fill="#0f0512" fill-opacity="0.501961" points="22,21 -6,37 26,57" />
<polygon fill="#020000" fill-opacity="0.501961" points="127,-16 87,37 171,21" />
<polygon fill="#ffe4c8" fill-opacity="0.501961" points="133,29 146,29 141,44" />
<polygon fill="#4788ff" fill-opacity="0.501961" points="248,65 250,68 253,64" />
<polygon fill="#1e151c" fill-opacity="0.501961" points="161,57 244,8 223,51" />
<polygon fill="#5b6e8d" fill-opacity="0.501961" points="160,64 161,58 143,57" />
<polygon fill="#000f45" fill-opacity="0.501961" points="153,87 116,87 143,46" />
<polygon fill="#71665e" fill-opacity="0.501961" points="46,5 80,5 79,14" />
<polygon fill="#8c99af" fill-opacity="0.501961" points="42,59 30,60 32,57" />
<polygon fill="#08235e" fill-opacity="0.501961" points="-16,60 53,83 53,60" />
<polygon fill="#000c49" fill-opacity="0.501961" points="171,85 175,57 184,78" />
<polygon fill="#000000" fill-opacity="0.501961" points="260,86 242,-16 271,5" />
<polygon fill="#000000" fill-opacity="0.501961" points="170,26 165,53 142,54" />
<polygon fill="#1c1535" fill-opacity="0.501961" points="29,57 38,24 71,22" />
<polygon fill="#261720" fill-opacity="0.501961" points="35,38 134,29 100,54" />
<polygon fill="#c8bca9" fill-opacity="0.501961" points="61,34 61,31 69,30" />
<polygon fill="#020005" fill-opacity="0.501961" points="132,51 119,17 113,50" />
<polygon fill="#acb4bd" fill-opacity="0.501961" points="176,61 181,64 187,62" />
<polygon fill="#3369d2" fill-opacity="0.501961" points="122,64 131,87 121,87" />
<polygon fill="#231524" fill-opacity="0.501961" points="67,22 87,12 65,52" />
<polygon fill="#e4cac0" fill-opacity="0.501961" points="144,40 132,47 135,32" />
<polygon fill="#00154f" fill-opacity="0.501961" points="216,66 177,79 131,65" />
<polygon fill="#041736" fill-opacity="0.501961" points="111,68 118,82 167,71" />
<polygon fill="#6c7d9d" fill-opacity="0.501961" points="25,54 14,59 35,60" />
<polygon fill="#190b0a" fill-opacity="0.501961" points="195,10 196,34 248,23" />
<polygon fill="#000000" fill-opacity="0.501961" points="50,10 61,8 48,22" />
<polygon fill="#1a1023" fill-opacity="0.501961" points="16,56 33,56 14,17" />
<polygon fill="#7c6f67" fill-opacity="0.501961" points="39,15 48,15 40,5" />
<polygon fill="#ffedd1" fill-opacity="0.501961" points="189,35 192,32 191,31" />
<polygon fill="#001d5b" fill-opacity="0.501961" points="23,65 2,49 2,73" />
<polygon fill="#100718" fill-opacity="0.501961" points="187,54 190,35 180,28" />
<polygon fill="#122f94" fill-opacity="0.501961" points="151,42 147,39 148,29" />
<polygon fill="#000000" fill-opacity="0.501961" points="-16,28 4,-8 0,87" />
<polygon fill="#71655c" fill-opacity="0.501961" points="61,16 79,14 66,5" />
<polygon fill="#635444" fill-opacity="0.501961" points="24,31 23,17 36,27" />
<polygon fill="#4f463f" fill-opacity="0.501961" points="173,44 177,26 180,52" />
<polygon fill="#2a1509" fill-opacity="0.501961" points="52,54 72,41 104,54" />
<polygon fill="#052560" fill-opacity="0.501961" points="176,65 173,54 183,54" />
<polygon fill="#5e6a8d" fill-opacity="0.501961" points="47,61 38,58 52,54" />
<polygon fill="#685c6a" fill-opacity="0.501961" points="32,28 28,36 34,44" />
<polygon fill="#000000" fill-opacity="0.501961" points="98,-16 123,28 147,27" />
<polygon fill="#5394ff" fill-opacity="0.501961" points="123,68 123,64 121,67" />
<polygon fill="#251a32" fill-opacity="0.501961" points="58,58 53,36 13,47" />
<polygon fill="#001f5c" fill-opacity="0.501961" points="130,49 158,72 130,85" />
<polygon fill="#000000" fill-opacity="0.501961" points="240,48 260,35 206,44" />
<polygon fill="#402c1b" fill-opacity="0.501961" points="236,49 224,55 202,48" />
<polygon fill="#3e1808" fill-opacity="0.501961" points="83,17 57,15 60,22" />
<polygon fill="#453e34" fill-opacity="0.501961" points="88,2 91,13 106,0" />
<polygon fill="#000000" fill-opacity="0.501961" points="171,54 150,-16 151,53" />
<polygon fill="#000000" fill-opacity="0.501961" points="128,18 121,44 130,71" />
<polygon fill="#130b14" fill-opacity="0.501961" points="92,15 118,53 122,14" />
<polygon fill="#0a2056" fill-opacity="0.501961" points="105,83 129,54 80,58" />
<polygon fill="#1c0a09" fill-opacity="0.501961" points="88,15 81,6 88,-2" />
<polygon fill="#4c4540" fill-opacity="0.501961" points="181,11 178,4 199,6" />
<polygon fill="#423d36" fill-opacity="0.501961" points="15,11 22,16 26,7" />
<polygon fill="#33130b" fill-opacity="0.501961" points="30,35 29,30 18,41" />
<polygon fill="#768cb1" fill-opacity="0.501961" points="11,50 10,53 4,49" />
<polygon fill="#4a423d" fill-opacity="0.501961" points="199,7 237,15 216,4" />
<polygon fill="#000a1f" fill-opacity="0.501961" points="262,87 252,64 271,61" />
<polygon fill="#635247" fill-opacity="0.501961" points="58,9 42,7 59,4" />
<polygon fill="#c3a68c" fill-opacity="0.501961" points="147,34 139,39 133,35" />
<polygon fill="#413039" fill-opacity="0.501961" points="93,54 107,55 92,45" />
<polygon fill="#260e06" fill-opacity="0.501961" points="8,20 29,12 50,21" />
<polygon fill="#000000" fill-opacity="0.501961" points="11,0 57,-14 91,0" />
<polygon fill="#00030d" fill-opacity="0.501961" points="128,34 133,29 119,20" />
<polygon fill="#6c6057" fill-opacity="0.501961" points="82,22 81,29 94,31" />
<polygon fill="#0d0500" fill-opacity="0.501961" points="266,54 227,54 266,43" />
<polygon fill="#f8f8ee" fill-opacity="0.501961" points="137,35 133,30 145,29" />
<polygon fill="#11316b" fill-opacity="0.501961" points="168,60 171,55 158,54" />
<polygon fill="#000000" fill-opacity="0.501961" points="195,15 190,30 188,14" />
<polygon fill="#4a5ebd" fill-opacity="0.501961" points="145,41 148,34 148,44" />
<polygon fill="#3e1a0f" fill-opacity="0.501961" points="90,31 93,37 76,33" />
<polygon fill="#474340" fill-opacity="0.501961" points="135,47 149,48 141,45" />
<polygon fill="#000000" fill-opacity="0.501961" points="172,-16 111,3 173,30" />
<polygon fill="#75695f" fill-opacity="0.501961" points="82,13 80,12 83,8" />
<polygon fill="#001950" fill-opacity="0.501961" points="256,57 183,56 224,87" />
<polygon fill="#201832" fill-opacity="0.501961" points="65,42 70,18 81,39" />
<polygon fill="#1f110d" fill-opacity="0.501961" points="188,11 217,10 205,25" />
<polygon fill="#0c0700" fill-opacity="0.501961" points="266,12 217,-12 191,-1" />
<polygon fill="#211730" fill-opacity="0.501961" points="117,37 93,53 94,33" />
<polygon fill="#203571" fill-opacity="0.501961" points="25,54 37,54 27,57" />
<polygon fill="#382a1d" fill-opacity="0.501961" points="218,50 180,49 198,55" />
<polygon fill="#ffedd7" fill-opacity="0.501961" points="139,37 136,43 144,40" />
<polygon fill="#150e1e" fill-opacity="0.501961" points="197,33 191,54 250,18" />
<polygon fill="#41444c" fill-opacity="0.501961" points="191,42 189,34 195,39" />
<polygon fill="#000000" fill-opacity="0.501961" points="128,54 113,53 129,47" />
<polygon fill="#6d5c53" fill-opacity="0.501961" points="47,18 47,5 39,6" />
<polygon fill="#010306" fill-opacity="0.501961" points="149,32 142,7 140,19" />
<polygon fill="#685953" fill-opacity="0.501961" points="33,39 35,24 30,19" />
<polygon fill="#000000" fill-opacity="0.501961" points="143,51 150,53 164,40" />
<polygon fill="#8798b4" fill-opacity="0.501961" points="148,63 151,64 155,62" />
<polygon fill="#070000" fill-opacity="0.501961" points="13,54 23,53 22,48" />
<polygon fill="#031b52" fill-opacity="0.501961" points="92,87 89,64 46,54" />
<polygon fill="#262c40" fill-opacity="0.501961" points="87,71 27,87 13,70" />
<polygon fill="#190a0d" fill-opacity="0.501961" points="179,20 188,32 180,49" />
<polygon fill="#241911" fill-opacity="0.501961" points="252,20 238,12 216,23" />
<polygon fill="#4d60b9" fill-opacity="0.501961" points="132,33 129,44 136,43" />
<polygon fill="#2a161b" fill-opacity="0.501961" points="50,15 34,17 37,35" />
<polygon fill="#473f3a" fill-opacity="0.501961" points="174,11 182,3 177,24" />
<polygon fill="#011e57" fill-opacity="0.501961" points="124,64 105,59 126,55" />
<polygon fill="#000000" fill-opacity="0.501961" points="49,10 49,21 54,14" />
<polygon fill="#e6cdba" fill-opacity="0.501961" points="141,44 134,29 144,40" />
<polygon fill="#072054" fill-opacity="0.501961" points="199,54 176,61 175,54" />
<polygon fill="#d4e2ff" fill-opacity="0.501961" points="144,46 148,45 148,42" />
<polygon fill="#667997" fill-opacity="0.501961" points="150,63 148,55 154,62" />
<polygon fill="#5b6d8d" fill-opacity="0.501961" points="173,56 174,61 161,64" />
<polygon fill="#1b3464" fill-opacity="0.501961" points="169,61 171,55 159,61" />
<polygon fill="#031d4f" fill-opacity="0.501961" points="154,56 154,62 151,59" />
<polygon fill="#031e55" fill-opacity="0.501961" points="1,83 14,47 20,87" />
<polygon fill="#0a0409" fill-opacity="0.501961" points="188,41 197,53 197,43" />
<polygon fill="#10275d" fill-opacity="0.501961" points="50,60 41,87 15,60" />
<polygon fill="#000000" fill-opacity="0.501961" points="127,67 129,73 129,62" />
<polygon fill="#453c35" fill-opacity="0.501961" points="221,3 230,18 207,3" />
<polygon fill="#bca592" fill-opacity="0.501961" points="145,32 145,36 131,38" />
<polygon fill="#b6885f" fill-opacity="0.501961" points="138,43 135,46 141,45" />
<polygon fill="#3c5880" fill-opacity="0.501961" points="138,54 143,45 129,55" />
<polygon fill="#1e336c" fill-opacity="0.501961" points="54,60 49,54 61,56" />
<polygon fill="#3c251b" fill-opacity="0.501961" points="68,2 58,7 51,3" />
<polygon fill="#ffffe8" fill-opacity="0.501961" points="192,31 189,31 195,33" />
<polygon fill="#110707" fill-opacity="0.501961" points="18,-9 32,2 31,18" />
<polygon fill="#1b0f0c" fill-opacity="0.501961" points="182,-16 169,20 171,-16" />
<polygon fill="#1d376c" fill-opacity="0.501961" points="2,51 12,54 3,55" />
<polygon fill="#08255b" fill-opacity="0.501961" points="246,54 254,55 255,65" />
<polygon fill="#021e57" fill-opacity="0.501961" points="140,52 130,78 130,54" />
<polygon fill="#1e142a" fill-opacity="0.501961" points="35,26 61,34 33,45" />
<polygon fill="#8693ab" fill-opacity="0.501961" points="31,59 29,56 18,59" />
<polygon fill="#2b1009" fill-opacity="0.501961" points="81,20 109,12 95,9" />
<polygon fill="#7887a2" fill-opacity="0.501961" points="44,57 48,59 37,60" />
<polygon fill="#040408" fill-opacity="0.501961" points="120,36 121,40 132,31" />
<polygon fill="#20152a" fill-opacity="0.501961" points="19,37 30,57 28,38" />
<polygon fill="#01196e" fill-opacity="0.501961" points="129,32 131,29 133,40" />
<polygon fill="#1c2e65" fill-opacity="0.501961" points="49,57 36,57 42,54" />
<polygon fill="#180905" fill-opacity="0.501961" points="197,49 187,53 210,54" />
<polygon fill="#9b97b0" fill-opacity="0.501961" points="30,37 35,38 34,36" />
<polygon fill="#201627" fill-opacity="0.501961" points="32,45 37,24 43,35" />
<polygon fill="#000000" fill-opacity="0.501961" points="271,29 256,28 255,84" />
<polygon fill="#000000" fill-opacity="0.501961" points="-16,87 1,43 2,70" />
<polygon fill="#18101f" fill-opacity="0.501961" points="210,39 243,29 194,30" />
<polygon fill="#000000" fill-opacity="0.501961" points="11,2 -16,-12 5,47" />
<polygon fill="#140a0b" fill-opacity="0.501961" points="219,55 230,51 208,52" />
<polygon fill="#48423c" fill-opacity="0.501961" points="96,10 98,3 105,7" />
<polygon fill="#251b32" fill-opacity="0.501961" points="57,32 78,23 42,22" />
<polygon fill="#817971" fill-opacity="0.501961" points="191,34 193,32 193,38" />
<polygon fill="#03204a" fill-opacity="0.501961" points="136,46 137,48 130,50" />
<polygon fill="#1a2b60" fill-opacity="0.501961" points="30,53 23,56 35,57" />
<polygon fill="#050101" fill-opacity="0.501961" points="108,21 95,29 108,35" />
<polygon fill="#66574f" fill-opacity="0.501961" points="92,31 92,24 79,21" />
<polygon fill="#00205c" fill-opacity="0.501961" points="143,57 142,48 133,69" />
<polygon fill="#030101" fill-opacity="0.501961" points="244,29 259,64 255,-7" />
<polygon fill="#dad2d7" fill-opacity="0.501961" points="138,43 141,36 129,46" />
<polygon fill="#110808" fill-opacity="0.501961" points="194,27 183,9 185,32" />
<polygon fill="#051f58" fill-opacity="0.501961" points="104,60 127,64 125,56" />
<polygon fill="#22283c" fill-opacity="0.501961" points="87,70 108,82 125,70" />
<polygon fill="#7e8383" fill-opacity="0.501961" points="70,15 67,10 72,12" />
<polygon fill="#160602" fill-opacity="0.501961" points="57,44 66,51 55,53" />
<polygon fill="#413730" fill-opacity="0.501961" points="210,53 218,49 197,49" />
<polygon fill="#62524b" fill-opacity="0.501961" points="64,16 61,7 71,6" />
<polygon fill="#000000" fill-opacity="0.501961" points="147,54 169,54 144,47" />
<polygon fill="#000000" fill-opacity="0.501961" points="113,-16 132,7 128,47" />
<polygon fill="#170c07" fill-opacity="0.501961" points="231,3 202,-8 165,4" />
<polygon fill="#dce3f7" fill-opacity="0.501961" points="130,47 131,43 133,45" />
<polygon fill="#3c3029" fill-opacity="0.501961" points="66,43 65,51 69,54" />
<polygon fill="#341b15" fill-opacity="0.501961" points="81,15 70,20 80,28" />
<polygon fill="#0e0000" fill-opacity="0.501961" points="211,52 215,54 207,53" />
<polygon fill="#3e2013" fill-opacity="0.501961" points="29,20 49,21 48,14" />
<polygon fill="#888380" fill-opacity="0.501961" points="63,38 64,38 65,35" />
<polygon fill="#2b1813" fill-opacity="0.501961" points="93,46 75,51 84,29" />
<polygon fill="#1c101f" fill-opacity="0.501961" points="99,24 93,38 93,8" />
<polygon fill="#4278ea" fill-opacity="0.501961" points="249,64 254,67 249,67" />
<polygon fill="#2b2721" fill-opacity="0.501961" points="26,6 14,16 14,6" />
<polygon fill="#18111d" fill-opacity="0.501961" points="208,31 188,37 223,37" />
<polygon fill="#000000" fill-opacity="0.501961" points="271,0 222,-16 166,-1" />
<polygon fill="#7284a2" fill-opacity="0.501961" points="161,62 149,61 155,64" />
<polygon fill="#011c51" fill-opacity="0.501961" points="134,67 181,64 221,87" />
<polygon fill="#001a53" fill-opacity="0.501961" points="254,55 177,57 243,74" />
<polygon fill="#07275b" fill-opacity="0.501961" points="254,64 248,76 255,72" />
<polygon fill="#1a2338" fill-opacity="0.501961" points="216,87 156,71 256,70" />
<polygon fill="#201729" fill-opacity="0.501961" points="22,22 24,46 16,27" />
<polygon fill="#140c18" fill-opacity="0.501961" points="226,35 231,20 253,36" />
<polygon fill="#536581" fill-opacity="0.501961" points="187,61 185,64 195,61" />
<polygon fill="#001953" fill-opacity="0.501961" points="232,66 194,70 190,57" />
<polygon fill="#69584e" fill-opacity="0.501961" points="89,13 93,10 90,2" />
<polygon fill="#000000" fill-opacity="0.501961" points="214,30 218,19 213,24" />
<polygon fill="#172a51" fill-opacity="0.501961" points="134,30 130,29 132,28" />
<polygon fill="#213266" fill-opacity="0.501961" points="97,54 110,54 95,59" />
<polygon fill="#36333b" fill-opacity="0.501961" points="238,20 234,22 236,18" />
<polygon fill="#000000" fill-opacity="0.501961" points="168,29 169,-16 112,26" />
<polygon fill="#191004" fill-opacity="0.501961" points="106,4 92,-16 133,-16" />
<polygon fill="#251411" fill-opacity="0.501961" points="90,-5 82,1 86,24" />
<polygon fill="#11090e" fill-opacity="0.501961" points="6,37 29,54 18,53" />
<polygon fill="#453522" fill-opacity="0.501961" points="35,3 40,3 38,11" />
<polygon fill="#443c36" fill-opacity="0.501961" points="199,4 185,10 220,9" />
<polygon fill="#0a0504" fill-opacity="0.501961" points="19,17 -4,46 8,15" />
<polygon fill="#5969b0" fill-opacity="0.501961" points="132,38 135,43 135,38" />
<polygon fill="#1e3664" fill-opacity="0.501961" points="172,60 163,61 162,58" />
<polygon fill="#4c3f33" fill-opacity="0.501961" points="192,52 185,50 192,49" />
<polygon fill="#26120b" fill-opacity="0.501961" points="220,21 237,20 204,12" />
<polygon fill="#0f0a08" fill-opacity="0.501961" points="234,54 252,37 249,54" />
<polygon fill="#d3bda7" fill-opacity="0.501961" points="134,34 145,39 141,33" />
<polygon fill="#3e2116" fill-opacity="0.501961" points="94,21 55,21 68,14" />
<polygon fill="#041840" fill-opacity="0.501961" points="-16,56 -16,47 10,47" />
<polygon fill="#010000" fill-opacity="0.501961" points="4,-16 0,70 -16,30" />
<polygon fill="#453a2f" fill-opacity="0.501961" points="36,33 29,29 30,26" />
<polygon fill="#1d141d" fill-opacity="0.501961" points="112,29 109,16 108,34" />
<polygon fill="#1c0f10" fill-opacity="0.501961" points="60,9 61,23 53,16" />
<polygon fill="#271928" fill-opacity="0.501961" points="54,54 29,40 30,53" />
<polygon fill="#010000" fill-opacity="0.501961" points="227,49 227,37 245,40" />
<polygon fill="#0e285e" fill-opacity="0.501961" points="18,55 10,53 11,57" />
<polygon fill="#20172a" fill-opacity="0.501961" points="81,45 79,23 57,21" />
<polygon fill="#000000" fill-opacity="0.501961" points="151,52 150,-16 169,27" />
<polygon fill="#081d44" fill-opacity="0.501961" points="146,54 152,54 146,57" />
<polygon fill="#6b584e" fill-opacity="0.501961" points="61,10 61,18 63,11" />
<polygon fill="#2a140e" fill-opacity="0.501961" points="96,9 102,11 103,28" />
<polygon fill="#1b0d0d" fill-opacity="0.501961" points="66,54 66,39 55,53" />
<polygon fill="#403328" fill-opacity="0.501961" points="237,52 218,52 229,48" />
<polygon fill="#0c275d" fill-opacity="0.501961" points="216,59 227,54 214,54" />
<polygon fill="#253d67" fill-opacity="0.501961" points="149,61 159,61 160,55" />
<polygon fill="#6c5c55" fill-opacity="0.501961" points="49,6 52,9 59,7" />
<polygon fill="#030203" fill-opacity="0.501961" points="114,6 129,18 129,61" />
<polygon fill="#1b223a" fill-opacity="0.501961" points="154,70 154,87 90,73" />
<polygon fill="#707f9d" fill-opacity="0.501961" points="33,59 46,59 39,57" />
<polygon fill="#221009" fill-opacity="0.501961" points="180,16 187,22 179,33" />
<polygon fill="#110f0b" fill-opacity="0.501961" points="235,17 241,6 253,17" />
<polygon fill="#170f1e" fill-opacity="0.501961" points="195,27 211,46 194,49" />
<polygon fill="#060302" fill-opacity="0.501961" points="190,22 182,29 216,29" />
<polygon fill="#554d40" fill-opacity="0.501961" points="87,30 81,29 82,31" />
<polygon fill="#421e13" fill-opacity="0.501961" points="82,32 92,33 80,38" />
<polygon fill="#000000" fill-opacity="0.501961" points="84,0 23,0 60,-11" />
<polygon fill="#000000" fill-opacity="0.501961" points="154,47 145,53 143,49" />
<polygon fill="#180701" fill-opacity="0.501961" points="168,54 170,50 184,53" />
<polygon fill="#22130b" fill-opacity="0.501961" points="40,-13 42,2 51,6" />
<polygon fill="#220e0a" fill-opacity="0.501961" points="91,54 92,42 81,52" />
<polygon fill="#22182d" fill-opacity="0.501961" points="111,49 103,39 78,39" />
<polygon fill="#130f23" fill-opacity="0.501961" points="183,39 190,40 187,27" />
<polygon fill="#5b6e8e" fill-opacity="0.501961" points="160,56 161,60 167,63" />
<polygon fill="#2a2420" fill-opacity="0.501961" points="240,5 230,17 232,5" />
<polygon fill="#4c433e" fill-opacity="0.501961" points="180,7 182,10 189,6" />
<polygon fill="#463d38" fill-opacity="0.501961" points="179,47 173,30 177,12" />
<polygon fill="#231412" fill-opacity="0.501961" points="22,18 39,22 38,15" />
<polygon fill="#281611" fill-opacity="0.501961" points="90,0 86,7 75,0" />
<polygon fill="#322926" fill-opacity="0.501961" points="81,55 78,44 81,40" />
<polygon fill="#9aa7b9" fill-opacity="0.501961" points="173,58 172,59 168,57" />
<polygon fill="#0e0910" fill-opacity="0.501961" points="115,15 126,29 96,15" />
<polygon fill="#001956" fill-opacity="0.501961" points="126,68 123,71 114,68" />
<polygon fill="#1c315c" fill-opacity="0.501961" points="124,54 117,56 112,54" />
<polygon fill="#311612" fill-opacity="0.501961" points="28,32 20,31 29,42" />
<polygon fill="#7d807c" fill-opacity="0.501961" points="67,15 72,14 70,11" />
<polygon fill="#001952" fill-opacity="0.501961" points="192,60 187,78 205,57" />
<polygon fill="#21120f" fill-opacity="0.501961" points="171,13 169,28 174,30" />
<polygon fill="#1c0c07" fill-opacity="0.501961" points="194,16 222,17 196,29" />
<polygon fill="#ffe1c5" fill-opacity="0.501961" points="134,38 141,39 141,43" />
<polygon fill="#000000" fill-opacity="0.501961" points="55,20 49,20 52,10" />
<polygon fill="#23120d" fill-opacity="0.501961" points="172,50 170,39 173,44" />
<polygon fill="#001855" fill-opacity="0.501961" points="175,55 174,61 186,55" />
<polygon fill="#41434e" fill-opacity="0.501961" points="194,39 188,37 195,36" />
<polygon fill="#000f52" fill-opacity="0.501961" points="166,57 169,57 168,55" />
<polygon fill="#142a58" fill-opacity="0.501961" points="181,57 172,55 190,54" />
<polygon fill="#00164d" fill-opacity="0.501961" points="10,56 3,57 5,68" />
<polygon fill="#261e16" fill-opacity="0.501961" points="97,3 93,16 93,-10" />
<polygon fill="#011a53" fill-opacity="0.501961" points="58,55 89,69 58,71" />
<polygon fill="#2a212f" fill-opacity="0.501961" points="57,42 69,38 78,41" />
<polygon fill="#150d19" fill-opacity="0.501961" points="194,42 196,34 204,30" />
<polygon fill="#171022" fill-opacity="0.501961" points="104,53 116,54 113,29" />
<polygon fill="#b29377" fill-opacity="0.501961" points="145,38 146,34 141,39" />
<polygon fill="#fffef5" fill-opacity="0.501961" points="140,31 140,33 135,29" />
<polygon fill="#1b080a" fill-opacity="0.501961" points="71,53 71,45 78,46" />
<polygon fill="#f8d9c5" fill-opacity="0.501961" points="140,37 137,44 140,43" />
<polygon fill="#16101f" fill-opacity="0.501961" points="189,30 181,29 188,48" />
<polygon fill="#041e56" fill-opacity="0.501961" points="9,53 11,70 24,69" />
<polygon fill="#001a52" fill-opacity="0.501961" points="125,55 102,70 119,67" />
<polygon fill="#695c55" fill-opacity="0.501961" points="47,15 40,15 47,6" />
<polygon fill="#000000" fill-opacity="0.501961" points="150,43 161,56 153,19" />
<polygon fill="#5569b5" fill-opacity="0.501961" points="139,44 131,37 133,42" />
<polygon fill="#423831" fill-opacity="0.501961" points="230,49 220,52 216,49" />
<polygon fill="#0d0a06" fill-opacity="0.501961" points="93,33 100,22 96,35" />
<polygon fill="#b19483" fill-opacity="0.501961" points="138,46 134,42 143,47" />
<polygon fill="#271716" fill-opacity="0.501961" points="32,17 35,10 36,25" />
<polygon fill="#351a15" fill-opacity="0.501961" points="57,22 72,17 56,15" />
<polygon fill="#b2bccb" fill-opacity="0.501961" points="160,64 161,61 162,61" />
<polygon fill="#060305" fill-opacity="0.501961" points="271,17 271,49 228,48" />
<polygon fill="#051f56" fill-opacity="0.501961" points="27,62 23,70 7,61" />
<polygon fill="#291c28" fill-opacity="0.501961" points="101,50 95,53 95,29" />
<polygon fill="#1f140e" fill-opacity="0.501961" points="81,27 77,30 77,28" />
<polygon fill="#1e1526" fill-opacity="0.501961" points="15,36 22,20 22,49" />
<polygon fill="#334a74" fill-opacity="0.501961" points="168,62 164,57 173,60" />
<polygon fill="#262219" fill-opacity="0.501961" points="252,51 243,51 245,48" />
<polygon fill="#0c225b" fill-opacity="0.501961" points="79,55 106,65 120,55" />
<polygon fill="#7f8da7" fill-opacity="0.501961" points="17,56 16,60 26,56" />
<polygon fill="#050405" fill-opacity="0.501961" points="-13,-3 12,46 -16,48" />
<polygon fill="#25304b" fill-opacity="0.501961" points="8,70 -16,87 47,71" />
<polygon fill="#3c322f" fill-opacity="0.501961" points="199,12 198,6 202,13" />
<polygon fill="#6b5d56" fill-opacity="0.501961" points="87,22 91,21 91,30" />
<polygon fill="#2f1e24" fill-opacity="0.501961" points="98,18 89,18 90,21" />
<polygon fill="#65564f" fill-opacity="0.501961" points="67,16 61,5 69,6" />
<polygon fill="#000000" fill-opacity="0.501961" points="50,10 52,13 59,10" />
<polygon fill="#4a413b" fill-opacity="0.501961" points="229,16 219,14 218,9" />
<polygon fill="#7e675f" fill-opacity="0.501961" points="147,32 145,35 147,37" />
<polygon fill="#657995" fill-opacity="0.501961" points="137,49 132,49 138,53" />
<polygon fill="#010100" fill-opacity="0.501961" points="-1,-16 -9,11 86,-16" />
<polygon fill="#263768" fill-opacity="0.501961" points="53,59 44,54 58,54" />
<polygon fill="#001750" fill-opacity="0.501961" points="148,69 145,56 131,65" />
<polygon fill="#102a5e" fill-opacity="0.501961" points="146,55 136,57 136,52" />
<polygon fill="#70829f" fill-opacity="0.501961" points="140,50 135,51 138,52" />
<polygon fill="#463a31" fill-opacity="0.501961" points="200,52 199,49 204,49" />
<polygon fill="#000000" fill-opacity="0.501961" points="128,69 124,74 135,77" />
<polygon fill="#120709" fill-opacity="0.501961" points="193,50 191,54 205,53" />
<polygon fill="#22130e" fill-opacity="0.501961" points="31,0 41,0 25,15" />
<polygon fill="#6c6a8b" fill-opacity="0.501961" points="30,40 31,41 33,36" />
<polygon fill="#311d17" fill-opacity="0.501961" points="86,39 89,35 86,24" />
<polygon fill="#17101f" fill-opacity="0.501961" points="234,29 221,22 214,41" />
<polygon fill="#2d1a16" fill-opacity="0.501961" points="86,10 87,3 92,16" />
<polygon fill="#081e57" fill-opacity="0.501961" points="65,68 108,59 53,55" />
</g>
</svg>