<svg xmlns="http://www.w3.org/2000/svg" version="1.1" width="1024" height="580">
<rect x="0" y="0" width="1024" height="580" fill="#242535" />
<g transform="scale(4.000000) translate(0.5 0.5)">
<polygon fill="#d1d0d6" fill-opacity="0.501961" points="140,137 161,59 139,15" />
<polygon fill="#dabbb9" fill-opacity="0.501961" points="50,5 64,63 74,10" />
<polygon fill="#e6bab8" fill-opacity="0.501961" points="101,112 111,78 121,127" />
<polygon fill="#d7a9ae" fill-opacity="0.501961" points="220,130 229,81 240,125" />
<polygon fill="#264ba1" fill-opacity="0.501961" points="233,125 110,160 1,128" />
<polygon fill="#e3b6b5" fill-opacity="0.501961" points="248,56 228,38 241,9" />
<polygon fill="#000000" fill-opacity="0.501961" points="-2,73 -16,141 173,66" />
<polygon fill="#000000" fill-opacity="0.501961" points="72,40 77,-16 271,3" />
<polygon fill="#ebe1d8" fill-opacity="0.501961" points="136,20 148,59 149,13" />
<polygon fill="#0a3391" fill-opacity="0.501961" points="165,50 240,70 91,71" />
<polygon fill="#8e8f99" fill-opacity="0.501961" points="166,131 144,75 126,145" />
<polygon fill="#123789" fill-opacity="0.501961" points="50,76 -16,49 135,57" />
<polygon fill="#fffff1" fill-opacity="0.501961" points="152,76 147,100 137,84" />
<polygon fill="#000000" fill-opacity="0.501961" points="271,134 262,-4 232,119" />
<polygon fill="#110000" fill-opacity="0.501961" points="182,129 237,72 148,73" />
<polygon fill="#000000" fill-opacity="0.501961" points="46,58 -16,-14 53,-2" />
<polygon fill="#5f828c" fill-opacity="0.501961" points="35,68 18,22 5,52" />
<polygon fill="#0f0001" fill-opacity="0.501961" points="211,-2 140,39 239,35" />
<polygon fill="#cdc3c6" fill-opacity="0.501961" points="118,84 102,81 110,106" />
<polygon fill="#000000" fill-opacity="0.501961" points="91,160 82,79 106,68" />
<polygon fill="#000000" fill-opacity="0.501961" points="136,77 115,70 127,151" />
<polygon fill="#cabdb9" fill-opacity="0.501961" points="221,86 236,83 231,115" />
<polygon fill="#fafff9" fill-opacity="0.501961" points="144,64 135,45 152,39" />
<polygon fill="#002782" fill-opacity="0.501961" points="232,160 131,139 271,126" />
<polygon fill="#a78187" fill-opacity="0.501961" points="47,54 69,56 69,3" />
<polygon fill="#d9cdca" fill-opacity="0.501961" points="243,11 235,45 234,13" />
<polygon fill="#120400" fill-opacity="0.501961" points="185,52 152,57 152,-12" />
<polygon fill="#2e3f92" fill-opacity="0.501961" points="228,38 261,71 228,70" />
<polygon fill="#000000" fill-opacity="0.501961" points="46,-16 136,-16 135,50" />
<polygon fill="#000000" fill-opacity="0.501961" points="177,126 159,72 150,100" />
<polygon fill="#000000" fill-opacity="0.501961" points="57,115 -16,44 -16,122" />
<polygon fill="#000000" fill-opacity="0.501961" points="60,33 28,58 42,15" />
<polygon fill="#000000" fill-opacity="0.501961" points="142,103 113,106 127,59" />
<polygon fill="#000000" fill-opacity="0.501961" points="235,-16 222,89 207,-16" />
<polygon fill="#000000" fill-opacity="0.501961" points="271,61 250,-16 243,46" />
<polygon fill="#fff9e1" fill-opacity="0.501961" points="54,25 74,22 65,32" />
<polygon fill="#000000" fill-opacity="0.501961" points="257,146 234,75 264,66" />
<polygon fill="#2a181d" fill-opacity="0.501961" points="221,82 227,126 149,127" />
<polygon fill="#000000" fill-opacity="0.501961" points="115,-16 68,32 87,54" />
<polygon fill="#64695a" fill-opacity="0.501961" points="109,20 114,56 93,55" />
<polygon fill="#36223a" fill-opacity="0.501961" points="91,138 52,114 64,45" />
<polygon fill="#0b3483" fill-opacity="0.501961" points="0,156 4,120 66,154" />
<polygon fill="#ffffff" fill-opacity="0.501961" points="152,84 144,77 134,85" />
<polygon fill="#382739" fill-opacity="0.501961" points="214,-16 201,53 150,57" />
<polygon fill="#717d98" fill-opacity="0.501961" points="11,137 52,136 39,125" />
<polygon fill="#002376" fill-opacity="0.501961" points="223,71 271,59 184,53" />
<polygon fill="#3a60b3" fill-opacity="0.501961" points="149,71 131,71 141,49" />
<polygon fill="#000000" fill-opacity="0.501961" points="120,59 144,36 130,32" />
<polygon fill="#787f9a" fill-opacity="0.501961" points="59,2 48,15 76,7" />
<polygon fill="#001963" fill-opacity="0.501961" points="62,128 39,160 157,128" />
<polygon fill="#000000" fill-opacity="0.501961" points="73,116 107,104 91,72" />
<polygon fill="#88586a" fill-opacity="0.501961" points="119,126 100,104 100,129" />
<polygon fill="#000000" fill-opacity="0.501961" points="216,127 209,75 223,76" />
<polygon fill="#000000" fill-opacity="0.501961" points="97,82 161,76 114,68" />
<polygon fill="#000000" fill-opacity="0.501961" points="-4,77 17,-15 -16,-7" />
<polygon fill="#030000" fill-opacity="0.501961" points="103,121 124,120 114,115" />
<polygon fill="#9f958b" fill-opacity="0.501961" points="60,125 73,123 63,114" />
<polygon fill="#b5c6e0" fill-opacity="0.501961" points="147,114 142,122 146,139" />
<polygon fill="#092c76" fill-opacity="0.501961" points="76,67 3,72 2,52" />
<polygon fill="#000000" fill-opacity="0.501961" points="65,17 140,-16 168,14" />
<polygon fill="#faeccb" fill-opacity="0.501961" points="189,123 195,122 192,128" />
<polygon fill="#fff5c8" fill-opacity="0.501961" points="190,55 189,50 196,50" />
<polygon fill="#a47989" fill-opacity="0.501961" points="227,100 219,115 243,115" />
<polygon fill="#814950" fill-opacity="0.501961" points="228,45 233,58 250,36" />
<polygon fill="#000000" fill-opacity="0.501961" points="242,32 257,-7 271,47" />
<polygon fill="#8a8a99" fill-opacity="0.501961" points="232,13 241,9 231,29" />
<polygon fill="#001a65" fill-opacity="0.501961" points="122,70 71,54 23,71" />
<polygon fill="#677c9b" fill-opacity="0.501961" points="23,57 45,58 14,67" />
<polygon fill="#000000" fill-opacity="0.501961" points="22,129 42,73 -16,70" />
<polygon fill="#3e5a91" fill-opacity="0.501961" points="154,144 133,107 129,151" />
<polygon fill="#6a686c" fill-opacity="0.501961" points="162,42 157,61 173,58" />
<polygon fill="#000000" fill-opacity="0.501961" points="258,131 232,102 271,76" />
<polygon fill="#000000" fill-opacity="0.501961" points="213,85 227,102 210,114" />
<polygon fill="#feffff" fill-opacity="0.501961" points="58,51 61,39 62,51" />
<polygon fill="#27111c" fill-opacity="0.501961" points="41,129 72,73 35,70" />
<polygon fill="#000000" fill-opacity="0.501961" points="156,71 136,74 162,81" />
<polygon fill="#fff0dc" fill-opacity="0.501961" points="118,95 107,95 109,103" />
<polygon fill="#64749c" fill-opacity="0.501961" points="210,133 188,126 162,133" />
<polygon fill="#ae7d99" fill-opacity="0.501961" points="248,35 233,35 248,44" />
<polygon fill="#746869" fill-opacity="0.501961" points="159,119 133,103 158,103" />
<polygon fill="#eec6a0" fill-opacity="0.501961" points="153,82 147,105 136,86" />
<polygon fill="#000000" fill-opacity="0.501961" points="143,98 124,108 121,74" />
<polygon fill="#060100" fill-opacity="0.501961" points="147,105 179,105 160,78" />
<polygon fill="#2a1d35" fill-opacity="0.501961" points="211,77 172,73 197,129" />
<polygon fill="#4e4d59" fill-opacity="0.501961" points="74,7 51,27 49,15" />
<polygon fill="#000000" fill-opacity="0.501961" points="236,30 218,44 211,5" />
<polygon fill="#1c2869" fill-opacity="0.501961" points="230,115 211,160 238,139" />
<polygon fill="#ccb5c3" fill-opacity="0.501961" points="66,52 67,43 74,41" />
<polygon fill="#000000" fill-opacity="0.501961" points="95,94 86,127 101,126" />
<polygon fill="#cec8b8" fill-opacity="0.501961" points="131,52 144,48 145,34" />
<polygon fill="#fffff0" fill-opacity="0.501961" points="226,99 232,92 231,103" />
<polygon fill="#716e78" fill-opacity="0.501961" points="152,27 151,15 134,26" />
<polygon fill="#111713" fill-opacity="0.501961" points="42,4 -16,14 66,42" />
<polygon fill="#040003" fill-opacity="0.501961" points="257,43 234,46 257,50" />
<polygon fill="#000000" fill-opacity="0.501961" points="227,3 270,21 245,-16" />
<polygon fill="#4f4550" fill-opacity="0.501961" points="65,17 74,5 74,28" />
<polygon fill="#5d2d48" fill-opacity="0.501961" points="79,46 69,35 68,57" />
<polygon fill="#74717d" fill-opacity="0.501961" points="235,9 244,25 247,14" />
<polygon fill="#9f94ac" fill-opacity="0.501961" points="200,45 193,46 201,40" />
<polygon fill="#8b95ae" fill-opacity="0.501961" points="161,133 165,160 154,160" />
<polygon fill="#000000" fill-opacity="0.501961" points="147,11 187,20 166,38" />
<polygon fill="#000000" fill-opacity="0.501961" points="226,1 211,54 228,53" />
<polygon fill="#fdecd4" fill-opacity="0.501961" points="238,127 234,122 239,121" />
<polygon fill="#ffffe9" fill-opacity="0.501961" points="151,56 141,47 150,41" />
<polygon fill="#000000" fill-opacity="0.501961" points="121,107 127,141 132,101" />
<polygon fill="#f1d5c6" fill-opacity="0.501961" points="235,27 240,44 240,19" />
<polygon fill="#a6bee2" fill-opacity="0.501961" points="153,137 142,138 151,133" />
<polygon fill="#16170e" fill-opacity="0.501961" points="130,64 94,4 127,30" />
<polygon fill="#301d30" fill-opacity="0.501961" points="213,21 166,18 178,-16" />
<polygon fill="#491d2a" fill-opacity="0.501961" points="237,31 237,40 245,27" />
<polygon fill="#5c5e68" fill-opacity="0.501961" points="157,104 147,134 146,98" />
<polygon fill="#ac788d" fill-opacity="0.501961" points="121,116 102,114 120,106" />
<polygon fill="#000000" fill-opacity="0.501961" points="143,36 123,44 128,25" />
<polygon fill="#5ba8ff" fill-opacity="0.501961" points="249,138 253,137 249,141" />
<polygon fill="#000000" fill-opacity="0.501961" points="265,74 213,85 211,71" />
<polygon fill="#87735d" fill-opacity="0.501961" points="214,118 212,127 207,117" />
<polygon fill="#657498" fill-opacity="0.501961" points="16,129 61,131 34,138" />
<polygon fill="#895571" fill-opacity="0.501961" points="239,106 235,107 240,120" />
<polygon fill="#678886" fill-opacity="0.501961" points="16,33 13,49 30,46" />
<polygon fill="#ffffec" fill-opacity="0.501961" points="147,32 140,34 142,27" />
<polygon fill="#000000" fill-opacity="0.501961" points="86,73 84,93 131,72" />
<polygon fill="#fef3dd" fill-opacity="0.501961" points="122,125 114,120 114,125" />
<polygon fill="#030000" fill-opacity="0.501961" points="252,123 224,119 271,113" />
<polygon fill="#000000" fill-opacity="0.501961" points="165,23 152,63 155,-15" />
<polygon fill="#867588" fill-opacity="0.501961" points="224,61 251,50 231,51" />
<polygon fill="#656467" fill-opacity="0.501961" points="140,126 133,104 144,100" />
<polygon fill="#696775" fill-opacity="0.501961" points="114,87 101,99 101,88" />
<polygon fill="#000000" fill-opacity="0.501961" points="59,30 37,57 35,30" />
<polygon fill="#fffffe" fill-opacity="0.501961" points="145,78 137,81 155,83" />
<polygon fill="#7d5f48" fill-opacity="0.501961" points="214,51 213,36 206,38" />
<polygon fill="#000d44" fill-opacity="0.501961" points="26,144 -16,149 13,127" />
<polygon fill="#807177" fill-opacity="0.501961" points="61,101 66,100 64,90" />
<polygon fill="#845977" fill-opacity="0.501961" points="225,129 222,107 219,116" />
<polygon fill="#030300" fill-opacity="0.501961" points="120,1 72,-16 81,54" />
<polygon fill="#7985a1" fill-opacity="0.501961" points="237,87 220,90 227,83" />
<polygon fill="#000000" fill-opacity="0.501961" points="121,91 113,107 125,107" />
<polygon fill="#4d5f94" fill-opacity="0.501961" points="164,58 178,61 193,54" />
<polygon fill="#7f717d" fill-opacity="0.501961" points="190,96 190,110 193,104" />
<polygon fill="#042668" fill-opacity="0.501961" points="126,54 69,70 126,71" />
<polygon fill="#6c6e7e" fill-opacity="0.501961" points="141,16 134,25 138,31" />
<polygon fill="#355690" fill-opacity="0.501961" points="15,122 4,121 10,129" />
<polygon fill="#000000" fill-opacity="0.501961" points="239,127 271,124 240,74" />
<polygon fill="#000000" fill-opacity="0.501961" points="-16,98 22,126 60,97" />
<polygon fill="#fff9f0" fill-opacity="0.501961" points="144,112 143,125 147,126" />
<polygon fill="#373730" fill-opacity="0.501961" points="121,40 90,39 114,21" />
<polygon fill="#072361" fill-opacity="0.501961" points="271,71 200,68 243,52" />
<polygon fill="#000000" fill-opacity="0.501961" points="91,117 105,104 84,76" />
<polygon fill="#746754" fill-opacity="0.501961" points="80,116 84,132 86,119" />
<polygon fill="#7f5064" fill-opacity="0.501961" points="228,35 228,50 234,33" />
<polygon fill="#4d8dff" fill-opacity="0.501961" points="126,69 121,67 122,64" />
<polygon fill="#584d5a" fill-opacity="0.501961" points="118,95 118,85 113,96" />
<polygon fill="#f4d9bf" fill-opacity="0.501961" points="128,141 152,158 130,160" />
<polygon fill="#e5b2bb" fill-opacity="0.501961" points="227,108 233,115 224,116" />
<polygon fill="#0a1c58" fill-opacity="0.501961" points="163,134 217,135 163,149" />
<polygon fill="#8e7e87" fill-opacity="0.501961" points="193,14 194,22 190,19" />
<polygon fill="#fffbe4" fill-opacity="0.501961" points="146,98 140,94 151,91" />
<polygon fill="#071a5d" fill-opacity="0.501961" points="51,158 46,132 13,160" />
<polygon fill="#5374af" fill-opacity="0.501961" points="139,48 131,49 147,65" />
<polygon fill="#2a1822" fill-opacity="0.501961" points="26,121 77,106 41,129" />
<polygon fill="#74737f" fill-opacity="0.501961" points="223,100 226,84 233,81" />
<polygon fill="#8f8184" fill-opacity="0.501961" points="62,116 71,126 71,116" />
<polygon fill="#2a161c" fill-opacity="0.501961" points="84,71 66,121 82,116" />
<polygon fill="#0c265f" fill-opacity="0.501961" points="153,149 138,160 132,134" />
<polygon fill="#041c62" fill-opacity="0.501961" points="175,59 141,68 205,70" />
<polygon fill="#160c22" fill-opacity="0.501961" points="171,43 198,51 184,14" />
<polygon fill="#f3c5b7" fill-opacity="0.501961" points="57,27 66,30 66,16" />
<polygon fill="#7085b0" fill-opacity="0.501961" points="132,66 150,58 139,54" />
<polygon fill="#500000" fill-opacity="0.501961" points="228,117 229,113 233,122" />
<polygon fill="#00134d" fill-opacity="0.501961" points="235,125 245,160 248,135" />
<polygon fill="#050000" fill-opacity="0.501961" points="153,75 163,118 177,107" />
<polygon fill="#736d76" fill-opacity="0.501961" points="229,27 231,13 246,14" />
<polygon fill="#787a8f" fill-opacity="0.501961" points="73,10 52,9 65,2" />
<polygon fill="#c5b4b1" fill-opacity="0.501961" points="63,46 60,39 62,34" />
<polygon fill="#575960" fill-opacity="0.501961" points="165,130 159,108 153,118" />
<polygon fill="#1d1015" fill-opacity="0.501961" points="72,28 73,44 67,32" />
<polygon fill="#000000" fill-opacity="0.501961" points="258,-16 212,-4 213,30" />
<polygon fill="#000000" fill-opacity="0.501961" points="271,98 265,72 215,73" />
<polygon fill="#1b1330" fill-opacity="0.501961" points="169,126 188,129 188,93" />
<polygon fill="#263228" fill-opacity="0.501961" points="-2,51 14,18 12,46" />
<polygon fill="#000000" fill-opacity="0.501961" points="258,83 271,14 243,-14" />
<polygon fill="#fffff1" fill-opacity="0.501961" points="241,28 243,25 239,22" />
<polygon fill="#7a8eb3" fill-opacity="0.501961" points="106,126 99,134 101,126" />
<polygon fill="#3b1932" fill-opacity="0.501961" points="116,111 112,121 121,118" />
<polygon fill="#000205" fill-opacity="0.501961" points="119,7 129,68 137,31" />
<polygon fill="#1c1932" fill-opacity="0.501961" points="47,97 28,57 72,89" />
<polygon fill="#daaab9" fill-opacity="0.501961" points="105,108 114,108 108,116" />
<polygon fill="#ffe6d1" fill-opacity="0.501961" points="236,99 228,98 229,94" />
<polygon fill="#000000" fill-opacity="0.501961" points="136,95 124,99 120,133" />
<polygon fill="#ffffef" fill-opacity="0.501961" points="249,53 244,48 245,52" />
<polygon fill="#082363" fill-opacity="0.501961" points="126,128 32,140 128,160" />
<polygon fill="#090000" fill-opacity="0.501961" points="153,123 157,129 155,115" />
<polygon fill="#20131c" fill-opacity="0.501961" points="193,16 206,54 212,-2" />
<polygon fill="#3777ea" fill-opacity="0.501961" points="254,67 247,69 248,65" />
<polygon fill="#000000" fill-opacity="0.501961" points="153,16 105,6 153,-16" />
<polygon fill="#00276f" fill-opacity="0.501961" points="130,64 139,59 130,46" />
<polygon fill="#fde5d5" fill-opacity="0.501961" points="238,30 241,25 233,22" />
<polygon fill="#221628" fill-opacity="0.501961" points="65,127 43,122 67,120" />
<polygon fill="#a0656f" fill-opacity="0.501961" points="223,122 234,123 218,128" />
<polygon fill="#000000" fill-opacity="0.501961" points="47,13 47,55 35,54" />
<polygon fill="#473746" fill-opacity="0.501961" points="50,29 59,38 54,22" />
<polygon fill="#0d0505" fill-opacity="0.501961" points="202,113 227,104 202,95" />
<polygon fill="#17201f" fill-opacity="0.501961" points="5,29 36,-16 66,-1" />
<polygon fill="#12030d" fill-opacity="0.501961" points="236,49 230,46 244,47" />
<polygon fill="#000000" fill-opacity="0.501961" points="221,125 215,104 213,130" />
<polygon fill="#434b42" fill-opacity="0.501961" points="32,41 10,32 15,21" />
<polygon fill="#503d2a" fill-opacity="0.501961" points="172,55 158,54 157,40" />
<polygon fill="#435887" fill-opacity="0.501961" points="149,55 180,59 130,68" />
<polygon fill="#294b91" fill-opacity="0.501961" points="217,160 226,138 220,127" />
<polygon fill="#000000" fill-opacity="0.501961" points="261,113 232,105 263,73" />
<polygon fill="#5f000c" fill-opacity="0.501961" points="62,42 63,45 67,46" />
<polygon fill="#6e4266" fill-opacity="0.501961" points="51,39 47,53 59,51" />
<polygon fill="#5f4d37" fill-opacity="0.501961" points="30,118 28,128 39,126" />
<polygon fill="#fffbe3" fill-opacity="0.501961" points="107,99 112,91 114,100" />
<polygon fill="#000000" fill-opacity="0.501961" points="138,76 120,86 126,129" />
<polygon fill="#6477a0" fill-opacity="0.501961" points="155,136 181,130 161,129" />
<polygon fill="#030402" fill-opacity="0.501961" points="24,23 36,49 61,32" />
<polygon fill="#62565a" fill-opacity="0.501961" points="238,86 232,91 237,99" />
<polygon fill="#3e7df3" fill-opacity="0.501961" points="120,136 125,142 121,140" />
<polygon fill="#ffffe7" fill-opacity="0.501961" points="152,81 146,77 135,83" />
<polygon fill="#000000" fill-opacity="0.501961" points="3,84 -16,90 1,148" />
<polygon fill="#010000" fill-opacity="0.501961" points="162,104 149,98 167,77" />
<polygon fill="#000000" fill-opacity="0.501961" points="130,73 157,79 152,72" />
<polygon fill="#6e6b6a" fill-opacity="0.501961" points="141,105 133,121 132,106" />
<polygon fill="#031b58" fill-opacity="0.501961" points="90,70 52,54 97,58" />
<polygon fill="#000000" fill-opacity="0.501961" points="88,127 86,73 106,76" />
<polygon fill="#291922" fill-opacity="0.501961" points="167,73 179,76 166,117" />
<polygon fill="#ee919d" fill-opacity="0.501961" points="147,115 146,106 143,112" />
<polygon fill="#39507f" fill-opacity="0.501961" points="147,134 146,119 159,133" />
<polygon fill="#a8a6ba" fill-opacity="0.501961" points="141,38 138,42 148,36" />
<polygon fill="#030300" fill-opacity="0.501961" points="94,41 72,18 83,57" />
<polygon fill="#000000" fill-opacity="0.501961" points="130,26 138,43 131,49" />
<polygon fill="#3f1b4c" fill-opacity="0.501961" points="108,126 110,109 115,142" />
<polygon fill="#321727" fill-opacity="0.501961" points="225,123 221,117 235,119" />
<polygon fill="#2b1921" fill-opacity="0.501961" points="85,101 27,75 79,71" />
<polygon fill="#e9b991" fill-opacity="0.501961" points="146,95 142,95 145,107" />
<polygon fill="#909cb9" fill-opacity="0.501961" points="208,132 199,129 205,129" />
<polygon fill="#1f1327" fill-opacity="0.501961" points="208,88 189,120 207,127" />
<polygon fill="#0f2560" fill-opacity="0.501961" points="30,72 74,64 31,60" />
<polygon fill="#000000" fill-opacity="0.501961" points="119,109 133,83 141,96" />
<polygon fill="#211426" fill-opacity="0.501961" points="166,22 191,55 173,54" />
<polygon fill="#143777" fill-opacity="0.501961" points="100,63 79,55 125,55" />
<polygon fill="#4a2b43" fill-opacity="0.501961" points="102,116 106,125 105,107" />
<polygon fill="#6b7184" fill-opacity="0.501961" points="144,15 138,32 138,17" />
<polygon fill="#3e5b89" fill-opacity="0.501961" points="31,64 15,64 31,53" />
<polygon fill="#000000" fill-opacity="0.501961" points="229,52 215,55 215,18" />
<polygon fill="#71839d" fill-opacity="0.501961" points="44,59 35,61 31,58" />
<polygon fill="#62384d" fill-opacity="0.501961" points="70,49 79,46 76,56" />
<polygon fill="#d1d0cf" fill-opacity="0.501961" points="113,109 111,115 113,118" />
<polygon fill="#fff7c6" fill-opacity="0.501961" points="146,40 151,40 152,55" />
<polygon fill="#5b4157" fill-opacity="0.501961" points="114,116 114,129 105,127" />
<polygon fill="#011e5c" fill-opacity="0.501961" points="254,55 255,64 239,57" />
<polygon fill="#57344a" fill-opacity="0.501961" points="119,110 114,105 113,121" />
<polygon fill="#294589" fill-opacity="0.501961" points="96,160 107,137 101,131" />
<polygon fill="#492f41" fill-opacity="0.501961" points="245,23 250,49 240,48" />
<polygon fill="#000100" fill-opacity="0.501961" points="29,-13 -16,46 -8,-2" />
<polygon fill="#262721" fill-opacity="0.501961" points="125,43 115,20 110,55" />
<polygon fill="#60000d" fill-opacity="0.501961" points="65,54 64,41 61,57" />
<polygon fill="#ffebd8" fill-opacity="0.501961" points="105,96 114,100 106,100" />
<polygon fill="#000000" fill-opacity="0.501961" points="167,16 148,33 159,39" />
<polygon fill="#011d58" fill-opacity="0.501961" points="255,128 229,126 253,138" />
<polygon fill="#000000" fill-opacity="0.501961" points="261,44 260,15 241,30" />
<polygon fill="#565a54" fill-opacity="0.501961" points="94,47 110,34 111,55" />
<polygon fill="#09236b" fill-opacity="0.501961" points="222,56 193,68 181,55" />
<polygon fill="#14276c" fill-opacity="0.501961" points="44,55 90,55 57,72" />
<polygon fill="#c2a284" fill-opacity="0.501961" points="152,93 149,90 153,83" />
<polygon fill="#dbc1b7" fill-opacity="0.501961" points="59,30 65,23 56,22" />
<polygon fill="#d2ded7" fill-opacity="0.501961" points="68,41 67,53 65,44" />
<polygon fill="#270f1a" fill-opacity="0.501961" points="194,55 203,42 214,54" />
<polygon fill="#2b4b8d" fill-opacity="0.501961" points="130,121 133,160 143,121" />
<polygon fill="#090404" fill-opacity="0.501961" points="105,106 97,98 107,101" />
<polygon fill="#74646f" fill-opacity="0.501961" points="199,47 194,42 200,37" />
<polygon fill="#4f6283" fill-opacity="0.501961" points="18,138 39,133 17,130" />
<polygon fill="#fffeea" fill-opacity="0.501961" points="57,26 60,30 68,28" />
<polygon fill="#041b59" fill-opacity="0.501961" points="196,129 179,129 186,126" />
<polygon fill="#0f3184" fill-opacity="0.501961" points="144,62 146,68 132,69" />
<polygon fill="#26111b" fill-opacity="0.501961" points="110,116 123,121 103,120" />
<polygon fill="#001d5f" fill-opacity="0.501961" points="2,56 3,70 28,70" />
<polygon fill="#fffff1" fill-opacity="0.501961" points="193,52 190,52 191,50" />
<polygon fill="#001d5a" fill-opacity="0.501961" points="108,130 117,141 128,127" />
<polygon fill="#525763" fill-opacity="0.501961" points="150,16 145,28 153,21" />
<polygon fill="#0c0506" fill-opacity="0.501961" points="194,93 164,123 160,106" />
<polygon fill="#fff7cf" fill-opacity="0.501961" points="62,120 62,116 65,117" />
<polygon fill="#3a2939" fill-opacity="0.501961" points="68,32 77,42 70,43" />
<polygon fill="#1b1226" fill-opacity="0.501961" points="29,119 71,114 83,96" />
<polygon fill="#031c53" fill-opacity="0.501961" points="99,128 73,126 98,160" />
<polygon fill="#10225e" fill-opacity="0.501961" points="86,138 95,160 14,137" />
<polygon fill="#62626c" fill-opacity="0.501961" points="159,103 159,125 151,103" />
<polygon fill="#838fa9" fill-opacity="0.501961" points="242,16 230,16 236,11" />
<polygon fill="#e3ece6" fill-opacity="0.501961" points="232,109 231,114 233,119" />
<polygon fill="#5f3a52" fill-opacity="0.501961" points="233,106 232,122 242,113" />
<polygon fill="#756d7c" fill-opacity="0.501961" points="70,3 54,4 68,22" />
<polygon fill="#403a3f" fill-opacity="0.501961" points="248,18 244,17 246,28" />
<polygon fill="#060b07" fill-opacity="0.501961" points="60,-1 45,13 50,0" />
<polygon fill="#0a0909" fill-opacity="0.501961" points="238,29 231,29 226,34" />
<polygon fill="#8b94ae" fill-opacity="0.501961" points="157,60 170,60 164,58" />
<polygon fill="#e7ede7" fill-opacity="0.501961" points="62,46 61,54 59,41" />
<polygon fill="#634060" fill-opacity="0.501961" points="58,39 49,56 59,51" />
<polygon fill="#686168" fill-opacity="0.501961" points="236,85 222,99 221,92" />
<polygon fill="#232c23" fill-opacity="0.501961" points="38,47 26,41 31,55" />
<polygon fill="#ffffff" fill-opacity="0.501961" points="142,54 148,43 147,53" />
<polygon fill="#000000" fill-opacity="0.501961" points="31,123 -16,63 38,88" />
<polygon fill="#001751" fill-opacity="0.501961" points="51,72 21,66 41,64" />
<polygon fill="#001850" fill-opacity="0.501961" points="118,57 104,70 124,63" />
<polygon fill="#0a0906" fill-opacity="0.501961" points="134,19 99,11 63,33" />
<polygon fill="#000100" fill-opacity="0.501961" points="226,102 226,106 212,103" />
<polygon fill="#000000" fill-opacity="0.501961" points="253,67 256,64 263,74" />
<polygon fill="#738fc6" fill-opacity="0.501961" points="147,135 140,139 142,130" />
<polygon fill="#050600" fill-opacity="0.501961" points="67,-16 91,4 59,1" />
<polygon fill="#0c205d" fill-opacity="0.501961" points="168,71 176,60 156,60" />
<polygon fill="#c3bdb0" fill-opacity="0.501961" points="191,16 191,15 189,17" />
<polygon fill="#6e6a70" fill-opacity="0.501961" points="140,18 134,25 140,30" />
<polygon fill="#d9c2bb" fill-opacity="0.501961" points="224,97 233,96 232,89" />
<polygon fill="#23172c" fill-opacity="0.501961" points="167,108 172,126 216,108" />
<polygon fill="#687286" fill-opacity="0.501961" points="50,16 58,7 51,9" />
<polygon fill="#000000" fill-opacity="0.501961" points="101,126 87,123 91,91" />
<polygon fill="#a46a7e" fill-opacity="0.501961" points="115,122 104,123 108,125" />
<polygon fill="#414564" fill-opacity="0.501961" points="180,160 240,144 148,143" />
<polygon fill="#909abd" fill-opacity="0.501961" points="233,57 232,53 227,57" />
<polygon fill="#001d59" fill-opacity="0.501961" points="37,160 2,120 2,140" />
<polygon fill="#766d7b" fill-opacity="0.501961" points="233,84 237,86 225,95" />
<polygon fill="#feecd0" fill-opacity="0.501961" points="116,121 120,127 117,125" />
<polygon fill="#2f4ea3" fill-opacity="0.501961" points="144,68 136,72 135,68" />
<polygon fill="#7c8fb2" fill-opacity="0.501961" points="141,125 138,122 131,124" />
<polygon fill="#2c181b" fill-opacity="0.501961" points="159,86 157,71 214,71" />
<polygon fill="#000000" fill-opacity="0.501961" points="119,-16 127,24 151,7" />
<polygon fill="#2a498d" fill-opacity="0.501961" points="228,71 233,65 227,58" />
<polygon fill="#000000" fill-opacity="0.501961" points="241,127 269,125 241,92" />
<polygon fill="#6978a1" fill-opacity="0.501961" points="57,133 43,129 62,129" />
<polygon fill="#0b2264" fill-opacity="0.501961" points="193,152 162,133 220,133" />
<polygon fill="#8c2244" fill-opacity="0.501961" points="230,109 231,116 227,117" />
<polygon fill="#919ab3" fill-opacity="0.501961" points="234,82 222,86 228,82" />
<polygon fill="#51615b" fill-opacity="0.501961" points="32,55 26,37 17,54" />
<polygon fill="#e8f9f0" fill-opacity="0.501961" points="227,108 225,116 228,113" />
<polygon fill="#4c454b" fill-opacity="0.501961" points="116,100 121,91 113,91" />
<polygon fill="#ffffff" fill-opacity="0.501961" points="239,43 241,39 240,37" />
<polygon fill="#112555" fill-opacity="0.501961" points="155,140 160,141 155,128" />
<polygon fill="#55364c" fill-opacity="0.501961" points="225,107 218,125 225,116" />
<polygon fill="#0b1d58" fill-opacity="0.501961" points="164,53 156,57 172,56" />
<polygon fill="#6c3739" fill-opacity="0.501961" points="241,51 229,53 248,55" />
<polygon fill="#d8bfb1" fill-opacity="0.501961" points="238,25 235,35 240,32" />
<polygon fill="#b1adbd" fill-opacity="0.501961" points="132,141 129,139 131,149" />
<polygon fill="#162964" fill-opacity="0.501961" points="58,71 25,60 83,63" />
<polygon fill="#0e2355" fill-opacity="0.501961" points="145,148 148,140 141,139" />
<polygon fill="#8695ba" fill-opacity="0.501961" points="107,84 103,87 110,88" />
<polygon fill="#061734" fill-opacity="0.501961" points="128,141 121,160 107,146" />
<polygon fill="#27150d" fill-opacity="0.501961" points="38,95 44,110 39,124" />
<polygon fill="#e6d2c4" fill-opacity="0.501961" points="235,25 240,36 240,19" />
<polygon fill="#090301" fill-opacity="0.501961" points="121,107 111,103 123,98" />
<polygon fill="#000000" fill-opacity="0.501961" points="214,74 226,78 212,107" />
<polygon fill="#30312a" fill-opacity="0.501961" points="93,55 108,24 89,42" />
</g>
</svg>