<svg xmlns="http://www.w3.org/2000/svg" version="1.1" width="1024" height="576">
<rect x="0" y="0" width="1024" height="576" fill="#a56060" />
<g transform="scale(4.000000) translate(0.5 0.5)">
<polygon fill="#ffeddc" fill-opacity="0.501961" points="193,19 13,103 190,159" />
<polygon fill="#240000" fill-opacity="0.501961" points="144,42 -16,0 271,-2" />
<polygon fill="#fffffb" fill-opacity="0.501961" points="69,31 51,91 216,83" />
<polygon fill="#450000" fill-opacity="0.501961" points="271,139 245,-16 199,159" />
<polygon fill="#d10000" fill-opacity="0.501961" points="167,88 157,124 75,94" />
<polygon fill="#7d0000" fill-opacity="0.501961" points="78,159 -16,137 12,-16" />
<polygon fill="#ffffff" fill-opacity="0.501961" points="108,159 58,117 195,123" />
<polygon fill="#f7fbee" fill-opacity="0.501961" points="175,18 162,159 208,94" />
<polygon fill="#450315" fill-opacity="0.501961" points="43,62 -16,9 113,-16" />
<polygon fill="#d30000" fill-opacity="0.501961" points="95,86 96,123 172,107" />
<polygon fill="#630d1e" fill-opacity="0.501961" points="271,-1 264,159 168,-1" />
<polygon fill="#f5fbe4" fill-opacity="0.501961" points="74,136 110,55 53,55" />
<polygon fill="#90011a" fill-opacity="0.501961" points="232,88 256,157 154,159" />
<polygon fill="#be3535" fill-opacity="0.501961" points="92,48 140,51 191,13" />
<polygon fill="#b63a4a" fill-opacity="0.501961" points="205,30 244,53 199,159" />
<polygon fill="#b13b3d" fill-opacity="0.501961" points="63,145 47,14 -5,159" />
<polygon fill="#ebe2d4" fill-opacity="0.501961" points="204,60 175,139 152,28" />
<polygon fill="#e34842" fill-opacity="0.501961" points="167,117 83,100 111,124" />
<polygon fill="#e3d5c7" fill-opacity="0.501961" points="103,26 81,139 72,29" />
<polygon fill="#c5000c" fill-opacity="0.501961" points="123,86 83,110 167,103" />
<polygon fill="#efecd6" fill-opacity="0.501961" points="74,136 166,159 50,91" />
<polygon fill="#531720" fill-opacity="0.501961" points="7,-9 192,-4 -16,55" />
<polygon fill="#9d262c" fill-opacity="0.501961" points="76,17 162,24 139,53" />
<polygon fill="#7d203a" fill-opacity="0.501961" points="55,33 52,109 24,21" />
<polygon fill="#5a1e26" fill-opacity="0.501961" points="75,8 258,-16 270,45" />
<polygon fill="#e7dac9" fill-opacity="0.501961" points="201,97 166,28 129,86" />
<polygon fill="#dd8d99" fill-opacity="0.501961" points="33,71 36,100 55,118" />
<polygon fill="#640320" fill-opacity="0.501961" points="58,113 55,142 83,147" />
<polygon fill="#db696a" fill-opacity="0.501961" points="215,60 197,112 209,147" />
<polygon fill="#c94a16" fill-opacity="0.501961" points="42,135 19,76 9,159" />
<polygon fill="#ede6d8" fill-opacity="0.501961" points="196,115 203,62 131,159" />
<polygon fill="#4a0003" fill-opacity="0.501961" points="191,130 192,159 157,159" />
<polygon fill="#8e3543" fill-opacity="0.501961" points="205,-7 202,69 242,43" />
<polygon fill="#360817" fill-opacity="0.501961" points="96,-16 142,52 127,-1" />
<polygon fill="#c70016" fill-opacity="0.501961" points="162,93 165,113 104,89" />
<polygon fill="#903347" fill-opacity="0.501961" points="34,1 21,74 60,98" />
<polygon fill="#e8dacc" fill-opacity="0.501961" points="53,52 168,84 59,93" />
<polygon fill="#6d0e16" fill-opacity="0.501961" points="216,150 271,158 218,61" />
<polygon fill="#d15345" fill-opacity="0.501961" points="134,42 121,25 85,55" />
<polygon fill="#470208" fill-opacity="0.501961" points="234,64 252,90 245,143" />
<polygon fill="#e9e4d4" fill-opacity="0.501961" points="84,135 94,73 57,111" />
<polygon fill="#7a1c1f" fill-opacity="0.501961" points="27,42 -7,-16 1,159" />
<polygon fill="#e56f5f" fill-opacity="0.501961" points="147,107 94,117 144,123" />
<polygon fill="#c2423b" fill-opacity="0.501961" points="159,52 144,45 142,16" />
<polygon fill="#8f3c3f" fill-opacity="0.501961" points="89,12 62,16 87,39" />
<polygon fill="#e9d0b1" fill-opacity="0.501961" points="76,70 165,63 109,47" />
<polygon fill="#bd0518" fill-opacity="0.501961" points="96,89 88,112 110,111" />
<polygon fill="#bb929c" fill-opacity="0.501961" points="166,26 152,46 185,29" />
<polygon fill="#e9e1d3" fill-opacity="0.501961" points="200,85 182,136 108,159" />
<polygon fill="#9c2731" fill-opacity="0.501961" points="208,89 200,105 206,70" />
<polygon fill="#691c2f" fill-opacity="0.501961" points="142,17 122,1 141,60" />
<polygon fill="#e1cdcb" fill-opacity="0.501961" points="68,40 105,35 56,109" />
<polygon fill="#b84c73" fill-opacity="0.501961" points="47,153 43,96 66,159" />
<polygon fill="#af415f" fill-opacity="0.501961" points="235,67 229,105 226,80" />
<polygon fill="#561820" fill-opacity="0.501961" points="205,-11 152,-9 204,47" />
<polygon fill="#c5a3a7" fill-opacity="0.501961" points="88,25 65,33 102,31" />
<polygon fill="#7f4c41" fill-opacity="0.501961" points="267,57 249,11 252,108" />
<polygon fill="#7c212e" fill-opacity="0.501961" points="48,100 59,29 39,24" />
<polygon fill="#de776c" fill-opacity="0.501961" points="217,99 202,116 211,57" />
<polygon fill="#821b26" fill-opacity="0.501961" points="185,136 194,117 203,115" />
<polygon fill="#a5291b" fill-opacity="0.501961" points="8,61 4,159 28,91" />
<polygon fill="#90292d" fill-opacity="0.501961" points="183,12 190,27 138,25" />
<polygon fill="#371922" fill-opacity="0.501961" points="33,33 25,-16 9,30" />
<polygon fill="#18000a" fill-opacity="0.501961" points="256,138 271,82 255,26" />
<polygon fill="#dbb5ac" fill-opacity="0.501961" points="76,122 53,89 61,117" />
<polygon fill="#481316" fill-opacity="0.501961" points="43,-16 98,-16 106,31" />
<polygon fill="#b7475b" fill-opacity="0.501961" points="34,89 43,58 31,27" />
<polygon fill="#ae3634" fill-opacity="0.501961" points="105,50 103,9 118,38" />
<polygon fill="#a23b3c" fill-opacity="0.501961" points="53,42 60,34 65,64" />
<polygon fill="#ddc3c5" fill-opacity="0.501961" points="202,84 151,36 188,38" />
<polygon fill="#eae2cb" fill-opacity="0.501961" points="93,159 77,117 177,136" />
<polygon fill="#5a1820" fill-opacity="0.501961" points="173,31 170,32 169,38" />
<polygon fill="#ebdcc7" fill-opacity="0.501961" points="143,47 201,73 141,77" />
<polygon fill="#490004" fill-opacity="0.501961" points="250,44 244,70 242,19" />
<polygon fill="#711525" fill-opacity="0.501961" points="48,68 58,115 44,90" />
<polygon fill="#df6955" fill-opacity="0.501961" points="129,37 137,52 119,51" />
<polygon fill="#802e3f" fill-opacity="0.501961" points="213,63 242,78 237,2" />
<polygon fill="#7f000b" fill-opacity="0.501961" points="210,117 223,91 220,159" />
<polygon fill="#6d0819" fill-opacity="0.501961" points="80,138 96,159 58,134" />
<polygon fill="#b83c5d" fill-opacity="0.501961" points="215,159 189,145 210,114" />
<polygon fill="#eae3df" fill-opacity="0.501961" points="164,150 196,51 196,106" />
<polygon fill="#c51f28" fill-opacity="0.501961" points="151,116 168,109 165,97" />
<polygon fill="#40131b" fill-opacity="0.501961" points="60,49 54,-13 71,-16" />
<polygon fill="#8d272b" fill-opacity="0.501961" points="10,51 -5,9 11,-9" />
<polygon fill="#44161d" fill-opacity="0.501961" points="213,-16 86,1 194,15" />
<polygon fill="#6f243b" fill-opacity="0.501961" points="8,35 31,88 31,26" />
<polygon fill="#721f27" fill-opacity="0.501961" points="150,35 140,6 184,12" />
<polygon fill="#d8b8b8" fill-opacity="0.501961" points="80,48 64,35 63,71" />
<polygon fill="#97353f" fill-opacity="0.501961" points="216,51 191,50 215,4" />
<polygon fill="#c85238" fill-opacity="0.501961" points="18,140 35,105 41,159" />
<polygon fill="#b2405e" fill-opacity="0.501961" points="232,85 232,44 225,61" />
<polygon fill="#471e16" fill-opacity="0.501961" points="-16,95 4,157 -1,55" />
<polygon fill="#df9085" fill-opacity="0.501961" points="170,121 159,117 168,102" />
<polygon fill="#462427" fill-opacity="0.501961" points="228,30 250,11 224,-16" />
<polygon fill="#e7dcd4" fill-opacity="0.501961" points="196,116 178,139 134,124" />
<polygon fill="#cc0b1b" fill-opacity="0.501961" points="131,88 155,116 165,97" />
<polygon fill="#eadfd4" fill-opacity="0.501961" points="111,151 62,100 57,50" />
<polygon fill="#e9e5d1" fill-opacity="0.501961" points="85,90 135,61 150,84" />
<polygon fill="#e2685c" fill-opacity="0.501961" points="116,105 158,122 98,120" />
<polygon fill="#430309" fill-opacity="0.501961" points="242,92 250,76 246,58" />
<polygon fill="#380006" fill-opacity="0.501961" points="254,-16 255,42 270,-14" />
<polygon fill="#dda192" fill-opacity="0.501961" points="202,55 202,84 188,48" />
<polygon fill="#b46b68" fill-opacity="0.501961" points="50,87 64,108 56,83" />
<polygon fill="#ebd7ca" fill-opacity="0.501961" points="57,106 72,133 86,134" />
<polygon fill="#7b2324" fill-opacity="0.501961" points="70,9 62,27 109,22" />
<polygon fill="#6c0d1a" fill-opacity="0.501961" points="236,47 233,78 245,98" />
<polygon fill="#dac3be" fill-opacity="0.501961" points="172,68 173,28 192,39" />
<polygon fill="#cc827b" fill-opacity="0.501961" points="106,41 91,46 88,53" />
<polygon fill="#962d2f" fill-opacity="0.501961" points="241,159 228,159 238,110" />
<polygon fill="#7d252d" fill-opacity="0.501961" points="207,68 192,40 204,10" />
<polygon fill="#af3f4f" fill-opacity="0.501961" points="202,91 215,62 207,33" />
<polygon fill="#d08c7c" fill-opacity="0.501961" points="38,104 33,88 55,115" />
<polygon fill="#d44352" fill-opacity="0.501961" points="107,89 126,94 141,88" />
<polygon fill="#deb7b1" fill-opacity="0.501961" points="159,32 152,38 164,60" />
<polygon fill="#4b1f28" fill-opacity="0.501961" points="37,30 35,-14 66,17" />
<polygon fill="#d2bebe" fill-opacity="0.501961" points="100,30 85,28 103,46" />
<polygon fill="#952a38" fill-opacity="0.501961" points="190,125 197,113 197,138" />
<polygon fill="#7c222f" fill-opacity="0.501961" points="215,60 228,90 224,30" />
<polygon fill="#e8cbb4" fill-opacity="0.501961" points="146,66 136,51 88,53" />
<polygon fill="#9a3244" fill-opacity="0.501961" points="64,45 23,44 24,74" />
<polygon fill="#cb0a1c" fill-opacity="0.501961" points="89,103 170,107 132,90" />
<polygon fill="#83535b" fill-opacity="0.501961" points="89,30 79,33 84,39" />
<polygon fill="#744040" fill-opacity="0.501961" points="231,34 240,16 236,-7" />
<polygon fill="#3c1018" fill-opacity="0.501961" points="90,-16 104,-8 103,31" />
<polygon fill="#3e0d18" fill-opacity="0.501961" points="238,15 247,31 247,-16" />
<polygon fill="#e9ddcb" fill-opacity="0.501961" points="185,93 192,53 59,73" />
<polygon fill="#3d151a" fill-opacity="0.501961" points="81,-8 77,27 70,-16" />
<polygon fill="#e08c80" fill-opacity="0.501961" points="99,123 114,115 135,122" />
<polygon fill="#4e060c" fill-opacity="0.501961" points="248,103 238,158 253,159" />
<polygon fill="#ba4a61" fill-opacity="0.501961" points="32,83 46,97 33,45" />
<polygon fill="#ca8a84" fill-opacity="0.501961" points="72,47 75,57 79,48" />
<polygon fill="#e9e0d2" fill-opacity="0.501961" points="58,91 85,46 90,145" />
<polygon fill="#923641" fill-opacity="0.501961" points="179,146 156,159 176,138" />
<polygon fill="#ac3c3a" fill-opacity="0.501961" points="158,18 151,46 143,39" />
<polygon fill="#e9c1ae" fill-opacity="0.501961" points="201,104 195,84 201,62" />
<polygon fill="#c50f20" fill-opacity="0.501961" points="99,117 94,89 114,94" />
<polygon fill="#dfd2d3" fill-opacity="0.501961" points="169,44 164,29 161,53" />
<polygon fill="#bc521e" fill-opacity="0.501961" points="17,104 21,159 32,117" />
<polygon fill="#e8dece" fill-opacity="0.501961" points="117,122 72,159 177,126" />
<polygon fill="#6d3239" fill-opacity="0.501961" points="226,11 211,-16 222,47" />
<polygon fill="#7c2b3d" fill-opacity="0.501961" points="54,56 35,49 43,9" />
<polygon fill="#d28280" fill-opacity="0.501961" points="84,139 67,126 73,135" />
<polygon fill="#d76457" fill-opacity="0.501961" points="199,49 196,44 193,52" />
<polygon fill="#ce5749" fill-opacity="0.501961" points="154,51 143,46 145,35" />
<polygon fill="#e8d9c7" fill-opacity="0.501961" points="122,77 63,50 84,95" />
<polygon fill="#8b4343" fill-opacity="0.501961" points="28,48 33,-1 38,28" />
<polygon fill="#761729" fill-opacity="0.501961" points="54,138 86,146 54,119" />
<polygon fill="#cf5041" fill-opacity="0.501961" points="54,52 61,52 56,39" />
<polygon fill="#d07d7c" fill-opacity="0.501961" points="214,100 197,111 203,119" />
<polygon fill="#af4d50" fill-opacity="0.501961" points="202,53 198,62 199,50" />
<polygon fill="#bf666b" fill-opacity="0.501961" points="72,29 64,34 63,43" />
<polygon fill="#edcdb7" fill-opacity="0.501961" points="54,92 55,103 60,104" />
<polygon fill="#eec5bc" fill-opacity="0.501961" points="56,77 54,59 60,63" />
<polygon fill="#3b0e15" fill-opacity="0.501961" points="156,-16 160,22 150,-2" />
<polygon fill="#e7d7c4" fill-opacity="0.501961" points="89,129 166,127 174,151" />
<polygon fill="#5c1d2a" fill-opacity="0.501961" points="32,28 10,62 10,25" />
<polygon fill="#e1564c" fill-opacity="0.501961" points="163,119 98,116 137,107" />
<polygon fill="#7f2828" fill-opacity="0.501961" points="171,25 177,-4 187,26" />
<polygon fill="#701625" fill-opacity="0.501961" points="44,48 43,81 53,82" />
<polygon fill="#e7c3af" fill-opacity="0.501961" points="167,50 185,76 180,46" />
<polygon fill="#3d141c" fill-opacity="0.501961" points="69,-16 53,34 53,-11" />
<polygon fill="#e19c8c" fill-opacity="0.501961" points="88,107 95,115 91,120" />
<polygon fill="#933143" fill-opacity="0.501961" points="64,121 47,105 41,83" />
<polygon fill="#e9e4e1" fill-opacity="0.501961" points="152,86 99,87 139,75" />
<polygon fill="#7e1e28" fill-opacity="0.501961" points="120,32 111,19 119,43" />
<polygon fill="#db6d5c" fill-opacity="0.501961" points="215,73 206,95 216,99" />
<polygon fill="#e9d1be" fill-opacity="0.501961" points="114,64 116,47 74,65" />
<polygon fill="#e9e3d5" fill-opacity="0.501961" points="166,92 195,58 179,136" />
<polygon fill="#722426" fill-opacity="0.501961" points="94,30 78,4 85,-14" />
<polygon fill="#7d4048" fill-opacity="0.501961" points="168,34 169,38 173,33" />
<polygon fill="#ac3020" fill-opacity="0.501961" points="7,101 32,94 32,111" />
<polygon fill="#351318" fill-opacity="0.501961" points="32,2 6,-16 26,20" />
<polygon fill="#621923" fill-opacity="0.501961" points="205,33 205,46 183,25" />
<polygon fill="#daced1" fill-opacity="0.501961" points="187,35 166,38 183,52" />
<polygon fill="#c5444f" fill-opacity="0.501961" points="164,92 152,89 162,95" />
<polygon fill="#da9078" fill-opacity="0.501961" points="101,51 100,45 86,59" />
<polygon fill="#eaedf0" fill-opacity="0.501961" points="135,126 168,120 159,128" />
<polygon fill="#c06f66" fill-opacity="0.501961" points="90,100 96,86 98,91" />
<polygon fill="#bf433e" fill-opacity="0.501961" points="116,19 121,45 133,42" />
<polygon fill="#c3a4a6" fill-opacity="0.501961" points="85,39 69,34 81,32" />
<polygon fill="#dcced2" fill-opacity="0.501961" points="74,57 91,47 91,34" />
<polygon fill="#711b1e" fill-opacity="0.501961" points="5,73 -16,-5 5,-16" />
<polygon fill="#895046" fill-opacity="0.501961" points="253,88 258,70 251,51" />
<polygon fill="#751128" fill-opacity="0.501961" points="181,142 196,121 184,159" />
<polygon fill="#9e4447" fill-opacity="0.501961" points="197,43 192,54 192,39" />
<polygon fill="#a73941" fill-opacity="0.501961" points="204,74 201,104 209,93" />
<polygon fill="#83272a" fill-opacity="0.501961" points="160,27 151,1 148,35" />
<polygon fill="#902d22" fill-opacity="0.501961" points="7,88 1,148 18,150" />
<polygon fill="#8e3733" fill-opacity="0.501961" points="252,-4 248,12 254,26" />
<polygon fill="#6e1122" fill-opacity="0.501961" points="31,80 26,69 29,61" />
<polygon fill="#840512" fill-opacity="0.501961" points="228,116 210,149 237,149" />
<polygon fill="#9d1c18" fill-opacity="0.501961" points="12,111 24,75 13,61" />
<polygon fill="#892230" fill-opacity="0.501961" points="232,101 222,120 222,88" />
<polygon fill="#e6c7b8" fill-opacity="0.501961" points="103,79 91,90 119,78" />
<polygon fill="#cd5c4f" fill-opacity="0.501961" points="134,47 111,45 129,53" />
<polygon fill="#4d1a1e" fill-opacity="0.501961" points="270,90 254,79 254,40" />
<polygon fill="#913537" fill-opacity="0.501961" points="253,123 250,129 253,139" />
<polygon fill="#934844" fill-opacity="0.501961" points="251,23 255,43 249,48" />
<polygon fill="#b70e1a" fill-opacity="0.501961" points="150,91 166,105 163,111" />
<polygon fill="#b5485a" fill-opacity="0.501961" points="54,119 55,136 35,99" />
<polygon fill="#c5a2a0" fill-opacity="0.501961" points="81,25 81,31 98,31" />
<polygon fill="#ccadaf" fill-opacity="0.501961" points="166,29 191,37 182,28" />
<polygon fill="#962f45" fill-opacity="0.501961" points="44,83 42,36 35,60" />
<polygon fill="#a23433" fill-opacity="0.501961" points="113,29 107,11 105,39" />
<polygon fill="#e8e4ea" fill-opacity="0.501961" points="74,88 78,56 70,71" />
<polygon fill="#511d27" fill-opacity="0.501961" points="167,6 171,32 175,-3" />
<polygon fill="#331115" fill-opacity="0.501961" points="94,-4 112,-10 121,15" />
<polygon fill="#701d21" fill-opacity="0.501961" points="104,19 125,23 102,6" />
<polygon fill="#5b1f2a" fill-opacity="0.501961" points="35,10 57,13 36,31" />
<polygon fill="#dba293" fill-opacity="0.501961" points="160,54 160,44 153,44" />
<polygon fill="#651820" fill-opacity="0.501961" points="53,57 54,34 49,41" />
<polygon fill="#ab3850" fill-opacity="0.501961" points="27,91 27,64 23,77" />
<polygon fill="#6b2d37" fill-opacity="0.501961" points="224,-16 196,11 200,36" />
<polygon fill="#270d10" fill-opacity="0.501961" points="187,12 167,-16 179,-16" />
<polygon fill="#e41e28" fill-opacity="0.501961" points="119,104 102,105 101,115" />
<polygon fill="#a26d76" fill-opacity="0.501961" points="158,30 163,30 162,40" />
<polygon fill="#96312e" fill-opacity="0.501961" points="63,26 75,23 71,13" />
<polygon fill="#e9e3eb" fill-opacity="0.501961" points="62,98 62,72 57,84" />
<polygon fill="#e8edf5" fill-opacity="0.501961" points="107,125 94,121 92,126" />
<polygon fill="#a02f2f" fill-opacity="0.501961" points="55,38 58,26 59,46" />
<polygon fill="#ca5d52" fill-opacity="0.501961" points="90,50 105,50 118,39" />
<polygon fill="#843341" fill-opacity="0.501961" points="230,41 237,13 242,71" />
<polygon fill="#5c1e24" fill-opacity="0.501961" points="78,20 93,23 66,28" />
<polygon fill="#dbd1d5" fill-opacity="0.501961" points="64,67 73,45 66,43" />
<polygon fill="#9b344d" fill-opacity="0.501961" points="45,49 51,68 50,33" />
<polygon fill="#6d1b20" fill-opacity="0.501961" points="242,76 229,104 240,121" />
<polygon fill="#e9e4d2" fill-opacity="0.501961" points="97,83 82,112 60,95" />
<polygon fill="#972f30" fill-opacity="0.501961" points="179,16 163,20 190,23" />
<polygon fill="#46040b" fill-opacity="0.501961" points="245,118 240,97 247,84" />
<polygon fill="#e9d2be" fill-opacity="0.501961" points="71,113 63,91 70,64" />
<polygon fill="#edd7ce" fill-opacity="0.501961" points="68,115 66,123 57,108" />
<polygon fill="#b1737b" fill-opacity="0.501961" points="59,104 66,111 59,98" />
<polygon fill="#e9e2e5" fill-opacity="0.501961" points="187,123 186,50 198,91" />
<polygon fill="#e9cbb6" fill-opacity="0.501961" points="97,50 85,54 76,78" />
<polygon fill="#d9cfd0" fill-opacity="0.501961" points="167,53 157,41 159,33" />
<polygon fill="#9b4f50" fill-opacity="0.501961" points="216,21 211,19 214,2" />
<polygon fill="#d3bdbe" fill-opacity="0.501961" points="192,44 186,50 181,30" />
<polygon fill="#712630" fill-opacity="0.501961" points="108,38 91,21 105,29" />
<polygon fill="#d36d65" fill-opacity="0.501961" points="206,99 212,61 216,87" />
<polygon fill="#b30e1d" fill-opacity="0.501961" points="111,92 91,105 96,92" />
<polygon fill="#902b2b" fill-opacity="0.501961" points="78,10 79,22 91,19" />
<polygon fill="#e5c7b3" fill-opacity="0.501961" points="118,54 141,61 137,51" />
<polygon fill="#e8d6c4" fill-opacity="0.501961" points="185,109 187,70 173,58" />
<polygon fill="#8d2d37" fill-opacity="0.501961" points="7,42 14,63 8,82" />
<polygon fill="#d87578" fill-opacity="0.501961" points="33,93 39,90 35,80" />
<polygon fill="#dc9c89" fill-opacity="0.501961" points="53,65 61,52 56,51" />
<polygon fill="#dfa696" fill-opacity="0.501961" points="169,102 164,93 164,99" />
<polygon fill="#9a2e20" fill-opacity="0.501961" points="45,116 38,112 42,138" />
<polygon fill="#cc867d" fill-opacity="0.501961" points="173,49 179,50 175,48" />
<polygon fill="#e6c5b3" fill-opacity="0.501961" points="170,132 163,126 146,132" />
<polygon fill="#791619" fill-opacity="0.501961" points="9,80 12,44 17,67" />
<polygon fill="#3c1119" fill-opacity="0.501961" points="138,-16 150,-16 147,19" />
<polygon fill="#a54c51" fill-opacity="0.501961" points="36,26 32,17 32,40" />
<polygon fill="#9a3848" fill-opacity="0.501961" points="214,18 205,44 221,58" />
<polygon fill="#863136" fill-opacity="0.501961" points="57,92 51,80 54,77" />
<polygon fill="#d9707b" fill-opacity="0.501961" points="132,86 134,90 126,88" />
<polygon fill="#773531" fill-opacity="0.501961" points="255,108 252,124 249,94" />
<polygon fill="#551a24" fill-opacity="0.501961" points="130,-9 116,-4 136,46" />
<polygon fill="#6f2b30" fill-opacity="0.501961" points="80,32 75,11 71,18" />
<polygon fill="#be403b" fill-opacity="0.501961" points="38,103 26,115 37,159" />
<polygon fill="#ab2f3a" fill-opacity="0.501961" points="212,140 214,104 207,125" />
<polygon fill="#3b171c" fill-opacity="0.501961" points="35,1 83,9 68,-16" />
<polygon fill="#540a17" fill-opacity="0.501961" points="247,33 243,57 238,19" />
<polygon fill="#e7e8e5" fill-opacity="0.501961" points="71,122 63,117 60,104" />
<polygon fill="#dd1622" fill-opacity="0.501961" points="136,102 158,107 158,116" />
<polygon fill="#603336" fill-opacity="0.501961" points="0,-14 -16,13 0,67" />
<polygon fill="#dbcbca" fill-opacity="0.501961" points="84,39 93,47 101,36" />
<polygon fill="#e9d3bf" fill-opacity="0.501961" points="141,58 165,52 171,78" />
<polygon fill="#7c232c" fill-opacity="0.501961" points="61,53 62,37 58,45" />
<polygon fill="#7c040f" fill-opacity="0.501961" points="223,124 214,114 212,125" />
<polygon fill="#842135" fill-opacity="0.501961" points="32,72 28,88 33,103" />
<polygon fill="#351219" fill-opacity="0.501961" points="236,-16 229,11 222,-16" />
<polygon fill="#b54262" fill-opacity="0.501961" points="187,159 196,151 195,128" />
<polygon fill="#e9e4dd" fill-opacity="0.501961" points="184,132 162,119 189,118" />
<polygon fill="#712435" fill-opacity="0.501961" points="32,18 29,57 23,40" />
<polygon fill="#924349" fill-opacity="0.501961" points="178,25 184,30 188,29" />
<polygon fill="#c3898a" fill-opacity="0.501961" points="166,31 181,28 173,27" />
<polygon fill="#7e273a" fill-opacity="0.501961" points="142,20 142,49 132,16" />
<polygon fill="#46141d" fill-opacity="0.501961" points="114,25 108,-16 98,-12" />
<polygon fill="#97374a" fill-opacity="0.501961" points="223,29 226,56 233,50" />
<polygon fill="#de3f3e" fill-opacity="0.501961" points="95,119 105,116 106,110" />
<polygon fill="#bd4862" fill-opacity="0.501961" points="212,109 201,119 200,144" />
<polygon fill="#511b25" fill-opacity="0.501961" points="31,12 18,13 21,51" />
<polygon fill="#bf6565" fill-opacity="0.501961" points="62,52 63,37 66,43" />
<polygon fill="#7c1f2c" fill-opacity="0.501961" points="225,59 228,103 215,66" />
<polygon fill="#b58894" fill-opacity="0.501961" points="62,64 62,58 65,66" />
<polygon fill="#dd6578" fill-opacity="0.501961" points="144,89 139,90 137,88" />
<polygon fill="#680c17" fill-opacity="0.501961" points="241,80 233,87 234,53" />
<polygon fill="#bb423e" fill-opacity="0.501961" points="121,47 107,23 109,45" />
<polygon fill="#882035" fill-opacity="0.501961" points="237,71 242,62 242,85" />
<polygon fill="#922d2f" fill-opacity="0.501961" points="5,19 10,33 9,4" />
<polygon fill="#381219" fill-opacity="0.501961" points="85,-16 93,22 95,-13" />
<polygon fill="#6e2634" fill-opacity="0.501961" points="35,41 35,24 54,20" />
<polygon fill="#ba4d22" fill-opacity="0.501961" points="24,90 12,159 31,135" />
<polygon fill="#892432" fill-opacity="0.501961" points="191,133 200,110 199,124" />
<polygon fill="#4c1824" fill-opacity="0.501961" points="161,31 163,-7 152,-2" />
<polygon fill="#e6dadd" fill-opacity="0.501961" points="65,65 58,88 57,62" />
<polygon fill="#e4c2b1" fill-opacity="0.501961" points="197,52 193,60 196,66" />
<polygon fill="#ae3e59" fill-opacity="0.501961" points="227,76 231,86 229,95" />
<polygon fill="#dd2c34" fill-opacity="0.501961" points="115,105 131,110 145,106" />
<polygon fill="#e2b6a5" fill-opacity="0.501961" points="187,129 191,117 193,120" />
<polygon fill="#6b232f" fill-opacity="0.501961" points="225,18 234,48 235,20" />
<polygon fill="#eae4cf" fill-opacity="0.501961" points="172,133 94,134 130,145" />
<polygon fill="#7d1825" fill-opacity="0.501961" points="226,66 227,84 216,101" />
<polygon fill="#af415a" fill-opacity="0.501961" points="233,58 234,74 228,69" />
<polygon fill="#4e1d28" fill-opacity="0.501961" points="204,-16 203,20 194,2" />
<polygon fill="#d1b6b5" fill-opacity="0.501961" points="73,37 65,45 65,37" />
<polygon fill="#430e17" fill-opacity="0.501961" points="134,28 124,27 115,7" />
<polygon fill="#8e3a3d" fill-opacity="0.501961" points="61,118 53,98 52,111" />
<polygon fill="#ebe8e4" fill-opacity="0.501961" points="184,130 193,114 189,88" />
<polygon fill="#d5b19b" fill-opacity="0.501961" points="127,54 129,63 124,60" />
<polygon fill="#db827f" fill-opacity="0.501961" points="84,140 103,159 93,159" />
<polygon fill="#e9e0c9" fill-opacity="0.501961" points="122,52 80,86 130,73" />
<polygon fill="#d08e8c" fill-opacity="0.501961" points="184,136 176,136 171,141" />
<polygon fill="#ad3837" fill-opacity="0.501961" points="152,33 151,26 154,21" />
<polygon fill="#9e3142" fill-opacity="0.501961" points="58,133 45,158 61,151" />
<polygon fill="#4e2123" fill-opacity="0.501961" points="202,-16 210,-16 211,12" />
<polygon fill="#eae6e3" fill-opacity="0.501961" points="71,78 73,113 84,114" />
<polygon fill="#711725" fill-opacity="0.501961" points="34,148 81,139 96,159" />
<polygon fill="#e9e5d1" fill-opacity="0.501961" points="133,87 105,72 155,72" />
<polygon fill="#e59d98" fill-opacity="0.501961" points="156,119 151,123 148,122" />
<polygon fill="#e8c7b8" fill-opacity="0.501961" points="195,67 197,97 202,74" />
<polygon fill="#b14241" fill-opacity="0.501961" points="90,101 95,92 91,110" />
<polygon fill="#81313b" fill-opacity="0.501961" points="204,11 212,14 210,40" />
<polygon fill="#c17374" fill-opacity="0.501961" points="101,29 100,31 105,36" />
<polygon fill="#cc0b1a" fill-opacity="0.501961" points="98,107 159,95 119,92" />
<polygon fill="#731724" fill-opacity="0.501961" points="49,71 52,92 45,83" />
<polygon fill="#8c313d" fill-opacity="0.501961" points="53,55 54,82 49,68" />
<polygon fill="#b34658" fill-opacity="0.501961" points="215,63 207,68 207,47" />
<polygon fill="#784045" fill-opacity="0.501961" points="82,34 90,36 84,30" />
<polygon fill="#652229" fill-opacity="0.501961" points="158,26 180,24 169,21" />
<polygon fill="#873841" fill-opacity="0.501961" points="167,20 161,22 161,35" />
<polygon fill="#ad5b5a" fill-opacity="0.501961" points="206,101 201,94 202,107" />
<polygon fill="#e5c6b6" fill-opacity="0.501961" points="109,130 95,132 92,127" />
<polygon fill="#73202c" fill-opacity="0.501961" points="150,40 145,19 151,19" />
<polygon fill="#d7a08e" fill-opacity="0.501961" points="52,86 53,93 61,99" />
<polygon fill="#965549" fill-opacity="0.501961" points="254,56 251,50 253,42" />
<polygon fill="#c04649" fill-opacity="0.501961" points="37,104 31,112 33,85" />
<polygon fill="#cd726e" fill-opacity="0.501961" points="143,49 142,56 141,49" />
<polygon fill="#d58880" fill-opacity="0.501961" points="194,114 204,111 208,105" />
<polygon fill="#c99fa2" fill-opacity="0.501961" points="182,48 187,45 191,49" />
<polygon fill="#75242c" fill-opacity="0.501961" points="58,37 62,48 64,33" />
<polygon fill="#b94159" fill-opacity="0.501961" points="199,129 213,149 209,125" />
<polygon fill="#ecccb7" fill-opacity="0.501961" points="142,58 164,53 143,49" />
<polygon fill="#59191f" fill-opacity="0.501961" points="183,25 195,33 196,26" />
<polygon fill="#c8abaa" fill-opacity="0.501961" points="87,27 92,31 79,30" />
<polygon fill="#7e2533" fill-opacity="0.501961" points="205,39 198,54 199,22" />
<polygon fill="#ebe1e7" fill-opacity="0.501961" points="141,87 157,88 146,83" />
<polygon fill="#ebcdb3" fill-opacity="0.501961" points="196,97 201,100 195,109" />
<polygon fill="#3e161c" fill-opacity="0.501961" points="10,18 27,-16 31,16" />
</g>
</svg>