<svg xmlns="http://www.w3.org/2000/svg" version="1.1" width="1024" height="580">
<rect x="0" y="0" width="1024" height="580" fill="#2b333d" />
<g transform="scale(4.000000) translate(0.5 0.5)">
<polygon fill="#ffffff" fill-opacity="0.501961" points="202,133 217,10 238,107" />
<polygon fill="#1640a1" fill-opacity="0.501961" points="0,110 271,112 180,160" />
<polygon fill="#000000" fill-opacity="0.501961" points="36,-16 -11,-12 1,153" />
<polygon fill="#fffff4" fill-opacity="0.501961" points="234,115 198,94 235,81" />
<polygon fill="#000000" fill-opacity="0.501961" points="236,144 271,48 239,-16" />
<polygon fill="#6f6e6f" fill-opacity="0.501961" points="238,43 198,61 216,6" />
<polygon fill="#221d0d" fill-opacity="0.501961" points="-16,98 151,-16 180,62" />
<polygon fill="#ffc9a2" fill-opacity="0.501961" points="129,90 123,71 132,68" />
<polygon fill="#143886" fill-opacity="0.501961" points="3,97 132,143 5,143" />
<polygon fill="#000000" fill-opacity="0.501961" points="253,157 227,-16 271,6" />
<polygon fill="#fffff8" fill-opacity="0.501961" points="207,115 214,78 238,85" />
<polygon fill="#1e1e18" fill-opacity="0.501961" points="181,117 218,73 98,-16" />
<polygon fill="#ffe2c9" fill-opacity="0.501961" points="230,63 212,70 202,45" />
<polygon fill="#3659bc" fill-opacity="0.501961" points="200,160 196,123 256,131" />
<polygon fill="#77869b" fill-opacity="0.501961" points="83,118 32,112 35,132" />
<polygon fill="#000000" fill-opacity="0.501961" points="34,63 -16,142 4,-16" />
<polygon fill="#63654c" fill-opacity="0.501961" points="72,45 95,10 23,14" />
<polygon fill="#030300" fill-opacity="0.501961" points="112,4 185,-16 265,13" />
<polygon fill="#030200" fill-opacity="0.501961" points="96,-16 3,5 116,10" />
<polygon fill="#43432d" fill-opacity="0.501961" points="233,27 100,66 205,2" />
<polygon fill="#71646c" fill-opacity="0.501961" points="82,61 105,68 107,97" />
<polygon fill="#fff9d4" fill-opacity="0.501961" points="236,75 225,112 198,97" />
<polygon fill="#b08d89" fill-opacity="0.501961" points="149,107 150,69 159,103" />
<polygon fill="#0e0300" fill-opacity="0.501961" points="208,72 251,70 271,86" />
<polygon fill="#5e634e" fill-opacity="0.501961" points="26,61 58,7 26,18" />
<polygon fill="#1d1e19" fill-opacity="0.501961" points="41,111 125,111 42,40" />
<polygon fill="#777786" fill-opacity="0.501961" points="206,61 239,34 202,37" />
<polygon fill="#000e4f" fill-opacity="0.501961" points="39,137 5,97 6,145" />
<polygon fill="#001d68" fill-opacity="0.501961" points="228,111 234,160 270,113" />
<polygon fill="#666b5b" fill-opacity="0.501961" points="162,10 190,46 191,16" />
<polygon fill="#bda79f" fill-opacity="0.501961" points="233,43 220,101 211,82" />
<polygon fill="#10254e" fill-opacity="0.501961" points="210,116 151,160 198,94" />
<polygon fill="#98a4b9" fill-opacity="0.501961" points="193,134 200,121 214,127" />
<polygon fill="#fff5db" fill-opacity="0.501961" points="211,68 221,46 223,70" />
<polygon fill="#e5b545" fill-opacity="0.501961" points="199,102 209,85 210,101" />
<polygon fill="#636a5f" fill-opacity="0.501961" points="134,14 150,7 172,17" />
<polygon fill="#001c58" fill-opacity="0.501961" points="192,132 49,131 127,154" />
<polygon fill="#000000" fill-opacity="0.501961" points="-16,31 21,-16 16,99" />
<polygon fill="#616455" fill-opacity="0.501961" points="90,8 107,17 135,9" />
<polygon fill="#ffffff" fill-opacity="0.501961" points="229,78 207,111 228,108" />
<polygon fill="#335597" fill-opacity="0.501961" points="5,112 33,98 4,97" />
<polygon fill="#241d1f" fill-opacity="0.501961" points="230,63 244,73 220,80" />
<polygon fill="#000000" fill-opacity="0.501961" points="242,-16 236,112 269,107" />
<polygon fill="#596f9f" fill-opacity="0.501961" points="107,131 134,111 113,110" />
<polygon fill="#acb9c9" fill-opacity="0.501961" points="189,129 180,129 186,123" />
<polygon fill="#63acff" fill-opacity="0.501961" points="242,135 250,138 246,130" />
<polygon fill="#0f161f" fill-opacity="0.501961" points="123,59 88,90 101,54" />
<polygon fill="#001a5a" fill-opacity="0.501961" points="37,140 64,144 41,122" />
<polygon fill="#23272a" fill-opacity="0.501961" points="174,49 220,73 154,108" />
<polygon fill="#9ea9b4" fill-opacity="0.501961" points="81,117 78,130 84,129" />
<polygon fill="#a68c8f" fill-opacity="0.501961" points="101,76 103,102 107,82" />
<polygon fill="#050b0b" fill-opacity="0.501961" points="98,35 167,34 170,14" />
<polygon fill="#4c3d27" fill-opacity="0.501961" points="133,70 139,42 79,37" />
<polygon fill="#041e52" fill-opacity="0.501961" points="204,121 144,103 125,124" />
<polygon fill="#171a18" fill-opacity="0.501961" points="129,99 147,49 150,111" />
<polygon fill="#eead40" fill-opacity="0.501961" points="237,110 230,107 234,90" />
<polygon fill="#181d22" fill-opacity="0.501961" points="114,57 127,100 99,113" />
<polygon fill="#202526" fill-opacity="0.501961" points="17,101 46,27 98,57" />
<polygon fill="#656b7a" fill-opacity="0.501961" points="238,43 199,55 217,23" />
<polygon fill="#b3c0d4" fill-opacity="0.501961" points="50,132 54,127 48,124" />
<polygon fill="#718098" fill-opacity="0.501961" points="80,115 46,115 65,128" />
<polygon fill="#242e22" fill-opacity="0.501961" points="241,8 193,46 197,16" />
<polygon fill="#111b2b" fill-opacity="0.501961" points="197,109 209,98 203,120" />
<polygon fill="#6f5f50" fill-opacity="0.501961" points="124,81 133,78 128,111" />
<polygon fill="#090e0d" fill-opacity="0.501961" points="89,16 158,16 92,38" />
<polygon fill="#96888e" fill-opacity="0.501961" points="87,66 90,82 94,63" />
<polygon fill="#6f7281" fill-opacity="0.501961" points="213,30 214,61 199,48" />
<polygon fill="#49484f" fill-opacity="0.501961" points="238,42 223,60 227,41" />
<polygon fill="#927672" fill-opacity="0.501961" points="159,78 150,77 154,104" />
<polygon fill="#000000" fill-opacity="0.501961" points="20,97 17,-16 -16,90" />
<polygon fill="#fff2da" fill-opacity="0.501961" points="213,64 226,59 224,70" />
<polygon fill="#8a96ab" fill-opacity="0.501961" points="14,101 23,100 20,108" />
<polygon fill="#000000" fill-opacity="0.501961" points="121,-16 175,2 56,1" />
<polygon fill="#001453" fill-opacity="0.501961" points="67,122 51,121 55,127" />
<polygon fill="#4d5454" fill-opacity="0.501961" points="256,127 255,37 271,73" />
<polygon fill="#000000" fill-opacity="0.501961" points="2,66 -16,143 5,144" />
<polygon fill="#ddb79d" fill-opacity="0.501961" points="123,81 126,69 132,78" />
<polygon fill="#9b7d7f" fill-opacity="0.501961" points="208,85 218,95 219,88" />
<polygon fill="#615442" fill-opacity="0.501961" points="124,45 122,80 133,56" />
<polygon fill="#514014" fill-opacity="0.501961" points="204,91 176,84 172,96" />
<polygon fill="#51594f" fill-opacity="0.501961" points="223,10 200,8 228,31" />
<polygon fill="#fffffb" fill-opacity="0.501961" points="211,82 232,93 234,80" />
<polygon fill="#22272c" fill-opacity="0.501961" points="204,94 124,66 200,32" />
<polygon fill="#64674e" fill-opacity="0.501961" points="40,96 33,116 34,93" />
<polygon fill="#595f57" fill-opacity="0.501961" points="89,38 84,8 81,38" />
<polygon fill="#9dadbf" fill-opacity="0.501961" points="138,131 138,123 142,123" />
<polygon fill="#6d83b3" fill-opacity="0.501961" points="235,110 209,113 215,126" />
<polygon fill="#14191b" fill-opacity="0.501961" points="154,111 162,89 198,101" />
<polygon fill="#f0ceb8" fill-opacity="0.501961" points="215,58 217,50 229,49" />
<polygon fill="#142f5e" fill-opacity="0.501961" points="6,104 18,117 47,113" />
<polygon fill="#fffbe4" fill-opacity="0.501961" points="213,111 229,110 205,97" />
<polygon fill="#070000" fill-opacity="0.501961" points="253,108 260,117 253,138" />
<polygon fill="#8a9ab1" fill-opacity="0.501961" points="169,124 176,124 168,130" />
<polygon fill="#0a0c06" fill-opacity="0.501961" points="168,-16 182,12 260,-6" />
<polygon fill="#424e61" fill-opacity="0.501961" points="218,79 226,75 218,84" />
<polygon fill="#4d3e15" fill-opacity="0.501961" points="69,103 84,86 61,85" />
<polygon fill="#798ca7" fill-opacity="0.501961" points="158,132 158,123 152,125" />
<polygon fill="#001852" fill-opacity="0.501961" points="224,120 243,160 238,116" />
<polygon fill="#b6c5db" fill-opacity="0.501961" points="33,131 38,124 33,125" />
<polygon fill="#000000" fill-opacity="0.501961" points="253,41 246,108 231,64" />
<polygon fill="#031e58" fill-opacity="0.501961" points="81,109 124,124 90,122" />
<polygon fill="#8799b0" fill-opacity="0.501961" points="122,129 128,124 127,130" />
<polygon fill="#191e15" fill-opacity="0.501961" points="57,6 78,17 83,0" />
<polygon fill="#232626" fill-opacity="0.501961" points="25,97 83,63 19,52" />
<polygon fill="#202529" fill-opacity="0.501961" points="196,114 206,56 191,79" />
<polygon fill="#000000" fill-opacity="0.501961" points="258,-16 233,-16 244,78" />
<polygon fill="#909bba" fill-opacity="0.501961" points="197,127 205,123 195,143" />
<polygon fill="#16377d" fill-opacity="0.501961" points="211,111 178,111 205,125" />
<polygon fill="#403839" fill-opacity="0.501961" points="243,46 227,70 233,41" />
<polygon fill="#39310c" fill-opacity="0.501961" points="124,143 162,154 199,143" />
<polygon fill="#b09190" fill-opacity="0.501961" points="210,85 231,70 225,66" />
<polygon fill="#001c59" fill-opacity="0.501961" points="47,121 39,125 45,152" />
<polygon fill="#586b89" fill-opacity="0.501961" points="100,130 94,131 92,115" />
<polygon fill="#4d8aff" fill-opacity="0.501961" points="241,131 243,139 247,133" />
<polygon fill="#19337b" fill-opacity="0.501961" points="205,127 234,132 194,144" />
<polygon fill="#00144a" fill-opacity="0.501961" points="24,137 7,141 5,95" />
<polygon fill="#5f7bd2" fill-opacity="0.501961" points="234,142 200,142 213,149" />
<polygon fill="#0b255c" fill-opacity="0.501961" points="166,142 201,142 176,124" />
<polygon fill="#7588c6" fill-opacity="0.501961" points="132,115 126,109 125,118" />
<polygon fill="#74869d" fill-opacity="0.501961" points="67,119 60,131 70,129" />
<polygon fill="#5c6051" fill-opacity="0.501961" points="37,21 38,56 25,49" />
<polygon fill="#ffffff" fill-opacity="0.501961" points="212,84 209,88 211,96" />
<polygon fill="#011e60" fill-opacity="0.501961" points="251,134 257,160 200,160" />
<polygon fill="#00153e" fill-opacity="0.501961" points="70,134 69,122 75,123" />
<polygon fill="#7b88a2" fill-opacity="0.501961" points="199,46 214,32 232,31" />
<polygon fill="#9f7567" fill-opacity="0.501961" points="131,104 123,102 123,107" />
<polygon fill="#443723" fill-opacity="0.501961" points="135,34 80,54 177,54" />
<polygon fill="#555a51" fill-opacity="0.501961" points="76,50 43,10 75,16" />
<polygon fill="#fffcec" fill-opacity="0.501961" points="234,81 229,106 210,98" />
<polygon fill="#052054" fill-opacity="0.501961" points="85,124 82,150 98,110" />
<polygon fill="#121815" fill-opacity="0.501961" points="76,109 71,97 31,107" />
<polygon fill="#262c34" fill-opacity="0.501961" points="82,28 54,61 89,92" />
<polygon fill="#001552" fill-opacity="0.501961" points="124,121 117,130 121,114" />
<polygon fill="#a0a4bc" fill-opacity="0.501961" points="207,88 215,75 225,73" />
<polygon fill="#8191ab" fill-opacity="0.501961" points="55,122 52,116 32,121" />
<polygon fill="#161b21" fill-opacity="0.501961" points="94,83 95,55 120,55" />
<polygon fill="#1d1b12" fill-opacity="0.501961" points="40,33 57,32 48,61" />
<polygon fill="#1f251c" fill-opacity="0.501961" points="48,1 19,4 20,24" />
<polygon fill="#1b2127" fill-opacity="0.501961" points="99,104 111,89 140,99" />
<polygon fill="#3a547f" fill-opacity="0.501961" points="164,143 54,142 106,160" />
<polygon fill="#222922" fill-opacity="0.501961" points="196,24 220,28 193,42" />
<polygon fill="#5b5f54" fill-opacity="0.501961" points="81,14 122,16 101,9" />
<polygon fill="#22262e" fill-opacity="0.501961" points="183,86 176,52 220,73" />
<polygon fill="#37517e" fill-opacity="0.501961" points="27,102 34,111 31,130" />
<polygon fill="#d8c4b3" fill-opacity="0.501961" points="225,45 216,52 226,54" />
<polygon fill="#001b57" fill-opacity="0.501961" points="246,130 252,111 236,110" />
<polygon fill="#1c2126" fill-opacity="0.501961" points="142,81 161,90 124,84" />
<polygon fill="#c1aaa0" fill-opacity="0.501961" points="157,103 148,95 154,96" />
<polygon fill="#222620" fill-opacity="0.501961" points="41,95 20,81 21,24" />
<polygon fill="#0b0906" fill-opacity="0.501961" points="235,96 248,77 238,77" />
<polygon fill="#525b69" fill-opacity="0.501961" points="226,52 224,41 236,40" />
<polygon fill="#000000" fill-opacity="0.501961" points="165,0 222,-15 253,1" />
<polygon fill="#000000" fill-opacity="0.501961" points="10,-16 -8,3 72,0" />
<polygon fill="#5a5d52" fill-opacity="0.501961" points="140,15 177,16 168,8" />
<polygon fill="#ffe9d5" fill-opacity="0.501961" points="212,67 229,58 226,67" />
<polygon fill="#5f7199" fill-opacity="0.501961" points="113,111 114,130 106,131" />
<polygon fill="#02205c" fill-opacity="0.501961" points="62,147 55,126 62,122" />
<polygon fill="#475156" fill-opacity="0.501961" points="271,13 255,-9 257,59" />
<polygon fill="#020200" fill-opacity="0.501961" points="230,31 259,-16 244,40" />
<polygon fill="#242922" fill-opacity="0.501961" points="208,3 186,15 148,1" />
<polygon fill="#001a51" fill-opacity="0.501961" points="22,145 17,98 8,154" />
<polygon fill="#0a275e" fill-opacity="0.501961" points="32,142 70,130 21,130" />
<polygon fill="#09255f" fill-opacity="0.501961" points="104,107 92,115 112,150" />
<polygon fill="#72625d" fill-opacity="0.501961" points="209,59 213,47 213,62" />
<polygon fill="#0f285e" fill-opacity="0.501961" points="189,111 206,123 147,122" />
<polygon fill="#667896" fill-opacity="0.501961" points="79,130 84,117 78,115" />
<polygon fill="#0b0e0e" fill-opacity="0.501961" points="178,54 161,63 135,57" />
<polygon fill="#1a0b0b" fill-opacity="0.501961" points="219,56 225,54 227,56" />
<polygon fill="#50564c" fill-opacity="0.501961" points="168,24 178,8 189,53" />
<polygon fill="#222318" fill-opacity="0.501961" points="68,160 99,143 10,144" />
<polygon fill="#212620" fill-opacity="0.501961" points="226,5 238,41 237,-1" />
<polygon fill="#000000" fill-opacity="0.501961" points="120,-16 171,1 59,1" />
<polygon fill="#1c2221" fill-opacity="0.501961" points="78,143 103,159 153,143" />
<polygon fill="#09235b" fill-opacity="0.501961" points="38,124 47,132 39,117" />
<polygon fill="#062766" fill-opacity="0.501961" points="16,98 34,97 28,102" />
<polygon fill="#26292d" fill-opacity="0.501961" points="134,109 97,111 88,91" />
<polygon fill="#565a50" fill-opacity="0.501961" points="213,17 227,17 214,30" />
<polygon fill="#21272e" fill-opacity="0.501961" points="132,77 201,63 131,58" />
<polygon fill="#d9b8ab" fill-opacity="0.501961" points="155,86 150,86 149,84" />
<polygon fill="#23272d" fill-opacity="0.501961" points="153,100 164,60 174,97" />
<polygon fill="#3b3f56" fill-opacity="0.501961" points="231,114 230,109 227,117" />
<polygon fill="#8b9cb6" fill-opacity="0.501961" points="93,127 96,130 96,124" />
<polygon fill="#fffffd" fill-opacity="0.501961" points="218,102 207,102 212,112" />
<polygon fill="#ffe6d3" fill-opacity="0.501961" points="218,55 229,64 209,55" />
<polygon fill="#5f7ec3" fill-opacity="0.501961" points="216,120 204,111 231,111" />
<polygon fill="#8f9a9c" fill-opacity="0.501961" points="127,88 129,91 125,94" />
<polygon fill="#fdfbf2" fill-opacity="0.501961" points="215,83 232,94 235,82" />
<polygon fill="#222931" fill-opacity="0.501961" points="122,89 89,59 121,60" />
<polygon fill="#191d1d" fill-opacity="0.501961" points="173,39 98,24 157,17" />
<polygon fill="#1e2321" fill-opacity="0.501961" points="153,8 136,1 117,10" />
<polygon fill="#1d2226" fill-opacity="0.501961" points="128,90 111,89 98,59" />
<polygon fill="#000d4b" fill-opacity="0.501961" points="82,123 77,122 85,120" />
<polygon fill="#9ba9bf" fill-opacity="0.501961" points="54,131 50,124 53,125" />
<polygon fill="#2a2015" fill-opacity="0.501961" points="206,70 212,75 221,72" />
<polygon fill="#212423" fill-opacity="0.501961" points="164,110 193,100 206,108" />
<polygon fill="#000000" fill-opacity="0.501961" points="-16,65 -16,101 28,92" />
<polygon fill="#22272c" fill-opacity="0.501961" points="67,67 71,84 106,88" />
<polygon fill="#fce772" fill-opacity="0.501961" points="207,89 207,100 201,97" />
<polygon fill="#000000" fill-opacity="0.501961" points="242,47 255,111 238,111" />
<polygon fill="#011e5b" fill-opacity="0.501961" points="151,135 136,139 152,122" />
<polygon fill="#8895ab" fill-opacity="0.501961" points="19,101 11,102 26,107" />
<polygon fill="#e7d5ac" fill-opacity="0.501961" points="223,87 217,93 219,103" />
<polygon fill="#766869" fill-opacity="0.501961" points="217,44 222,38 221,53" />
<polygon fill="#a89ba3" fill-opacity="0.501961" points="154,107 157,98 152,102" />
<polygon fill="#131512" fill-opacity="0.501961" points="35,84 28,51 38,58" />
<polygon fill="#021e5b" fill-opacity="0.501961" points="127,138 138,132 133,118" />
<polygon fill="#ffdfcb" fill-opacity="0.501961" points="218,68 219,46 214,57" />
<polygon fill="#1d2121" fill-opacity="0.501961" points="133,102 154,99 135,111" />
<polygon fill="#6f595c" fill-opacity="0.501961" points="149,96 157,77 158,92" />
<polygon fill="#a394a4" fill-opacity="0.501961" points="98,93 105,91 106,81" />
<polygon fill="#728bbc" fill-opacity="0.501961" points="197,126 226,114 205,132" />
<polygon fill="#333832" fill-opacity="0.501961" points="64,32 44,52 74,49" />
<polygon fill="#646b62" fill-opacity="0.501961" points="119,16 115,11 123,14" />
<polygon fill="#5a5e57" fill-opacity="0.501961" points="31,67 27,63 40,67" />
<polygon fill="#1a3568" fill-opacity="0.501961" points="201,110 165,110 174,126" />
<polygon fill="#262a23" fill-opacity="0.501961" points="33,99 26,70 21,90" />
<polygon fill="#21262d" fill-opacity="0.501961" points="210,76 197,45 137,76" />
<polygon fill="#252421" fill-opacity="0.501961" points="229,67 236,79 238,54" />
<polygon fill="#111613" fill-opacity="0.501961" points="51,110 64,95 37,109" />
<polygon fill="#cbaa94" fill-opacity="0.501961" points="207,52 212,54 208,61" />
<polygon fill="#00114c" fill-opacity="0.501961" points="250,132 251,120 239,125" />
<polygon fill="#0c0e0e" fill-opacity="0.501961" points="121,54 122,62 95,58" />
<polygon fill="#54594e" fill-opacity="0.501961" points="64,10 63,32 35,11" />
<polygon fill="#000500" fill-opacity="0.501961" points="206,105 200,106 205,110" />
<polygon fill="#090b0e" fill-opacity="0.501961" points="175,44 169,59 168,42" />
<polygon fill="#fffffb" fill-opacity="0.501961" points="212,93 233,92 227,98" />
<polygon fill="#555a53" fill-opacity="0.501961" points="159,14 136,16 137,8" />
<polygon fill="#1e2327" fill-opacity="0.501961" points="127,89 120,79 104,88" />
<polygon fill="#0f2c64" fill-opacity="0.501961" points="44,128 46,116 49,121" />
<polygon fill="#68656d" fill-opacity="0.501961" points="207,45 234,39 202,56" />
<polygon fill="#6d819f" fill-opacity="0.501961" points="123,124 128,122 124,129" />
<polygon fill="#41456f" fill-opacity="0.501961" points="204,85 209,84 211,86" />
<polygon fill="#1d3a98" fill-opacity="0.501961" points="230,127 202,140 229,142" />
<polygon fill="#9ca9bb" fill-opacity="0.501961" points="43,115 46,115 45,121" />
<polygon fill="#534319" fill-opacity="0.501961" points="170,94 189,84 193,91" />
<polygon fill="#06225f" fill-opacity="0.501961" points="149,137 165,125 169,141" />
<polygon fill="#000000" fill-opacity="0.501961" points="3,66 -16,130 4,147" />
<polygon fill="#ffe7d2" fill-opacity="0.501961" points="217,71 207,61 224,67" />
<polygon fill="#2c322b" fill-opacity="0.501961" points="76,7 86,44 76,38" />
<polygon fill="#775a53" fill-opacity="0.501961" points="133,103 123,101 130,110" />
<polygon fill="#000000" fill-opacity="0.501961" points="18,-16 -16,12 18,79" />
<polygon fill="#556b8b" fill-opacity="0.501961" points="25,112 40,112 27,107" />
<polygon fill="#5f523a" fill-opacity="0.501961" points="133,48 132,79 124,51" />
<polygon fill="#9c7a72" fill-opacity="0.501961" points="106,80 102,89 98,77" />
<polygon fill="#33313b" fill-opacity="0.501961" points="210,56 214,61 213,57" />
<polygon fill="#0c2762" fill-opacity="0.501961" points="129,126 119,114 138,126" />
<polygon fill="#011e57" fill-opacity="0.501961" points="8,128 22,140 29,98" />
<polygon fill="#483c28" fill-opacity="0.501961" points="83,43 106,53 87,54" />
<polygon fill="#d6ab87" fill-opacity="0.501961" points="126,82 127,74 133,79" />
<polygon fill="#826967" fill-opacity="0.501961" points="157,76 150,76 151,83" />
<polygon fill="#464c40" fill-opacity="0.501961" points="229,13 212,30 231,31" />
<polygon fill="#506182" fill-opacity="0.501961" points="10,103 9,110 15,105" />
<polygon fill="#000000" fill-opacity="0.501961" points="242,35 238,70 255,103" />
<polygon fill="#335288" fill-opacity="0.501961" points="31,142 14,160 58,143" />
<polygon fill="#7a8193" fill-opacity="0.501961" points="222,30 238,37 209,35" />
<polygon fill="#56566e" fill-opacity="0.501961" points="84,66 90,69 93,61" />
<polygon fill="#000807" fill-opacity="0.501961" points="176,98 193,96 185,103" />
<polygon fill="#7989a2" fill-opacity="0.501961" points="181,123 188,130 188,123" />
<polygon fill="#7285a3" fill-opacity="0.501961" points="172,130 168,130 167,122" />
<polygon fill="#060000" fill-opacity="0.501961" points="238,143 242,160 271,143" />
<polygon fill="#161917" fill-opacity="0.501961" points="4,143 63,143 23,160" />
<polygon fill="#151817" fill-opacity="0.501961" points="76,14 66,14 72,-1" />
<polygon fill="#625555" fill-opacity="0.501961" points="235,57 231,60 228,50" />
<polygon fill="#24292c" fill-opacity="0.501961" points="212,77 192,85 198,99" />
<polygon fill="#5a5f55" fill-opacity="0.501961" points="26,40 27,52 31,50" />
<polygon fill="#73553b" fill-opacity="0.501961" points="132,87 121,80 130,80" />
<polygon fill="#222729" fill-opacity="0.501961" points="137,89 133,111 155,111" />
<polygon fill="#03205b" fill-opacity="0.501961" points="41,111 38,115 54,115" />
<polygon fill="#1e252c" fill-opacity="0.501961" points="135,110 149,95 130,83" />
<polygon fill="#2f302a" fill-opacity="0.501961" points="161,35 132,49 93,36" />
<polygon fill="#5e6da1" fill-opacity="0.501961" points="194,131 201,131 194,138" />
<polygon fill="#5c7294" fill-opacity="0.501961" points="144,122 142,130 136,131" />
<polygon fill="#1f2428" fill-opacity="0.501961" points="205,57 213,72 193,105" />
<polygon fill="#07225b" fill-opacity="0.501961" points="169,117 179,132 184,115" />
<polygon fill="#3c4442" fill-opacity="0.501961" points="255,154 255,107 271,107" />
<polygon fill="#fffef6" fill-opacity="0.501961" points="234,79 222,79 227,95" />
<polygon fill="#585c52" fill-opacity="0.501961" points="172,32 179,10 169,13" />
<polygon fill="#001c5b" fill-opacity="0.501961" points="187,130 203,113 207,118" />
<polygon fill="#032061" fill-opacity="0.501961" points="148,126 133,112 162,114" />
<polygon fill="#535a4f" fill-opacity="0.501961" points="196,14 198,8 213,15" />
<polygon fill="#1c281e" fill-opacity="0.501961" points="209,15 197,35 195,14" />
<polygon fill="#21272c" fill-opacity="0.501961" points="183,108 159,76 156,106" />
<polygon fill="#1b376d" fill-opacity="0.501961" points="28,130 16,103 32,115" />
<polygon fill="#dfc6b6" fill-opacity="0.501961" points="227,54 222,51 221,43" />
<polygon fill="#2c2e29" fill-opacity="0.501961" points="64,94 22,71 61,109" />
<polygon fill="#203968" fill-opacity="0.501961" points="68,120 63,121 74,125" />
<polygon fill="#fedcba" fill-opacity="0.501961" points="89,70 88,72 93,71" />
<polygon fill="#1a336c" fill-opacity="0.501961" points="118,128 125,122 102,116" />
<polygon fill="#181512" fill-opacity="0.501961" points="46,98 39,111 42,77" />
<polygon fill="#123478" fill-opacity="0.501961" points="247,111 253,129 252,111" />
<polygon fill="#242930" fill-opacity="0.501961" points="119,79 123,67 87,74" />
<polygon fill="#001b4d" fill-opacity="0.501961" points="75,123 69,131 79,134" />
<polygon fill="#052261" fill-opacity="0.501961" points="161,129 159,116 178,112" />
<polygon fill="#0a265f" fill-opacity="0.501961" points="14,114 5,107 22,108" />
<polygon fill="#d7af6c" fill-opacity="0.501961" points="235,111 231,106 235,92" />
<polygon fill="#08245a" fill-opacity="0.501961" points="188,123 201,113 190,138" />
<polygon fill="#7487b4" fill-opacity="0.501961" points="116,118 118,114 111,115" />
<polygon fill="#00144a" fill-opacity="0.501961" points="250,112 234,115 252,126" />
<polygon fill="#453a12" fill-opacity="0.501961" points="67,67 58,71 70,75" />
<polygon fill="#040b0c" fill-opacity="0.501961" points="57,58 59,52 40,53" />
<polygon fill="#000300" fill-opacity="0.501961" points="202,105 206,102 206,108" />
<polygon fill="#513a3b" fill-opacity="0.501961" points="124,77 126,76 122,73" />
<polygon fill="#09255f" fill-opacity="0.501961" points="79,113 109,112 105,128" />
<polygon fill="#121314" fill-opacity="0.501961" points="33,80 22,84 36,92" />
<polygon fill="#000000" fill-opacity="0.501961" points="254,-4 254,81 241,40" />
<polygon fill="#cca361" fill-opacity="0.501961" points="208,103 210,98 207,91" />
<polygon fill="#456097" fill-opacity="0.501961" points="227,111 242,111 232,114" />
<polygon fill="#0e0f0f" fill-opacity="0.501961" points="39,78 28,75 27,64" />
<polygon fill="#3c423c" fill-opacity="0.501961" points="28,17 40,23 40,8" />
<polygon fill="#a66a56" fill-opacity="0.501961" points="227,66 220,74 225,74" />
<polygon fill="#292d27" fill-opacity="0.501961" points="179,53 212,28 200,45" />
<polygon fill="#8595af" fill-opacity="0.501961" points="52,115 48,121 67,116" />
<polygon fill="#92949c" fill-opacity="0.501961" points="219,81 210,80 207,84" />
<polygon fill="#393b38" fill-opacity="0.501961" points="25,89 31,67 25,56" />
<polygon fill="#545849" fill-opacity="0.501961" points="32,91 35,107 42,105" />
<polygon fill="#30373d" fill-opacity="0.501961" points="132,57 133,69 114,60" />
<polygon fill="#423734" fill-opacity="0.501961" points="134,103 136,109 113,111" />
<polygon fill="#483923" fill-opacity="0.501961" points="168,54 167,42 146,55" />
<polygon fill="#33352e" fill-opacity="0.501961" points="58,29 40,35 47,26" />
<polygon fill="#5c5f54" fill-opacity="0.501961" points="81,30 88,31 81,8" />
<polygon fill="#313936" fill-opacity="0.501961" points="180,31 168,37 184,50" />
<polygon fill="#5b5155" fill-opacity="0.501961" points="221,38 223,43 221,49" />
<polygon fill="#1f231e" fill-opacity="0.501961" points="234,1 234,19 208,3" />
<polygon fill="#052054" fill-opacity="0.501961" points="88,116 95,136 85,135" />
<polygon fill="#161611" fill-opacity="0.501961" points="59,48 57,33 46,33" />
<polygon fill="#cfaa9f" fill-opacity="0.501961" points="155,96 153,99 150,98" />
<polygon fill="#3b3f3a" fill-opacity="0.501961" points="43,75 38,93 38,61" />
<polygon fill="#22272c" fill-opacity="0.501961" points="103,105 117,75 128,88" />
<polygon fill="#0f0d06" fill-opacity="0.501961" points="85,55 108,56 94,60" />
<polygon fill="#242931" fill-opacity="0.501961" points="209,81 166,84 175,43" />
<polygon fill="#3c433d" fill-opacity="0.501961" points="68,49 77,41 53,26" />
<polygon fill="#6a7383" fill-opacity="0.501961" points="229,52 234,37 229,38" />
<polygon fill="#363e35" fill-opacity="0.501961" points="223,14 202,7 222,7" />
<polygon fill="#fce2d1" fill-opacity="0.501961" points="210,66 215,58 226,68" />
<polygon fill="#143269" fill-opacity="0.501961" points="55,122 61,127 54,116" />
<polygon fill="#222721" fill-opacity="0.501961" points="64,2 99,12 130,3" />
<polygon fill="#897d73" fill-opacity="0.501961" points="232,116 231,104 229,114" />
<polygon fill="#000b0d" fill-opacity="0.501961" points="69,80 66,74 61,85" />
<polygon fill="#565c53" fill-opacity="0.501961" points="191,22 176,18 192,40" />
<polygon fill="#1e1911" fill-opacity="0.501961" points="125,10 123,14 139,15" />
<polygon fill="#565863" fill-opacity="0.501961" points="228,73 219,78 219,84" />
<polygon fill="#a6b1ce" fill-opacity="0.501961" points="199,133 200,124 204,124" />
<polygon fill="#53574e" fill-opacity="0.501961" points="96,16 113,12 86,8" />
<polygon fill="#47390f" fill-opacity="0.501961" points="46,97 56,93 54,100" />
<polygon fill="#0b0b06" fill-opacity="0.501961" points="138,59 132,54 148,58" />
<polygon fill="#92a1b7" fill-opacity="0.501961" points="35,118 36,116 39,122" />
<polygon fill="#7685a1" fill-opacity="0.501961" points="203,44 211,33 208,46" />
<polygon fill="#1e3974" fill-opacity="0.501961" points="208,136 204,124 210,132" />
<polygon fill="#020304" fill-opacity="0.501961" points="35,69 28,75 28,67" />
<polygon fill="#001a67" fill-opacity="0.501961" points="11,97 16,97 17,102" />
</g>
</svg>