<svg xmlns="http://www.w3.org/2000/svg" version="1.1" width="1024" height="580">
<rect x="0" y="0" width="1024" height="580" fill="#0c111e" />
<g transform="scale(4.000000) translate(0.5 0.5)">
<polygon fill="#153987" fill-opacity="0.501961" points="152,88 267,143 -16,142" />
<polygon fill="#000000" fill-opacity="0.501961" points="210,-9 -16,-6 -16,110" />
<polygon fill="#443e31" fill-opacity="0.501961" points="106,130 76,18 195,76" />
<polygon fill="#000000" fill-opacity="0.501961" points="271,100 155,117 209,-16" />
<polygon fill="#1b3e86" fill-opacity="0.501961" points="109,119 4,134 4,101" />
<polygon fill="#ccafa5" fill-opacity="0.501961" points="160,107 153,70 147,106" />
<polygon fill="#000000" fill-opacity="0.501961" points="254,-16 100,-16 255,109" />
<polygon fill="#8290ab" fill-opacity="0.501961" points="122,120 118,97 86,122" />
<polygon fill="#001e6a" fill-opacity="0.501961" points="269,112 237,148 104,111" />
<polygon fill="#766663" fill-opacity="0.501961" points="134,36 98,88 101,63" />
<polygon fill="#000000" fill-opacity="0.501961" points="27,111 108,109 -10,-16" />
<polygon fill="#0f100c" fill-opacity="0.501961" points="136,117 103,84 193,-15" />
<polygon fill="#c9aab0" fill-opacity="0.501961" points="162,71 168,82 169,63" />
<polygon fill="#484027" fill-opacity="0.501961" points="111,26 136,25 129,85" />
<polygon fill="#b6a4a9" fill-opacity="0.501961" points="90,69 88,50 94,56" />
<polygon fill="#95a0b2" fill-opacity="0.501961" points="57,122 75,115 43,116" />
<polygon fill="#000000" fill-opacity="0.501961" points="-1,-4 159,-16 -16,112" />
<polygon fill="#00114f" fill-opacity="0.501961" points="102,160 -16,121 237,124" />
<polygon fill="#204594" fill-opacity="0.501961" points="30,114 2,98 29,96" />
<polygon fill="#64aaff" fill-opacity="0.501961" points="253,138 242,137 244,130" />
<polygon fill="#121a20" fill-opacity="0.501961" points="66,115 111,113 95,65" />
<polygon fill="#ffffd9" fill-opacity="0.501961" points="110,104 122,104 112,99" />
<polygon fill="#ffffff" fill-opacity="0.501961" points="151,106 159,101 151,99" />
<polygon fill="#010000" fill-opacity="0.501961" points="251,111 145,96 255,55" />
<polygon fill="#a49481" fill-opacity="0.501961" points="129,65 126,79 132,82" />
<polygon fill="#ad95a2" fill-opacity="0.501961" points="119,68 112,70 114,50" />
<polygon fill="#0e0e09" fill-opacity="0.501961" points="71,16 110,72 112,25" />
<polygon fill="#0c0e0c" fill-opacity="0.501961" points="119,110 153,111 129,82" />
<polygon fill="#000000" fill-opacity="0.501961" points="43,-16 254,-16 255,54" />
<polygon fill="#a38a93" fill-opacity="0.501961" points="103,84 108,66 99,63" />
<polygon fill="#262215" fill-opacity="0.501961" points="84,23 128,59 180,22" />
<polygon fill="#1d1d11" fill-opacity="0.501961" points="182,111 185,51 156,108" />
<polygon fill="#181a13" fill-opacity="0.501961" points="114,100 71,42 66,99" />
<polygon fill="#1c3b73" fill-opacity="0.501961" points="117,127 179,111 125,110" />
<polygon fill="#000000" fill-opacity="0.501961" points="4,146 -16,129 3,55" />
<polygon fill="#a6aeb6" fill-opacity="0.501961" points="67,119 74,115 78,121" />
<polygon fill="#00144b" fill-opacity="0.501961" points="216,109 118,142 244,141" />
<polygon fill="#70623d" fill-opacity="0.501961" points="122,37 130,55 134,36" />
<polygon fill="#987a77" fill-opacity="0.501961" points="157,75 158,88 148,80" />
<polygon fill="#000000" fill-opacity="0.501961" points="32,110 80,108 23,28" />
<polygon fill="#0a1017" fill-opacity="0.501961" points="105,53 109,101 127,94" />
<polygon fill="#00134f" fill-opacity="0.501961" points="5,112 14,160 51,113" />
<polygon fill="#818fa6" fill-opacity="0.501961" points="16,98 21,103 14,108" />
<polygon fill="#dde3f6" fill-opacity="0.501961" points="149,100 156,98 153,108" />
<polygon fill="#8798b0" fill-opacity="0.501961" points="104,122 83,115 106,116" />
<polygon fill="#25488f" fill-opacity="0.501961" points="118,111 71,111 111,123" />
<polygon fill="#eacca1" fill-opacity="0.501961" points="120,110 109,102 119,103" />
<polygon fill="#131c26" fill-opacity="0.501961" points="249,137 271,157 263,75" />
<polygon fill="#000000" fill-opacity="0.501961" points="254,110 175,110 254,-16" />
<polygon fill="#111517" fill-opacity="0.501961" points="167,33 122,59 158,77" />
<polygon fill="#917a79" fill-opacity="0.501961" points="165,84 162,63 169,67" />
<polygon fill="#68636e" fill-opacity="0.501961" points="90,62 80,51 95,50" />
<polygon fill="#0f1519" fill-opacity="0.501961" points="160,104 158,79 187,81" />
<polygon fill="#151411" fill-opacity="0.501961" points="60,49 118,20 123,50" />
<polygon fill="#909ba7" fill-opacity="0.501961" points="106,115 103,121 89,118" />
<polygon fill="#032361" fill-opacity="0.501961" points="65,143 126,118 180,143" />
<polygon fill="#000000" fill-opacity="0.501961" points="75,-16 -16,96 52,97" />
<polygon fill="#171812" fill-opacity="0.501961" points="65,107 88,109 84,33" />
<polygon fill="#508aff" fill-opacity="0.501961" points="239,137 247,128 245,136" />
<polygon fill="#4d5556" fill-opacity="0.501961" points="255,108 256,68 271,61" />
<polygon fill="#002063" fill-opacity="0.501961" points="251,111 251,132 206,112" />
<polygon fill="#f3dcbc" fill-opacity="0.501961" points="112,109 117,101 110,102" />
<polygon fill="#778cb5" fill-opacity="0.501961" points="112,120 127,119 115,114" />
<polygon fill="#444b47" fill-opacity="0.501961" points="255,23 267,52 255,75" />
<polygon fill="#111419" fill-opacity="0.501961" points="151,97 144,58 117,111" />
<polygon fill="#604b45" fill-opacity="0.501961" points="146,93 157,85 157,99" />
<polygon fill="#919da6" fill-opacity="0.501961" points="126,82 131,78 124,78" />
<polygon fill="#040e15" fill-opacity="0.501961" points="121,46 125,60 117,76" />
<polygon fill="#0d1317" fill-opacity="0.501961" points="109,63 92,66 96,52" />
<polygon fill="#072b7e" fill-opacity="0.501961" points="247,131 252,125 253,145" />
<polygon fill="#00164e" fill-opacity="0.501961" points="43,142 9,142 23,95" />
<polygon fill="#9c7f81" fill-opacity="0.501961" points="110,52 116,67 118,52" />
<polygon fill="#0f131a" fill-opacity="0.501961" points="96,105 112,66 108,115" />
<polygon fill="#1d1911" fill-opacity="0.501961" points="113,21 166,33 187,76" />
<polygon fill="#000000" fill-opacity="0.501961" points="-5,-16 140,-11 -4,92" />
<polygon fill="#342c1a" fill-opacity="0.501961" points="147,105 143,111 161,111" />
<polygon fill="#000000" fill-opacity="0.501961" points="259,-16 145,13 230,71" />
<polygon fill="#00174f" fill-opacity="0.501961" points="131,123 39,122 58,143" />
<polygon fill="#00174c" fill-opacity="0.501961" points="239,145 148,112 243,113" />
<polygon fill="#806e72" fill-opacity="0.501961" points="160,66 168,85 166,63" />
<polygon fill="#61718d" fill-opacity="0.501961" points="87,115 83,122 109,115" />
<polygon fill="#181915" fill-opacity="0.501961" points="100,72 54,75 96,99" />
<polygon fill="#0e1212" fill-opacity="0.501961" points="156,87 185,105 196,80" />
<polygon fill="#000000" fill-opacity="0.501961" points="-16,117 4,148 3,103" />
<polygon fill="#afa3aa" fill-opacity="0.501961" points="165,80 170,78 164,76" />
<polygon fill="#7b5f2d" fill-opacity="0.501961" points="132,67 128,61 122,69" />
<polygon fill="#12171b" fill-opacity="0.501961" points="121,58 128,73 114,97" />
<polygon fill="#455e83" fill-opacity="0.501961" points="36,119 40,127 38,114" />
<polygon fill="#111519" fill-opacity="0.501961" points="160,74 169,31 127,77" />
<polygon fill="#3a5076" fill-opacity="0.501961" points="158,121 134,118 153,115" />
<polygon fill="#000b46" fill-opacity="0.501961" points="84,124 75,112 85,113" />
<polygon fill="#001852" fill-opacity="0.501961" points="5,95 6,140 41,136" />
<polygon fill="#5d6d89" fill-opacity="0.501961" points="65,116 68,122 48,121" />
<polygon fill="#001953" fill-opacity="0.501961" points="112,139 90,140 91,117" />
<polygon fill="#001955" fill-opacity="0.501961" points="104,140 110,117 113,125" />
<polygon fill="#0d0900" fill-opacity="0.501961" points="253,144 264,130 253,110" />
<polygon fill="#00154f" fill-opacity="0.501961" points="146,116 140,113 143,134" />
<polygon fill="#13171a" fill-opacity="0.501961" points="120,102 146,53 148,103" />
<polygon fill="#464d4c" fill-opacity="0.501961" points="255,156 255,110 271,113" />
<polygon fill="#032058" fill-opacity="0.501961" points="122,112 121,135 130,135" />
<polygon fill="#ffd7bc" fill-opacity="0.501961" points="91,59 93,57 92,54" />
<polygon fill="#af9e92" fill-opacity="0.501961" points="102,78 107,70 102,69" />
<polygon fill="#171a20" fill-opacity="0.501961" points="167,79 173,89 154,89" />
<polygon fill="#0f2b68" fill-opacity="0.501961" points="111,109 124,114 94,115" />
<polygon fill="#15181a" fill-opacity="0.501961" points="106,90 107,67 127,76" />
<polygon fill="#171919" fill-opacity="0.501961" points="99,74 77,110 110,110" />
<polygon fill="#00174d" fill-opacity="0.501961" points="100,139 7,141 5,112" />
<polygon fill="#002169" fill-opacity="0.501961" points="61,115 82,114 71,111" />
<polygon fill="#453843" fill-opacity="0.501961" points="164,68 166,74 161,73" />
<polygon fill="#2a2216" fill-opacity="0.501961" points="82,44 102,26 133,33" />
<polygon fill="#464947" fill-opacity="0.501961" points="133,48 127,54 122,41" />
<polygon fill="#0a0f1e" fill-opacity="0.501961" points="110,74 101,74 115,79" />
<polygon fill="#223e75" fill-opacity="0.501961" points="6,109 31,109 16,114" />
<polygon fill="#000000" fill-opacity="0.501961" points="65,109 30,-16 30,110" />
<polygon fill="#0b0c08" fill-opacity="0.501961" points="186,37 192,51 136,44" />
<polygon fill="#474e4a" fill-opacity="0.501961" points="268,3 255,-15 257,41" />
<polygon fill="#2b2415" fill-opacity="0.501961" points="140,24 168,42 133,42" />
<polygon fill="#0a0d0d" fill-opacity="0.501961" points="93,42 74,26 57,80" />
<polygon fill="#181c22" fill-opacity="0.501961" points="92,64 77,49 72,62" />
<polygon fill="#0d1315" fill-opacity="0.501961" points="175,40 189,54 170,79" />
<polygon fill="#06090d" fill-opacity="0.501961" points="84,43 109,53 118,42" />
<polygon fill="#617697" fill-opacity="0.501961" points="42,114 45,116 43,121" />
<polygon fill="#00154d" fill-opacity="0.501961" points="64,136 75,141 61,119" />
<polygon fill="#161306" fill-opacity="0.501961" points="158,107 191,108 190,96" />
<polygon fill="#0b0c00" fill-opacity="0.501961" points="47,160 50,143 108,143" />
<polygon fill="#958084" fill-opacity="0.501961" points="157,85 152,78 151,88" />
<polygon fill="#836b66" fill-opacity="0.501961" points="150,78 156,77 158,86" />
<polygon fill="#151d24" fill-opacity="0.501961" points="133,57 123,53 115,63" />
<polygon fill="#001a53" fill-opacity="0.501961" points="246,123 251,139 252,117" />
<polygon fill="#fff8df" fill-opacity="0.501961" points="119,102 110,103 113,101" />
<polygon fill="#dbbda0" fill-opacity="0.501961" points="169,70 164,70 169,73" />
<polygon fill="#ab9b94" fill-opacity="0.501961" points="112,57 112,65 118,59" />
<polygon fill="#14191c" fill-opacity="0.501961" points="116,61 170,63 175,45" />
<polygon fill="#000000" fill-opacity="0.501961" points="41,61 -5,26 16,100" />
<polygon fill="#0b2860" fill-opacity="0.501961" points="98,125 103,130 99,118" />
<polygon fill="#000000" fill-opacity="0.501961" points="187,110 199,14 250,109" />
<polygon fill="#a1a7ad" fill-opacity="0.501961" points="129,74 129,79 127,79" />
<polygon fill="#14171a" fill-opacity="0.501961" points="114,98 136,106 158,59" />
<polygon fill="#92795c" fill-opacity="0.501961" points="109,107 119,106 114,111" />
<polygon fill="#4d6285" fill-opacity="0.501961" points="139,120 131,119 139,116" />
<polygon fill="#032159" fill-opacity="0.501961" points="161,132 142,119 122,120" />
<polygon fill="#dddce8" fill-opacity="0.501961" points="150,107 156,100 158,103" />
<polygon fill="#050603" fill-opacity="0.501961" points="156,-16 69,22 141,21" />
<polygon fill="#090800" fill-opacity="0.501961" points="212,143 262,144 236,152" />
<polygon fill="#c9ad9f" fill-opacity="0.501961" points="107,67 104,74 101,72" />
<polygon fill="#66606a" fill-opacity="0.501961" points="85,49 93,50 90,70" />
<polygon fill="#c3c4d2" fill-opacity="0.501961" points="156,108 147,102 149,99" />
<polygon fill="#101310" fill-opacity="0.501961" points="185,57 167,75 196,75" />
<polygon fill="#020301" fill-opacity="0.501961" points="77,99 56,67 18,96" />
<polygon fill="#001d59" fill-opacity="0.501961" points="108,115 87,114 99,111" />
<polygon fill="#00174e" fill-opacity="0.501961" points="69,117 69,141 80,142" />
<polygon fill="#57423f" fill-opacity="0.501961" points="149,99 148,94 159,92" />
<polygon fill="#121619" fill-opacity="0.501961" points="85,40 105,46 115,74" />
<polygon fill="#443f3f" fill-opacity="0.501961" points="158,107 145,109 149,106" />
<polygon fill="#123071" fill-opacity="0.501961" points="229,111 194,111 211,116" />
<polygon fill="#544044" fill-opacity="0.501961" points="113,61 109,54 113,55" />
<polygon fill="#a2afc1" fill-opacity="0.501961" points="154,117 153,116 154,119" />
<polygon fill="#0f1001" fill-opacity="0.501961" points="122,143 164,143 177,160" />
<polygon fill="#8592a9" fill-opacity="0.501961" points="14,98 18,107 14,107" />
<polygon fill="#001950" fill-opacity="0.501961" points="156,141 250,112 156,113" />
<polygon fill="#996d33" fill-opacity="0.501961" points="130,75 128,64 125,65" />
<polygon fill="#133578" fill-opacity="0.501961" points="5,136 8,128 4,117" />
<polygon fill="#121619" fill-opacity="0.501961" points="130,75 136,45 163,76" />
<polygon fill="#2d2409" fill-opacity="0.501961" points="193,80 173,81 176,71" />
<polygon fill="#103071" fill-opacity="0.501961" points="165,118 150,111 187,112" />
<polygon fill="#08255c" fill-opacity="0.501961" points="153,125 153,111 143,129" />
<polygon fill="#00164e" fill-opacity="0.501961" points="5,138 38,114 7,112" />
<polygon fill="#0e1216" fill-opacity="0.501961" points="69,68 91,45 80,35" />
<polygon fill="#021f5e" fill-opacity="0.501961" points="135,118 142,110 122,114" />
<polygon fill="#16181b" fill-opacity="0.501961" points="127,72 166,62 152,47" />
<polygon fill="#15181b" fill-opacity="0.501961" points="95,93 118,68 139,104" />
<polygon fill="#24468f" fill-opacity="0.501961" points="104,111 127,111 113,115" />
<polygon fill="#00164d" fill-opacity="0.501961" points="55,131 54,119 62,136" />
<polygon fill="#9ba6b9" fill-opacity="0.501961" points="63,119 66,116 70,120" />
<polygon fill="#b7a8ae" fill-opacity="0.501961" points="112,63 113,66 117,66" />
<polygon fill="#806c68" fill-opacity="0.501961" points="152,87 148,93 158,93" />
<polygon fill="#163477" fill-opacity="0.501961" points="243,111 224,111 236,115" />
<polygon fill="#112e6e" fill-opacity="0.501961" points="253,133 245,111 252,111" />
<polygon fill="#2b4a83" fill-opacity="0.501961" points="61,144 54,142 66,142" />
<polygon fill="#000000" fill-opacity="0.501961" points="64,143 57,143 48,160" />
<polygon fill="#00154b" fill-opacity="0.501961" points="252,131 249,114 196,112" />
<polygon fill="#7989a3" fill-opacity="0.501961" points="90,121 86,120 88,118" />
<polygon fill="#0f1212" fill-opacity="0.501961" points="146,110 148,84 135,110" />
<polygon fill="#655e85" fill-opacity="0.501961" points="116,61 113,72 117,67" />
<polygon fill="#3f3f44" fill-opacity="0.501961" points="91,70 87,59 86,71" />
<polygon fill="#6c5723" fill-opacity="0.501961" points="135,36 122,44 124,38" />
<polygon fill="#715251" fill-opacity="0.501961" points="98,64 98,72 105,67" />
<polygon fill="#16191b" fill-opacity="0.501961" points="83,71 110,108 81,110" />
<polygon fill="#133072" fill-opacity="0.501961" points="97,143 110,138 128,143" />
<polygon fill="#588eff" fill-opacity="0.501961" points="247,132 247,137 241,134" />
<polygon fill="#011b54" fill-opacity="0.501961" points="94,140 112,117 118,142" />
<polygon fill="#d5b8a3" fill-opacity="0.501961" points="90,56 87,59 91,58" />
<polygon fill="#001952" fill-opacity="0.501961" points="80,142 95,121 128,142" />
<polygon fill="#000000" fill-opacity="0.501961" points="3,43 -16,102 2,145" />
<polygon fill="#1b3e87" fill-opacity="0.501961" points="8,143 28,143 18,140" />
<polygon fill="#9facbc" fill-opacity="0.501961" points="100,116 106,120 101,121" />
<polygon fill="#6f5452" fill-opacity="0.501961" points="170,64 167,71 165,65" />
<polygon fill="#7a8cb1" fill-opacity="0.501961" points="122,119 119,114 111,122" />
<polygon fill="#08245c" fill-opacity="0.501961" points="129,114 110,126 108,139" />
<polygon fill="#60686b" fill-opacity="0.501961" points="130,82 132,79 129,78" />
<polygon fill="#021d57" fill-opacity="0.501961" points="106,139 120,135 106,120" />
<polygon fill="#00174e" fill-opacity="0.501961" points="38,142 6,141 39,127" />
<polygon fill="#0b3184" fill-opacity="0.501961" points="13,97 20,100 29,97" />
<polygon fill="#261f09" fill-opacity="0.501961" points="63,73 75,86 83,73" />
<polygon fill="#13161a" fill-opacity="0.501961" points="175,107 176,84 157,98" />
<polygon fill="#282115" fill-opacity="0.501961" points="89,30 85,42 119,40" />
<polygon fill="#001950" fill-opacity="0.501961" points="59,118 56,139 53,132" />
<polygon fill="#00184f" fill-opacity="0.501961" points="154,112 195,142 251,112" />
<polygon fill="#050807" fill-opacity="0.501961" points="201,72 177,86 193,103" />
<polygon fill="#00124a" fill-opacity="0.501961" points="28,98 20,99 22,113" />
<polygon fill="#4c5f84" fill-opacity="0.501961" points="130,119 124,117 126,120" />
<polygon fill="#070908" fill-opacity="0.501961" points="174,15 118,10 188,38" />
<polygon fill="#1b1808" fill-opacity="0.501961" points="70,96 72,109 100,110" />
<polygon fill="#000e49" fill-opacity="0.501961" points="7,99 14,98 11,106" />
<polygon fill="#cdd3da" fill-opacity="0.501961" points="118,119 119,116 120,119" />
<polygon fill="#211f22" fill-opacity="0.501961" points="134,80 155,81 142,84" />
<polygon fill="#7687a1" fill-opacity="0.501961" points="154,119 154,122 152,122" />
<polygon fill="#001952" fill-opacity="0.501961" points="139,142 150,120 208,141" />
<polygon fill="#14171b" fill-opacity="0.501961" points="171,47 136,47 172,65" />
<polygon fill="#070a07" fill-opacity="0.501961" points="-7,160 46,143 7,143" />
<polygon fill="#808da4" fill-opacity="0.501961" points="17,101 20,106 15,107" />
<polygon fill="#001a50" fill-opacity="0.501961" points="47,113 40,129 47,124" />
<polygon fill="#183a82" fill-opacity="0.501961" points="137,111 142,114 130,112" />
<polygon fill="#041f59" fill-opacity="0.501961" points="113,137 114,119 118,135" />
<polygon fill="#07215b" fill-opacity="0.501961" points="129,130 129,119 116,121" />
<polygon fill="#00174f" fill-opacity="0.501961" points="28,137 42,118 49,141" />
<polygon fill="#41423d" fill-opacity="0.501961" points="134,53 123,54 123,42" />
<polygon fill="#1e4393" fill-opacity="0.501961" points="188,143 180,143 181,141" />
<polygon fill="#153274" fill-opacity="0.501961" points="158,143 135,142 148,139" />
<polygon fill="#021b55" fill-opacity="0.501961" points="168,142 113,141 172,114" />
<polygon fill="#092768" fill-opacity="0.501961" points="63,115 49,112 75,110" />
<polygon fill="#54698d" fill-opacity="0.501961" points="149,118 150,123 146,115" />
<polygon fill="#0d0d06" fill-opacity="0.501961" points="77,111 61,110 61,68" />
<polygon fill="#00184e" fill-opacity="0.501961" points="141,141 213,142 250,113" />
<polygon fill="#153577" fill-opacity="0.501961" points="233,143 221,139 207,143" />
<polygon fill="#00164d" fill-opacity="0.501961" points="202,142 235,141 251,119" />
<polygon fill="#001248" fill-opacity="0.501961" points="30,103 20,105 21,109" />
<polygon fill="#5e5a9c" fill-opacity="0.501961" points="101,80 107,81 105,77" />
<polygon fill="#13171b" fill-opacity="0.501961" points="104,106 95,61 81,108" />
<polygon fill="#141719" fill-opacity="0.501961" points="144,111 125,83 120,109" />
<polygon fill="#141719" fill-opacity="0.501961" points="134,94 102,101 108,70" />
<polygon fill="#021e58" fill-opacity="0.501961" points="151,134 149,119 161,130" />
<polygon fill="#001b52" fill-opacity="0.501961" points="146,112 146,123 139,112" />
<polygon fill="#16191c" fill-opacity="0.501961" points="159,65 119,56 155,51" />
<polygon fill="#8894aa" fill-opacity="0.501961" points="85,121 86,119 85,117" />
<polygon fill="#00184f" fill-opacity="0.501961" points="63,130 69,119 86,138" />
<polygon fill="#141819" fill-opacity="0.501961" points="164,80 157,86 166,109" />
<polygon fill="#080c0e" fill-opacity="0.501961" points="122,47 121,40 112,50" />
<polygon fill="#121519" fill-opacity="0.501961" points="120,108 146,60 147,102" />
<polygon fill="#070909" fill-opacity="0.501961" points="125,12 83,18 64,41" />
<polygon fill="#000000" fill-opacity="0.501961" points="23,-16 -16,96 53,96" />
<polygon fill="#14181c" fill-opacity="0.501961" points="95,50 101,64 109,56" />
<polygon fill="#13171c" fill-opacity="0.501961" points="94,68 79,94 101,74" />
<polygon fill="#141716" fill-opacity="0.501961" points="120,32 119,22 152,24" />
<polygon fill="#928679" fill-opacity="0.501961" points="117,109 118,105 112,106" />
<polygon fill="#74829d" fill-opacity="0.501961" points="74,116 71,117 74,122" />
<polygon fill="#121517" fill-opacity="0.501961" points="180,111 159,109 159,77" />
<polygon fill="#001b53" fill-opacity="0.501961" points="130,117 139,112 116,113" />
<polygon fill="#041f58" fill-opacity="0.501961" points="107,139 163,125 86,122" />
<polygon fill="#6e5451" fill-opacity="0.501961" points="160,66 164,70 171,66" />
<polygon fill="#011b55" fill-opacity="0.501961" points="141,140 132,139 137,117" />
<polygon fill="#141819" fill-opacity="0.501961" points="124,63 127,76 106,82" />
<polygon fill="#001850" fill-opacity="0.501961" points="5,111 85,140 8,141" />
<polygon fill="#121619" fill-opacity="0.501961" points="130,75 142,90 150,72" />
<polygon fill="#0d2e70" fill-opacity="0.501961" points="11,97 4,112 4,97" />
<polygon fill="#00194f" fill-opacity="0.501961" points="75,139 62,140 61,118" />
<polygon fill="#a7b2c4" fill-opacity="0.501961" points="94,116 95,120 93,120" />
<polygon fill="#302e2a" fill-opacity="0.501961" points="155,111 159,106 152,108" />
<polygon fill="#050702" fill-opacity="0.501961" points="68,70 53,73 69,29" />
<polygon fill="#d3c0ac" fill-opacity="0.501961" points="159,83 157,85 153,85" />
<polygon fill="#00114e" fill-opacity="0.501961" points="252,139 246,141 251,133" />
<polygon fill="#011b55" fill-opacity="0.501961" points="102,131 77,116 81,126" />
<polygon fill="#121619" fill-opacity="0.501961" points="164,109 158,81 183,94" />
<polygon fill="#133379" fill-opacity="0.501961" points="235,142 250,143 245,140" />
<polygon fill="#584a44" fill-opacity="0.501961" points="158,89 156,89 158,95" />
<polygon fill="#15181b" fill-opacity="0.501961" points="116,98 105,74 151,99" />
<polygon fill="#122d63" fill-opacity="0.501961" points="15,106 23,114 24,109" />
<polygon fill="#816560" fill-opacity="0.501961" points="120,56 114,51 110,53" />
<polygon fill="#3e3a3a" fill-opacity="0.501961" points="85,57 91,64 94,63" />
<polygon fill="#00164e" fill-opacity="0.501961" points="254,142 214,131 224,142" />
<polygon fill="#00124b" fill-opacity="0.501961" points="59,112 64,116 55,113" />
<polygon fill="#00164c" fill-opacity="0.501961" points="11,99 6,115 6,100" />
<polygon fill="#211b10" fill-opacity="0.501961" points="167,28 167,40 125,27" />
<polygon fill="#000000" fill-opacity="0.501961" points="254,-4 173,-13 255,114" />
<polygon fill="#15191a" fill-opacity="0.501961" points="158,67 157,90 163,86" />
<polygon fill="#111416" fill-opacity="0.501961" points="107,60 110,82 114,69" />
<polygon fill="#203c74" fill-opacity="0.501961" points="16,109 3,114 6,110" />
<polygon fill="#28200a" fill-opacity="0.501961" points="179,107 177,101 181,98" />
<polygon fill="#1b3c7e" fill-opacity="0.501961" points="181,113 186,111 190,112" />
<polygon fill="#8693ab" fill-opacity="0.501961" points="67,116 64,117 66,122" />
<polygon fill="#1d428b" fill-opacity="0.501961" points="57,141 50,143 62,143" />
<polygon fill="#d7ddf0" fill-opacity="0.501961" points="150,103 156,104 153,107" />
<polygon fill="#070809" fill-opacity="0.501961" points="138,49 135,42 163,44" />
<polygon fill="#00184f" fill-opacity="0.501961" points="5,141 58,142 12,113" />
<polygon fill="#171b1d" fill-opacity="0.501961" points="115,47 92,68 96,48" />
<polygon fill="#00184e" fill-opacity="0.501961" points="5,112 39,112 22,136" />
<polygon fill="#25478f" fill-opacity="0.501961" points="160,141 153,143 166,143" />
<polygon fill="#001850" fill-opacity="0.501961" points="234,113 132,141 218,142" />
<polygon fill="#000506" fill-opacity="0.501961" points="72,96 78,88 65,89" />
<polygon fill="#000000" fill-opacity="0.501961" points="31,69 32,110 69,110" />
<polygon fill="#556a8b" fill-opacity="0.501961" points="138,121 141,122 138,114" />
<polygon fill="#031d56" fill-opacity="0.501961" points="130,121 193,124 140,142" />
<polygon fill="#00184f" fill-opacity="0.501961" points="10,142 112,142 52,123" />
<polygon fill="#1c1f1f" fill-opacity="0.501961" points="139,67 118,55 138,51" />
<polygon fill="#8795b4" fill-opacity="0.501961" points="120,116 115,118 110,115" />
<polygon fill="#12171c" fill-opacity="0.501961" points="170,70 173,73 181,63" />
<polygon fill="#031f58" fill-opacity="0.501961" points="89,120 112,127 108,132" />
<polygon fill="#4b80fe" fill-opacity="0.501961" points="244,130 248,136 242,132" />
<polygon fill="#2b2519" fill-opacity="0.501961" points="126,33 116,42 92,40" />
<polygon fill="#574823" fill-opacity="0.501961" points="133,45 125,35 133,35" />
<polygon fill="#8691ae" fill-opacity="0.501961" points="108,115 111,116 112,115" />
<polygon fill="#000000" fill-opacity="0.501961" points="4,84 -16,91 3,150" />
<polygon fill="#1a160f" fill-opacity="0.501961" points="119,37 88,37 85,23" />
<polygon fill="#2c2919" fill-opacity="0.501961" points="98,110 91,104 88,111" />
<polygon fill="#00184f" fill-opacity="0.501961" points="251,113 211,133 251,129" />
<polygon fill="#00184f" fill-opacity="0.501961" points="238,115 249,133 249,119" />
<polygon fill="#173678" fill-opacity="0.501961" points="98,140 86,142 92,143" />
<polygon fill="#bac4d1" fill-opacity="0.501961" points="102,120 100,118 102,117" />
<polygon fill="#001850" fill-opacity="0.501961" points="104,142 80,122 9,141" />
<polygon fill="#14181d" fill-opacity="0.501961" points="77,63 87,64 89,87" />
<polygon fill="#00184f" fill-opacity="0.501961" points="179,113 191,112 184,140" />
<polygon fill="#687792" fill-opacity="0.501961" points="76,122 79,121 75,118" />
<polygon fill="#020200" fill-opacity="0.501961" points="183,110 197,94 225,109" />
<polygon fill="#6a7a9b" fill-opacity="0.501961" points="53,119 47,118 50,121" />
<polygon fill="#15181b" fill-opacity="0.501961" points="120,105 151,86 137,72" />
<polygon fill="#0f1316" fill-opacity="0.501961" points="187,71 174,71 173,31" />
<polygon fill="#15171a" fill-opacity="0.501961" points="151,89 140,92 133,74" />
<polygon fill="#092c74" fill-opacity="0.501961" points="56,111 45,115 31,111" />
<polygon fill="#4f4f60" fill-opacity="0.501961" points="88,55 92,56 91,50" />
<polygon fill="#425988" fill-opacity="0.501961" points="112,113 117,119 114,118" />
<polygon fill="#8b7d91" fill-opacity="0.501961" points="105,76 104,83 101,73" />
<polygon fill="#7f6562" fill-opacity="0.501961" points="112,51 115,57 118,51" />
<polygon fill="#5e6f8d" fill-opacity="0.501961" points="87,114 91,118 89,114" />
<polygon fill="#05215a" fill-opacity="0.501961" points="162,124 119,119 144,130" />
<polygon fill="#14181b" fill-opacity="0.501961" points="115,97 103,80 140,85" />
<polygon fill="#1e3e82" fill-opacity="0.501961" points="86,143 67,143 78,140" />
<polygon fill="#001850" fill-opacity="0.501961" points="67,141 116,142 84,127" />
<polygon fill="#00164d" fill-opacity="0.501961" points="84,141 69,142 61,134" />
<polygon fill="#0d1211" fill-opacity="0.501961" points="89,143 122,143 72,160" />
<polygon fill="#5d502d" fill-opacity="0.501961" points="125,68 132,62 124,64" />
<polygon fill="#00184f" fill-opacity="0.501961" points="239,125 241,142 176,142" />
<polygon fill="#5a6e90" fill-opacity="0.501961" points="127,120 129,118 121,118" />
<polygon fill="#050401" fill-opacity="0.501961" points="93,47 88,43 103,44" />
<polygon fill="#041f59" fill-opacity="0.501961" points="163,126 108,132 126,119" />
<polygon fill="#000b43" fill-opacity="0.501961" points="18,109 22,107 14,107" />
<polygon fill="#000e41" fill-opacity="0.501961" points="47,114 37,115 38,112" />
<polygon fill="#111517" fill-opacity="0.501961" points="147,108 117,110 143,95" />
<polygon fill="#7d6162" fill-opacity="0.501961" points="149,82 154,86 150,77" />
<polygon fill="#8f7368" fill-opacity="0.501961" points="149,91 152,93 157,91" />
<polygon fill="#637597" fill-opacity="0.501961" points="98,116 94,118 98,122" />
</g>
</svg>