<svg xmlns="http://www.w3.org/2000/svg" version="1.1" width="1024" height="580">
<rect x="0" y="0" width="1024" height="580" fill="#918b8f" />
<g transform="scale(4.000000) translate(0.5 0.5)">
<polygon fill="#fffbe5" fill-opacity="0.501961" points="126,110 0,-8 263,75" />
<polygon fill="#0c256b" fill-opacity="0.501961" points="-16,134 250,160 271,84" />
<polygon fill="#ffffff" fill-opacity="0.501961" points="-16,46 -7,84 117,91" />
<polygon fill="#3d2d1f" fill-opacity="0.501961" points="154,84 271,48 247,-16" />
<polygon fill="#ffffff" fill-opacity="0.501961" points="168,94 84,-12 123,116" />
<polygon fill="#33334e" fill-opacity="0.501961" points="-7,160 -6,85 102,96" />
<polygon fill="#614325" fill-opacity="0.501961" points="-14,49 2,7 113,73" />
<polygon fill="#ffffff" fill-opacity="0.501961" points="253,82 271,44 181,87" />
<polygon fill="#5b4631" fill-opacity="0.501961" points="41,-1 82,-10 102,52" />
<polygon fill="#ffffff" fill-opacity="0.501961" points="164,-16 177,0 117,46" />
<polygon fill="#ffffff" fill-opacity="0.501961" points="40,-6 93,62 -15,-12" />
<polygon fill="#b1814e" fill-opacity="0.501961" points="271,78 224,113 128,107" />
<polygon fill="#615951" fill-opacity="0.501961" points="189,-10 262,4 129,55" />
<polygon fill="#ffffff" fill-opacity="0.501961" points="-16,44 -16,89 68,78" />
<polygon fill="#624a34" fill-opacity="0.501961" points="148,11 123,-16 94,42" />
<polygon fill="#81a1e2" fill-opacity="0.501961" points="44,120 47,160 106,104" />
<polygon fill="#ffffff" fill-opacity="0.501961" points="133,113 154,46 97,74" />
<polygon fill="#fff9d3" fill-opacity="0.501961" points="185,37 200,51 148,48" />
<polygon fill="#e2bfa2" fill-opacity="0.501961" points="77,110 67,68 192,111" />
<polygon fill="#0e2b72" fill-opacity="0.501961" points="270,143 228,107 129,140" />
<polygon fill="#966442" fill-opacity="0.501961" points="150,73 195,105 162,56" />
<polygon fill="#ffffff" fill-opacity="0.501961" points="202,77 239,86 271,45" />
<polygon fill="#956e57" fill-opacity="0.501961" points="98,51 45,75 114,66" />
<polygon fill="#433b3d" fill-opacity="0.501961" points="153,102 139,92 141,127" />
<polygon fill="#8b6a48" fill-opacity="0.501961" points="82,114 101,86 27,102" />
<polygon fill="#113281" fill-opacity="0.501961" points="7,160 47,124 4,100" />
<polygon fill="#203c86" fill-opacity="0.501961" points="128,112 64,111 103,150" />
<polygon fill="#fffcf3" fill-opacity="0.501961" points="174,-6 153,-15 146,36" />
<polygon fill="#1c2f43" fill-opacity="0.501961" points="195,31 259,7 201,50" />
<polygon fill="#7b6256" fill-opacity="0.501961" points="86,28 91,-5 58,49" />
<polygon fill="#896145" fill-opacity="0.501961" points="160,52 244,57 190,76" />
<polygon fill="#ffffff" fill-opacity="0.501961" points="114,79 98,-1 146,92" />
<polygon fill="#7c6148" fill-opacity="0.501961" points="271,110 170,111 271,72" />
<polygon fill="#ffffe2" fill-opacity="0.501961" points="78,65 60,89 86,91" />
<polygon fill="#7c8fc7" fill-opacity="0.501961" points="140,151 112,146 132,111" />
<polygon fill="#ffffff" fill-opacity="0.501961" points="137,111 118,110 137,57" />
<polygon fill="#5d728f" fill-opacity="0.501961" points="186,46 217,-3 271,-5" />
<polygon fill="#ffffff" fill-opacity="0.501961" points="56,39 48,5 -10,-16" />
<polygon fill="#ffffff" fill-opacity="0.501961" points="-7,86 55,73 -16,46" />
<polygon fill="#fffae7" fill-opacity="0.501961" points="69,36 119,48 80,51" />
<polygon fill="#fffff0" fill-opacity="0.501961" points="102,111 120,101 86,105" />
<polygon fill="#96734f" fill-opacity="0.501961" points="65,85 -15,86 75,109" />
<polygon fill="#8e765d" fill-opacity="0.501961" points="92,75 45,55 117,63" />
<polygon fill="#6c6056" fill-opacity="0.501961" points="107,-16 107,38 163,-11" />
<polygon fill="#6c5a49" fill-opacity="0.501961" points="46,67 -3,-16 -13,45" />
<polygon fill="#fffffd" fill-opacity="0.501961" points="103,82 193,78 147,93" />
<polygon fill="#8e6a52" fill-opacity="0.501961" points="166,38 186,32 146,5" />
<polygon fill="#90745b" fill-opacity="0.501961" points="146,70 227,37 165,85" />
<polygon fill="#ffffff" fill-opacity="0.501961" points="189,82 262,78 271,45" />
<polygon fill="#8f725f" fill-opacity="0.501961" points="116,97 118,82 77,108" />
<polygon fill="#9096eb" fill-opacity="0.501961" points="47,39 70,37 65,21" />
<polygon fill="#7c533b" fill-opacity="0.501961" points="134,44 160,37 129,57" />
<polygon fill="#ffd7b8" fill-opacity="0.501961" points="185,30 189,52 162,66" />
<polygon fill="#fff9d8" fill-opacity="0.501961" points="91,19 95,-13 105,27" />
<polygon fill="#ffeddf" fill-opacity="0.501961" points="181,-12 149,28 131,24" />
<polygon fill="#fff5f1" fill-opacity="0.501961" points="174,109 170,115 161,95" />
<polygon fill="#ffffff" fill-opacity="0.501961" points="122,58 170,61 101,78" />
<polygon fill="#8f90d2" fill-opacity="0.501961" points="47,62 48,90 64,79" />
<polygon fill="#fdffff" fill-opacity="0.501961" points="96,77 102,92 143,66" />
<polygon fill="#57a4ff" fill-opacity="0.501961" points="250,138 243,130 241,137" />
<polygon fill="#3c5698" fill-opacity="0.501961" points="216,111 108,112 141,132" />
<polygon fill="#ffffff" fill-opacity="0.501961" points="23,143 68,144 40,152" />
<polygon fill="#7291c8" fill-opacity="0.501961" points="66,143 30,142 71,116" />
<polygon fill="#fff5dd" fill-opacity="0.501961" points="177,92 186,97 180,101" />
<polygon fill="#7b4b31" fill-opacity="0.501961" points="199,94 200,78 204,96" />
<polygon fill="#ffebd5" fill-opacity="0.501961" points="60,90 92,75 67,71" />
<polygon fill="#ffffff" fill-opacity="0.501961" points="153,79 111,30 124,101" />
<polygon fill="#956343" fill-opacity="0.501961" points="157,58 167,51 183,57" />
<polygon fill="#676159" fill-opacity="0.501961" points="148,6 74,-16 129,25" />
<polygon fill="#937a64" fill-opacity="0.501961" points="97,75 12,56 64,40" />
<polygon fill="#6e5a47" fill-opacity="0.501961" points="101,98 71,111 97,82" />
<polygon fill="#d39d84" fill-opacity="0.501961" points="121,31 147,27 139,44" />
<polygon fill="#ffffff" fill-opacity="0.501961" points="158,103 171,93 129,79" />
<polygon fill="#ffffe6" fill-opacity="0.501961" points="117,154 116,143 132,143" />
<polygon fill="#7688ad" fill-opacity="0.501961" points="240,85 209,96 202,88" />
<polygon fill="#8b715c" fill-opacity="0.501961" points="154,48 211,7 157,14" />
<polygon fill="#634e36" fill-opacity="0.501961" points="130,23 113,29 125,32" />
<polygon fill="#ffdeba" fill-opacity="0.501961" points="157,87 179,76 206,80" />
<polygon fill="#ffdfc6" fill-opacity="0.501961" points="187,49 147,55 186,35" />
<polygon fill="#78726c" fill-opacity="0.501961" points="116,-9 28,-16 61,18" />
<polygon fill="#7384ba" fill-opacity="0.501961" points="175,131 152,111 174,111" />
<polygon fill="#fffffa" fill-opacity="0.501961" points="31,-16 61,26 3,1" />
<polygon fill="#2f4265" fill-opacity="0.501961" points="53,91 26,98 48,85" />
<polygon fill="#806857" fill-opacity="0.501961" points="201,76 178,75 194,42" />
<polygon fill="#815b44" fill-opacity="0.501961" points="182,113 167,99 176,94" />
<polygon fill="#5b5047" fill-opacity="0.501961" points="11,6 33,28 -16,21" />
<polygon fill="#fffff8" fill-opacity="0.501961" points="48,84 12,57 -16,83" />
<polygon fill="#8b652f" fill-opacity="0.501961" points="251,160 255,110 266,159" />
<polygon fill="#34406c" fill-opacity="0.501961" points="76,144 118,141 117,103" />
<polygon fill="#25376b" fill-opacity="0.501961" points="252,112 249,132 175,113" />
<polygon fill="#fff1da" fill-opacity="0.501961" points="108,95 101,109 102,95" />
<polygon fill="#12181d" fill-opacity="0.501961" points="241,20 200,48 214,29" />
<polygon fill="#976145" fill-opacity="0.501961" points="177,82 193,96 169,88" />
<polygon fill="#ffffff" fill-opacity="0.501961" points="257,67 200,73 202,89" />
<polygon fill="#253970" fill-opacity="0.501961" points="137,143 186,140 147,113" />
<polygon fill="#82705f" fill-opacity="0.501961" points="70,34 100,42 74,-16" />
<polygon fill="#b08274" fill-opacity="0.501961" points="100,23 97,45 106,33" />
<polygon fill="#ffffff" fill-opacity="0.501961" points="121,71 95,28 125,56" />
<polygon fill="#264ea0" fill-opacity="0.501961" points="46,119 67,111 24,111" />
<polygon fill="#405e9d" fill-opacity="0.501961" points="20,116 33,98 5,97" />
<polygon fill="#f2b95d" fill-opacity="0.501961" points="14,85 32,83 43,90" />
<polygon fill="#7d6652" fill-opacity="0.501961" points="248,54 226,31 197,74" />
<polygon fill="#ffd7b5" fill-opacity="0.501961" points="199,93 197,78 171,80" />
<polygon fill="#ffffff" fill-opacity="0.501961" points="104,58 122,32 131,69" />
<polygon fill="#5d636f" fill-opacity="0.501961" points="248,10 181,26 194,43" />
<polygon fill="#79532b" fill-opacity="0.501961" points="-16,85 3,148 3,88" />
<polygon fill="#6d5540" fill-opacity="0.501961" points="259,109 264,76 218,111" />
<polygon fill="#89705d" fill-opacity="0.501961" points="27,111 57,85 86,109" />
<polygon fill="#ffffff" fill-opacity="0.501961" points="134,108 106,70 150,47" />
<polygon fill="#fff5dd" fill-opacity="0.501961" points="71,43 83,57 94,56" />
<polygon fill="#7d8daa" fill-opacity="0.501961" points="73,116 70,131 33,117" />
<polygon fill="#fff1d9" fill-opacity="0.501961" points="89,109 116,103 107,111" />
<polygon fill="#ffecd5" fill-opacity="0.501961" points="89,2 105,7 96,34" />
<polygon fill="#d3dce6" fill-opacity="0.501961" points="49,127 55,130 67,126" />
<polygon fill="#7a6450" fill-opacity="0.501961" points="149,69 164,83 173,66" />
<polygon fill="#8d6e5f" fill-opacity="0.501961" points="88,49 114,65 100,71" />
<polygon fill="#ffe7c8" fill-opacity="0.501961" points="125,31 156,22 149,11" />
<polygon fill="#143d9a" fill-opacity="0.501961" points="172,160 178,118 207,160" />
<polygon fill="#7d95bf" fill-opacity="0.501961" points="259,79 243,86 241,81" />
<polygon fill="#c9deff" fill-opacity="0.501961" points="82,1 120,-8 80,-16" />
<polygon fill="#ffffff" fill-opacity="0.501961" points="185,-16 150,3 161,12" />
<polygon fill="#a1afc2" fill-opacity="0.501961" points="10,102 24,100 20,106" />
<polygon fill="#e0a495" fill-opacity="0.501961" points="111,16 112,38 105,26" />
<polygon fill="#ffebd5" fill-opacity="0.501961" points="71,92 61,75 93,86" />
<polygon fill="#b3b5e5" fill-opacity="0.501961" points="69,33 45,31 60,43" />
<polygon fill="#826f5c" fill-opacity="0.501961" points="244,40 271,3 198,50" />
<polygon fill="#957e66" fill-opacity="0.501961" points="59,74 106,62 52,59" />
<polygon fill="#2e3f71" fill-opacity="0.501961" points="27,102 46,130 3,136" />
<polygon fill="#cb9038" fill-opacity="0.501961" points="-16,42 9,57 -16,50" />
<polygon fill="#ffebd2" fill-opacity="0.501961" points="143,15 127,41 127,29" />
<polygon fill="#39557e" fill-opacity="0.501961" points="42,35 58,47 56,40" />
<polygon fill="#fcd8bc" fill-opacity="0.501961" points="169,67 173,56 162,61" />
<polygon fill="#6786bf" fill-opacity="0.501961" points="120,123 137,111 119,112" />
<polygon fill="#1e2f3b" fill-opacity="0.501961" points="254,0 229,26 271,1" />
<polygon fill="#ffcfb3" fill-opacity="0.501961" points="143,37 155,25 152,18" />
<polygon fill="#826656" fill-opacity="0.501961" points="140,48 130,39 136,55" />
<polygon fill="#8f735e" fill-opacity="0.501961" points="201,88 221,107 180,111" />
<polygon fill="#ffffff" fill-opacity="0.501961" points="210,86 231,84 254,54" />
<polygon fill="#9b7859" fill-opacity="0.501961" points="165,109 137,110 138,92" />
<polygon fill="#02286f" fill-opacity="0.501961" points="79,140 90,121 96,128" />
<polygon fill="#ffffff" fill-opacity="0.501961" points="48,33 17,-16 61,21" />
<polygon fill="#876e59" fill-opacity="0.501961" points="173,55 203,77 173,68" />
<polygon fill="#814f4c" fill-opacity="0.501961" points="165,103 162,99 158,112" />
<polygon fill="#ac8dbb" fill-opacity="0.501961" points="160,16 188,-4 172,1" />
<polygon fill="#ac7e70" fill-opacity="0.501961" points="80,78 95,85 96,77" />
<polygon fill="#ffffff" fill-opacity="0.501961" points="263,51 260,77 200,75" />
<polygon fill="#876f5a" fill-opacity="0.501961" points="143,34 153,47 191,31" />
<polygon fill="#7c685c" fill-opacity="0.501961" points="189,26 181,37 149,10" />
<polygon fill="#ffe8d5" fill-opacity="0.501961" points="66,91 64,75 94,84" />
<polygon fill="#69635c" fill-opacity="0.501961" points="47,4 61,-5 61,19" />
<polygon fill="#e7b770" fill-opacity="0.501961" points="-16,-8 22,12 -7,-16" />
<polygon fill="#5c77b0" fill-opacity="0.501961" points="52,130 17,143 73,139" />
<polygon fill="#ffffff" fill-opacity="0.501961" points="156,109 155,78 141,66" />
<polygon fill="#ffeeda" fill-opacity="0.501961" points="89,57 83,37 73,36" />
<polygon fill="#546fbf" fill-opacity="0.501961" points="105,112 86,123 73,111" />
<polygon fill="#a37741" fill-opacity="0.501961" points="72,144 105,143 129,160" />
<polygon fill="#86715d" fill-opacity="0.501961" points="64,41 25,58 69,71" />
<polygon fill="#83665b" fill-opacity="0.501961" points="116,11 106,9 106,24" />
<polygon fill="#987661" fill-opacity="0.501961" points="65,62 61,85 59,64" />
<polygon fill="#8e645c" fill-opacity="0.501961" points="129,39 143,28 135,29" />
<polygon fill="#14181d" fill-opacity="0.501961" points="210,34 207,44 193,45" />
<polygon fill="#b1b6f2" fill-opacity="0.501961" points="54,65 60,78 44,86" />
<polygon fill="#91594f" fill-opacity="0.501961" points="118,93 107,97 108,103" />
<polygon fill="#b5bdff" fill-opacity="0.501961" points="70,26 63,17 58,42" />
<polygon fill="#dcd5cc" fill-opacity="0.501961" points="94,77 93,70 100,78" />
<polygon fill="#d6b683" fill-opacity="0.501961" points="49,71 43,77 51,80" />
<polygon fill="#ffddcc" fill-opacity="0.501961" points="91,103 110,111 86,110" />
<polygon fill="#fdffff" fill-opacity="0.501961" points="111,63 102,56 124,34" />
<polygon fill="#ffe4c8" fill-opacity="0.501961" points="174,54 188,50 184,56" />
<polygon fill="#4882ff" fill-opacity="0.501961" points="244,138 242,129 248,132" />
<polygon fill="#7d6e67" fill-opacity="0.501961" points="212,101 210,82 217,98" />
<polygon fill="#ffebd8" fill-opacity="0.501961" points="64,80 74,70 90,74" />
<polygon fill="#001a62" fill-opacity="0.501961" points="166,128 177,146 175,128" />
<polygon fill="#696762" fill-opacity="0.501961" points="150,11 104,7 145,-14" />
<polygon fill="#88715b" fill-opacity="0.501961" points="156,64 175,79 146,71" />
<polygon fill="#6f7b98" fill-opacity="0.501961" points="45,126 39,130 32,127" />
<polygon fill="#f6c6a7" fill-opacity="0.501961" points="195,81 200,88 172,99" />
<polygon fill="#f5dfcb" fill-opacity="0.501961" points="130,40 140,32 142,39" />
<polygon fill="#67594f" fill-opacity="0.501961" points="-16,-9 35,26 -16,35" />
<polygon fill="#203368" fill-opacity="0.501961" points="220,141 247,111 254,124" />
<polygon fill="#fffff3" fill-opacity="0.501961" points="22,15 32,-16 50,33" />
<polygon fill="#8d7460" fill-opacity="0.501961" points="169,70 229,46 190,49" />
<polygon fill="#fffff7" fill-opacity="0.501961" points="14,56 48,74 -16,89" />
<polygon fill="#a47741" fill-opacity="0.501961" points="129,160 174,143 134,143" />
<polygon fill="#786456" fill-opacity="0.501961" points="191,54 209,70 233,61" />
<polygon fill="#ffe1cb" fill-opacity="0.501961" points="180,76 165,84 196,83" />
<polygon fill="#f0dbcc" fill-opacity="0.501961" points="184,33 189,41 177,54" />
<polygon fill="#f9d1b7" fill-opacity="0.501961" points="181,37 151,61 154,48" />
<polygon fill="#fffdf0" fill-opacity="0.501961" points="162,110 171,108 167,111" />
<polygon fill="#314070" fill-opacity="0.501961" points="254,111 174,116 206,146" />
<polygon fill="#8f6839" fill-opacity="0.501961" points="-9,160 26,144 0,143" />
<polygon fill="#817264" fill-opacity="0.501961" points="101,41 53,10 80,3" />
<polygon fill="#7c6959" fill-opacity="0.501961" points="-1,50 59,68 21,15" />
<polygon fill="#ffffff" fill-opacity="0.501961" points="130,52 109,58 104,35" />
<polygon fill="#7a5730" fill-opacity="0.501961" points="265,160 271,143 206,144" />
<polygon fill="#8e7963" fill-opacity="0.501961" points="98,44 102,38 83,27" />
<polygon fill="#ffecdb" fill-opacity="0.501961" points="91,16 98,2 108,29" />
<polygon fill="#8f7965" fill-opacity="0.501961" points="100,96 59,112 58,90" />
<polygon fill="#896348" fill-opacity="0.501961" points="184,92 199,96 187,104" />
<polygon fill="#dfdedc" fill-opacity="0.501961" points="160,86 174,93 158,101" />
<polygon fill="#27376e" fill-opacity="0.501961" points="7,112 4,132 43,112" />
<polygon fill="#f9dfcc" fill-opacity="0.501961" points="102,98 113,92 107,98" />
<polygon fill="#fff6df" fill-opacity="0.501961" points="110,105 120,94 116,102" />
<polygon fill="#88694c" fill-opacity="0.501961" points="30,108 31,90 56,110" />
<polygon fill="#ffe7d2" fill-opacity="0.501961" points="93,59 75,52 70,38" />
<polygon fill="#7c6048" fill-opacity="0.501961" points="-11,84 40,95 -16,98" />
<polygon fill="#5d524b" fill-opacity="0.501961" points="97,100 80,111 66,110" />
<polygon fill="#a6927e" fill-opacity="0.501961" points="117,84 119,95 105,90" />
<polygon fill="#b67875" fill-opacity="0.501961" points="101,49 104,52 91,60" />
<polygon fill="#424d7c" fill-opacity="0.501961" points="125,121 125,135 133,116" />
<polygon fill="#ffffff" fill-opacity="0.501961" points="113,54 160,82 154,100" />
<polygon fill="#fcffff" fill-opacity="0.501961" points="136,69 97,82 108,88" />
<polygon fill="#6a79aa" fill-opacity="0.501961" points="138,139 122,143 135,113" />
<polygon fill="#7a4c35" fill-opacity="0.501961" points="159,56 165,59 161,60" />
<polygon fill="#b3745c" fill-opacity="0.501961" points="118,102 118,108 107,112" />
<polygon fill="#a67970" fill-opacity="0.501961" points="100,29 99,22 110,37" />
<polygon fill="#ffe9d4" fill-opacity="0.501961" points="111,160 99,145 137,143" />
<polygon fill="#766554" fill-opacity="0.501961" points="87,71 113,64 100,72" />
<polygon fill="#fafff6" fill-opacity="0.501961" points="83,157 30,144 65,143" />
<polygon fill="#fdffff" fill-opacity="0.501961" points="129,50 119,111 136,108" />
<polygon fill="#b2b6ed" fill-opacity="0.501961" points="54,75 44,83 57,87" />
<polygon fill="#4c5b83" fill-opacity="0.501961" points="70,118 59,124 48,122" />
<polygon fill="#f0d5c6" fill-opacity="0.501961" points="118,91 120,95 110,90" />
<polygon fill="#808ba7" fill-opacity="0.501961" points="74,115 39,116 53,122" />
<polygon fill="#fdfefe" fill-opacity="0.501961" points="114,31 128,36 110,51" />
<polygon fill="#59493b" fill-opacity="0.501961" points="254,40 216,54 238,38" />
<polygon fill="#d8b478" fill-opacity="0.501961" points="52,32 61,24 59,30" />
<polygon fill="#888688" fill-opacity="0.501961" points="256,80 271,138 255,136" />
<polygon fill="#ffe9d8" fill-opacity="0.501961" points="95,57 70,47 76,41" />
<polygon fill="#744c3d" fill-opacity="0.501961" points="176,84 170,89 175,91" />
<polygon fill="#7e6855" fill-opacity="0.501961" points="200,80 195,57 202,57" />
<polygon fill="#4160b3" fill-opacity="0.501961" points="67,110 85,125 92,112" />
<polygon fill="#2b4073" fill-opacity="0.501961" points="24,96 30,96 23,116" />
<polygon fill="#fff8ff" fill-opacity="0.501961" points="188,-16 146,-16 159,14" />
<polygon fill="#dadddc" fill-opacity="0.501961" points="107,70 91,77 102,80" />
<polygon fill="#917057" fill-opacity="0.501961" points="170,98 173,109 208,109" />
<polygon fill="#988068" fill-opacity="0.501961" points="139,92 160,104 142,102" />
<polygon fill="#ffd6bd" fill-opacity="0.501961" points="175,100 184,99 176,94" />
<polygon fill="#a08771" fill-opacity="0.501961" points="71,54 108,63 94,71" />
<polygon fill="#ffe5d0" fill-opacity="0.501961" points="108,102 93,102 110,111" />
<polygon fill="#ffdbc3" fill-opacity="0.501961" points="177,78 184,88 204,76" />
<polygon fill="#957a64" fill-opacity="0.501961" points="215,57 157,77 197,75" />
<polygon fill="#647181" fill-opacity="0.501961" points="271,-4 191,27 230,-16" />
<polygon fill="#feffff" fill-opacity="0.501961" points="112,85 157,63 142,52" />
<polygon fill="#99a1b1" fill-opacity="0.501961" points="238,81 230,90 251,79" />
<polygon fill="#51473d" fill-opacity="0.501961" points="18,49 4,49 31,38" />
<polygon fill="#766154" fill-opacity="0.501961" points="271,79 208,95 235,100" />
<polygon fill="#9e7457" fill-opacity="0.501961" points="176,51 169,51 175,62" />
<polygon fill="#d7cdc7" fill-opacity="0.501961" points="187,37 196,49 181,38" />
<polygon fill="#887361" fill-opacity="0.501961" points="39,39 77,71 9,49" />
<polygon fill="#555048" fill-opacity="0.501961" points="71,23 86,17 78,24" />
<polygon fill="#374574" fill-opacity="0.501961" points="137,160 139,113 158,115" />
<polygon fill="#817463" fill-opacity="0.501961" points="249,-16 189,-14 157,33" />
<polygon fill="#5f5345" fill-opacity="0.501961" points="72,52 63,51 53,59" />
<polygon fill="#886c58" fill-opacity="0.501961" points="206,106 201,86 196,107" />
<polygon fill="#a77d6d" fill-opacity="0.501961" points="56,57 67,51 72,31" />
<polygon fill="#594a3e" fill-opacity="0.501961" points="179,72 167,72 185,65" />
<polygon fill="#ffe6d0" fill-opacity="0.501961" points="156,23 153,16 150,32" />
<polygon fill="#56493d" fill-opacity="0.501961" points="181,66 195,65 207,56" />
<polygon fill="#907964" fill-opacity="0.501961" points="69,33 97,41 84,19" />
<polygon fill="#72665b" fill-opacity="0.501961" points="99,-3 147,11 119,31" />
<polygon fill="#5b687c" fill-opacity="0.501961" points="197,51 195,23 188,36" />
<polygon fill="#957361" fill-opacity="0.501961" points="97,84 85,91 104,94" />
<polygon fill="#dead62" fill-opacity="0.501961" points="51,34 36,26 42,33" />
<polygon fill="#55648c" fill-opacity="0.501961" points="16,99 1,114 21,110" />
<polygon fill="#8f5d43" fill-opacity="0.501961" points="191,49 187,44 196,50" />
<polygon fill="#bb8c80" fill-opacity="0.501961" points="140,42 143,28 152,21" />
<polygon fill="#874d46" fill-opacity="0.501961" points="94,52 86,50 92,54" />
<polygon fill="#e4c2a8" fill-opacity="0.501961" points="162,43 172,41 157,52" />
<polygon fill="#886e60" fill-opacity="0.501961" points="44,101 60,83 63,108" />
<polygon fill="#44577d" fill-opacity="0.501961" points="52,87 40,90 54,93" />
<polygon fill="#ffe9c8" fill-opacity="0.501961" points="186,91 196,90 194,94" />
<polygon fill="#253e76" fill-opacity="0.501961" points="71,113 63,116 52,111" />
<polygon fill="#76685b" fill-opacity="0.501961" points="271,-1 269,32 213,52" />
<polygon fill="#fdffff" fill-opacity="0.501961" points="190,42 186,38 185,33" />
<polygon fill="#fffff8" fill-opacity="0.501961" points="44,67 -16,53 29,83" />
<polygon fill="#34436d" fill-opacity="0.501961" points="40,132 47,118 48,129" />
<polygon fill="#eec280" fill-opacity="0.501961" points="20,15 21,10 27,18" />
<polygon fill="#5e6e9f" fill-opacity="0.501961" points="128,117 124,129 115,119" />
<polygon fill="#565750" fill-opacity="0.501961" points="48,5 33,-16 88,-16" />
<polygon fill="#b4c0d3" fill-opacity="0.501961" points="43,122 40,118 42,116" />
<polygon fill="#7c8ab0" fill-opacity="0.501961" points="86,111 93,116 105,112" />
<polygon fill="#fefffe" fill-opacity="0.501961" points="113,66 103,72 136,98" />
<polygon fill="#ad8883" fill-opacity="0.501961" points="111,30 113,41 103,31" />
<polygon fill="#b69ccb" fill-opacity="0.501961" points="162,10 170,11 166,15" />
<polygon fill="#fffffb" fill-opacity="0.501961" points="48,6 58,29 -1,-5" />
<polygon fill="#e4b76c" fill-opacity="0.501961" points="27,84 43,84 37,89" />
<polygon fill="#324273" fill-opacity="0.501961" points="111,143 122,122 90,118" />
<polygon fill="#293a6e" fill-opacity="0.501961" points="32,141 6,142 5,114" />
<polygon fill="#697aaa" fill-opacity="0.501961" points="32,111 27,109 19,112" />
<polygon fill="#c9af8c" fill-opacity="0.501961" points="48,69 50,75 44,85" />
<polygon fill="#728cc0" fill-opacity="0.501961" points="72,116 73,136 59,124" />
<polygon fill="#6e7391" fill-opacity="0.501961" points="80,142 138,160 114,142" />
<polygon fill="#647fb7" fill-opacity="0.501961" points="23,143 44,132 56,141" />
<polygon fill="#ffedda" fill-opacity="0.501961" points="81,37 68,44 98,50" />
<polygon fill="#ffe5d3" fill-opacity="0.501961" points="69,91 67,74 87,91" />
<polygon fill="#f5f8f8" fill-opacity="0.501961" points="154,55 151,46 130,58" />
<polygon fill="#69523d" fill-opacity="0.501961" points="253,111 253,133 257,125" />
<polygon fill="#ffeddb" fill-opacity="0.501961" points="105,12 93,23 91,8" />
<polygon fill="#665140" fill-opacity="0.501961" points="271,88 218,110 247,110" />
<polygon fill="#575651" fill-opacity="0.501961" points="187,8 239,-13 217,-16" />
<polygon fill="#f9fdfd" fill-opacity="0.501961" points="100,45 108,50 121,32" />
<polygon fill="#ffe4d1" fill-opacity="0.501961" points="71,76 94,84 59,89" />
<polygon fill="#7a6558" fill-opacity="0.501961" points="271,92 251,110 218,111" />
<polygon fill="#766658" fill-opacity="0.501961" points="143,4 124,33 115,23" />
<polygon fill="#5f554b" fill-opacity="0.501961" points="30,40 44,34 37,30" />
<polygon fill="#967c64" fill-opacity="0.501961" points="200,61 168,74 187,75" />
<polygon fill="#b6baf1" fill-opacity="0.501961" points="47,65 57,86 60,76" />
<polygon fill="#8b7867" fill-opacity="0.501961" points="171,16 181,33 217,0" />
<polygon fill="#edd8c4" fill-opacity="0.501961" points="164,95 171,106 158,96" />
<polygon fill="#977f69" fill-opacity="0.501961" points="75,53 93,74 50,63" />
<polygon fill="#81888e" fill-opacity="0.501961" points="255,0 257,70 269,34" />
<polygon fill="#5b4f41" fill-opacity="0.501961" points="57,57 37,65 47,65" />
<polygon fill="#ffe0c6" fill-opacity="0.501961" points="191,49 182,38 163,44" />
<polygon fill="#c08c95" fill-opacity="0.501961" points="100,2 89,-12 90,3" />
<polygon fill="#2d3d71" fill-opacity="0.501961" points="22,143 10,129 47,128" />
<polygon fill="#6875a5" fill-opacity="0.501961" points="160,115 164,126 177,125" />
<polygon fill="#906b60" fill-opacity="0.501961" points="91,78 97,82 86,82" />
<polygon fill="#324e92" fill-opacity="0.501961" points="215,116 233,111 199,111" />
<polygon fill="#474e50" fill-opacity="0.501961" points="149,-5 147,-16 112,7" />
<polygon fill="#eedcda" fill-opacity="0.501961" points="157,98 156,112 154,102" />
<polygon fill="#d6b195" fill-opacity="0.501961" points="189,45 185,51 184,38" />
<polygon fill="#ffe8d5" fill-opacity="0.501961" points="136,28 132,25 128,36" />
<polygon fill="#8a715f" fill-opacity="0.501961" points="55,88 50,111 92,97" />
<polygon fill="#f9ffff" fill-opacity="0.501961" points="102,38 109,39 105,35" />
<polygon fill="#abb7ca" fill-opacity="0.501961" points="58,125 62,132 49,124" />
<polygon fill="#283e78" fill-opacity="0.501961" points="6,117 4,101 11,97" />
<polygon fill="#f7fafa" fill-opacity="0.501961" points="119,48 107,58 101,54" />
<polygon fill="#ffffff" fill-opacity="0.501961" points="212,71 213,86 256,76" />
<polygon fill="#9a7d67" fill-opacity="0.501961" points="104,97 115,86 95,97" />
<polygon fill="#8b664d" fill-opacity="0.501961" points="169,100 174,96 182,110" />
<polygon fill="#ffe8cf" fill-opacity="0.501961" points="166,107 164,98 174,110" />
<polygon fill="#ffe9d5" fill-opacity="0.501961" points="91,4 105,30 105,12" />
<polygon fill="#9b806b" fill-opacity="0.501961" points="88,36 84,36 90,43" />
<polygon fill="#183069" fill-opacity="0.501961" points="253,140 248,139 250,124" />
<polygon fill="#906e56" fill-opacity="0.501961" points="168,67 158,64 146,72" />
<polygon fill="#3a3835" fill-opacity="0.501961" points="-16,27 -13,35 13,17" />
<polygon fill="#938579" fill-opacity="0.501961" points="207,-3 186,6 190,-1" />
<polygon fill="#c1c4c6" fill-opacity="0.501961" points="102,71 98,85 96,76" />
<polygon fill="#ffe5d1" fill-opacity="0.501961" points="144,27 135,22 155,16" />
<polygon fill="#a792b1" fill-opacity="0.501961" points="176,7 163,15 180,-6" />
<polygon fill="#667fb4" fill-opacity="0.501961" points="72,143 50,140 65,127" />
<polygon fill="#d9b070" fill-opacity="0.501961" points="-4,85 8,88 18,84" />
<polygon fill="#ffefd9" fill-opacity="0.501961" points="111,28 111,24 109,28" />
<polygon fill="#745e51" fill-opacity="0.501961" points="24,89 -16,104 2,87" />
<polygon fill="#54473b" fill-opacity="0.501961" points="165,72 162,77 155,77" />
<polygon fill="#e3c7b6" fill-opacity="0.501961" points="144,42 127,41 138,33" />
<polygon fill="#fffff3" fill-opacity="0.501961" points="-8,85 -11,50 42,82" />
<polygon fill="#ffe6d3" fill-opacity="0.501961" points="63,75 90,86 76,92" />
<polygon fill="#ffffff" fill-opacity="0.501961" points="201,76 210,86 203,87" />
</g>
</svg>