<svg xmlns="http://www.w3.org/2000/svg" version="1.1" width="1024" height="580">
<rect x="0" y="0" width="1024" height="580" fill="#090e1a" />
<g transform="scale(4.000000) translate(0.5 0.5)">
<polygon fill="#033294" fill-opacity="0.501961" points="96,160 271,112 -16,111" />
<polygon fill="#043193" fill-opacity="0.501961" points="256,118 248,160 138,149" />
<polygon fill="#102f72" fill-opacity="0.501961" points="5,93 3,148 95,140" />
<polygon fill="#d9bcc6" fill-opacity="0.501961" points="122,79 129,62 134,80" />
<polygon fill="#050000" fill-opacity="0.501961" points="255,118 -16,-1 254,0" />
<polygon fill="#6c7898" fill-opacity="0.501961" points="7,106 31,85 28,107" />
<polygon fill="#090300" fill-opacity="0.501961" points="30,110 -14,-16 162,109" />
<polygon fill="#71baff" fill-opacity="0.501961" points="248,137 241,138 245,127" />
<polygon fill="#050400" fill-opacity="0.501961" points="254,-16 96,109 256,110" />
<polygon fill="#29271c" fill-opacity="0.501961" points="184,57 205,52 204,110" />
<polygon fill="#7d6a6f" fill-opacity="0.501961" points="134,65 128,85 121,63" />
<polygon fill="#021a4c" fill-opacity="0.501961" points="22,160 -3,112 177,144" />
<polygon fill="#0a0a03" fill-opacity="0.501961" points="46,97 -16,-16 248,11" />
<polygon fill="#8ea2bf" fill-opacity="0.501961" points="11,100 12,108 26,102" />
<polygon fill="#291f0b" fill-opacity="0.501961" points="-16,21 38,98 -16,93" />
<polygon fill="#082460" fill-opacity="0.501961" points="22,143 23,86 44,142" />
<polygon fill="#664c42" fill-opacity="0.501961" points="20,99 33,85 21,84" />
<polygon fill="#000000" fill-opacity="0.501961" points="116,94 37,57 30,111" />
<polygon fill="#001951" fill-opacity="0.501961" points="217,111 200,160 271,110" />
<polygon fill="#000000" fill-opacity="0.501961" points="254,-12 199,4 255,114" />
<polygon fill="#0a0000" fill-opacity="0.501961" points="157,143 152,160 90,144" />
<polygon fill="#110800" fill-opacity="0.501961" points="3,160 3,92 -16,122" />
<polygon fill="#080000" fill-opacity="0.501961" points="237,160 183,143 254,143" />
<polygon fill="#4b4f45" fill-opacity="0.501961" points="271,98 255,60 255,155" />
<polygon fill="#0f0e0b" fill-opacity="0.501961" points="212,-16 210,77 65,-13" />
<polygon fill="#1e170c" fill-opacity="0.501961" points="140,87 128,69 165,78" />
<polygon fill="#000000" fill-opacity="0.501961" points="212,-16 253,106 211,109" />
<polygon fill="#8586aa" fill-opacity="0.501961" points="124,84 125,72 133,78" />
<polygon fill="#070000" fill-opacity="0.501961" points="70,160 131,143 23,143" />
<polygon fill="#0e0c09" fill-opacity="0.501961" points="20,82 115,38 -16,9" />
<polygon fill="#526482" fill-opacity="0.501961" points="56,116 35,118 46,120" />
<polygon fill="#050500" fill-opacity="0.501961" points="19,96 21,66 3,97" />
<polygon fill="#070100" fill-opacity="0.501961" points="129,143 183,160 238,143" />
<polygon fill="#0a0200" fill-opacity="0.501961" points="259,123 253,140 253,108" />
<polygon fill="#0e0d0e" fill-opacity="0.501961" points="93,109 136,77 185,110" />
<polygon fill="#0c2a67" fill-opacity="0.501961" points="4,158 26,110 5,106" />
<polygon fill="#694e4b" fill-opacity="0.501961" points="124,75 125,62 133,66" />
<polygon fill="#4a514e" fill-opacity="0.501961" points="255,56 271,59 255,3" />
<polygon fill="#031f5c" fill-opacity="0.501961" points="30,95 26,143 5,141" />
<polygon fill="#06225e" fill-opacity="0.501961" points="180,110 246,130 253,112" />
<polygon fill="#000000" fill-opacity="0.501961" points="135,46 108,8 72,25" />
<polygon fill="#050500" fill-opacity="0.501961" points="187,49 133,50 133,76" />
<polygon fill="#050000" fill-opacity="0.501961" points="-3,143 71,144 8,160" />
<polygon fill="#00246a" fill-opacity="0.501961" points="12,99 23,96 34,101" />
<polygon fill="#122f6a" fill-opacity="0.501961" points="156,118 183,110 132,110" />
<polygon fill="#4178ff" fill-opacity="0.501961" points="246,139 249,131 241,133" />
<polygon fill="#282721" fill-opacity="0.501961" points="208,43 194,57 195,77" />
<polygon fill="#231d13" fill-opacity="0.501961" points="64,16 47,8 30,18" />
<polygon fill="#123679" fill-opacity="0.501961" points="4,114 10,100 4,97" />
<polygon fill="#8f9db4" fill-opacity="0.501961" points="10,100 10,104 20,107" />
<polygon fill="#00164f" fill-opacity="0.501961" points="226,114 252,116 250,133" />
<polygon fill="#beb9a6" fill-opacity="0.501961" points="124,78 131,76 122,75" />
<polygon fill="#0d0b0b" fill-opacity="0.501961" points="123,56 121,94 19,25" />
<polygon fill="#1f1a11" fill-opacity="0.501961" points="91,46 110,34 81,34" />
<polygon fill="#3b3654" fill-opacity="0.501961" points="129,84 129,79 122,80" />
<polygon fill="#493834" fill-opacity="0.501961" points="33,99 31,84 22,96" />
<polygon fill="#27437a" fill-opacity="0.501961" points="17,105 10,112 37,112" />
<polygon fill="#0e2b66" fill-opacity="0.501961" points="64,120 97,110 45,110" />
<polygon fill="#272820" fill-opacity="0.501961" points="11,56 13,79 -1,51" />
<polygon fill="#000000" fill-opacity="0.501961" points="63,5 18,-12 18,14" />
<polygon fill="#041f59" fill-opacity="0.501961" points="141,142 67,112 4,143" />
<polygon fill="#000000" fill-opacity="0.501961" points="6,78 -16,79 7,63" />
<polygon fill="#000000" fill-opacity="0.501961" points="115,94 82,109 14,59" />
<polygon fill="#193771" fill-opacity="0.501961" points="101,110 109,115 124,110" />
<polygon fill="#a4b0c3" fill-opacity="0.501961" points="19,106 18,104 22,101" />
<polygon fill="#8a706d" fill-opacity="0.501961" points="121,68 132,68 126,63" />
<polygon fill="#000000" fill-opacity="0.501961" points="200,90 182,90 197,110" />
<polygon fill="#7b8ca7" fill-opacity="0.501961" points="50,116 52,115 51,118" />
<polygon fill="#001a54" fill-opacity="0.501961" points="98,113 163,130 191,112" />
<polygon fill="#201b11" fill-opacity="0.501961" points="59,34 49,44 29,35" />
<polygon fill="#231c13" fill-opacity="0.501961" points="170,15 144,16 166,7" />
<polygon fill="#011b51" fill-opacity="0.501961" points="46,113 46,135 62,144" />
<polygon fill="#001851" fill-opacity="0.501961" points="238,142 249,112 145,142" />
<polygon fill="#0e0b09" fill-opacity="0.501961" points="188,110 167,103 194,29" />
<polygon fill="#110f06" fill-opacity="0.501961" points="19,71 18,-16 -16,15" />
<polygon fill="#0b0b0b" fill-opacity="0.501961" points="47,110 34,64 31,110" />
<polygon fill="#3b2a2a" fill-opacity="0.501961" points="128,68 127,72 121,73" />
<polygon fill="#0d0c0b" fill-opacity="0.501961" points="152,30 105,69 146,56" />
<polygon fill="#00194d" fill-opacity="0.501961" points="8,113 14,124 47,112" />
<polygon fill="#000000" fill-opacity="0.501961" points="212,109 258,-16 212,-14" />
<polygon fill="#1a1801" fill-opacity="0.501961" points="3,104 3,123 -15,126" />
<polygon fill="#123173" fill-opacity="0.501961" points="248,127 253,139 252,115" />
<polygon fill="#092666" fill-opacity="0.501961" points="143,136 167,142 123,143" />
<polygon fill="#00164e" fill-opacity="0.501961" points="104,141 137,130 172,142" />
<polygon fill="#001a53" fill-opacity="0.501961" points="52,112 57,127 86,114" />
<polygon fill="#0c0a04" fill-opacity="0.501961" points="199,67 211,110 211,61" />
<polygon fill="#070705" fill-opacity="0.501961" points="78,42 123,77 120,53" />
<polygon fill="#0a2459" fill-opacity="0.501961" points="16,101 32,131 22,127" />
<polygon fill="#0c0c0e" fill-opacity="0.501961" points="52,8 79,7 74,52" />
<polygon fill="#163980" fill-opacity="0.501961" points="138,111 110,111 124,115" />
<polygon fill="#254d9a" fill-opacity="0.501961" points="188,113 181,111 193,111" />
<polygon fill="#000000" fill-opacity="0.501961" points="251,109 255,-6 211,110" />
<polygon fill="#201e13" fill-opacity="0.501961" points="207,111 198,111 206,78" />
<polygon fill="#062057" fill-opacity="0.501961" points="203,112 123,112 201,135" />
<polygon fill="#20458d" fill-opacity="0.501961" points="15,100 13,97 8,97" />
<polygon fill="#0a0b0c" fill-opacity="0.501961" points="131,104 124,80 78,59" />
<polygon fill="#142e67" fill-opacity="0.501961" points="195,129 207,112 193,111" />
<polygon fill="#afa4bd" fill-opacity="0.501961" points="126,76 119,79 129,78" />
<polygon fill="#001850" fill-opacity="0.501961" points="252,131 201,114 250,114" />
<polygon fill="#5a8fff" fill-opacity="0.501961" points="249,137 244,131 241,134" />
<polygon fill="#16377d" fill-opacity="0.501961" points="36,143 47,140 55,143" />
<polygon fill="#001850" fill-opacity="0.501961" points="42,124 103,141 19,142" />
<polygon fill="#0a2359" fill-opacity="0.501961" points="62,136 23,118 111,126" />
<polygon fill="#072159" fill-opacity="0.501961" points="16,97 20,100 10,99" />
<polygon fill="#715f5f" fill-opacity="0.501961" points="130,81 131,84 128,84" />
<polygon fill="#110e05" fill-opacity="0.501961" points="188,72 215,-14 188,-16" />
<polygon fill="#394346" fill-opacity="0.501961" points="255,110 257,160 271,160" />
<polygon fill="#12367c" fill-opacity="0.501961" points="24,110 29,99 29,109" />
<polygon fill="#050504" fill-opacity="0.501961" points="48,41 81,79 10,85" />
<polygon fill="#1c4087" fill-opacity="0.501961" points="55,111 51,114 44,111" />
<polygon fill="#001c55" fill-opacity="0.501961" points="62,112 135,113 97,125" />
<polygon fill="#21241b" fill-opacity="0.501961" points="12,93 11,85 -10,78" />
<polygon fill="#020100" fill-opacity="0.501961" points="191,8 166,31 148,29" />
<polygon fill="#000000" fill-opacity="0.501961" points="179,57 155,59 177,87" />
<polygon fill="#080904" fill-opacity="0.501961" points="197,52 213,44 193,-8" />
<polygon fill="#1c1810" fill-opacity="0.501961" points="2,60 1,-16 -16,26" />
<polygon fill="#0e0d0a" fill-opacity="0.501961" points="148,73 129,48 95,42" />
<polygon fill="#17397f" fill-opacity="0.501961" points="74,111 58,111 70,115" />
<polygon fill="#0b2b6b" fill-opacity="0.501961" points="229,118 251,111 208,111" />
<polygon fill="#00154c" fill-opacity="0.501961" points="250,112 208,112 206,124" />
<polygon fill="#001a50" fill-opacity="0.501961" points="59,121 74,112 49,112" />
<polygon fill="#45597e" fill-opacity="0.501961" points="33,118 41,116 35,120" />
<polygon fill="#113174" fill-opacity="0.501961" points="85,117 106,111 75,111" />
<polygon fill="#021c55" fill-opacity="0.501961" points="114,126 62,112 162,112" />
<polygon fill="#00154a" fill-opacity="0.501961" points="25,108 31,109 24,99" />
<polygon fill="#001b51" fill-opacity="0.501961" points="249,121 248,136 255,145" />
<polygon fill="#092663" fill-opacity="0.501961" points="220,134 253,143 188,143" />
<polygon fill="#040500" fill-opacity="0.501961" points="12,95 -2,98 -16,82" />
<polygon fill="#090804" fill-opacity="0.501961" points="136,91 183,70 152,96" />
<polygon fill="#00164d" fill-opacity="0.501961" points="243,142 185,142 224,131" />
<polygon fill="#201a11" fill-opacity="0.501961" points="148,86 140,82 156,72" />
<polygon fill="#0b0a0e" fill-opacity="0.501961" points="145,-3 158,52 110,22" />
<polygon fill="#102e6e" fill-opacity="0.501961" points="97,143 84,138 75,143" />
<polygon fill="#001b50" fill-opacity="0.501961" points="47,113 48,118 30,118" />
<polygon fill="#001950" fill-opacity="0.501961" points="75,129 106,142 39,141" />
<polygon fill="#000000" fill-opacity="0.501961" points="101,23 112,44 135,42" />
<polygon fill="#050703" fill-opacity="0.501961" points="12,45 0,53 4,2" />
<polygon fill="#1e4086" fill-opacity="0.501961" points="178,143 184,143 177,141" />
<polygon fill="#000000" fill-opacity="0.501961" points="-16,140 -16,92 12,160" />
<polygon fill="#000000" fill-opacity="0.501961" points="63,74 39,101 46,108" />
<polygon fill="#041d54" fill-opacity="0.501961" points="23,119 6,142 50,119" />
<polygon fill="#0a2766" fill-opacity="0.501961" points="124,143 98,143 101,135" />
<polygon fill="#203f7f" fill-opacity="0.501961" points="4,116 5,130 7,122" />
<polygon fill="#001850" fill-opacity="0.501961" points="94,130 70,142 126,141" />
<polygon fill="#533f35" fill-opacity="0.501961" points="26,86 20,85 23,95" />
<polygon fill="#0b265c" fill-opacity="0.501961" points="9,100 4,117 9,127" />
<polygon fill="#001851" fill-opacity="0.501961" points="15,140 5,139 5,123" />
<polygon fill="#0c0c0f" fill-opacity="0.501961" points="38,85 32,67 18,82" />
<polygon fill="#000000" fill-opacity="0.501961" points="195,111 188,106 199,92" />
<polygon fill="#2a2923" fill-opacity="0.501961" points="193,85 196,88 205,81" />
<polygon fill="#020200" fill-opacity="0.501961" points="165,8 182,2 160,-16" />
<polygon fill="#14100c" fill-opacity="0.501961" points="182,30 192,57 192,0" />
<polygon fill="#18387a" fill-opacity="0.501961" points="166,140 158,143 175,143" />
<polygon fill="#001950" fill-opacity="0.501961" points="160,129 126,142 195,141" />
<polygon fill="#000000" fill-opacity="0.501961" points="84,110 64,60 88,80" />
<polygon fill="#1c180f" fill-opacity="0.501961" points="47,9 35,10 36,20" />
<polygon fill="#000000" fill-opacity="0.501961" points="82,37 86,12 102,28" />
<polygon fill="#070400" fill-opacity="0.501961" points="237,144 256,149 266,143" />
<polygon fill="#1e1911" fill-opacity="0.501961" points="81,43 107,42 107,34" />
<polygon fill="#73829d" fill-opacity="0.501961" points="16,103 10,106 21,107" />
<polygon fill="#4c3a3c" fill-opacity="0.501961" points="122,66 123,73 131,72" />
<polygon fill="#5489ff" fill-opacity="0.501961" points="244,137 246,132 241,136" />
<polygon fill="#00144b" fill-opacity="0.501961" points="11,109 18,107 6,107" />
<polygon fill="#24231c" fill-opacity="0.501961" points="205,63 205,54 192,64" />
<polygon fill="#0b0b0d" fill-opacity="0.501961" points="127,83 161,109 105,109" />
<polygon fill="#0b0b0c" fill-opacity="0.501961" points="64,2 47,74 88,44" />
<polygon fill="#000000" fill-opacity="0.501961" points="38,3 21,22 17,-16" />
<polygon fill="#7f83a7" fill-opacity="0.501961" points="124,80 129,73 125,73" />
<polygon fill="#0c0a0c" fill-opacity="0.501961" points="153,66 187,96 167,109" />
<polygon fill="#070700" fill-opacity="0.501961" points="258,129 253,113 253,128" />
<polygon fill="#080300" fill-opacity="0.501961" points="182,143 157,143 173,157" />
<polygon fill="#092867" fill-opacity="0.501961" points="236,143 250,137 248,143" />
<polygon fill="#0d0c0c" fill-opacity="0.501961" points="112,57 74,71 124,73" />
<polygon fill="#0c0b0e" fill-opacity="0.501961" points="32,17 7,41 38,59" />
<polygon fill="#95a3ba" fill-opacity="0.501961" points="21,106 23,102 20,102" />
<polygon fill="#010202" fill-opacity="0.501961" points="58,33 34,23 57,19" />
<polygon fill="#131109" fill-opacity="0.501961" points="7,27 17,-6 16,60" />
<polygon fill="#1c190f" fill-opacity="0.501961" points="2,80 -3,143 -16,103" />
<polygon fill="#09090c" fill-opacity="0.501961" points="166,29 186,17 190,78" />
<polygon fill="#0f2e6e" fill-opacity="0.501961" points="2,143 8,139 18,142" />
<polygon fill="#2c343b" fill-opacity="0.501961" points="255,71 268,112 255,148" />
<polygon fill="#0d265c" fill-opacity="0.501961" points="118,121 141,129 95,130" />
<polygon fill="#030301" fill-opacity="0.501961" points="88,45 115,41 87,60" />
<polygon fill="#072057" fill-opacity="0.501961" points="23,132 16,103 15,133" />
<polygon fill="#202019" fill-opacity="0.501961" points="12,56 0,49 12,81" />
<polygon fill="#060403" fill-opacity="0.501961" points="200,65 198,81 207,78" />
<polygon fill="#080703" fill-opacity="0.501961" points="60,143 75,148 93,143" />
<polygon fill="#0e1010" fill-opacity="0.501961" points="45,111 30,111 30,97" />
<polygon fill="#596c8f" fill-opacity="0.501961" points="46,118 43,117 42,119" />
<polygon fill="#001950" fill-opacity="0.501961" points="33,142 30,130 4,141" />
<polygon fill="#18140d" fill-opacity="0.501961" points="205,46 209,36 204,22" />
<polygon fill="#19387b" fill-opacity="0.501961" points="218,142 225,143 224,141" />
<polygon fill="#937978" fill-opacity="0.501961" points="124,65 133,67 130,64" />
<polygon fill="#041e56" fill-opacity="0.501961" points="214,112 147,112 227,143" />
<polygon fill="#001952" fill-opacity="0.501961" points="216,115 209,142 242,141" />
<polygon fill="#130f09" fill-opacity="0.501961" points="14,97 23,97 15,94" />
<polygon fill="#11110b" fill-opacity="0.501961" points="162,35 170,37 164,62" />
<polygon fill="#22221c" fill-opacity="0.501961" points="199,80 196,54 191,81" />
<polygon fill="#424947" fill-opacity="0.501961" points="255,-4 271,-16 263,51" />
<polygon fill="#0e265d" fill-opacity="0.501961" points="198,130 168,129 206,119" />
<polygon fill="#1f4086" fill-opacity="0.501961" points="15,143 23,143 21,141" />
<polygon fill="#0d0d0e" fill-opacity="0.501961" points="116,103 102,96 88,100" />
<polygon fill="#0b0a0b" fill-opacity="0.501961" points="79,-4 119,-16 101,23" />
<polygon fill="#070604" fill-opacity="0.501961" points="131,80 134,95 152,98" />
<polygon fill="#0f2d6b" fill-opacity="0.501961" points="73,142 58,143 64,138" />
<polygon fill="#214288" fill-opacity="0.501961" points="195,143 190,141 184,143" />
<polygon fill="#001a51" fill-opacity="0.501961" points="160,142 172,131 195,142" />
<polygon fill="#050401" fill-opacity="0.501961" points="12,154 26,144 3,143" />
<polygon fill="#001a51" fill-opacity="0.501961" points="93,142 38,141 63,133" />
<polygon fill="#0f275c" fill-opacity="0.501961" points="17,130 42,130 29,123" />
<polygon fill="#011b53" fill-opacity="0.501961" points="93,142 51,130 11,142" />
<polygon fill="#19170d" fill-opacity="0.501961" points="49,81 52,80 52,73" />
<polygon fill="#112960" fill-opacity="0.501961" points="157,125 133,128 147,130" />
<polygon fill="#010200" fill-opacity="0.501961" points="14,71 28,60 61,67" />
<polygon fill="#b7a79c" fill-opacity="0.501961" points="130,75 135,79 130,77" />
<polygon fill="#0a090a" fill-opacity="0.501961" points="143,74 133,88 133,43" />
<polygon fill="#0b0b0d" fill-opacity="0.501961" points="87,74 126,62 57,49" />
<polygon fill="#000000" fill-opacity="0.501961" points="183,67 176,52 154,73" />
<polygon fill="#072057" fill-opacity="0.501961" points="24,136 83,113 100,135" />
<polygon fill="#1c3c7e" fill-opacity="0.501961" points="201,115 212,111 196,111" />
<polygon fill="#001b53" fill-opacity="0.501961" points="244,112 188,112 240,126" />
<polygon fill="#031e57" fill-opacity="0.501961" points="106,127 154,112 59,113" />
<polygon fill="#22211b" fill-opacity="0.501961" points="199,96 203,82 204,108" />
<polygon fill="#294479" fill-opacity="0.501961" points="22,110 29,112 29,109" />
<polygon fill="#1d180f" fill-opacity="0.501961" points="32,42 57,42 54,34" />
<polygon fill="#1e4389" fill-opacity="0.501961" points="240,111 253,111 247,113" />
<polygon fill="#001a53" fill-opacity="0.501961" points="207,131 255,112 226,114" />
<polygon fill="#000000" fill-opacity="0.501961" points="190,110 199,108 197,89" />
<polygon fill="#173678" fill-opacity="0.501961" points="126,143 117,140 118,143" />
<polygon fill="#001a52" fill-opacity="0.501961" points="139,142 126,130 86,142" />
<polygon fill="#133171" fill-opacity="0.501961" points="205,143 217,143 206,139" />
<polygon fill="#001a52" fill-opacity="0.501961" points="245,126 232,142 185,141" />
<polygon fill="#355289" fill-opacity="0.501961" points="9,111 10,109 5,109" />
<polygon fill="#2c4a8b" fill-opacity="0.501961" points="7,122 4,121 4,115" />
<polygon fill="#0e3376" fill-opacity="0.501961" points="30,98 19,100 22,97" />
<polygon fill="#040500" fill-opacity="0.501961" points="60,108 30,98 90,96" />
<polygon fill="#001951" fill-opacity="0.501961" points="251,137 252,112 241,112" />
<polygon fill="#274175" fill-opacity="0.501961" points="26,111 13,112 18,109" />
<polygon fill="#183778" fill-opacity="0.501961" points="240,143 234,140 224,143" />
<polygon fill="#060703" fill-opacity="0.501961" points="12,8 13,50 1,51" />
<polygon fill="#001a53" fill-opacity="0.501961" points="186,141 236,142 249,115" />
<polygon fill="#0c245a" fill-opacity="0.501961" points="5,118 17,124 9,131" />
<polygon fill="#221f12" fill-opacity="0.501961" points="205,37 200,37 196,42" />
<polygon fill="#17160a" fill-opacity="0.501961" points="80,36 64,43 81,42" />
<polygon fill="#0d265e" fill-opacity="0.501961" points="49,126 66,133 90,127" />
<polygon fill="#0f0d04" fill-opacity="0.501961" points="186,94 187,57 195,89" />
<polygon fill="#131209" fill-opacity="0.501961" points="63,72 66,67 67,84" />
<polygon fill="#1b170f" fill-opacity="0.501961" points="149,9 172,8 160,17" />
<polygon fill="#000000" fill-opacity="0.501961" points="151,72 139,58 151,61" />
<polygon fill="#00174e" fill-opacity="0.501961" points="247,142 227,142 232,134" />
<polygon fill="#4c6286" fill-opacity="0.501961" points="50,122 49,121 51,118" />
<polygon fill="#000000" fill-opacity="0.501961" points="211,-16 254,112 255,-16" />
<polygon fill="#021c55" fill-opacity="0.501961" points="49,120 55,131 27,122" />
<polygon fill="#001a52" fill-opacity="0.501961" points="37,113 44,116 32,117" />
<polygon fill="#000000" fill-opacity="0.501961" points="254,141 252,160 259,160" />
<polygon fill="#1f1a0f" fill-opacity="0.501961" points="-7,41 -8,32 7,39" />
<polygon fill="#010100" fill-opacity="0.501961" points="188,16 174,7 178,22" />
<polygon fill="#15387e" fill-opacity="0.501961" points="176,111 158,111 170,115" />
<polygon fill="#001a52" fill-opacity="0.501961" points="157,112 176,118 187,112" />
<polygon fill="#274175" fill-opacity="0.501961" points="132,110 124,111 131,112" />
<polygon fill="#1a3a7b" fill-opacity="0.501961" points="252,143 252,140 244,142" />
<polygon fill="#0c0b0d" fill-opacity="0.501961" points="87,105 168,94 130,111" />
<polygon fill="#183779" fill-opacity="0.501961" points="79,143 63,143 74,140" />
<polygon fill="#204085" fill-opacity="0.501961" points="147,143 141,141 136,143" />
<polygon fill="#001950" fill-opacity="0.501961" points="72,131 84,142 55,142" />
<polygon fill="#15140e" fill-opacity="0.501961" points="54,96 53,110 57,111" />
<polygon fill="#001850" fill-opacity="0.501961" points="148,140 131,135 140,142" />
<polygon fill="#0c0b0d" fill-opacity="0.501961" points="25,72 20,84 46,83" />
<polygon fill="#18160b" fill-opacity="0.501961" points="105,67 94,67 108,61" />
<polygon fill="#404745" fill-opacity="0.501961" points="255,56 271,96 271,56" />
<polygon fill="#062257" fill-opacity="0.501961" points="6,102 9,112 9,101" />
<polygon fill="#1a160e" fill-opacity="0.501961" points="140,87 161,81 138,77" />
<polygon fill="#021b54" fill-opacity="0.501961" points="48,117 47,133 53,137" />
<polygon fill="#0b0b0c" fill-opacity="0.501961" points="167,80 183,72 147,73" />
<polygon fill="#030200" fill-opacity="0.501961" points="3,113 4,110 -3,110" />
<polygon fill="#0b0a0d" fill-opacity="0.501961" points="124,79 111,80 119,104" />
<polygon fill="#141309" fill-opacity="0.501961" points="40,6 41,-16 30,-13" />
<polygon fill="#0b0b0d" fill-opacity="0.501961" points="124,6 122,34 144,40" />
<polygon fill="#1a305f" fill-opacity="0.501961" points="15,97 17,100 17,103" />
<polygon fill="#0f275e" fill-opacity="0.501961" points="208,114 195,115 194,130" />
<polygon fill="#001d55" fill-opacity="0.501961" points="18,108 20,107 25,111" />
<polygon fill="#011b51" fill-opacity="0.501961" points="46,115 48,116 43,118" />
<polygon fill="#aca297" fill-opacity="0.501961" points="131,75 130,78 121,78" />
<polygon fill="#0c0a0d" fill-opacity="0.501961" points="88,84 96,73 121,78" />
<polygon fill="#1e1b11" fill-opacity="0.501961" points="7,27 -16,27 -16,14" />
<polygon fill="#07090b" fill-opacity="0.501961" points="141,78 131,73 148,74" />
<polygon fill="#1f1d12" fill-opacity="0.501961" points="9,15 -13,9 -6,4" />
<polygon fill="#0b0a0d" fill-opacity="0.501961" points="184,111 169,106 185,70" />
<polygon fill="#000000" fill-opacity="0.501961" points="43,88 48,69 54,95" />
<polygon fill="#060503" fill-opacity="0.501961" points="5,66 6,81 -16,63" />
<polygon fill="#061e56" fill-opacity="0.501961" points="163,125 124,135 189,136" />
<polygon fill="#24241c" fill-opacity="0.501961" points="6,76 12,79 6,70" />
<polygon fill="#021d57" fill-opacity="0.501961" points="77,124 100,113 49,113" />
<polygon fill="#050503" fill-opacity="0.501961" points="117,8 141,6 130,-4" />
<polygon fill="#1c1b0f" fill-opacity="0.501961" points="199,4 207,-2 192,4" />
<polygon fill="#131309" fill-opacity="0.501961" points="156,64 154,73 152,54" />
<polygon fill="#1d1a0e" fill-opacity="0.501961" points="60,-16 53,-16 52,6" />
<polygon fill="#211f15" fill-opacity="0.501961" points="9,3 -8,-16 -16,-9" />
<polygon fill="#13130c" fill-opacity="0.501961" points="76,107 77,99 80,109" />
<polygon fill="#000000" fill-opacity="0.501961" points="43,93 84,72 86,99" />
<polygon fill="#080603" fill-opacity="0.501961" points="206,80 207,110 211,94" />
<polygon fill="#021b53" fill-opacity="0.501961" points="70,142 106,132 57,130" />
<polygon fill="#001043" fill-opacity="0.501961" points="247,142 242,140 249,139" />
<polygon fill="#000000" fill-opacity="0.501961" points="59,8 45,6 65,3" />
<polygon fill="#000000" fill-opacity="0.501961" points="104,90 109,99 117,89" />
<polygon fill="#3157a7" fill-opacity="0.501961" points="145,112 150,112 148,111" />
<polygon fill="#1d170f" fill-opacity="0.501961" points="36,11 56,10 53,17" />
<polygon fill="#0c0a0d" fill-opacity="0.501961" points="32,78 33,105 43,82" />
<polygon fill="#0a090b" fill-opacity="0.501961" points="149,111 111,87 132,90" />
<polygon fill="#000000" fill-opacity="0.501961" points="95,35 123,28 74,24" />
<polygon fill="#12110a" fill-opacity="0.501961" points="63,99 60,101 68,111" />
<polygon fill="#201f14" fill-opacity="0.501961" points="205,12 198,15 199,12" />
<polygon fill="#1d3e86" fill-opacity="0.501961" points="250,116 252,118 252,114" />
<polygon fill="#1c3e83" fill-opacity="0.501961" points="38,111 43,111 39,114" />
<polygon fill="#040400" fill-opacity="0.501961" points="155,24 166,20 149,18" />
<polygon fill="#584c55" fill-opacity="0.501961" points="130,80 129,84 126,84" />
<polygon fill="#2c4881" fill-opacity="0.501961" points="6,109 8,112 12,109" />
<polygon fill="#001a53" fill-opacity="0.501961" points="206,113 228,137 251,117" />
<polygon fill="#000201" fill-opacity="0.501961" points="194,14 204,0 203,10" />
<polygon fill="#1c1913" fill-opacity="0.501961" points="4,124 -5,53 -16,116" />
<polygon fill="#544038" fill-opacity="0.501961" points="32,89 20,92 22,88" />
<polygon fill="#010100" fill-opacity="0.501961" points="65,62 68,80 78,66" />
<polygon fill="#000000" fill-opacity="0.501961" points="134,39 120,46 105,33" />
<polygon fill="#153577" fill-opacity="0.501961" points="5,127 7,140 4,136" />
<polygon fill="#0a090b" fill-opacity="0.501961" points="45,99 32,90 36,71" />
<polygon fill="#0a0a0b" fill-opacity="0.501961" points="127,94 127,83 144,101" />
<polygon fill="#001951" fill-opacity="0.501961" points="24,142 5,127 5,140" />
<polygon fill="#070603" fill-opacity="0.501961" points="206,32 213,28 206,51" />
<polygon fill="#4b363b" fill-opacity="0.501961" points="129,68 132,67 127,71" />
<polygon fill="#031e57" fill-opacity="0.501961" points="84,112 57,112 47,128" />
<polygon fill="#17140c" fill-opacity="0.501961" points="188,31 202,26 192,33" />
<polygon fill="#000000" fill-opacity="0.501961" points="189,93 189,110 198,91" />
<polygon fill="#2a4276" fill-opacity="0.501961" points="13,109 18,112 20,109" />
<polygon fill="#2b3134" fill-opacity="0.501961" points="271,118 255,97 255,147" />
<polygon fill="#000000" fill-opacity="0.501961" points="32,14 18,20 20,-11" />
<polygon fill="#143273" fill-opacity="0.501961" points="25,140 37,142 29,143" />
<polygon fill="#00174f" fill-opacity="0.501961" points="25,137 37,141 11,142" />
<polygon fill="#011b53" fill-opacity="0.501961" points="152,142 116,131 115,141" />
<polygon fill="#8c99b0" fill-opacity="0.501961" points="15,103 16,107 10,104" />
<polygon fill="#0c0d09" fill-opacity="0.501961" points="143,78 138,80 132,75" />
<polygon fill="#61556f" fill-opacity="0.501961" points="124,71 128,71 131,76" />
<polygon fill="#16130a" fill-opacity="0.501961" points="135,43 145,48 140,51" />
<polygon fill="#001a53" fill-opacity="0.501961" points="241,125 251,114 251,133" />
<polygon fill="#0a0a0b" fill-opacity="0.501961" points="19,18 17,78 39,19" />
<polygon fill="#0a090b" fill-opacity="0.501961" points="115,86 73,73 123,72" />
<polygon fill="#010200" fill-opacity="0.501961" points="166,43 156,76 155,51" />
<polygon fill="#b1abb1" fill-opacity="0.501961" points="129,77 121,78 129,74" />
<polygon fill="#001d55" fill-opacity="0.501961" points="20,98 27,105 28,102" />
<polygon fill="#382922" fill-opacity="0.501961" points="29,97 29,92 21,96" />
<polygon fill="#16130a" fill-opacity="0.501961" points="134,60 132,64 123,59" />
</g>
</svg>