<svg xmlns="http://www.w3.org/2000/svg" version="1.1" width="1024" height="580">
<rect x="0" y="0" width="1024" height="580" fill="#1f232f" />
<g transform="scale(4.000000) translate(0.5 0.5)">
<polygon fill="#093798" fill-opacity="0.501961" points="0,112 174,160 271,111" />
<polygon fill="#000000" fill-opacity="0.501961" points="123,99 -16,96 6,-16" />
<polygon fill="#4b3d28" fill-opacity="0.501961" points="261,-11 63,99 64,-15" />
<polygon fill="#000000" fill-opacity="0.501961" points="48,116 -16,19 62,-16" />
<polygon fill="#022a7b" fill-opacity="0.501961" points="1,160 7,98 115,148" />
<polygon fill="#1e4cae" fill-opacity="0.501961" points="271,113 260,143 213,142" />
<polygon fill="#69644f" fill-opacity="0.501961" points="74,-16 57,66 80,66" />
<polygon fill="#9e8588" fill-opacity="0.501961" points="125,98 123,74 137,83" />
<polygon fill="#322b23" fill-opacity="0.501961" points="258,114 271,-13 67,71" />
<polygon fill="#b49494" fill-opacity="0.501961" points="144,20 159,12 132,11" />
<polygon fill="#000000" fill-opacity="0.501961" points="-16,78 57,116 57,-16" />
<polygon fill="#617390" fill-opacity="0.501961" points="96,121 59,109 30,120" />
<polygon fill="#8ba5cc" fill-opacity="0.501961" points="25,105 18,96 8,107" />
<polygon fill="#805f32" fill-opacity="0.501961" points="254,34 253,146 271,84" />
<polygon fill="#000000" fill-opacity="0.501961" points="-15,43 85,22 -5,-16" />
<polygon fill="#000000" fill-opacity="0.501961" points="2,40 -16,109 5,160" />
<polygon fill="#030100" fill-opacity="0.501961" points="84,69 80,112 121,86" />
<polygon fill="#0a0d16" fill-opacity="0.501961" points="130,24 197,25 169,51" />
<polygon fill="#67b1ff" fill-opacity="0.501961" points="247,134 243,138 242,128" />
<polygon fill="#574938" fill-opacity="0.501961" points="206,60 158,47 248,47" />
<polygon fill="#7c5f34" fill-opacity="0.501961" points="102,111 98,100 127,99" />
<polygon fill="#8b8670" fill-opacity="0.501961" points="64,13 79,14 67,-16" />
<polygon fill="#1f1f25" fill-opacity="0.501961" points="144,-16 80,81 76,8" />
<polygon fill="#38311e" fill-opacity="0.501961" points="58,117 84,101 58,12" />
<polygon fill="#838071" fill-opacity="0.501961" points="65,61 76,69 75,31" />
<polygon fill="#80653e" fill-opacity="0.501961" points="243,86 246,73 227,80" />
<polygon fill="#00114b" fill-opacity="0.501961" points="206,145 136,112 187,113" />
<polygon fill="#6f81a3" fill-opacity="0.501961" points="90,122 103,116 74,115" />
<polygon fill="#755d3a" fill-opacity="0.501961" points="222,97 206,106 238,105" />
<polygon fill="#00134f" fill-opacity="0.501961" points="29,94 38,154 -1,151" />
<polygon fill="#62503a" fill-opacity="0.501961" points="152,3 211,23 118,22" />
<polygon fill="#000000" fill-opacity="0.501961" points="72,46 -9,-16 17,101" />
<polygon fill="#0e0e0a" fill-opacity="0.501961" points="96,58 122,104 121,56" />
<polygon fill="#7c6342" fill-opacity="0.501961" points="156,46 133,54 159,55" />
<polygon fill="#1e2332" fill-opacity="0.501961" points="98,2 163,46 83,47" />
<polygon fill="#0b0700" fill-opacity="0.501961" points="179,110 174,97 140,109" />
<polygon fill="#000000" fill-opacity="0.501961" points="57,19 30,111 57,110" />
<polygon fill="#131417" fill-opacity="0.501961" points="174,72 123,59 222,55" />
<polygon fill="#99899a" fill-opacity="0.501961" points="130,92 130,73 123,92" />
<polygon fill="#6e7e94" fill-opacity="0.501961" points="59,116 42,123 30,114" />
<polygon fill="#837f6c" fill-opacity="0.501961" points="62,21 78,56 75,34" />
<polygon fill="#4b5673" fill-opacity="0.501961" points="93,160 150,142 56,142" />
<polygon fill="#00174f" fill-opacity="0.501961" points="76,120 38,160 30,123" />
<polygon fill="#725c3e" fill-opacity="0.501961" points="96,54 111,45 121,55" />
<polygon fill="#04205b" fill-opacity="0.501961" points="246,112 239,145 118,115" />
<polygon fill="#18336f" fill-opacity="0.501961" points="63,120 58,110 97,110" />
<polygon fill="#a8919f" fill-opacity="0.501961" points="134,11 154,13 150,18" />
<polygon fill="#5794ff" fill-opacity="0.501961" points="249,138 241,134 246,131" />
<polygon fill="#000000" fill-opacity="0.501961" points="162,48 184,41 154,34" />
<polygon fill="#bcc7d2" fill-opacity="0.501961" points="60,116 57,123 57,117" />
<polygon fill="#302a1f" fill-opacity="0.501961" points="78,57 58,39 59,53" />
<polygon fill="#001555" fill-opacity="0.501961" points="66,115 30,114 50,109" />
<polygon fill="#634c35" fill-opacity="0.501961" points="83,98 79,116 77,83" />
<polygon fill="#3f311e" fill-opacity="0.501961" points="153,-16 153,32 263,-5" />
<polygon fill="#121008" fill-opacity="0.501961" points="249,110 226,90 245,83" />
<polygon fill="#000000" fill-opacity="0.501961" points="40,-16 -16,94 55,98" />
<polygon fill="#292932" fill-opacity="0.501961" points="184,75 118,87 166,57" />
<polygon fill="#25262d" fill-opacity="0.501961" points="222,67 198,29 145,17" />
<polygon fill="#554734" fill-opacity="0.501961" points="144,10 207,4 208,24" />
<polygon fill="#0f0e05" fill-opacity="0.501961" points="212,57 222,72 241,59" />
<polygon fill="#aaa4b5" fill-opacity="0.501961" points="122,92 132,90 125,84" />
<polygon fill="#745c3c" fill-opacity="0.501961" points="196,53 174,55 178,47" />
<polygon fill="#8697b3" fill-opacity="0.501961" points="15,101 13,107 9,98" />
<polygon fill="#271803" fill-opacity="0.501961" points="77,144 137,160 179,143" />
<polygon fill="#000000" fill-opacity="0.501961" points="3,148 3,72 -16,104" />
<polygon fill="#0a0000" fill-opacity="0.501961" points="63,143 8,143 15,158" />
<polygon fill="#251d0f" fill-opacity="0.501961" points="189,3 102,-16 92,8" />
<polygon fill="#604e36" fill-opacity="0.501961" points="145,6 126,7 130,20" />
<polygon fill="#000000" fill-opacity="0.501961" points="99,107 82,103 83,71" />
<polygon fill="#28292d" fill-opacity="0.501961" points="91,40 105,66 103,94" />
<polygon fill="#001f6f" fill-opacity="0.501961" points="22,96 32,100 9,100" />
<polygon fill="#624f33" fill-opacity="0.501961" points="222,58 237,53 211,43" />
<polygon fill="#38301b" fill-opacity="0.501961" points="67,20 59,-4 57,30" />
<polygon fill="#4e371d" fill-opacity="0.501961" points="85,20 76,10 79,49" />
<polygon fill="#23242a" fill-opacity="0.501961" points="89,76 139,75 77,57" />
<polygon fill="#001d5c" fill-opacity="0.501961" points="23,121 4,101 4,146" />
<polygon fill="#000000" fill-opacity="0.501961" points="252,37 260,31 254,16" />
<polygon fill="#6d583b" fill-opacity="0.501961" points="228,84 233,88 244,75" />
<polygon fill="#080700" fill-opacity="0.501961" points="228,110 248,110 245,100" />
<polygon fill="#74564f" fill-opacity="0.501961" points="125,73 124,88 133,78" />
<polygon fill="#2c2824" fill-opacity="0.501961" points="102,111 144,84 179,100" />
<polygon fill="#17150e" fill-opacity="0.501961" points="221,7 169,-1 176,-16" />
<polygon fill="#090f1c" fill-opacity="0.501961" points="208,7 219,5 209,23" />
<polygon fill="#131511" fill-opacity="0.501961" points="77,74 66,104 66,65" />
<polygon fill="#000000" fill-opacity="0.501961" points="26,44 54,110 31,109" />
<polygon fill="#2a2b34" fill-opacity="0.501961" points="210,22 195,69 271,-4" />
<polygon fill="#696d70" fill-opacity="0.501961" points="271,50 255,1 255,107" />
<polygon fill="#475c88" fill-opacity="0.501961" points="76,122 102,122 86,117" />
<polygon fill="#112a61" fill-opacity="0.501961" points="60,120 56,142 122,141" />
<polygon fill="#203d7e" fill-opacity="0.501961" points="214,110 174,111 200,118" />
<polygon fill="#6e583d" fill-opacity="0.501961" points="97,107 105,99 120,105" />
<polygon fill="#262835" fill-opacity="0.501961" points="120,72 158,30 125,29" />
<polygon fill="#0b0a03" fill-opacity="0.501961" points="137,66 148,56 162,68" />
<polygon fill="#635036" fill-opacity="0.501961" points="213,99 238,98 225,109" />
<polygon fill="#1a1910" fill-opacity="0.501961" points="80,30 68,16 60,22" />
<polygon fill="#000000" fill-opacity="0.501961" points="-16,-3 57,0 9,101" />
<polygon fill="#888f92" fill-opacity="0.501961" points="67,142 46,160 123,160" />
<polygon fill="#818ca7" fill-opacity="0.501961" points="78,122 84,121 78,115" />
<polygon fill="#574027" fill-opacity="0.501961" points="82,99 75,78 81,64" />
<polygon fill="#28292f" fill-opacity="0.501961" points="226,68 122,84 210,111" />
<polygon fill="#001951" fill-opacity="0.501961" points="178,128 173,142 146,141" />
<polygon fill="#252834" fill-opacity="0.501961" points="249,26 212,5 250,82" />
<polygon fill="#2c3d69" fill-opacity="0.501961" points="166,136 173,123 150,126" />
<polygon fill="#5a6d8b" fill-opacity="0.501961" points="53,116 33,122 61,122" />
<polygon fill="#7e7a65" fill-opacity="0.501961" points="257,160 271,129 255,102" />
<polygon fill="#655239" fill-opacity="0.501961" points="120,105 109,98 120,98" />
<polygon fill="#9f8e91" fill-opacity="0.501961" points="152,19 152,13 141,11" />
<polygon fill="#00164e" fill-opacity="0.501961" points="30,141 33,112 7,113" />
<polygon fill="#2c200a" fill-opacity="0.501961" points="227,143 196,160 177,144" />
<polygon fill="#28231b" fill-opacity="0.501961" points="58,39 60,72 72,39" />
<polygon fill="#294991" fill-opacity="0.501961" points="252,114 238,111 252,110" />
<polygon fill="#1b1306" fill-opacity="0.501961" points="82,-16 69,-16 84,19" />
<polygon fill="#020100" fill-opacity="0.501961" points="105,86 124,94 105,98" />
<polygon fill="#080700" fill-opacity="0.501961" points="174,58 191,68 194,58" />
<polygon fill="#947a78" fill-opacity="0.501961" points="129,76 122,79 128,80" />
<polygon fill="#bbc3cc" fill-opacity="0.501961" points="34,115 36,115 36,121" />
<polygon fill="#7b8dac" fill-opacity="0.501961" points="15,102 21,106 23,100" />
<polygon fill="#948ba1" fill-opacity="0.501961" points="129,84 133,91 120,93" />
<polygon fill="#282b36" fill-opacity="0.501961" points="177,48 161,84 161,45" />
<polygon fill="#675338" fill-opacity="0.501961" points="142,54 134,47 150,48" />
<polygon fill="#747160" fill-opacity="0.501961" points="78,44 70,34 73,62" />
<polygon fill="#112c67" fill-opacity="0.501961" points="181,114 251,128 207,136" />
<polygon fill="#00124c" fill-opacity="0.501961" points="73,117 79,114 64,112" />
<polygon fill="#1e3a7a" fill-opacity="0.501961" points="131,118 142,110 115,110" />
<polygon fill="#272831" fill-opacity="0.501961" points="158,39 81,51 84,6" />
<polygon fill="#1f1b0f" fill-opacity="0.501961" points="133,81 135,97 151,95" />
<polygon fill="#072356" fill-opacity="0.501961" points="70,141 66,119 78,119" />
<polygon fill="#121005" fill-opacity="0.501961" points="182,96 198,95 199,87" />
<polygon fill="#001752" fill-opacity="0.501961" points="48,142 57,123 -1,119" />
<polygon fill="#53462a" fill-opacity="0.501961" points="114,82 117,95 118,83" />
<polygon fill="#273a6a" fill-opacity="0.501961" points="120,131 97,112 104,130" />
<polygon fill="#021d59" fill-opacity="0.501961" points="125,122 97,112 140,112" />
<polygon fill="#787361" fill-opacity="0.501961" points="79,67 64,64 64,56" />
<polygon fill="#000000" fill-opacity="0.501961" points="4,89 3,152 -16,81" />
<polygon fill="#2e2012" fill-opacity="0.501961" points="254,80 247,55 254,46" />
<polygon fill="#55482c" fill-opacity="0.501961" points="223,34 218,43 207,42" />
<polygon fill="#2d1e0c" fill-opacity="0.501961" points="81,40 86,54 77,68" />
<polygon fill="#67583d" fill-opacity="0.501961" points="62,87 75,93 69,93" />
<polygon fill="#66573c" fill-opacity="0.501961" points="66,78 76,80 63,73" />
<polygon fill="#062965" fill-opacity="0.501961" points="30,98 23,95 27,121" />
<polygon fill="#000000" fill-opacity="0.501961" points="123,93 108,96 125,98" />
<polygon fill="#29292d" fill-opacity="0.501961" points="139,78 110,71 136,51" />
<polygon fill="#000000" fill-opacity="0.501961" points="54,97 58,-7 -16,96" />
<polygon fill="#415790" fill-opacity="0.501961" points="202,142 185,142 189,146" />
<polygon fill="#4b81ff" fill-opacity="0.501961" points="247,131 246,138 241,136" />
<polygon fill="#352f25" fill-opacity="0.501961" points="155,-7 176,20 180,6" />
<polygon fill="#00266d" fill-opacity="0.501961" points="44,111 44,116 57,112" />
<polygon fill="#645138" fill-opacity="0.501961" points="110,56 119,47 97,47" />
<polygon fill="#7b7868" fill-opacity="0.501961" points="76,32 65,38 68,26" />
<polygon fill="#28231a" fill-opacity="0.501961" points="75,58 57,49 59,32" />
<polygon fill="#052c77" fill-opacity="0.501961" points="4,103 17,98 8,97" />
<polygon fill="#000000" fill-opacity="0.501961" points="148,100 162,109 150,109" />
<polygon fill="#66533b" fill-opacity="0.501961" points="216,53 238,54 228,46" />
<polygon fill="#042057" fill-opacity="0.501961" points="252,141 216,132 206,142" />
<polygon fill="#000000" fill-opacity="0.501961" points="178,39 160,40 176,46" />
<polygon fill="#736f60" fill-opacity="0.501961" points="66,9 77,18 76,-6" />
<polygon fill="#513b21" fill-opacity="0.501961" points="268,160 253,150 253,111" />
<polygon fill="#0e3173" fill-opacity="0.501961" points="9,115 4,115 5,97" />
<polygon fill="#000000" fill-opacity="0.501961" points="91,87 94,108 83,108" />
<polygon fill="#242632" fill-opacity="0.501961" points="199,98 230,98 198,22" />
<polygon fill="#462d18" fill-opacity="0.501961" points="204,4 256,4 229,-15" />
<polygon fill="#040600" fill-opacity="0.501961" points="170,98 171,110 181,105" />
<polygon fill="#191509" fill-opacity="0.501961" points="162,26 174,20 160,21" />
<polygon fill="#0c0c02" fill-opacity="0.501961" points="104,80 107,93 126,74" />
<polygon fill="#302b2e" fill-opacity="0.501961" points="153,48 147,11 144,29" />
<polygon fill="#554835" fill-opacity="0.501961" points="154,15 204,18 181,25" />
<polygon fill="#6c6c6a" fill-opacity="0.501961" points="270,122 255,155 255,88" />
<polygon fill="#43362d" fill-opacity="0.501961" points="121,81 137,88 151,84" />
<polygon fill="#000405" fill-opacity="0.501961" points="252,16 271,21 254,35" />
<polygon fill="#19140c" fill-opacity="0.501961" points="235,4 227,17 230,-9" />
<polygon fill="#2c2b36" fill-opacity="0.501961" points="209,29 174,28 183,46" />
<polygon fill="#092b6a" fill-opacity="0.501961" points="5,143 4,134 34,143" />
<polygon fill="#251906" fill-opacity="0.501961" points="254,-1 247,5 254,18" />
<polygon fill="#00164e" fill-opacity="0.501961" points="176,114 138,113 200,136" />
<polygon fill="#0a2767" fill-opacity="0.501961" points="250,133 234,122 252,111" />
<polygon fill="#4d3d2b" fill-opacity="0.501961" points="114,-16 128,17 138,13" />
<polygon fill="#514426" fill-opacity="0.501961" points="101,81 103,96 105,89" />
<polygon fill="#5d4d2e" fill-opacity="0.501961" points="190,104 201,104 199,100" />
<polygon fill="#4a3d22" fill-opacity="0.501961" points="75,111 84,109 63,99" />
<polygon fill="#030400" fill-opacity="0.501961" points="76,109 70,110 65,105" />
<polygon fill="#211f19" fill-opacity="0.501961" points="126,4 125,25 86,-9" />
<polygon fill="#635036" fill-opacity="0.501961" points="194,48 177,55 197,57" />
<polygon fill="#021d55" fill-opacity="0.501961" points="96,132 106,143 126,136" />
<polygon fill="#00154d" fill-opacity="0.501961" points="27,141 5,117 7,142" />
<polygon fill="#214077" fill-opacity="0.501961" points="32,112 17,106 5,112" />
<polygon fill="#5e4d30" fill-opacity="0.501961" points="65,111 66,103 63,99" />
<polygon fill="#4f4531" fill-opacity="0.501961" points="66,14 65,25 62,12" />
<polygon fill="#0d2865" fill-opacity="0.501961" points="84,119 105,141 79,139" />
<polygon fill="#132e65" fill-opacity="0.501961" points="212,143 248,121 177,140" />
<polygon fill="#001c55" fill-opacity="0.501961" points="37,143 16,102 23,135" />
<polygon fill="#1b1810" fill-opacity="0.501961" points="236,55 214,57 236,68" />
<polygon fill="#2a2c37" fill-opacity="0.501961" points="150,111 124,109 124,92" />
<polygon fill="#0f0f09" fill-opacity="0.501961" points="125,63 100,65 108,70" />
<polygon fill="#2a251b" fill-opacity="0.501961" points="179,14 166,34 157,28" />
<polygon fill="#110f0b" fill-opacity="0.501961" points="203,29 194,26 211,22" />
<polygon fill="#232631" fill-opacity="0.501961" points="84,75 83,8 103,73" />
<polygon fill="#000000" fill-opacity="0.501961" points="35,109 65,110 29,94" />
<polygon fill="#534125" fill-opacity="0.501961" points="196,86 186,81 193,90" />
<polygon fill="#12120c" fill-opacity="0.501961" points="75,106 65,91 75,96" />
<polygon fill="#0b2661" fill-opacity="0.501961" points="199,121 173,112 223,112" />
<polygon fill="#48301a" fill-opacity="0.501961" points="251,91 251,111 256,108" />
<polygon fill="#000000" fill-opacity="0.501961" points="89,78 105,98 83,104" />
<polygon fill="#020e0a" fill-opacity="0.501961" points="203,-1 124,0 173,-16" />
<polygon fill="#808ea7" fill-opacity="0.501961" points="21,106 10,100 20,100" />
<polygon fill="#697d99" fill-opacity="0.501961" points="104,117 100,116 104,120" />
<polygon fill="#55549d" fill-opacity="0.501961" points="132,91 128,95 125,91" />
<polygon fill="#011d55" fill-opacity="0.501961" points="47,115 46,133 52,138" />
<polygon fill="#4b3c22" fill-opacity="0.501961" points="121,72 131,77 133,70" />
<polygon fill="#4f4429" fill-opacity="0.501961" points="168,102 164,106 163,111" />
<polygon fill="#12120f" fill-opacity="0.501961" points="66,65 68,76 79,70" />
<polygon fill="#172f63" fill-opacity="0.501961" points="107,125 97,112 107,137" />
<polygon fill="#93a0b6" fill-opacity="0.501961" points="56,119 58,116 62,122" />
<polygon fill="#1f1b14" fill-opacity="0.501961" points="64,37 58,24 63,3" />
<polygon fill="#473621" fill-opacity="0.501961" points="76,2 82,21 76,36" />
<polygon fill="#050300" fill-opacity="0.501961" points="55,143 -16,143 8,160" />
<polygon fill="#5b5798" fill-opacity="0.501961" points="149,10 154,16 151,16" />
<polygon fill="#112c6b" fill-opacity="0.501961" points="101,157 90,146 92,114" />
<polygon fill="#1b170b" fill-opacity="0.501961" points="107,107 100,110 116,110" />
<polygon fill="#152d61" fill-opacity="0.501961" points="96,140 57,122 64,142" />
<polygon fill="#1e1d1a" fill-opacity="0.501961" points="156,144 254,143 202,160" />
<polygon fill="#27231b" fill-opacity="0.501961" points="59,64 58,42 70,40" />
<polygon fill="#18130b" fill-opacity="0.501961" points="87,5 102,8 120,-4" />
<polygon fill="#797567" fill-opacity="0.501961" points="64,53 75,62 70,65" />
<polygon fill="#483c2e" fill-opacity="0.501961" points="168,0 147,0 163,5" />
<polygon fill="#cfc4b0" fill-opacity="0.501961" points="128,91 121,91 123,89" />
<polygon fill="#2e2f3b" fill-opacity="0.501961" points="232,98 249,98 245,94" />
<polygon fill="#282a36" fill-opacity="0.501961" points="237,61 249,62 251,20" />
<polygon fill="#553519" fill-opacity="0.501961" points="89,4 120,-16 63,-16" />
<polygon fill="#262831" fill-opacity="0.501961" points="144,101 168,45 184,98" />
<polygon fill="#14130c" fill-opacity="0.501961" points="233,98 225,82 227,96" />
<polygon fill="#504130" fill-opacity="0.501961" points="155,18 139,19 161,24" />
<polygon fill="#292a35" fill-opacity="0.501961" points="106,78 126,69 95,69" />
<polygon fill="#65533b" fill-opacity="0.501961" points="240,78 246,81 226,87" />
<polygon fill="#17140d" fill-opacity="0.501961" points="135,55 156,69 161,55" />
<polygon fill="#c2b794" fill-opacity="0.501961" points="151,12 145,17 149,16" />
<polygon fill="#1b1919" fill-opacity="0.501961" points="123,25 144,32 162,24" />
<polygon fill="#000000" fill-opacity="0.501961" points="121,92 118,93 122,83" />
<polygon fill="#584b36" fill-opacity="0.501961" points="63,92 65,82 66,96" />
<polygon fill="#282831" fill-opacity="0.501961" points="159,28 88,31 133,51" />
<polygon fill="#1f1b10" fill-opacity="0.501961" points="57,107 64,108 63,85" />
<polygon fill="#000405" fill-opacity="0.501961" points="66,14 75,19 68,19" />
<polygon fill="#8f7582" fill-opacity="0.501961" points="139,10 140,19 137,14" />
<polygon fill="#394f81" fill-opacity="0.501961" points="88,111 77,110 74,114" />
<polygon fill="#120f06" fill-opacity="0.501961" points="217,11 223,14 234,11" />
<polygon fill="#1f1d19" fill-opacity="0.501961" points="90,56 70,55 87,61" />
<polygon fill="#292a34" fill-opacity="0.501961" points="88,7 109,7 83,73" />
<polygon fill="#0a2461" fill-opacity="0.501961" points="107,113 103,125 145,119" />
<polygon fill="#524432" fill-opacity="0.501961" points="135,5 140,11 158,7" />
<polygon fill="#497df8" fill-opacity="0.501961" points="246,129 242,133 247,139" />
<polygon fill="#585846" fill-opacity="0.501961" points="65,3 95,-6 63,-16" />
<polygon fill="#000000" fill-opacity="0.501961" points="57,6 57,111 -16,47" />
<polygon fill="#072258" fill-opacity="0.501961" points="17,101 21,127 15,117" />
<polygon fill="#15150e" fill-opacity="0.501961" points="174,49 172,69 177,66" />
<polygon fill="#332e22" fill-opacity="0.501961" points="110,14 120,15 121,-14" />
<polygon fill="#0b275a" fill-opacity="0.501961" points="67,118 87,112 56,112" />
<polygon fill="#607499" fill-opacity="0.501961" points="96,122 97,116 85,120" />
<polygon fill="#5b4b38" fill-opacity="0.501961" points="157,23 126,13 126,23" />
<polygon fill="#282932" fill-opacity="0.501961" points="213,10 257,38 226,47" />
<polygon fill="#0d2866" fill-opacity="0.501961" points="144,120 121,113 126,142" />
<polygon fill="#122c66" fill-opacity="0.501961" points="93,119 106,124 78,129" />
<polygon fill="#0f110f" fill-opacity="0.501961" points="76,85 74,91 65,78" />
<polygon fill="#533822" fill-opacity="0.501961" points="223,1 230,8 219,10" />
<polygon fill="#67593c" fill-opacity="0.501961" points="67,102 76,107 72,102" />
<polygon fill="#0b2560" fill-opacity="0.501961" points="203,113 250,112 250,131" />
<polygon fill="#2a292c" fill-opacity="0.501961" points="184,109 163,89 212,110" />
<polygon fill="#07245f" fill-opacity="0.501961" points="251,140 246,146 251,129" />
<polygon fill="#001b54" fill-opacity="0.501961" points="6,97 4,131 18,129" />
<polygon fill="#32270f" fill-opacity="0.501961" points="213,110 220,105 229,108" />
<polygon fill="#050701" fill-opacity="0.501961" points="141,105 142,108 146,105" />
<polygon fill="#7c8aa2" fill-opacity="0.501961" points="22,106 23,102 9,107" />
<polygon fill="#2b3c69" fill-opacity="0.501961" points="103,123 98,132 120,127" />
<polygon fill="#513a27" fill-opacity="0.501961" points="250,4 252,-16 198,-12" />
<polygon fill="#000100" fill-opacity="0.501961" points="181,40 161,37 155,47" />
<polygon fill="#484744" fill-opacity="0.501961" points="256,37 255,-16 271,8" />
<polygon fill="#3c3324" fill-opacity="0.501961" points="116,87 118,84 113,76" />
<polygon fill="#030300" fill-opacity="0.501961" points="117,79 125,86 117,84" />
<polygon fill="#1d3d83" fill-opacity="0.501961" points="99,115 86,112 107,111" />
<polygon fill="#282a34" fill-opacity="0.501961" points="178,31 167,37 182,38" />
<polygon fill="#12140e" fill-opacity="0.501961" points="76,28 68,24 76,18" />
<polygon fill="#23252c" fill-opacity="0.501961" points="158,36 159,47 133,42" />
<polygon fill="#6a7c9e" fill-opacity="0.501961" points="93,115 97,123 96,114" />
<polygon fill="#60533d" fill-opacity="0.501961" points="173,20 159,20 168,16" />
<polygon fill="#00154d" fill-opacity="0.501961" points="147,122 162,123 152,114" />
<polygon fill="#10100b" fill-opacity="0.501961" points="218,60 215,69 232,68" />
<polygon fill="#272830" fill-opacity="0.501961" points="205,29 225,99 191,78" />
<polygon fill="#0a255f" fill-opacity="0.501961" points="112,132 174,133 140,142" />
<polygon fill="#15130c" fill-opacity="0.501961" points="177,28 189,26 166,22" />
<polygon fill="#3c3432" fill-opacity="0.501961" points="73,143 101,143 85,160" />
<polygon fill="#161511" fill-opacity="0.501961" points="148,87 134,95 144,97" />
<polygon fill="#949eb0" fill-opacity="0.501961" points="17,106 11,102 10,104" />
<polygon fill="#080907" fill-opacity="0.501961" points="72,99 67,99 73,104" />
<polygon fill="#503c28" fill-opacity="0.501961" points="77,82 80,73 83,94" />
<polygon fill="#2b251b" fill-opacity="0.501961" points="58,63 68,51 58,23" />
<polygon fill="#100f0a" fill-opacity="0.501961" points="121,15 123,19 110,17" />
<polygon fill="#000000" fill-opacity="0.501961" points="43,97 50,-16 -16,96" />
<polygon fill="#0c2d6f" fill-opacity="0.501961" points="44,138 27,143 57,143" />
<polygon fill="#1e4290" fill-opacity="0.501961" points="146,140 136,143 154,143" />
<polygon fill="#232630" fill-opacity="0.501961" points="137,63 135,36 118,74" />
<polygon fill="#00164f" fill-opacity="0.501961" points="59,142 17,141 56,131" />
<polygon fill="#0c2a63" fill-opacity="0.501961" points="20,107 30,111 29,106" />
<polygon fill="#17150d" fill-opacity="0.501961" points="122,62 97,55 104,64" />
<polygon fill="#422b14" fill-opacity="0.501961" points="254,88 250,92 253,76" />
<polygon fill="#625038" fill-opacity="0.501961" points="117,107 104,106 118,103" />
<polygon fill="#2f549c" fill-opacity="0.501961" points="69,143 74,141 64,142" />
<polygon fill="#ffd7b8" fill-opacity="0.501961" points="143,11 145,14 145,11" />
<polygon fill="#614f3a" fill-opacity="0.501961" points="235,100 235,106 221,103" />
<polygon fill="#7c8ba6" fill-opacity="0.501961" points="59,119 65,119 58,115" />
<polygon fill="#000000" fill-opacity="0.501961" points="35,60 30,110 57,100" />
<polygon fill="#234ca1" fill-opacity="0.501961" points="62,111 68,111 65,113" />
<polygon fill="#272830" fill-opacity="0.501961" points="234,72 137,68 151,92" />
<polygon fill="#574833" fill-opacity="0.501961" points="227,80 229,88 243,84" />
<polygon fill="#0b0b07" fill-opacity="0.501961" points="96,72 85,86 101,87" />
<polygon fill="#202228" fill-opacity="0.501961" points="215,111 209,87 199,93" />
<polygon fill="#162d5e" fill-opacity="0.501961" points="68,131 61,131 61,115" />
<polygon fill="#594a33" fill-opacity="0.501961" points="235,54 218,56 236,48" />
<polygon fill="#072357" fill-opacity="0.501961" points="74,142 75,128 63,137" />
<polygon fill="#24488e" fill-opacity="0.501961" points="7,131 4,128 4,123" />
<polygon fill="#726d5a" fill-opacity="0.501961" points="66,27 64,39 68,33" />
<polygon fill="#030502" fill-opacity="0.501961" points="112,78 104,90 116,94" />
<polygon fill="#513f29" fill-opacity="0.501961" points="76,81 81,78 79,61" />
<polygon fill="#001550" fill-opacity="0.501961" points="23,100 29,109 27,101" />
<polygon fill="#293b6a" fill-opacity="0.501961" points="151,127 150,134 171,130" />
<polygon fill="#27282f" fill-opacity="0.501961" points="159,39 106,47 102,16" />
<polygon fill="#082158" fill-opacity="0.501961" points="186,141 136,142 161,134" />
<polygon fill="#2f539c" fill-opacity="0.501961" points="230,111 223,113 221,111" />
<polygon fill="#919db0" fill-opacity="0.501961" points="12,107 10,107 13,101" />
<polygon fill="#080d13" fill-opacity="0.501961" points="115,143 125,159 100,143" />
<polygon fill="#484130" fill-opacity="0.501961" points="194,1 183,1 189,-1" />
<polygon fill="#030401" fill-opacity="0.501961" points="246,110 242,98 239,109" />
<polygon fill="#604f39" fill-opacity="0.501961" points="108,51 117,55 121,49" />
<polygon fill="#394f78" fill-opacity="0.501961" points="48,120 38,119 38,115" />
<polygon fill="#5c4c32" fill-opacity="0.501961" points="158,47 153,55 160,50" />
<polygon fill="#27437a" fill-opacity="0.501961" points="17,112 28,109 14,109" />
<polygon fill="#5b4c36" fill-opacity="0.501961" points="207,7 208,20 203,15" />
<polygon fill="#513f38" fill-opacity="0.501961" points="145,13 148,13 146,8" />
<polygon fill="#8593ac" fill-opacity="0.501961" points="103,116 102,118 104,118" />
<polygon fill="#354b7d" fill-opacity="0.501961" points="252,141 244,143 259,160" />
<polygon fill="#292a34" fill-opacity="0.501961" points="253,36 249,7 214,20" />
<polygon fill="#54494d" fill-opacity="0.501961" points="135,97 128,96 126,93" />
<polygon fill="#7c8ca7" fill-opacity="0.501961" points="47,118 49,116 52,119" />
<polygon fill="#263662" fill-opacity="0.501961" points="77,121 83,131 78,142" />
<polygon fill="#4c3e29" fill-opacity="0.501961" points="140,85 144,86 142,94" />
<polygon fill="#574834" fill-opacity="0.501961" points="188,5 209,16 194,13" />
<polygon fill="#272731" fill-opacity="0.501961" points="155,100 116,103 132,95" />
<polygon fill="#20211a" fill-opacity="0.501961" points="77,77 75,71 74,84" />
<polygon fill="#2c52a4" fill-opacity="0.501961" points="133,111 126,111 132,113" />
<polygon fill="#151411" fill-opacity="0.501961" points="175,68 193,67 179,62" />
<polygon fill="#183065" fill-opacity="0.501961" points="243,114 229,137 220,132" />
<polygon fill="#3a4c72" fill-opacity="0.501961" points="227,141 234,159 252,160" />
<polygon fill="#1f2124" fill-opacity="0.501961" points="242,58 236,44 238,59" />
</g>
</svg>