<svg xmlns="http://www.w3.org/2000/svg" version="1.1" width="1024" height="580">
<rect x="0" y="0" width="1024" height="580" fill="#0d0c0b" />
<g transform="scale(4.000000) translate(0.5 0.5)">
<polygon fill="#44403d" fill-opacity="0.501961" points="96,126 132,-16 220,107" />
<polygon fill="#6e6161" fill-opacity="0.501961" points="108,42 108,81 140,78" />
<polygon fill="#000000" fill-opacity="0.501961" points="15,160 -16,-16 146,20" />
<polygon fill="#2b282b" fill-opacity="0.501961" points="103,74 168,-14 102,-16" />
<polygon fill="#000000" fill-opacity="0.501961" points="205,-16 207,160 271,69" />
<polygon fill="#2f2f38" fill-opacity="0.501961" points="204,24 124,84 204,83" />
<polygon fill="#000000" fill-opacity="0.501961" points="-16,144 40,-16 142,160" />
<polygon fill="#2c2d23" fill-opacity="0.501961" points="208,130 195,38 104,128" />
<polygon fill="#000000" fill-opacity="0.501961" points="245,-16 194,144 271,149" />
<polygon fill="#bda4b1" fill-opacity="0.501961" points="129,64 131,79 124,80" />
<polygon fill="#c09453" fill-opacity="0.501961" points="119,63 116,75 111,60" />
<polygon fill="#000000" fill-opacity="0.501961" points="0,160 127,155 2,-16" />
<polygon fill="#000000" fill-opacity="0.501961" points="213,-16 160,-16 161,46" />
<polygon fill="#000000" fill-opacity="0.501961" points="219,160 271,6 203,-16" />
<polygon fill="#161720" fill-opacity="0.501961" points="119,81 152,-11 112,14" />
<polygon fill="#2b2a1b" fill-opacity="0.501961" points="101,112 105,73 152,125" />
<polygon fill="#8a140c" fill-opacity="0.501961" points="-1,139 0,32 -16,89" />
<polygon fill="#6e4c2e" fill-opacity="0.501961" points="146,5 152,-9 153,27" />
<polygon fill="#000000" fill-opacity="0.501961" points="101,136 -10,-16 101,1" />
<polygon fill="#79635d" fill-opacity="0.501961" points="133,65 128,76 115,61" />
<polygon fill="#000000" fill-opacity="0.501961" points="271,123 111,142 235,160" />
<polygon fill="#3b3324" fill-opacity="0.501961" points="199,26 207,11 198,-16" />
<polygon fill="#555843" fill-opacity="0.501961" points="135,90 135,114 129,94" />
<polygon fill="#242020" fill-opacity="0.501961" points="129,100 162,58 141,9" />
<polygon fill="#26252c" fill-opacity="0.501961" points="171,69 101,60 190,30" />
<polygon fill="#abb2b7" fill-opacity="0.501961" points="113,79 116,73 117,83" />
<polygon fill="#2d2520" fill-opacity="0.501961" points="102,64 114,76 103,92" />
<polygon fill="#4d5141" fill-opacity="0.501961" points="120,125 120,92 127,108" />
<polygon fill="#000000" fill-opacity="0.501961" points="138,-16 197,-8 198,39" />
<polygon fill="#58381a" fill-opacity="0.501961" points="160,42 149,47 147,17" />
<polygon fill="#676951" fill-opacity="0.501961" points="151,98 146,114 146,94" />
<polygon fill="#151106" fill-opacity="0.501961" points="188,91 188,149 204,98" />
<polygon fill="#61634c" fill-opacity="0.501961" points="161,120 160,92 156,106" />
<polygon fill="#595a45" fill-opacity="0.501961" points="171,94 171,125 177,116" />
<polygon fill="#292936" fill-opacity="0.501961" points="197,83 127,81 200,43" />
<polygon fill="#4a4e3a" fill-opacity="0.501961" points="180,104 186,129 187,98" />
<polygon fill="#120a02" fill-opacity="0.501961" points="136,123 147,134 140,89" />
<polygon fill="#000000" fill-opacity="0.501961" points="205,15 205,160 261,117" />
<polygon fill="#1e241b" fill-opacity="0.501961" points="125,128 132,100 121,68" />
<polygon fill="#78100a" fill-opacity="0.501961" points="-1,41 -14,-16 1,11" />
<polygon fill="#561811" fill-opacity="0.501961" points="255,97 256,153 271,137" />
<polygon fill="#0f1c11" fill-opacity="0.501961" points="183,99 183,141 173,115" />
<polygon fill="#15161a" fill-opacity="0.501961" points="147,-16 148,45 103,44" />
<polygon fill="#2b2e38" fill-opacity="0.501961" points="151,78 144,47 107,46" />
<polygon fill="#570800" fill-opacity="0.501961" points="271,46 255,-10 255,93" />
<polygon fill="#140e04" fill-opacity="0.501961" points="161,114 170,82 170,135" />
<polygon fill="#151f15" fill-opacity="0.501961" points="158,100 150,133 149,93" />
<polygon fill="#17160c" fill-opacity="0.501961" points="116,85 100,135 122,136" />
<polygon fill="#3a3f2e" fill-opacity="0.501961" points="204,110 205,129 201,118" />
<polygon fill="#343540" fill-opacity="0.501961" points="108,3 142,-15 149,2" />
<polygon fill="#594b2b" fill-opacity="0.501961" points="183,55 195,48 197,56" />
<polygon fill="#0d0e18" fill-opacity="0.501961" points="151,35 183,22 203,47" />
<polygon fill="#291d0d" fill-opacity="0.501961" points="147,41 149,68 160,59" />
<polygon fill="#5e5d4c" fill-opacity="0.501961" points="126,105 135,102 135,109" />
<polygon fill="#000000" fill-opacity="0.501961" points="73,156 105,-16 1,11" />
<polygon fill="#000000" fill-opacity="0.501961" points="221,137 64,135 131,160" />
<polygon fill="#5c5b48" fill-opacity="0.501961" points="150,104 159,102 161,108" />
<polygon fill="#1c1105" fill-opacity="0.501961" points="153,-12 153,36 161,16" />
<polygon fill="#444632" fill-opacity="0.501961" points="134,131 136,110 131,123" />
<polygon fill="#5b5948" fill-opacity="0.501961" points="186,99 175,106 186,106" />
<polygon fill="#000000" fill-opacity="0.501961" points="210,72 204,-16 256,-1" />
<polygon fill="#2f2719" fill-opacity="0.501961" points="102,0 102,76 114,32" />
<polygon fill="#d09d5a" fill-opacity="0.501961" points="118,63 117,68 114,65" />
<polygon fill="#1b1f25" fill-opacity="0.501961" points="120,53 120,72 124,62" />
<polygon fill="#11180f" fill-opacity="0.501961" points="131,109 134,136 119,133" />
<polygon fill="#2b2319" fill-opacity="0.501961" points="103,130 116,83 102,92" />
<polygon fill="#d7b7a8" fill-opacity="0.501961" points="127,73 125,70 131,70" />
<polygon fill="#27272e" fill-opacity="0.501961" points="141,56 181,89 129,73" />
<polygon fill="#020403" fill-opacity="0.501961" points="121,8 111,2 140,4" />
<polygon fill="#302919" fill-opacity="0.501961" points="193,56 204,91 204,15" />
<polygon fill="#000000" fill-opacity="0.501961" points="125,13 145,13 134,9" />
<polygon fill="#1d1b11" fill-opacity="0.501961" points="202,122 202,75 183,133" />
<polygon fill="#12180f" fill-opacity="0.501961" points="156,136 158,105 147,131" />
<polygon fill="#3d383a" fill-opacity="0.501961" points="109,85 148,86 121,78" />
<polygon fill="#121418" fill-opacity="0.501961" points="109,48 126,17 109,2" />
<polygon fill="#585545" fill-opacity="0.501961" points="182,105 186,113 186,91" />
<polygon fill="#292832" fill-opacity="0.501961" points="140,26 133,34 112,27" />
<polygon fill="#1e150a" fill-opacity="0.501961" points="145,112 136,98 144,87" />
<polygon fill="#474834" fill-opacity="0.501961" points="160,108 157,124 162,130" />
<polygon fill="#62472f" fill-opacity="0.501961" points="150,39 163,37 154,42" />
<polygon fill="#192319" fill-opacity="0.501961" points="183,94 174,109 183,131" />
<polygon fill="#12180f" fill-opacity="0.501961" points="154,134 208,136 200,123" />
<polygon fill="#363643" fill-opacity="0.501961" points="127,8 143,7 141,11" />
<polygon fill="#000000" fill-opacity="0.501961" points="12,142 100,60 103,149" />
<polygon fill="#171d2b" fill-opacity="0.501961" points="114,74 108,82 111,68" />
<polygon fill="#85120a" fill-opacity="0.501961" points="0,1 -10,-16 -3,22" />
<polygon fill="#26242b" fill-opacity="0.501961" points="118,23 109,13 146,13" />
<polygon fill="#000000" fill-opacity="0.501961" points="142,17 119,16 130,20" />
<polygon fill="#332b1a" fill-opacity="0.501961" points="195,93 167,84 139,92" />
<polygon fill="#751914" fill-opacity="0.501961" points="-9,125 -16,149 11,160" />
<polygon fill="#0e1012" fill-opacity="0.501961" points="144,29 112,29 117,37" />
<polygon fill="#292831" fill-opacity="0.501961" points="127,33 116,31 106,37" />
<polygon fill="#151923" fill-opacity="0.501961" points="164,32 201,46 160,44" />
<polygon fill="#1d1f1d" fill-opacity="0.501961" points="139,89 129,89 135,67" />
<polygon fill="#5d5847" fill-opacity="0.501961" points="170,102 173,91 173,110" />
<polygon fill="#000000" fill-opacity="0.501961" points="255,141 205,46 205,150" />
<polygon fill="#866e6c" fill-opacity="0.501961" points="124,74 132,65 126,63" />
<polygon fill="#12160f" fill-opacity="0.501961" points="124,128 138,138 123,108" />
<polygon fill="#000002" fill-opacity="0.501961" points="194,-16 199,28 158,25" />
<polygon fill="#211a11" fill-opacity="0.501961" points="170,85 159,89 171,117" />
<polygon fill="#414231" fill-opacity="0.501961" points="145,116 150,118 146,131" />
<polygon fill="#1b1910" fill-opacity="0.501961" points="118,122 102,93 120,94" />
<polygon fill="#282b35" fill-opacity="0.501961" points="108,50 112,63 118,46" />
<polygon fill="#282933" fill-opacity="0.501961" points="205,86 161,43 160,85" />
<polygon fill="#3c3b4b" fill-opacity="0.501961" points="138,19 145,21 131,22" />
<polygon fill="#363543" fill-opacity="0.501961" points="111,7 111,11 124,8" />
<polygon fill="#34323a" fill-opacity="0.501961" points="134,32 150,35 147,31" />
<polygon fill="#392611" fill-opacity="0.501961" points="148,52 158,44 160,60" />
<polygon fill="#2f2a20" fill-opacity="0.501961" points="102,112 102,67 109,89" />
<polygon fill="#595745" fill-opacity="0.501961" points="145,100 149,110 147,118" />
<polygon fill="#161910" fill-opacity="0.501961" points="166,131 154,136 149,117" />
<polygon fill="#6d6c58" fill-opacity="0.501961" points="133,116 135,110 133,113" />
<polygon fill="#000000" fill-opacity="0.501961" points="110,16 121,18 106,21" />
<polygon fill="#443a23" fill-opacity="0.501961" points="136,90 127,94 116,91" />
<polygon fill="#4c4c3b" fill-opacity="0.501961" points="159,103 148,105 153,108" />
<polygon fill="#0f0e10" fill-opacity="0.501961" points="149,34 139,42 111,35" />
<polygon fill="#24222a" fill-opacity="0.501961" points="138,43 113,37 143,36" />
<polygon fill="#262831" fill-opacity="0.501961" points="199,57 194,77 127,68" />
<polygon fill="#111315" fill-opacity="0.501961" points="153,67 145,58 161,62" />
<polygon fill="#02020a" fill-opacity="0.501961" points="198,46 197,18 188,18" />
<polygon fill="#828684" fill-opacity="0.501961" points="114,82 115,78 119,79" />
<polygon fill="#000000" fill-opacity="0.501961" points="198,-15 254,-15 255,92" />
<polygon fill="#363323" fill-opacity="0.501961" points="167,88 153,93 182,93" />
<polygon fill="#271c14" fill-opacity="0.501961" points="185,87 201,86 194,121" />
<polygon fill="#1f1910" fill-opacity="0.501961" points="145,120 145,94 136,94" />
<polygon fill="#57523e" fill-opacity="0.501961" points="171,117 173,124 173,110" />
<polygon fill="#2f2f3b" fill-opacity="0.501961" points="182,52 196,47 168,47" />
<polygon fill="#29282a" fill-opacity="0.501961" points="131,86 132,53 155,83" />
<polygon fill="#000000" fill-opacity="0.501961" points="127,25 140,26 136,22" />
<polygon fill="#433b29" fill-opacity="0.501961" points="202,92 193,89 183,92" />
<polygon fill="#060600" fill-opacity="0.501961" points="107,9 110,14 118,11" />
<polygon fill="#17120c" fill-opacity="0.501961" points="104,95 105,132 111,114" />
<polygon fill="#2b2a30" fill-opacity="0.501961" points="107,21 124,19 125,24" />
<polygon fill="#30291d" fill-opacity="0.501961" points="108,5 102,15 109,35" />
<polygon fill="#0b140f" fill-opacity="0.501961" points="149,124 153,116 149,102" />
<polygon fill="#2a2a33" fill-opacity="0.501961" points="123,66 107,45 138,46" />
<polygon fill="#352c1e" fill-opacity="0.501961" points="198,112 191,115 202,116" />
<polygon fill="#261f16" fill-opacity="0.501961" points="131,89 119,79 118,90" />
<polygon fill="#1c160e" fill-opacity="0.501961" points="195,98 187,121 187,94" />
<polygon fill="#32313c" fill-opacity="0.501961" points="119,34 119,30 130,33" />
<polygon fill="#d4cec6" fill-opacity="0.501961" points="112,80 114,79 115,77" />
<polygon fill="#866d85" fill-opacity="0.501961" points="127,82 129,83 127,81" />
<polygon fill="#513c29" fill-opacity="0.501961" points="154,7 147,25 147,-10" />
<polygon fill="#14160d" fill-opacity="0.501961" points="164,136 162,97 169,116" />
<polygon fill="#1b1c14" fill-opacity="0.501961" points="126,137 119,128 132,120" />
<polygon fill="#000000" fill-opacity="0.501961" points="122,3 122,6 111,5" />
<polygon fill="#0c150f" fill-opacity="0.501961" points="157,125 157,111 153,120" />
<polygon fill="#000000" fill-opacity="0.501961" points="102,-4 2,160 1,-7" />
<polygon fill="#08110b" fill-opacity="0.501961" points="113,120 119,108 120,135" />
<polygon fill="#000000" fill-opacity="0.501961" points="113,26 122,23 131,26" />
<polygon fill="#59594a" fill-opacity="0.501961" points="205,104 202,106 203,99" />
<polygon fill="#3b3a48" fill-opacity="0.501961" points="135,22 128,19 120,22" />
<polygon fill="#000000" fill-opacity="0.501961" points="207,62 255,119 205,115" />
<polygon fill="#151e18" fill-opacity="0.501961" points="132,125 122,113 132,106" />
<polygon fill="#43412d" fill-opacity="0.501961" points="162,126 159,133 159,119" />
<polygon fill="#0a0909" fill-opacity="0.501961" points="133,42 127,38 116,40" />
<polygon fill="#2b1e15" fill-opacity="0.501961" points="109,122 106,99 116,99" />
<polygon fill="#000000" fill-opacity="0.501961" points="120,20 129,19 113,16" />
<polygon fill="#676252" fill-opacity="0.501961" points="161,109 159,115 159,102" />
<polygon fill="#575642" fill-opacity="0.501961" points="173,106 185,104 175,103" />
<polygon fill="#302010" fill-opacity="0.501961" points="154,30 160,38 159,17" />
<polygon fill="#b0874f" fill-opacity="0.501961" points="112,66 116,60 117,71" />
<polygon fill="#343232" fill-opacity="0.501961" points="122,61 108,53 107,63" />
<polygon fill="#755a5b" fill-opacity="0.501961" points="132,67 130,71 129,64" />
<polygon fill="#2e281f" fill-opacity="0.501961" points="195,-9 204,13 205,-9" />
<polygon fill="#000100" fill-opacity="0.501961" points="145,16 142,20 131,17" />
<polygon fill="#2e2d38" fill-opacity="0.501961" points="135,30 123,27 146,26" />
<polygon fill="#000000" fill-opacity="0.501961" points="132,11 144,13 141,10" />
<polygon fill="#292932" fill-opacity="0.501961" points="114,4 142,0 103,-16" />
<polygon fill="#563b26" fill-opacity="0.501961" points="151,34 147,33 152,21" />
<polygon fill="#000100" fill-opacity="0.501961" points="121,9 130,12 111,12" />
<polygon fill="#1c1812" fill-opacity="0.501961" points="187,85 200,90 170,90" />
<polygon fill="#1d1712" fill-opacity="0.501961" points="156,89 144,90 146,85" />
<polygon fill="#0d1910" fill-opacity="0.501961" points="203,129 194,131 202,99" />
<polygon fill="#292b34" fill-opacity="0.501961" points="183,74 197,78 198,50" />
<polygon fill="#000000" fill-opacity="0.501961" points="195,13 160,-16 161,18" />
<polygon fill="#292c23" fill-opacity="0.501961" points="151,108 154,122 155,107" />
<polygon fill="#000000" fill-opacity="0.501961" points="38,160 101,-16 101,137" />
<polygon fill="#0d140e" fill-opacity="0.501961" points="175,108 175,127 180,121" />
<polygon fill="#414333" fill-opacity="0.501961" points="127,96 130,105 127,112" />
<polygon fill="#000000" fill-opacity="0.501961" points="138,30 128,32 128,29" />
<polygon fill="#28272d" fill-opacity="0.501961" points="111,73 105,69 117,72" />
<polygon fill="#1d2d1e" fill-opacity="0.501961" points="201,109 200,123 198,114" />
<polygon fill="#28292e" fill-opacity="0.501961" points="123,68 117,74 127,88" />
<polygon fill="#000000" fill-opacity="0.501961" points="138,23 147,25 129,26" />
<polygon fill="#5c5645" fill-opacity="0.501961" points="161,106 159,94 162,100" />
<polygon fill="#000000" fill-opacity="0.501961" points="139,4 148,4 146,7" />
<polygon fill="#5e5f4e" fill-opacity="0.501961" points="204,95 202,102 204,101" />
<polygon fill="#000000" fill-opacity="0.501961" points="85,136 223,136 170,160" />
<polygon fill="#312e20" fill-opacity="0.501961" points="120,110 106,116 114,116" />
<polygon fill="#cebeac" fill-opacity="0.501961" points="130,75 125,79 130,79" />
<polygon fill="#3e2c1e" fill-opacity="0.501961" points="159,116 167,113 171,115" />
<polygon fill="#090813" fill-opacity="0.501961" points="199,27 164,37 160,22" />
<polygon fill="#7f7282" fill-opacity="0.501961" points="128,76 123,76 125,80" />
<polygon fill="#0d110b" fill-opacity="0.501961" points="161,128 163,117 177,137" />
<polygon fill="#34333e" fill-opacity="0.501961" points="122,32 114,34 108,31" />
<polygon fill="#000000" fill-opacity="0.501961" points="129,29 126,32 118,30" />
<polygon fill="#100f09" fill-opacity="0.501961" points="147,132 135,139 137,101" />
<polygon fill="#3a3620" fill-opacity="0.501961" points="136,89 146,91 130,94" />
<polygon fill="#3b3828" fill-opacity="0.501961" points="185,124 186,130 182,134" />
<polygon fill="#684b31" fill-opacity="0.501961" points="156,41 149,38 148,41" />
<polygon fill="#101a11" fill-opacity="0.501961" points="132,102 129,104 126,99" />
<polygon fill="#16161d" fill-opacity="0.501961" points="160,32 183,33 161,46" />
<polygon fill="#5c5848" fill-opacity="0.501961" points="120,94 122,101 124,95" />
<polygon fill="#2e2717" fill-opacity="0.501961" points="203,24 199,32 198,27" />
<polygon fill="#0d0d0f" fill-opacity="0.501961" points="125,40 135,45 144,39" />
<polygon fill="#312e38" fill-opacity="0.501961" points="148,13 133,18 115,13" />
<polygon fill="#261d13" fill-opacity="0.501961" points="137,118 145,113 138,89" />
<polygon fill="#1c1e27" fill-opacity="0.501961" points="163,38 192,37 198,49" />
<polygon fill="#342b1c" fill-opacity="0.501961" points="97,-16 109,11 108,-5" />
<polygon fill="#22252d" fill-opacity="0.501961" points="137,53 110,61 110,51" />
<polygon fill="#151e16" fill-opacity="0.501961" points="124,95 133,103 123,102" />
<polygon fill="#0e0e0a" fill-opacity="0.501961" points="180,135 187,135 182,128" />
<polygon fill="#131e15" fill-opacity="0.501961" points="175,94 183,102 175,104" />
<polygon fill="#31303a" fill-opacity="0.501961" points="136,37 146,37 137,40" />
<polygon fill="#313031" fill-opacity="0.501961" points="189,86 141,86 169,77" />
<polygon fill="#312c37" fill-opacity="0.501961" points="105,81 123,82 110,85" />
<polygon fill="#141d15" fill-opacity="0.501961" points="157,103 148,103 157,94" />
<polygon fill="#2f2f39" fill-opacity="0.501961" points="119,33 137,34 130,30" />
<polygon fill="#141618" fill-opacity="0.501961" points="113,0 102,-16 146,0" />
<polygon fill="#41412c" fill-opacity="0.501961" points="121,127 123,130 122,122" />
<polygon fill="#262831" fill-opacity="0.501961" points="152,82 194,85 164,54" />
<polygon fill="#2c2a2a" fill-opacity="0.501961" points="122,83 118,72 123,77" />
<polygon fill="#333728" fill-opacity="0.501961" points="105,125 102,122 103,115" />
<polygon fill="#696553" fill-opacity="0.501961" points="122,110 119,112 123,105" />
<polygon fill="#090b06" fill-opacity="0.501961" points="105,116 104,126 111,117" />
<polygon fill="#0e130d" fill-opacity="0.501961" points="123,107 117,103 105,105" />
<polygon fill="#544933" fill-opacity="0.501961" points="190,49 194,55 194,48" />
<polygon fill="#19120a" fill-opacity="0.501961" points="105,97 112,100 106,92" />
<polygon fill="#524f40" fill-opacity="0.501961" points="132,120 134,119 134,124" />
<polygon fill="#1a140d" fill-opacity="0.501961" points="165,93 171,93 170,108" />
<polygon fill="#161109" fill-opacity="0.501961" points="168,97 162,109 162,97" />
<polygon fill="#490c08" fill-opacity="0.501961" points="-16,27 -2,63 0,-2" />
<polygon fill="#32352c" fill-opacity="0.501961" points="152,96 145,99 157,98" />
<polygon fill="#2d2315" fill-opacity="0.501961" points="147,77 139,75 140,82" />
<polygon fill="#000000" fill-opacity="0.501961" points="205,7 216,-9 207,30" />
<polygon fill="#19221c" fill-opacity="0.501961" points="128,97 131,100 133,93" />
<polygon fill="#0b0a07" fill-opacity="0.501961" points="192,132 186,137 189,116" />
<polygon fill="#4a4133" fill-opacity="0.501961" points="123,66 117,59 119,66" />
<polygon fill="#070603" fill-opacity="0.501961" points="202,97 194,97 202,100" />
<polygon fill="#131316" fill-opacity="0.501961" points="128,40 127,45 146,44" />
<polygon fill="#3f4234" fill-opacity="0.501961" points="103,93 102,102 105,105" />
<polygon fill="#010000" fill-opacity="0.501961" points="125,15 127,19 139,18" />
<polygon fill="#15171d" fill-opacity="0.501961" points="197,35 192,44 163,43" />
<polygon fill="#33392b" fill-opacity="0.501961" points="177,98 179,100 181,92" />
<polygon fill="#232128" fill-opacity="0.501961" points="137,42 115,47 112,41" />
<polygon fill="#282b1e" fill-opacity="0.501961" points="179,114 178,127 182,128" />
<polygon fill="#312f38" fill-opacity="0.501961" points="124,14 115,17 108,13" />
<polygon fill="#291f15" fill-opacity="0.501961" points="168,94 170,110 162,109" />
<polygon fill="#000000" fill-opacity="0.501961" points="254,74 205,104 255,159" />
<polygon fill="#28262e" fill-opacity="0.501961" points="124,40 137,36 117,36" />
<polygon fill="#000000" fill-opacity="0.501961" points="140,29 144,31 136,30" />
<polygon fill="#000000" fill-opacity="0.501961" points="198,32 197,5 176,-16" />
<polygon fill="#1b150f" fill-opacity="0.501961" points="155,32 153,3 160,12" />
<polygon fill="#2b2117" fill-opacity="0.501961" points="193,94 199,110 190,109" />
<polygon fill="#555441" fill-opacity="0.501961" points="123,104 133,103 127,106" />
<polygon fill="#726f5b" fill-opacity="0.501961" points="135,99 133,106 133,93" />
<polygon fill="#480b03" fill-opacity="0.501961" points="255,96 260,85 271,109" />
<polygon fill="#0b1213" fill-opacity="0.501961" points="135,85 131,81 130,83" />
<polygon fill="#2d2e1f" fill-opacity="0.501961" points="153,115 155,122 153,126" />
<polygon fill="#846d6d" fill-opacity="0.501961" points="126,67 125,64 133,67" />
<polygon fill="#383746" fill-opacity="0.501961" points="116,22 115,20 119,21" />
<polygon fill="#2a2b30" fill-opacity="0.501961" points="148,46 139,78 132,67" />
<polygon fill="#0b0b11" fill-opacity="0.501961" points="194,27 197,35 172,35" />
<polygon fill="#000100" fill-opacity="0.501961" points="122,22 109,24 126,26" />
<polygon fill="#3c3e31" fill-opacity="0.501961" points="129,99 128,91 126,99" />
<polygon fill="#2a2a32" fill-opacity="0.501961" points="123,23 110,20 133,19" />
<polygon fill="#545040" fill-opacity="0.501961" points="123,116 120,109 121,118" />
<polygon fill="#0c0c07" fill-opacity="0.501961" points="144,37 150,35 146,35" />
<polygon fill="#0f1912" fill-opacity="0.501961" points="123,117 124,108 127,121" />
<polygon fill="#4b4a39" fill-opacity="0.501961" points="157,128 159,119 161,122" />
<polygon fill="#3b353a" fill-opacity="0.501961" points="151,30 138,26 146,26" />
<polygon fill="#000000" fill-opacity="0.501961" points="117,37 109,35 122,34" />
<polygon fill="#3c3526" fill-opacity="0.501961" points="103,91 114,93 119,89" />
<polygon fill="#241e16" fill-opacity="0.501961" points="107,91 102,83 129,87" />
<polygon fill="#5d5c4b" fill-opacity="0.501961" points="184,104 187,115 184,111" />
<polygon fill="#3a3e2f" fill-opacity="0.501961" points="178,114 180,116 179,108" />
<polygon fill="#08100a" fill-opacity="0.501961" points="133,118 132,125 129,118" />
<polygon fill="#1c2318" fill-opacity="0.501961" points="197,132 189,127 189,123" />
<polygon fill="#4a4638" fill-opacity="0.501961" points="120,124 122,127 121,118" />
<polygon fill="#201b15" fill-opacity="0.501961" points="135,90 150,85 165,89" />
<polygon fill="#2e2317" fill-opacity="0.501961" points="118,109 107,109 113,100" />
<polygon fill="#383726" fill-opacity="0.501961" points="172,129 176,129 171,119" />
<polygon fill="#202249" fill-opacity="0.501961" points="123,77 125,74 126,75" />
<polygon fill="#a8979a" fill-opacity="0.501961" points="122,71 128,72 132,76" />
<polygon fill="#32333e" fill-opacity="0.501961" points="130,10 123,7 120,10" />
<polygon fill="#1e222e" fill-opacity="0.501961" points="124,76 116,77 121,68" />
<polygon fill="#312518" fill-opacity="0.501961" points="154,40 159,56 146,59" />
<polygon fill="#111b11" fill-opacity="0.501961" points="174,125 177,136 185,117" />
<polygon fill="#3d4034" fill-opacity="0.501961" points="104,110 102,115 102,105" />
<polygon fill="#000000" fill-opacity="0.501961" points="137,41 147,41 140,39" />
<polygon fill="#0c0c0c" fill-opacity="0.501961" points="121,41 132,45 111,45" />
<polygon fill="#38322b" fill-opacity="0.501961" points="122,80 109,86 133,86" />
<polygon fill="#22232e" fill-opacity="0.501961" points="195,42 181,42 191,39" />
<polygon fill="#625f4e" fill-opacity="0.501961" points="174,105 173,95 171,107" />
<polygon fill="#272830" fill-opacity="0.501961" points="161,80 186,45 160,50" />
<polygon fill="#2e2c37" fill-opacity="0.501961" points="131,45 123,51 111,45" />
<polygon fill="#1c1812" fill-opacity="0.501961" points="179,87 170,89 170,86" />
<polygon fill="#292933" fill-opacity="0.501961" points="129,70 158,80 185,71" />
<polygon fill="#211a12" fill-opacity="0.501961" points="141,90 142,87 130,88" />
<polygon fill="#070808" fill-opacity="0.501961" points="126,33 120,37 140,37" />
<polygon fill="#31303b" fill-opacity="0.501961" points="129,14 128,17 139,14" />
<polygon fill="#1d1c13" fill-opacity="0.501961" points="114,117 102,121 119,122" />
<polygon fill="#101810" fill-opacity="0.501961" points="119,129 119,101 112,126" />
<polygon fill="#2e2b29" fill-opacity="0.501961" points="131,76 152,77 142,73" />
<polygon fill="#29241a" fill-opacity="0.501961" points="198,2 205,26 198,37" />
<polygon fill="#3f3d29" fill-opacity="0.501961" points="147,124 148,130 145,131" />
<polygon fill="#432f20" fill-opacity="0.501961" points="193,97 191,95 197,95" />
<polygon fill="#2e2c34" fill-opacity="0.501961" points="121,38 114,40 111,37" />
<polygon fill="#282931" fill-opacity="0.501961" points="190,55 146,86 190,73" />
<polygon fill="#3f2d1e" fill-opacity="0.501961" points="138,116 141,114 142,116" />
<polygon fill="#000000" fill-opacity="0.501961" points="122,10 122,13 111,12" />
<polygon fill="#181716" fill-opacity="0.501961" points="147,64 160,56 157,66" />
<polygon fill="#3a3826" fill-opacity="0.501961" points="172,131 172,125 170,132" />
<polygon fill="#3b3923" fill-opacity="0.501961" points="134,125 133,131 136,132" />
<polygon fill="#080705" fill-opacity="0.501961" points="188,117 197,116 191,121" />
<polygon fill="#020109" fill-opacity="0.501961" points="195,28 169,28 178,16" />
<polygon fill="#000000" fill-opacity="0.501961" points="139,10 138,13 146,12" />
<polygon fill="#050501" fill-opacity="0.501961" points="155,9 153,-16 160,-16" />
<polygon fill="#32303c" fill-opacity="0.501961" points="120,17 131,14 115,14" />
<polygon fill="#271f14" fill-opacity="0.501961" points="201,72 200,84 205,94" />
<polygon fill="#1e1f15" fill-opacity="0.501961" points="169,128 157,129 166,125" />
<polygon fill="#29272f" fill-opacity="0.501961" points="126,44 116,43 121,42" />
<polygon fill="#211a11" fill-opacity="0.501961" points="156,48 151,60 153,44" />
<polygon fill="#070705" fill-opacity="0.501961" points="129,39 137,39 136,42" />
<polygon fill="#3f3a36" fill-opacity="0.501961" points="200,47 192,52 196,47" />
<polygon fill="#000001" fill-opacity="0.501961" points="105,110 111,110 108,111" />
<polygon fill="#28282a" fill-opacity="0.501961" points="133,69 157,68 133,59" />
<polygon fill="#070906" fill-opacity="0.501961" points="188,107 188,103 198,103" />
<polygon fill="#000000" fill-opacity="0.501961" points="100,124 101,71 35,119" />
<polygon fill="#2b2b31" fill-opacity="0.501961" points="121,64 119,53 134,60" />
<polygon fill="#4c4a3e" fill-opacity="0.501961" points="103,99 105,105 103,111" />
<polygon fill="#212119" fill-opacity="0.501961" points="124,97 120,85 125,82" />
<polygon fill="#050708" fill-opacity="0.501961" points="109,35 109,42 112,41" />
<polygon fill="#636150" fill-opacity="0.501961" points="185,97 186,99 183,100" />
<polygon fill="#2b2926" fill-opacity="0.501961" points="105,73 105,69 117,77" />
<polygon fill="#151511" fill-opacity="0.501961" points="157,123 158,133 144,134" />
<polygon fill="#171e14" fill-opacity="0.501961" points="153,102 158,103 155,98" />
<polygon fill="#312f3c" fill-opacity="0.501961" points="145,2 112,2 137,-5" />
<polygon fill="#4e3927" fill-opacity="0.501961" points="152,18 149,5 147,29" />
<polygon fill="#161819" fill-opacity="0.501961" points="118,-1 146,0 109,-12" />
<polygon fill="#000000" fill-opacity="0.501961" points="144,130 138,131 137,129" />
<polygon fill="#111811" fill-opacity="0.501961" points="154,103 149,103 149,97" />
<polygon fill="#635f99" fill-opacity="0.501961" points="128,81 126,76 125,79" />
<polygon fill="#19150e" fill-opacity="0.501961" points="111,120 104,94 103,122" />
<polygon fill="#231d17" fill-opacity="0.501961" points="102,8 107,-3 105,20" />
<polygon fill="#292830" fill-opacity="0.501961" points="140,41 135,44 130,42" />
<polygon fill="#2b2419" fill-opacity="0.501961" points="108,43 102,62 102,31" />
<polygon fill="#383644" fill-opacity="0.501961" points="119,34 122,32 126,32" />
<polygon fill="#434432" fill-opacity="0.501961" points="159,118 162,119 161,110" />
</g>
</svg>