<svg xmlns="http://www.w3.org/2000/svg" version="1.1" width="1024" height="580">
<rect x="0" y="0" width="1024" height="580" fill="#101521" />
<g transform="scale(4.000000) translate(0.5 0.5)">
<polygon fill="#133f9c" fill-opacity="0.501961" points="271,111 159,160 -16,112" />
<polygon fill="#000000" fill-opacity="0.501961" points="199,44 4,-16 -16,131" />
<polygon fill="#5d5345" fill-opacity="0.501961" points="125,112 120,8 150,22" />
<polygon fill="#1442a1" fill-opacity="0.501961" points="253,119 174,156 255,160" />
<polygon fill="#1f3e7d" fill-opacity="0.501961" points="3,160 5,110 144,119" />
<polygon fill="#000000" fill-opacity="0.501961" points="-16,4 150,-16 24,132" />
<polygon fill="#32281a" fill-opacity="0.501961" points="265,112 271,-16 119,-16" />
<polygon fill="#000000" fill-opacity="0.501961" points="-16,110 118,110 111,-16" />
<polygon fill="#79879a" fill-opacity="0.501961" points="48,129 34,116 86,115" />
<polygon fill="#8f7f8e" fill-opacity="0.501961" points="124,45 123,81 136,80" />
<polygon fill="#7d7c6b" fill-opacity="0.501961" points="169,6 142,0 187,-15" />
<polygon fill="#00145a" fill-opacity="0.501961" points="-15,119 66,160 33,109" />
<polygon fill="#b1bac0" fill-opacity="0.501961" points="118,122 96,130 119,129" />
<polygon fill="#4e8dff" fill-opacity="0.501961" points="240,136 247,130 250,141" />
<polygon fill="#00134d" fill-opacity="0.501961" points="147,139 65,127 -10,160" />
<polygon fill="#1c1a17" fill-opacity="0.501961" points="271,113 208,29 109,95" />
<polygon fill="#554d37" fill-opacity="0.501961" points="206,-16 258,25 269,-9" />
<polygon fill="#00164e" fill-opacity="0.501961" points="257,112 101,115 210,160" />
<polygon fill="#080500" fill-opacity="0.501961" points="186,42 171,9 123,61" />
<polygon fill="#64748c" fill-opacity="0.501961" points="120,127 85,114 87,130" />
<polygon fill="#000000" fill-opacity="0.501961" points="81,-16 -16,110 120,110" />
<polygon fill="#0e0900" fill-opacity="0.501961" points="101,30 169,70 134,33" />
<polygon fill="#000000" fill-opacity="0.501961" points="244,86 252,110 216,106" />
<polygon fill="#1e1d1f" fill-opacity="0.501961" points="125,109 201,108 137,52" />
<polygon fill="#ccc4d9" fill-opacity="0.501961" points="124,75 123,79 134,79" />
<polygon fill="#000942" fill-opacity="0.501961" points="92,123 120,123 116,113" />
<polygon fill="#647591" fill-opacity="0.501961" points="61,115 61,132 38,128" />
<polygon fill="#280000" fill-opacity="0.501961" points="1,65 -16,142 5,150" />
<polygon fill="#2d2511" fill-opacity="0.501961" points="117,24 176,11 116,-16" />
<polygon fill="#18181c" fill-opacity="0.501961" points="233,108 167,17 252,6" />
<polygon fill="#213256" fill-opacity="0.501961" points="157,141 197,160 271,137" />
<polygon fill="#162f5b" fill-opacity="0.501961" points="98,121 71,129 43,121" />
<polygon fill="#8d1206" fill-opacity="0.501961" points="-1,-16 1,66 -16,31" />
<polygon fill="#001552" fill-opacity="0.501961" points="38,139 -16,157 41,111" />
<polygon fill="#5b615a" fill-opacity="0.501961" points="189,7 204,8 202,1" />
<polygon fill="#001a52" fill-opacity="0.501961" points="136,130 26,160 6,130" />
<polygon fill="#040300" fill-opacity="0.501961" points="147,13 145,74 181,36" />
<polygon fill="#090000" fill-opacity="0.501961" points="93,143 -16,143 41,160" />
<polygon fill="#000000" fill-opacity="0.501961" points="1,94 149,-16 2,-11" />
<polygon fill="#464534" fill-opacity="0.501961" points="148,29 146,52 126,7" />
<polygon fill="#5493ff" fill-opacity="0.501961" points="244,136 247,128 241,133" />
<polygon fill="#351300" fill-opacity="0.501961" points="253,76 253,152 271,85" />
<polygon fill="#1e1912" fill-opacity="0.501961" points="114,108 115,66 136,107" />
<polygon fill="#9d8a86" fill-opacity="0.501961" points="130,53 123,45 124,55" />
<polygon fill="#15316d" fill-opacity="0.501961" points="220,110 135,110 182,123" />
<polygon fill="#000000" fill-opacity="0.501961" points="140,62 168,37 165,71" />
<polygon fill="#1d1d21" fill-opacity="0.501961" points="122,109 216,11 220,110" />
<polygon fill="#001551" fill-opacity="0.501961" points="248,111 233,119 253,134" />
<polygon fill="#6b5b4c" fill-opacity="0.501961" points="251,22 270,35 254,6" />
<polygon fill="#291a00" fill-opacity="0.501961" points="121,143 178,144 114,160" />
<polygon fill="#002162" fill-opacity="0.501961" points="4,136 4,111 49,111" />
<polygon fill="#78150a" fill-opacity="0.501961" points="1,116 -16,62 -1,14" />
<polygon fill="#0d0600" fill-opacity="0.501961" points="143,143 102,160 91,143" />
<polygon fill="#65655d" fill-opacity="0.501961" points="161,-4 152,7 172,5" />
<polygon fill="#8c9ab1" fill-opacity="0.501961" points="54,131 49,119 48,131" />
<polygon fill="#1b1c1d" fill-opacity="0.501961" points="135,91 133,43 147,80" />
<polygon fill="#84788a" fill-opacity="0.501961" points="121,80 128,67 134,80" />
<polygon fill="#302524" fill-opacity="0.501961" points="123,74 111,64 145,73" />
<polygon fill="#251f15" fill-opacity="0.501961" points="128,59 117,47 115,65" />
<polygon fill="#1a140a" fill-opacity="0.501961" points="157,51 160,8 139,1" />
<polygon fill="#2e2100" fill-opacity="0.501961" points="271,143 219,144 271,160" />
<polygon fill="#4e5142" fill-opacity="0.501961" points="227,7 251,2 219,-16" />
<polygon fill="#8f9cad" fill-opacity="0.501961" points="98,117 93,115 95,121" />
<polygon fill="#000000" fill-opacity="0.501961" points="210,99 243,111 253,98" />
<polygon fill="#30200d" fill-opacity="0.501961" points="252,16 200,19 216,1" />
<polygon fill="#000000" fill-opacity="0.501961" points="8,110 114,-3 115,108" />
<polygon fill="#251e14" fill-opacity="0.501961" points="142,40 116,19 117,52" />
<polygon fill="#575546" fill-opacity="0.501961" points="129,25 130,32 145,18" />
<polygon fill="#042363" fill-opacity="0.501961" points="47,130 92,143 8,143" />
<polygon fill="#281c0e" fill-opacity="0.501961" points="182,-16 168,17 203,20" />
<polygon fill="#312400" fill-opacity="0.501961" points="181,143 219,143 184,160" />
<polygon fill="#3d3318" fill-opacity="0.501961" points="220,64 213,80 205,67" />
<polygon fill="#011d57" fill-opacity="0.501961" points="245,113 137,112 240,142" />
<polygon fill="#791905" fill-opacity="0.501961" points="0,120 -16,101 -1,147" />
<polygon fill="#8b99af" fill-opacity="0.501961" points="87,120 92,120 86,115" />
<polygon fill="#00124e" fill-opacity="0.501961" points="237,140 251,137 252,141" />
<polygon fill="#00174d" fill-opacity="0.501961" points="5,128 48,123 11,115" />
<polygon fill="#54688a" fill-opacity="0.501961" points="68,124 64,133 66,118" />
<polygon fill="#6e211a" fill-opacity="0.501961" points="255,16 269,43 256,65" />
<polygon fill="#1a1b21" fill-opacity="0.501961" points="260,77 246,18 164,51" />
<polygon fill="#575547" fill-opacity="0.501961" points="137,38 139,19 145,22" />
<polygon fill="#7988a3" fill-opacity="0.501961" points="64,116 44,115 54,119" />
<polygon fill="#7d6d6d" fill-opacity="0.501961" points="132,62 124,59 123,80" />
<polygon fill="#619eff" fill-opacity="0.501961" points="247,136 248,132 242,135" />
<polygon fill="#001a51" fill-opacity="0.501961" points="97,124 100,137 106,140" />
<polygon fill="#637594" fill-opacity="0.501961" points="92,131 85,117 85,130" />
<polygon fill="#17181e" fill-opacity="0.501961" points="148,40 138,59 122,60" />
<polygon fill="#00184f" fill-opacity="0.501961" points="104,139 92,131 90,121" />
<polygon fill="#00174e" fill-opacity="0.501961" points="13,130 49,142 87,131" />
<polygon fill="#5f7391" fill-opacity="0.501961" points="39,119 42,131 44,116" />
<polygon fill="#001750" fill-opacity="0.501961" points="98,124 102,112 133,112" />
<polygon fill="#031f58" fill-opacity="0.501961" points="148,113 103,142 235,141" />
<polygon fill="#1f396e" fill-opacity="0.501961" points="114,110 115,118 140,111" />
<polygon fill="#000100" fill-opacity="0.501961" points="161,39 167,74 141,49" />
<polygon fill="#001a54" fill-opacity="0.501961" points="42,120 4,135 35,143" />
<polygon fill="#000000" fill-opacity="0.501961" points="4,151 -4,126 3,105" />
<polygon fill="#8494ad" fill-opacity="0.501961" points="120,125 104,127 121,130" />
<polygon fill="#60718d" fill-opacity="0.501961" points="80,124 84,125 80,130" />
<polygon fill="#bbb9b1" fill-opacity="0.501961" points="126,77 132,73 130,78" />
<polygon fill="#0e2e5e" fill-opacity="0.501961" points="122,140 114,127 120,153" />
<polygon fill="#7a8ba4" fill-opacity="0.501961" points="42,130 50,125 40,124" />
<polygon fill="#25241d" fill-opacity="0.501961" points="132,70 148,73 137,86" />
<polygon fill="#333429" fill-opacity="0.501961" points="120,11 136,7 137,27" />
<polygon fill="#6a7c9a" fill-opacity="0.501961" points="107,124 92,124 114,130" />
<polygon fill="#2f2a1e" fill-opacity="0.501961" points="156,44 153,27 150,45" />
<polygon fill="#17191f" fill-opacity="0.501961" points="226,77 254,38 255,102" />
<polygon fill="#314a73" fill-opacity="0.501961" points="99,128 105,127 103,131" />
<polygon fill="#18181d" fill-opacity="0.501961" points="120,88 114,111 175,70" />
<polygon fill="#20170c" fill-opacity="0.501961" points="231,5 250,8 249,33" />
<polygon fill="#1c1916" fill-opacity="0.501961" points="135,51 150,64 143,34" />
<polygon fill="#6f809e" fill-opacity="0.501961" points="59,131 57,117 63,117" />
<polygon fill="#484448" fill-opacity="0.501961" points="133,45 132,53 127,48" />
<polygon fill="#6e1912" fill-opacity="0.501961" points="1,114 0,145 -16,102" />
<polygon fill="#200c02" fill-opacity="0.501961" points="253,-16 251,2 268,11" />
<polygon fill="#544e3f" fill-opacity="0.501961" points="219,5 221,-6 218,-1" />
<polygon fill="#183472" fill-opacity="0.501961" points="217,135 191,143 243,143" />
<polygon fill="#343734" fill-opacity="0.501961" points="189,5 199,-1 187,16" />
<polygon fill="#1f3c7e" fill-opacity="0.501961" points="166,143 177,139 190,142" />
<polygon fill="#031d54" fill-opacity="0.501961" points="235,142 165,141 250,116" />
<polygon fill="#142e61" fill-opacity="0.501961" points="52,123 64,126 70,121" />
<polygon fill="#5b231d" fill-opacity="0.501961" points="255,86 256,150 271,96" />
<polygon fill="#000001" fill-opacity="0.501961" points="138,69 182,41 173,22" />
<polygon fill="#0d2c6b" fill-opacity="0.501961" points="40,116 57,112 26,111" />
<polygon fill="#000000" fill-opacity="0.501961" points="2,-16 134,-16 1,113" />
<polygon fill="#443032" fill-opacity="0.501961" points="122,66 121,73 130,71" />
<polygon fill="#1c1c20" fill-opacity="0.501961" points="193,73 166,46 224,48" />
<polygon fill="#524e41" fill-opacity="0.501961" points="251,5 252,25 271,9" />
<polygon fill="#0b255a" fill-opacity="0.501961" points="112,135 115,134 114,124" />
<polygon fill="#122b5e" fill-opacity="0.501961" points="150,113 133,152 133,118" />
<polygon fill="#011b51" fill-opacity="0.501961" points="71,142 61,160 69,120" />
<polygon fill="#5c5a4f" fill-opacity="0.501961" points="241,5 249,5 249,-16" />
<polygon fill="#00174d" fill-opacity="0.501961" points="30,112 39,112 41,138" />
<polygon fill="#1e1b13" fill-opacity="0.501961" points="115,15 145,1 115,3" />
<polygon fill="#13100b" fill-opacity="0.501961" points="187,22 211,13 237,20" />
<polygon fill="#929fb4" fill-opacity="0.501961" points="108,129 120,124 110,123" />
<polygon fill="#1c1d1d" fill-opacity="0.501961" points="232,106 238,72 228,76" />
<polygon fill="#011b52" fill-opacity="0.501961" points="103,135 114,129 98,132" />
<polygon fill="#545648" fill-opacity="0.501961" points="176,-8 179,5 181,-8" />
<polygon fill="#062156" fill-opacity="0.501961" points="155,128 97,121 123,112" />
<polygon fill="#3a3b34" fill-opacity="0.501961" points="130,-8 149,5 162,-1" />
<polygon fill="#9f9cb7" fill-opacity="0.501961" points="130,73 134,79 124,73" />
<polygon fill="#0e2760" fill-opacity="0.501961" points="168,113 180,130 220,115" />
<polygon fill="#130d06" fill-opacity="0.501961" points="218,5 205,-16 191,-1" />
<polygon fill="#2d1f12" fill-opacity="0.501961" points="176,18 173,7 135,16" />
<polygon fill="#1c1d1f" fill-opacity="0.501961" points="134,78 160,89 132,54" />
<polygon fill="#000c42" fill-opacity="0.501961" points="87,123 82,118 80,123" />
<polygon fill="#140d0a" fill-opacity="0.501961" points="194,-1 182,15 182,-16" />
<polygon fill="#5a6f90" fill-opacity="0.501961" points="93,122 98,121 98,116" />
<polygon fill="#1b1b23" fill-opacity="0.501961" points="148,79 224,111 189,63" />
<polygon fill="#4e496e" fill-opacity="0.501961" points="124,78 134,84 125,83" />
<polygon fill="#161406" fill-opacity="0.501961" points="220,81 206,71 200,82" />
<polygon fill="#0a0600" fill-opacity="0.501961" points="120,143 136,160 96,143" />
<polygon fill="#080400" fill-opacity="0.501961" points="20,143 77,143 59,160" />
<polygon fill="#000100" fill-opacity="0.501961" points="149,21 156,52 147,67" />
<polygon fill="#3e433f" fill-opacity="0.501961" points="210,6 205,7 213,15" />
<polygon fill="#1a3465" fill-opacity="0.501961" points="40,121 52,122 45,125" />
<polygon fill="#000000" fill-opacity="0.501961" points="133,0 68,-16 89,2" />
<polygon fill="#495e82" fill-opacity="0.501961" points="72,126 64,127 66,123" />
<polygon fill="#050505" fill-opacity="0.501961" points="162,73 172,63 157,61" />
<polygon fill="#4f6284" fill-opacity="0.501961" points="79,115 73,122 89,115" />
<polygon fill="#2d281b" fill-opacity="0.501961" points="130,84 153,76 137,74" />
<polygon fill="#001248" fill-opacity="0.501961" points="65,116 58,112 77,112" />
<polygon fill="#001650" fill-opacity="0.501961" points="156,117 158,135 190,135" />
<polygon fill="#7c7d7e" fill-opacity="0.501961" points="164,2 171,6 162,6" />
<polygon fill="#1c1c21" fill-opacity="0.501961" points="122,110 139,101 121,78" />
<polygon fill="#561713" fill-opacity="0.501961" points="255,61 256,89 271,95" />
<polygon fill="#110f08" fill-opacity="0.501961" points="136,-9 136,11 145,14" />
<polygon fill="#00184e" fill-opacity="0.501961" points="81,134 84,124 84,137" />
<polygon fill="#191b22" fill-opacity="0.501961" points="200,15 180,32 248,93" />
<polygon fill="#001750" fill-opacity="0.501961" points="120,112 106,124 99,113" />
<polygon fill="#a1908d" fill-opacity="0.501961" points="126,49 122,52 126,55" />
<polygon fill="#0d285f" fill-opacity="0.501961" points="234,131 245,139 208,136" />
<polygon fill="#001851" fill-opacity="0.501961" points="44,142 5,141 7,115" />
<polygon fill="#000000" fill-opacity="0.501961" points="229,110 231,98 223,109" />
<polygon fill="#11316d" fill-opacity="0.501961" points="5,125 8,120 4,112" />
<polygon fill="#171009" fill-opacity="0.501961" points="194,2 197,22 192,11" />
<polygon fill="#001a52" fill-opacity="0.501961" points="5,128 44,122 6,113" />
<polygon fill="#677895" fill-opacity="0.501961" points="42,121 41,116 46,115" />
<polygon fill="#323226" fill-opacity="0.501961" points="231,6 240,7 229,-16" />
<polygon fill="#17120b" fill-opacity="0.501961" points="123,35 140,48 114,41" />
<polygon fill="#001758" fill-opacity="0.501961" points="80,113 89,115 98,111" />
<polygon fill="#2f302b" fill-opacity="0.501961" points="121,12 133,9 124,30" />
<polygon fill="#1a397a" fill-opacity="0.501961" points="34,143 52,143 41,140" />
<polygon fill="#12306a" fill-opacity="0.501961" points="125,135 101,143 148,143" />
<polygon fill="#576a8d" fill-opacity="0.501961" points="64,123 57,125 51,123" />
<polygon fill="#001a51" fill-opacity="0.501961" points="131,142 129,128 92,141" />
<polygon fill="#000000" fill-opacity="0.501961" points="34,110 116,110 114,25" />
<polygon fill="#2d2013" fill-opacity="0.501961" points="146,42 127,36 134,48" />
<polygon fill="#322316" fill-opacity="0.501961" points="216,9 246,12 215,20" />
<polygon fill="#1f1910" fill-opacity="0.501961" points="124,56 119,98 114,74" />
<polygon fill="#001952" fill-opacity="0.501961" points="21,142 77,140 12,123" />
<polygon fill="#082157" fill-opacity="0.501961" points="129,134 114,112 176,112" />
<polygon fill="#322619" fill-opacity="0.501961" points="168,11 175,-2 176,14" />
<polygon fill="#598fff" fill-opacity="0.501961" points="246,135 244,130 242,137" />
<polygon fill="#505250" fill-opacity="0.501961" points="201,2 202,7 190,1" />
<polygon fill="#173067" fill-opacity="0.501961" points="137,134 132,129 136,112" />
<polygon fill="#555345" fill-opacity="0.501961" points="144,2 166,-16 125,-16" />
<polygon fill="#14110d" fill-opacity="0.501961" points="196,6 186,-5 189,-16" />
<polygon fill="#00164f" fill-opacity="0.501961" points="250,132 249,124 234,116" />
<polygon fill="#161820" fill-opacity="0.501961" points="135,43 132,65 145,58" />
<polygon fill="#403e33" fill-opacity="0.501961" points="198,12 199,17 203,10" />
<polygon fill="#1b1c21" fill-opacity="0.501961" points="211,86 161,65 186,65" />
<polygon fill="#211f19" fill-opacity="0.501961" points="154,-12 154,15 142,-16" />
<polygon fill="#001952" fill-opacity="0.501961" points="83,142 45,132 106,130" />
<polygon fill="#635b57" fill-opacity="0.501961" points="128,54 122,51 127,56" />
<polygon fill="#3f361d" fill-opacity="0.501961" points="179,56 185,57 182,49" />
<polygon fill="#062256" fill-opacity="0.501961" points="61,134 54,124 55,132" />
<polygon fill="#00194f" fill-opacity="0.501961" points="67,113 52,112 54,116" />
<polygon fill="#555448" fill-opacity="0.501961" points="130,31 128,29 136,22" />
<polygon fill="#1d160c" fill-opacity="0.501961" points="201,12 206,17 209,1" />
<polygon fill="#22190b" fill-opacity="0.501961" points="262,66 250,77 251,108" />
<polygon fill="#3b373b" fill-opacity="0.501961" points="123,49 125,46 134,47" />
<polygon fill="#403725" fill-opacity="0.501961" points="213,79 206,77 214,76" />
<polygon fill="#372f1d" fill-opacity="0.501961" points="209,63 219,67 200,73" />
<polygon fill="#7f8fa7" fill-opacity="0.501961" points="60,119 67,117 50,115" />
<polygon fill="#001c53" fill-opacity="0.501961" points="91,141 94,133 91,124" />
<polygon fill="#535247" fill-opacity="0.501961" points="174,6 130,-16 170,-12" />
<polygon fill="#1b1c23" fill-opacity="0.501961" points="207,106 228,64 256,63" />
<polygon fill="#1d170e" fill-opacity="0.501961" points="163,6 146,21 135,6" />
<polygon fill="#001049" fill-opacity="0.501961" points="74,126 68,126 68,119" />
<polygon fill="#c8bea7" fill-opacity="0.501961" points="124,78 129,77 121,76" />
<polygon fill="#76372c" fill-opacity="0.501961" points="255,1 257,28 271,23" />
<polygon fill="#181a21" fill-opacity="0.501961" points="165,74 149,66 144,82" />
<polygon fill="#7585a0" fill-opacity="0.501961" points="76,122 72,119 74,116" />
<polygon fill="#17191f" fill-opacity="0.501961" points="143,73 133,75 133,45" />
<polygon fill="#001952" fill-opacity="0.501961" points="74,142 68,127 99,136" />
<polygon fill="#001852" fill-opacity="0.501961" points="211,136 173,132 240,117" />
<polygon fill="#030402" fill-opacity="0.501961" points="181,25 155,27 158,62" />
<polygon fill="#222229" fill-opacity="0.501961" points="241,97 247,97 250,90" />
<polygon fill="#0a2866" fill-opacity="0.501961" points="5,120 4,112 30,111" />
<polygon fill="#132d5f" fill-opacity="0.501961" points="109,133 107,124 106,134" />
<polygon fill="#110e07" fill-opacity="0.501961" points="183,20 192,20 183,10" />
<polygon fill="#13120c" fill-opacity="0.501961" points="181,17 166,32 159,19" />
<polygon fill="#020300" fill-opacity="0.501961" points="220,74 212,84 217,84" />
<polygon fill="#001953" fill-opacity="0.501961" points="10,114 6,143 42,112" />
<polygon fill="#062154" fill-opacity="0.501961" points="52,110 46,116 48,111" />
<polygon fill="#000f48" fill-opacity="0.501961" points="47,116 48,119 47,118" />
<polygon fill="#143375" fill-opacity="0.501961" points="62,140 74,142 66,143" />
<polygon fill="#000000" fill-opacity="0.501961" points="235,111 239,87 244,106" />
<polygon fill="#1b1b20" fill-opacity="0.501961" points="169,21 251,61 248,22" />
<polygon fill="#264588" fill-opacity="0.501961" points="168,143 161,143 171,140" />
<polygon fill="#73839f" fill-opacity="0.501961" points="88,117 85,121 94,121" />
<polygon fill="#1a1b21" fill-opacity="0.501961" points="130,79 139,101 141,90" />
<polygon fill="#4f4d41" fill-opacity="0.501961" points="146,26 136,20 146,38" />
<polygon fill="#1a1610" fill-opacity="0.501961" points="115,89 118,62 123,74" />
<polygon fill="#181815" fill-opacity="0.501961" points="240,82 230,110 230,82" />
<polygon fill="#122c5d" fill-opacity="0.501961" points="91,119 92,120 92,121" />
<polygon fill="#001a53" fill-opacity="0.501961" points="6,115 7,141 42,123" />
<polygon fill="#0e2c6b" fill-opacity="0.501961" points="93,137 103,143 74,143" />
<polygon fill="#2f4877" fill-opacity="0.501961" points="63,112 67,120 63,117" />
<polygon fill="#000000" fill-opacity="0.501961" points="116,90 114,-16 1,22" />
<polygon fill="#001850" fill-opacity="0.501961" points="36,142 111,142 73,130" />
<polygon fill="#13100b" fill-opacity="0.501961" points="121,23 114,14 120,34" />
<polygon fill="#092258" fill-opacity="0.501961" points="210,139 182,131 164,142" />
<polygon fill="#1e180d" fill-opacity="0.501961" points="115,88 118,111 123,103" />
<polygon fill="#0f0e02" fill-opacity="0.501961" points="181,60 187,55 178,59" />
<polygon fill="#313032" fill-opacity="0.501961" points="146,111 135,108 127,111" />
<polygon fill="#040809" fill-opacity="0.501961" points="8,110 29,111 17,107" />
<polygon fill="#00124a" fill-opacity="0.501961" points="94,115 96,112 87,112" />
<polygon fill="#3f3823" fill-opacity="0.501961" points="232,111 233,102 231,105" />
<polygon fill="#050502" fill-opacity="0.501961" points="147,40 148,28 156,49" />
<polygon fill="#1e160d" fill-opacity="0.501961" points="224,5 202,17 210,19" />
<polygon fill="#001b54" fill-opacity="0.501961" points="117,118 107,115 97,125" />
<polygon fill="#576b8b" fill-opacity="0.501961" points="53,130 58,127 66,130" />
<polygon fill="#12306e" fill-opacity="0.501961" points="19,143 31,142 20,139" />
<polygon fill="#244582" fill-opacity="0.501961" points="46,112 39,110 36,112" />
<polygon fill="#000000" fill-opacity="0.501961" points="42,-15 41,111 2,101" />
<polygon fill="#532c15" fill-opacity="0.501961" points="252,30 256,38 271,22" />
<polygon fill="#1d180b" fill-opacity="0.501961" points="253,130 256,119 253,113" />
<polygon fill="#909eb4" fill-opacity="0.501961" points="108,124 112,125 107,126" />
<polygon fill="#233f77" fill-opacity="0.501961" points="252,121 252,109 249,112" />
<polygon fill="#000000" fill-opacity="0.501961" points="241,98 233,109 254,110" />
<polygon fill="#c1cad5" fill-opacity="0.501961" points="41,117 40,120 41,119" />
<polygon fill="#001850" fill-opacity="0.501961" points="5,125 6,112 44,112" />
<polygon fill="#95a1b6" fill-opacity="0.501961" points="51,125 52,130 47,125" />
<polygon fill="#001852" fill-opacity="0.501961" points="67,140 63,129 61,135" />
<polygon fill="#001a52" fill-opacity="0.501961" points="83,142 79,127 27,142" />
<polygon fill="#424234" fill-opacity="0.501961" points="130,10 134,13 129,27" />
<polygon fill="#14161b" fill-opacity="0.501961" points="129,96 133,95 127,83" />
<polygon fill="#092157" fill-opacity="0.501961" points="136,141 140,128 177,142" />
<polygon fill="#052055" fill-opacity="0.501961" points="63,123 57,122 66,128" />
<polygon fill="#204181" fill-opacity="0.501961" points="252,129 249,142 253,144" />
<polygon fill="#001b50" fill-opacity="0.501961" points="77,125 84,119 70,123" />
<polygon fill="#204391" fill-opacity="0.501961" points="166,111 186,111 176,114" />
<polygon fill="#273e69" fill-opacity="0.501961" points="118,129 122,123 123,126" />
<polygon fill="#001a53" fill-opacity="0.501961" points="32,142 38,113 9,141" />
<polygon fill="#041b51" fill-opacity="0.501961" points="183,112 173,112 166,118" />
<polygon fill="#5f4645" fill-opacity="0.501961" points="121,70 131,71 132,66" />
<polygon fill="#8190a9" fill-opacity="0.501961" points="47,130 45,123 42,125" />
<polygon fill="#261d13" fill-opacity="0.501961" points="229,50 249,47 235,56" />
<polygon fill="#183d84" fill-opacity="0.501961" points="244,111 234,114 228,111" />
<polygon fill="#052054" fill-opacity="0.501961" points="205,128 218,112 240,112" />
<polygon fill="#6b7d9a" fill-opacity="0.501961" points="96,127 95,129 93,125" />
<polygon fill="#15171c" fill-opacity="0.501961" points="188,61 185,20 180,44" />
<polygon fill="#16408f" fill-opacity="0.501961" points="79,113 86,111 74,111" />
<polygon fill="#2a1d11" fill-opacity="0.501961" points="128,42 148,47 145,38" />
<polygon fill="#14181b" fill-opacity="0.501961" points="126,56 131,59 122,60" />
<polygon fill="#072558" fill-opacity="0.501961" points="93,123 96,120 102,124" />
<polygon fill="#2f1f0c" fill-opacity="0.501961" points="214,41 224,34 213,38" />
<polygon fill="#010101" fill-opacity="0.501961" points="157,43 183,46 156,29" />
<polygon fill="#5d6f90" fill-opacity="0.501961" points="97,118 98,123 92,116" />
<polygon fill="#161820" fill-opacity="0.501961" points="124,95 123,80 131,103" />
<polygon fill="#1b130a" fill-opacity="0.501961" points="251,40 259,44 247,26" />
<polygon fill="#1e3975" fill-opacity="0.501961" points="135,143 147,139 153,142" />
<polygon fill="#4d4e41" fill-opacity="0.501961" points="234,-6 229,5 224,6" />
<polygon fill="#072053" fill-opacity="0.501961" points="152,141 133,142 150,136" />
<polygon fill="#000000" fill-opacity="0.501961" points="229,109 215,100 230,97" />
<polygon fill="#4e4b40" fill-opacity="0.501961" points="140,19 136,38 145,27" />
<polygon fill="#50150a" fill-opacity="0.501961" points="184,2 204,-16 220,-16" />
<polygon fill="#2a509f" fill-opacity="0.501961" points="196,111 186,111 192,113" />
<polygon fill="#92807d" fill-opacity="0.501961" points="133,67 130,67 126,61" />
<polygon fill="#0b255d" fill-opacity="0.501961" points="174,112 162,125 210,112" />
<polygon fill="#352618" fill-opacity="0.501961" points="157,20 155,12 164,10" />
<polygon fill="#221b14" fill-opacity="0.501961" points="250,95 267,118 251,110" />
<polygon fill="#140f07" fill-opacity="0.501961" points="124,31 123,37 132,34" />
<polygon fill="#1e150c" fill-opacity="0.501961" points="180,18 173,16 176,-8" />
<polygon fill="#264382" fill-opacity="0.501961" points="226,143 220,140 213,143" />
<polygon fill="#59574a" fill-opacity="0.501961" points="130,23 133,32 133,27" />
<polygon fill="#22261f" fill-opacity="0.501961" points="187,144 245,160 254,143" />
<polygon fill="#7d8da5" fill-opacity="0.501961" points="89,126 88,128 90,127" />
<polygon fill="#5b5152" fill-opacity="0.501961" points="122,48 125,49 126,46" />
<polygon fill="#0a235a" fill-opacity="0.501961" points="196,142 226,129 246,141" />
<polygon fill="#1a1b21" fill-opacity="0.501961" points="127,84 120,110 183,110" />
<polygon fill="#1a1b20" fill-opacity="0.501961" points="140,78 138,67 131,74" />
<polygon fill="#16120d" fill-opacity="0.501961" points="129,47 112,36 129,40" />
<polygon fill="#826766" fill-opacity="0.501961" points="123,68 132,68 129,63" />
<polygon fill="#001852" fill-opacity="0.501961" points="222,120 240,139 240,121" />
<polygon fill="#4c6188" fill-opacity="0.501961" points="73,127 75,126 72,124" />
<polygon fill="#082258" fill-opacity="0.501961" points="124,129 139,113 119,116" />
<polygon fill="#322e20" fill-opacity="0.501961" points="134,13 126,20 148,13" />
<polygon fill="#0f1310" fill-opacity="0.501961" points="226,-16 190,-10 191,3" />
<polygon fill="#00164d" fill-opacity="0.501961" points="80,118 76,124 84,120" />
<polygon fill="#001952" fill-opacity="0.501961" points="116,141 93,138 95,129" />
<polygon fill="#1e1f21" fill-opacity="0.501961" points="241,87 251,100 250,74" />
<polygon fill="#453c35" fill-opacity="0.501961" points="121,46 125,49 121,37" />
<polygon fill="#020302" fill-opacity="0.501961" points="168,58 137,47 157,69" />
<polygon fill="#082157" fill-opacity="0.501961" points="134,141 132,124 111,135" />
<polygon fill="#021d52" fill-opacity="0.501961" points="251,142 243,142 252,133" />
<polygon fill="#1a1814" fill-opacity="0.501961" points="234,25 254,27 250,35" />
<polygon fill="#402d1d" fill-opacity="0.501961" points="132,44 129,36 132,38" />
<polygon fill="#4b5f84" fill-opacity="0.501961" points="49,122 40,121 47,119" />
<polygon fill="#856c6b" fill-opacity="0.501961" points="122,66 126,65 124,67" />
<polygon fill="#1a1b20" fill-opacity="0.501961" points="212,88 135,106 221,111" />
<polygon fill="#011c52" fill-opacity="0.501961" points="55,113 55,116 54,115" />
<polygon fill="#001950" fill-opacity="0.501961" points="250,130 251,112 234,112" />
<polygon fill="#000000" fill-opacity="0.501961" points="17,109 111,110 115,12" />
<polygon fill="#1b160e" fill-opacity="0.501961" points="123,39 115,38 115,68" />
<polygon fill="#93a0b5" fill-opacity="0.501961" points="114,129 122,128 115,124" />
<polygon fill="#0d285d" fill-opacity="0.501961" points="110,135 121,127 133,134" />
<polygon fill="#607493" fill-opacity="0.501961" points="78,126 82,123 79,124" />
</g>
</svg>