<svg xmlns="http://www.w3.org/2000/svg" version="1.1" width="1024" height="580">
<rect x="0" y="0" width="1024" height="580" fill="#1d212b" />
<g transform="scale(4.000000) translate(0.5 0.5)">
<polygon fill="#1542a1" fill-opacity="0.501961" points="271,112 -16,110 158,160" />
<polygon fill="#000000" fill-opacity="0.501961" points="24,30 78,118 140,42" />
<polygon fill="#000000" fill-opacity="0.501961" points="271,22 225,-16 226,160" />
<polygon fill="#594828" fill-opacity="0.501961" points="218,-6 151,87 218,101" />
<polygon fill="#09348f" fill-opacity="0.501961" points="97,143 2,157 5,117" />
<polygon fill="#8e7f5b" fill-opacity="0.501961" points="14,-16 34,39 16,41" />
<polygon fill="#000000" fill-opacity="0.501961" points="72,111 38,-16 121,52" />
<polygon fill="#07379c" fill-opacity="0.501961" points="253,121 251,160 194,144" />
<polygon fill="#5f7391" fill-opacity="0.501961" points="25,115 58,131 105,117" />
<polygon fill="#000000" fill-opacity="0.501961" points="255,153 257,-16 219,17" />
<polygon fill="#998584" fill-opacity="0.501961" points="129,63 110,79 132,81" />
<polygon fill="#928f7a" fill-opacity="0.501961" points="206,19 207,53 220,0" />
<polygon fill="#090000" fill-opacity="0.501961" points="-16,46 13,-16 2,139" />
<polygon fill="#7689a8" fill-opacity="0.501961" points="114,132 137,123 87,125" />
<polygon fill="#ba9b8d" fill-opacity="0.501961" points="110,22 121,21 114,34" />
<polygon fill="#271e0b" fill-opacity="0.501961" points="-14,111 70,110 40,5" />
<polygon fill="#000000" fill-opacity="0.501961" points="84,113 32,49 127,92" />
<polygon fill="#332d28" fill-opacity="0.501961" points="212,112 199,-7 79,-13" />
<polygon fill="#5ba2ff" fill-opacity="0.501961" points="249,138 246,129 239,135" />
<polygon fill="#00154d" fill-opacity="0.501961" points="141,130 62,160 29,131" />
<polygon fill="#06225f" fill-opacity="0.501961" points="142,113 271,111 176,154" />
<polygon fill="#000000" fill-opacity="0.501961" points="100,38 142,72 140,53" />
<polygon fill="#62779e" fill-opacity="0.501961" points="109,130 157,130 137,122" />
<polygon fill="#15140d" fill-opacity="0.501961" points="157,91 216,75 217,53" />
<polygon fill="#82806e" fill-opacity="0.501961" points="208,36 207,55 220,48" />
<polygon fill="#2f2c29" fill-opacity="0.501961" points="72,26 37,17 8,83" />
<polygon fill="#000000" fill-opacity="0.501961" points="271,110 228,-16 224,109" />
<polygon fill="#000f4e" fill-opacity="0.501961" points="85,112 74,109 84,145" />
<polygon fill="#6e5e42" fill-opacity="0.501961" points="46,3 21,23 11,1" />
<polygon fill="#190d00" fill-opacity="0.501961" points="-16,78 0,-9 20,22" />
<polygon fill="#7b613f" fill-opacity="0.501961" points="191,20 199,30 171,28" />
<polygon fill="#343537" fill-opacity="0.501961" points="114,61 128,82 98,87" />
<polygon fill="#000000" fill-opacity="0.501961" points="99,-2 37,76 73,85" />
<polygon fill="#445b85" fill-opacity="0.501961" points="205,160 207,115 218,119" />
<polygon fill="#42351f" fill-opacity="0.501961" points="30,42 6,39 32,119" />
<polygon fill="#000000" fill-opacity="0.501961" points="-16,79 6,-5 7,111" />
<polygon fill="#3d5787" fill-opacity="0.501961" points="13,113 28,126 25,156" />
<polygon fill="#9caabf" fill-opacity="0.501961" points="99,116 86,115 95,121" />
<polygon fill="#7d623d" fill-opacity="0.501961" points="105,5 163,-16 70,-16" />
<polygon fill="#021f5d" fill-opacity="0.501961" points="23,114 39,111 44,152" />
<polygon fill="#5a4934" fill-opacity="0.501961" points="184,81 195,47 162,79" />
<polygon fill="#5f7291" fill-opacity="0.501961" points="41,113 42,129 81,130" />
<polygon fill="#a48885" fill-opacity="0.501961" points="125,69 131,64 130,85" />
<polygon fill="#261f0c" fill-opacity="0.501961" points="220,110 214,80 177,105" />
<polygon fill="#767465" fill-opacity="0.501961" points="25,4 23,41 13,39" />
<polygon fill="#000000" fill-opacity="0.501961" points="212,7 198,16 207,-16" />
<polygon fill="#1f1c17" fill-opacity="0.501961" points="83,1 121,7 89,58" />
<polygon fill="#00154e" fill-opacity="0.501961" points="49,125 62,122 39,121" />
<polygon fill="#0e0d0b" fill-opacity="0.501961" points="174,45 180,32 209,44" />
<polygon fill="#201d1a" fill-opacity="0.501961" points="48,32 38,86 22,-16" />
<polygon fill="#2d2c32" fill-opacity="0.501961" points="117,111 177,110 154,49" />
<polygon fill="#851109" fill-opacity="0.501961" points="1,17 0,69 -16,7" />
<polygon fill="#000000" fill-opacity="0.501961" points="96,110 55,108 102,39" />
<polygon fill="#333022" fill-opacity="0.501961" points="6,-6 8,63 20,22" />
<polygon fill="#282d3e" fill-opacity="0.501961" points="75,99 32,95 45,77" />
<polygon fill="#4d546d" fill-opacity="0.501961" points="226,142 186,156 136,142" />
<polygon fill="#7f0b00" fill-opacity="0.501961" points="0,146 -16,126 0,69" />
<polygon fill="#705a41" fill-opacity="0.501961" points="196,93 174,93 196,83" />
<polygon fill="#745e41" fill-opacity="0.501961" points="175,55 177,46 198,52" />
<polygon fill="#010508" fill-opacity="0.501961" points="172,69 189,68 200,79" />
<polygon fill="#37363d" fill-opacity="0.501961" points="104,40 122,31 77,17" />
<polygon fill="#2e2a1d" fill-opacity="0.501961" points="50,60 70,41 69,24" />
<polygon fill="#77715f" fill-opacity="0.501961" points="220,26 206,23 216,-1" />
<polygon fill="#00216b" fill-opacity="0.501961" points="252,137 252,110 234,113" />
<polygon fill="#2b2310" fill-opacity="0.501961" points="225,69 211,28 223,21" />
<polygon fill="#052263" fill-opacity="0.501961" points="129,126 91,112 165,113" />
<polygon fill="#000000" fill-opacity="0.501961" points="84,60 122,36 146,64" />
<polygon fill="#231400" fill-opacity="0.501961" points="61,143 172,143 111,160" />
<polygon fill="#000000" fill-opacity="0.501961" points="225,-5 271,2 226,109" />
<polygon fill="#00164f" fill-opacity="0.501961" points="238,150 210,132 244,112" />
<polygon fill="#252835" fill-opacity="0.501961" points="175,-16 130,45 174,73" />
<polygon fill="#ad9490" fill-opacity="0.501961" points="110,30 121,30 117,24" />
<polygon fill="#000000" fill-opacity="0.501961" points="122,86 90,93 128,98" />
<polygon fill="#000000" fill-opacity="0.501961" points="68,21 44,21 56,-16" />
<polygon fill="#3f3322" fill-opacity="0.501961" points="200,46 219,101 201,111" />
<polygon fill="#b0baca" fill-opacity="0.501961" points="119,124 108,130 121,127" />
<polygon fill="#383535" fill-opacity="0.501961" points="110,110 134,97 98,97" />
<polygon fill="#011b52" fill-opacity="0.501961" points="147,129 193,136 204,112" />
<polygon fill="#0f0d08" fill-opacity="0.501961" points="176,55 203,56 193,61" />
<polygon fill="#1f1e1a" fill-opacity="0.501961" points="111,58 123,65 124,85" />
<polygon fill="#000000" fill-opacity="0.501961" points="2,144 -16,141 4,106" />
<polygon fill="#23242c" fill-opacity="0.501961" points="156,75 102,84 176,93" />
<polygon fill="#000000" fill-opacity="0.501961" points="55,78 46,30 39,79" />
<polygon fill="#7c7666" fill-opacity="0.501961" points="24,44 13,29 26,34" />
<polygon fill="#1f0000" fill-opacity="0.501961" points="255,46 253,148 271,110" />
<polygon fill="#100000" fill-opacity="0.501961" points="263,160 271,143 216,143" />
<polygon fill="#7d7d70" fill-opacity="0.501961" points="13,14 24,8 15,-3" />
<polygon fill="#00144a" fill-opacity="0.501961" points="84,116 70,123 83,125" />
<polygon fill="#000000" fill-opacity="0.501961" points="37,74 31,58 31,95" />
<polygon fill="#322d1e" fill-opacity="0.501961" points="31,108 7,20 7,110" />
<polygon fill="#b2bbca" fill-opacity="0.501961" points="65,125 69,127 62,130" />
<polygon fill="#67543b" fill-opacity="0.501961" points="195,70 176,62 199,59" />
<polygon fill="#2f2612" fill-opacity="0.501961" points="217,7 225,-16 223,32" />
<polygon fill="#44310a" fill-opacity="0.501961" points="66,144 -9,143 26,160" />
<polygon fill="#0c0b02" fill-opacity="0.501961" points="33,110 77,109 29,94" />
<polygon fill="#090a07" fill-opacity="0.501961" points="118,6 126,17 81,12" />
<polygon fill="#262527" fill-opacity="0.501961" points="15,29 41,37 65,25" />
<polygon fill="#757262" fill-opacity="0.501961" points="211,24 208,53 204,32" />
<polygon fill="#17110a" fill-opacity="0.501961" points="198,21 198,64 205,44" />
<polygon fill="#95a3b6" fill-opacity="0.501961" points="52,117 52,129 49,128" />
<polygon fill="#141613" fill-opacity="0.501961" points="213,56 217,100 205,102" />
<polygon fill="#060603" fill-opacity="0.501961" points="164,94 167,81 176,90" />
<polygon fill="#09265a" fill-opacity="0.501961" points="52,128 67,155 61,121" />
<polygon fill="#2e2e38" fill-opacity="0.501961" points="111,92 97,72 112,72" />
<polygon fill="#000000" fill-opacity="0.501961" points="65,11 89,90 88,28" />
<polygon fill="#232119" fill-opacity="0.501961" points="201,45 222,41 217,36" />
<polygon fill="#12100d" fill-opacity="0.501961" points="18,15 18,28 11,12" />
<polygon fill="#1e396e" fill-opacity="0.501961" points="208,119 236,111 181,110" />
<polygon fill="#0c3177" fill-opacity="0.501961" points="68,111 82,118 104,111" />
<polygon fill="#5e452e" fill-opacity="0.501961" points="30,99 30,67 25,81" />
<polygon fill="#1a1b14" fill-opacity="0.501961" points="17,88 14,38 28,46" />
<polygon fill="#292a33" fill-opacity="0.501961" points="130,46 118,16 211,10" />
<polygon fill="#60749b" fill-opacity="0.501961" points="95,125 84,125 90,129" />
<polygon fill="#082666" fill-opacity="0.501961" points="121,127 177,141 124,142" />
<polygon fill="#121317" fill-opacity="0.501961" points="181,84 198,86 200,61" />
<polygon fill="#735853" fill-opacity="0.501961" points="128,62 122,66 133,70" />
<polygon fill="#0d0c03" fill-opacity="0.501961" points="121,1 125,-16 161,2" />
<polygon fill="#837d67" fill-opacity="0.501961" points="212,6 213,-9 236,-16" />
<polygon fill="#7c8ca7" fill-opacity="0.501961" points="42,115 58,117 40,123" />
<polygon fill="#6a563b" fill-opacity="0.501961" points="121,4 101,4 115,-16" />
<polygon fill="#667691" fill-opacity="0.501961" points="12,142 26,142 44,160" />
<polygon fill="#64533d" fill-opacity="0.501961" points="184,81 185,73 155,73" />
<polygon fill="#483f27" fill-opacity="0.501961" points="92,35 91,59 88,47" />
<polygon fill="#0f285e" fill-opacity="0.501961" points="30,121 3,140 55,121" />
<polygon fill="#51402b" fill-opacity="0.501961" points="23,67 31,77 28,41" />
<polygon fill="#000000" fill-opacity="0.501961" points="70,48 43,78 118,68" />
<polygon fill="#9daac0" fill-opacity="0.501961" points="99,120 96,122 93,118" />
<polygon fill="#6e80a1" fill-opacity="0.501961" points="138,129 142,125 126,125" />
<polygon fill="#403419" fill-opacity="0.501961" points="226,143 173,144 188,160" />
<polygon fill="#000000" fill-opacity="0.501961" points="254,8 225,111 255,108" />
<polygon fill="#665236" fill-opacity="0.501961" points="175,30 175,21 200,24" />
<polygon fill="#001d57" fill-opacity="0.501961" points="97,138 91,137 91,116" />
<polygon fill="#9d8b91" fill-opacity="0.501961" points="124,80 126,64 130,77" />
<polygon fill="#072360" fill-opacity="0.501961" points="96,132 101,113 111,114" />
<polygon fill="#2b2314" fill-opacity="0.501961" points="53,5 -2,-3 48,-16" />
<polygon fill="#35343b" fill-opacity="0.501961" points="96,17 101,27 125,21" />
<polygon fill="#011f5e" fill-opacity="0.501961" points="247,143 254,139 249,114" />
<polygon fill="#000000" fill-opacity="0.501961" points="102,111 73,47 71,110" />
<polygon fill="#35290f" fill-opacity="0.501961" points="224,108 218,90 224,70" />
<polygon fill="#5389ff" fill-opacity="0.501961" points="249,138 247,131 240,133" />
<polygon fill="#4c3c28" fill-opacity="0.501961" points="202,109 201,57 211,91" />
<polygon fill="#777567" fill-opacity="0.501961" points="216,10 207,12 207,38" />
<polygon fill="#000000" fill-opacity="0.501961" points="97,14 85,9 87,21" />
<polygon fill="#500900" fill-opacity="0.501961" points="255,2 256,99 271,50" />
<polygon fill="#000100" fill-opacity="0.501961" points="148,70 137,73 123,44" />
<polygon fill="#17336f" fill-opacity="0.501961" points="132,110 127,128 159,111" />
<polygon fill="#000000" fill-opacity="0.501961" points="202,6 213,9 209,-16" />
<polygon fill="#554a33" fill-opacity="0.501961" points="27,56 12,46 14,52" />
<polygon fill="#272830" fill-opacity="0.501961" points="173,70 138,86 148,23" />
<polygon fill="#001650" fill-opacity="0.501961" points="107,127 105,141 76,142" />
<polygon fill="#7789a9" fill-opacity="0.501961" points="151,128 148,124 138,125" />
<polygon fill="#566b8b" fill-opacity="0.501961" points="56,115 75,115 79,122" />
<polygon fill="#001753" fill-opacity="0.501961" points="236,140 247,120 223,112" />
<polygon fill="#28272b" fill-opacity="0.501961" points="116,36 99,30 91,-11" />
<polygon fill="#5a4a38" fill-opacity="0.501961" points="25,114 31,105 27,87" />
<polygon fill="#2a2d3b" fill-opacity="0.501961" points="60,21 42,33 70,31" />
<polygon fill="#606361" fill-opacity="0.501961" points="118,82 112,72 121,76" />
<polygon fill="#74715e" fill-opacity="0.501961" points="218,41 219,53 209,47" />
<polygon fill="#4d331c" fill-opacity="0.501961" points="209,10 218,10 212,6" />
<polygon fill="#052058" fill-opacity="0.501961" points="7,112 47,112 32,119" />
<polygon fill="#67573b" fill-opacity="0.501961" points="218,108 218,97 216,103" />
<polygon fill="#8493aa" fill-opacity="0.501961" points="57,124 60,126 57,128" />
<polygon fill="#000000" fill-opacity="0.501961" points="-8,-16 6,34 6,-11" />
<polygon fill="#7e7c6e" fill-opacity="0.501961" points="27,27 20,25 20,4" />
<polygon fill="#840f08" fill-opacity="0.501961" points="-1,16 1,-5 -14,6" />
<polygon fill="#0a0a09" fill-opacity="0.501961" points="199,94 175,107 199,104" />
<polygon fill="#6d1811" fill-opacity="0.501961" points="-16,111 1,149 -1,105" />
<polygon fill="#334c88" fill-opacity="0.501961" points="107,142 141,157 163,142" />
<polygon fill="#413827" fill-opacity="0.501961" points="13,76 10,104 19,102" />
<polygon fill="#302d32" fill-opacity="0.501961" points="88,15 64,6 65,-7" />
<polygon fill="#24272e" fill-opacity="0.501961" points="42,37 39,78 31,38" />
<polygon fill="#181b14" fill-opacity="0.501961" points="213,94 206,111 206,71" />
<polygon fill="#191a15" fill-opacity="0.501961" points="24,63 13,101 24,97" />
<polygon fill="#001a52" fill-opacity="0.501961" points="48,126 42,131 43,140" />
<polygon fill="#000f49" fill-opacity="0.501961" points="248,137 233,140 251,142" />
<polygon fill="#614f39" fill-opacity="0.501961" points="177,47 198,55 197,47" />
<polygon fill="#6c5650" fill-opacity="0.501961" points="124,71 128,61 133,68" />
<polygon fill="#50371f" fill-opacity="0.501961" points="26,17 25,-16 35,-10" />
<polygon fill="#635538" fill-opacity="0.501961" points="208,66 220,66 216,63" />
<polygon fill="#695a3f" fill-opacity="0.501961" points="217,92 211,91 219,87" />
<polygon fill="#c0c9d4" fill-opacity="0.501961" points="46,122 45,115 43,115" />
<polygon fill="#94a2bc" fill-opacity="0.501961" points="94,128 97,126 96,129" />
<polygon fill="#564a35" fill-opacity="0.501961" points="13,64 14,59 25,68" />
<polygon fill="#070800" fill-opacity="0.501961" points="56,62 51,34 60,36" />
<polygon fill="#2e4778" fill-opacity="0.501961" points="12,119 23,139 27,118" />
<polygon fill="#68593c" fill-opacity="0.501961" points="24,94 20,88 14,89" />
<polygon fill="#000000" fill-opacity="0.501961" points="46,46 35,46 37,51" />
<polygon fill="#524730" fill-opacity="0.501961" points="50,44 51,59 53,50" />
<polygon fill="#2e4475" fill-opacity="0.501961" points="28,142 60,152 67,142" />
<polygon fill="#061f54" fill-opacity="0.501961" points="192,112 161,141 220,112" />
<polygon fill="#5b4b39" fill-opacity="0.501961" points="46,-6 44,9 35,9" />
<polygon fill="#060300" fill-opacity="0.501961" points="96,143 45,160 35,143" />
<polygon fill="#090b0c" fill-opacity="0.501961" points="15,54 23,58 17,64" />
<polygon fill="#00124a" fill-opacity="0.501961" points="69,114 72,122 69,124" />
<polygon fill="#705f41" fill-opacity="0.501961" points="15,76 20,77 22,81" />
<polygon fill="#614e38" fill-opacity="0.501961" points="174,85 180,93 197,86" />
<polygon fill="#000000" fill-opacity="0.501961" points="88,72 95,35 113,68" />
<polygon fill="#27282f" fill-opacity="0.501961" points="118,30 162,-14 137,48" />
<polygon fill="#001147" fill-opacity="0.501961" points="80,113 92,112 75,120" />
<polygon fill="#000000" fill-opacity="0.501961" points="201,64 198,56 200,47" />
<polygon fill="#28252b" fill-opacity="0.501961" points="103,143 136,160 191,143" />
<polygon fill="#3e3f49" fill-opacity="0.501961" points="130,73 117,78 111,74" />
<polygon fill="#0f2a5e" fill-opacity="0.501961" points="46,112 48,119 46,123" />
<polygon fill="#6c5b36" fill-opacity="0.501961" points="114,60 115,67 113,63" />
<polygon fill="#72684f" fill-opacity="0.501961" points="16,36 13,44 13,30" />
<polygon fill="#3b3220" fill-opacity="0.501961" points="62,49 60,36 66,37" />
<polygon fill="#264b96" fill-opacity="0.501961" points="39,111 19,111 30,114" />
<polygon fill="#001455" fill-opacity="0.501961" points="141,128 146,125 145,127" />
<polygon fill="#151307" fill-opacity="0.501961" points="168,-13 148,5 156,7" />
<polygon fill="#251d12" fill-opacity="0.501961" points="31,11 44,8 25,38" />
<polygon fill="#493621" fill-opacity="0.501961" points="208,60 200,75 203,37" />
<polygon fill="#ffe4ca" fill-opacity="0.501961" points="127,72 124,72 125,71" />
<polygon fill="#524f43" fill-opacity="0.501961" points="51,113 48,110 50,102" />
<polygon fill="#00194e" fill-opacity="0.501961" points="57,123 49,121 44,124" />
<polygon fill="#b3a299" fill-opacity="0.501961" points="129,79 131,75 125,71" />
<polygon fill="#1d1d1f" fill-opacity="0.501961" points="190,38 208,47 174,46" />
<polygon fill="#000100" fill-opacity="0.501961" points="124,98 99,92 129,90" />
<polygon fill="#29292f" fill-opacity="0.501961" points="128,103 159,79 131,71" />
<polygon fill="#000100" fill-opacity="0.501961" points="116,35 128,41 118,67" />
<polygon fill="#0f2a67" fill-opacity="0.501961" points="119,140 137,126 138,142" />
<polygon fill="#1c1915" fill-opacity="0.501961" points="212,41 212,28 227,27" />
<polygon fill="#000a44" fill-opacity="0.501961" points="53,117 55,119 54,113" />
<polygon fill="#2d4677" fill-opacity="0.501961" points="217,111 220,126 204,135" />
<polygon fill="#8897ab" fill-opacity="0.501961" points="74,124 72,124 73,129" />
<polygon fill="#411408" fill-opacity="0.501961" points="255,144 255,92 267,130" />
<polygon fill="#9daabf" fill-opacity="0.501961" points="96,115 97,120 93,122" />
<polygon fill="#000100" fill-opacity="0.501961" points="45,2 50,17 66,2" />
<polygon fill="#001049" fill-opacity="0.501961" points="55,126 65,122 56,122" />
<polygon fill="#13140e" fill-opacity="0.501961" points="206,60 221,47 209,65" />
<polygon fill="#030506" fill-opacity="0.501961" points="17,41 15,48 21,52" />
<polygon fill="#001951" fill-opacity="0.501961" points="46,131 121,131 83,142" />
<polygon fill="#68553c" fill-opacity="0.501961" points="184,73 162,79 176,80" />
<polygon fill="#a7918d" fill-opacity="0.501961" points="113,27 111,32 111,24" />
<polygon fill="#332518" fill-opacity="0.501961" points="206,12 193,33 205,30" />
<polygon fill="#564932" fill-opacity="0.501961" points="16,76 13,66 12,86" />
<polygon fill="#0f285f" fill-opacity="0.501961" points="37,141 40,113 19,112" />
<polygon fill="#000000" fill-opacity="0.501961" points="1,84 7,99 2,114" />
<polygon fill="#000000" fill-opacity="0.501961" points="225,-7 226,99 257,-9" />
<polygon fill="#292931" fill-opacity="0.501961" points="38,107 46,83 33,84" />
<polygon fill="#1c180d" fill-opacity="0.501961" points="109,-16 68,-4 92,8" />
<polygon fill="#6a5a3e" fill-opacity="0.501961" points="20,104 12,103 14,101" />
<polygon fill="#95a1b5" fill-opacity="0.501961" points="65,133 66,130 63,125" />
<polygon fill="#0a2867" fill-opacity="0.501961" points="252,122 252,144 245,122" />
<polygon fill="#001b54" fill-opacity="0.501961" points="69,142 55,129 106,137" />
<polygon fill="#837f71" fill-opacity="0.501961" points="209,54 208,49 217,47" />
<polygon fill="#201d11" fill-opacity="0.501961" points="64,6 58,12 81,21" />
<polygon fill="#abb3bf" fill-opacity="0.501961" points="103,126 102,127 102,129" />
<polygon fill="#2e2f38" fill-opacity="0.501961" points="97,86 110,89 112,83" />
<polygon fill="#272933" fill-opacity="0.501961" points="197,23 203,-16 155,9" />
<polygon fill="#151208" fill-opacity="0.501961" points="198,29 179,36 183,30" />
<polygon fill="#1d180c" fill-opacity="0.501961" points="187,109 196,98 171,93" />
<polygon fill="#1c1915" fill-opacity="0.501961" points="204,60 168,60 186,55" />
<polygon fill="#00164d" fill-opacity="0.501961" points="231,128 252,129 249,112" />
<polygon fill="#173a85" fill-opacity="0.501961" points="252,111 242,114 233,111" />
<polygon fill="#a2aebe" fill-opacity="0.501961" points="54,129 53,125 50,126" />
<polygon fill="#0a2865" fill-opacity="0.501961" points="103,143 126,139 99,127" />
<polygon fill="#677892" fill-opacity="0.501961" points="88,115 85,117 89,123" />
<polygon fill="#795e58" fill-opacity="0.501961" points="119,31 115,32 111,29" />
<polygon fill="#2a2b34" fill-opacity="0.501961" points="85,20 75,21 80,11" />
<polygon fill="#00144f" fill-opacity="0.501961" points="33,122 40,125 46,122" />
<polygon fill="#001953" fill-opacity="0.501961" points="221,112 233,142 251,112" />
<polygon fill="#232331" fill-opacity="0.501961" points="127,74 121,79 120,72" />
<polygon fill="#bac3cf" fill-opacity="0.501961" points="68,124 63,124 63,126" />
<polygon fill="#000000" fill-opacity="0.501961" points="73,99 71,11 89,48" />
<polygon fill="#647fa6" fill-opacity="0.501961" points="201,150 206,142 211,142" />
<polygon fill="#5a4d32" fill-opacity="0.501961" points="218,75 210,81 206,79" />
<polygon fill="#151007" fill-opacity="0.501961" points="35,99 64,106 76,97" />
<polygon fill="#667b9b" fill-opacity="0.501961" points="42,123 44,119 43,127" />
<polygon fill="#2e281c" fill-opacity="0.501961" points="218,20 224,3 225,40" />
<polygon fill="#161412" fill-opacity="0.501961" points="7,44 11,39 12,59" />
<polygon fill="#0d2865" fill-opacity="0.501961" points="160,122 176,141 134,139" />
<polygon fill="#576d8c" fill-opacity="0.501961" points="75,127 72,131 70,129" />
<polygon fill="#000000" fill-opacity="0.501961" points="45,67 52,62 46,40" />
<polygon fill="#030300" fill-opacity="0.501961" points="254,111 267,108 253,144" />
<polygon fill="#534530" fill-opacity="0.501961" points="201,95 206,106 205,79" />
<polygon fill="#63513a" fill-opacity="0.501961" points="174,68 183,60 198,68" />
<polygon fill="#244695" fill-opacity="0.501961" points="170,111 159,114 149,111" />
<polygon fill="#282932" fill-opacity="0.501961" points="143,7 146,46 127,46" />
<polygon fill="#050501" fill-opacity="0.501961" points="223,-7 219,4 220,-16" />
<polygon fill="#0f110d" fill-opacity="0.501961" points="216,78 217,87 205,88" />
<polygon fill="#161611" fill-opacity="0.501961" points="14,78 29,92 15,88" />
<polygon fill="#001652" fill-opacity="0.501961" points="84,122 94,122 94,125" />
<polygon fill="#736f60" fill-opacity="0.501961" points="208,26 218,26 214,13" />
<polygon fill="#2c2d32" fill-opacity="0.501961" points="47,27 32,17 69,26" />
<polygon fill="#7080a0" fill-opacity="0.501961" points="90,124 85,129 90,127" />
<polygon fill="#0a2560" fill-opacity="0.501961" points="177,112 118,112 136,123" />
<polygon fill="#0c0e08" fill-opacity="0.501961" points="22,2 37,-13 4,-10" />
<polygon fill="#8291ad" fill-opacity="0.501961" points="126,125 121,129 127,128" />
<polygon fill="#261e0d" fill-opacity="0.501961" points="220,79 219,43 225,62" />
<polygon fill="#00144d" fill-opacity="0.501961" points="70,112 80,113 85,122" />
<polygon fill="#000000" fill-opacity="0.501961" points="132,47 103,55 143,57" />
<polygon fill="#0e2a65" fill-opacity="0.501961" points="119,119 123,128 126,117" />
<polygon fill="#6b809d" fill-opacity="0.501961" points="78,122 78,120 73,118" />
<polygon fill="#000000" fill-opacity="0.501961" points="86,28 66,28 90,46" />
<polygon fill="#122a5e" fill-opacity="0.501961" points="227,143 224,114 211,139" />
<polygon fill="#9eaabf" fill-opacity="0.501961" points="121,130 117,129 120,124" />
<polygon fill="#0a0d0c" fill-opacity="0.501961" points="12,72 23,74 22,78" />
<polygon fill="#25262d" fill-opacity="0.501961" points="122,37 88,33 96,16" />
<polygon fill="#040600" fill-opacity="0.501961" points="36,63 31,48 32,80" />
<polygon fill="#0c0d0c" fill-opacity="0.501961" points="18,102 14,91 23,95" />
<polygon fill="#4c412c" fill-opacity="0.501961" points="119,104 115,97 128,105" />
<polygon fill="#001c57" fill-opacity="0.501961" points="36,127 44,123 33,122" />
<polygon fill="#c7aeac" fill-opacity="0.501961" points="110,32 113,25 116,25" />
<polygon fill="#323035" fill-opacity="0.501961" points="108,25 99,25 119,36" />
<polygon fill="#242527" fill-opacity="0.501961" points="41,66 29,55 45,57" />
<polygon fill="#747060" fill-opacity="0.501961" points="211,18 211,41 204,40" />
<polygon fill="#000000" fill-opacity="0.501961" points="45,21 61,18 45,5" />
<polygon fill="#1c1c15" fill-opacity="0.501961" points="212,71 206,80 206,58" />
<polygon fill="#4b4227" fill-opacity="0.501961" points="39,110 38,103 35,106" />
<polygon fill="#000000" fill-opacity="0.501961" points="232,144 255,143 241,152" />
<polygon fill="#29292e" fill-opacity="0.501961" points="185,44 151,40 139,58" />
<polygon fill="#292a32" fill-opacity="0.501961" points="71,101 48,85 62,86" />
<polygon fill="#647694" fill-opacity="0.501961" points="67,115 63,121 56,118" />
<polygon fill="#030300" fill-opacity="0.501961" points="30,106 36,110 32,93" />
<polygon fill="#1a1712" fill-opacity="0.501961" points="189,67 201,70 200,90" />
<polygon fill="#53442e" fill-opacity="0.501961" points="188,33 192,40 194,33" />
<polygon fill="#10100e" fill-opacity="0.501961" points="216,91 206,99 213,100" />
<polygon fill="#131008" fill-opacity="0.501961" points="40,35 67,33 73,43" />
<polygon fill="#000000" fill-opacity="0.501961" points="1,143 6,145 1,136" />
<polygon fill="#27272b" fill-opacity="0.501961" points="112,111 94,98 130,106" />
<polygon fill="#7f8fab" fill-opacity="0.501961" points="140,123 140,129 143,130" />
<polygon fill="#244181" fill-opacity="0.501961" points="187,114 183,110 171,111" />
<polygon fill="#755b56" fill-opacity="0.501961" points="113,33 115,31 109,29" />
<polygon fill="#052057" fill-opacity="0.501961" points="16,113 6,130 5,114" />
<polygon fill="#604e38" fill-opacity="0.501961" points="175,60 194,60 199,68" />
<polygon fill="#4f422d" fill-opacity="0.501961" points="200,65 210,67 204,71" />
<polygon fill="#292930" fill-opacity="0.501961" points="190,111 124,80 136,109" />
<polygon fill="#411512" fill-opacity="0.501961" points="256,108 271,105 255,145" />
<polygon fill="#040501" fill-opacity="0.501961" points="176,32 190,41 186,32" />
<polygon fill="#323545" fill-opacity="0.501961" points="36,50 32,53 43,51" />
<polygon fill="#100f09" fill-opacity="0.501961" points="116,47 92,47 118,36" />
<polygon fill="#4b4e59" fill-opacity="0.501961" points="205,105 202,116 205,114" />
<polygon fill="#000000" fill-opacity="0.501961" points="100,110 92,103 103,104" />
<polygon fill="#253d74" fill-opacity="0.501961" points="110,110 85,111 97,115" />
<polygon fill="#94a1b6" fill-opacity="0.501961" points="48,127 48,124 54,130" />
<polygon fill="#102d6b" fill-opacity="0.501961" points="126,129 90,143 129,141" />
<polygon fill="#4c83ff" fill-opacity="0.501961" points="247,135 245,129 240,133" />
<polygon fill="#314b7b" fill-opacity="0.501961" points="203,134 205,143 211,130" />
<polygon fill="#65523c" fill-opacity="0.501961" points="173,55 196,54 185,49" />
<polygon fill="#000000" fill-opacity="0.501961" points="254,-16 255,114 225,62" />
<polygon fill="#544a33" fill-opacity="0.501961" points="215,90 205,95 204,92" />
<polygon fill="#040504" fill-opacity="0.501961" points="179,84 163,83 167,87" />
<polygon fill="#000000" fill-opacity="0.501961" points="109,71 91,72 94,35" />
<polygon fill="#08225a" fill-opacity="0.501961" points="220,112 152,112 181,123" />
<polygon fill="#272830" fill-opacity="0.501961" points="130,4 156,99 177,12" />
<polygon fill="#5a6c8d" fill-opacity="0.501961" points="108,129 119,130 110,126" />
<polygon fill="#3a589e" fill-opacity="0.501961" points="107,112 119,112 112,110" />
<polygon fill="#395899" fill-opacity="0.501961" points="136,112 126,112 132,110" />
<polygon fill="#4b4331" fill-opacity="0.501961" points="12,110 14,93 17,111" />
<polygon fill="#2f2b1e" fill-opacity="0.501961" points="46,30 44,9 34,22" />
</g>
</svg>