<svg xmlns="http://www.w3.org/2000/svg" version="1.1" width="1024" height="580">
<rect x="0" y="0" width="1024" height="580" fill="#42444c" />
<g transform="scale(4.000000) translate(0.5 0.5)">
<polygon fill="#fffff3" fill-opacity="0.501961" points="46,22 23,124 76,107" />
<polygon fill="#fffffa" fill-opacity="0.501961" points="176,113 222,105 202,26" />
<polygon fill="#0c0f15" fill-opacity="0.501961" points="176,160 186,-16 51,69" />
<polygon fill="#043498" fill-opacity="0.501961" points="255,111 78,160 -16,112" />
<polygon fill="#ffffd9" fill-opacity="0.501961" points="184,91 227,73 203,129" />
<polygon fill="#0d0602" fill-opacity="0.501961" points="210,41 259,160 258,31" />
<polygon fill="#f1e8df" fill-opacity="0.501961" points="72,81 30,81 35,138" />
<polygon fill="#0e0504" fill-opacity="0.501961" points="42,17 -1,127 -16,44" />
<polygon fill="#0b348f" fill-opacity="0.501961" points="150,160 172,104 271,133" />
<polygon fill="#0d0200" fill-opacity="0.501961" points="16,-16 -14,13 116,4" />
<polygon fill="#2e2515" fill-opacity="0.501961" points="195,24 67,123 84,12" />
<polygon fill="#99917d" fill-opacity="0.501961" points="80,46 103,80 109,42" />
<polygon fill="#968269" fill-opacity="0.501961" points="93,20 54,7 24,55" />
<polygon fill="#93795f" fill-opacity="0.501961" points="170,-16 233,-16 196,73" />
<polygon fill="#0a0307" fill-opacity="0.501961" points="25,53 49,72 20,79" />
<polygon fill="#647cac" fill-opacity="0.501961" points="-2,93 106,130 40,129" />
<polygon fill="#090b11" fill-opacity="0.501961" points="201,70 154,8 109,58" />
<polygon fill="#fff8dd" fill-opacity="0.501961" points="50,75 38,51 63,52" />
<polygon fill="#ffffff" fill-opacity="0.501961" points="222,92 202,83 224,76" />
<polygon fill="#022a7c" fill-opacity="0.501961" points="47,139 4,157 4,93" />
<polygon fill="#fffff2" fill-opacity="0.501961" points="69,85 25,97 70,100" />
<polygon fill="#011848" fill-opacity="0.501961" points="208,136 226,82 271,153" />
<polygon fill="#796f4c" fill-opacity="0.501961" points="112,-16 213,-7 100,22" />
<polygon fill="#fffff5" fill-opacity="0.501961" points="212,53 200,64 190,52" />
<polygon fill="#000000" fill-opacity="0.501961" points="141,31 215,21 146,7" />
<polygon fill="#25180f" fill-opacity="0.501961" points="56,84 89,40 67,29" />
<polygon fill="#978864" fill-opacity="0.501961" points="21,8 16,38 -16,9" />
<polygon fill="#001346" fill-opacity="0.501961" points="59,132 86,160 177,127" />
<polygon fill="#010f2a" fill-opacity="0.501961" points="73,89 67,123 127,122" />
<polygon fill="#ffface" fill-opacity="0.501961" points="187,77 195,113 179,103" />
<polygon fill="#7088cd" fill-opacity="0.501961" points="178,152 205,160 203,114" />
<polygon fill="#0b0000" fill-opacity="0.501961" points="269,5 225,14 225,-16" />
<polygon fill="#000000" fill-opacity="0.501961" points="21,45 49,24 21,19" />
<polygon fill="#030000" fill-opacity="0.501961" points="210,65 209,47 233,81" />
<polygon fill="#b79ea8" fill-opacity="0.501961" points="127,63 132,78 121,80" />
<polygon fill="#ebb54a" fill-opacity="0.501961" points="36,112 70,106 45,95" />
<polygon fill="#826f69" fill-opacity="0.501961" points="183,41 216,54 195,-9" />
<polygon fill="#000000" fill-opacity="0.501961" points="181,58 182,69 201,65" />
<polygon fill="#ffffff" fill-opacity="0.501961" points="27,96 33,78 45,100" />
<polygon fill="#887e5c" fill-opacity="0.501961" points="224,17 238,20 230,57" />
<polygon fill="#516dba" fill-opacity="0.501961" points="33,120 66,126 19,160" />
<polygon fill="#2b2c35" fill-opacity="0.501961" points="170,30 184,126 138,26" />
<polygon fill="#021946" fill-opacity="0.501961" points="6,114 32,112 17,160" />
<polygon fill="#5499ff" fill-opacity="0.501961" points="254,129 243,138 242,131" />
<polygon fill="#ebb54f" fill-opacity="0.501961" points="188,82 213,99 185,97" />
<polygon fill="#281d06" fill-opacity="0.501961" points="232,64 219,108 267,112" />
<polygon fill="#000000" fill-opacity="0.501961" points="178,6 176,33 139,6" />
<polygon fill="#1a1402" fill-opacity="0.501961" points="70,-16 106,45 99,-1" />
<polygon fill="#1e222c" fill-opacity="0.501961" points="31,37 -5,97 27,97" />
<polygon fill="#7b6e64" fill-opacity="0.501961" points="35,52 89,24 48,9" />
<polygon fill="#fff3dd" fill-opacity="0.501961" points="45,68 51,44 37,55" />
<polygon fill="#fffffd" fill-opacity="0.501961" points="222,77 193,89 220,93" />
<polygon fill="#cab8b5" fill-opacity="0.501961" points="242,49 236,58 247,53" />
<polygon fill="#e2dfe6" fill-opacity="0.501961" points="188,90 202,74 186,72" />
<polygon fill="#2d1d05" fill-opacity="0.501961" points="226,22 205,15 225,41" />
<polygon fill="#2654ae" fill-opacity="0.501961" points="7,97 35,107 34,98" />
<polygon fill="#9fa9b4" fill-opacity="0.501961" points="105,125 105,132 90,124" />
<polygon fill="#250f00" fill-opacity="0.501961" points="251,94 271,51 251,-16" />
<polygon fill="#332d2b" fill-opacity="0.501961" points="49,70 97,55 101,91" />
<polygon fill="#88806d" fill-opacity="0.501961" points="116,19 134,-16 133,21" />
<polygon fill="#122e61" fill-opacity="0.501961" points="185,109 85,112 174,158" />
<polygon fill="#ffffff" fill-opacity="0.501961" points="181,96 186,107 210,104" />
<polygon fill="#060000" fill-opacity="0.501961" points="36,62 45,70 42,77" />
<polygon fill="#ffffeb" fill-opacity="0.501961" points="53,93 69,102 70,78" />
<polygon fill="#272424" fill-opacity="0.501961" points="59,69 102,115 66,28" />
<polygon fill="#a39872" fill-opacity="0.501961" points="249,32 249,9 244,20" />
<polygon fill="#77749e" fill-opacity="0.501961" points="67,78 42,102 57,77" />
<polygon fill="#3c4d8e" fill-opacity="0.501961" points="219,144 203,160 205,98" />
<polygon fill="#b19592" fill-opacity="0.501961" points="181,48 204,24 186,32" />
<polygon fill="#072c7a" fill-opacity="0.501961" points="252,136 232,113 253,110" />
<polygon fill="#ffffeb" fill-opacity="0.501961" points="191,57 198,62 200,49" />
<polygon fill="#382a1b" fill-opacity="0.501961" points="175,46 180,-16 189,28" />
<polygon fill="#2c251a" fill-opacity="0.501961" points="150,110 70,62 72,110" />
<polygon fill="#5d68ae" fill-opacity="0.501961" points="196,82 212,70 225,74" />
<polygon fill="#f0c5bc" fill-opacity="0.501961" points="41,93 54,90 54,53" />
<polygon fill="#917b81" fill-opacity="0.501961" points="110,54 98,73 103,83" />
<polygon fill="#000000" fill-opacity="0.501961" points="94,0 37,-16 -16,4" />
<polygon fill="#050500" fill-opacity="0.501961" points="115,67 122,30 151,52" />
<polygon fill="#615938" fill-opacity="0.501961" points="37,20 63,7 1,8" />
<polygon fill="#7789ad" fill-opacity="0.501961" points="34,130 31,107 83,130" />
<polygon fill="#83806a" fill-opacity="0.501961" points="147,4 175,7 175,-16" />
<polygon fill="#f0cb87" fill-opacity="0.501961" points="66,97 32,111 68,111" />
<polygon fill="#090808" fill-opacity="0.501961" points="204,68 176,51 189,67" />
<polygon fill="#49321a" fill-opacity="0.501961" points="131,27 143,-16 143,32" />
<polygon fill="#030100" fill-opacity="0.501961" points="20,19 44,31 46,19" />
<polygon fill="#87726f" fill-opacity="0.501961" points="37,33 33,57 86,12" />
<polygon fill="#173791" fill-opacity="0.501961" points="17,132 72,160 60,131" />
<polygon fill="#204298" fill-opacity="0.501961" points="194,109 196,146 175,136" />
<polygon fill="#0f2d6e" fill-opacity="0.501961" points="83,111 93,124 43,122" />
<polygon fill="#beafbf" fill-opacity="0.501961" points="215,142 195,143 232,151" />
<polygon fill="#7a564e" fill-opacity="0.501961" points="65,56 49,42 61,38" />
<polygon fill="#212229" fill-opacity="0.501961" points="181,89 190,61 168,23" />
<polygon fill="#3c2318" fill-opacity="0.501961" points="3,160 -16,94 3,70" />
<polygon fill="#71725b" fill-opacity="0.501961" points="84,65 86,46 112,53" />
<polygon fill="#ffe0cf" fill-opacity="0.501961" points="38,65 49,41 55,63" />
<polygon fill="#020000" fill-opacity="0.501961" points="228,40 211,58 214,72" />
<polygon fill="#2c2316" fill-opacity="0.501961" points="130,50 128,20 63,35" />
<polygon fill="#46260d" fill-opacity="0.501961" points="23,32 -12,33 -14,60" />
<polygon fill="#fff1d5" fill-opacity="0.501961" points="215,93 218,103 204,105" />
<polygon fill="#a6634b" fill-opacity="0.501961" points="271,140 256,131 255,92" />
<polygon fill="#fffef1" fill-opacity="0.501961" points="36,109 45,95 33,76" />
<polygon fill="#705a5e" fill-opacity="0.501961" points="178,45 190,52 219,29" />
<polygon fill="#26190a" fill-opacity="0.501961" points="187,20 200,19 175,39" />
<polygon fill="#28221a" fill-opacity="0.501961" points="171,101 190,110 148,109" />
<polygon fill="#323023" fill-opacity="0.501961" points="93,-12 117,20 116,-7" />
<polygon fill="#b7c9eb" fill-opacity="0.501961" points="25,104 27,111 29,95" />
<polygon fill="#242018" fill-opacity="0.501961" points="217,98 246,110 271,25" />
<polygon fill="#000406" fill-opacity="0.501961" points="136,39 141,70 130,86" />
<polygon fill="#2f2d34" fill-opacity="0.501961" points="11,59 48,42 -3,96" />
<polygon fill="#20222b" fill-opacity="0.501961" points="130,105 103,62 124,73" />
<polygon fill="#987f80" fill-opacity="0.501961" points="130,82 130,63 122,67" />
<polygon fill="#676d91" fill-opacity="0.501961" points="197,68 197,89 192,73" />
<polygon fill="#ffffe7" fill-opacity="0.501961" points="194,52 199,49 209,58" />
<polygon fill="#000000" fill-opacity="0.501961" points="35,34 20,16 23,46" />
<polygon fill="#767760" fill-opacity="0.501961" points="45,11 84,33 83,9" />
<polygon fill="#1a1200" fill-opacity="0.501961" points="236,45 237,26 254,43" />
<polygon fill="#544a57" fill-opacity="0.501961" points="33,66 44,84 37,55" />
<polygon fill="#5f79b3" fill-opacity="0.501961" points="41,111 38,125 72,111" />
<polygon fill="#707560" fill-opacity="0.501961" points="224,18 224,-16 185,16" />
<polygon fill="#ffffff" fill-opacity="0.501961" points="211,89 197,75 201,92" />
<polygon fill="#0c0f11" fill-opacity="0.501961" points="232,85 222,73 271,70" />
<polygon fill="#8392ac" fill-opacity="0.501961" points="15,106 7,107 10,99" />
<polygon fill="#292930" fill-opacity="0.501961" points="83,39 80,85 53,70" />
<polygon fill="#be7b70" fill-opacity="0.501961" points="55,65 54,79 43,75" />
<polygon fill="#bbcae3" fill-opacity="0.501961" points="40,114 33,131 35,115" />
<polygon fill="#d89952" fill-opacity="0.501961" points="211,111 216,105 208,107" />
<polygon fill="#150000" fill-opacity="0.501961" points="255,160 266,137 253,127" />
<polygon fill="#e1be78" fill-opacity="0.501961" points="186,81 216,97 185,99" />
<polygon fill="#625e56" fill-opacity="0.501961" points="127,112 128,102 107,112" />
<polygon fill="#72444f" fill-opacity="0.501961" points="189,80 184,84 192,83" />
<polygon fill="#6176c4" fill-opacity="0.501961" points="64,142 51,157 24,142" />
<polygon fill="#7f7868" fill-opacity="0.501961" points="18,11 19,29 -16,32" />
<polygon fill="#fffceb" fill-opacity="0.501961" points="225,86 222,77 195,93" />
<polygon fill="#778fc9" fill-opacity="0.501961" points="43,81 37,77 45,94" />
<polygon fill="#042263" fill-opacity="0.501961" points="271,158 213,115 200,136" />
<polygon fill="#00184d" fill-opacity="0.501961" points="55,160 76,129 116,132" />
<polygon fill="#b6978b" fill-opacity="0.501961" points="33,40 40,31 44,42" />
<polygon fill="#130d0b" fill-opacity="0.501961" points="182,63 204,63 200,69" />
<polygon fill="#30313b" fill-opacity="0.501961" points="170,32 195,54 138,45" />
<polygon fill="#3d3000" fill-opacity="0.501961" points="159,160 96,143 183,143" />
<polygon fill="#7680b1" fill-opacity="0.501961" points="207,72 226,72 196,82" />
<polygon fill="#8e1d19" fill-opacity="0.501961" points="1,17 -1,101 -16,65" />
<polygon fill="#22232a" fill-opacity="0.501961" points="26,97 0,92 36,57" />
<polygon fill="#241f13" fill-opacity="0.501961" points="89,33 97,58 95,8" />
<polygon fill="#423f2e" fill-opacity="0.501961" points="211,25 215,1 198,20" />
<polygon fill="#817475" fill-opacity="0.501961" points="188,108 185,116 202,108" />
<polygon fill="#d26e65" fill-opacity="0.501961" points="199,71 209,58 209,71" />
<polygon fill="#ffffff" fill-opacity="0.501961" points="60,96 58,88 47,97" />
<polygon fill="#85836d" fill-opacity="0.501961" points="107,6 107,26 103,12" />
<polygon fill="#bd9648" fill-opacity="0.501961" points="49,95 48,108 37,108" />
<polygon fill="#fefcf3" fill-opacity="0.501961" points="35,92 35,75 26,98" />
<polygon fill="#0f2b63" fill-opacity="0.501961" points="4,137 26,98 17,143" />
<polygon fill="#16171b" fill-opacity="0.501961" points="125,42 110,76 109,13" />
<polygon fill="#707ea9" fill-opacity="0.501961" points="194,145 210,115 203,98" />
<polygon fill="#281d09" fill-opacity="0.501961" points="107,110 70,109 72,92" />
<polygon fill="#2c2124" fill-opacity="0.501961" points="231,50 224,42 203,47" />
<polygon fill="#8a7476" fill-opacity="0.501961" points="214,27 193,24 182,56" />
<polygon fill="#3d5795" fill-opacity="0.501961" points="46,128 31,121 49,121" />
<polygon fill="#5089ff" fill-opacity="0.501961" points="241,137 247,129 249,136" />
<polygon fill="#696d58" fill-opacity="0.501961" points="82,107 86,101 82,90" />
<polygon fill="#352f14" fill-opacity="0.501961" points="229,-16 245,20 225,18" />
<polygon fill="#113585" fill-opacity="0.501961" points="201,111 197,120 177,111" />
<polygon fill="#000000" fill-opacity="0.501961" points="155,30 141,8 175,9" />
<polygon fill="#302e34" fill-opacity="0.501961" points="232,88 221,69 233,47" />
<polygon fill="#ffe5cc" fill-opacity="0.501961" points="206,62 208,50 195,61" />
<polygon fill="#e7c37a" fill-opacity="0.501961" points="69,111 65,95 46,103" />
<polygon fill="#131518" fill-opacity="0.501961" points="184,48 189,69 177,91" />
<polygon fill="#717f92" fill-opacity="0.501961" points="85,131 59,123 104,124" />
<polygon fill="#fffff0" fill-opacity="0.501961" points="44,77 48,90 52,84" />
<polygon fill="#ffffff" fill-opacity="0.501961" points="207,111 201,103 182,101" />
<polygon fill="#060000" fill-opacity="0.501961" points="268,143 271,160 219,144" />
<polygon fill="#000000" fill-opacity="0.501961" points="271,2 238,2 234,-16" />
<polygon fill="#4f4b4f" fill-opacity="0.501961" points="238,61 230,56 250,54" />
<polygon fill="#4b6489" fill-opacity="0.501961" points="135,142 197,160 179,142" />
<polygon fill="#fffae7" fill-opacity="0.501961" points="55,65 59,52 59,60" />
<polygon fill="#312416" fill-opacity="0.501961" points="58,29 87,55 78,36" />
<polygon fill="#b69686" fill-opacity="0.501961" points="34,56 37,59 47,56" />
<polygon fill="#22418e" fill-opacity="0.501961" points="220,140 204,144 204,125" />
<polygon fill="#181306" fill-opacity="0.501961" points="64,143 102,160 163,143" />
<polygon fill="#6d8fd1" fill-opacity="0.501961" points="34,97 36,113 24,113" />
<polygon fill="#757367" fill-opacity="0.501961" points="45,12 89,26 45,34" />
<polygon fill="#ffffec" fill-opacity="0.501961" points="194,81 189,89 184,89" />
<polygon fill="#5e677c" fill-opacity="0.501961" points="69,113 55,112 67,122" />
<polygon fill="#735c5a" fill-opacity="0.501961" points="56,41 44,37 63,56" />
<polygon fill="#fffffc" fill-opacity="0.501961" points="195,105 181,106 181,93" />
<polygon fill="#0e2658" fill-opacity="0.501961" points="11,120 16,160 33,113" />
<polygon fill="#0f295f" fill-opacity="0.501961" points="187,114 152,146 82,111" />
<polygon fill="#181006" fill-opacity="0.501961" points="244,37 228,40 241,48" />
<polygon fill="#7a7961" fill-opacity="0.501961" points="28,11 42,18 23,17" />
<polygon fill="#9692a8" fill-opacity="0.501961" points="54,87 44,92 46,98" />
<polygon fill="#2e2a2e" fill-opacity="0.501961" points="90,65 59,62 57,78" />
<polygon fill="#001b53" fill-opacity="0.501961" points="227,115 251,117 252,133" />
<polygon fill="#57543e" fill-opacity="0.501961" points="238,10 251,7 235,38" />
<polygon fill="#f2f2ef" fill-opacity="0.501961" points="49,110 58,111 57,106" />
<polygon fill="#2e2716" fill-opacity="0.501961" points="109,-1 94,12 57,7" />
<polygon fill="#777969" fill-opacity="0.501961" points="188,-16 206,18 187,18" />
<polygon fill="#74735e" fill-opacity="0.501961" points="237,17 225,20 226,39" />
<polygon fill="#fffff7" fill-opacity="0.501961" points="46,95 63,85 62,94" />
<polygon fill="#8e2f21" fill-opacity="0.501961" points="0,97 -1,145 -16,147" />
<polygon fill="#dde0e4" fill-opacity="0.501961" points="184,83 193,78 193,67" />
<polygon fill="#132c63" fill-opacity="0.501961" points="9,95 3,101 23,100" />
<polygon fill="#3f3c38" fill-opacity="0.501961" points="142,58 147,62 143,44" />
<polygon fill="#3f2b17" fill-opacity="0.501961" points="143,22 109,17 118,33" />
<polygon fill="#735f59" fill-opacity="0.501961" points="63,73 62,63 67,64" />
<polygon fill="#272830" fill-opacity="0.501961" points="112,96 180,36 179,109" />
<polygon fill="#a89897" fill-opacity="0.501961" points="106,70 99,74 100,80" />
<polygon fill="#000000" fill-opacity="0.501961" points="67,-16 2,0 94,2" />
<polygon fill="#264580" fill-opacity="0.501961" points="4,95 10,111 4,133" />
<polygon fill="#2e2715" fill-opacity="0.501961" points="18,10 45,2 -11,2" />
<polygon fill="#000000" fill-opacity="0.501961" points="179,6 146,8 172,28" />
<polygon fill="#fff3e5" fill-opacity="0.501961" points="38,57 54,67 41,65" />
<polygon fill="#6d86bb" fill-opacity="0.501961" points="53,131 37,112 55,111" />
<polygon fill="#000000" fill-opacity="0.501961" points="131,64 152,65 124,56" />
<polygon fill="#000000" fill-opacity="0.501961" points="231,79 233,73 243,82" />
<polygon fill="#1d2229" fill-opacity="0.501961" points="3,62 44,75 1,75" />
<polygon fill="#fffff7" fill-opacity="0.501961" points="223,86 216,77 212,98" />
<polygon fill="#0b0807" fill-opacity="0.501961" points="229,49 211,73 217,52" />
<polygon fill="#312c24" fill-opacity="0.501961" points="227,82 219,97 271,87" />
<polygon fill="#231c13" fill-opacity="0.501961" points="83,111 96,68 108,106" />
<polygon fill="#25262b" fill-opacity="0.501961" points="119,71 138,99 104,74" />
<polygon fill="#281b1d" fill-opacity="0.501961" points="212,39 224,30 210,54" />
<polygon fill="#130d07" fill-opacity="0.501961" points="65,58 56,68 58,77" />
<polygon fill="#4d432e" fill-opacity="0.501961" points="130,58 125,48 128,40" />
<polygon fill="#131108" fill-opacity="0.501961" points="107,69 127,68 110,60" />
<polygon fill="#000000" fill-opacity="0.501961" points="125,36 127,62 115,68" />
<polygon fill="#4d402b" fill-opacity="0.501961" points="65,37 109,39 95,47" />
<polygon fill="#fffff7" fill-opacity="0.501961" points="69,86 69,102 64,95" />
<polygon fill="#3c2f33" fill-opacity="0.501961" points="194,50 200,41 197,40" />
<polygon fill="#2a2a2e" fill-opacity="0.501961" points="25,39 21,51 41,67" />
<polygon fill="#5a6b84" fill-opacity="0.501961" points="202,122 204,133 212,111" />
<polygon fill="#0c2a69" fill-opacity="0.501961" points="71,111 129,111 83,125" />
<polygon fill="#402c18" fill-opacity="0.501961" points="205,21 185,27 175,18" />
<polygon fill="#6b1d17" fill-opacity="0.501961" points="256,91 271,53 255,11" />
<polygon fill="#fff7ed" fill-opacity="0.501961" points="207,72 200,73 196,80" />
<polygon fill="#0d2a6a" fill-opacity="0.501961" points="62,123 64,135 58,138" />
<polygon fill="#dec369" fill-opacity="0.501961" points="185,90 196,86 203,100" />
<polygon fill="#4a3623" fill-opacity="0.501961" points="102,75 85,74 90,58" />
<polygon fill="#69644c" fill-opacity="0.501961" points="102,27 109,25 102,1" />
<polygon fill="#b19ba0" fill-opacity="0.501961" points="233,44 231,46 226,46" />
<polygon fill="#a08883" fill-opacity="0.501961" points="181,42 210,25 192,25" />
<polygon fill="#2b1b0d" fill-opacity="0.501961" points="199,21 221,27 225,21" />
<polygon fill="#fff0cf" fill-opacity="0.501961" points="180,154 213,146 197,143" />
<polygon fill="#665741" fill-opacity="0.501961" points="181,-16 193,-16 180,20" />
<polygon fill="#564735" fill-opacity="0.501961" points="134,2 140,-14 143,23" />
<polygon fill="#e1cba6" fill-opacity="0.501961" points="209,97 212,85 220,80" />
<polygon fill="#464c51" fill-opacity="0.501961" points="240,117 235,115 238,97" />
<polygon fill="#a4897f" fill-opacity="0.501961" points="35,35 46,30 32,45" />
<polygon fill="#f3d0c3" fill-opacity="0.501961" points="199,46 203,42 206,43" />
<polygon fill="#dca797" fill-opacity="0.501961" points="207,56 209,52 211,57" />
<polygon fill="#8e170c" fill-opacity="0.501961" points="-16,6 -2,26 0,-1" />
<polygon fill="#ffe9d6" fill-opacity="0.501961" points="208,99 220,102 216,98" />
<polygon fill="#7e6c6e" fill-opacity="0.501961" points="202,24 217,29 193,44" />
<polygon fill="#7885b5" fill-opacity="0.501961" points="60,86 66,77 56,81" />
<polygon fill="#192c6b" fill-opacity="0.501961" points="63,115 61,124 51,121" />
<polygon fill="#121621" fill-opacity="0.501961" points="197,71 192,66 202,64" />
<polygon fill="#11295c" fill-opacity="0.501961" points="8,123 6,111 36,122" />
<polygon fill="#1c1500" fill-opacity="0.501961" points="-5,143 28,160 22,143" />
<polygon fill="#706e5c" fill-opacity="0.501961" points="97,52 85,64 85,42" />
<polygon fill="#1b170d" fill-opacity="0.501961" points="103,0 101,16 98,-2" />
<polygon fill="#000000" fill-opacity="0.501961" points="183,61 190,58 189,70" />
<polygon fill="#232632" fill-opacity="0.501961" points="96,88 130,73 112,75" />
<polygon fill="#91999d" fill-opacity="0.501961" points="61,29 69,22 60,23" />
<polygon fill="#8a6f68" fill-opacity="0.501961" points="185,42 192,48 194,56" />
<polygon fill="#030200" fill-opacity="0.501961" points="31,42 21,30 20,10" />
<polygon fill="#1f4191" fill-opacity="0.501961" points="189,114 178,134 196,143" />
<polygon fill="#a898ab" fill-opacity="0.501961" points="99,79 105,78 100,70" />
<polygon fill="#7e7868" fill-opacity="0.501961" points="223,-6 199,-15 223,18" />
<polygon fill="#f8dbd5" fill-opacity="0.501961" points="243,53 240,51 243,50" />
<polygon fill="#ba8e82" fill-opacity="0.501961" points="62,57 62,54 65,52" />
<polygon fill="#2d2d31" fill-opacity="0.501961" points="106,111 114,60 129,102" />
<polygon fill="#031d52" fill-opacity="0.501961" points="92,120 87,115 92,127" />
<polygon fill="#787a9e" fill-opacity="0.501961" points="197,82 210,78 211,68" />
<polygon fill="#332f2a" fill-opacity="0.501961" points="250,37 245,53 254,56" />
<polygon fill="#122e61" fill-opacity="0.501961" points="184,113 103,134 176,139" />
<polygon fill="#183786" fill-opacity="0.501961" points="33,130 61,134 33,143" />
<polygon fill="#7f6853" fill-opacity="0.501961" points="202,99 203,101 209,96" />
<polygon fill="#2f2517" fill-opacity="0.501961" points="236,109 225,110 219,98" />
<polygon fill="#73725f" fill-opacity="0.501961" points="108,44 104,65 97,43" />
<polygon fill="#826769" fill-opacity="0.501961" points="132,64 125,65 132,69" />
<polygon fill="#1e140b" fill-opacity="0.501961" points="68,110 73,97 78,108" />
<polygon fill="#fbdccd" fill-opacity="0.501961" points="42,49 52,68 60,53" />
<polygon fill="#696750" fill-opacity="0.501961" points="91,12 90,27 79,28" />
<polygon fill="#504347" fill-opacity="0.501961" points="202,38 209,46 211,42" />
<polygon fill="#dcbb74" fill-opacity="0.501961" points="44,103 66,110 64,97" />
<polygon fill="#717da3" fill-opacity="0.501961" points="54,82 65,80 57,87" />
<polygon fill="#edc383" fill-opacity="0.501961" points="215,98 187,96 211,91" />
<polygon fill="#001b54" fill-opacity="0.501961" points="76,142 116,138 77,129" />
<polygon fill="#ecebe2" fill-opacity="0.501961" points="192,78 191,68 184,81" />
<polygon fill="#313135" fill-opacity="0.501961" points="116,70 109,51 113,34" />
<polygon fill="#2b282c" fill-opacity="0.501961" points="235,53 219,76 243,69" />
<polygon fill="#f1cebc" fill-opacity="0.501961" points="127,74 125,72 127,71" />
<polygon fill="#352d1c" fill-opacity="0.501961" points="45,17 38,11 47,4" />
<polygon fill="#2a2a2e" fill-opacity="0.501961" points="179,96 186,74 130,72" />
<polygon fill="#2b2e37" fill-opacity="0.501961" points="60,73 76,86 108,86" />
<polygon fill="#fffffb" fill-opacity="0.501961" points="43,96 35,108 35,93" />
<polygon fill="#b1c0d9" fill-opacity="0.501961" points="41,127 33,129 34,124" />
<polygon fill="#fffff6" fill-opacity="0.501961" points="183,90 188,107 181,103" />
<polygon fill="#3f2d1b" fill-opacity="0.501961" points="19,32 21,42 -16,36" />
<polygon fill="#ffffff" fill-opacity="0.501961" points="217,87 199,88 208,91" />
<polygon fill="#5087ff" fill-opacity="0.501961" points="241,137 244,129 249,134" />
<polygon fill="#a5aab7" fill-opacity="0.501961" points="60,124 47,124 52,128" />
<polygon fill="#2b4998" fill-opacity="0.501961" points="44,157 40,124 37,144" />
<polygon fill="#f5f0e2" fill-opacity="0.501961" points="31,89 32,77 39,87" />
<polygon fill="#191910" fill-opacity="0.501961" points="35,20 29,44 44,21" />
<polygon fill="#1d160e" fill-opacity="0.501961" points="251,4 271,25 252,31" />
<polygon fill="#d6c4b2" fill-opacity="0.501961" points="125,77 129,75 131,79" />
<polygon fill="#000000" fill-opacity="0.501961" points="148,50 153,54 150,60" />
<polygon fill="#0b2459" fill-opacity="0.501961" points="231,142 248,111 210,116" />
<polygon fill="#101517" fill-opacity="0.501961" points="247,69 253,67 241,54" />
<polygon fill="#535542" fill-opacity="0.501961" points="69,21 59,19 49,23" />
<polygon fill="#001a63" fill-opacity="0.501961" points="242,140 253,134 251,142" />
<polygon fill="#7289bc" fill-opacity="0.501961" points="207,118 193,131 205,104" />
<polygon fill="#282514" fill-opacity="0.501961" points="67,1 62,11 40,3" />
<polygon fill="#faf3e5" fill-opacity="0.501961" points="67,81 67,101 62,90" />
<polygon fill="#6a5855" fill-opacity="0.501961" points="208,107 204,105 210,113" />
<polygon fill="#000100" fill-opacity="0.501961" points="131,34 133,64 139,40" />
<polygon fill="#bebfd6" fill-opacity="0.501961" points="212,75 216,73 219,74" />
<polygon fill="#777364" fill-opacity="0.501961" points="-5,8 21,33 16,15" />
<polygon fill="#cac3f8" fill-opacity="0.501961" points="200,102 205,110 204,104" />
<polygon fill="#c2836c" fill-opacity="0.501961" points="201,148 186,143 168,150" />
<polygon fill="#6e82a7" fill-opacity="0.501961" points="26,109 34,106 35,93" />
<polygon fill="#797568" fill-opacity="0.501961" points="127,-6 116,16 135,17" />
<polygon fill="#2e241e" fill-opacity="0.501961" points="185,32 185,6 174,43" />
<polygon fill="#938a7e" fill-opacity="0.501961" points="51,54 54,57 56,55" />
<polygon fill="#e9bc75" fill-opacity="0.501961" points="58,111 70,99 68,107" />
<polygon fill="#1e2515" fill-opacity="0.501961" points="-6,151 3,118 4,158" />
<polygon fill="#e9ddd9" fill-opacity="0.501961" points="50,89 55,77 37,92" />
<polygon fill="#8a6c64" fill-opacity="0.501961" points="43,40 36,58 35,40" />
<polygon fill="#c5afab" fill-opacity="0.501961" points="237,55 240,58 240,55" />
<polygon fill="#252830" fill-opacity="0.501961" points="174,30 134,36 189,60" />
<polygon fill="#b27b79" fill-opacity="0.501961" points="56,75 46,69 56,80" />
<polygon fill="#fdf2db" fill-opacity="0.501961" points="37,97 35,85 28,96" />
<polygon fill="#d7b977" fill-opacity="0.501961" points="185,100 194,90 185,91" />
<polygon fill="#000000" fill-opacity="0.501961" points="145,11 144,31 177,14" />
<polygon fill="#efc988" fill-opacity="0.501961" points="221,90 217,99 217,94" />
<polygon fill="#85473d" fill-opacity="0.501961" points="-4,160 2,131 -16,97" />
<polygon fill="#685a60" fill-opacity="0.501961" points="231,52 233,57 227,58" />
<polygon fill="#a79e98" fill-opacity="0.501961" points="199,112 185,112 187,107" />
<polygon fill="#021d53" fill-opacity="0.501961" points="103,118 69,113 71,123" />
<polygon fill="#9da0d3" fill-opacity="0.501961" points="39,91 49,91 42,87" />
<polygon fill="#6c5c36" fill-opacity="0.501961" points="76,54 80,51 80,57" />
<polygon fill="#2e2521" fill-opacity="0.501961" points="57,42 59,49 69,52" />
<polygon fill="#a2a7b1" fill-opacity="0.501961" points="66,123 64,129 69,130" />
<polygon fill="#15151a" fill-opacity="0.501961" points="45,72 39,77 40,66" />
<polygon fill="#ffffff" fill-opacity="0.501961" points="224,83 218,93 216,80" />
<polygon fill="#292b33" fill-opacity="0.501961" points="128,111 179,110 181,89" />
<polygon fill="#062052" fill-opacity="0.501961" points="84,129 89,117 85,114" />
<polygon fill="#ffe7d5" fill-opacity="0.501961" points="204,60 194,59 201,50" />
<polygon fill="#170c0d" fill-opacity="0.501961" points="236,55 227,52 237,51" />
<polygon fill="#23438f" fill-opacity="0.501961" points="198,111 184,112 192,139" />
</g>
</svg>