<svg xmlns="http://www.w3.org/2000/svg" version="1.1" width="1024" height="580">
<rect x="0" y="0" width="1024" height="580" fill="#252934" />
<g transform="scale(4.000000) translate(0.5 0.5)">
<polygon fill="#ffe8d6" fill-opacity="0.501961" points="28,106 33,58 6,61" />
<polygon fill="#867758" fill-opacity="0.501961" points="105,19 100,113 271,24" />
<polygon fill="#000000" fill-opacity="0.501961" points="122,-16 -16,4 74,125" />
<polygon fill="#073698" fill-opacity="0.501961" points="-16,111 271,112 159,160" />
<polygon fill="#120b07" fill-opacity="0.501961" points="120,48 227,44 173,88" />
<polygon fill="#000000" fill-opacity="0.501961" points="112,-16 -16,42 271,6" />
<polygon fill="#000000" fill-opacity="0.501961" points="96,115 95,-16 -16,8" />
<polygon fill="#d3bcb8" fill-opacity="0.501961" points="20,62 44,95 3,96" />
<polygon fill="#7a725b" fill-opacity="0.501961" points="271,20 92,22 241,61" />
<polygon fill="#06286f" fill-opacity="0.501961" points="106,160 1,160 12,83" />
<polygon fill="#969387" fill-opacity="0.501961" points="213,112 210,87 239,92" />
<polygon fill="#000000" fill-opacity="0.501961" points="271,23 244,-16 106,10" />
<polygon fill="#000000" fill-opacity="0.501961" points="36,110 85,-16 103,108" />
<polygon fill="#000000" fill-opacity="0.501961" points="-8,-16 -16,73 164,-8" />
<polygon fill="#5b6d87" fill-opacity="0.501961" points="26,112 112,119 45,133" />
<polygon fill="#0032a0" fill-opacity="0.501961" points="253,142 252,120 202,143" />
<polygon fill="#89888e" fill-opacity="0.501961" points="123,94 145,58 145,96" />
<polygon fill="#878472" fill-opacity="0.501961" points="116,20 95,44 166,43" />
<polygon fill="#716478" fill-opacity="0.501961" points="41,87 43,56 12,59" />
<polygon fill="#7490e2" fill-opacity="0.501961" points="5,63 17,112 4,89" />
<polygon fill="#01174b" fill-opacity="0.501961" points="42,70 -11,144 22,160" />
<polygon fill="#30251b" fill-opacity="0.501961" points="271,126 170,40 257,48" />
<polygon fill="#28170b" fill-opacity="0.501961" points="115,105 114,45 132,45" />
<polygon fill="#ffffff" fill-opacity="0.501961" points="30,84 16,83 24,68" />
<polygon fill="#4a3845" fill-opacity="0.501961" points="23,60 11,81 4,64" />
<polygon fill="#7e7b67" fill-opacity="0.501961" points="105,116 117,73 101,25" />
<polygon fill="#292311" fill-opacity="0.501961" points="224,19 167,9 149,27" />
<polygon fill="#757275" fill-opacity="0.501961" points="122,86 124,62 163,96" />
<polygon fill="#848078" fill-opacity="0.501961" points="271,41 200,24 201,43" />
<polygon fill="#64abff" fill-opacity="0.501961" points="241,127 243,137 247,134" />
<polygon fill="#080000" fill-opacity="0.501961" points="3,30 4,160 -16,99" />
<polygon fill="#011d57" fill-opacity="0.501961" points="122,111 229,132 51,145" />
<polygon fill="#839cde" fill-opacity="0.501961" points="37,91 42,99 42,76" />
<polygon fill="#000000" fill-opacity="0.501961" points="97,109 42,111 45,-8" />
<polygon fill="#ceaa9d" fill-opacity="0.501961" points="26,90 6,95 45,96" />
<polygon fill="#3a311f" fill-opacity="0.501961" points="110,18 97,11 96,65" />
<polygon fill="#6e7f9b" fill-opacity="0.501961" points="81,112 94,131 71,129" />
<polygon fill="#384a69" fill-opacity="0.501961" points="14,83 8,109 32,112" />
<polygon fill="#000000" fill-opacity="0.501961" points="0,55 5,-16 102,62" />
<polygon fill="#212227" fill-opacity="0.501961" points="145,58 271,66 161,111" />
<polygon fill="#000000" fill-opacity="0.501961" points="117,11 226,-16 271,14" />
<polygon fill="#16120d" fill-opacity="0.501961" points="120,111 177,107 113,94" />
<polygon fill="#ffffed" fill-opacity="0.501961" points="32,80 23,89 19,74" />
<polygon fill="#848379" fill-opacity="0.501961" points="103,111 111,69 115,113" />
<polygon fill="#777465" fill-opacity="0.501961" points="164,53 118,20 166,27" />
<polygon fill="#181511" fill-opacity="0.501961" points="33,103 36,81 29,86" />
<polygon fill="#000036" fill-opacity="0.501961" points="71,104 79,123 72,122" />
<polygon fill="#231301" fill-opacity="0.501961" points="12,81 20,88 17,96" />
<polygon fill="#4c5f85" fill-opacity="0.501961" points="104,121 120,160 101,160" />
<polygon fill="#6d7f9c" fill-opacity="0.501961" points="33,121 32,131 57,129" />
<polygon fill="#000000" fill-opacity="0.501961" points="95,-16 97,111 36,109" />
<polygon fill="#6e5a3d" fill-opacity="0.501961" points="241,47 209,58 250,59" />
<polygon fill="#00114f" fill-opacity="0.501961" points="8,129 53,160 105,133" />
<polygon fill="#4c4b45" fill-opacity="0.501961" points="222,107 225,86 247,105" />
<polygon fill="#7c8ca6" fill-opacity="0.501961" points="97,122 100,114 78,117" />
<polygon fill="#000f6e" fill-opacity="0.501961" points="4,60 10,57 6,76" />
<polygon fill="#08225e" fill-opacity="0.501961" points="271,112 123,112 221,143" />
<polygon fill="#fffff6" fill-opacity="0.501961" points="11,88 6,95 5,92" />
<polygon fill="#827f73" fill-opacity="0.501961" points="169,23 176,41 188,23" />
<polygon fill="#b89d8c" fill-opacity="0.501961" points="13,68 11,59 21,58" />
<polygon fill="#000000" fill-opacity="0.501961" points="210,93 204,101 210,107" />
<polygon fill="#8d8d89" fill-opacity="0.501961" points="212,87 211,109 223,105" />
<polygon fill="#261f18" fill-opacity="0.501961" points="145,77 237,45 146,51" />
<polygon fill="#00164c" fill-opacity="0.501961" points="54,124 55,112 41,123" />
<polygon fill="#840b00" fill-opacity="0.501961" points="-1,114 0,4 -16,57" />
<polygon fill="#040000" fill-opacity="0.501961" points="3,143 48,160 87,143" />
<polygon fill="#4d3524" fill-opacity="0.501961" points="39,72 31,62 27,76" />
<polygon fill="#0a0901" fill-opacity="0.501961" points="216,63 254,62 226,74" />
<polygon fill="#000000" fill-opacity="0.501961" points="35,96 87,100 35,110" />
<polygon fill="#7e7466" fill-opacity="0.501961" points="266,43 231,44 249,20" />
<polygon fill="#2e2117" fill-opacity="0.501961" points="114,98 115,62 126,107" />
<polygon fill="#5a5b58" fill-opacity="0.501961" points="158,77 147,77 158,97" />
<polygon fill="#524846" fill-opacity="0.501961" points="146,56 123,48 133,79" />
<polygon fill="#322c1c" fill-opacity="0.501961" points="147,15 94,29 97,14" />
<polygon fill="#5e4b46" fill-opacity="0.501961" points="34,89 37,91 38,81" />
<polygon fill="#bf9c93" fill-opacity="0.501961" points="137,63 143,75 138,73" />
<polygon fill="#290f0b" fill-opacity="0.501961" points="20,77 10,74 17,74" />
<polygon fill="#000000" fill-opacity="0.501961" points="80,15 227,13 157,-16" />
<polygon fill="#001f64" fill-opacity="0.501961" points="5,98 4,142 29,143" />
<polygon fill="#000b45" fill-opacity="0.501961" points="33,112 51,117 66,112" />
<polygon fill="#fbdeca" fill-opacity="0.501961" points="35,74 14,82 24,90" />
<polygon fill="#a08186" fill-opacity="0.501961" points="127,83 131,66 124,65" />
<polygon fill="#5a9bff" fill-opacity="0.501961" points="246,129 248,134 243,138" />
<polygon fill="#28282c" fill-opacity="0.501961" points="186,109 163,96 166,28" />
<polygon fill="#312a1c" fill-opacity="0.501961" points="164,26 177,14 121,14" />
<polygon fill="#000541" fill-opacity="0.501961" points="82,124 83,121 92,121" />
<polygon fill="#594f5b" fill-opacity="0.501961" points="8,70 14,65 11,89" />
<polygon fill="#a56c63" fill-opacity="0.501961" points="23,87 16,96 29,87" />
<polygon fill="#5c749b" fill-opacity="0.501961" points="7,101 32,103 12,107" />
<polygon fill="#51503e" fill-opacity="0.501961" points="253,20 231,20 229,38" />
<polygon fill="#482f18" fill-opacity="0.501961" points="170,61 150,44 117,47" />
<polygon fill="#fff4d8" fill-opacity="0.501961" points="18,78 22,67 27,71" />
<polygon fill="#ffffff" fill-opacity="0.501961" points="78,118 81,117 79,116" />
<polygon fill="#362a2a" fill-opacity="0.501961" points="242,47 257,136 271,42" />
<polygon fill="#6e6c5c" fill-opacity="0.501961" points="101,25 109,67 118,40" />
<polygon fill="#020d29" fill-opacity="0.501961" points="43,58 37,60 38,80" />
<polygon fill="#090000" fill-opacity="0.501961" points="3,160 3,69 -16,120" />
<polygon fill="#3b321a" fill-opacity="0.501961" points="97,108 96,55 106,74" />
<polygon fill="#282a32" fill-opacity="0.501961" points="162,105 259,76 158,66" />
<polygon fill="#6a7d9d" fill-opacity="0.501961" points="62,118 66,111 76,129" />
<polygon fill="#3b311b" fill-opacity="0.501961" points="265,14 203,14 232,24" />
<polygon fill="#927d75" fill-opacity="0.501961" points="13,58 39,58 8,69" />
<polygon fill="#6c574d" fill-opacity="0.501961" points="37,79 22,61 34,62" />
<polygon fill="#6a595c" fill-opacity="0.501961" points="9,90 15,93 12,76" />
<polygon fill="#91a7f4" fill-opacity="0.501961" points="9,81 4,95 4,87" />
<polygon fill="#3654b9" fill-opacity="0.501961" points="41,88 43,68 37,82" />
<polygon fill="#959b9d" fill-opacity="0.501961" points="197,36 207,44 207,34" />
<polygon fill="#12130f" fill-opacity="0.501961" points="124,56 120,76 117,43" />
<polygon fill="#001a4f" fill-opacity="0.501961" points="61,122 67,156 70,123" />
<polygon fill="#141106" fill-opacity="0.501961" points="144,95 160,110 127,99" />
<polygon fill="#475272" fill-opacity="0.501961" points="213,142 93,142 151,160" />
<polygon fill="#1f3c74" fill-opacity="0.501961" points="110,130 92,111 104,112" />
<polygon fill="#1c170e" fill-opacity="0.501961" points="100,59 101,20 94,40" />
<polygon fill="#6e7e9a" fill-opacity="0.501961" points="33,115 52,118 36,121" />
<polygon fill="#001853" fill-opacity="0.501961" points="27,142 6,116 34,104" />
<polygon fill="#001d53" fill-opacity="0.501961" points="6,97 17,102 36,96" />
<polygon fill="#010403" fill-opacity="0.501961" points="160,68 149,56 149,74" />
<polygon fill="#000000" fill-opacity="0.501961" points="1,-16 52,56 0,57" />
<polygon fill="#001950" fill-opacity="0.501961" points="107,141 110,112 135,112" />
<polygon fill="#be817b" fill-opacity="0.501961" points="271,52 271,7 251,41" />
<polygon fill="#001f5c" fill-opacity="0.501961" points="74,112 78,128 65,110" />
<polygon fill="#031d52" fill-opacity="0.501961" points="92,139 91,117 102,134" />
<polygon fill="#82180a" fill-opacity="0.501961" points="0,111 -16,159 -1,141" />
<polygon fill="#0a255f" fill-opacity="0.501961" points="217,107 172,140 245,141" />
<polygon fill="#18140f" fill-opacity="0.501961" points="180,143 230,157 231,143" />
<polygon fill="#505455" fill-opacity="0.501961" points="138,71 129,98 119,98" />
<polygon fill="#93a0b2" fill-opacity="0.501961" points="75,131 71,125 81,126" />
<polygon fill="#787365" fill-opacity="0.501961" points="205,24 228,25 217,48" />
<polygon fill="#44311d" fill-opacity="0.501961" points="257,45 226,44 271,63" />
<polygon fill="#173772" fill-opacity="0.501961" points="34,112 3,112 25,104" />
<polygon fill="#3c57b9" fill-opacity="0.501961" points="13,85 4,85 4,71" />
<polygon fill="#5e2625" fill-opacity="0.501961" points="254,127 256,56 271,117" />
<polygon fill="#716d5c" fill-opacity="0.501961" points="115,103 113,41 102,62" />
<polygon fill="#4b4f40" fill-opacity="0.501961" points="191,36 212,22 193,22" />
<polygon fill="#193261" fill-opacity="0.501961" points="42,121 38,117 39,129" />
<polygon fill="#000000" fill-opacity="0.501961" points="235,-16 271,14 129,14" />
<polygon fill="#fff5e6" fill-opacity="0.501961" points="25,88 30,79 14,80" />
<polygon fill="#e6a192" fill-opacity="0.501961" points="16,96 23,90 30,94" />
<polygon fill="#c4ccd6" fill-opacity="0.501961" points="81,115 77,115 80,121" />
<polygon fill="#1d3878" fill-opacity="0.501961" points="208,122 251,111 200,110" />
<polygon fill="#001245" fill-opacity="0.501961" points="247,142 238,136 224,142" />
<polygon fill="#858682" fill-opacity="0.501961" points="212,90 222,105 222,90" />
<polygon fill="#00164e" fill-opacity="0.501961" points="13,127 18,120 39,123" />
<polygon fill="#000000" fill-opacity="0.501961" points="132,102 152,104 151,110" />
<polygon fill="#312421" fill-opacity="0.501961" points="129,144 184,143 140,157" />
<polygon fill="#070300" fill-opacity="0.501961" points="61,160 33,143 102,143" />
<polygon fill="#8190a6" fill-opacity="0.501961" points="49,124 41,126 58,127" />
<polygon fill="#757264" fill-opacity="0.501961" points="156,47 188,37 189,26" />
<polygon fill="#ffedda" fill-opacity="0.501961" points="16,73 20,74 22,69" />
<polygon fill="#0b2f79" fill-opacity="0.501961" points="35,96 30,94 34,110" />
<polygon fill="#414749" fill-opacity="0.501961" points="129,55 123,63 149,64" />
<polygon fill="#dde5ff" fill-opacity="0.501961" points="42,91 39,94 41,86" />
<polygon fill="#322413" fill-opacity="0.501961" points="29,88 39,92 36,80" />
<polygon fill="#0c2763" fill-opacity="0.501961" points="247,112 238,140 139,116" />
<polygon fill="#797463" fill-opacity="0.501961" points="114,111 102,109 106,79" />
<polygon fill="#694d49" fill-opacity="0.501961" points="24,76 33,71 36,75" />
<polygon fill="#313649" fill-opacity="0.501961" points="149,111 166,110 159,102" />
<polygon fill="#0c0000" fill-opacity="0.501961" points="255,158 253,128 271,160" />
<polygon fill="#3e3022" fill-opacity="0.501961" points="127,60 183,53 117,43" />
<polygon fill="#7a7567" fill-opacity="0.501961" points="115,23 120,44 159,32" />
<polygon fill="#0e2962" fill-opacity="0.501961" points="80,112 100,110 120,120" />
<polygon fill="#002261" fill-opacity="0.501961" points="87,143 41,143 39,129" />
<polygon fill="#747168" fill-opacity="0.501961" points="198,43 223,38 223,45" />
<polygon fill="#568fff" fill-opacity="0.501961" points="246,138 241,130 247,130" />
<polygon fill="#25190e" fill-opacity="0.501961" points="23,90 15,88 20,87" />
<polygon fill="#00134e" fill-opacity="0.501961" points="72,112 73,116 87,113" />
<polygon fill="#27282d" fill-opacity="0.501961" points="210,97 190,58 212,57" />
<polygon fill="#323127" fill-opacity="0.501961" points="160,21 169,37 168,18" />
<polygon fill="#000000" fill-opacity="0.501961" points="85,91 43,15 44,102" />
<polygon fill="#2b437c" fill-opacity="0.501961" points="118,117 128,110 98,112" />
<polygon fill="#001c53" fill-opacity="0.501961" points="90,137 87,145 84,124" />
<polygon fill="#211d13" fill-opacity="0.501961" points="165,61 165,44 190,52" />
<polygon fill="#1d3a7a" fill-opacity="0.501961" points="139,110 189,110 162,118" />
<polygon fill="#4a452f" fill-opacity="0.501961" points="118,23 132,19 143,23" />
<polygon fill="#1b1815" fill-opacity="0.501961" points="115,101 121,87 121,101" />
<polygon fill="#726e60" fill-opacity="0.501961" points="231,45 239,25 261,19" />
<polygon fill="#272b34" fill-opacity="0.501961" points="250,109 258,84 224,73" />
<polygon fill="#656769" fill-opacity="0.501961" points="121,97 122,82 136,96" />
<polygon fill="#98a9be" fill-opacity="0.501961" points="25,103 26,104 29,100" />
<polygon fill="#7d7f7f" fill-opacity="0.501961" points="147,75 142,96 136,75" />
<polygon fill="#ffe9db" fill-opacity="0.501961" points="19,87 30,82 21,69" />
<polygon fill="#51514d" fill-opacity="0.501961" points="234,91 236,109 221,105" />
<polygon fill="#5a7091" fill-opacity="0.501961" points="61,116 54,115 60,120" />
<polygon fill="#273f6f" fill-opacity="0.501961" points="97,137 108,142 108,113" />
<polygon fill="#16150d" fill-opacity="0.501961" points="249,59 213,64 250,72" />
<polygon fill="#000000" fill-opacity="0.501961" points="210,100 200,99 210,107" />
<polygon fill="#473626" fill-opacity="0.501961" points="228,45 201,44 194,58" />
<polygon fill="#ba8379" fill-opacity="0.501961" points="27,96 22,88 27,88" />
<polygon fill="#4d4c39" fill-opacity="0.501961" points="116,50 101,54 103,46" />
<polygon fill="#7c7769" fill-opacity="0.501961" points="149,41 163,49 165,30" />
<polygon fill="#0d3176" fill-opacity="0.501961" points="77,111 66,115 60,111" />
<polygon fill="#001950" fill-opacity="0.501961" points="66,142 100,131 43,130" />
<polygon fill="#000000" fill-opacity="0.501961" points="36,110 55,96 36,97" />
<polygon fill="#535242" fill-opacity="0.501961" points="108,23 117,44 115,26" />
<polygon fill="#07265a" fill-opacity="0.501961" points="86,123 70,119 69,124" />
<polygon fill="#506487" fill-opacity="0.501961" points="69,126 47,123 55,128" />
<polygon fill="#3e403e" fill-opacity="0.501961" points="156,96 147,70 147,92" />
<polygon fill="#25211b" fill-opacity="0.501961" points="117,14 95,16 101,30" />
<polygon fill="#4d3f2b" fill-opacity="0.501961" points="165,40 195,41 170,51" />
<polygon fill="#5f513b" fill-opacity="0.501961" points="225,48 215,59 247,58" />
<polygon fill="#611105" fill-opacity="0.501961" points="255,0 271,23 257,24" />
<polygon fill="#5f4842" fill-opacity="0.501961" points="19,79 6,67 15,71" />
<polygon fill="#5d5250" fill-opacity="0.501961" points="133,75 142,61 122,60" />
<polygon fill="#777265" fill-opacity="0.501961" points="193,24 170,24 169,44" />
<polygon fill="#292c39" fill-opacity="0.501961" points="138,74 162,77 167,69" />
<polygon fill="#0f2a69" fill-opacity="0.501961" points="121,140 119,119 177,141" />
<polygon fill="#001348" fill-opacity="0.501961" points="248,142 252,135 250,123" />
<polygon fill="#00072c" fill-opacity="0.501961" points="5,64 8,58 9,66" />
<polygon fill="#0f110a" fill-opacity="0.501961" points="182,71 198,68 172,66" />
<polygon fill="#151210" fill-opacity="0.501961" points="160,25 170,18 154,23" />
<polygon fill="#041f55" fill-opacity="0.501961" points="82,136 80,147 76,124" />
<polygon fill="#56594a" fill-opacity="0.501961" points="239,46 253,30 251,44" />
<polygon fill="#2f302d" fill-opacity="0.501961" points="131,60 135,68 133,49" />
<polygon fill="#2b2a2e" fill-opacity="0.501961" points="127,96 133,109 115,107" />
<polygon fill="#151915" fill-opacity="0.501961" points="173,48 197,47 188,57" />
<polygon fill="#9691af" fill-opacity="0.501961" points="37,83 35,85 37,84" />
<polygon fill="#2d2717" fill-opacity="0.501961" points="217,111 209,108 224,109" />
<polygon fill="#000000" fill-opacity="0.501961" points="208,14 24,14 97,-16" />
<polygon fill="#0e285b" fill-opacity="0.501961" points="46,123 64,124 62,115" />
<polygon fill="#241d11" fill-opacity="0.501961" points="95,68 101,90 101,48" />
<polygon fill="#8693aa" fill-opacity="0.501961" points="34,122 33,117 35,115" />
<polygon fill="#00164f" fill-opacity="0.501961" points="136,112 114,112 139,124" />
<polygon fill="#746f60" fill-opacity="0.501961" points="102,30 157,45 154,21" />
<polygon fill="#66562e" fill-opacity="0.501961" points="129,160 125,144 100,143" />
<polygon fill="#636265" fill-opacity="0.501961" points="136,96 131,70 122,89" />
<polygon fill="#011d56" fill-opacity="0.501961" points="21,121 36,114 15,106" />
<polygon fill="#8696b1" fill-opacity="0.501961" points="34,127 39,130 38,126" />
<polygon fill="#09255c" fill-opacity="0.501961" points="240,130 248,114 252,128" />
<polygon fill="#d0b6ac" fill-opacity="0.501961" points="130,70 128,70 127,77" />
<polygon fill="#0d2863" fill-opacity="0.501961" points="143,112 213,112 133,135" />
<polygon fill="#95b7d7" fill-opacity="0.501961" points="7,96 18,96 12,93" />
<polygon fill="#2c2c2c" fill-opacity="0.501961" points="230,98 254,94 240,104" />
<polygon fill="#6b5343" fill-opacity="0.501961" points="20,67 15,73 14,65" />
<polygon fill="#001d63" fill-opacity="0.501961" points="4,100 7,113 9,99" />
<polygon fill="#372d1f" fill-opacity="0.501961" points="12,92 9,89 17,93" />
<polygon fill="#3d3d57" fill-opacity="0.501961" points="122,76 133,74 121,73" />
<polygon fill="#ffefdf" fill-opacity="0.501961" points="21,74 23,66 25,79" />
<polygon fill="#221c13" fill-opacity="0.501961" points="34,69 36,72 39,66" />
<polygon fill="#7d796d" fill-opacity="0.501961" points="189,35 176,40 201,40" />
<polygon fill="#7e786b" fill-opacity="0.501961" points="104,68 112,47 110,72" />
<polygon fill="#27282d" fill-opacity="0.501961" points="251,85 165,66 159,94" />
<polygon fill="#746970" fill-opacity="0.501961" points="35,85 39,83 36,89" />
<polygon fill="#7788a2" fill-opacity="0.501961" points="57,116 66,120 67,115" />
<polygon fill="#000000" fill-opacity="0.501961" points="96,-3 94,101 -11,-16" />
<polygon fill="#362e1f" fill-opacity="0.501961" points="234,57 233,51 228,66" />
<polygon fill="#342e22" fill-opacity="0.501961" points="185,15 200,14 200,18" />
<polygon fill="#64110b" fill-opacity="0.501961" points="0,111 -1,72 -16,60" />
<polygon fill="#bdc4dd" fill-opacity="0.501961" points="9,87 11,95 4,88" />
<polygon fill="#153186" fill-opacity="0.501961" points="5,73 10,76 4,60" />
<polygon fill="#001850" fill-opacity="0.501961" points="5,114 40,139 12,142" />
<polygon fill="#677ea0" fill-opacity="0.501961" points="106,143 113,142 116,160" />
<polygon fill="#6a5d5b" fill-opacity="0.501961" points="32,62 37,58 33,74" />
<polygon fill="#503314" fill-opacity="0.501961" points="115,101 114,109 119,111" />
<polygon fill="#52484f" fill-opacity="0.501961" points="9,77 12,65 4,79" />
<polygon fill="#16110a" fill-opacity="0.501961" points="20,88 20,92 14,87" />
<polygon fill="#011d5d" fill-opacity="0.501961" points="37,57 43,59 42,67" />
<polygon fill="#000000" fill-opacity="0.501961" points="246,143 244,160 234,143" />
<polygon fill="#747162" fill-opacity="0.501961" points="196,31 224,25 203,23" />
<polygon fill="#586c8d" fill-opacity="0.501961" points="45,116 41,115 48,126" />
<polygon fill="#683c24" fill-opacity="0.501961" points="250,51 257,47 271,63" />
<polygon fill="#c1cdd7" fill-opacity="0.501961" points="41,92 41,96 31,93" />
<polygon fill="#4f3a24" fill-opacity="0.501961" points="152,44 158,63 163,60" />
<polygon fill="#261e15" fill-opacity="0.501961" points="31,96 29,87 39,74" />
<polygon fill="#041d52" fill-opacity="0.501961" points="195,130 170,124 147,136" />
<polygon fill="#66503c" fill-opacity="0.501961" points="125,48 122,59 122,48" />
<polygon fill="#544e37" fill-opacity="0.501961" points="140,20 140,24 153,21" />
<polygon fill="#8a8d89" fill-opacity="0.501961" points="139,90 135,83 136,96" />
<polygon fill="#2b2516" fill-opacity="0.501961" points="96,109 103,110 101,91" />
<polygon fill="#73839e" fill-opacity="0.501961" points="76,129 81,127 88,130" />
<polygon fill="#142a59" fill-opacity="0.501961" points="31,103 36,105 35,92" />
<polygon fill="#516488" fill-opacity="0.501961" points="64,126 66,123 68,131" />
<polygon fill="#787a74" fill-opacity="0.501961" points="146,94 142,93 146,79" />
<polygon fill="#d5b7a6" fill-opacity="0.501961" points="142,71 140,73 139,65" />
<polygon fill="#252429" fill-opacity="0.501961" points="202,96 167,110 205,110" />
<polygon fill="#433b41" fill-opacity="0.501961" points="148,69 148,65 139,70" />
<polygon fill="#29261b" fill-opacity="0.501961" points="190,66 179,67 186,43" />
<polygon fill="#fde8db" fill-opacity="0.501961" points="22,80 23,88 32,79" />
<polygon fill="#525344" fill-opacity="0.501961" points="236,35 238,23 226,34" />
<polygon fill="#2b51a6" fill-opacity="0.501961" points="138,113 133,111 145,111" />
<polygon fill="#414342" fill-opacity="0.501961" points="129,60 123,54 146,55" />
<polygon fill="#264585" fill-opacity="0.501961" points="254,130 252,111 249,119" />
<polygon fill="#5d533b" fill-opacity="0.501961" points="182,20 170,20 181,23" />
<polygon fill="#001650" fill-opacity="0.501961" points="67,138 61,127 73,135" />
<polygon fill="#0c2985" fill-opacity="0.501961" points="40,77 42,63 43,70" />
<polygon fill="#1e180f" fill-opacity="0.501961" points="112,50 122,67 120,54" />
<polygon fill="#272627" fill-opacity="0.501961" points="150,93 137,97 167,106" />
<polygon fill="#3f2d1b" fill-opacity="0.501961" points="115,94 121,78 114,62" />
<polygon fill="#1d1718" fill-opacity="0.501961" points="105,160 128,143 116,143" />
<polygon fill="#655b59" fill-opacity="0.501961" points="147,79 136,59 146,61" />
<polygon fill="#000000" fill-opacity="0.501961" points="43,49 43,110 93,110" />
<polygon fill="#562c25" fill-opacity="0.501961" points="256,115 271,143 254,149" />
<polygon fill="#776043" fill-opacity="0.501961" points="219,53 214,56 212,53" />
<polygon fill="#0d0e0b" fill-opacity="0.501961" points="213,71 233,70 217,62" />
<polygon fill="#18110a" fill-opacity="0.501961" points="208,46 204,48 202,45" />
<polygon fill="#626252" fill-opacity="0.501961" points="102,75 113,68 103,92" />
<polygon fill="#7b766a" fill-opacity="0.501961" points="248,43 248,28 237,30" />
<polygon fill="#383934" fill-opacity="0.501961" points="132,65 136,72 133,78" />
<polygon fill="#000000" fill-opacity="0.501961" points="1,47 23,58 2,-16" />
<polygon fill="#0e2e6e" fill-opacity="0.501961" points="33,143 55,143 39,138" />
<polygon fill="#00174f" fill-opacity="0.501961" points="45,130 82,142 8,141" />
<polygon fill="#746f62" fill-opacity="0.501961" points="230,27 212,48 219,23" />
<polygon fill="#294374" fill-opacity="0.501961" points="20,102 13,104 17,98" />
<polygon fill="#6c6858" fill-opacity="0.501961" points="103,34 113,46 115,64" />
<polygon fill="#021c52" fill-opacity="0.501961" points="68,111 60,115 75,115" />
<polygon fill="#cab09c" fill-opacity="0.501961" points="128,69 131,72 126,72" />
<polygon fill="#26272e" fill-opacity="0.501961" points="179,90 211,55 210,97" />
<polygon fill="#1f2122" fill-opacity="0.501961" points="147,76 146,52 152,59" />
<polygon fill="#0f285b" fill-opacity="0.501961" points="93,132 102,118 103,141" />
<polygon fill="#21448d" fill-opacity="0.501961" points="90,143 83,141 77,143" />
<polygon fill="#1e1b15" fill-opacity="0.501961" points="235,104 244,111 247,107" />
<polygon fill="#7787a1" fill-opacity="0.501961" points="9,101 12,102 12,106" />
<polygon fill="#465e84" fill-opacity="0.501961" points="82,122 86,117 90,122" />
<polygon fill="#8c8f91" fill-opacity="0.501961" points="201,36 207,42 202,44" />
<polygon fill="#00154d" fill-opacity="0.501961" points="117,115 118,140 108,120" />
<polygon fill="#3c2919" fill-opacity="0.501961" points="152,45 135,55 123,47" />
<polygon fill="#0e2964" fill-opacity="0.501961" points="252,120 203,142 176,114" />
<polygon fill="#092359" fill-opacity="0.501961" points="251,129 235,128 251,115" />
<polygon fill="#74819c" fill-opacity="0.501961" points="98,117 93,118 99,114" />
<polygon fill="#60413b" fill-opacity="0.501961" points="27,73 30,78 29,71" />
<polygon fill="#a34e44" fill-opacity="0.501961" points="255,43 271,23 255,23" />
<polygon fill="#67523a" fill-opacity="0.501961" points="198,47 190,41 188,46" />
<polygon fill="#bc8678" fill-opacity="0.501961" points="28,87 27,95 21,91" />
<polygon fill="#000a45" fill-opacity="0.501961" points="49,123 45,123 49,119" />
<polygon fill="#0d2556" fill-opacity="0.501961" points="104,112 95,112 103,119" />
<polygon fill="#fbe6d7" fill-opacity="0.501961" points="23,88 24,67 19,74" />
<polygon fill="#840900" fill-opacity="0.501961" points="-16,15 0,0 -9,31" />
<polygon fill="#79605f" fill-opacity="0.501961" points="131,73 125,66 128,62" />
<polygon fill="#8d6e6c" fill-opacity="0.501961" points="25,88 28,90 21,89" />
<polygon fill="#d3b4a3" fill-opacity="0.501961" points="25,70 31,72 26,72" />
<polygon fill="#2e4979" fill-opacity="0.501961" points="104,110 109,135 102,133" />
<polygon fill="#001851" fill-opacity="0.501961" points="91,142 56,141 95,130" />
<polygon fill="#001a51" fill-opacity="0.501961" points="53,136 54,125 56,134" />
<polygon fill="#000000" fill-opacity="0.501961" points="3,100 4,120 0,113" />
<polygon fill="#000001" fill-opacity="0.501961" points="55,79 41,91 63,82" />
<polygon fill="#212220" fill-opacity="0.501961" points="122,60 130,57 115,55" />
<polygon fill="#25272c" fill-opacity="0.501961" points="180,52 174,73 155,71" />
<polygon fill="#000000" fill-opacity="0.501961" points="60,62 71,105 36,111" />
<polygon fill="#26447c" fill-opacity="0.501961" points="17,112 26,109 36,112" />
<polygon fill="#fdeada" fill-opacity="0.501961" points="19,86 14,80 31,82" />
<polygon fill="#211d16" fill-opacity="0.501961" points="156,26 154,18 167,17" />
<polygon fill="#332c22" fill-opacity="0.501961" points="36,58 39,61 38,70" />
<polygon fill="#000000" fill-opacity="0.501961" points="7,16 2,57 55,57" />
<polygon fill="#92878f" fill-opacity="0.501961" points="132,76 129,79 122,77" />
<polygon fill="#52110c" fill-opacity="0.501961" points="0,100 -15,144 2,160" />
<polygon fill="#382928" fill-opacity="0.501961" points="29,75 32,72 32,66" />
<polygon fill="#0e1111" fill-opacity="0.501961" points="169,107 178,106 163,103" />
<polygon fill="#463727" fill-opacity="0.501961" points="202,49 195,47 197,40" />
<polygon fill="#000e49" fill-opacity="0.501961" points="77,117 70,118 75,119" />
<polygon fill="#222733" fill-opacity="0.501961" points="254,101 247,78 254,55" />
<polygon fill="#362f23" fill-opacity="0.501961" points="247,63 242,63 241,69" />
</g>
</svg>