<svg xmlns="http://www.w3.org/2000/svg" version="1.1" width="1024" height="580">
<rect x="0" y="0" width="1024" height="580" fill="#1c212f" />
<g transform="scale(4.000000) translate(0.5 0.5)">
<polygon fill="#e7cecd" fill-opacity="0.501961" points="47,92 9,52 3,98" />
<polygon fill="#002b85" fill-opacity="0.501961" points="1,160 6,95 248,133" />
<polygon fill="#000000" fill-opacity="0.501961" points="148,108 -11,-16 54,111" />
<polygon fill="#938963" fill-opacity="0.501961" points="202,30 235,55 167,61" />
<polygon fill="#010000" fill-opacity="0.501961" points="270,137 265,-16 168,-16" />
<polygon fill="#f5d3bd" fill-opacity="0.501961" points="39,58 24,97 16,58" />
<polygon fill="#7f724f" fill-opacity="0.501961" points="133,19 173,-8 174,29" />
<polygon fill="#00277b" fill-opacity="0.501961" points="107,112 253,109 252,158" />
<polygon fill="#000000" fill-opacity="0.501961" points="-16,112 -3,2 50,-16" />
<polygon fill="#8294b5" fill-opacity="0.501961" points="77,123 26,124 55,133" />
<polygon fill="#74705d" fill-opacity="0.501961" points="226,60 230,33 171,46" />
<polygon fill="#b095a5" fill-opacity="0.501961" points="121,78 136,82 126,64" />
<polygon fill="#000000" fill-opacity="0.501961" points="160,24 250,-16 261,41" />
<polygon fill="#404b71" fill-opacity="0.501961" points="41,52 20,118 43,92" />
<polygon fill="#000000" fill-opacity="0.501961" points="38,32 48,110 132,108" />
<polygon fill="#010000" fill-opacity="0.501961" points="170,23 131,70 175,67" />
<polygon fill="#ffffff" fill-opacity="0.501961" points="30,86 22,66 16,84" />
<polygon fill="#352f2a" fill-opacity="0.501961" points="192,53 111,108 236,111" />
<polygon fill="#3e548c" fill-opacity="0.501961" points="4,55 23,105 4,112" />
<polygon fill="#0a0300" fill-opacity="0.501961" points="263,17 214,105 270,114" />
<polygon fill="#cfe6ff" fill-opacity="0.501961" points="37,96 42,82 43,96" />
<polygon fill="#030000" fill-opacity="0.501961" points="52,55 14,-16 -16,59" />
<polygon fill="#302c28" fill-opacity="0.501961" points="153,-16 17,16 135,75" />
<polygon fill="#5496ff" fill-opacity="0.501961" points="255,139 241,136 243,129" />
<polygon fill="#0c0b06" fill-opacity="0.501961" points="124,55 36,43 28,75" />
<polygon fill="#655c40" fill-opacity="0.501961" points="198,33 173,42 177,78" />
<polygon fill="#070100" fill-opacity="0.501961" points="29,87 31,96 42,71" />
<polygon fill="#ffffff" fill-opacity="0.501961" points="12,95 5,94 6,84" />
<polygon fill="#110000" fill-opacity="0.501961" points="4,154 3,45 -16,102" />
<polygon fill="#001751" fill-opacity="0.501961" points="174,113 198,160 51,117" />
<polygon fill="#000000" fill-opacity="0.501961" points="180,-16 271,25 182,27" />
<polygon fill="#040200" fill-opacity="0.501961" points="121,111 36,109 63,51" />
<polygon fill="#060000" fill-opacity="0.501961" points="16,91 10,80 22,91" />
<polygon fill="#ffffe7" fill-opacity="0.501961" points="34,78 12,78 23,89" />
<polygon fill="#342812" fill-opacity="0.501961" points="164,19 223,32 133,49" />
<polygon fill="#45302e" fill-opacity="0.501961" points="11,78 5,73 26,60" />
<polygon fill="#857d60" fill-opacity="0.501961" points="151,36 149,4 161,11" />
<polygon fill="#30220e" fill-opacity="0.501961" points="223,91 185,59 243,55" />
<polygon fill="#2d4274" fill-opacity="0.501961" points="25,118 57,120 66,104" />
<polygon fill="#861003" fill-opacity="0.501961" points="-1,110 -16,54 0,8" />
<polygon fill="#7a6975" fill-opacity="0.501961" points="122,65 126,86 135,62" />
<polygon fill="#020200" fill-opacity="0.501961" points="165,72 127,63 175,41" />
<polygon fill="#515172" fill-opacity="0.501961" points="42,93 43,57 23,58" />
<polygon fill="#85847d" fill-opacity="0.501961" points="210,34 208,55 191,57" />
<polygon fill="#001450" fill-opacity="0.501961" points="3,101 32,124 13,160" />
<polygon fill="#102a67" fill-opacity="0.501961" points="169,160 244,112 179,110" />
<polygon fill="#47473a" fill-opacity="0.501961" points="217,34 185,33 185,56" />
<polygon fill="#51658d" fill-opacity="0.501961" points="11,103 28,108 32,93" />
<polygon fill="#7588a9" fill-opacity="0.501961" points="60,125 76,127 60,131" />
<polygon fill="#282931" fill-opacity="0.501961" points="55,55 133,-16 157,47" />
<polygon fill="#8392ad" fill-opacity="0.501961" points="34,123 32,130 51,129" />
<polygon fill="#554c30" fill-opacity="0.501961" points="50,39 59,15 48,2" />
<polygon fill="#000000" fill-opacity="0.501961" points="35,45 78,111 126,95" />
<polygon fill="#112b6b" fill-opacity="0.501961" points="28,131 125,160 111,130" />
<polygon fill="#262932" fill-opacity="0.501961" points="145,64 111,111 243,111" />
<polygon fill="#2b271a" fill-opacity="0.501961" points="36,111 68,110 66,88" />
<polygon fill="#7d7c68" fill-opacity="0.501961" points="173,66 175,44 185,60" />
<polygon fill="#363324" fill-opacity="0.501961" points="212,32 240,37 240,60" />
<polygon fill="#0e0000" fill-opacity="0.501961" points="194,143 167,160 115,143" />
<polygon fill="#847e6b" fill-opacity="0.501961" points="172,0 166,13 174,22" />
<polygon fill="#021a4d" fill-opacity="0.501961" points="195,126 249,121 220,160" />
<polygon fill="#0d0b03" fill-opacity="0.501961" points="11,1 53,29 40,66" />
<polygon fill="#110000" fill-opacity="0.501961" points="253,148 271,149 255,85" />
<polygon fill="#2d2b2c" fill-opacity="0.501961" points="86,64 115,85 126,70" />
<polygon fill="#000200" fill-opacity="0.501961" points="115,61 112,49 78,53" />
<polygon fill="#000000" fill-opacity="0.501961" points="165,-16 187,27 271,4" />
<polygon fill="#100c00" fill-opacity="0.501961" points="68,-16 11,2 71,8" />
<polygon fill="#eaf2fe" fill-opacity="0.501961" points="6,96 12,96 6,89" />
<polygon fill="#2d1a00" fill-opacity="0.501961" points="97,144 -11,143 36,160" />
<polygon fill="#314fbd" fill-opacity="0.501961" points="5,65 12,88 4,84" />
<polygon fill="#3c2711" fill-opacity="0.501961" points="214,59 178,81 173,65" />
<polygon fill="#1f49c6" fill-opacity="0.501961" points="43,84 39,81 42,67" />
<polygon fill="#130d00" fill-opacity="0.501961" points="19,87 14,89 16,95" />
<polygon fill="#000000" fill-opacity="0.501961" points="64,40 43,40 44,90" />
<polygon fill="#110d02" fill-opacity="0.501961" points="37,96 36,110 65,96" />
<polygon fill="#7b5c47" fill-opacity="0.501961" points="33,61 37,78 27,76" />
<polygon fill="#000c3d" fill-opacity="0.501961" points="253,158 251,133 240,152" />
<polygon fill="#52472c" fill-opacity="0.501961" points="79,60 79,68 74,54" />
<polygon fill="#64a0ff" fill-opacity="0.501961" points="243,138 242,131 247,134" />
<polygon fill="#000000" fill-opacity="0.501961" points="30,-5 6,72 1,-16" />
<polygon fill="#bd837c" fill-opacity="0.501961" points="17,95 35,96 25,88" />
<polygon fill="#193876" fill-opacity="0.501961" points="118,111 154,120 164,110" />
<polygon fill="#415483" fill-opacity="0.501961" points="46,142 64,159 120,142" />
<polygon fill="#42280f" fill-opacity="0.501961" points="147,26 164,27 151,42" />
<polygon fill="#0f0300" fill-opacity="0.501961" points="239,160 271,143 186,144" />
<polygon fill="#001952" fill-opacity="0.501961" points="152,141 186,113 50,114" />
<polygon fill="#40321f" fill-opacity="0.501961" points="46,8 47,38 61,39" />
<polygon fill="#8b99aa" fill-opacity="0.501961" points="10,107 9,100 15,100" />
<polygon fill="#090000" fill-opacity="0.501961" points="-16,160 4,152 3,88" />
<polygon fill="#020302" fill-opacity="0.501961" points="253,111 255,94 217,109" />
<polygon fill="#7d645c" fill-opacity="0.501961" points="28,61 16,58 12,75" />
<polygon fill="#28282d" fill-opacity="0.501961" points="157,103 103,81 228,73" />
<polygon fill="#062150" fill-opacity="0.501961" points="20,103 4,96 35,96" />
<polygon fill="#f8fdff" fill-opacity="0.501961" points="41,91 42,95 36,96" />
<polygon fill="#2d2012" fill-opacity="0.501961" points="41,70 35,63 31,94" />
<polygon fill="#666255" fill-opacity="0.501961" points="217,59 201,35 220,40" />
<polygon fill="#584c47" fill-opacity="0.501961" points="10,73 18,95 11,93" />
<polygon fill="#7e180d" fill-opacity="0.501961" points="-11,143 1,160 0,102" />
<polygon fill="#9796b8" fill-opacity="0.501961" points="133,79 132,72 122,77" />
<polygon fill="#122d69" fill-opacity="0.501961" points="32,94 42,125 25,122" />
<polygon fill="#3e3723" fill-opacity="0.501961" points="161,-16 168,12 119,-16" />
<polygon fill="#2b2c32" fill-opacity="0.501961" points="147,-16 62,60 66,24" />
<polygon fill="#fddfcf" fill-opacity="0.501961" points="21,88 36,76 13,79" />
<polygon fill="#000000" fill-opacity="0.501961" points="173,59 161,57 163,28" />
<polygon fill="#000000" fill-opacity="0.501961" points="49,74 94,110 104,72" />
<polygon fill="#1e1200" fill-opacity="0.501961" points="32,90 40,91 34,86" />
<polygon fill="#001c57" fill-opacity="0.501961" points="73,126 123,113 51,112" />
<polygon fill="#0e2964" fill-opacity="0.501961" points="226,143 186,111 163,142" />
<polygon fill="#4c3f43" fill-opacity="0.501961" points="14,81 6,77 11,67" />
<polygon fill="#04205d" fill-opacity="0.501961" points="31,108 9,107 34,143" />
<polygon fill="#35312a" fill-opacity="0.501961" points="184,43 194,67 192,35" />
<polygon fill="#000000" fill-opacity="0.501961" points="42,96 43,56 61,94" />
<polygon fill="#43423b" fill-opacity="0.501961" points="232,44 215,56 237,57" />
<polygon fill="#262830" fill-opacity="0.501961" points="148,-7 114,58 145,59" />
<polygon fill="#000000" fill-opacity="0.501961" points="165,59 130,59 135,70" />
<polygon fill="#000000" fill-opacity="0.501961" points="228,-16 271,27 178,27" />
<polygon fill="#2a4783" fill-opacity="0.501961" points="5,112 23,107 38,112" />
<polygon fill="#fff5e0" fill-opacity="0.501961" points="17,71 23,67 28,85" />
<polygon fill="#00147c" fill-opacity="0.501961" points="6,73 9,57 5,64" />
<polygon fill="#000000" fill-opacity="0.501961" points="123,84 127,97 88,102" />
<polygon fill="#797767" fill-opacity="0.501961" points="174,45 184,64 183,45" />
<polygon fill="#717161" fill-opacity="0.501961" points="147,5 160,27 159,5" />
<polygon fill="#594e35" fill-opacity="0.501961" points="64,87 67,96 64,105" />
<polygon fill="#181a1d" fill-opacity="0.501961" points="208,109 243,50 233,110" />
<polygon fill="#332814" fill-opacity="0.501961" points="174,-5 173,40 181,16" />
<polygon fill="#475f8e" fill-opacity="0.501961" points="61,117 50,121 42,117" />
<polygon fill="#886e6a" fill-opacity="0.501961" points="122,63 136,63 127,68" />
<polygon fill="#4d6289" fill-opacity="0.501961" points="34,117 37,115 40,128" />
<polygon fill="#889eed" fill-opacity="0.501961" points="41,81 39,84 42,92" />
<polygon fill="#191710" fill-opacity="0.501961" points="168,37 159,43 160,7" />
<polygon fill="#2a2a32" fill-opacity="0.501961" points="130,73 152,67 174,109" />
<polygon fill="#1d3978" fill-opacity="0.501961" points="181,110 193,119 224,111" />
<polygon fill="#38322d" fill-opacity="0.501961" points="31,98 39,88 34,76" />
<polygon fill="#011c55" fill-opacity="0.501961" points="32,130 17,142 62,131" />
<polygon fill="#021d59" fill-opacity="0.501961" points="240,134 187,116 254,111" />
<polygon fill="#520800" fill-opacity="0.501961" points="256,13 254,80 271,76" />
<polygon fill="#584b28" fill-opacity="0.501961" points="78,32 92,22 92,29" />
<polygon fill="#7286a0" fill-opacity="0.501961" points="78,128 83,128 83,126" />
<polygon fill="#471005" fill-opacity="0.501961" points="255,73 271,99 255,152" />
<polygon fill="#100d05" fill-opacity="0.501961" points="186,72 192,57 192,72" />
<polygon fill="#001746" fill-opacity="0.501961" points="13,97 4,96 5,102" />
<polygon fill="#6672b2" fill-opacity="0.501961" points="5,88 8,78 14,86" />
<polygon fill="#899bb5" fill-opacity="0.501961" points="23,104 29,100 28,104" />
<polygon fill="#5a4440" fill-opacity="0.501961" points="9,76 12,69 19,77" />
<polygon fill="#29292f" fill-opacity="0.501961" points="92,60 89,72 127,59" />
<polygon fill="#7e6962" fill-opacity="0.501961" points="27,70 23,58 36,59" />
<polygon fill="#0d0d03" fill-opacity="0.501961" points="89,50 98,66 61,53" />
<polygon fill="#1a1c24" fill-opacity="0.501961" points="60,-12 58,19 125,-9" />
<polygon fill="#000000" fill-opacity="0.501961" points="47,83 65,107 58,31" />
<polygon fill="#292719" fill-opacity="0.501961" points="48,-9 25,19 41,18" />
<polygon fill="#1f418a" fill-opacity="0.501961" points="170,112 158,115 150,111" />
<polygon fill="#2f2e37" fill-opacity="0.501961" points="65,44 59,49 79,54" />
<polygon fill="#092054" fill-opacity="0.501961" points="40,129 37,105 42,115" />
<polygon fill="#000300" fill-opacity="0.501961" points="142,60 145,69 127,61" />
<polygon fill="#8e746b" fill-opacity="0.501961" points="30,70 36,74 33,77" />
<polygon fill="#c8cfd8" fill-opacity="0.501961" points="33,93 36,93 38,96" />
<polygon fill="#27211e" fill-opacity="0.501961" points="118,144 55,143 68,160" />
<polygon fill="#473939" fill-opacity="0.501961" points="33,74 40,65 24,75" />
<polygon fill="#868888" fill-opacity="0.501961" points="203,57 209,52 201,42" />
<polygon fill="#14337b" fill-opacity="0.501961" points="66,120 63,111 34,111" />
<polygon fill="#4f3825" fill-opacity="0.501961" points="201,60 212,65 189,68" />
<polygon fill="#2d303b" fill-opacity="0.501961" points="54,111 52,102 75,111" />
<polygon fill="#5d5238" fill-opacity="0.501961" points="52,103 55,102 54,95" />
<polygon fill="#050501" fill-opacity="0.501961" points="254,46 255,107 233,66" />
<polygon fill="#515347" fill-opacity="0.501961" points="53,14 60,25 47,21" />
<polygon fill="#1f160a" fill-opacity="0.501961" points="246,62 210,58 211,72" />
<polygon fill="#b58981" fill-opacity="0.501961" points="21,96 21,87 33,93" />
<polygon fill="#171203" fill-opacity="0.501961" points="154,54 139,46 164,46" />
<polygon fill="#6a6555" fill-opacity="0.501961" points="214,43 200,40 195,50" />
<polygon fill="#000000" fill-opacity="0.501961" points="85,64 118,110 78,109" />
<polygon fill="#a18679" fill-opacity="0.501961" points="26,59 8,65 12,59" />
<polygon fill="#234287" fill-opacity="0.501961" points="137,111 119,116 107,111" />
<polygon fill="#000000" fill-opacity="0.501961" points="51,109 51,90 44,108" />
<polygon fill="#282933" fill-opacity="0.501961" points="228,111 131,81 124,111" />
<polygon fill="#021d55" fill-opacity="0.501961" points="94,134 97,112 170,113" />
<polygon fill="#830f03" fill-opacity="0.501961" points="0,-3 -16,35 -3,33" />
<polygon fill="#020301" fill-opacity="0.501961" points="6,57 2,22 57,56" />
<polygon fill="#637699" fill-opacity="0.501961" points="50,131 67,124 36,124" />
<polygon fill="#39527e" fill-opacity="0.501961" points="29,97 9,105 25,104" />
<polygon fill="#1d1b10" fill-opacity="0.501961" points="225,28 240,40 200,27" />
<polygon fill="#594241" fill-opacity="0.501961" points="36,70 28,78 28,74" />
<polygon fill="#142f65" fill-opacity="0.501961" points="58,117 62,130 62,109" />
<polygon fill="#352e28" fill-opacity="0.501961" points="38,69 35,73 29,62" />
<polygon fill="#ffefe1" fill-opacity="0.501961" points="31,83 32,77 20,88" />
<polygon fill="#110d05" fill-opacity="0.501961" points="13,17 45,21 37,46" />
<polygon fill="#463d24" fill-opacity="0.501961" points="221,93 208,94 220,85" />
<polygon fill="#201f1e" fill-opacity="0.501961" points="179,66 167,60 166,74" />
<polygon fill="#262730" fill-opacity="0.501961" points="136,32 94,53 53,29" />
<polygon fill="#0e2755" fill-opacity="0.501961" points="34,100 31,90 29,102" />
<polygon fill="#455873" fill-opacity="0.501961" points="155,140 161,158 148,159" />
<polygon fill="#423d33" fill-opacity="0.501961" points="203,71 189,78 203,79" />
<polygon fill="#080a07" fill-opacity="0.501961" points="-13,143 59,143 -4,160" />
<polygon fill="#0e2964" fill-opacity="0.501961" points="176,143 170,123 239,143" />
<polygon fill="#021b51" fill-opacity="0.501961" points="235,142 191,139 252,112" />
<polygon fill="#000000" fill-opacity="0.501961" points="180,26 181,-10 262,28" />
<polygon fill="#5c92ff" fill-opacity="0.501961" points="245,131 240,135 247,134" />
<polygon fill="#ada7b8" fill-opacity="0.501961" points="122,78 130,74 124,75" />
<polygon fill="#332d33" fill-opacity="0.501961" points="102,78 131,71 119,66" />
<polygon fill="#8f6860" fill-opacity="0.501961" points="25,92 29,86 24,89" />
<polygon fill="#020000" fill-opacity="0.501961" points="253,108 271,160 253,160" />
<polygon fill="#152d66" fill-opacity="0.501961" points="58,158 54,124 50,149" />
<polygon fill="#1a1511" fill-opacity="0.501961" points="15,92 20,87 20,92" />
<polygon fill="#757061" fill-opacity="0.501961" points="173,4 168,-10 169,20" />
<polygon fill="#533c28" fill-opacity="0.501961" points="157,37 150,35 159,27" />
<polygon fill="#0a0c04" fill-opacity="0.501961" points="141,160 122,143 196,143" />
<polygon fill="#33271b" fill-opacity="0.501961" points="179,18 149,28 178,32" />
<polygon fill="#031857" fill-opacity="0.501961" points="38,59 43,58 41,70" />
<polygon fill="#30303c" fill-opacity="0.501961" points="118,98 137,98 120,103" />
<polygon fill="#272931" fill-opacity="0.501961" points="154,-7 93,18 123,65" />
<polygon fill="#000100" fill-opacity="0.501961" points="166,72 154,66 171,41" />
<polygon fill="#000000" fill-opacity="0.501961" points="254,-16 213,6 255,47" />
<polygon fill="#b8c4d4" fill-opacity="0.501961" points="10,95 4,91 16,95" />
<polygon fill="#000000" fill-opacity="0.501961" points="103,85 129,91 99,108" />
<polygon fill="#231a11" fill-opacity="0.501961" points="37,35 58,27 35,28" />
<polygon fill="#031e5b" fill-opacity="0.501961" points="39,120 37,112 56,112" />
<polygon fill="#49493d" fill-opacity="0.501961" points="57,24 44,25 54,6" />
<polygon fill="#141108" fill-opacity="0.501961" points="171,77 179,80 188,76" />
<polygon fill="#fffcec" fill-opacity="0.501961" points="18,85 21,80 23,87" />
<polygon fill="#143474" fill-opacity="0.501961" points="165,143 201,143 183,138" />
<polygon fill="#232222" fill-opacity="0.501961" points="52,111 35,109 35,98" />
<polygon fill="#001851" fill-opacity="0.501961" points="138,124 182,141 114,142" />
<polygon fill="#1e2029" fill-opacity="0.501961" points="229,72 195,70 229,94" />
<polygon fill="#000000" fill-opacity="0.501961" points="84,107 102,99 121,105" />
<polygon fill="#1b171c" fill-opacity="0.501961" points="39,77 36,71 40,62" />
<polygon fill="#000000" fill-opacity="0.501961" points="110,59 114,53 103,48" />
<polygon fill="#786660" fill-opacity="0.501961" points="33,76 35,66 30,72" />
<polygon fill="#d09e97" fill-opacity="0.501961" points="28,94 15,96 23,91" />
<polygon fill="#413826" fill-opacity="0.501961" points="77,51 76,68 81,66" />
<polygon fill="#0b2360" fill-opacity="0.501961" points="46,138 46,128 58,140" />
<polygon fill="#6b4c45" fill-opacity="0.501961" points="17,80 14,74 17,74" />
<polygon fill="#14130a" fill-opacity="0.501961" points="240,29 250,56 238,61" />
<polygon fill="#28409a" fill-opacity="0.501961" points="5,69 5,77 13,83" />
<polygon fill="#776157" fill-opacity="0.501961" points="24,65 11,76 12,66" />
<polygon fill="#092b71" fill-opacity="0.501961" points="248,128 252,111 253,143" />
<polygon fill="#1e170c" fill-opacity="0.501961" points="29,92 31,85 37,92" />
<polygon fill="#0f204c" fill-opacity="0.501961" points="11,58 4,56 7,66" />
<polygon fill="#ffeadb" fill-opacity="0.501961" points="21,78 23,66 29,85" />
<polygon fill="#520400" fill-opacity="0.501961" points="255,-4 271,28 256,15" />
<polygon fill="#000000" fill-opacity="0.501961" points="23,-16 2,63 1,8" />
<polygon fill="#67586b" fill-opacity="0.501961" points="128,85 129,80 130,81" />
<polygon fill="#0d2660" fill-opacity="0.501961" points="180,112 226,112 194,142" />
<polygon fill="#010400" fill-opacity="0.501961" points="82,73 92,54 79,55" />
<polygon fill="#000000" fill-opacity="0.501961" points="43,110 64,68 43,36" />
<polygon fill="#001046" fill-opacity="0.501961" points="251,113 247,129 252,131" />
<polygon fill="#f9e2d3" fill-opacity="0.501961" points="21,80 25,88 11,77" />
<polygon fill="#26272a" fill-opacity="0.501961" points="112,47 146,33 161,46" />
<polygon fill="#6d6c5a" fill-opacity="0.501961" points="149,26 158,26 152,3" />
<polygon fill="#45443a" fill-opacity="0.501961" points="159,-10 167,15 159,19" />
<polygon fill="#362c18" fill-opacity="0.501961" points="161,5 146,3 160,-16" />
<polygon fill="#001952" fill-opacity="0.501961" points="8,115 5,142 42,142" />
<polygon fill="#6f6d5c" fill-opacity="0.501961" points="185,62 181,46 179,64" />
<polygon fill="#000000" fill-opacity="0.501961" points="61,84 63,104 55,104" />
<polygon fill="#292a2f" fill-opacity="0.501961" points="120,82 111,86 133,88" />
<polygon fill="#0a0906" fill-opacity="0.501961" points="15,9 12,56 35,-5" />
<polygon fill="#453320" fill-opacity="0.501961" points="210,55 210,68 204,69" />
<polygon fill="#1f1a13" fill-opacity="0.501961" points="186,56 185,81 192,60" />
<polygon fill="#061e58" fill-opacity="0.501961" points="23,103 32,120 28,137" />
<polygon fill="#4b3626" fill-opacity="0.501961" points="182,68 169,62 182,76" />
<polygon fill="#615f51" fill-opacity="0.501961" points="217,57 213,35 196,35" />
<polygon fill="#2a2215" fill-opacity="0.501961" points="174,4 179,-9 179,19" />
<polygon fill="#2e2215" fill-opacity="0.501961" points="229,57 233,65 210,83" />
<polygon fill="#000000" fill-opacity="0.501961" points="64,41 59,37 45,49" />
<polygon fill="#23242a" fill-opacity="0.501961" points="122,86 101,83 121,76" />
<polygon fill="#19191c" fill-opacity="0.501961" points="20,52 36,53 22,48" />
<polygon fill="#244796" fill-opacity="0.501961" points="189,114 193,111 179,111" />
<polygon fill="#3f1611" fill-opacity="0.501961" points="271,160 255,106 255,150" />
<polygon fill="#322d24" fill-opacity="0.501961" points="64,60 59,46 65,49" />
<polygon fill="#7186c6" fill-opacity="0.501961" points="5,90 10,89 4,83" />
<polygon fill="#001952" fill-opacity="0.501961" points="85,114 86,125 68,126" />
<polygon fill="#020400" fill-opacity="0.501961" points="228,143 253,150 255,143" />
<polygon fill="#101014" fill-opacity="0.501961" points="237,110 224,68 245,72" />
<polygon fill="#3a2b1a" fill-opacity="0.501961" points="53,20 57,38 48,34" />
<polygon fill="#021e58" fill-opacity="0.501961" points="101,137 106,128 70,129" />
<polygon fill="#6d594d" fill-opacity="0.501961" points="13,77 9,91 14,90" />
<polygon fill="#142e67" fill-opacity="0.501961" points="51,118 47,128 48,110" />
<polygon fill="#090904" fill-opacity="0.501961" points="84,59 113,59 76,48" />
<polygon fill="#0d2763" fill-opacity="0.501961" points="181,112 187,140 219,112" />
<polygon fill="#000000" fill-opacity="0.501961" points="99,110 102,73 53,79" />
<polygon fill="#607391" fill-opacity="0.501961" points="9,101 22,105 12,107" />
<polygon fill="#110c00" fill-opacity="0.501961" points="55,4 62,-16 43,3" />
<polygon fill="#52403a" fill-opacity="0.501961" points="24,63 30,68 26,67" />
<polygon fill="#8695b1" fill-opacity="0.501961" points="69,129 63,130 68,124" />
<polygon fill="#96a3b9" fill-opacity="0.501961" points="46,130 44,124 43,130" />
<polygon fill="#2c2c35" fill-opacity="0.501961" points="154,83 158,70 146,66" />
<polygon fill="#292b32" fill-opacity="0.501961" points="136,57 137,53 151,59" />
<polygon fill="#161107" fill-opacity="0.501961" points="150,41 157,39 146,37" />
<polygon fill="#1e190e" fill-opacity="0.501961" points="16,89 21,91 14,84" />
<polygon fill="#4a3f3c" fill-opacity="0.501961" points="12,72 13,69 19,67" />
<polygon fill="#282930" fill-opacity="0.501961" points="124,74 89,60 116,60" />
<polygon fill="#072157" fill-opacity="0.501961" points="175,142 221,142 245,114" />
<polygon fill="#000000" fill-opacity="0.501961" points="44,59 76,60 76,76" />
<polygon fill="#211d14" fill-opacity="0.501961" points="174,25 202,33 175,33" />
<polygon fill="#000000" fill-opacity="0.501961" points="158,0 131,-3 160,-8" />
<polygon fill="#041d57" fill-opacity="0.501961" points="21,133 15,104 33,132" />
<polygon fill="#112e6b" fill-opacity="0.501961" points="110,129 103,138 122,135" />
<polygon fill="#23242a" fill-opacity="0.501961" points="56,28 67,2 79,58" />
<polygon fill="#2b4b8e" fill-opacity="0.501961" points="70,112 68,110 61,112" />
<polygon fill="#001650" fill-opacity="0.501961" points="9,107 8,101 4,105" />
<polygon fill="#ffebdc" fill-opacity="0.501961" points="15,81 16,84 25,79" />
<polygon fill="#0f0e0a" fill-opacity="0.501961" points="159,30 172,31 173,56" />
<polygon fill="#001951" fill-opacity="0.501961" points="251,137 249,129 247,147" />
<polygon fill="#4b402c" fill-opacity="0.501961" points="173,39 191,40 175,44" />
<polygon fill="#000000" fill-opacity="0.501961" points="124,59 131,59 126,62" />
<polygon fill="#6d6a5a" fill-opacity="0.501961" points="186,47 183,64 174,43" />
<polygon fill="#000000" fill-opacity="0.501961" points="41,101 37,96 50,96" />
<polygon fill="#091e7e" fill-opacity="0.501961" points="8,69 6,69 6,76" />
<polygon fill="#fee5d2" fill-opacity="0.501961" points="19,70 26,70 15,73" />
<polygon fill="#767161" fill-opacity="0.501961" points="195,56 193,48 200,47" />
<polygon fill="#1d1e25" fill-opacity="0.501961" points="227,83 225,108 212,107" />
<polygon fill="#807173" fill-opacity="0.501961" points="34,67 32,63 33,59" />
<polygon fill="#f8e3d3" fill-opacity="0.501961" points="28,71 19,75 21,69" />
<polygon fill="#0f2f71" fill-opacity="0.501961" points="34,95 29,99 35,111" />
<polygon fill="#434239" fill-opacity="0.501961" points="185,61 186,35 194,47" />
<polygon fill="#1d3d83" fill-opacity="0.501961" points="160,116 144,111 177,111" />
<polygon fill="#031d54" fill-opacity="0.501961" points="188,112 114,139 144,112" />
<polygon fill="#372a1e" fill-opacity="0.501961" points="171,35 176,24 163,17" />
<polygon fill="#2c2e38" fill-opacity="0.501961" points="35,102 35,105 44,103" />
<polygon fill="#28292e" fill-opacity="0.501961" points="116,34 153,25 118,66" />
<polygon fill="#6a7c9f" fill-opacity="0.501961" points="63,125 55,124 55,129" />
<polygon fill="#0e2968" fill-opacity="0.501961" points="55,123 67,120 46,119" />
<polygon fill="#031d57" fill-opacity="0.501961" points="41,123 11,123 21,117" />
<polygon fill="#776e7a" fill-opacity="0.501961" points="27,64 13,57 34,59" />
<polygon fill="#4c4d8b" fill-opacity="0.501961" points="124,78 124,83 128,78" />
<polygon fill="#060504" fill-opacity="0.501961" points="19,57 2,57 9,35" />
<polygon fill="#5f5453" fill-opacity="0.501961" points="36,84 31,96 40,86" />
<polygon fill="#0d2763" fill-opacity="0.501961" points="75,133 59,140 39,130" />
<polygon fill="#353127" fill-opacity="0.501961" points="66,98 66,107 61,110" />
<polygon fill="#111521" fill-opacity="0.501961" points="23,57 33,49 10,58" />
<polygon fill="#193676" fill-opacity="0.501961" points="140,111 126,113 133,117" />
<polygon fill="#272831" fill-opacity="0.501961" points="86,66 111,64 111,75" />
<polygon fill="#1c160a" fill-opacity="0.501961" points="59,16 57,-6 47,-16" />
<polygon fill="#8c7470" fill-opacity="0.501961" points="130,64 122,66 135,67" />
<polygon fill="#324c7c" fill-opacity="0.501961" points="65,131 65,128 68,131" />
<polygon fill="#0a0b06" fill-opacity="0.501961" points="212,61 217,64 211,73" />
<polygon fill="#323125" fill-opacity="0.501961" points="42,2 53,8 42,19" />
<polygon fill="#102f6f" fill-opacity="0.501961" points="136,142 153,143 146,139" />
<polygon fill="#020401" fill-opacity="0.501961" points="76,67 65,68 74,51" />
<polygon fill="#001851" fill-opacity="0.501961" points="58,112 109,112 82,126" />
<polygon fill="#0e2b69" fill-opacity="0.501961" points="77,142 121,141 86,131" />
<polygon fill="#031d57" fill-opacity="0.501961" points="34,115 4,113 27,141" />
<polygon fill="#001951" fill-opacity="0.501961" points="120,142 151,141 180,113" />
<polygon fill="#000300" fill-opacity="0.501961" points="155,61 139,68 156,48" />
<polygon fill="#5665ab" fill-opacity="0.501961" points="42,83 41,78 36,86" />
<polygon fill="#092361" fill-opacity="0.501961" points="37,120 40,114 47,124" />
<polygon fill="#042261" fill-opacity="0.501961" points="251,142 226,131 227,143" />
<polygon fill="#0f2962" fill-opacity="0.501961" points="167,123 224,123 181,142" />
<polygon fill="#4c84ff" fill-opacity="0.501961" points="247,137 247,133 245,131" />
<polygon fill="#01194f" fill-opacity="0.501961" points="231,130 208,142 244,142" />
<polygon fill="#2a2923" fill-opacity="0.501961" points="242,53 234,58 226,33" />
<polygon fill="#6c7fcc" fill-opacity="0.501961" points="5,83 6,87 10,82" />
</g>
</svg>