<svg xmlns="http://www.w3.org/2000/svg" version="1.1" width="1024" height="580">
<rect x="0" y="0" width="1024" height="580" fill="#030915" />
<g transform="scale(4.000000) translate(0.5 0.5)">
<polygon fill="#1a4297" fill-opacity="0.501961" points="271,135 -14,93 56,160" />
<polygon fill="#012677" fill-opacity="0.501961" points="252,160 253,111 78,111" />
<polygon fill="#000000" fill-opacity="0.501961" points="42,119 271,-1 -16,0" />
<polygon fill="#7a8eab" fill-opacity="0.501961" points="37,114 115,117 49,135" />
<polygon fill="#02256f" fill-opacity="0.501961" points="6,101 60,132 2,157" />
<polygon fill="#000000" fill-opacity="0.501961" points="271,110 22,109 247,-16" />
<polygon fill="#000000" fill-opacity="0.501961" points="271,16 3,-16 -3,102" />
<polygon fill="#001349" fill-opacity="0.501961" points="163,110 271,149 27,145" />
<polygon fill="#9eacbf" fill-opacity="0.501961" points="25,99 16,110 10,103" />
<polygon fill="#000000" fill-opacity="0.501961" points="269,110 252,-16 31,109" />
<polygon fill="#5390ff" fill-opacity="0.501961" points="247,138 248,126 238,140" />
<polygon fill="#57698a" fill-opacity="0.501961" points="73,131 122,118 86,115" />
<polygon fill="#011f5c" fill-opacity="0.501961" points="115,110 237,112 244,148" />
<polygon fill="#8f1100" fill-opacity="0.501961" points="0,111 -16,52 0,-2" />
<polygon fill="#001850" fill-opacity="0.501961" points="271,116 181,160 83,123" />
<polygon fill="#001853" fill-opacity="0.501961" points="91,132 3,156 6,129" />
<polygon fill="#031e59" fill-opacity="0.501961" points="4,107 42,110 5,160" />
<polygon fill="#637593" fill-opacity="0.501961" points="41,130 87,130 40,113" />
<polygon fill="#142e5f" fill-opacity="0.501961" points="80,124 73,114 44,123" />
<polygon fill="#000000" fill-opacity="0.501961" points="21,-16 234,111 31,110" />
<polygon fill="#190000" fill-opacity="0.501961" points="-16,145 4,146 3,96" />
<polygon fill="#6e7e98" fill-opacity="0.501961" points="84,122 97,114 113,118" />
<polygon fill="#042568" fill-opacity="0.501961" points="29,116 48,109 61,114" />
<polygon fill="#8d9ab0" fill-opacity="0.501961" points="65,115 52,118 62,120" />
<polygon fill="#7f90aa" fill-opacity="0.501961" points="21,99 24,105 10,101" />
<polygon fill="#0c0000" fill-opacity="0.501961" points="169,144 254,143 231,160" />
<polygon fill="#380500" fill-opacity="0.501961" points="271,102 256,46 253,160" />
<polygon fill="#090000" fill-opacity="0.501961" points="109,160 73,143 170,143" />
<polygon fill="#000000" fill-opacity="0.501961" points="271,-16 238,109 2,1" />
<polygon fill="#062360" fill-opacity="0.501961" points="192,110 249,131 253,110" />
<polygon fill="#001a51" fill-opacity="0.501961" points="21,139 55,160 25,97" />
<polygon fill="#7c190c" fill-opacity="0.501961" points="-2,80 2,148 -16,145" />
<polygon fill="#000000" fill-opacity="0.501961" points="1,-16 88,110 5,91" />
<polygon fill="#143474" fill-opacity="0.501961" points="17,103 14,98 28,97" />
<polygon fill="#00114f" fill-opacity="0.501961" points="88,130 104,132 91,118" />
<polygon fill="#0b2862" fill-opacity="0.501961" points="4,128 22,107 5,108" />
<polygon fill="#0b0000" fill-opacity="0.501961" points="12,160 74,143 -5,143" />
<polygon fill="#254177" fill-opacity="0.501961" points="34,112 19,105 5,112" />
<polygon fill="#7c8ca7" fill-opacity="0.501961" points="44,115 58,119 35,120" />
<polygon fill="#8e9cb2" fill-opacity="0.501961" points="54,123 59,128 68,124" />
<polygon fill="#06286c" fill-opacity="0.501961" points="68,117 78,111 53,112" />
<polygon fill="#001850" fill-opacity="0.501961" points="43,131 40,144 79,130" />
<polygon fill="#03225e" fill-opacity="0.501961" points="237,139 252,143 253,138" />
<polygon fill="#09245f" fill-opacity="0.501961" points="212,142 239,134 243,143" />
<polygon fill="#08235a" fill-opacity="0.501961" points="195,110 143,128 109,111" />
<polygon fill="#001853" fill-opacity="0.501961" points="163,141 192,116 84,123" />
<polygon fill="#5089ff" fill-opacity="0.501961" points="245,128 250,138 242,137" />
<polygon fill="#4e0a02" fill-opacity="0.501961" points="255,-15 271,35 255,90" />
<polygon fill="#506382" fill-opacity="0.501961" points="109,124 105,115 117,115" />
<polygon fill="#02205e" fill-opacity="0.501961" points="53,142 108,122 178,143" />
<polygon fill="#000000" fill-opacity="0.501961" points="115,109 31,110 30,78" />
<polygon fill="#060300" fill-opacity="0.501961" points="252,153 265,146 253,104" />
<polygon fill="#00154f" fill-opacity="0.501961" points="252,134 227,116 247,112" />
<polygon fill="#4f86fe" fill-opacity="0.501961" points="242,136 240,132 246,132" />
<polygon fill="#8a97ad" fill-opacity="0.501961" points="22,106 13,101 10,106" />
<polygon fill="#021c56" fill-opacity="0.501961" points="52,143 16,103 21,142" />
<polygon fill="#020000" fill-opacity="0.501961" points="4,95 -16,96 3,111" />
<polygon fill="#123377" fill-opacity="0.501961" points="252,127 245,142 252,143" />
<polygon fill="#8896ad" fill-opacity="0.501961" points="90,115 81,116 86,122" />
<polygon fill="#647796" fill-opacity="0.501961" points="87,130 62,127 81,124" />
<polygon fill="#000000" fill-opacity="0.501961" points="1,98 260,-4 2,-10" />
<polygon fill="#808ea5" fill-opacity="0.501961" points="9,107 11,101 22,101" />
<polygon fill="#001851" fill-opacity="0.501961" points="236,142 131,114 249,113" />
<polygon fill="#001650" fill-opacity="0.501961" points="5,118 47,123 7,129" />
<polygon fill="#617392" fill-opacity="0.501961" points="66,116 61,119 71,118" />
<polygon fill="#001750" fill-opacity="0.501961" points="162,142 121,119 57,140" />
<polygon fill="#0d2d6e" fill-opacity="0.501961" points="29,97 22,99 29,114" />
<polygon fill="#123171" fill-opacity="0.501961" points="178,143 192,138 206,143" />
<polygon fill="#0b317a" fill-opacity="0.501961" points="16,97 6,98 18,100" />
<polygon fill="#000743" fill-opacity="0.501961" points="76,120 75,115 80,121" />
<polygon fill="#001146" fill-opacity="0.501961" points="131,112 107,112 117,117" />
<polygon fill="#000000" fill-opacity="0.501961" points="93,98 6,96 1,42" />
<polygon fill="#304771" fill-opacity="0.501961" points="39,121 36,121 40,111" />
<polygon fill="#112c5e" fill-opacity="0.501961" points="81,119 84,120 84,116" />
<polygon fill="#001a52" fill-opacity="0.501961" points="222,142 140,142 243,113" />
<polygon fill="#12306f" fill-opacity="0.501961" points="46,143 26,143 38,138" />
<polygon fill="#001244" fill-opacity="0.501961" points="98,112 90,114 104,115" />
<polygon fill="#070500" fill-opacity="0.501961" points="93,144 -8,143 34,160" />
<polygon fill="#0d2d6f" fill-opacity="0.501961" points="146,112 171,111 162,116" />
<polygon fill="#3d5072" fill-opacity="0.501961" points="120,119 130,118 126,116" />
<polygon fill="#0c2b6a" fill-opacity="0.501961" points="4,142 14,143 4,110" />
<polygon fill="#001851" fill-opacity="0.501961" points="197,113 133,131 128,112" />
<polygon fill="#0a2e78" fill-opacity="0.501961" points="43,115 41,111 57,112" />
<polygon fill="#00164f" fill-opacity="0.501961" points="37,114 7,141 6,113" />
<polygon fill="#5c100a" fill-opacity="0.501961" points="-2,82 -16,73 1,121" />
<polygon fill="#001a54" fill-opacity="0.501961" points="16,143 69,137 6,122" />
<polygon fill="#b3becc" fill-opacity="0.501961" points="97,121 92,122 95,117" />
<polygon fill="#001951" fill-opacity="0.501961" points="101,130 91,132 92,119" />
<polygon fill="#173161" fill-opacity="0.501961" points="77,116 53,122 69,124" />
<polygon fill="#3e130c" fill-opacity="0.501961" points="255,80 255,160 271,104" />
<polygon fill="#000000" fill-opacity="0.501961" points="254,-16 253,110 45,109" />
<polygon fill="#919db2" fill-opacity="0.501961" points="62,121 50,119 58,118" />
<polygon fill="#102e70" fill-opacity="0.501961" points="248,119 252,120 252,133" />
<polygon fill="#00154d" fill-opacity="0.501961" points="247,113 251,121 247,133" />
<polygon fill="#0b2a6a" fill-opacity="0.501961" points="141,118 145,111 119,112" />
<polygon fill="#0e285a" fill-opacity="0.501961" points="56,116 45,147 53,160" />
<polygon fill="#00154c" fill-opacity="0.501961" points="134,119 111,114 139,112" />
<polygon fill="#7887a2" fill-opacity="0.501961" points="63,124 45,130 68,129" />
<polygon fill="#70819e" fill-opacity="0.501961" points="84,119 78,121 79,115" />
<polygon fill="#070500" fill-opacity="0.501961" points="159,160 99,143 205,143" />
<polygon fill="#001750" fill-opacity="0.501961" points="36,142 68,142 62,129" />
<polygon fill="#1a3464" fill-opacity="0.501961" points="87,125 86,133 82,117" />
<polygon fill="#001a52" fill-opacity="0.501961" points="251,131 251,115 221,118" />
<polygon fill="#011c52" fill-opacity="0.501961" points="28,105 29,97 21,99" />
<polygon fill="#080702" fill-opacity="0.501961" points="247,143 196,143 247,160" />
<polygon fill="#0c2b6a" fill-opacity="0.501961" points="213,111 234,118 255,111" />
<polygon fill="#001a52" fill-opacity="0.501961" points="190,142 249,113 129,112" />
<polygon fill="#0e2b69" fill-opacity="0.501961" points="171,143 126,143 146,136" />
<polygon fill="#00154c" fill-opacity="0.501961" points="123,142 145,133 167,141" />
<polygon fill="#647695" fill-opacity="0.501961" points="115,119 113,115 100,116" />
<polygon fill="#102e6d" fill-opacity="0.501961" points="230,143 226,138 208,143" />
<polygon fill="#77879d" fill-opacity="0.501961" points="47,128 40,124 41,127" />
<polygon fill="#001952" fill-opacity="0.501961" points="235,142 251,116 171,141" />
<polygon fill="#001952" fill-opacity="0.501961" points="13,124 28,136 42,122" />
<polygon fill="#062054" fill-opacity="0.501961" points="48,124 45,148 41,134" />
<polygon fill="#5b6e8f" fill-opacity="0.501961" points="68,122 75,120 73,116" />
<polygon fill="#17367a" fill-opacity="0.501961" points="249,115 253,124 252,113" />
<polygon fill="#00154c" fill-opacity="0.501961" points="251,140 251,112 246,122" />
<polygon fill="#001a53" fill-opacity="0.501961" points="41,112 4,112 14,132" />
<polygon fill="#1b3b7e" fill-opacity="0.501961" points="25,143 14,140 15,143" />
<polygon fill="#001a52" fill-opacity="0.501961" points="8,98 15,133 5,138" />
<polygon fill="#001951" fill-opacity="0.501961" points="82,141 2,142 39,130" />
<polygon fill="#00184f" fill-opacity="0.501961" points="207,142 251,141 225,133" />
<polygon fill="#001e59" fill-opacity="0.501961" points="17,99 26,100 24,97" />
<polygon fill="#00194f" fill-opacity="0.501961" points="111,113 126,116 118,118" />
<polygon fill="#697b99" fill-opacity="0.501961" points="38,116 53,115 48,119" />
<polygon fill="#060100" fill-opacity="0.501961" points="54,160 35,143 56,143" />
<polygon fill="#011d56" fill-opacity="0.501961" points="84,143 77,139 77,128" />
<polygon fill="#113274" fill-opacity="0.501961" points="196,115 201,111 183,112" />
<polygon fill="#031e56" fill-opacity="0.501961" points="12,132 17,101 22,132" />
<polygon fill="#2b426e" fill-opacity="0.501961" points="110,120 105,117 102,118" />
<polygon fill="#001547" fill-opacity="0.501961" points="65,116 53,112 72,112" />
<polygon fill="#0a2458" fill-opacity="0.501961" points="41,131 35,130 39,118" />
<polygon fill="#001953" fill-opacity="0.501961" points="225,112 242,133 185,113" />
<polygon fill="#8596ad" fill-opacity="0.501961" points="89,129 86,128 86,124" />
<polygon fill="#617291" fill-opacity="0.501961" points="50,124 53,126 50,129" />
<polygon fill="#001952" fill-opacity="0.501961" points="86,144 105,122 89,124" />
<polygon fill="#001952" fill-opacity="0.501961" points="113,138 103,142 99,120" />
<polygon fill="#19469c" fill-opacity="0.501961" points="5,102 4,101 5,98" />
<polygon fill="#011c55" fill-opacity="0.501961" points="75,136 68,128 68,135" />
<polygon fill="#00013d" fill-opacity="0.501961" points="52,122 54,124 48,122" />
<polygon fill="#051e52" fill-opacity="0.501961" points="72,118 68,121 70,115" />
<polygon fill="#c6ced8" fill-opacity="0.501961" points="85,118 87,117 89,121" />
<polygon fill="#586c8d" fill-opacity="0.501961" points="121,119 124,117 127,118" />
<polygon fill="#001a53" fill-opacity="0.501961" points="129,112 235,142 251,112" />
<polygon fill="#1f3a68" fill-opacity="0.501961" points="87,115 89,117 93,116" />
<polygon fill="#000000" fill-opacity="0.501961" points="56,-16 29,111 78,109" />
<polygon fill="#0f3173" fill-opacity="0.501961" points="122,116 136,111 110,111" />
<polygon fill="#001952" fill-opacity="0.501961" points="81,122 124,122 129,135" />
<polygon fill="#001b53" fill-opacity="0.501961" points="122,141 195,142 114,119" />
<polygon fill="#112a5a" fill-opacity="0.501961" points="104,116 108,118 107,111" />
<polygon fill="#1b3e85" fill-opacity="0.501961" points="203,114 200,111 213,111" />
<polygon fill="#00164d" fill-opacity="0.501961" points="130,112 118,115 140,120" />
<polygon fill="#001a53" fill-opacity="0.501961" points="155,142 247,112 125,113" />
<polygon fill="#10306f" fill-opacity="0.501961" points="58,139 49,143 61,142" />
<polygon fill="#000000" fill-opacity="0.501961" points="207,90 217,73 258,113" />
<polygon fill="#00184e" fill-opacity="0.501961" points="134,112 106,112 127,118" />
<polygon fill="#0e2c6b" fill-opacity="0.501961" points="117,142 100,138 85,143" />
<polygon fill="#001951" fill-opacity="0.501961" points="118,142 108,126 50,140" />
<polygon fill="#0e2c6a" fill-opacity="0.501961" points="64,143 73,142 57,138" />
<polygon fill="#001952" fill-opacity="0.501961" points="14,124 6,142 75,141" />
<polygon fill="#183b83" fill-opacity="0.501961" points="187,111 170,111 178,114" />
<polygon fill="#001a53" fill-opacity="0.501961" points="48,141 119,122 129,142" />
<polygon fill="#99a4b7" fill-opacity="0.501961" points="23,103 18,101 21,106" />
<polygon fill="#001952" fill-opacity="0.501961" points="158,112 207,126 205,112" />
<polygon fill="#7c1e1b" fill-opacity="0.501961" points="13,155 -6,153 -8,137" />
<polygon fill="#290702" fill-opacity="0.501961" points="255,66 258,146 271,112" />
<polygon fill="#07275a" fill-opacity="0.501961" points="81,123 75,118 78,123" />
<polygon fill="#000000" fill-opacity="0.501961" points="67,100 13,95 1,68" />
<polygon fill="#001a53" fill-opacity="0.501961" points="11,129 32,118 41,129" />
<polygon fill="#001755" fill-opacity="0.501961" points="79,113 81,114 75,115" />
<polygon fill="#223e72" fill-opacity="0.501961" points="22,113 13,109 30,109" />
<polygon fill="#001b54" fill-opacity="0.501961" points="223,142 137,114 252,116" />
<polygon fill="#223f76" fill-opacity="0.501961" points="17,112 21,109 7,109" />
<polygon fill="#001a53" fill-opacity="0.501961" points="135,141 240,112 130,112" />
<polygon fill="#001a53" fill-opacity="0.501961" points="244,116 251,114 251,138" />
<polygon fill="#22448a" fill-opacity="0.501961" points="240,143 231,143 233,141" />
<polygon fill="#001951" fill-opacity="0.501961" points="227,142 237,127 241,140" />
<polygon fill="#95a2b7" fill-opacity="0.501961" points="40,117 46,121 42,121" />
<polygon fill="#062158" fill-opacity="0.501961" points="53,114 39,115 35,110" />
<polygon fill="#8a98af" fill-opacity="0.501961" points="11,107 10,101 14,100" />
<polygon fill="#103172" fill-opacity="0.501961" points="155,116 138,111 164,111" />
<polygon fill="#001248" fill-opacity="0.501961" points="141,112 165,112 157,117" />
<polygon fill="#001b54" fill-opacity="0.501961" points="118,137 92,121 83,139" />
<polygon fill="#1b3664" fill-opacity="0.501961" points="56,131 54,120 53,131" />
<polygon fill="#40567d" fill-opacity="0.501961" points="67,124 76,129 69,129" />
<polygon fill="#112f6d" fill-opacity="0.501961" points="92,142 75,143 78,139" />
<polygon fill="#183563" fill-opacity="0.501961" points="92,116 93,122 89,119" />
<polygon fill="#596d8e" fill-opacity="0.501961" points="115,119 102,121 111,122" />
<polygon fill="#001850" fill-opacity="0.501961" points="106,131 60,140 89,142" />
<polygon fill="#001a53" fill-opacity="0.501961" points="106,141 111,126 56,142" />
<polygon fill="#011c54" fill-opacity="0.501961" points="101,121 112,121 125,138" />
<polygon fill="#06225a" fill-opacity="0.501961" points="64,114 47,111 53,115" />
<polygon fill="#5b6e90" fill-opacity="0.501961" points="67,121 66,124 66,118" />
<polygon fill="#7585a0" fill-opacity="0.501961" points="39,121 53,120 42,117" />
<polygon fill="#627493" fill-opacity="0.501961" points="71,125 70,130 81,124" />
<polygon fill="#193b7c" fill-opacity="0.501961" points="4,131 4,125 7,133" />
<polygon fill="#001952" fill-opacity="0.501961" points="59,142 38,131 71,132" />
<polygon fill="#000d46" fill-opacity="0.501961" points="17,107 25,107 24,109" />
<polygon fill="#011b54" fill-opacity="0.501961" points="13,108 40,123 28,130" />
<polygon fill="#919fb4" fill-opacity="0.501961" points="93,115 99,115 97,121" />
<polygon fill="#001a53" fill-opacity="0.501961" points="6,142 5,116 63,142" />
<polygon fill="#031f55" fill-opacity="0.501961" points="70,116 77,116 70,112" />
<polygon fill="#73849f" fill-opacity="0.501961" points="74,124 81,124 83,128" />
<polygon fill="#000000" fill-opacity="0.501961" points="0,-16 95,110 33,109" />
<polygon fill="#001b53" fill-opacity="0.501961" points="72,137 69,135 69,126" />
<polygon fill="#122c5e" fill-opacity="0.501961" points="78,115 74,114 77,127" />
<polygon fill="#001a53" fill-opacity="0.501961" points="186,122 167,141 251,142" />
<polygon fill="#000000" fill-opacity="0.501961" points="187,-16 29,110 255,100" />
<polygon fill="#000000" fill-opacity="0.501961" points="205,99 193,111 168,88" />
<polygon fill="#173570" fill-opacity="0.501961" points="23,101 29,98 20,97" />
<polygon fill="#000e47" fill-opacity="0.501961" points="71,123 64,122 68,120" />
<polygon fill="#213b6e" fill-opacity="0.501961" points="46,111 50,111 48,122" />
<polygon fill="#060807" fill-opacity="0.501961" points="173,111 150,111 166,106" />
<polygon fill="#364c72" fill-opacity="0.501961" points="48,126 47,129 51,128" />
<polygon fill="#24427b" fill-opacity="0.501961" points="22,112 15,110 14,112" />
<polygon fill="#000000" fill-opacity="0.501961" points="1,36 21,97 2,87" />
<polygon fill="#011c54" fill-opacity="0.501961" points="95,139 83,142 80,129" />
<polygon fill="#041f55" fill-opacity="0.501961" points="106,120 108,125 106,124" />
<polygon fill="#00154d" fill-opacity="0.501961" points="28,98 27,107 22,109" />
<polygon fill="#0c295b" fill-opacity="0.501961" points="77,131 81,132 85,130" />
<polygon fill="#9ba7ba" fill-opacity="0.501961" points="60,125 56,126 60,127" />
<polygon fill="#0e2b6a" fill-opacity="0.501961" points="169,142 180,143 171,138" />
<polygon fill="#001a53" fill-opacity="0.501961" points="73,140 148,113 245,142" />
<polygon fill="#33110d" fill-opacity="0.501961" points="255,106 257,159 271,150" />
<polygon fill="#001952" fill-opacity="0.501961" points="17,112 38,127 34,112" />
<polygon fill="#000000" fill-opacity="0.501961" points="-8,160 3,141 11,160" />
<polygon fill="#021d54" fill-opacity="0.501961" points="39,115 27,114 32,118" />
<polygon fill="#001a53" fill-opacity="0.501961" points="201,115 247,129 247,113" />
<polygon fill="#021d54" fill-opacity="0.501961" points="92,116 93,128 98,131" />
<polygon fill="#001a53" fill-opacity="0.501961" points="222,142 163,113 66,140" />
<polygon fill="#070910" fill-opacity="0.501961" points="199,160 165,143 252,143" />
<polygon fill="#001852" fill-opacity="0.501961" points="76,112 79,120 75,115" />
<polygon fill="#0f2f71" fill-opacity="0.501961" points="35,111 42,112 28,115" />
<polygon fill="#310602" fill-opacity="0.501961" points="255,12 255,57 271,70" />
<polygon fill="#000000" fill-opacity="0.501961" points="141,100 146,111 145,95" />
<polygon fill="#72829d" fill-opacity="0.501961" points="51,120 46,118 50,115" />
<polygon fill="#40557d" fill-opacity="0.501961" points="71,129 75,126 78,129" />
<polygon fill="#193879" fill-opacity="0.501961" points="150,140 157,143 140,143" />
<polygon fill="#001a53" fill-opacity="0.501961" points="149,142 112,126 200,131" />
<polygon fill="#60738f" fill-opacity="0.501961" points="44,128 41,128 40,131" />
<polygon fill="#00154e" fill-opacity="0.501961" points="36,120 31,113 35,114" />
<polygon fill="#5c90ff" fill-opacity="0.501961" points="241,133 248,137 245,134" />
<polygon fill="#596c8d" fill-opacity="0.501961" points="37,117 39,117 37,124" />
<polygon fill="#1a3d83" fill-opacity="0.501961" points="245,111 242,114 252,111" />
<polygon fill="#001449" fill-opacity="0.501961" points="250,137 251,142 244,141" />
<polygon fill="#001953" fill-opacity="0.501961" points="10,113 35,141 40,123" />
<polygon fill="#041f58" fill-opacity="0.501961" points="51,111 57,115 37,115" />
<polygon fill="#001449" fill-opacity="0.501961" points="9,108 5,103 6,99" />
<polygon fill="#051c49" fill-opacity="0.501961" points="14,96 11,100 18,99" />
<polygon fill="#011d55" fill-opacity="0.501961" points="61,137 62,128 63,132" />
<polygon fill="#00184f" fill-opacity="0.501961" points="158,142 136,141 151,136" />
<polygon fill="#001a53" fill-opacity="0.501961" points="241,132 220,114 230,141" />
<polygon fill="#00194f" fill-opacity="0.501961" points="5,99 9,109 9,103" />
<polygon fill="#001a53" fill-opacity="0.501961" points="6,135 39,113 11,112" />
<polygon fill="#000000" fill-opacity="0.501961" points="2,74 21,97 5,97" />
<polygon fill="#001a53" fill-opacity="0.501961" points="9,129 46,139 36,121" />
<polygon fill="#00174e" fill-opacity="0.501961" points="241,112 239,119 246,112" />
<polygon fill="#000000" fill-opacity="0.501961" points="186,109 150,110 132,90" />
<polygon fill="#07080e" fill-opacity="0.501961" points="98,143 69,143 124,160" />
<polygon fill="#4a0d0b" fill-opacity="0.501961" points="-1,16 1,98 -16,66" />
<polygon fill="#173265" fill-opacity="0.501961" points="11,109 17,111 4,113" />
<polygon fill="#00154c" fill-opacity="0.501961" points="37,124 43,122 38,122" />
<polygon fill="#2d57a8" fill-opacity="0.501961" points="155,111 150,111 153,112" />
<polygon fill="#113274" fill-opacity="0.501961" points="86,111 72,111 81,115" />
<polygon fill="#001a51" fill-opacity="0.501961" points="61,113 64,117 62,116" />
<polygon fill="#000000" fill-opacity="0.501961" points="193,90 202,111 180,88" />
<polygon fill="#19397b" fill-opacity="0.501961" points="135,143 117,143 128,140" />
<polygon fill="#7888a1" fill-opacity="0.501961" points="49,127 50,124 54,127" />
<polygon fill="#00154b" fill-opacity="0.501961" points="119,141 131,137 137,142" />
<polygon fill="#001a53" fill-opacity="0.501961" points="76,141 154,113 161,142" />
<polygon fill="#001b53" fill-opacity="0.501961" points="23,113 10,141 41,128" />
<polygon fill="#001a53" fill-opacity="0.501961" points="194,114 248,129 246,113" />
<polygon fill="#8a98b0" fill-opacity="0.501961" points="62,126 66,124 56,124" />
<polygon fill="#001a53" fill-opacity="0.501961" points="107,142 203,141 176,114" />
<polygon fill="#000000" fill-opacity="0.501961" points="1,70 1,99 12,88" />
<polygon fill="#143475" fill-opacity="0.501961" points="227,114 237,112 225,111" />
<polygon fill="#001a53" fill-opacity="0.501961" points="247,113 208,114 251,128" />
<polygon fill="#000000" fill-opacity="0.501961" points="195,20 255,113 254,48" />
<polygon fill="#001a53" fill-opacity="0.501961" points="157,112 234,142 232,112" />
<polygon fill="#000101" fill-opacity="0.501961" points="257,148 253,140 254,133" />
<polygon fill="#461c19" fill-opacity="0.501961" points="255,142 269,120 262,150" />
<polygon fill="#001a54" fill-opacity="0.501961" points="210,135 129,115 142,140" />
<polygon fill="#001a53" fill-opacity="0.501961" points="236,113 252,129 204,114" />
<polygon fill="#020302" fill-opacity="0.501961" points="223,111 234,108 227,107" />
<polygon fill="#001b54" fill-opacity="0.501961" points="33,130 47,140 68,134" />
<polygon fill="#133475" fill-opacity="0.501961" points="244,139 245,143 240,143" />
<polygon fill="#001a53" fill-opacity="0.501961" points="31,112 14,126 9,112" />
<polygon fill="#001a53" fill-opacity="0.501961" points="206,113 124,142 246,142" />
<polygon fill="#001a53" fill-opacity="0.501961" points="237,113 208,112 220,135" />
<polygon fill="#52658a" fill-opacity="0.501961" points="90,115 90,119 88,115" />
<polygon fill="#72839d" fill-opacity="0.501961" points="10,107 19,106 13,105" />
<polygon fill="#490d09" fill-opacity="0.501961" points="0,120 -1,82 -16,139" />
<polygon fill="#8695ad" fill-opacity="0.501961" points="89,121 86,116 93,122" />
<polygon fill="#300602" fill-opacity="0.501961" points="255,-3 271,9 255,53" />
<polygon fill="#163776" fill-opacity="0.501961" points="9,142 6,143 4,133" />
<polygon fill="#001952" fill-opacity="0.501961" points="26,142 5,122 6,141" />
<polygon fill="#001a52" fill-opacity="0.501961" points="6,122 6,141 32,142" />
<polygon fill="#4b100b" fill-opacity="0.501961" points="0,97 -16,160 1,134" />
<polygon fill="#000000" fill-opacity="0.501961" points="252,82 255,113 238,71" />
<polygon fill="#1c3565" fill-opacity="0.501961" points="95,124 89,120 92,116" />
<polygon fill="#183779" fill-opacity="0.501961" points="177,140 187,143 171,143" />
<polygon fill="#00184f" fill-opacity="0.501961" points="195,142 166,142 173,136" />
<polygon fill="#080a0a" fill-opacity="0.501961" points="243,108 251,110 235,111" />
<polygon fill="#001a53" fill-opacity="0.501961" points="166,142 228,140 122,113" />
<polygon fill="#1e4692" fill-opacity="0.501961" points="64,113 64,111 71,111" />
<polygon fill="#163575" fill-opacity="0.501961" points="161,140 158,143 164,143" />
<polygon fill="#001a53" fill-opacity="0.501961" points="120,126 162,142 216,128" />
<polygon fill="#001a53" fill-opacity="0.501961" points="133,134 93,122 89,133" />
<polygon fill="#000000" fill-opacity="0.501961" points="251,110 206,108 253,53" />
<polygon fill="#1c366a" fill-opacity="0.501961" points="29,109 22,112 13,110" />
<polygon fill="#000000" fill-opacity="0.501961" points="31,99 36,111 60,84" />
<polygon fill="#001a53" fill-opacity="0.501961" points="77,130 55,136 83,137" />
<polygon fill="#102c5f" fill-opacity="0.501961" points="84,129 85,131 85,128" />
<polygon fill="#173879" fill-opacity="0.501961" points="57,112 48,113 51,111" />
<polygon fill="#001a53" fill-opacity="0.501961" points="144,142 194,142 184,113" />
<polygon fill="#4b1410" fill-opacity="0.501961" points="1,145 -1,117 -16,127" />
<polygon fill="#bdc5d2" fill-opacity="0.501961" points="95,120 98,121 94,121" />
<polygon fill="#04215d" fill-opacity="0.501961" points="57,111 63,114 68,113" />
<polygon fill="#001a54" fill-opacity="0.501961" points="10,118 12,137 49,140" />
<polygon fill="#001a53" fill-opacity="0.501961" points="7,113 38,123 20,128" />
<polygon fill="#041f56" fill-opacity="0.501961" points="103,127 98,136 99,117" />
<polygon fill="#6b7c9a" fill-opacity="0.501961" points="100,117 104,122 98,119" />
<polygon fill="#001952" fill-opacity="0.501961" points="91,123 103,139 107,122" />
<polygon fill="#001b53" fill-opacity="0.501961" points="127,117 177,128 144,130" />
<polygon fill="#000000" fill-opacity="0.501961" points="90,69 51,111 52,22" />
<polygon fill="#041e55" fill-opacity="0.501961" points="99,128 103,132 99,118" />
<polygon fill="#00164c" fill-opacity="0.501961" points="24,105 26,99 28,109" />
<polygon fill="#001a53" fill-opacity="0.501961" points="92,122 127,124 84,137" />
<polygon fill="#001952" fill-opacity="0.501961" points="53,140 43,130 44,135" />
<polygon fill="#586a8d" fill-opacity="0.501961" points="63,120 61,120 64,121" />
<polygon fill="#000000" fill-opacity="0.501961" points="247,80 142,110 252,109" />
<polygon fill="#000200" fill-opacity="0.501961" points="254,143 235,152 254,154" />
<polygon fill="#2a0602" fill-opacity="0.501961" points="255,56 256,92 271,91" />
<polygon fill="#4a6085" fill-opacity="0.501961" points="68,117 81,123 74,117" />
<polygon fill="#000000" fill-opacity="0.501961" points="85,78 78,111 94,82" />
<polygon fill="#062156" fill-opacity="0.501961" points="37,127 40,129 39,117" />
<polygon fill="#001a53" fill-opacity="0.501961" points="35,137 4,142 24,120" />
<polygon fill="#001a53" fill-opacity="0.501961" points="97,132 42,131 65,140" />
<polygon fill="#8190a9" fill-opacity="0.501961" points="83,127 81,124 81,129" />
<polygon fill="#001a53" fill-opacity="0.501961" points="160,142 246,114 125,113" />
<polygon fill="#000000" fill-opacity="0.501961" points="3,109 1,111 1,103" />
<polygon fill="#070912" fill-opacity="0.501961" points="61,143 100,143 88,153" />
<polygon fill="#001a53" fill-opacity="0.501961" points="241,131 251,117 247,113" />
<polygon fill="#000000" fill-opacity="0.501961" points="252,-16 126,1 198,16" />
<polygon fill="#001a54" fill-opacity="0.501961" points="134,121 115,125 131,140" />
<polygon fill="#070a13" fill-opacity="0.501961" points="222,143 171,143 204,156" />
<polygon fill="#001a53" fill-opacity="0.501961" points="25,129 37,123 43,141" />
<polygon fill="#000000" fill-opacity="0.501961" points="9,82 1,104 2,55" />
<polygon fill="#00154b" fill-opacity="0.501961" points="56,115 49,112 66,112" />
</g>
</svg>