<svg xmlns="http://www.w3.org/2000/svg" version="1.1" width="1024" height="580">
<rect x="0" y="0" width="1024" height="580" fill="#161a26" />
<g transform="scale(4.000000) translate(0.5 0.5)">
<polygon fill="#ffffff" fill-opacity="0.501961" points="4,95 11,54 46,94" />
<polygon fill="#002d8d" fill-opacity="0.501961" points="124,160 271,111 -8,111" />
<polygon fill="#000000" fill-opacity="0.501961" points="78,115 99,-16 -16,5" />
<polygon fill="#4e4227" fill-opacity="0.501961" points="88,21 91,111 231,24" />
<polygon fill="#a48f97" fill-opacity="0.501961" points="42,57 13,122 9,59" />
<polygon fill="#000000" fill-opacity="0.501961" points="257,35 79,1 258,-16" />
<polygon fill="#002a93" fill-opacity="0.501961" points="245,120 179,143 257,143" />
<polygon fill="#030000" fill-opacity="0.501961" points="259,-7 193,104 271,113" />
<polygon fill="#001d73" fill-opacity="0.501961" points="70,142 3,97 7,145" />
<polygon fill="#000000" fill-opacity="0.501961" points="52,121 13,-11 110,-9" />
<polygon fill="#0e0902" fill-opacity="0.501961" points="177,38 206,113 100,43" />
<polygon fill="#000000" fill-opacity="0.501961" points="154,-2 2,-7 -2,65" />
<polygon fill="#fffff7" fill-opacity="0.501961" points="23,73 30,85 3,96" />
<polygon fill="#545241" fill-opacity="0.501961" points="235,57 189,20 95,24" />
<polygon fill="#586b89" fill-opacity="0.501961" points="114,121 101,106 50,121" />
<polygon fill="#98b1ff" fill-opacity="0.501961" points="42,73 41,96 34,90" />
<polygon fill="#bda7c1" fill-opacity="0.501961" points="121,79 133,78 128,64" />
<polygon fill="#3252ca" fill-opacity="0.501961" points="5,90 4,58 14,86" />
<polygon fill="#000000" fill-opacity="0.501961" points="88,56 89,111 30,106" />
<polygon fill="#575647" fill-opacity="0.501961" points="91,27 90,108 114,26" />
<polygon fill="#0c0605" fill-opacity="0.501961" points="125,53 104,45 103,122" />
<polygon fill="#69b4ff" fill-opacity="0.501961" points="246,129 249,138 240,136" />
<polygon fill="#312a3b" fill-opacity="0.501961" points="44,55 28,73 37,90" />
<polygon fill="#000000" fill-opacity="0.501961" points="92,13 271,14 202,-16" />
<polygon fill="#755d57" fill-opacity="0.501961" points="7,58 8,80 39,61" />
<polygon fill="#1e1b17" fill-opacity="0.501961" points="225,88 244,27 98,99" />
<polygon fill="#1f4889" fill-opacity="0.501961" points="4,103 21,92 35,114" />
<polygon fill="#a99db5" fill-opacity="0.501961" points="42,95 2,96 6,83" />
<polygon fill="#00144c" fill-opacity="0.501961" points="135,160 3,123 271,121" />
<polygon fill="#000000" fill-opacity="0.501961" points="1,-16 3,57 85,56" />
<polygon fill="#c3ccd6" fill-opacity="0.501961" points="72,115 82,115 70,121" />
<polygon fill="#0c0000" fill-opacity="0.501961" points="-16,143 5,152 3,68" />
<polygon fill="#9faebf" fill-opacity="0.501961" points="9,100 12,107 24,103" />
<polygon fill="#030100" fill-opacity="0.501961" points="259,71 251,110 157,108" />
<polygon fill="#5e5d4d" fill-opacity="0.501961" points="91,102 101,113 101,71" />
<polygon fill="#001c53" fill-opacity="0.501961" points="60,113 4,112 47,160" />
<polygon fill="#18130e" fill-opacity="0.501961" points="136,86 129,35 180,34" />
<polygon fill="#223d71" fill-opacity="0.501961" points="193,110 101,111 151,124" />
<polygon fill="#000000" fill-opacity="0.501961" points="69,106 32,112 33,93" />
<polygon fill="#000e46" fill-opacity="0.501961" points="18,93 13,98 33,102" />
<polygon fill="#060100" fill-opacity="0.501961" points="259,137 220,-16 271,-12" />
<polygon fill="#ffefcd" fill-opacity="0.501961" points="32,78 23,89 17,76" />
<polygon fill="#191a30" fill-opacity="0.501961" points="39,60 30,88 47,75" />
<polygon fill="#2f2a1c" fill-opacity="0.501961" points="84,66 99,13 84,15" />
<polygon fill="#020000" fill-opacity="0.501961" points="236,143 117,143 179,160" />
<polygon fill="#fffff0" fill-opacity="0.501961" points="5,94 14,96 14,90" />
<polygon fill="#654c50" fill-opacity="0.501961" points="120,65 129,75 134,62" />
<polygon fill="#880c00" fill-opacity="0.501961" points="-16,7 1,65 0,-2" />
<polygon fill="#000000" fill-opacity="0.501961" points="43,-7 87,105 44,107" />
<polygon fill="#323025" fill-opacity="0.501961" points="231,23 215,75 202,20" />
<polygon fill="#57554c" fill-opacity="0.501961" points="204,48 145,23 200,27" />
<polygon fill="#2d0100" fill-opacity="0.501961" points="271,96 253,149 255,45" />
<polygon fill="#100c07" fill-opacity="0.501961" points="189,44 190,71 122,72" />
<polygon fill="#9492bb" fill-opacity="0.501961" points="131,83 130,73 121,78" />
<polygon fill="#780c00" fill-opacity="0.501961" points="0,54 -15,82 1,135" />
<polygon fill="#14316e" fill-opacity="0.501961" points="74,111 141,112 102,123" />
<polygon fill="#244079" fill-opacity="0.501961" points="151,111 188,121 223,111" />
<polygon fill="#4f342b" fill-opacity="0.501961" points="24,73 27,79 31,74" />
<polygon fill="#183269" fill-opacity="0.501961" points="85,110 32,111 34,125" />
<polygon fill="#191512" fill-opacity="0.501961" points="108,35 126,32 120,94" />
<polygon fill="#000000" fill-opacity="0.501961" points="166,-16 60,14 271,13" />
<polygon fill="#877471" fill-opacity="0.501961" points="16,57 14,78 36,59" />
<polygon fill="#59574b" fill-opacity="0.501961" points="128,24 127,34 94,31" />
<polygon fill="#3b53a6" fill-opacity="0.501961" points="4,83 19,89 8,75" />
<polygon fill="#9faae6" fill-opacity="0.501961" points="31,91 42,79 39,92" />
<polygon fill="#001d5a" fill-opacity="0.501961" points="9,109 3,143 88,143" />
<polygon fill="#7486a1" fill-opacity="0.501961" points="71,115 62,115 66,122" />
<polygon fill="#251d05" fill-opacity="0.501961" points="146,24 112,15 178,14" />
<polygon fill="#000000" fill-opacity="0.501961" points="82,56 -16,58 83,-16" />
<polygon fill="#1a191b" fill-opacity="0.501961" points="251,82 161,103 190,46" />
<polygon fill="#1c1b1b" fill-opacity="0.501961" points="98,110 170,108 116,78" />
<polygon fill="#01246a" fill-opacity="0.501961" points="252,118 253,141 241,116" />
<polygon fill="#001b53" fill-opacity="0.501961" points="202,118 121,117 208,142" />
<polygon fill="#ffefd8" fill-opacity="0.501961" points="30,82 17,86 20,73" />
<polygon fill="#040000" fill-opacity="0.501961" points="52,143 11,160 1,143" />
<polygon fill="#000000" fill-opacity="0.501961" points="32,111 30,99 53,110" />
<polygon fill="#6f809d" fill-opacity="0.501961" points="86,122 62,119 79,115" />
<polygon fill="#001951" fill-opacity="0.501961" points="18,136 51,141 16,103" />
<polygon fill="#090000" fill-opacity="0.501961" points="73,143 126,160 137,143" />
<polygon fill="#cdd3e5" fill-opacity="0.501961" points="6,88 4,96 18,96" />
<polygon fill="#00174f" fill-opacity="0.501961" points="238,118 241,142 153,142" />
<polygon fill="#434057" fill-opacity="0.501961" points="14,85 7,76 11,67" />
<polygon fill="#c6755f" fill-opacity="0.501961" points="21,92 30,85 30,95" />
<polygon fill="#2a2215" fill-opacity="0.501961" points="176,56 247,54 218,43" />
<polygon fill="#2f2916" fill-opacity="0.501961" points="84,62 93,94 84,112" />
<polygon fill="#0e306d" fill-opacity="0.501961" points="4,93 12,110 4,135" />
<polygon fill="#937575" fill-opacity="0.501961" points="132,72 125,64 131,64" />
<polygon fill="#dfe4ee" fill-opacity="0.501961" points="35,88 39,96 41,94" />
<polygon fill="#4c372d" fill-opacity="0.501961" points="31,60 32,90 36,73" />
<polygon fill="#000000" fill-opacity="0.501961" points="56,111 79,13 84,109" />
<polygon fill="#052772" fill-opacity="0.501961" points="30,97 21,106 28,110" />
<polygon fill="#1e160c" fill-opacity="0.501961" points="103,51 102,79 156,41" />
<polygon fill="#45433d" fill-opacity="0.501961" points="208,23 210,44 221,26" />
<polygon fill="#000000" fill-opacity="0.501961" points="176,110 176,98 162,98" />
<polygon fill="#497eff" fill-opacity="0.501961" points="240,140 250,133 243,133" />
<polygon fill="#455a7d" fill-opacity="0.501961" points="37,118 52,115 50,119" />
<polygon fill="#514f43" fill-opacity="0.501961" points="103,41 97,74 89,28" />
<polygon fill="#545349" fill-opacity="0.501961" points="142,23 139,33 175,30" />
<polygon fill="#1b1d23" fill-opacity="0.501961" points="136,75 224,70 146,108" />
<polygon fill="#020300" fill-opacity="0.501961" points="198,84 269,109 201,110" />
<polygon fill="#2e2811" fill-opacity="0.501961" points="104,15 132,21 93,23" />
<polygon fill="#00164d" fill-opacity="0.501961" points="16,96 8,97 2,106" />
<polygon fill="#2b355e" fill-opacity="0.501961" points="44,63 37,58 41,73" />
<polygon fill="#000740" fill-opacity="0.501961" points="10,58 5,52 5,72" />
<polygon fill="#000000" fill-opacity="0.501961" points="85,57 44,104 43,57" />
<polygon fill="#0b2249" fill-opacity="0.501961" points="13,100 22,100 23,92" />
<polygon fill="#040000" fill-opacity="0.501961" points="3,62 4,143 -9,103" />
<polygon fill="#001951" fill-opacity="0.501961" points="244,142 234,123 192,141" />
<polygon fill="#000000" fill-opacity="0.501961" points="169,72 181,72 179,56" />
<polygon fill="#6e160e" fill-opacity="0.501961" points="-2,160 -16,127 1,79" />
<polygon fill="#221a10" fill-opacity="0.501961" points="102,44 136,66 194,44" />
<polygon fill="#8499d6" fill-opacity="0.501961" points="10,82 24,92 5,86" />
<polygon fill="#564440" fill-opacity="0.501961" points="22,63 26,67 19,69" />
<polygon fill="#525044" fill-opacity="0.501961" points="89,88 98,48 102,111" />
<polygon fill="#271f0b" fill-opacity="0.501961" points="184,14 210,22 156,22" />
<polygon fill="#ffe2ca" fill-opacity="0.501961" points="18,87 13,80 28,83" />
<polygon fill="#000f4c" fill-opacity="0.501961" points="67,112 80,113 78,116" />
<polygon fill="#223a81" fill-opacity="0.501961" points="43,84 42,70 36,83" />
<polygon fill="#092255" fill-opacity="0.501961" points="104,120 97,112 75,112" />
<polygon fill="#560a01" fill-opacity="0.501961" points="255,44 270,49 256,1" />
<polygon fill="#000100" fill-opacity="0.501961" points="253,145 254,122 263,160" />
<polygon fill="#42577f" fill-opacity="0.501961" points="116,112 92,119 108,119" />
<polygon fill="#a28c82" fill-opacity="0.501961" points="22,59 11,58 9,70" />
<polygon fill="#161b2a" fill-opacity="0.501961" points="124,72 109,73 110,96" />
<polygon fill="#e7cab8" fill-opacity="0.501961" points="20,84 27,68 20,73" />
<polygon fill="#8190a9" fill-opacity="0.501961" points="84,115 77,115 82,121" />
<polygon fill="#37362a" fill-opacity="0.501961" points="132,42 125,20 142,20" />
<polygon fill="#5673ca" fill-opacity="0.501961" points="4,91 4,76 10,81" />
<polygon fill="#000742" fill-opacity="0.501961" points="33,113 47,114 50,119" />
<polygon fill="#342925" fill-opacity="0.501961" points="43,63 27,76 29,69" />
<polygon fill="#f9dec9" fill-opacity="0.501961" points="18,76 14,74 14,70" />
<polygon fill="#19130a" fill-opacity="0.501961" points="205,35 201,68 212,55" />
<polygon fill="#434546" fill-opacity="0.501961" points="212,51 219,48 215,58" />
<polygon fill="#211a18" fill-opacity="0.501961" points="31,87 37,64 42,75" />
<polygon fill="#2f4883" fill-opacity="0.501961" points="30,96 39,95 35,94" />
<polygon fill="#3a2914" fill-opacity="0.501961" points="204,53 184,43 199,63" />
<polygon fill="#451209" fill-opacity="0.501961" points="271,118 255,152 255,59" />
<polygon fill="#352919" fill-opacity="0.501961" points="105,66 98,76 107,91" />
<polygon fill="#000000" fill-opacity="0.501961" points="255,-16 254,29 113,-16" />
<polygon fill="#555348" fill-opacity="0.501961" points="109,22 100,22 108,43" />
<polygon fill="#181811" fill-opacity="0.501961" points="230,20 215,49 246,49" />
<polygon fill="#9facbf" fill-opacity="0.501961" points="21,106 22,104 17,102" />
<polygon fill="#000000" fill-opacity="0.501961" points="81,57 1,57 1,-16" />
<polygon fill="#1a1b1f" fill-opacity="0.501961" points="130,72 157,111 181,78" />
<polygon fill="#001851" fill-opacity="0.501961" points="107,139 7,112 4,142" />
<polygon fill="#050401" fill-opacity="0.501961" points="149,143 27,143 88,160" />
<polygon fill="#113277" fill-opacity="0.501961" points="253,129 248,115 252,111" />
<polygon fill="#543e43" fill-opacity="0.501961" points="123,69 132,67 130,73" />
<polygon fill="#0e0c08" fill-opacity="0.501961" points="105,45 107,71 122,72" />
<polygon fill="#232019" fill-opacity="0.501961" points="131,34 178,51 180,34" />
<polygon fill="#00194f" fill-opacity="0.501961" points="250,112 231,120 253,134" />
<polygon fill="#504d43" fill-opacity="0.501961" points="177,41 204,49 203,30" />
<polygon fill="#2e291a" fill-opacity="0.501961" points="218,108 216,98 220,99" />
<polygon fill="#010301" fill-opacity="0.501961" points="233,93 254,36 255,112" />
<polygon fill="#ac867e" fill-opacity="0.501961" points="30,77 30,82 36,73" />
<polygon fill="#bf9196" fill-opacity="0.501961" points="21,95 36,87 30,96" />
<polygon fill="#273e92" fill-opacity="0.501961" points="5,77 4,68 16,86" />
<polygon fill="#725b50" fill-opacity="0.501961" points="17,79 13,65 10,74" />
<polygon fill="#212326" fill-opacity="0.501961" points="169,111 201,111 186,104" />
<polygon fill="#171307" fill-opacity="0.501961" points="193,28 197,14 221,15" />
<polygon fill="#092458" fill-opacity="0.501961" points="79,121 107,128 128,118" />
<polygon fill="#404039" fill-opacity="0.501961" points="182,36 179,41 166,37" />
<polygon fill="#1a1b20" fill-opacity="0.501961" points="128,100 197,95 131,80" />
<polygon fill="#1f1b0e" fill-opacity="0.501961" points="91,86 88,53 83,76" />
<polygon fill="#001851" fill-opacity="0.501961" points="58,115 39,135 61,136" />
<polygon fill="#000000" fill-opacity="0.501961" points="30,97 78,110 39,110" />
<polygon fill="#001a53" fill-opacity="0.501961" points="74,137 77,118 82,138" />
<polygon fill="#c5c5d4" fill-opacity="0.501961" points="7,88 4,92 21,93" />
<polygon fill="#0f275b" fill-opacity="0.501961" points="98,112 139,123 145,112" />
<polygon fill="#313125" fill-opacity="0.501961" points="96,44 106,55 89,51" />
<polygon fill="#153677" fill-opacity="0.501961" points="164,139 154,143 177,143" />
<polygon fill="#0d2b69" fill-opacity="0.501961" points="17,143 56,143 42,136" />
<polygon fill="#590e0a" fill-opacity="0.501961" points="-16,39 -1,80 0,40" />
<polygon fill="#001953" fill-opacity="0.501961" points="164,142 229,124 99,125" />
<polygon fill="#a1aebf" fill-opacity="0.501961" points="74,122 73,117 77,117" />
<polygon fill="#112f6f" fill-opacity="0.501961" points="67,138 49,143 85,143" />
<polygon fill="#00154b" fill-opacity="0.501961" points="21,142 85,142 52,133" />
<polygon fill="#0e3172" fill-opacity="0.501961" points="29,96 30,108 25,96" />
<polygon fill="#f3d2bf" fill-opacity="0.501961" points="25,83 32,83 30,76" />
<polygon fill="#8391a9" fill-opacity="0.501961" points="108,119 110,123 109,116" />
<polygon fill="#3c3a2c" fill-opacity="0.501961" points="156,28 136,20 159,21" />
<polygon fill="#6d5954" fill-opacity="0.501961" points="18,75 19,71 14,64" />
<polygon fill="#54513c" fill-opacity="0.501961" points="133,38 128,31 128,42" />
<polygon fill="#17191e" fill-opacity="0.501961" points="224,92 180,69 225,56" />
<polygon fill="#011c53" fill-opacity="0.501961" points="112,127 107,115 107,124" />
<polygon fill="#081b3e" fill-opacity="0.501961" points="11,58 5,56 7,65" />
<polygon fill="#00174f" fill-opacity="0.501961" points="50,112 3,112 19,122" />
<polygon fill="#011d55" fill-opacity="0.501961" points="70,115 64,130 67,141" />
<polygon fill="#7e605c" fill-opacity="0.501961" points="16,68 23,67 23,72" />
<polygon fill="#1b3977" fill-opacity="0.501961" points="216,117 196,111 236,111" />
<polygon fill="#192e51" fill-opacity="0.501961" points="17,103 16,95 22,92" />
<polygon fill="#031c53" fill-opacity="0.501961" points="254,133 210,112 246,112" />
<polygon fill="#00124a" fill-opacity="0.501961" points="250,135 250,129 247,140" />
<polygon fill="#1b1b20" fill-opacity="0.501961" points="194,52 193,106 181,74" />
<polygon fill="#123375" fill-opacity="0.501961" points="4,136 4,142 17,143" />
<polygon fill="#141824" fill-opacity="0.501961" points="125,98 110,97 123,79" />
<polygon fill="#000a40" fill-opacity="0.501961" points="28,102 27,106 23,100" />
<polygon fill="#495d80" fill-opacity="0.501961" points="43,116 39,119 32,119" />
<polygon fill="#846c6a" fill-opacity="0.501961" points="125,68 121,64 133,67" />
<polygon fill="#514e40" fill-opacity="0.501961" points="89,110 101,111 100,88" />
<polygon fill="#4e4c41" fill-opacity="0.501961" points="138,24 134,28 147,39" />
<polygon fill="#8e9bad" fill-opacity="0.501961" points="11,104 18,107 11,107" />
<polygon fill="#154196" fill-opacity="0.501961" points="8,99 15,97 5,97" />
<polygon fill="#4b3c3e" fill-opacity="0.501961" points="23,75 35,70 27,77" />
<polygon fill="#092966" fill-opacity="0.501961" points="134,143 84,143 108,135" />
<polygon fill="#001951" fill-opacity="0.501961" points="99,120 31,142 178,141" />
<polygon fill="#372713" fill-opacity="0.501961" points="101,110 103,86 108,111" />
<polygon fill="#4a80ff" fill-opacity="0.501961" points="244,129 241,132 247,137" />
<polygon fill="#031e56" fill-opacity="0.501961" points="243,133 190,120 239,117" />
<polygon fill="#ffe3d1" fill-opacity="0.501961" points="30,83 18,75 22,88" />
<polygon fill="#545146" fill-opacity="0.501961" points="198,33 141,33 172,24" />
<polygon fill="#1c1911" fill-opacity="0.501961" points="83,16 84,35 104,18" />
<polygon fill="#8b9cb3" fill-opacity="0.501961" points="22,106 19,100 23,100" />
<polygon fill="#23407b" fill-opacity="0.501961" points="132,111 118,117 99,112" />
<polygon fill="#1f1911" fill-opacity="0.501961" points="110,34 111,64 140,58" />
<polygon fill="#00154a" fill-opacity="0.501961" points="15,108 26,109 28,105" />
<polygon fill="#001b53" fill-opacity="0.501961" points="49,117 28,118 37,112" />
<polygon fill="#47473d" fill-opacity="0.501961" points="122,36 116,38 118,40" />
<polygon fill="#000000" fill-opacity="0.501961" points="212,14 101,-16 12,14" />
<polygon fill="#ffe9d0" fill-opacity="0.501961" points="11,91 6,94 16,95" />
<polygon fill="#0b2459" fill-opacity="0.501961" points="101,112 116,113 99,117" />
<polygon fill="#343637" fill-opacity="0.501961" points="219,48 224,57 212,56" />
<polygon fill="#100e08" fill-opacity="0.501961" points="132,11 101,20 151,19" />
<polygon fill="#15110b" fill-opacity="0.501961" points="112,72 100,51 122,64" />
<polygon fill="#1f170e" fill-opacity="0.501961" points="165,45 142,68 193,47" />
<polygon fill="#b9c0de" fill-opacity="0.501961" points="41,95 37,92 41,83" />
<polygon fill="#223d78" fill-opacity="0.501961" points="136,111 149,118 172,111" />
<polygon fill="#344fa1" fill-opacity="0.501961" points="42,75 38,83 42,85" />
<polygon fill="#0e0e07" fill-opacity="0.501961" points="207,15 244,21 241,32" />
<polygon fill="#17376c" fill-opacity="0.501961" points="21,113 23,110 10,107" />
<polygon fill="#143475" fill-opacity="0.501961" points="197,139 208,143 186,143" />
<polygon fill="#001a53" fill-opacity="0.501961" points="7,113 5,142 81,137" />
<polygon fill="#897b7b" fill-opacity="0.501961" points="32,62 34,59 34,65" />
<polygon fill="#001952" fill-opacity="0.501961" points="198,124 244,140 148,142" />
<polygon fill="#46405c" fill-opacity="0.501961" points="128,80 124,86 124,80" />
<polygon fill="#5288ff" fill-opacity="0.501961" points="242,137 246,131 245,138" />
<polygon fill="#0c0d09" fill-opacity="0.501961" points="131,59 137,73 170,70" />
<polygon fill="#000000" fill-opacity="0.501961" points="237,143 253,143 226,155" />
<polygon fill="#525045" fill-opacity="0.501961" points="132,33 114,22 101,31" />
<polygon fill="#090700" fill-opacity="0.501961" points="188,99 179,109 164,97" />
<polygon fill="#153576" fill-opacity="0.501961" points="140,139 128,143 153,143" />
<polygon fill="#00174f" fill-opacity="0.501961" points="147,142 169,129 120,141" />
<polygon fill="#26241f" fill-opacity="0.501961" points="178,88 180,109 172,88" />
<polygon fill="#051e53" fill-opacity="0.501961" points="121,112 140,118 142,112" />
<polygon fill="#6b7c9a" fill-opacity="0.501961" points="88,117 89,114 91,122" />
<polygon fill="#201b0d" fill-opacity="0.501961" points="90,109 84,110 83,98" />
<polygon fill="#313129" fill-opacity="0.501961" points="223,29 228,43 224,46" />
<polygon fill="#6f7080" fill-opacity="0.501961" points="19,90 13,86 26,90" />
<polygon fill="#100e08" fill-opacity="0.501961" points="88,39 85,52 89,64" />
<polygon fill="#524f44" fill-opacity="0.501961" points="100,43 100,75 91,65" />
<polygon fill="#0b0a0a" fill-opacity="0.501961" points="249,68 222,53 248,105" />
<polygon fill="#a79da3" fill-opacity="0.501961" points="124,78 131,75 134,79" />
<polygon fill="#101320" fill-opacity="0.501961" points="35,84 32,79 33,87" />
<polygon fill="#001a53" fill-opacity="0.501961" points="210,137 253,112 247,129" />
<polygon fill="#021d54" fill-opacity="0.501961" points="88,114 94,116 92,119" />
<polygon fill="#000000" fill-opacity="0.501961" points="82,52 30,-16 3,57" />
<polygon fill="#44423a" fill-opacity="0.501961" points="212,36 218,44 205,42" />
<polygon fill="#d5c69c" fill-opacity="0.501961" points="131,76 125,76 126,78" />
<polygon fill="#c28b81" fill-opacity="0.501961" points="22,91 26,95 32,90" />
<polygon fill="#ffe3d2" fill-opacity="0.501961" points="20,71 17,84 22,78" />
<polygon fill="#4a618a" fill-opacity="0.501961" points="54,120 51,114 51,119" />
<polygon fill="#39382a" fill-opacity="0.501961" points="95,28 117,20 100,21" />
<polygon fill="#1f1912" fill-opacity="0.501961" points="141,35 110,59 151,67" />
<polygon fill="#000000" fill-opacity="0.501961" points="30,110 42,106 32,95" />
<polygon fill="#465b81" fill-opacity="0.501961" points="73,122 66,119 66,122" />
<polygon fill="#5a4e4e" fill-opacity="0.501961" points="20,66 33,68 37,64" />
<polygon fill="#ecc8a2" fill-opacity="0.501961" points="123,77 122,78 124,79" />
<polygon fill="#001952" fill-opacity="0.501961" points="36,139 58,124 59,111" />
<polygon fill="#0d0701" fill-opacity="0.501961" points="227,44 214,47 237,48" />
<polygon fill="#4d493e" fill-opacity="0.501961" points="140,36 148,40 147,36" />
<polygon fill="#f6e3c8" fill-opacity="0.501961" points="26,73 27,70 23,73" />
<polygon fill="#152d5e" fill-opacity="0.501961" points="220,112 185,124 147,112" />
<polygon fill="#000000" fill-opacity="0.501961" points="213,110 196,102 217,97" />
<polygon fill="#555348" fill-opacity="0.501961" points="159,37 159,40 155,36" />
<polygon fill="#2e2d22" fill-opacity="0.501961" points="131,39 135,26 128,20" />
<polygon fill="#1b1b20" fill-opacity="0.501961" points="133,72 191,72 133,107" />
<polygon fill="#222424" fill-opacity="0.501961" points="234,57 241,48 214,52" />
<polygon fill="#f2dac8" fill-opacity="0.501961" points="25,88 13,80 29,85" />
<polygon fill="#b39d93" fill-opacity="0.501961" points="13,76 17,69 15,66" />
<polygon fill="#05266a" fill-opacity="0.501961" points="47,117 54,112 28,111" />
<polygon fill="#3d3133" fill-opacity="0.501961" points="24,67 31,73 40,72" />
<polygon fill="#173677" fill-opacity="0.501961" points="227,111 253,111 235,116" />
<polygon fill="#041d52" fill-opacity="0.501961" points="212,112 247,112 247,122" />
<polygon fill="#153478" fill-opacity="0.501961" points="248,125 252,124 253,135" />
<polygon fill="#000000" fill-opacity="0.501961" points="82,76 43,106 43,25" />
<polygon fill="#091d45" fill-opacity="0.501961" points="37,63 42,56 42,62" />
<polygon fill="#001b53" fill-opacity="0.501961" points="61,115 70,141 61,138" />
<polygon fill="#6a7d9c" fill-opacity="0.501961" points="50,116 46,119 51,117" />
<polygon fill="#001952" fill-opacity="0.501961" points="13,123 60,138 48,119" />
<polygon fill="#7485c6" fill-opacity="0.501961" points="36,82 42,86 38,91" />
<polygon fill="#0d0c0f" fill-opacity="0.501961" points="235,98 249,107 229,109" />
<polygon fill="#1a4196" fill-opacity="0.501961" points="62,111 51,111 57,113" />
<polygon fill="#1d1d1e" fill-opacity="0.501961" points="120,108 127,96 124,79" />
<polygon fill="#1c1d25" fill-opacity="0.501961" points="188,58 199,79 179,58" />
<polygon fill="#203a6f" fill-opacity="0.501961" points="184,116 219,117 202,111" />
<polygon fill="#382516" fill-opacity="0.501961" points="191,48 191,55 178,48" />
<polygon fill="#0a0500" fill-opacity="0.501961" points="151,143 168,149 177,143" />
<polygon fill="#000000" fill-opacity="0.501961" points="175,71 173,55 181,66" />
<polygon fill="#292822" fill-opacity="0.501961" points="225,34 206,20 230,27" />
<polygon fill="#000f48" fill-opacity="0.501961" points="50,112 56,115 65,113" />
<polygon fill="#566a8c" fill-opacity="0.501961" points="63,115 58,119 69,121" />
<polygon fill="#1d1710" fill-opacity="0.501961" points="159,69 162,35 178,49" />
<polygon fill="#20191b" fill-opacity="0.501961" points="36,69 39,81 40,74" />
<polygon fill="#00174d" fill-opacity="0.501961" points="48,114 54,132 47,125" />
<polygon fill="#bcb9c7" fill-opacity="0.501961" points="12,89 24,85 18,92" />
<polygon fill="#001b53" fill-opacity="0.501961" points="107,142 247,141 184,117" />
<polygon fill="#142e60" fill-opacity="0.501961" points="88,126 84,122 86,117" />
<polygon fill="#111011" fill-opacity="0.501961" points="211,58 229,59 241,74" />
<polygon fill="#56698b" fill-opacity="0.501961" points="97,119 101,120 105,118" />
<polygon fill="#0d275d" fill-opacity="0.501961" points="108,112 109,120 102,115" />
<polygon fill="#e5e3e6" fill-opacity="0.501961" points="42,93 39,90 35,92" />
<polygon fill="#051f56" fill-opacity="0.501961" points="125,125 75,127 99,119" />
<polygon fill="#6a5252" fill-opacity="0.501961" points="21,69 18,69 16,74" />
<polygon fill="#1f1811" fill-opacity="0.501961" points="150,63 111,34 109,61" />
<polygon fill="#201b13" fill-opacity="0.501961" points="130,40 151,39 134,69" />
<polygon fill="#00174f" fill-opacity="0.501961" points="251,119 237,125 251,131" />
<polygon fill="#18160e" fill-opacity="0.501961" points="123,37 127,33 124,49" />
<polygon fill="#465c80" fill-opacity="0.501961" points="60,122 66,120 63,122" />
<polygon fill="#001852" fill-opacity="0.501961" points="79,115 89,114 80,112" />
<polygon fill="#001a53" fill-opacity="0.501961" points="60,141 58,117 23,141" />
<polygon fill="#f6ddc9" fill-opacity="0.501961" points="22,84 13,79 21,87" />
<polygon fill="#7a6966" fill-opacity="0.501961" points="27,59 18,62 28,70" />
<polygon fill="#5a4547" fill-opacity="0.501961" points="122,70 123,66 127,73" />
<polygon fill="#041f56" fill-opacity="0.501961" points="77,116 67,143 79,129" />
<polygon fill="#1b3d79" fill-opacity="0.501961" points="7,110 4,102 4,121" />
<polygon fill="#070500" fill-opacity="0.501961" points="253,108 268,154 254,146" />
<polygon fill="#3f1614" fill-opacity="0.501961" points="255,108 254,160 271,151" />
<polygon fill="#0c0a00" fill-opacity="0.501961" points="207,62 198,65 193,62" />
<polygon fill="#1b1b20" fill-opacity="0.501961" points="149,106 234,63 192,66" />
<polygon fill="#9dadd7" fill-opacity="0.501961" points="36,86 30,91 40,89" />
<polygon fill="#333537" fill-opacity="0.501961" points="235,55 229,56 227,52" />
<polygon fill="#1b1711" fill-opacity="0.501961" points="131,34 144,34 140,40" />
<polygon fill="#0a0801" fill-opacity="0.501961" points="209,85 192,85 212,97" />
<polygon fill="#4b483d" fill-opacity="0.501961" points="89,39 103,50 102,24" />
<polygon fill="#001953" fill-opacity="0.501961" points="153,141 24,142 80,122" />
<polygon fill="#83605f" fill-opacity="0.501961" points="34,73 30,78 34,78" />
<polygon fill="#2e2c1f" fill-opacity="0.501961" points="95,77 99,73 109,81" />
<polygon fill="#5d708f" fill-opacity="0.501961" points="81,121 83,119 87,122" />
<polygon fill="#1c1e22" fill-opacity="0.501961" points="165,102 144,110 171,109" />
<polygon fill="#001249" fill-opacity="0.501961" points="5,99 10,98 6,109" />
<polygon fill="#0b255a" fill-opacity="0.501961" points="167,125 156,117 190,121" />
<polygon fill="#000000" fill-opacity="0.501961" points="139,-16 248,14 28,14" />
<polygon fill="#001a53" fill-opacity="0.501961" points="66,139 61,118 76,140" />
<polygon fill="#7e7379" fill-opacity="0.501961" points="37,58 19,58 16,64" />
<polygon fill="#4c4a3f" fill-opacity="0.501961" points="198,29 187,22 195,49" />
<polygon fill="#021d55" fill-opacity="0.501961" points="66,119 59,133 66,133" />
<polygon fill="#281e10" fill-opacity="0.501961" points="152,80 148,75 158,72" />
<polygon fill="#0b0b07" fill-opacity="0.501961" points="108,72 122,71 121,61" />
<polygon fill="#3d3335" fill-opacity="0.501961" points="33,68 30,71 32,78" />
<polygon fill="#030300" fill-opacity="0.501961" points="2,143 22,144 -11,156" />
</g>
</svg>