<svg xmlns="http://www.w3.org/2000/svg" version="1.1" width="1024" height="580">
<rect x="0" y="0" width="1024" height="580" fill="#131822" />
<g transform="scale(4.000000) translate(0.5 0.5)">
<polygon fill="#053293" fill-opacity="0.501961" points="271,111 149,160 -16,112" />
<polygon fill="#4f422a" fill-opacity="0.501961" points="91,108 88,7 228,12" />
<polygon fill="#000000" fill-opacity="0.501961" points="102,-16 62,126 -16,7" />
<polygon fill="#8393ab" fill-opacity="0.501961" points="38,121 121,125 77,137" />
<polygon fill="#000000" fill-opacity="0.501961" points="-16,92 101,110 29,-16" />
<polygon fill="#002c93" fill-opacity="0.501961" points="253,141 173,153 252,117" />
<polygon fill="#082c77" fill-opacity="0.501961" points="97,142 3,94 7,160" />
<polygon fill="#040000" fill-opacity="0.501961" points="271,116 251,-16 191,93" />
<polygon fill="#0b0500" fill-opacity="0.501961" points="131,25 137,77 206,36" />
<polygon fill="#565546" fill-opacity="0.501961" points="206,37 100,10 190,8" />
<polygon fill="#000f46" fill-opacity="0.501961" points="44,131 158,160 256,125" />
<polygon fill="#746674" fill-opacity="0.501961" points="120,80 135,89 128,30" />
<polygon fill="#090707" fill-opacity="0.501961" points="101,38 120,101 126,22" />
<polygon fill="#8098c1" fill-opacity="0.501961" points="22,106 0,107 26,97" />
<polygon fill="#5a5848" fill-opacity="0.501961" points="89,20 92,100 114,7" />
<polygon fill="#040000" fill-opacity="0.501961" points="262,-16 147,-1 259,28" />
<polygon fill="#6ab3ff" fill-opacity="0.501961" points="244,128 249,136 241,138" />
<polygon fill="#3f3824" fill-opacity="0.501961" points="188,102 95,112 86,86" />
<polygon fill="#000000" fill-opacity="0.501961" points="-16,94 88,110 78,-16" />
<polygon fill="#a2afbe" fill-opacity="0.501961" points="108,125 79,132 57,123" />
<polygon fill="#000000" fill-opacity="0.501961" points="-16,133 97,-4 -7,-3" />
<polygon fill="#1a1714" fill-opacity="0.501961" points="242,34 200,93 102,56" />
<polygon fill="#485e81" fill-opacity="0.501961" points="30,116 66,114 57,129" />
<polygon fill="#001553" fill-opacity="0.501961" points="96,130 39,160 14,128" />
<polygon fill="#4d4329" fill-opacity="0.501961" points="189,111 228,98 145,100" />
<polygon fill="#b69ca1" fill-opacity="0.501961" points="125,52 131,40 124,36" />
<polygon fill="#95a3b7" fill-opacity="0.501961" points="115,123 87,123 115,131" />
<polygon fill="#1f448c" fill-opacity="0.501961" points="4,95 3,103 29,99" />
<polygon fill="#00144d" fill-opacity="0.501961" points="218,157 77,112 260,112" />
<polygon fill="#1a1613" fill-opacity="0.501961" points="132,116 135,21 180,22" />
<polygon fill="#97a2af" fill-opacity="0.501961" points="56,122 68,128 56,131" />
<polygon fill="#bfb9c6" fill-opacity="0.501961" points="124,75 133,80 122,82" />
<polygon fill="#050200" fill-opacity="0.501961" points="159,91 262,67 271,106" />
<polygon fill="#141012" fill-opacity="0.501961" points="103,102 103,27 126,98" />
<polygon fill="#5b5b4e" fill-opacity="0.501961" points="90,87 99,106 102,63" />
<polygon fill="#5b594b" fill-opacity="0.501961" points="132,20 88,21 118,11" />
<polygon fill="#000000" fill-opacity="0.501961" points="37,50 30,111 101,108" />
<polygon fill="#001451" fill-opacity="0.501961" points="101,121 75,110 36,124" />
<polygon fill="#939fb2" fill-opacity="0.501961" points="10,100 23,102 10,108" />
<polygon fill="#352f20" fill-opacity="0.501961" points="210,5 186,48 233,43" />
<polygon fill="#130000" fill-opacity="0.501961" points="-16,144 3,97 5,149" />
<polygon fill="#161000" fill-opacity="0.501961" points="84,11 196,3 100,-16" />
<polygon fill="#001652" fill-opacity="0.501961" points="9,105 38,125 2,160" />
<polygon fill="#000000" fill-opacity="0.501961" points="254,0 221,-16 254,104" />
<polygon fill="#861207" fill-opacity="0.501961" points="-16,118 -1,57 2,119" />
<polygon fill="#233f77" fill-opacity="0.501961" points="51,122 65,111 37,110" />
<polygon fill="#504e45" fill-opacity="0.501961" points="199,37 206,16 154,9" />
<polygon fill="#181719" fill-opacity="0.501961" points="133,112 121,84 151,83" />
<polygon fill="#1b1206" fill-opacity="0.501961" points="107,32 102,51 137,28" />
<polygon fill="#001c56" fill-opacity="0.501961" points="9,137 28,94 39,160" />
<polygon fill="#1f0000" fill-opacity="0.501961" points="253,128 271,142 255,73" />
<polygon fill="#001851" fill-opacity="0.501961" points="35,130 85,146 123,130" />
<polygon fill="#0b0904" fill-opacity="0.501961" points="178,36 184,58 119,60" />
<polygon fill="#1d1e23" fill-opacity="0.501961" points="240,74 215,49 138,71" />
<polygon fill="#2a251a" fill-opacity="0.501961" points="83,65 82,114 97,106" />
<polygon fill="#60708a" fill-opacity="0.501961" points="47,122 31,121 37,115" />
<polygon fill="#8b1005" fill-opacity="0.501961" points="-16,9 0,-7 0,53" />
<polygon fill="#0a0000" fill-opacity="0.501961" points="241,144 143,143 182,160" />
<polygon fill="#000000" fill-opacity="0.501961" points="57,97 4,-16 1,97" />
<polygon fill="#000000" fill-opacity="0.501961" points="-8,-16 82,-5 82,111" />
<polygon fill="#001b55" fill-opacity="0.501961" points="239,132 117,144 114,111" />
<polygon fill="#191b26" fill-opacity="0.501961" points="127,75 111,85 106,71" />
<polygon fill="#0b0000" fill-opacity="0.501961" points="149,158 90,144 124,143" />
<polygon fill="#211b0b" fill-opacity="0.501961" points="92,38 84,1 81,60" />
<polygon fill="#425673" fill-opacity="0.501961" points="52,129 53,123 32,126" />
<polygon fill="#7c6c98" fill-opacity="0.501961" points="132,52 130,44 125,49" />
<polygon fill="#625f4a" fill-opacity="0.501961" points="129,102 108,100 116,105" />
<polygon fill="#080000" fill-opacity="0.501961" points="13,143 88,143 62,160" />
<polygon fill="#110e03" fill-opacity="0.501961" points="253,109 240,86 210,110" />
<polygon fill="#0f1110" fill-opacity="0.501961" points="184,113 211,106 157,105" />
<polygon fill="#151003" fill-opacity="0.501961" points="111,109 133,102 155,110" />
<polygon fill="#000000" fill-opacity="0.501961" points="82,11 30,108 81,109" />
<polygon fill="#000000" fill-opacity="0.501961" points="142,1 128,-16 67,0" />
<polygon fill="#163573" fill-opacity="0.501961" points="17,114 29,111 29,96" />
<polygon fill="#0f2d68" fill-opacity="0.501961" points="218,110 194,119 168,111" />
<polygon fill="#59564a" fill-opacity="0.501961" points="160,11 133,20 186,19" />
<polygon fill="#080300" fill-opacity="0.501961" points="83,143 161,144 100,160" />
<polygon fill="#17160d" fill-opacity="0.501961" points="247,43 222,5 217,34" />
<polygon fill="#595745" fill-opacity="0.501961" points="140,105 145,99 159,103" />
<polygon fill="#1c1b1e" fill-opacity="0.501961" points="102,99 164,100 174,63" />
<polygon fill="#032363" fill-opacity="0.501961" points="4,145 16,119 4,98" />
<polygon fill="#000000" fill-opacity="0.501961" points="251,13 258,-16 167,-1" />
<polygon fill="#4d493a" fill-opacity="0.501961" points="218,104 171,104 195,96" />
<polygon fill="#000000" fill-opacity="0.501961" points="205,71 216,98 190,100" />
<polygon fill="#1e170f" fill-opacity="0.501961" points="102,41 126,50 103,83" />
<polygon fill="#001047" fill-opacity="0.501961" points="49,124 39,120 41,126" />
<polygon fill="#8493a6" fill-opacity="0.501961" points="50,114 52,118 50,124" />
<polygon fill="#515044" fill-opacity="0.501961" points="105,105 94,60 90,95" />
<polygon fill="#5189ff" fill-opacity="0.501961" points="249,139 246,133 240,134" />
<polygon fill="#1e1b0e" fill-opacity="0.501961" points="166,-4 114,10 218,10" />
<polygon fill="#9e7e7a" fill-opacity="0.501961" points="127,67 134,71 121,71" />
<polygon fill="#231b11" fill-opacity="0.501961" points="193,32 123,27 152,55" />
<polygon fill="#002264" fill-opacity="0.501961" points="48,111 106,111 63,123" />
<polygon fill="#082664" fill-opacity="0.501961" points="189,143 154,132 116,143" />
<polygon fill="#1a1b20" fill-opacity="0.501961" points="208,71 129,105 137,58" />
<polygon fill="#001857" fill-opacity="0.501961" points="252,145 249,134 247,143" />
<polygon fill="#001952" fill-opacity="0.501961" points="248,142 79,139 191,111" />
<polygon fill="#160f08" fill-opacity="0.501961" points="210,31 213,56 200,40" />
<polygon fill="#4e4d41" fill-opacity="0.501961" points="104,28 90,14 93,66" />
<polygon fill="#031d54" fill-opacity="0.501961" points="16,102 14,124 20,112" />
<polygon fill="#7c1609" fill-opacity="0.501961" points="-16,118 1,118 0,151" />
<polygon fill="#231d16" fill-opacity="0.501961" points="166,99 191,90 202,100" />
<polygon fill="#042360" fill-opacity="0.501961" points="94,142 17,143 63,130" />
<polygon fill="#050000" fill-opacity="0.501961" points="-16,160 2,143 44,144" />
<polygon fill="#001348" fill-opacity="0.501961" points="54,123 77,122 69,113" />
<polygon fill="#060500" fill-opacity="0.501961" points="163,84 174,98 188,86" />
<polygon fill="#282924" fill-opacity="0.501961" points="201,12 209,31 230,14" />
<polygon fill="#001852" fill-opacity="0.501961" points="163,113 237,114 241,138" />
<polygon fill="#090000" fill-opacity="0.501961" points="253,102 253,160 262,130" />
<polygon fill="#131414" fill-opacity="0.501961" points="100,36 120,75 127,58" />
<polygon fill="#28241a" fill-opacity="0.501961" points="108,20 161,22 116,33" />
<polygon fill="#0a2966" fill-opacity="0.501961" points="175,143 230,143 208,134" />
<polygon fill="#15316a" fill-opacity="0.501961" points="132,117 152,110 108,111" />
<polygon fill="#1c1402" fill-opacity="0.501961" points="90,86 88,41 82,64" />
<polygon fill="#00154c" fill-opacity="0.501961" points="32,114 32,133 3,113" />
<polygon fill="#000000" fill-opacity="0.501961" points="32,91 82,110 30,109" />
<polygon fill="#48463a" fill-opacity="0.501961" points="98,7 133,7 100,28" />
<polygon fill="#1b1e29" fill-opacity="0.501961" points="123,60 108,62 118,93" />
<polygon fill="#8e9cb2" fill-opacity="0.501961" points="115,123 83,127 104,130" />
<polygon fill="#000000" fill-opacity="0.501961" points="126,-16 108,2 189,1" />
<polygon fill="#000000" fill-opacity="0.501961" points="-3,115 3,97 4,136" />
<polygon fill="#001951" fill-opacity="0.501961" points="161,141 250,118 236,142" />
<polygon fill="#9ea9bc" fill-opacity="0.501961" points="67,128 57,124 74,124" />
<polygon fill="#201f16" fill-opacity="0.501961" points="217,105 218,97 247,102" />
<polygon fill="#001751" fill-opacity="0.501961" points="152,112 102,113 147,142" />
<polygon fill="#3c3a31" fill-opacity="0.501961" points="197,35 213,31 214,15" />
<polygon fill="#15130d" fill-opacity="0.501961" points="102,111 83,101 124,108" />
<polygon fill="#201d15" fill-opacity="0.501961" points="83,29 86,2 99,3" />
<polygon fill="#520300" fill-opacity="0.501961" points="255,0 271,17 255,60" />
<polygon fill="#00164c" fill-opacity="0.501961" points="86,138 61,129 72,142" />
<polygon fill="#323124" fill-opacity="0.501961" points="125,8 133,32 135,7" />
<polygon fill="#00184f" fill-opacity="0.501961" points="48,110 60,114 32,115" />
<polygon fill="#203d73" fill-opacity="0.501961" points="6,112 8,107 23,111" />
<polygon fill="#558bff" fill-opacity="0.501961" points="243,137 248,135 243,130" />
<polygon fill="#63140d" fill-opacity="0.501961" points="-2,157 -12,130 0,95" />
<polygon fill="#8b797b" fill-opacity="0.501961" points="123,37 126,53 131,37" />
<polygon fill="#97a3b8" fill-opacity="0.501961" points="70,128 90,125 76,123" />
<polygon fill="#491106" fill-opacity="0.501961" points="255,52 271,105 256,154" />
<polygon fill="#332213" fill-opacity="0.501961" points="206,37 202,48 175,35" />
<polygon fill="#1e170e" fill-opacity="0.501961" points="103,56 104,30 126,44" />
<polygon fill="#362815" fill-opacity="0.501961" points="106,53 106,82 100,64" />
<polygon fill="#1b1505" fill-opacity="0.501961" points="149,106 166,110 180,104" />
<polygon fill="#1d1710" fill-opacity="0.501961" points="112,27 132,31 106,50" />
<polygon fill="#000000" fill-opacity="0.501961" points="172,58 178,44 180,60" />
<polygon fill="#001952" fill-opacity="0.501961" points="60,140 128,142 103,129" />
<polygon fill="#3e3c30" fill-opacity="0.501961" points="194,9 193,22 182,7" />
<polygon fill="#1d170f" fill-opacity="0.501961" points="184,36 161,53 160,20" />
<polygon fill="#252320" fill-opacity="0.501961" points="170,75 181,95 175,69" />
<polygon fill="#4d4e43" fill-opacity="0.501961" points="171,106 157,100 183,102" />
<polygon fill="#2f303b" fill-opacity="0.501961" points="127,58 132,49 120,50" />
<polygon fill="#565449" fill-opacity="0.501961" points="105,11 102,22 127,18" />
<polygon fill="#4d6282" fill-opacity="0.501961" points="58,118 34,123 35,116" />
<polygon fill="#17181b" fill-opacity="0.501961" points="106,80 106,101 143,87" />
<polygon fill="#353534" fill-opacity="0.501961" points="223,44 214,34 211,44" />
<polygon fill="#050200" fill-opacity="0.501961" points="271,143 200,143 240,155" />
<polygon fill="#151515" fill-opacity="0.501961" points="223,36 217,94 232,65" />
<polygon fill="#6d7e9c" fill-opacity="0.501961" points="40,116 31,116 37,120" />
<polygon fill="#00174e" fill-opacity="0.501961" points="76,123 102,112 55,114" />
<polygon fill="#8190a7" fill-opacity="0.501961" points="10,102 23,104 16,105" />
<polygon fill="#000000" fill-opacity="0.501961" points="48,79 -9,96 28,97" />
<polygon fill="#253f70" fill-opacity="0.501961" points="162,114 151,110 169,110" />
<polygon fill="#233b6c" fill-opacity="0.501961" points="64,122 60,126 60,124" />
<polygon fill="#001952" fill-opacity="0.501961" points="127,142 237,112 112,112" />
<polygon fill="#092663" fill-opacity="0.501961" points="100,134 124,142 73,143" />
<polygon fill="#9e9bb2" fill-opacity="0.501961" points="131,81 128,77 126,82" />
<polygon fill="#001851" fill-opacity="0.501961" points="37,123 7,115 5,140" />
<polygon fill="#001656" fill-opacity="0.501961" points="29,112 28,99 23,97" />
<polygon fill="#001d5b" fill-opacity="0.501961" points="4,103 9,97 10,113" />
<polygon fill="#5b5744" fill-opacity="0.501961" points="128,21 128,27 132,26" />
<polygon fill="#1c1c21" fill-opacity="0.501961" points="132,59 185,59 134,95" />
<polygon fill="#00164e" fill-opacity="0.501961" points="76,142 77,129 119,139" />
<polygon fill="#100f08" fill-opacity="0.501961" points="198,-16 206,27 209,-3" />
<polygon fill="#030401" fill-opacity="0.501961" points="254,110 254,26 232,77" />
<polygon fill="#1b1507" fill-opacity="0.501961" points="203,111 184,107 221,104" />
<polygon fill="#514f43" fill-opacity="0.501961" points="101,92 100,41 91,65" />
<polygon fill="#100d08" fill-opacity="0.501961" points="240,31 242,40 208,33" />
<polygon fill="#0d0e0b" fill-opacity="0.501961" points="245,66 221,6 242,17" />
<polygon fill="#4c4838" fill-opacity="0.501961" points="127,104 104,105 118,100" />
<polygon fill="#21438b" fill-opacity="0.501961" points="13,143 23,143 19,141" />
<polygon fill="#6c7d9b" fill-opacity="0.501961" points="60,130 48,124 58,123" />
<polygon fill="#203b73" fill-opacity="0.501961" points="85,110 105,110 97,114" />
<polygon fill="#001852" fill-opacity="0.501961" points="8,142 5,116 58,139" />
<polygon fill="#001a53" fill-opacity="0.501961" points="203,129 250,115 251,130" />
<polygon fill="#0f2a5b" fill-opacity="0.501961" points="54,118 54,126 50,132" />
<polygon fill="#142e5d" fill-opacity="0.501961" points="17,106 16,101 18,100" />
<polygon fill="#030300" fill-opacity="0.501961" points="232,80 194,73 231,92" />
<polygon fill="#1d1812" fill-opacity="0.501961" points="129,35 109,20 109,32" />
<polygon fill="#97a3b7" fill-opacity="0.501961" points="18,106 18,101 21,103" />
<polygon fill="#36352e" fill-opacity="0.501961" points="178,33 167,23 182,24" />
<polygon fill="#001b53" fill-opacity="0.501961" points="50,123 61,123 69,115" />
<polygon fill="#070703" fill-opacity="0.501961" points="202,143 143,160 131,143" />
<polygon fill="#16120a" fill-opacity="0.501961" points="206,29 212,42 198,56" />
<polygon fill="#000000" fill-opacity="0.501961" points="86,-1 1,-1 1,88" />
<polygon fill="#500e0a" fill-opacity="0.501961" points="-1,131 -16,89 0,46" />
<polygon fill="#000000" fill-opacity="0.501961" points="136,1 177,-16 238,0" />
<polygon fill="#062461" fill-opacity="0.501961" points="255,143 226,132 230,142" />
<polygon fill="#647694" fill-opacity="0.501961" points="50,128 51,126 43,127" />
<polygon fill="#021e55" fill-opacity="0.501961" points="46,143 50,128 44,119" />
<polygon fill="#001951" fill-opacity="0.501961" points="134,123 94,112 60,123" />
<polygon fill="#0d0c07" fill-opacity="0.501961" points="136,59 170,58 132,48" />
<polygon fill="#786760" fill-opacity="0.501961" points="132,84 131,83 135,80" />
<polygon fill="#0a0601" fill-opacity="0.501961" points="222,100 247,110 220,108" />
<polygon fill="#16140c" fill-opacity="0.501961" points="103,109 119,104 132,110" />
<polygon fill="#0e3076" fill-opacity="0.501961" points="178,116 173,111 192,111" />
<polygon fill="#001a52" fill-opacity="0.501961" points="181,112 249,141 81,142" />
<polygon fill="#020302" fill-opacity="0.501961" points="69,111 37,110 50,105" />
<polygon fill="#4d4a40" fill-opacity="0.501961" points="203,17 179,25 203,36" />
<polygon fill="#2c4a89" fill-opacity="0.501961" points="80,112 86,110 89,112" />
<polygon fill="#0f2a5b" fill-opacity="0.501961" points="119,133 115,132 114,123" />
<polygon fill="#1c1a19" fill-opacity="0.501961" points="101,97 107,85 137,83" />
<polygon fill="#121008" fill-opacity="0.501961" points="121,59 108,58 104,28" />
<polygon fill="#1b1c20" fill-opacity="0.501961" points="209,44 195,71 228,55" />
<polygon fill="#1c1910" fill-opacity="0.501961" points="83,107 92,85 86,72" />
<polygon fill="#d9b9a2" fill-opacity="0.501961" points="126,43 128,39 131,44" />
<polygon fill="#001a53" fill-opacity="0.501961" points="31,130 32,116 12,123" />
<polygon fill="#5f7391" fill-opacity="0.501961" points="59,125 56,122 56,116" />
<polygon fill="#4d4b3f" fill-opacity="0.501961" points="141,20 146,28 146,9" />
<polygon fill="#211a14" fill-opacity="0.501961" points="176,40 149,52 126,44" />
<polygon fill="#000000" fill-opacity="0.501961" points="173,48 185,55 173,55" />
<polygon fill="#16140d" fill-opacity="0.501961" points="163,111 177,105 147,105" />
<polygon fill="#23211d" fill-opacity="0.501961" points="237,35 214,35 236,44" />
<polygon fill="#8b76a3" fill-opacity="0.501961" points="130,44 127,46 131,51" />
<polygon fill="#00184e" fill-opacity="0.501961" points="58,139 54,137 54,125" />
<polygon fill="#212220" fill-opacity="0.501961" points="193,82 189,98 194,94" />
<polygon fill="#0a255a" fill-opacity="0.501961" points="39,112 42,119 39,129" />
<polygon fill="#112f6e" fill-opacity="0.501961" points="96,143 63,143 80,138" />
<polygon fill="#031d53" fill-opacity="0.501961" points="91,146 84,126 85,140" />
<polygon fill="#00174f" fill-opacity="0.501961" points="57,139 88,132 87,142" />
<polygon fill="#585a50" fill-opacity="0.501961" points="162,104 153,101 160,101" />
<polygon fill="#24231b" fill-opacity="0.501961" points="230,97 231,107 238,101" />
<polygon fill="#1a1a22" fill-opacity="0.501961" points="193,42 181,47 183,83" />
<polygon fill="#001b53" fill-opacity="0.501961" points="96,123 76,117 56,122" />
<polygon fill="#322c1a" fill-opacity="0.501961" points="218,90 219,97 216,101" />
<polygon fill="#1d1a12" fill-opacity="0.501961" points="80,111 95,99 100,110" />
<polygon fill="#4e4c40" fill-opacity="0.501961" points="91,87 103,99 100,105" />
<polygon fill="#1d1811" fill-opacity="0.501961" points="154,29 156,21 142,21" />
<polygon fill="#1d170f" fill-opacity="0.501961" points="105,49 109,34 127,58" />
<polygon fill="#1a150e" fill-opacity="0.501961" points="132,44 169,50 130,57" />
<polygon fill="#133172" fill-opacity="0.501961" points="31,143 44,139 57,143" />
<polygon fill="#001750" fill-opacity="0.501961" points="24,128 41,142 79,140" />
<polygon fill="#001a52" fill-opacity="0.501961" points="111,129 117,142 65,142" />
<polygon fill="#514d42" fill-opacity="0.501961" points="180,26 182,33 201,25" />
<polygon fill="#6c7e9b" fill-opacity="0.501961" points="118,130 117,130 116,127" />
<polygon fill="#02225f" fill-opacity="0.501961" points="26,100 26,96 12,99" />
<polygon fill="#3b3829" fill-opacity="0.501961" points="157,8 132,14 136,7" />
<polygon fill="#2d2e22" fill-opacity="0.501961" points="86,41 96,41 97,32" />
<polygon fill="#2a2519" fill-opacity="0.501961" points="103,58 109,70 95,64" />
<polygon fill="#001a53" fill-opacity="0.501961" points="209,112 108,140 131,112" />
<polygon fill="#535144" fill-opacity="0.501961" points="135,20 139,21 139,12" />
<polygon fill="#3a72ed" fill-opacity="0.501961" points="243,139 241,133 243,131" />
<polygon fill="#001b53" fill-opacity="0.501961" points="77,124 107,112 74,115" />
<polygon fill="#1a1b20" fill-opacity="0.501961" points="201,84 135,83 133,64" />
<polygon fill="#000000" fill-opacity="0.501961" points="1,38 80,96 5,97" />
<polygon fill="#060400" fill-opacity="0.501961" points="62,149 80,143 54,143" />
<polygon fill="#113071" fill-opacity="0.501961" points="252,114 253,137 248,123" />
<polygon fill="#0b0a0a" fill-opacity="0.501961" points="248,88 249,59 223,40" />
<polygon fill="#514e42" fill-opacity="0.501961" points="96,33 104,38 97,19" />
<polygon fill="#5d5c4d" fill-opacity="0.501961" points="141,103 151,103 145,101" />
<polygon fill="#97a4b8" fill-opacity="0.501961" points="113,123 114,129 102,127" />
<polygon fill="#00184f" fill-opacity="0.501961" points="252,112 231,130 251,128" />
<polygon fill="#001a52" fill-opacity="0.501961" points="246,142 250,139 240,138" />
<polygon fill="#1b1b17" fill-opacity="0.501961" points="232,32 213,24 226,16" />
<polygon fill="#555446" fill-opacity="0.501961" points="192,102 208,100 203,104" />
<polygon fill="#414032" fill-opacity="0.501961" points="90,98 89,71 97,93" />
<polygon fill="#082355" fill-opacity="0.501961" points="50,120 43,126 47,116" />
<polygon fill="#001a53" fill-opacity="0.501961" points="108,122 143,127 125,115" />
<polygon fill="#151619" fill-opacity="0.501961" points="214,74 226,79 219,43" />
<polygon fill="#0c0a02" fill-opacity="0.501961" points="208,82 194,73 213,72" />
<polygon fill="#5e718f" fill-opacity="0.501961" points="32,128 40,127 34,126" />
<polygon fill="#000000" fill-opacity="0.501961" points="176,95 176,86 164,86" />
<polygon fill="#001a52" fill-opacity="0.501961" points="8,130 6,116 42,124" />
<polygon fill="#4b493f" fill-opacity="0.501961" points="162,23 157,26 153,23" />
<polygon fill="#3d3928" fill-opacity="0.501961" points="127,25 129,34 130,26" />
<polygon fill="#4f4c42" fill-opacity="0.501961" points="91,98 96,69 101,88" />
<polygon fill="#001e60" fill-opacity="0.501961" points="252,142 248,133 249,140" />
<polygon fill="#001a54" fill-opacity="0.501961" points="237,139 251,113 147,129" />
<polygon fill="#1b1710" fill-opacity="0.501961" points="179,41 182,33 157,22" />
<polygon fill="#545046" fill-opacity="0.501961" points="127,11 105,14 126,18" />
<polygon fill="#4176f3" fill-opacity="0.501961" points="248,133 246,130 243,138" />
<polygon fill="#181a22" fill-opacity="0.501961" points="137,96 154,87 124,82" />
<polygon fill="#143272" fill-opacity="0.501961" points="145,139 157,143 133,143" />
<polygon fill="#001952" fill-opacity="0.501961" points="165,113 164,142 86,141" />
<polygon fill="#16130d" fill-opacity="0.501961" points="134,101 149,107 125,108" />
<polygon fill="#001952" fill-opacity="0.501961" points="251,113 251,130 232,126" />
<polygon fill="#010200" fill-opacity="0.501961" points="251,109 227,110 254,101" />
<polygon fill="#000000" fill-opacity="0.501961" points="-2,-16 83,107 83,14" />
<polygon fill="#001951" fill-opacity="0.501961" points="39,128 90,141 19,142" />
<polygon fill="#110f09" fill-opacity="0.501961" points="189,1 221,9 195,12" />
<polygon fill="#444030" fill-opacity="0.501961" points="208,105 219,104 214,99" />
<polygon fill="#001a52" fill-opacity="0.501961" points="33,113 23,140 6,112" />
<polygon fill="#3c3930" fill-opacity="0.501961" points="121,20 116,20 120,29" />
<polygon fill="#191a1f" fill-opacity="0.501961" points="126,63 168,77 165,92" />
<polygon fill="#1d1911" fill-opacity="0.501961" points="91,33 83,28 83,55" />
<polygon fill="#193a7b" fill-opacity="0.501961" points="253,137 246,143 252,142" />
<polygon fill="#41455a" fill-opacity="0.501961" points="128,57 125,52 131,52" />
<polygon fill="#0f0f10" fill-opacity="0.501961" points="239,70 234,49 227,77" />
<polygon fill="#113179" fill-opacity="0.501961" points="54,111 66,112 55,114" />
<polygon fill="#736162" fill-opacity="0.501961" points="131,39 130,36 129,39" />
<polygon fill="#12151a" fill-opacity="0.501961" points="129,65 114,68 122,64" />
<polygon fill="#0c0b0b" fill-opacity="0.501961" points="244,90 219,99 220,107" />
<polygon fill="#28261f" fill-opacity="0.501961" points="179,22 181,37 172,23" />
<polygon fill="#1b1b1f" fill-opacity="0.501961" points="180,98 157,90 132,98" />
<polygon fill="#393631" fill-opacity="0.501961" points="215,45 208,38 219,36" />
<polygon fill="#110d07" fill-opacity="0.501961" points="137,35 127,36 140,30" />
<polygon fill="#1e1910" fill-opacity="0.501961" points="147,1 107,2 127,8" />
<polygon fill="#535044" fill-opacity="0.501961" points="101,51 102,62 91,50" />
<polygon fill="#000000" fill-opacity="0.501961" points="141,1 50,1 113,-16" />
<polygon fill="#99919c" fill-opacity="0.501961" points="124,76 122,82 131,78" />
<polygon fill="#342411" fill-opacity="0.501961" points="106,79 105,102 101,84" />
<polygon fill="#514e42" fill-opacity="0.501961" points="110,19 109,32 101,12" />
<polygon fill="#2e2013" fill-opacity="0.501961" points="192,33 201,50 180,38" />
<polygon fill="#201911" fill-opacity="0.501961" points="120,28 104,47 125,37" />
<polygon fill="#17130b" fill-opacity="0.501961" points="175,110 192,106 165,104" />
<polygon fill="#1d1912" fill-opacity="0.501961" points="85,19 84,3 107,2" />
<polygon fill="#1a3569" fill-opacity="0.501961" points="18,105 31,112 24,112" />
<polygon fill="#674c4e" fill-opacity="0.501961" points="121,72 130,79 126,73" />
<polygon fill="#4f6387" fill-opacity="0.501961" points="106,125 105,129 108,128" />
<polygon fill="#160d03" fill-opacity="0.501961" points="113,23 118,21 124,23" />
<polygon fill="#475b80" fill-opacity="0.501961" points="41,116 43,122 54,114" />
<polygon fill="#183369" fill-opacity="0.501961" points="212,110 239,111 223,115" />
<polygon fill="#1b1c22" fill-opacity="0.501961" points="112,74 136,97 110,96" />
<polygon fill="#001248" fill-opacity="0.501961" points="54,115 57,111 54,122" />
<polygon fill="#001a53" fill-opacity="0.501961" points="42,126 22,115 9,120" />
<polygon fill="#001a53" fill-opacity="0.501961" points="252,112 184,141 135,112" />
<polygon fill="#524f44" fill-opacity="0.501961" points="183,13 140,16 162,21" />
<polygon fill="#163368" fill-opacity="0.501961" points="4,120 10,108 5,109" />
<polygon fill="#545146" fill-opacity="0.501961" points="91,51 100,52 99,38" />
<polygon fill="#2e2316" fill-opacity="0.501961" points="202,98 211,101 220,98" />
<polygon fill="#4d4a3c" fill-opacity="0.501961" points="118,99 108,104 126,103" />
<polygon fill="#555548" fill-opacity="0.501961" points="169,104 173,101 162,102" />
<polygon fill="#000000" fill-opacity="0.501961" points="221,97 233,74 230,97" />
<polygon fill="#00154c" fill-opacity="0.501961" points="46,116 51,112 41,112" />
<polygon fill="#ab9d98" fill-opacity="0.501961" points="120,83 123,79 125,81" />
<polygon fill="#353020" fill-opacity="0.501961" points="169,110 175,109 177,111" />
<polygon fill="#1d4082" fill-opacity="0.501961" points="4,106 7,111 6,113" />
<polygon fill="#565649" fill-opacity="0.501961" points="197,101 192,104 183,102" />
<polygon fill="#1b160e" fill-opacity="0.501961" points="111,5 119,6 110,9" />
<polygon fill="#31302a" fill-opacity="0.501961" points="207,10 216,13 212,33" />
<polygon fill="#211a13" fill-opacity="0.501961" points="136,53 152,26 131,26" />
<polygon fill="#000000" fill-opacity="0.501961" points="209,96 222,81 194,93" />
<polygon fill="#1f2017" fill-opacity="0.501961" points="195,14 212,8 227,14" />
<polygon fill="#343331" fill-opacity="0.501961" points="215,55 212,51 217,53" />
<polygon fill="#020100" fill-opacity="0.501961" points="127,35 123,31 123,36" />
<polygon fill="#001953" fill-opacity="0.501961" points="252,139 242,120 251,127" />
<polygon fill="#3a5178" fill-opacity="0.501961" points="99,125 98,130 100,128" />
<polygon fill="#001850" fill-opacity="0.501961" points="9,103 10,100 4,105" />
<polygon fill="#3b2b1b" fill-opacity="0.501961" points="101,59 106,60 105,50" />
<polygon fill="#1b1b20" fill-opacity="0.501961" points="123,89 114,84 121,66" />
<polygon fill="#133883" fill-opacity="0.501961" points="143,111 129,111 136,114" />
<polygon fill="#001a52" fill-opacity="0.501961" points="149,112 135,133 106,112" />
</g>
</svg>