<svg xmlns="http://www.w3.org/2000/svg" version="1.1" width="1024" height="580">
<rect x="0" y="0" width="1024" height="580" fill="#171c27" />
<g transform="scale(4.000000) translate(0.5 0.5)">
<polygon fill="#fff3fb" fill-opacity="0.501961" points="45,95 13,53 1,96" />
<polygon fill="#002386" fill-opacity="0.501961" points="271,112 -16,111 115,160" />
<polygon fill="#000000" fill-opacity="0.501961" points="92,-16 81,119 -16,5" />
<polygon fill="#4c4027" fill-opacity="0.501961" points="87,7 92,105 227,11" />
<polygon fill="#090200" fill-opacity="0.501961" points="167,91 271,116 251,-16" />
<polygon fill="#a58e90" fill-opacity="0.501961" points="44,58 9,60 14,117" />
<polygon fill="#000000" fill-opacity="0.501961" points="-3,67 148,-16 4,-16" />
<polygon fill="#00268c" fill-opacity="0.501961" points="173,142 252,118 253,144" />
<polygon fill="#000000" fill-opacity="0.501961" points="40,114 93,103 52,-16" />
<polygon fill="#0d0600" fill-opacity="0.501961" points="208,39 135,75 131,19" />
<polygon fill="#001e6d" fill-opacity="0.501961" points="2,94 78,153 6,150" />
<polygon fill="#fff9f0" fill-opacity="0.501961" points="4,95 22,72 29,86" />
<polygon fill="#807084" fill-opacity="0.501961" points="135,81 122,81 129,35" />
<polygon fill="#524f3f" fill-opacity="0.501961" points="231,43 94,12 191,7" />
<polygon fill="#020000" fill-opacity="0.501961" points="115,-2 271,24 250,-16" />
<polygon fill="#768ea6" fill-opacity="0.501961" points="103,114 104,123 71,117" />
<polygon fill="#8ba7ff" fill-opacity="0.501961" points="35,90 42,71 42,94" />
<polygon fill="#213fae" fill-opacity="0.501961" points="16,87 4,87 4,59" />
<polygon fill="#100a0a" fill-opacity="0.501961" points="133,56 104,30 102,107" />
<polygon fill="#090000" fill-opacity="0.501961" points="-16,146 2,160 3,83" />
<polygon fill="#0a0810" fill-opacity="0.501961" points="31,66 64,44 33,87" />
<polygon fill="#5b5949" fill-opacity="0.501961" points="93,93 89,19 112,8" />
<polygon fill="#254a85" fill-opacity="0.501961" points="20,93 4,100 48,128" />
<polygon fill="#c1a7af" fill-opacity="0.501961" points="125,38 131,40 124,55" />
<polygon fill="#584e30" fill-opacity="0.501961" points="186,94 148,105 223,104" />
<polygon fill="#4f94ff" fill-opacity="0.501961" points="237,135 246,130 250,139" />
<polygon fill="#201e1a" fill-opacity="0.501961" points="88,108 233,69 230,17" />
<polygon fill="#000000" fill-opacity="0.501961" points="65,-16 -16,57 89,55" />
<polygon fill="#705c5a" fill-opacity="0.501961" points="7,57 7,82 35,60" />
<polygon fill="#000000" fill-opacity="0.501961" points="30,109 83,110 82,50" />
<polygon fill="#060400" fill-opacity="0.501961" points="180,100 268,100 271,7" />
<polygon fill="#00154d" fill-opacity="0.501961" points="241,111 239,160 59,124" />
<polygon fill="#bfcad3" fill-opacity="0.501961" points="8,107 13,100 15,106" />
<polygon fill="#585445" fill-opacity="0.501961" points="107,104 96,40 89,98" />
<polygon fill="#1f3f75" fill-opacity="0.501961" points="88,112 49,123 28,110" />
<polygon fill="#100b05" fill-opacity="0.501961" points="127,21 101,39 113,72" />
<polygon fill="#c0b6d6" fill-opacity="0.501961" points="127,71 124,79 131,78" />
<polygon fill="#ffe1c0" fill-opacity="0.501961" points="13,80 29,88 31,78" />
<polygon fill="#191616" fill-opacity="0.501961" points="165,18 247,76 120,62" />
<polygon fill="#433a24" fill-opacity="0.501961" points="173,105 132,92 97,104" />
<polygon fill="#130000" fill-opacity="0.501961" points="3,45 -16,95 3,160" />
<polygon fill="#413846" fill-opacity="0.501961" points="23,75 40,82 43,62" />
<polygon fill="#030000" fill-opacity="0.501961" points="93,160 152,144 80,143" />
<polygon fill="#001752" fill-opacity="0.501961" points="110,139 5,112 5,143" />
<polygon fill="#000000" fill-opacity="0.501961" points="-16,-3 83,-16 81,107" />
<polygon fill="#fffffb" fill-opacity="0.501961" points="16,92 14,96 8,94" />
<polygon fill="#000000" fill-opacity="0.501961" points="33,93 34,110 68,108" />
<polygon fill="#840f03" fill-opacity="0.501961" points="-1,102 1,-9 -16,47" />
<polygon fill="#535146" fill-opacity="0.501961" points="204,34 140,13 193,9" />
<polygon fill="#64758e" fill-opacity="0.501961" points="30,114 56,120 39,121" />
<polygon fill="#a3827d" fill-opacity="0.501961" points="133,68 128,62 122,66" />
<polygon fill="#1b1c23" fill-opacity="0.501961" points="239,47 121,72 189,85" />
<polygon fill="#abb5c4" fill-opacity="0.501961" points="102,115 95,120 103,121" />
<polygon fill="#191402" fill-opacity="0.501961" points="226,10 141,-16 75,7" />
<polygon fill="#1b1713" fill-opacity="0.501961" points="180,21 132,99 136,21" />
<polygon fill="#001b54" fill-opacity="0.501961" points="36,112 9,107 3,146" />
<polygon fill="#011c52" fill-opacity="0.501961" points="35,101 12,99 18,92" />
<polygon fill="#0c0000" fill-opacity="0.501961" points="254,146 253,107 269,88" />
<polygon fill="#ccbcd3" fill-opacity="0.501961" points="23,94 41,91 41,85" />
<polygon fill="#96a7e4" fill-opacity="0.501961" points="5,92 7,78 20,93" />
<polygon fill="#1a171b" fill-opacity="0.501961" points="104,74 189,100 111,100" />
<polygon fill="#b8c8dd" fill-opacity="0.501961" points="23,102 22,105 17,103" />
<polygon fill="#060601" fill-opacity="0.501961" points="121,60 183,59 177,42" />
<polygon fill="#281617" fill-opacity="0.501961" points="32,88 38,78 28,87" />
<polygon fill="#262110" fill-opacity="0.501961" points="93,38 84,3 83,72" />
<polygon fill="#2a2820" fill-opacity="0.501961" points="212,65 202,7 230,12" />
<polygon fill="#030100" fill-opacity="0.501961" points="192,-11 264,44 271,-9" />
<polygon fill="#9b8981" fill-opacity="0.501961" points="34,58 11,58 9,68" />
<polygon fill="#100b00" fill-opacity="0.501961" points="252,110 202,108 267,93" />
<polygon fill="#050000" fill-opacity="0.501961" points="218,156 185,144 261,143" />
<polygon fill="#030000" fill-opacity="0.501961" points="102,160 90,143 46,143" />
<polygon fill="#555347" fill-opacity="0.501961" points="148,17 90,23 116,10" />
<polygon fill="#27416e" fill-opacity="0.501961" points="95,122 74,122 97,112" />
<polygon fill="#000000" fill-opacity="0.501961" points="75,54 13,-16 -3,58" />
<polygon fill="#1f40a5" fill-opacity="0.501961" points="4,88 10,78 4,61" />
<polygon fill="#000000" fill-opacity="0.501961" points="43,109 45,31 74,110" />
<polygon fill="#3d2f1d" fill-opacity="0.501961" points="165,22 203,38 200,50" />
<polygon fill="#55513e" fill-opacity="0.501961" points="171,103 156,98 136,105" />
<polygon fill="#867e9f" fill-opacity="0.501961" points="131,84 123,76 126,82" />
<polygon fill="#f2e2d3" fill-opacity="0.501961" points="11,96 5,90 21,90" />
<polygon fill="#ffddc7" fill-opacity="0.501961" points="29,81 31,91 14,72" />
<polygon fill="#171000" fill-opacity="0.501961" points="123,110 149,110 136,96" />
<polygon fill="#d17867" fill-opacity="0.501961" points="21,95 31,93 29,86" />
<polygon fill="#060700" fill-opacity="0.501961" points="178,100 193,83 161,87" />
<polygon fill="#484130" fill-opacity="0.501961" points="197,106 223,99 176,98" />
<polygon fill="#050000" fill-opacity="0.501961" points="-16,143 76,143 20,159" />
<polygon fill="#060100" fill-opacity="0.501961" points="251,143 131,143 191,160" />
<polygon fill="#001a54" fill-opacity="0.501961" points="101,111 116,143 233,118" />
<polygon fill="#201806" fill-opacity="0.501961" points="85,110 104,110 82,87" />
<polygon fill="#1e160c" fill-opacity="0.501961" points="105,31 102,57 135,26" />
<polygon fill="#000000" fill-opacity="0.501961" points="66,1 192,1 129,-16" />
<polygon fill="#7b180b" fill-opacity="0.501961" points="0,98 1,160 -16,142" />
<polygon fill="#7486a3" fill-opacity="0.501961" points="75,121 86,118 75,116" />
<polygon fill="#524f3d" fill-opacity="0.501961" points="128,104 118,97 104,104" />
<polygon fill="#705a54" fill-opacity="0.501961" points="17,73 20,63 37,62" />
<polygon fill="#1d1a18" fill-opacity="0.501961" points="125,96 104,103 102,20" />
<polygon fill="#001a52" fill-opacity="0.501961" points="66,140 57,114 74,111" />
<polygon fill="#000000" fill-opacity="0.501961" points="62,109 31,111 30,99" />
<polygon fill="#00236c" fill-opacity="0.501961" points="21,96 29,99 29,116" />
<polygon fill="#001952" fill-opacity="0.501961" points="237,141 144,113 252,114" />
<polygon fill="#a9b9c4" fill-opacity="0.501961" points="106,119 105,116 104,118" />
<polygon fill="#ffffdd" fill-opacity="0.501961" points="24,73 25,73 25,70" />
<polygon fill="#212e70" fill-opacity="0.501961" points="5,65 15,85 6,78" />
<polygon fill="#70819b" fill-opacity="0.501961" points="45,117 35,116 34,121" />
<polygon fill="#241b06" fill-opacity="0.501961" points="89,97 89,62 83,82" />
<polygon fill="#8294a9" fill-opacity="0.501961" points="64,121 66,120 65,116" />
<polygon fill="#1f2e5c" fill-opacity="0.501961" points="42,58 35,64 42,79" />
<polygon fill="#373528" fill-opacity="0.501961" points="147,26 129,7 126,27" />
<polygon fill="#001e5a" fill-opacity="0.501961" points="45,119 12,142 70,143" />
<polygon fill="#a0848b" fill-opacity="0.501961" points="124,38 131,52 130,37" />
<polygon fill="#77615a" fill-opacity="0.501961" points="18,61 24,63 15,81" />
<polygon fill="#161a23" fill-opacity="0.501961" points="126,50 114,97 105,67" />
<polygon fill="#540600" fill-opacity="0.501961" points="271,28 255,-2 256,82" />
<polygon fill="#001953" fill-opacity="0.501961" points="92,143 122,125 95,120" />
<polygon fill="#ffe4cc" fill-opacity="0.501961" points="15,84 20,73 25,78" />
<polygon fill="#1e1701" fill-opacity="0.501961" points="142,110 155,103 180,109" />
<polygon fill="#9a6e5e" fill-opacity="0.501961" points="36,73 33,78 29,75" />
<polygon fill="#2e2013" fill-opacity="0.501961" points="40,69 25,75 37,64" />
<polygon fill="#191b21" fill-opacity="0.501961" points="226,77 151,60 238,56" />
<polygon fill="#ccd7e9" fill-opacity="0.501961" points="42,94 39,87 36,95" />
<polygon fill="#d9d5db" fill-opacity="0.501961" points="10,89 17,96 4,94" />
<polygon fill="#5e71bb" fill-opacity="0.501961" points="4,75 19,89 8,89" />
<polygon fill="#4e88ff" fill-opacity="0.501961" points="241,138 250,134 243,130" />
<polygon fill="#00164f" fill-opacity="0.501961" points="253,130 248,117 248,141" />
<polygon fill="#bcb4a8" fill-opacity="0.501961" points="128,75 120,78 132,78" />
<polygon fill="#252218" fill-opacity="0.501961" points="83,18 85,2 121,2" />
<polygon fill="#9392ad" fill-opacity="0.501961" points="133,78 131,73 124,75" />
<polygon fill="#131012" fill-opacity="0.501961" points="41,70 30,83 40,78" />
<polygon fill="#4f1104" fill-opacity="0.501961" points="255,151 255,86 271,128" />
<polygon fill="#d1d8df" fill-opacity="0.501961" points="96,118 97,115 99,115" />
<polygon fill="#1a1a1f" fill-opacity="0.501961" points="112,58 132,100 108,99" />
<polygon fill="#000100" fill-opacity="0.501961" points="260,78 199,78 198,100" />
<polygon fill="#515978" fill-opacity="0.501961" points="42,57 17,57 30,61" />
<polygon fill="#393631" fill-opacity="0.501961" points="212,45 208,11 222,44" />
<polygon fill="#120a00" fill-opacity="0.501961" points="205,33 225,31 202,40" />
<polygon fill="#333429" fill-opacity="0.501961" points="232,99 230,105 245,102" />
<polygon fill="#000000" fill-opacity="0.501961" points="22,29 7,67 0,-16" />
<polygon fill="#22190e" fill-opacity="0.501961" points="162,57 193,32 124,31" />
<polygon fill="#565448" fill-opacity="0.501961" points="100,67 92,94 102,106" />
<polygon fill="#565448" fill-opacity="0.501961" points="133,20 162,10 191,19" />
<polygon fill="#363529" fill-opacity="0.501961" points="196,15 193,7 170,8" />
<polygon fill="#000100" fill-opacity="0.501961" points="254,17 240,71 255,115" />
<polygon fill="#1a1b20" fill-opacity="0.501961" points="184,63 130,59 155,101" />
<polygon fill="#4760b0" fill-opacity="0.501961" points="31,88 42,87 42,77" />
<polygon fill="#001750" fill-opacity="0.501961" points="82,141 72,142 90,115" />
<polygon fill="#000000" fill-opacity="0.501961" points="4,98 -2,84 3,69" />
<polygon fill="#4f4c42" fill-opacity="0.501961" points="203,36 200,17 179,30" />
<polygon fill="#0a2c68" fill-opacity="0.501961" points="4,101 14,112 5,143" />
<polygon fill="#001951" fill-opacity="0.501961" points="4,143 6,112 95,138" />
<polygon fill="#4c4a3e" fill-opacity="0.501961" points="100,7 114,13 91,55" />
<polygon fill="#17130a" fill-opacity="0.501961" points="105,59 112,22 124,58" />
<polygon fill="#7487a5" fill-opacity="0.501961" points="7,100 22,100 22,107" />
<polygon fill="#6d5641" fill-opacity="0.501961" points="8,70 13,82 12,67" />
<polygon fill="#261f1e" fill-opacity="0.501961" points="112,46 108,37 130,45" />
<polygon fill="#001361" fill-opacity="0.501961" points="7,59 4,67 8,71" />
<polygon fill="#00164f" fill-opacity="0.501961" points="12,114 9,99 5,102" />
<polygon fill="#1c1400" fill-opacity="0.501961" points="202,110 177,108 201,103" />
<polygon fill="#6e5454" fill-opacity="0.501961" points="122,71 124,62 131,73" />
<polygon fill="#232521" fill-opacity="0.501961" points="228,44 227,34 249,41" />
<polygon fill="#ffd7c6" fill-opacity="0.501961" points="18,87 30,76 30,81" />
<polygon fill="#07255f" fill-opacity="0.501961" points="98,110 115,113 82,116" />
<polygon fill="#000000" fill-opacity="0.501961" points="251,10 180,-1 256,-16" />
<polygon fill="#1d1c1f" fill-opacity="0.501961" points="199,98 192,90 167,100" />
<polygon fill="#fff3d2" fill-opacity="0.501961" points="21,87 15,84 16,82" />
<polygon fill="#302c1d" fill-opacity="0.501961" points="219,86 215,105 221,106" />
<polygon fill="#031d53" fill-opacity="0.501961" points="33,142 32,114 16,104" />
<polygon fill="#1e3b73" fill-opacity="0.501961" points="36,112 19,106 6,112" />
<polygon fill="#000000" fill-opacity="0.501961" points="80,93 44,108 43,-4" />
<polygon fill="#00174d" fill-opacity="0.501961" points="49,112 55,113 57,123" />
<polygon fill="#000000" fill-opacity="0.501961" points="31,97 78,100 32,110" />
<polygon fill="#c6d1ee" fill-opacity="0.501961" points="5,86 11,95 4,96" />
<polygon fill="#143167" fill-opacity="0.501961" points="144,111 188,110 167,117" />
<polygon fill="#5f100a" fill-opacity="0.501961" points="1,42 -16,31 -1,94" />
<polygon fill="#001952" fill-opacity="0.501961" points="188,141 202,112 122,113" />
<polygon fill="#000000" fill-opacity="0.501961" points="186,55 175,45 171,60" />
<polygon fill="#001852" fill-opacity="0.501961" points="33,113 42,117 47,112" />
<polygon fill="#544644" fill-opacity="0.501961" points="39,59 28,77 31,64" />
<polygon fill="#55554a" fill-opacity="0.501961" points="155,105 142,102 164,101" />
<polygon fill="#1a1b20" fill-opacity="0.501961" points="221,49 145,99 130,68" />
<polygon fill="#19366a" fill-opacity="0.501961" points="123,116 113,111 136,110" />
<polygon fill="#001952" fill-opacity="0.501961" points="203,142 122,113 64,141" />
<polygon fill="#000000" fill-opacity="0.501961" points="82,-16 82,110 39,108" />
<polygon fill="#0f0c05" fill-opacity="0.501961" points="218,110 238,108 220,96" />
<polygon fill="#4b4c40" fill-opacity="0.501961" points="212,100 179,100 195,106" />
<polygon fill="#392a16" fill-opacity="0.501961" points="99,65 106,48 106,81" />
<polygon fill="#6499ff" fill-opacity="0.501961" points="247,137 244,133 247,133" />
<polygon fill="#1c1400" fill-opacity="0.501961" points="110,105 96,110 127,109" />
<polygon fill="#0f2d6d" fill-opacity="0.501961" points="50,143 11,143 33,137" />
<polygon fill="#193c7f" fill-opacity="0.501961" points="173,143 165,140 155,143" />
<polygon fill="#001850" fill-opacity="0.501961" points="66,120 3,142 44,141" />
<polygon fill="#060400" fill-opacity="0.501961" points="206,72 209,81 191,73" />
<polygon fill="#1b1b13" fill-opacity="0.501961" points="223,45 236,15 219,8" />
<polygon fill="#847371" fill-opacity="0.501961" points="20,58 35,64 34,58" />
<polygon fill="#0f367b" fill-opacity="0.501961" points="193,111 203,115 216,111" />
<polygon fill="#dbe2f0" fill-opacity="0.501961" points="32,91 41,94 41,90" />
<polygon fill="#cdb39c" fill-opacity="0.501961" points="131,38 127,40 128,43" />
<polygon fill="#5a5747" fill-opacity="0.501961" points="187,103 172,104 175,100" />
<polygon fill="#001b54" fill-opacity="0.501961" points="253,111 143,115 237,140" />
<polygon fill="#1c3e81" fill-opacity="0.501961" points="6,57 4,59 10,58" />
<polygon fill="#87706b" fill-opacity="0.501961" points="9,70 25,72 8,65" />
<polygon fill="#2b2724" fill-opacity="0.501961" points="178,78 180,95 173,79" />
<polygon fill="#16120c" fill-opacity="0.501961" points="89,14 88,55 82,33" />
<polygon fill="#3b382a" fill-opacity="0.501961" points="173,7 151,14 129,7" />
<polygon fill="#17336b" fill-opacity="0.501961" points="240,115 253,110 224,111" />
<polygon fill="#000000" fill-opacity="0.501961" points="40,104 33,109 32,95" />
<polygon fill="#001149" fill-opacity="0.501961" points="69,112 57,112 75,118" />
<polygon fill="#163a7e" fill-opacity="0.501961" points="73,140 65,143 83,143" />
<polygon fill="#001952" fill-opacity="0.501961" points="11,141 83,122 117,142" />
<polygon fill="#b0a7aa" fill-opacity="0.501961" points="128,42 124,46 124,49" />
<polygon fill="#4c6285" fill-opacity="0.501961" points="45,115 39,121 32,122" />
<polygon fill="#00164f" fill-opacity="0.501961" points="247,112 248,130 229,112" />
<polygon fill="#001a53" fill-opacity="0.501961" points="104,119 102,138 173,142" />
<polygon fill="#141006" fill-opacity="0.501961" points="187,110 203,105 178,106" />
<polygon fill="#262024" fill-opacity="0.501961" points="30,90 41,75 40,62" />
<polygon fill="#1d1c1e" fill-opacity="0.501961" points="179,100 123,81 119,98" />
<polygon fill="#695651" fill-opacity="0.501961" points="11,69 13,73 14,63" />
<polygon fill="#504f41" fill-opacity="0.501961" points="96,88 105,104 96,103" />
<polygon fill="#262119" fill-opacity="0.501961" points="115,33 157,21 109,21" />
<polygon fill="#42597c" fill-opacity="0.501961" points="52,115 51,118 41,116" />
<polygon fill="#00144d" fill-opacity="0.501961" points="96,122 92,113 95,112" />
<polygon fill="#524837" fill-opacity="0.501961" points="127,36 132,41 128,22" />
<polygon fill="#393830" fill-opacity="0.501961" points="208,12 222,14 208,33" />
<polygon fill="#000c45" fill-opacity="0.501961" points="46,117 45,114 50,113" />
<polygon fill="#1a140d" fill-opacity="0.501961" points="106,37 109,48 134,29" />
<polygon fill="#506cbd" fill-opacity="0.501961" points="4,91 8,78 4,80" />
<polygon fill="#000000" fill-opacity="0.501961" points="35,-16 65,57 7,57" />
<polygon fill="#4a493d" fill-opacity="0.501961" points="91,70 103,35 90,14" />
<polygon fill="#fad4c1" fill-opacity="0.501961" points="20,85 20,72 17,78" />
<polygon fill="#001952" fill-opacity="0.501961" points="103,112 159,142 251,113" />
<polygon fill="#585549" fill-opacity="0.501961" points="119,12 128,18 105,20" />
<polygon fill="#5d5773" fill-opacity="0.501961" points="128,43 131,56 126,56" />
<polygon fill="#0e0d07" fill-opacity="0.501961" points="195,14 192,1 227,1" />
<polygon fill="#0d0c0d" fill-opacity="0.501961" points="249,94 223,40 247,60" />
<polygon fill="#c38f91" fill-opacity="0.501961" points="30,96 26,90 23,95" />
<polygon fill="#082866" fill-opacity="0.501961" points="202,135 231,143 195,143" />
<polygon fill="#fee1cf" fill-opacity="0.501961" points="27,86 14,74 22,77" />
<polygon fill="#fdd7be" fill-opacity="0.501961" points="15,83 12,78 20,84" />
<polygon fill="#00174e" fill-opacity="0.501961" points="233,141 185,142 196,129" />
<polygon fill="#443331" fill-opacity="0.501961" points="17,78 15,75 11,75" />
<polygon fill="#00164d" fill-opacity="0.501961" points="249,138 240,141 253,142" />
<polygon fill="#5f7293" fill-opacity="0.501961" points="78,122 81,118 76,116" />
<polygon fill="#000e49" fill-opacity="0.501961" points="27,109 24,109 27,98" />
<polygon fill="#1c2d4e" fill-opacity="0.501961" points="16,105 23,91 16,96" />
<polygon fill="#5d90ff" fill-opacity="0.501961" points="244,132 246,135 242,138" />
<polygon fill="#15120b" fill-opacity="0.501961" points="83,109 95,98 94,110" />
<polygon fill="#a97b75" fill-opacity="0.501961" points="23,89 30,87 32,91" />
<polygon fill="#060200" fill-opacity="0.501961" points="253,111 267,96 253,148" />
<polygon fill="#1f1a0e" fill-opacity="0.501961" points="83,80 85,46 89,63" />
<polygon fill="#93a2b5" fill-opacity="0.501961" points="105,116 106,118 105,121" />
<polygon fill="#001951" fill-opacity="0.501961" points="50,132 47,141 42,119" />
<polygon fill="#4d4c41" fill-opacity="0.501961" points="131,26 133,24 129,22" />
<polygon fill="#000000" fill-opacity="0.501961" points="65,1 188,1 126,-16" />
<polygon fill="#070700" fill-opacity="0.501961" points="247,35 247,27 218,35" />
<polygon fill="#070300" fill-opacity="0.501961" points="95,143 130,143 97,160" />
<polygon fill="#13110a" fill-opacity="0.501961" points="115,61 105,49 104,27" />
<polygon fill="#343530" fill-opacity="0.501961" points="181,22 167,23 175,31" />
<polygon fill="#191819" fill-opacity="0.501961" points="220,77 200,68 206,20" />
<polygon fill="#a4a7c7" fill-opacity="0.501961" points="28,93 9,85 6,90" />
<polygon fill="#000000" fill-opacity="0.501961" points="167,85 175,84 171,93" />
<polygon fill="#1f1c14" fill-opacity="0.501961" points="85,103 83,72 92,83" />
<polygon fill="#113170" fill-opacity="0.501961" points="175,143 189,143 177,138" />
<polygon fill="#001a52" fill-opacity="0.501961" points="139,142 235,141 175,120" />
<polygon fill="#0a2c6d" fill-opacity="0.501961" points="252,131 252,135 248,132" />
<polygon fill="#001952" fill-opacity="0.501961" points="49,132 47,118 39,141" />
<polygon fill="#1f4389" fill-opacity="0.501961" points="239,143 230,143 233,141" />
<polygon fill="#0b2c70" fill-opacity="0.501961" points="87,117 65,111 103,111" />
<polygon fill="#1b160e" fill-opacity="0.501961" points="138,40 166,46 126,63" />
<polygon fill="#5a6f8e" fill-opacity="0.501961" points="64,119 65,115 68,118" />
<polygon fill="#001952" fill-opacity="0.501961" points="68,141 77,120 84,142" />
<polygon fill="#191a1f" fill-opacity="0.501961" points="183,46 198,85 171,85" />
<polygon fill="#281b0c" fill-opacity="0.501961" points="109,82 103,98 102,60" />
<polygon fill="#001956" fill-opacity="0.501961" points="14,100 23,100 12,96" />
<polygon fill="#082256" fill-opacity="0.501961" points="87,118 87,120 83,119" />
<polygon fill="#95a5d8" fill-opacity="0.501961" points="41,84 41,91 32,91" />
<polygon fill="#2f2121" fill-opacity="0.501961" points="28,68 30,72 29,75" />
<polygon fill="#c68e87" fill-opacity="0.501961" points="30,86 30,93 20,96" />
<polygon fill="#423534" fill-opacity="0.501961" points="31,76 40,61 26,74" />
<polygon fill="#000000" fill-opacity="0.501961" points="4,107 3,89 1,98" />
<polygon fill="#00154f" fill-opacity="0.501961" points="74,133 72,113 68,118" />
<polygon fill="#000000" fill-opacity="0.501961" points="219,95 232,98 230,84" />
<polygon fill="#1a1b23" fill-opacity="0.501961" points="122,60 108,61 120,94" />
<polygon fill="#5a574c" fill-opacity="0.501961" points="108,17 105,24 109,32" />
<polygon fill="#070703" fill-opacity="0.501961" points="262,100 229,110 249,111" />
<polygon fill="#0b2e78" fill-opacity="0.501961" points="51,116 57,111 41,111" />
<polygon fill="#343628" fill-opacity="0.501961" points="89,41 91,33 104,37" />
<polygon fill="#524d3d" fill-opacity="0.501961" points="128,99 128,105 111,102" />
<polygon fill="#19160d" fill-opacity="0.501961" points="137,110 129,104 156,105" />
<polygon fill="#2e2012" fill-opacity="0.501961" points="192,32 204,49 178,37" />
<polygon fill="#001a53" fill-opacity="0.501961" points="234,114 243,142 157,142" />
<polygon fill="#353323" fill-opacity="0.501961" points="96,7 95,16 112,7" />
<polygon fill="#4c4b3f" fill-opacity="0.501961" points="100,29 102,74 90,55" />
<polygon fill="#2d2f24" fill-opacity="0.501961" points="103,67 99,60 94,64" />
<polygon fill="#4f4f43" fill-opacity="0.501961" points="204,103 219,104 215,100" />
<polygon fill="#8794aa" fill-opacity="0.501961" points="17,107 11,101 10,107" />
<polygon fill="#444135" fill-opacity="0.501961" points="161,18 155,26 158,27" />
<polygon fill="#cfd6ea" fill-opacity="0.501961" points="41,90 42,96 39,94" />
<polygon fill="#1b170d" fill-opacity="0.501961" points="124,111 100,106 134,104" />
<polygon fill="#4b483e" fill-opacity="0.501961" points="194,36 203,34 203,15" />
<polygon fill="#526584" fill-opacity="0.501961" points="60,121 57,120 56,117" />
<polygon fill="#001952" fill-opacity="0.501961" points="40,131 62,117 71,132" />
<polygon fill="#203a92" fill-opacity="0.501961" points="42,76 41,80 40,74" />
<polygon fill="#040300" fill-opacity="0.501961" points="3,143 43,144 -16,160" />
<polygon fill="#00174e" fill-opacity="0.501961" points="6,112 37,112 6,128" />
<polygon fill="#000000" fill-opacity="0.501961" points="203,96 214,89 193,85" />
<polygon fill="#424131" fill-opacity="0.501961" points="89,98 97,97 89,75" />
<polygon fill="#545146" fill-opacity="0.501961" points="182,16 195,28 180,30" />
<polygon fill="#001a52" fill-opacity="0.501961" points="43,133 39,119 50,135" />
<polygon fill="#394b6d" fill-opacity="0.501961" points="113,110 107,112 100,110" />
<polygon fill="#4a424d" fill-opacity="0.501961" points="122,86 131,81 125,80" />
<polygon fill="#201c15" fill-opacity="0.501961" points="137,2 163,10 187,3" />
<polygon fill="#977469" fill-opacity="0.501961" points="32,80 34,75 36,75" />
<polygon fill="#efceba" fill-opacity="0.501961" points="20,72 25,71 28,73" />
<polygon fill="#1c4087" fill-opacity="0.501961" points="252,123 250,123 253,130" />
<polygon fill="#1a3d80" fill-opacity="0.501961" points="252,111 250,119 253,125" />
<polygon fill="#283d80" fill-opacity="0.501961" points="39,66 42,63 43,72" />
<polygon fill="#00154a" fill-opacity="0.501961" points="246,125 251,109 252,137" />
<polygon fill="#3d110c" fill-opacity="0.501961" points="256,141 271,111 255,73" />
<polygon fill="#19160d" fill-opacity="0.501961" points="181,111 202,105 160,105" />
<polygon fill="#1e4794" fill-opacity="0.501961" points="217,111 230,111 223,113" />
<polygon fill="#f0dac4" fill-opacity="0.501961" points="7,93 12,96 16,90" />
<polygon fill="#483638" fill-opacity="0.501961" points="22,67 17,73 21,64" />
<polygon fill="#001a53" fill-opacity="0.501961" points="189,139 99,113 239,112" />
<polygon fill="#b09685" fill-opacity="0.501961" points="7,66 11,60 13,64" />
<polygon fill="#001653" fill-opacity="0.501961" points="24,107 12,107 20,110" />
<polygon fill="#24241e" fill-opacity="0.501961" points="212,10 227,34 225,12" />
<polygon fill="#0c2c6b" fill-opacity="0.501961" points="140,138 127,143 152,142" />
<polygon fill="#001952" fill-opacity="0.501961" points="124,123 192,140 123,142" />
<polygon fill="#3f3d34" fill-opacity="0.501961" points="219,32 204,29 209,25" />
<polygon fill="#1a1a1d" fill-opacity="0.501961" points="142,96 113,77 121,101" />
<polygon fill="#221f19" fill-opacity="0.501961" points="191,99 191,85 200,100" />
<polygon fill="#001b55" fill-opacity="0.501961" points="6,139 36,120 26,140" />
<polygon fill="#2645a9" fill-opacity="0.501961" points="12,82 4,71 4,77" />
<polygon fill="#000000" fill-opacity="0.501961" points="210,81 217,99 194,93" />
<polygon fill="#201910" fill-opacity="0.501961" points="124,45 110,23 110,47" />
<polygon fill="#000000" fill-opacity="0.501961" points="1,6 3,55 82,53" />
<polygon fill="#604644" fill-opacity="0.501961" points="133,65 132,70 126,72" />
<polygon fill="#1e3869" fill-opacity="0.501961" points="178,110 185,115 200,110" />
<polygon fill="#262020" fill-opacity="0.501961" points="35,62 41,68 39,81" />
<polygon fill="#826e6a" fill-opacity="0.501961" points="22,73 24,59 18,59" />
<polygon fill="#1e1911" fill-opacity="0.501961" points="171,40 166,22 158,21" />
<polygon fill="#19397d" fill-opacity="0.501961" points="67,143 60,140 51,143" />
<polygon fill="#001952" fill-opacity="0.501961" points="175,112 204,124 228,112" />
<polygon fill="#677895" fill-opacity="0.501961" points="84,118 85,117 86,121" />
<polygon fill="#0d0d0f" fill-opacity="0.501961" points="217,51 229,51 205,42" />
<polygon fill="#eaa09f" fill-opacity="0.501961" points="25,85 23,88 20,84" />
<polygon fill="#001952" fill-opacity="0.501961" points="82,142 61,117 48,141" />
<polygon fill="#7d6f6f" fill-opacity="0.501961" points="30,66 24,59 26,66" />
<polygon fill="#001547" fill-opacity="0.501961" points="51,115 57,112 43,114" />
<polygon fill="#000000" fill-opacity="0.501961" points="32,104 55,106 29,111" />
<polygon fill="#525044" fill-opacity="0.501961" points="135,20 149,21 145,10" />
</g>
</svg>