<svg xmlns="http://www.w3.org/2000/svg" version="1.1" width="1024" height="580">
<rect x="0" y="0" width="1024" height="580" fill="#20232f" />
<g transform="scale(4.000000) translate(0.5 0.5)">
<polygon fill="#d4d0e3" fill-opacity="0.501961" points="179,118 83,160 117,25" />
<polygon fill="#000000" fill-opacity="0.501961" points="271,0 -4,-6 2,119" />
<polygon fill="#204da7" fill-opacity="0.501961" points="127,160 271,112 -16,111" />
<polygon fill="#000000" fill-opacity="0.501961" points="271,146 253,-16 137,48" />
<polygon fill="#fff6c0" fill-opacity="0.501961" points="101,80 172,79 99,112" />
<polygon fill="#83626f" fill-opacity="0.501961" points="86,24 121,2 177,112" />
<polygon fill="#001f6d" fill-opacity="0.501961" points="252,110 252,160 132,114" />
<polygon fill="#000000" fill-opacity="0.501961" points="-16,133 14,-16 98,96" />
<polygon fill="#8c9bb2" fill-opacity="0.501961" points="62,112 35,130 128,129" />
<polygon fill="#b89c73" fill-opacity="0.501961" points="94,112 169,104 166,76" />
<polygon fill="#000000" fill-opacity="0.501961" points="271,128 267,-5 117,-12" />
<polygon fill="#001b7a" fill-opacity="0.501961" points="6,112 74,143 3,142" />
<polygon fill="#ce9898" fill-opacity="0.501961" points="140,38 104,49 127,56" />
<polygon fill="#151410" fill-opacity="0.501961" points="229,66 168,123 169,26" />
<polygon fill="#ffffff" fill-opacity="0.501961" points="102,77 122,80 101,104" />
<polygon fill="#000000" fill-opacity="0.501961" points="50,113 108,-16 -16,2" />
<polygon fill="#6075a2" fill-opacity="0.501961" points="43,116 170,115 169,150" />
<polygon fill="#31212d" fill-opacity="0.501961" points="90,5 136,2 170,83" />
<polygon fill="#001246" fill-opacity="0.501961" points="67,152 59,114 71,107" />
<polygon fill="#4f97ff" fill-opacity="0.501961" points="248,131 241,130 246,143" />
<polygon fill="#b79467" fill-opacity="0.501961" points="114,111 128,57 145,111" />
<polygon fill="#171110" fill-opacity="0.501961" points="80,82 126,63 82,28" />
<polygon fill="#a8b8d3" fill-opacity="0.501961" points="127,124 129,135 91,125" />
<polygon fill="#050302" fill-opacity="0.501961" points="136,53 159,12 167,72" />
<polygon fill="#021e58" fill-opacity="0.501961" points="175,156 171,111 271,119" />
<polygon fill="#d2bdcb" fill-opacity="0.501961" points="125,65 137,54 127,78" />
<polygon fill="#2d345d" fill-opacity="0.501961" points="130,160 156,93 150,160" />
<polygon fill="#88929e" fill-opacity="0.501961" points="167,71 140,75 166,116" />
<polygon fill="#564352" fill-opacity="0.501961" points="100,9 119,14 103,77" />
<polygon fill="#000000" fill-opacity="0.501961" points="244,110 271,6 175,-16" />
<polygon fill="#000003" fill-opacity="0.501961" points="121,71 109,56 125,57" />
<polygon fill="#001e62" fill-opacity="0.501961" points="8,138 52,112 4,110" />
<polygon fill="#cdccce" fill-opacity="0.501961" points="155,83 134,76 145,98" />
<polygon fill="#040100" fill-opacity="0.501961" points="-16,110 75,109 69,-16" />
<polygon fill="#473862" fill-opacity="0.501961" points="134,76 132,83 116,77" />
<polygon fill="#304a91" fill-opacity="0.501961" points="157,129 114,131 100,156" />
<polygon fill="#423f5b" fill-opacity="0.501961" points="169,78 135,56 151,81" />
<polygon fill="#191a15" fill-opacity="0.501961" points="96,115 103,47 66,93" />
<polygon fill="#7d8ea5" fill-opacity="0.501961" points="67,122 69,115 46,119" />
<polygon fill="#9f767c" fill-opacity="0.501961" points="139,46 129,37 124,58" />
<polygon fill="#352532" fill-opacity="0.501961" points="103,42 148,30 136,2" />
<polygon fill="#880d02" fill-opacity="0.501961" points="-16,37 0,93 0,2" />
<polygon fill="#c8d1e6" fill-opacity="0.501961" points="122,74 106,71 116,76" />
<polygon fill="#010000" fill-opacity="0.501961" points="227,-16 216,109 271,111" />
<polygon fill="#000f4b" fill-opacity="0.501961" points="75,142 39,131 86,131" />
<polygon fill="#163060" fill-opacity="0.501961" points="90,120 66,127 40,120" />
<polygon fill="#a3b5d7" fill-opacity="0.501961" points="100,98 92,129 105,119" />
<polygon fill="#191915" fill-opacity="0.501961" points="233,109 165,43 171,110" />
<polygon fill="#926b4e" fill-opacity="0.501961" points="138,93 124,110 156,109" />
<polygon fill="#a3a0b0" fill-opacity="0.501961" points="148,142 175,142 125,160" />
<polygon fill="#808da0" fill-opacity="0.501961" points="61,124 37,130 30,123" />
<polygon fill="#000000" fill-opacity="0.501961" points="65,62 -16,-12 112,-14" />
<polygon fill="#d8d7d9" fill-opacity="0.501961" points="92,142 128,147 60,157" />
<polygon fill="#0f0c0e" fill-opacity="0.501961" points="132,54 186,59 167,22" />
<polygon fill="#120000" fill-opacity="0.501961" points="2,112 -13,140 7,160" />
<polygon fill="#c6a5a3" fill-opacity="0.501961" points="127,56 107,44 112,53" />
<polygon fill="#dcc87c" fill-opacity="0.501961" points="137,87 125,109 117,90" />
<polygon fill="#e3dcda" fill-opacity="0.501961" points="100,109 125,79 100,84" />
<polygon fill="#bd946f" fill-opacity="0.501961" points="113,112 99,98 124,95" />
<polygon fill="#100e10" fill-opacity="0.501961" points="94,91 85,42 100,18" />
<polygon fill="#10347b" fill-opacity="0.501961" points="236,143 178,143 207,135" />
<polygon fill="#001353" fill-opacity="0.501961" points="213,142 219,129 253,142" />
<polygon fill="#091745" fill-opacity="0.501961" points="150,151 101,149 115,140" />
<polygon fill="#3e578f" fill-opacity="0.501961" points="163,111 170,133 91,111" />
<polygon fill="#c0c0ca" fill-opacity="0.501961" points="135,69 126,77 125,60" />
<polygon fill="#08235e" fill-opacity="0.501961" points="9,112 25,129 54,110" />
<polygon fill="#040201" fill-opacity="0.501961" points="114,6 116,-8 156,3" />
<polygon fill="#427dff" fill-opacity="0.501961" points="244,139 246,132 238,134" />
<polygon fill="#996361" fill-opacity="0.501961" points="127,65 147,63 136,54" />
<polygon fill="#475479" fill-opacity="0.501961" points="154,67 150,80 130,73" />
<polygon fill="#821205" fill-opacity="0.501961" points="-1,91 0,138 -16,86" />
<polygon fill="#101010" fill-opacity="0.501961" points="148,66 201,16 223,73" />
<polygon fill="#876352" fill-opacity="0.501961" points="118,101 123,91 122,113" />
<polygon fill="#000000" fill-opacity="0.501961" points="1,-12 1,119 51,-16" />
<polygon fill="#001550" fill-opacity="0.501961" points="244,110 240,140 208,125" />
<polygon fill="#dfdfdd" fill-opacity="0.501961" points="98,108 104,75 110,87" />
<polygon fill="#1c0000" fill-opacity="0.501961" points="255,66 253,148 271,109" />
<polygon fill="#483544" fill-opacity="0.501961" points="140,20 101,8 91,20" />
<polygon fill="#0a0000" fill-opacity="0.501961" points="202,144 263,143 220,160" />
<polygon fill="#151514" fill-opacity="0.501961" points="89,93 113,64 68,86" />
<polygon fill="#f5eba6" fill-opacity="0.501961" points="110,91 121,99 122,91" />
<polygon fill="#5063a9" fill-opacity="0.501961" points="109,71 125,74 122,69" />
<polygon fill="#b2c1d8" fill-opacity="0.501961" points="123,124 135,127 125,131" />
<polygon fill="#9d747a" fill-opacity="0.501961" points="127,56 108,42 139,43" />
<polygon fill="#0e0d0f" fill-opacity="0.501961" points="119,57 86,49 101,43" />
<polygon fill="#1a1a1a" fill-opacity="0.501961" points="164,76 216,108 215,45" />
<polygon fill="#372935" fill-opacity="0.501961" points="147,34 155,39 150,50" />
<polygon fill="#705a63" fill-opacity="0.501961" points="125,77 123,87 141,72" />
<polygon fill="#001853" fill-opacity="0.501961" points="54,142 4,115 6,142" />
<polygon fill="#72839d" fill-opacity="0.501961" points="53,115 69,122 92,117" />
<polygon fill="#122c63" fill-opacity="0.501961" points="169,131 170,111 240,110" />
<polygon fill="#a4a6a3" fill-opacity="0.501961" points="158,113 157,81 166,92" />
<polygon fill="#001253" fill-opacity="0.501961" points="63,110 73,114 54,115" />
<polygon fill="#93704f" fill-opacity="0.501961" points="157,97 153,111 139,94" />
<polygon fill="#31222f" fill-opacity="0.501961" points="110,59 103,46 107,27" />
<polygon fill="#540a01" fill-opacity="0.501961" points="256,98 255,-10 271,44" />
<polygon fill="#536da1" fill-opacity="0.501961" points="135,111 146,129 125,140" />
<polygon fill="#d3d6db" fill-opacity="0.501961" points="141,79 135,77 140,93" />
<polygon fill="#070605" fill-opacity="0.501961" points="2,76 65,110 94,11" />
<polygon fill="#000000" fill-opacity="0.501961" points="82,143 2,143 34,160" />
<polygon fill="#634d5d" fill-opacity="0.501961" points="120,22 100,36 101,16" />
<polygon fill="#717f99" fill-opacity="0.501961" points="59,120 52,116 40,118" />
<polygon fill="#00174d" fill-opacity="0.501961" points="46,115 41,121 48,126" />
<polygon fill="#030301" fill-opacity="0.501961" points="247,110 216,111 220,24" />
<polygon fill="#614854" fill-opacity="0.501961" points="147,32 110,42 139,42" />
<polygon fill="#000000" fill-opacity="0.501961" points="143,21 252,22 201,-16" />
<polygon fill="#1d161e" fill-opacity="0.501961" points="121,22 119,33 150,39" />
<polygon fill="#95a4c0" fill-opacity="0.501961" points="90,129 115,123 120,131" />
<polygon fill="#b48c68" fill-opacity="0.501961" points="144,143 137,160 171,143" />
<polygon fill="#27335f" fill-opacity="0.501961" points="108,115 106,127 109,121" />
<polygon fill="#03225d" fill-opacity="0.501961" points="62,118 76,138 71,160" />
<polygon fill="#909297" fill-opacity="0.501961" points="146,74 145,78 157,74" />
<polygon fill="#8c817b" fill-opacity="0.501961" points="150,86 167,79 169,87" />
<polygon fill="#2c2029" fill-opacity="0.501961" points="137,50 141,62 141,39" />
<polygon fill="#d1d0d0" fill-opacity="0.501961" points="106,95 102,80 99,92" />
<polygon fill="#000201" fill-opacity="0.501961" points="143,59 153,63 143,33" />
<polygon fill="#1e336b" fill-opacity="0.501961" points="152,143 144,138 151,113" />
<polygon fill="#ececed" fill-opacity="0.501961" points="120,84 103,76 114,94" />
<polygon fill="#150d18" fill-opacity="0.501961" points="116,69 134,54 93,70" />
<polygon fill="#b29d8a" fill-opacity="0.501961" points="137,105 155,86 149,102" />
<polygon fill="#6f819d" fill-opacity="0.501961" points="93,128 71,130 71,122" />
<polygon fill="#bcb9b5" fill-opacity="0.501961" points="131,76 155,94 151,81" />
<polygon fill="#3a517a" fill-opacity="0.501961" points="92,120 93,126 74,119" />
<polygon fill="#435b92" fill-opacity="0.501961" points="130,129 167,126 172,145" />
<polygon fill="#657790" fill-opacity="0.501961" points="36,131 32,126 51,128" />
<polygon fill="#00164d" fill-opacity="0.501961" points="32,121 6,114 32,141" />
<polygon fill="#1e1d1b" fill-opacity="0.501961" points="218,109 169,86 167,110" />
<polygon fill="#a2acbd" fill-opacity="0.501961" points="47,121 53,116 48,118" />
<polygon fill="#0d0000" fill-opacity="0.501961" points="125,143 154,145 98,160" />
<polygon fill="#415ca3" fill-opacity="0.501961" points="101,127 147,142 118,143" />
<polygon fill="#161615" fill-opacity="0.501961" points="74,56 108,68 78,111" />
<polygon fill="#252320" fill-opacity="0.501961" points="99,85 85,98 98,104" />
<polygon fill="#bdc4d3" fill-opacity="0.501961" points="106,72 116,72 115,75" />
<polygon fill="#292949" fill-opacity="0.501961" points="161,78 150,80 170,70" />
<polygon fill="#001852" fill-opacity="0.501961" points="238,139 211,113 248,112" />
<polygon fill="#8a97b1" fill-opacity="0.501961" points="50,129 59,124 44,125" />
<polygon fill="#06276f" fill-opacity="0.501961" points="243,126 252,112 252,137" />
<polygon fill="#011d55" fill-opacity="0.501961" points="214,129 250,141 195,142" />
<polygon fill="#6e4b42" fill-opacity="0.501961" points="129,108 141,97 138,92" />
<polygon fill="#ddcd8b" fill-opacity="0.501961" points="127,92 132,103 129,105" />
<polygon fill="#b08284" fill-opacity="0.501961" points="125,64 129,63 125,57" />
<polygon fill="#b5b7c9" fill-opacity="0.501961" points="136,68 124,78 127,69" />
<polygon fill="#ceb773" fill-opacity="0.501961" points="120,86 133,82 137,95" />
<polygon fill="#4b3947" fill-opacity="0.501961" points="111,56 102,52 105,68" />
<polygon fill="#000542" fill-opacity="0.501961" points="62,123 49,123 55,121" />
<polygon fill="#92a0b4" fill-opacity="0.501961" points="90,124 85,125 87,129" />
<polygon fill="#001955" fill-opacity="0.501961" points="57,143 70,119 68,140" />
<polygon fill="#283560" fill-opacity="0.501961" points="106,131 102,138 104,142" />
<polygon fill="#8d95a8" fill-opacity="0.501961" points="141,72 135,72 148,78" />
<polygon fill="#12306b" fill-opacity="0.501961" points="85,135 84,125 94,142" />
<polygon fill="#3a2a37" fill-opacity="0.501961" points="139,9 148,33 99,7" />
<polygon fill="#713b3e" fill-opacity="0.501961" points="125,51 118,51 131,47" />
<polygon fill="#3c5a99" fill-opacity="0.501961" points="169,112 157,111 163,126" />
<polygon fill="#001a53" fill-opacity="0.501961" points="64,142 28,131 59,130" />
<polygon fill="#202120" fill-opacity="0.501961" points="169,111 206,76 219,106" />
<polygon fill="#754c52" fill-opacity="0.501961" points="127,80 133,77 127,87" />
<polygon fill="#aaaaa5" fill-opacity="0.501961" points="167,105 157,112 156,106" />
<polygon fill="#5571aa" fill-opacity="0.501961" points="92,133 85,143 103,140" />
<polygon fill="#0c090c" fill-opacity="0.501961" points="142,45 126,58 152,47" />
<polygon fill="#344277" fill-opacity="0.501961" points="149,67 160,73 134,71" />
<polygon fill="#6b543f" fill-opacity="0.501961" points="155,110 156,98 146,110" />
<polygon fill="#c6a888" fill-opacity="0.501961" points="101,96 117,112 118,96" />
<polygon fill="#183c88" fill-opacity="0.501961" points="31,111 10,111 20,114" />
<polygon fill="#160f16" fill-opacity="0.501961" points="137,35 137,15 133,23" />
<polygon fill="#001242" fill-opacity="0.501961" points="54,119 56,116 54,109" />
<polygon fill="#040000" fill-opacity="0.501961" points="4,150 -10,156 3,111" />
<polygon fill="#6f1a12" fill-opacity="0.501961" points="2,160 -16,118 -2,93" />
<polygon fill="#070605" fill-opacity="0.501961" points="72,111 50,22 13,106" />
<polygon fill="#0f0f11" fill-opacity="0.501961" points="221,36 146,66 192,75" />
<polygon fill="#5a76a8" fill-opacity="0.501961" points="102,117 99,128 96,110" />
<polygon fill="#8b6567" fill-opacity="0.501961" points="148,64 141,56 143,66" />
<polygon fill="#99757b" fill-opacity="0.501961" points="139,53 135,73 131,60" />
<polygon fill="#461406" fill-opacity="0.501961" points="264,115 255,105 255,144" />
<polygon fill="#4e88ff" fill-opacity="0.501961" points="244,138 248,135 246,131" />
<polygon fill="#6a73a0" fill-opacity="0.501961" points="125,70 133,76 110,71" />
<polygon fill="#173264" fill-opacity="0.501961" points="69,121 74,124 75,121" />
<polygon fill="#0b0714" fill-opacity="0.501961" points="118,70 111,61 126,61" />
<polygon fill="#101010" fill-opacity="0.501961" points="105,51 95,28 65,93" />
<polygon fill="#0b2a67" fill-opacity="0.501961" points="90,129 51,142 85,143" />
<polygon fill="#dfe0df" fill-opacity="0.501961" points="98,111 103,97 102,111" />
<polygon fill="#a1acb6" fill-opacity="0.501961" points="32,118 34,119 36,118" />
<polygon fill="#9fadc4" fill-opacity="0.501961" points="115,130 96,130 98,124" />
<polygon fill="#393220" fill-opacity="0.501961" points="170,144 207,143 225,160" />
<polygon fill="#000000" fill-opacity="0.501961" points="254,-16 226,-6 254,95" />
<polygon fill="#062876" fill-opacity="0.501961" points="131,143 143,136 146,140" />
<polygon fill="#83796d" fill-opacity="0.501961" points="155,87 163,80 152,80" />
<polygon fill="#1c131d" fill-opacity="0.501961" points="112,39 117,37 113,29" />
<polygon fill="#32385e" fill-opacity="0.501961" points="160,76 153,80 141,76" />
<polygon fill="#151515" fill-opacity="0.501961" points="201,57 169,57 169,111" />
<polygon fill="#6b5565" fill-opacity="0.501961" points="116,26 110,34 110,24" />
<polygon fill="#a78b71" fill-opacity="0.501961" points="149,112 146,94 137,99" />
<polygon fill="#062158" fill-opacity="0.501961" points="44,160 53,160 47,126" />
<polygon fill="#3b2a38" fill-opacity="0.501961" points="95,39 107,2 96,14" />
<polygon fill="#011d57" fill-opacity="0.501961" points="5,112 33,113 4,141" />
<polygon fill="#616785" fill-opacity="0.501961" points="106,79 112,75 121,78" />
<polygon fill="#0b0609" fill-opacity="0.501961" points="144,38 151,21 211,27" />
<polygon fill="#d8c889" fill-opacity="0.501961" points="125,101 125,84 136,93" />
<polygon fill="#00174f" fill-opacity="0.501961" points="250,119 227,114 250,132" />
<polygon fill="#293864" fill-opacity="0.501961" points="144,112 152,130 152,112" />
<polygon fill="#503e4b" fill-opacity="0.501961" points="131,30 134,21 129,19" />
<polygon fill="#d6d6ca" fill-opacity="0.501961" points="100,143 58,148 106,160" />
<polygon fill="#181816" fill-opacity="0.501961" points="97,107 72,110 76,78" />
<polygon fill="#e0cbba" fill-opacity="0.501961" points="129,69 122,67 128,64" />
<polygon fill="#000200" fill-opacity="0.501961" points="254,149 253,110 268,160" />
<polygon fill="#20201d" fill-opacity="0.501961" points="132,-16 184,0 124,-1" />
<polygon fill="#745e6a" fill-opacity="0.501961" points="118,44 110,35 109,46" />
<polygon fill="#102a61" fill-opacity="0.501961" points="166,141 210,143 218,111" />
<polygon fill="#5d94ff" fill-opacity="0.501961" points="249,138 245,131 242,136" />
<polygon fill="#4b4349" fill-opacity="0.501961" points="133,74 142,75 129,77" />
<polygon fill="#1a386f" fill-opacity="0.501961" points="251,110 253,114 238,111" />
<polygon fill="#5871a7" fill-opacity="0.501961" points="100,142 86,143 110,123" />
<polygon fill="#4d6296" fill-opacity="0.501961" points="142,112 139,126 111,111" />
<polygon fill="#000000" fill-opacity="0.501961" points="1,2 3,80 58,0" />
<polygon fill="#012468" fill-opacity="0.501961" points="252,143 248,137 244,142" />
<polygon fill="#bfc1c6" fill-opacity="0.501961" points="139,84 141,94 152,93" />
<polygon fill="#915c67" fill-opacity="0.501961" points="140,142 157,160 156,145" />
<polygon fill="#0b265f" fill-opacity="0.501961" points="174,141 219,112 169,112" />
<polygon fill="#e9e7e7" fill-opacity="0.501961" points="112,96 104,79 121,80" />
<polygon fill="#402e38" fill-opacity="0.501961" points="138,23 139,44 147,27" />
<polygon fill="#7f96bd" fill-opacity="0.501961" points="140,127 143,124 143,128" />
<polygon fill="#d6c7ab" fill-opacity="0.501961" points="112,78 105,84 108,78" />
<polygon fill="#324a7a" fill-opacity="0.501961" points="186,148 203,142 181,142" />
<polygon fill="#b38b8e" fill-opacity="0.501961" points="121,43 131,48 118,47" />
<polygon fill="#11306e" fill-opacity="0.501961" points="11,111 4,133 4,112" />
<polygon fill="#7e5041" fill-opacity="0.501961" points="115,106 121,103 124,95" />
<polygon fill="#001750" fill-opacity="0.501961" points="7,112 41,122 4,127" />
<polygon fill="#09080a" fill-opacity="0.501961" points="141,32 156,62 144,60" />
<polygon fill="#939393" fill-opacity="0.501961" points="158,82 167,103 164,78" />
<polygon fill="#21201d" fill-opacity="0.501961" points="194,143 211,160 173,144" />
<polygon fill="#030201" fill-opacity="0.501961" points="140,23 163,0 209,18" />
<polygon fill="#4665a4" fill-opacity="0.501961" points="157,124 162,143 151,143" />
<polygon fill="#2b2430" fill-opacity="0.501961" points="89,160 124,144 109,143" />
<polygon fill="#3a3657" fill-opacity="0.501961" points="162,78 167,70 169,74" />
<polygon fill="#ac9796" fill-opacity="0.501961" points="111,51 117,55 131,50" />
<polygon fill="#050403" fill-opacity="0.501961" points="223,109 254,111 211,31" />
<polygon fill="#040106" fill-opacity="0.501961" points="123,58 121,66 118,56" />
<polygon fill="#0b0a0b" fill-opacity="0.501961" points="166,22 214,21 218,61" />
<polygon fill="#556fa3" fill-opacity="0.501961" points="116,138 109,130 131,131" />
<polygon fill="#c2cee0" fill-opacity="0.501961" points="109,127 115,124 108,124" />
<polygon fill="#2e222e" fill-opacity="0.501961" points="129,5 148,21 107,7" />
<polygon fill="#6c7d9b" fill-opacity="0.501961" points="33,129 43,125 44,130" />
<polygon fill="#d0ceca" fill-opacity="0.501961" points="105,110 102,93 98,106" />
<polygon fill="#3b4b6b" fill-opacity="0.501961" points="51,159 69,143 88,142" />
<polygon fill="#010200" fill-opacity="0.501961" points="105,-8 136,1 120,4" />
<polygon fill="#0a2b70" fill-opacity="0.501961" points="80,114 99,115 93,111" />
<polygon fill="#5b64a6" fill-opacity="0.501961" points="133,74 127,78 128,80" />
<polygon fill="#374874" fill-opacity="0.501961" points="105,124 108,113 110,118" />
<polygon fill="#352532" fill-opacity="0.501961" points="112,60 105,51 107,69" />
<polygon fill="#431514" fill-opacity="0.501961" points="266,122 255,116 256,147" />
<polygon fill="#8491aa" fill-opacity="0.501961" points="61,125 60,129 58,124" />
<polygon fill="#8493aa" fill-opacity="0.501961" points="73,115 84,116 70,121" />
<polygon fill="#2e4573" fill-opacity="0.501961" points="76,123 77,130 78,124" />
<polygon fill="#8c9ab1" fill-opacity="0.501961" points="69,124 73,128 74,125" />
<polygon fill="#68799a" fill-opacity="0.501961" points="77,118 90,117 90,122" />
<polygon fill="#3e2f3b" fill-opacity="0.501961" points="150,35 154,39 154,44" />
<polygon fill="#9b9fa8" fill-opacity="0.501961" points="134,72 142,72 147,76" />
<polygon fill="#7b5a4a" fill-opacity="0.501961" points="136,108 127,107 125,103" />
<polygon fill="#001b54" fill-opacity="0.501961" points="89,142 21,141 51,131" />
<polygon fill="#203b6e" fill-opacity="0.501961" points="95,123 89,119 79,123" />
<polygon fill="#83565b" fill-opacity="0.501961" points="131,49 129,45 117,52" />
<polygon fill="#6d5768" fill-opacity="0.501961" points="103,41 101,32 105,22" />
<polygon fill="#312431" fill-opacity="0.501961" points="107,41 103,45 104,29" />
<polygon fill="#493745" fill-opacity="0.501961" points="133,33 125,13 132,13" />
<polygon fill="#dbca84" fill-opacity="0.501961" points="118,91 116,101 120,99" />
<polygon fill="#656373" fill-opacity="0.501961" points="153,70 168,72 161,74" />
<polygon fill="#dad2c9" fill-opacity="0.501961" points="126,71 130,72 125,76" />
<polygon fill="#8a684f" fill-opacity="0.501961" points="130,83 130,88 132,89" />
<polygon fill="#110a0d" fill-opacity="0.501961" points="144,36 142,31 143,26" />
<polygon fill="#001750" fill-opacity="0.501961" points="73,121 61,124 64,127" />
<polygon fill="#dbcb8a" fill-opacity="0.501961" points="123,107 124,98 127,107" />
<polygon fill="#5e4c56" fill-opacity="0.501961" points="102,57 105,67 105,59" />
<polygon fill="#143578" fill-opacity="0.501961" points="30,143 52,143 43,139" />
<polygon fill="#627496" fill-opacity="0.501961" points="78,120 86,118 92,122" />
<polygon fill="#9fb0bb" fill-opacity="0.501961" points="165,143 159,155 151,143" />
<polygon fill="#001851" fill-opacity="0.501961" points="68,142 64,131 30,142" />
<polygon fill="#011953" fill-opacity="0.501961" points="33,112 30,135 6,112" />
<polygon fill="#bdc8dc" fill-opacity="0.501961" points="128,124 123,129 127,130" />
<polygon fill="#54404f" fill-opacity="0.501961" points="106,21 121,14 118,28" />
<polygon fill="#7987a3" fill-opacity="0.501961" points="51,116 47,122 52,120" />
<polygon fill="#454f79" fill-opacity="0.501961" points="139,72 152,75 147,71" />
<polygon fill="#49649c" fill-opacity="0.501961" points="127,126 128,114 146,125" />
<polygon fill="#7b140c" fill-opacity="0.501961" points="2,-8 -16,0 -16,51" />
<polygon fill="#5e718f" fill-opacity="0.501961" points="38,118 46,118 39,120" />
<polygon fill="#485b88" fill-opacity="0.501961" points="124,113 112,112 115,125" />
<polygon fill="#9f7377" fill-opacity="0.501961" points="143,67 131,58 128,63" />
<polygon fill="#092768" fill-opacity="0.501961" points="46,111 42,118 32,112" />
<polygon fill="#0e0d0e" fill-opacity="0.501961" points="139,52 174,74 190,34" />
<polygon fill="#493745" fill-opacity="0.501961" points="87,33 98,12 99,22" />
<polygon fill="#b4987e" fill-opacity="0.501961" points="107,103 105,111 132,109" />
<polygon fill="#27467f" fill-opacity="0.501961" points="173,113 178,111 168,110" />
<polygon fill="#001550" fill-opacity="0.501961" points="66,115 56,112 77,112" />
<polygon fill="#1d160a" fill-opacity="0.501961" points="65,143 101,157 85,143" />
<polygon fill="#1c3c80" fill-opacity="0.501961" points="252,118 253,133 250,125" />
<polygon fill="#001953" fill-opacity="0.501961" points="252,134 224,114 251,115" />
<polygon fill="#91a1bf" fill-opacity="0.501961" points="137,128 135,126 143,126" />
<polygon fill="#384f76" fill-opacity="0.501961" points="36,128 35,125 31,129" />
<polygon fill="#685660" fill-opacity="0.501961" points="106,52 104,56 102,56" />
<polygon fill="#1b1b1a" fill-opacity="0.501961" points="88,110 71,109 108,63" />
<polygon fill="#d8d8d7" fill-opacity="0.501961" points="106,94 102,80 100,87" />
<polygon fill="#00144c" fill-opacity="0.501961" points="48,112 42,117 30,113" />
<polygon fill="#53404d" fill-opacity="0.501961" points="141,42 120,37 140,34" />
<polygon fill="#aa9a93" fill-opacity="0.501961" points="131,68 137,69 140,66" />
<polygon fill="#c9c7c5" fill-opacity="0.501961" points="139,91 134,77 147,83" />
<polygon fill="#3f5a93" fill-opacity="0.501961" points="168,111 159,130 155,111" />
<polygon fill="#1d1c1d" fill-opacity="0.501961" points="193,69 167,102 216,104" />
<polygon fill="#a1a19e" fill-opacity="0.501961" points="156,111 166,111 156,89" />
<polygon fill="#101211" fill-opacity="0.501961" points="271,143 180,143 212,160" />
<polygon fill="#0b0a0a" fill-opacity="0.501961" points="75,44 95,29 72,73" />
<polygon fill="#987078" fill-opacity="0.501961" points="126,39 136,48 125,48" />
<polygon fill="#6e5155" fill-opacity="0.501961" points="145,31 147,33 146,25" />
<polygon fill="#1f152d" fill-opacity="0.501961" points="116,66 122,66 123,69" />
<polygon fill="#455a82" fill-opacity="0.501961" points="63,121 74,124 66,118" />
<polygon fill="#010101" fill-opacity="0.501961" points="69,109 54,104 71,54" />
<polygon fill="#374677" fill-opacity="0.501961" points="170,128 172,142 167,137" />
<polygon fill="#00134b" fill-opacity="0.501961" points="33,121 50,123 44,119" />
<polygon fill="#112f63" fill-opacity="0.501961" points="54,119 53,122 56,124" />
<polygon fill="#1c1d1c" fill-opacity="0.501961" points="69,100 98,95 95,111" />
<polygon fill="#0b0707" fill-opacity="0.501961" points="58,61 57,109 19,110" />
<polygon fill="#161717" fill-opacity="0.501961" points="95,53 99,87 81,90" />
<polygon fill="#0b040a" fill-opacity="0.501961" points="112,54 118,56 115,62" />
<polygon fill="#020201" fill-opacity="0.501961" points="129,-12 62,-11 14,50" />
<polygon fill="#634f5e" fill-opacity="0.501961" points="108,27 113,20 111,41" />
<polygon fill="#30335d" fill-opacity="0.501961" points="160,71 153,68 148,74" />
<polygon fill="#8291ac" fill-opacity="0.501961" points="83,128 82,125 74,129" />
<polygon fill="#8f705c" fill-opacity="0.501961" points="101,143 152,160 105,160" />
<polygon fill="#745742" fill-opacity="0.501961" points="167,84 165,94 169,91" />
<polygon fill="#c6a889" fill-opacity="0.501961" points="102,98 117,106 113,111" />
<polygon fill="#231825" fill-opacity="0.501961" points="109,38 106,28 106,42" />
<polygon fill="#4a659c" fill-opacity="0.501961" points="99,123 95,122 103,121" />
<polygon fill="#4f5a8b" fill-opacity="0.501961" points="125,73 116,71 120,74" />
<polygon fill="#dbcc88" fill-opacity="0.501961" points="135,95 132,82 131,96" />
<polygon fill="#5d4d56" fill-opacity="0.501961" points="103,40 107,48 103,45" />
<polygon fill="#f4f4f1" fill-opacity="0.501961" points="105,81 102,79 105,78" />
<polygon fill="#37509b" fill-opacity="0.501961" points="140,135 131,143 105,139" />
<polygon fill="#121212" fill-opacity="0.501961" points="99,35 94,71 105,50" />
<polygon fill="#070707" fill-opacity="0.501961" points="204,9 146,11 194,-7" />
<polygon fill="#d4c287" fill-opacity="0.501961" points="114,95 121,84 121,96" />
<polygon fill="#010101" fill-opacity="0.501961" points="168,83 173,78 168,76" />
<polygon fill="#bdb4aa" fill-opacity="0.501961" points="134,67 133,69 140,67" />
<polygon fill="#9a91bb" fill-opacity="0.501961" points="124,78 128,81 123,74" />
<polygon fill="#3f4a73" fill-opacity="0.501961" points="146,115 146,136 151,131" />
<polygon fill="#a07c5c" fill-opacity="0.501961" points="121,99 125,98 124,87" />
<polygon fill="#080307" fill-opacity="0.501961" points="140,3 158,19 151,36" />
<polygon fill="#291c26" fill-opacity="0.501961" points="93,37 96,35 96,48" />
<polygon fill="#d2d0cc" fill-opacity="0.501961" points="139,82 135,77 137,85" />
<polygon fill="#001b54" fill-opacity="0.501961" points="38,138 4,143 5,115" />
<polygon fill="#8693ad" fill-opacity="0.501961" points="69,121 66,121 69,122" />
<polygon fill="#7a4b40" fill-opacity="0.501961" points="132,99 135,101 137,97" />
<polygon fill="#a48c74" fill-opacity="0.501961" points="138,107 136,96 140,99" />
<polygon fill="#9b5640" fill-opacity="0.501961" points="135,149 142,143 150,143" />
</g>
</svg>