<svg xmlns="http://www.w3.org/2000/svg" version="1.1" width="1024" height="868">
<rect x="0" y="0" width="1024" height="868" fill="#242833" />
<g transform="scale(4.000000) translate(0.5 0.5)">
<polygon fill="#fef5f8" fill-opacity="0.501961" points="3,130 16,76 30,136" />
<polygon fill="#000000" fill-opacity="0.501961" points="-16,-16 25,67 268,24" />
<polygon fill="#ffe8ea" fill-opacity="0.501961" points="130,119 135,99 151,118" />
<polygon fill="#dabeb5" fill-opacity="0.501961" points="150,193 139,167 131,193" />
<polygon fill="#1a4293" fill-opacity="0.501961" points="-16,128 22,152 97,127" />
<polygon fill="#000000" fill-opacity="0.501961" points="166,-16 120,138 108,-16" />
<polygon fill="#274887" fill-opacity="0.501961" points="127,118 257,139 144,151" />
<polygon fill="#254583" fill-opacity="0.501961" points="121,57 251,53 241,86" />
<polygon fill="#002581" fill-opacity="0.501961" points="-15,53 48,75 113,57" />
<polygon fill="#968a66" fill-opacity="0.501961" points="243,161 243,143 191,144" />
<polygon fill="#06338f" fill-opacity="0.501961" points="119,232 239,200 1,199" />
<polygon fill="#988b66" fill-opacity="0.501961" points="63,71 115,90 117,73" />
<polygon fill="#493f31" fill-opacity="0.501961" points="267,23 157,44 158,-16" />
<polygon fill="#8a8064" fill-opacity="0.501961" points="115,144 116,165 60,142" />
<polygon fill="#9a8145" fill-opacity="0.501961" points="244,71 243,90 196,72" />
<polygon fill="#000000" fill-opacity="0.501961" points="119,83 140,154 120,210" />
<polygon fill="#001e6e" fill-opacity="0.501961" points="129,48 60,70 180,71" />
<polygon fill="#000000" fill-opacity="0.501961" points="-16,224 1,102 12,184" />
<polygon fill="#000000" fill-opacity="0.501961" points="243,69 271,87 250,188" />
<polygon fill="#062d7e" fill-opacity="0.501961" points="50,145 105,124 174,140" />
<polygon fill="#6c5a3b" fill-opacity="0.501961" points="18,71 4,100 66,73" />
<polygon fill="#fffce0" fill-opacity="0.501961" points="27,113 23,132 7,116" />
<polygon fill="#9d936b" fill-opacity="0.501961" points="165,72 142,88 141,71" />
<polygon fill="#000000" fill-opacity="0.501961" points="126,57 167,-16 -16,2" />
<polygon fill="#877548" fill-opacity="0.501961" points="13,146 16,194 28,143" />
<polygon fill="#002c89" fill-opacity="0.501961" points="271,216 246,199 189,215" />
<polygon fill="#000000" fill-opacity="0.501961" points="-14,64 -3,162 12,69" />
<polygon fill="#4c3e22" fill-opacity="0.501961" points="248,157 136,176 142,140" />
<polygon fill="#3d3222" fill-opacity="0.501961" points="106,78 8,107 119,129" />
<polygon fill="#3c3322" fill-opacity="0.501961" points="158,68 236,83 145,138" />
<polygon fill="#022e8a" fill-opacity="0.501961" points="271,127 210,127 247,144" />
<polygon fill="#596983" fill-opacity="0.501961" points="145,127 178,131 142,163" />
<polygon fill="#0f3580" fill-opacity="0.501961" points="5,190 50,215 -1,232" />
<polygon fill="#020000" fill-opacity="0.501961" points="89,54 -16,-1 -16,46" />
<polygon fill="#fffce0" fill-opacity="0.501961" points="13,99 16,117 21,99" />
<polygon fill="#41351f" fill-opacity="0.501961" points="32,140 118,157 8,178" />
<polygon fill="#86764d" fill-opacity="0.501961" points="106,183 113,196 116,165" />
<polygon fill="#29251f" fill-opacity="0.501961" points="86,75 25,142 31,76" />
<polygon fill="#000000" fill-opacity="0.501961" points="247,138 246,203 271,187" />
<polygon fill="#001f67" fill-opacity="0.501961" points="139,142 202,126 244,144" />
<polygon fill="#000000" fill-opacity="0.501961" points="128,53 140,100 123,100" />
<polygon fill="#ffffe9" fill-opacity="0.501961" points="141,178 133,187 144,185" />
<polygon fill="#000000" fill-opacity="0.501961" points="113,189 137,232 122,142" />
<polygon fill="#7c6c46" fill-opacity="0.501961" points="232,126 243,123 243,89" />
<polygon fill="#87784f" fill-opacity="0.501961" points="242,197 235,183 244,162" />
<polygon fill="#405d9e" fill-opacity="0.501961" points="130,200 147,200 130,179" />
<polygon fill="#7b6459" fill-opacity="0.501961" points="131,105 148,111 144,96" />
<polygon fill="#9b8793" fill-opacity="0.501961" points="67,44 62,37 65,30" />
<polygon fill="#0d0a00" fill-opacity="0.501961" points="191,25 134,55 183,51" />
<polygon fill="#726c52" fill-opacity="0.501961" points="164,36 160,-6 169,13" />
<polygon fill="#001e67" fill-opacity="0.501961" points="271,76 182,58 251,53" />
<polygon fill="#6b7fa2" fill-opacity="0.501961" points="184,208 163,203 196,201" />
<polygon fill="#1f2026" fill-opacity="0.501961" points="158,146 185,151 141,196" />
<polygon fill="#696148" fill-opacity="0.501961" points="113,131 117,89 105,110" />
<polygon fill="#594732" fill-opacity="0.501961" points="14,99 85,93 47,83" />
<polygon fill="#807868" fill-opacity="0.501961" points="15,71 7,98 31,72" />
<polygon fill="#000000" fill-opacity="0.501961" points="14,144 -16,145 0,220" />
<polygon fill="#787668" fill-opacity="0.501961" points="192,72 159,70 168,77" />
<polygon fill="#00246c" fill-opacity="0.501961" points="3,70 2,48 52,71" />
<polygon fill="#fff5ed" fill-opacity="0.501961" points="26,123 25,113 7,114" />
<polygon fill="#e0c9c4" fill-opacity="0.501961" points="147,120 140,107 131,119" />
<polygon fill="#375588" fill-opacity="0.501961" points="131,45 156,61 134,56" />
<polygon fill="#120e04" fill-opacity="0.501961" points="177,126 137,127 168,112" />
<polygon fill="#000000" fill-opacity="0.501961" points="129,127 142,172 120,169" />
<polygon fill="#395bb0" fill-opacity="0.501961" points="14,118 2,144 24,144" />
<polygon fill="#5a4d45" fill-opacity="0.501961" points="203,193 234,159 231,181" />
<polygon fill="#000000" fill-opacity="0.501961" points="-10,75 13,107 -1,115" />
<polygon fill="#c8a7ad" fill-opacity="0.501961" points="49,183 54,189 48,191" />
<polygon fill="#997f82" fill-opacity="0.501961" points="182,107 176,113 181,119" />
<polygon fill="#312a20" fill-opacity="0.501961" points="143,197 209,144 241,200" />
<polygon fill="#695641" fill-opacity="0.501961" points="43,171 41,160 80,160" />
<polygon fill="#6a5233" fill-opacity="0.501961" points="234,10 224,0 190,7" />
<polygon fill="#000000" fill-opacity="0.501961" points="156,-16 96,36 156,54" />
<polygon fill="#2e2a26" fill-opacity="0.501961" points="271,64 162,35 248,-16" />
<polygon fill="#606d8d" fill-opacity="0.501961" points="15,43 4,50 8,56" />
<polygon fill="#05276e" fill-opacity="0.501961" points="0,142 88,143 41,126" />
<polygon fill="#574c41" fill-opacity="0.501961" points="146,116 148,81 139,106" />
<polygon fill="#887e5f" fill-opacity="0.501961" points="49,149 33,144 67,144" />
<polygon fill="#604d35" fill-opacity="0.501961" points="211,91 172,84 169,99" />
<polygon fill="#827079" fill-opacity="0.501961" points="189,51 194,45 191,33" />
<polygon fill="#857952" fill-opacity="0.501961" points="141,147 155,150 142,162" />
<polygon fill="#827f70" fill-opacity="0.501961" points="106,143 111,154 83,154" />
<polygon fill="#4b639a" fill-opacity="0.501961" points="271,15 247,69 271,66" />
<polygon fill="#000000" fill-opacity="0.501961" points="271,130 248,125 249,70" />
<polygon fill="#232016" fill-opacity="0.501961" points="86,76 10,83 42,93" />
<polygon fill="#89777b" fill-opacity="0.501961" points="130,177 150,185 144,171" />
<polygon fill="#56647b" fill-opacity="0.501961" points="0,193 20,206 37,203" />
<polygon fill="#2d2720" fill-opacity="0.501961" points="235,128 237,79 176,110" />
<polygon fill="#001553" fill-opacity="0.501961" points="200,205 194,224 171,206" />
<polygon fill="#7184a7" fill-opacity="0.501961" points="179,136 154,137 173,129" />
<polygon fill="#ffffeb" fill-opacity="0.501961" points="12,106 14,96 20,101" />
<polygon fill="#31281e" fill-opacity="0.501961" points="107,197 34,181 110,152" />
<polygon fill="#000000" fill-opacity="0.501961" points="135,101 115,72 139,74" />
<polygon fill="#141715" fill-opacity="0.501961" points="91,164 82,147 45,148" />
<polygon fill="#1b1b1d" fill-opacity="0.501961" points="158,12 189,16 190,-14" />
<polygon fill="#ffffff" fill-opacity="0.501961" points="8,111 14,119 6,121" />
<polygon fill="#306cdc" fill-opacity="0.501961" points="121,63 121,71 126,67" />
<polygon fill="#28221b" fill-opacity="0.501961" points="21,200 51,194 19,154" />
<polygon fill="#828072" fill-opacity="0.501961" points="219,155 243,148 209,144" />
<polygon fill="#838072" fill-opacity="0.501961" points="83,72 115,76 91,83" />
<polygon fill="#070200" fill-opacity="0.501961" points="106,81 112,98 105,116" />
<polygon fill="#353035" fill-opacity="0.501961" points="48,74 34,115 17,108" />
<polygon fill="#708ab8" fill-opacity="0.501961" points="12,134 27,130 2,123" />
<polygon fill="#032162" fill-opacity="0.501961" points="134,71 201,53 256,71" />
<polygon fill="#9d8ea3" fill-opacity="0.501961" points="209,184 209,188 217,191" />
<polygon fill="#7a89a1" fill-opacity="0.501961" points="145,199 145,204 152,206" />
<polygon fill="#1f1d15" fill-opacity="0.501961" points="142,99 158,76 214,75" />
<polygon fill="#9caaed" fill-opacity="0.501961" points="130,181 133,186 131,192" />
<polygon fill="#09307f" fill-opacity="0.501961" points="113,201 125,198 126,217" />
<polygon fill="#060400" fill-opacity="0.501961" points="119,-13 55,51 129,56" />
<polygon fill="#b69ca9" fill-opacity="0.501961" points="83,117 84,110 80,118" />
<polygon fill="#797665" fill-opacity="0.501961" points="13,163 33,145 13,142" />
<polygon fill="#000000" fill-opacity="0.501961" points="7,71 4,117 -16,84" />
<polygon fill="#040300" fill-opacity="0.501961" points="63,53 17,55 52,-16" />
<polygon fill="#000000" fill-opacity="0.501961" points="255,196 240,187 254,165" />
<polygon fill="#b39da2" fill-opacity="0.501961" points="32,91 34,96 30,99" />
<polygon fill="#feead8" fill-opacity="0.501961" points="134,117 140,107 142,114" />
<polygon fill="#837e6e" fill-opacity="0.501961" points="213,75 241,73 218,84" />
<polygon fill="#40578e" fill-opacity="0.501961" points="138,125 153,135 131,108" />
<polygon fill="#000000" fill-opacity="0.501961" points="107,153 113,174 107,172" />
<polygon fill="#417fff" fill-opacity="0.501961" points="121,136 126,139 121,141" />
<polygon fill="#a38a95" fill-opacity="0.501961" points="232,168 228,172 230,160" />
<polygon fill="#5f4c32" fill-opacity="0.501961" points="171,166 212,158 212,169" />
<polygon fill="#000000" fill-opacity="0.501961" points="71,104 65,110 56,101" />
<polygon fill="#161512" fill-opacity="0.501961" points="213,56 176,47 227,45" />
<polygon fill="#181b17" fill-opacity="0.501961" points="211,147 215,163 159,148" />
<polygon fill="#302012" fill-opacity="0.501961" points="241,165 205,159 234,154" />
<polygon fill="#6c6248" fill-opacity="0.501961" points="190,145 170,153 162,143" />
<polygon fill="#001d57" fill-opacity="0.501961" points="141,54 139,70 80,55" />
<polygon fill="#000005" fill-opacity="0.501961" points="205,23 205,12 217,21" />
<polygon fill="#021d56" fill-opacity="0.501961" points="109,128 150,126 131,141" />
<polygon fill="#4e6387" fill-opacity="0.501961" points="30,127 36,133 51,130" />
<polygon fill="#19180f" fill-opacity="0.501961" points="50,197 18,201 14,189" />
<polygon fill="#9e868e" fill-opacity="0.501961" points="200,9 192,5 205,6" />
<polygon fill="#53422b" fill-opacity="0.501961" points="43,163 83,170 84,158" />
<polygon fill="#89704b" fill-opacity="0.501961" points="256,19 271,75 255,69" />
<polygon fill="#000000" fill-opacity="0.501961" points="1,138 -16,191 12,192" />
<polygon fill="#001751" fill-opacity="0.501961" points="138,220 128,224 136,188" />
<polygon fill="#04205b" fill-opacity="0.501961" points="-4,204 22,230 92,209" />
<polygon fill="#0b2863" fill-opacity="0.501961" points="153,143 271,143 213,126" />
<polygon fill="#000000" fill-opacity="0.501961" points="129,133 116,93 129,110" />
<polygon fill="#84673e" fill-opacity="0.501961" points="184,53 176,50 188,49" />
<polygon fill="#151618" fill-opacity="0.501961" points="33,113 28,130 81,115" />
<polygon fill="#221f18" fill-opacity="0.501961" points="8,171 67,156 34,147" />
<polygon fill="#150c00" fill-opacity="0.501961" points="233,165 241,166 233,191" />
<polygon fill="#624f3b" fill-opacity="0.501961" points="214,187 230,181 197,183" />
<polygon fill="#887b51" fill-opacity="0.501961" points="44,71 48,75 61,72" />
<polygon fill="#838372" fill-opacity="0.501961" points="20,185 13,170 19,176" />
<polygon fill="#282733" fill-opacity="0.501961" points="151,81 143,116 170,97" />
<polygon fill="#fffff7" fill-opacity="0.501961" points="139,179 136,180 140,184" />
<polygon fill="#5972a4" fill-opacity="0.501961" points="178,60 166,59 180,56" />
<polygon fill="#6b5a3f" fill-opacity="0.501961" points="94,200 117,194 98,193" />
<polygon fill="#26252d" fill-opacity="0.501961" points="146,184 182,175 147,151" />
<polygon fill="#5c7bb1" fill-opacity="0.501961" points="132,48 135,53 142,48" />
<polygon fill="#888470" fill-opacity="0.501961" points="115,101 110,118 109,109" />
<polygon fill="#022059" fill-opacity="0.501961" points="123,56 17,54 66,72" />
<polygon fill="#98abe5" fill-opacity="0.501961" points="130,110 130,118 139,120" />
<polygon fill="#191a1c" fill-opacity="0.501961" points="142,201 215,191 162,184" />
<polygon fill="#000000" fill-opacity="0.501961" points="170,54 172,35 184,45" />
<polygon fill="#868470" fill-opacity="0.501961" points="110,188 117,176 111,176" />
<polygon fill="#6b7e9c" fill-opacity="0.501961" points="146,57 158,58 158,62" />
<polygon fill="#797663" fill-opacity="0.501961" points="142,93 145,74 154,72" />
<polygon fill="#655947" fill-opacity="0.501961" points="243,194 223,201 226,193" />
<polygon fill="#4d3f29" fill-opacity="0.501961" points="160,52 169,56 168,33" />
<polygon fill="#ad8a8b" fill-opacity="0.501961" points="9,90 19,88 8,95" />
<polygon fill="#544840" fill-opacity="0.501961" points="27,184 59,183 40,176" />
<polygon fill="#0e121a" fill-opacity="0.501961" points="191,109 174,96 211,98" />
<polygon fill="#000000" fill-opacity="0.501961" points="194,172 184,180 198,179" />
<polygon fill="#7e633b" fill-opacity="0.501961" points="251,37 242,44 243,39" />
<polygon fill="#000003" fill-opacity="0.501961" points="66,184 59,174 71,176" />
<polygon fill="#7f7b69" fill-opacity="0.501961" points="165,17 165,27 160,12" />
<polygon fill="#8596bb" fill-opacity="0.501961" points="1,128 24,112 14,124" />
<polygon fill="#000000" fill-opacity="0.501961" points="128,132 119,171 140,173" />
<polygon fill="#a596a4" fill-opacity="0.501961" points="175,94 171,100 171,96" />
<polygon fill="#001547" fill-opacity="0.501961" points="141,60 137,76 164,61" />
<polygon fill="#000000" fill-opacity="0.501961" points="247,71 249,108 257,71" />
<polygon fill="#7e5e59" fill-opacity="0.501961" points="24,100 17,100 20,88" />
<polygon fill="#0c0702" fill-opacity="0.501961" points="241,102 235,82 231,96" />
<polygon fill="#000000" fill-opacity="0.501961" points="2,44 -16,47 0,95" />
<polygon fill="#807a63" fill-opacity="0.501961" points="243,157 242,170 238,155" />
<polygon fill="#06225d" fill-opacity="0.501961" points="28,140 109,144 69,127" />
<polygon fill="#9babc3" fill-opacity="0.501961" points="141,125 133,122 133,125" />
<polygon fill="#58a0ff" fill-opacity="0.501961" points="249,213 252,212 249,209" />
<polygon fill="#1c3a6f" fill-opacity="0.501961" points="146,192 143,211 131,192" />
<polygon fill="#817c6b" fill-opacity="0.501961" points="92,156 79,143 94,145" />
<polygon fill="#7f786b" fill-opacity="0.501961" points="169,80 173,81 171,71" />
<polygon fill="#96828f" fill-opacity="0.501961" points="47,167 43,164 45,173" />
<polygon fill="#1b202a" fill-opacity="0.501961" points="165,131 145,118 142,126" />
<polygon fill="#201c11" fill-opacity="0.501961" points="158,162 157,147 186,147" />
<polygon fill="#25251b" fill-opacity="0.501961" points="95,34 102,18 102,56" />
<polygon fill="#617595" fill-opacity="0.501961" points="29,204 45,205 41,201" />
<polygon fill="#887954" fill-opacity="0.501961" points="150,144 159,144 154,156" />
<polygon fill="#000000" fill-opacity="0.501961" points="12,86 -16,42 -16,113" />
<polygon fill="#23242c" fill-opacity="0.501961" points="97,78 95,120 109,110" />
<polygon fill="#163573" fill-opacity="0.501961" points="44,127 19,127 28,132" />
<polygon fill="#604f40" fill-opacity="0.501961" points="100,108 82,116 67,109" />
<polygon fill="#212532" fill-opacity="0.501961" points="147,112 163,134 149,81" />
<polygon fill="#534736" fill-opacity="0.501961" points="230,112 220,104 193,111" />
<polygon fill="#836536" fill-opacity="0.501961" points="102,122 103,127 94,127" />
<polygon fill="#090600" fill-opacity="0.501961" points="241,119 259,107 242,112" />
<polygon fill="#122c62" fill-opacity="0.501961" points="240,139 166,133 204,125" />
<polygon fill="#7b633f" fill-opacity="0.501961" points="231,122 220,127 232,127" />
<polygon fill="#39323c" fill-opacity="0.501961" points="142,182 145,173 152,179" />
<polygon fill="#041f56" fill-opacity="0.501961" points="139,135 165,141 112,144" />
<polygon fill="#483f34" fill-opacity="0.501961" points="59,183 101,186 94,175" />
<polygon fill="#001c59" fill-opacity="0.501961" points="1,193 15,206 5,219" />
<polygon fill="#524539" fill-opacity="0.501961" points="182,177 158,182 188,184" />
<polygon fill="#657ba2" fill-opacity="0.501961" points="146,135 147,129 165,137" />
<polygon fill="#060400" fill-opacity="0.501961" points="30,76 39,78 28,86" />
<polygon fill="#3f3b37" fill-opacity="0.501961" points="204,16 169,28 209,27" />
<polygon fill="#000000" fill-opacity="0.501961" points="156,55 83,-16 156,-4" />
<polygon fill="#232532" fill-opacity="0.501961" points="59,182 19,152 27,178" />
<polygon fill="#000000" fill-opacity="0.501961" points="116,148 127,205 135,145" />
<polygon fill="#010000" fill-opacity="0.501961" points="128,55 132,97 116,121" />
<polygon fill="#c6dfff" fill-opacity="0.501961" points="149,115 148,120 146,115" />
<polygon fill="#38260d" fill-opacity="0.501961" points="164,1 264,3 215,-16" />
<polygon fill="#3b75ea" fill-opacity="0.501961" points="247,138 252,143 251,136" />
<polygon fill="#867c6c" fill-opacity="0.501961" points="166,155 171,153 172,145" />
<polygon fill="#c79e5a" fill-opacity="0.501961" points="26,132 17,123 22,121" />
<polygon fill="#77725f" fill-opacity="0.501961" points="239,123 242,98 236,109" />
<polygon fill="#78745d" fill-opacity="0.501961" points="114,170 114,146 109,156" />
<polygon fill="#4c433c" fill-opacity="0.501961" points="28,110 49,105 59,112" />
<polygon fill="#a18791" fill-opacity="0.501961" points="178,118 181,113 177,109" />
<polygon fill="#3d81ff" fill-opacity="0.501961" points="249,71 252,66 249,65" />
<polygon fill="#8d8c77" fill-opacity="0.501961" points="165,7 165,-16 153,-16" />
<polygon fill="#48413a" fill-opacity="0.501961" points="232,19 254,26 208,27" />
<polygon fill="#131917" fill-opacity="0.501961" points="212,86 211,75 173,83" />
<polygon fill="#736b51" fill-opacity="0.501961" points="16,182 12,188 22,190" />
<polygon fill="#422d1d" fill-opacity="0.501961" points="6,47 14,48 16,41" />
<polygon fill="#1e222b" fill-opacity="0.501961" points="48,127 48,102 32,80" />
<polygon fill="#1a3b8d" fill-opacity="0.501961" points="26,144 2,125 3,144" />
<polygon fill="#031d51" fill-opacity="0.501961" points="12,72 1,52 69,69" />
<polygon fill="#7a6b50" fill-opacity="0.501961" points="43,150 36,154 44,155" />
<polygon fill="#766870" fill-opacity="0.501961" points="64,29 64,41 60,38" />
<polygon fill="#5e6fa6" fill-opacity="0.501961" points="149,192 145,184 149,183" />
<polygon fill="#ffeeda" fill-opacity="0.501961" points="18,108 17,94 14,99" />
<polygon fill="#746661" fill-opacity="0.501961" points="16,73 24,93 11,94" />
<polygon fill="#8c88a3" fill-opacity="0.501961" points="211,192 209,188 215,188" />
<polygon fill="#0c0b05" fill-opacity="0.501961" points="-16,10 64,31 138,-16" />
<polygon fill="#252528" fill-opacity="0.501961" points="238,192 222,159 211,198" />
<polygon fill="#15181b" fill-opacity="0.501961" points="186,39 171,27 213,27" />
<polygon fill="#092764" fill-opacity="0.501961" points="240,69 202,55 260,56" />
<polygon fill="#52432c" fill-opacity="0.501961" points="214,97 175,93 211,86" />
<polygon fill="#10100a" fill-opacity="0.501961" points="70,189 54,185 53,190" />
<polygon fill="#000000" fill-opacity="0.501961" points="254,142 254,195 243,154" />
<polygon fill="#53442d" fill-opacity="0.501961" points="84,87 38,88 78,98" />
<polygon fill="#6d5531" fill-opacity="0.501961" points="232,50 244,54 245,49" />
<polygon fill="#fff9e4" fill-opacity="0.501961" points="17,118 23,120 13,111" />
<polygon fill="#1a1d26" fill-opacity="0.501961" points="243,12 227,24 184,11" />
<polygon fill="#787567" fill-opacity="0.501961" points="236,72 209,81 244,80" />
<polygon fill="#6e502c" fill-opacity="0.501961" points="156,79 156,85 150,86" />
<polygon fill="#aa8b87" fill-opacity="0.501961" points="50,182 50,189 53,183" />
<polygon fill="#647ba4" fill-opacity="0.501961" points="14,194 9,198 3,196" />
<polygon fill="#001a54" fill-opacity="0.501961" points="43,67 88,57 130,71" />
<polygon fill="#2a2a2e" fill-opacity="0.501961" points="237,102 223,70 227,112" />
<polygon fill="#827a5c" fill-opacity="0.501961" points="146,86 146,92 139,92" />
<polygon fill="#011948" fill-opacity="0.501961" points="271,199 259,232 248,199" />
<polygon fill="#001857" fill-opacity="0.501961" points="145,72 142,48 136,64" />
<polygon fill="#100f07" fill-opacity="0.501961" points="38,159 29,144 32,161" />
<polygon fill="#000000" fill-opacity="0.501961" points="106,-16 108,55 156,43" />
<polygon fill="#212532" fill-opacity="0.501961" points="64,107 38,96 19,106" />
<polygon fill="#15120a" fill-opacity="0.501961" points="167,158 158,159 157,146" />
<polygon fill="#191d18" fill-opacity="0.501961" points="51,75 83,87 83,76" />
<polygon fill="#37362d" fill-opacity="0.501961" points="271,154 256,95 255,137" />
<polygon fill="#000000" fill-opacity="0.501961" points="-16,175 2,219 1,139" />
<polygon fill="#141618" fill-opacity="0.501961" points="85,114 109,112 100,121" />
<polygon fill="#2b2a2f" fill-opacity="0.501961" points="140,92 173,125 181,100" />
<polygon fill="#7f7477" fill-opacity="0.501961" points="146,172 142,178 130,174" />
<polygon fill="#7e7966" fill-opacity="0.501961" points="157,152 149,145 139,153" />
<polygon fill="#6c6857" fill-opacity="0.501961" points="114,71 97,72 114,95" />
<polygon fill="#7b6d6c" fill-opacity="0.501961" points="143,98 147,103 131,108" />
<polygon fill="#23263c" fill-opacity="0.501961" points="150,177 158,176 141,190" />
<polygon fill="#8a8169" fill-opacity="0.501961" points="159,32 160,28 168,31" />
<polygon fill="#171100" fill-opacity="0.501961" points="136,86 135,98 146,96" />
<polygon fill="#261f1b" fill-opacity="0.501961" points="101,81 114,84 77,101" />
<polygon fill="#20222a" fill-opacity="0.501961" points="195,167 163,172 173,186" />
<polygon fill="#898777" fill-opacity="0.501961" points="23,81 21,71 28,80" />
<polygon fill="#272523" fill-opacity="0.501961" points="223,126 185,127 181,110" />
<polygon fill="#475f8d" fill-opacity="0.501961" points="161,130 143,137 143,129" />
<polygon fill="#042059" fill-opacity="0.501961" points="179,213 130,200 133,214" />
<polygon fill="#112c66" fill-opacity="0.501961" points="255,200 206,199 191,220" />
<polygon fill="#1d1b18" fill-opacity="0.501961" points="108,188 109,199 83,184" />
<polygon fill="#706e5d" fill-opacity="0.501961" points="38,70 28,75 51,74" />
<polygon fill="#1a1405" fill-opacity="0.501961" points="120,110 113,111 114,116" />
<polygon fill="#5269b7" fill-opacity="0.501961" points="150,114 148,110 143,117" />
<polygon fill="#2b3169" fill-opacity="0.501961" points="130,182 138,189 130,177" />
<polygon fill="#323981" fill-opacity="0.501961" points="134,110 131,104 131,114" />
<polygon fill="#142d5f" fill-opacity="0.501961" points="23,228 13,194 8,232" />
<polygon fill="#74705b" fill-opacity="0.501961" points="114,192 110,198 109,184" />
<polygon fill="#000000" fill-opacity="0.501961" points="159,75 169,77 157,80" />
<polygon fill="#21252f" fill-opacity="0.501961" points="66,171 83,185 114,163" />
<polygon fill="#ffc1a8" fill-opacity="0.501961" points="138,183 139,191 141,189" />
<polygon fill="#102550" fill-opacity="0.501961" points="249,136 243,146 222,131" />
<polygon fill="#16160f" fill-opacity="0.501961" points="29,73 41,89 32,90" />
<polygon fill="#7e7b69" fill-opacity="0.501961" points="20,166 14,161 18,158" />
<polygon fill="#000000" fill-opacity="0.501961" points="117,89 138,101 135,72" />
<polygon fill="#000d3b" fill-opacity="0.501961" points="26,125 30,126 32,138" />
<polygon fill="#000000" fill-opacity="0.501961" points="235,92 240,97 236,104" />
<polygon fill="#222738" fill-opacity="0.501961" points="172,3 208,23 170,22" />
<polygon fill="#ffffee" fill-opacity="0.501961" points="26,116 26,122 19,115" />
<polygon fill="#77715d" fill-opacity="0.501961" points="238,89 241,80 243,98" />
<polygon fill="#000721" fill-opacity="0.501961" points="7,130 -8,172 -7,128" />
<polygon fill="#0b2561" fill-opacity="0.501961" points="27,139 9,133 34,134" />
<polygon fill="#26272f" fill-opacity="0.501961" points="94,174 107,199 97,148" />
<polygon fill="#080b0b" fill-opacity="0.501961" points="225,30 220,36 212,27" />
<polygon fill="#554837" fill-opacity="0.501961" points="254,41 266,70 256,96" />
<polygon fill="#000000" fill-opacity="0.501961" points="9,147 -16,134 10,191" />
<polygon fill="#102d6b" fill-opacity="0.501961" points="86,143 122,127 76,127" />
<polygon fill="#6e7c96" fill-opacity="0.501961" points="19,129 15,118 11,128" />
<polygon fill="#50412e" fill-opacity="0.501961" points="213,160 171,159 176,170" />
<polygon fill="#282313" fill-opacity="0.501961" points="157,9 157,37 163,23" />
<polygon fill="#716d5d" fill-opacity="0.501961" points="213,148 229,154 212,154" />
<polygon fill="#fffffe" fill-opacity="0.501961" points="6,117 6,120 12,116" />
<polygon fill="#060602" fill-opacity="0.501961" points="75,119 67,113 79,114" />
<polygon fill="#212023" fill-opacity="0.501961" points="31,111 20,109 27,90" />
<polygon fill="#677a9a" fill-opacity="0.501961" points="132,195 143,194 140,197" />
<polygon fill="#161716" fill-opacity="0.501961" points="175,125 150,108 151,127" />
<polygon fill="#3c2e1c" fill-opacity="0.501961" points="169,151 145,157 174,159" />
<polygon fill="#262831" fill-opacity="0.501961" points="210,113 236,92 191,99" />
<polygon fill="#2e4877" fill-opacity="0.501961" points="143,128 131,127 138,118" />
<polygon fill="#b0aabc" fill-opacity="0.501961" points="26,112 12,118 11,112" />
<polygon fill="#131109" fill-opacity="0.501961" points="251,54 242,46 253,42" />
<polygon fill="#1e202a" fill-opacity="0.501961" points="93,99 86,110 59,95" />
<polygon fill="#76715b" fill-opacity="0.501961" points="239,175 236,195 242,196" />
<polygon fill="#171b19" fill-opacity="0.501961" points="194,144 197,156 172,157" />
<polygon fill="#2a292c" fill-opacity="0.501961" points="225,146 219,183 228,168" />
<polygon fill="#5f453f" fill-opacity="0.501961" points="9,94 4,101 12,99" />
<polygon fill="#1e1c1a" fill-opacity="0.501961" points="233,184 239,199 216,187" />
<polygon fill="#888476" fill-opacity="0.501961" points="150,79 157,81 155,73" />
<polygon fill="#201f21" fill-opacity="0.501961" points="237,109 236,121 208,122" />
<polygon fill="#000000" fill-opacity="0.501961" points="194,108 198,104 184,101" />
<polygon fill="#4e3f2a" fill-opacity="0.501961" points="220,12 203,3 244,1" />
<polygon fill="#0c0b01" fill-opacity="0.501961" points="244,34 235,32 247,28" />
<polygon fill="#141204" fill-opacity="0.501961" points="-16,38 8,-16 10,48" />
<polygon fill="#000000" fill-opacity="0.501961" points="143,55 143,20 156,55" />
<polygon fill="#242528" fill-opacity="0.501961" points="189,55 209,25 240,55" />
<polygon fill="#635138" fill-opacity="0.501961" points="166,107 169,112 153,111" />
<polygon fill="#7a756d" fill-opacity="0.501961" points="85,142 70,145 75,147" />
<polygon fill="#a2abbd" fill-opacity="0.501961" points="22,205 22,203 18,204" />
<polygon fill="#827a6d" fill-opacity="0.501961" points="216,147 207,143 197,146" />
<polygon fill="#000000" fill-opacity="0.501961" points="240,173 234,174 239,163" />
<polygon fill="#617295" fill-opacity="0.501961" points="144,206 148,200 153,204" />
<polygon fill="#000002" fill-opacity="0.501961" points="9,103 -9,169 -12,76" />
<polygon fill="#ca8483" fill-opacity="0.501961" points="20,113 19,109 15,107" />
<polygon fill="#4f6c9c" fill-opacity="0.501961" points="6,53 14,51 1,48" />
<polygon fill="#757161" fill-opacity="0.501961" points="112,144 72,144 112,155" />
<polygon fill="#89846a" fill-opacity="0.501961" points="139,164 146,158 147,163" />
<polygon fill="#2c292b" fill-opacity="0.501961" points="148,80 145,113 165,98" />
<polygon fill="#000916" fill-opacity="0.501961" points="4,44 0,44 5,52" />
<polygon fill="#262832" fill-opacity="0.501961" points="166,93 180,108 138,110" />
</g>
</svg>