<svg xmlns="http://www.w3.org/2000/svg" version="1.1" width="1024" height="576">
<rect x="0" y="0" width="1024" height="576" fill="#84837e" />
<g transform="scale(4.000000) translate(0.5 0.5)">
<polygon fill="#ffffd5" fill-opacity="0.501961" points="143,159 44,84 231,53" />
<polygon fill="#000000" fill-opacity="0.501961" points="187,159 263,-16 271,147" />
<polygon fill="#000006" fill-opacity="0.501961" points="25,36 92,159 34,134" />
<polygon fill="#433f44" fill-opacity="0.501961" points="216,39 9,93 3,37" />
<polygon fill="#93beea" fill-opacity="0.501961" points="205,-2 -4,-16 -11,44" />
<polygon fill="#fff0ca" fill-opacity="0.501961" points="71,125 130,159 50,53" />
<polygon fill="#101c2e" fill-opacity="0.501961" points="271,138 219,-14 217,159" />
<polygon fill="#f3dab1" fill-opacity="0.501961" points="176,159 219,83 129,44" />
<polygon fill="#1a0000" fill-opacity="0.501961" points="180,16 199,51 166,65" />
<polygon fill="#d5cca1" fill-opacity="0.501961" points="40,132 -16,48 5,159" />
<polygon fill="#340908" fill-opacity="0.501961" points="94,56 48,58 88,82" />
<polygon fill="#334354" fill-opacity="0.501961" points="55,159 43,6 -1,63" />
<polygon fill="#fffbe7" fill-opacity="0.501961" points="215,91 196,39 211,40" />
<polygon fill="#ebd8ba" fill-opacity="0.501961" points="216,108 99,67 60,104" />
<polygon fill="#e0d1b6" fill-opacity="0.501961" points="48,26 58,100 104,159" />
<polygon fill="#49576b" fill-opacity="0.501961" points="237,91 256,7 196,24" />
<polygon fill="#292522" fill-opacity="0.501961" points="105,45 130,69 124,82" />
<polygon fill="#263143" fill-opacity="0.501961" points="153,26 128,-14 145,42" />
<polygon fill="#9fc2e4" fill-opacity="0.501961" points="72,-11 113,46 131,-11" />
<polygon fill="#3a292b" fill-opacity="0.501961" points="197,47 179,65 145,-13" />
<polygon fill="#12161e" fill-opacity="0.501961" points="111,159 56,149 30,87" />
<polygon fill="#6d8195" fill-opacity="0.501961" points="146,26 -12,60 26,18" />
<polygon fill="#1c1b1e" fill-opacity="0.501961" points="40,32 59,60 46,65" />
<polygon fill="#bba77d" fill-opacity="0.501961" points="176,159 222,93 100,143" />
<polygon fill="#b7d0e6" fill-opacity="0.501961" points="38,-16 -16,7 29,28" />
<polygon fill="#dacaae" fill-opacity="0.501961" points="87,134 211,42 207,118" />
<polygon fill="#ebe4ce" fill-opacity="0.501961" points="165,87 108,92 162,48" />
<polygon fill="#1c2b3d" fill-opacity="0.501961" points="93,57 79,9 79,44" />
<polygon fill="#100f0f" fill-opacity="0.501961" points="258,38 271,159 225,146" />
<polygon fill="#251b17" fill-opacity="0.501961" points="227,32 228,47 194,32" />
<polygon fill="#736a5c" fill-opacity="0.501961" points="183,35 175,-4 113,77" />
<polygon fill="#fff1d0" fill-opacity="0.501961" points="152,7 163,36 151,23" />
<polygon fill="#594e44" fill-opacity="0.501961" points="230,119 238,71 174,159" />
<polygon fill="#dad9d8" fill-opacity="0.501961" points="71,60 51,83 60,61" />
<polygon fill="#7f100c" fill-opacity="0.501961" points="163,62 188,61 163,49" />
<polygon fill="#a7c7e6" fill-opacity="0.501961" points="196,3 203,-16 211,27" />
<polygon fill="#1b293c" fill-opacity="0.501961" points="132,50 121,44 117,16" />
<polygon fill="#6288b2" fill-opacity="0.501961" points="230,38 263,1 226,-16" />
<polygon fill="#6e492b" fill-opacity="0.501961" points="117,114 128,116 118,104" />
<polygon fill="#a9bac7" fill-opacity="0.501961" points="73,1 44,-9 80,52" />
<polygon fill="#18202e" fill-opacity="0.501961" points="148,24 152,56 160,44" />
<polygon fill="#b69871" fill-opacity="0.501961" points="132,70 150,39 130,28" />
<polygon fill="#3b3a3e" fill-opacity="0.501961" points="190,-5 204,33 193,38" />
<polygon fill="#cccec6" fill-opacity="0.501961" points="174,30 172,6 165,5" />
<polygon fill="#e2ceb2" fill-opacity="0.501961" points="219,69 160,59 209,108" />
<polygon fill="#3a424b" fill-opacity="0.501961" points="237,92 225,20 215,99" />
<polygon fill="#45474e" fill-opacity="0.501961" points="64,47 50,10 52,39" />
<polygon fill="#262c35" fill-opacity="0.501961" points="39,150 94,159 42,73" />
<polygon fill="#dbccad" fill-opacity="0.501961" points="104,61 76,130 117,159" />
<polygon fill="#3e0907" fill-opacity="0.501961" points="81,82 99,62 65,65" />
<polygon fill="#1a314e" fill-opacity="0.501961" points="184,22 181,43 169,-4" />
<polygon fill="#adbfd0" fill-opacity="0.501961" points="191,38 187,-16 174,-8" />
<polygon fill="#e4dede" fill-opacity="0.501961" points="194,39 210,38 208,63" />
<polygon fill="#2b100f" fill-opacity="0.501961" points="188,60 164,43 193,33" />
<polygon fill="#e8c391" fill-opacity="0.501961" points="45,60 36,45 37,31" />
<polygon fill="#ffe5a8" fill-opacity="0.501961" points="52,33 43,19 50,43" />
<polygon fill="#a6bed2" fill-opacity="0.501961" points="100,-16 121,-16 135,46" />
<polygon fill="#3d414c" fill-opacity="0.501961" points="38,0 49,44 36,21" />
<polygon fill="#506076" fill-opacity="0.501961" points="248,28 225,105 227,17" />
<polygon fill="#21272f" fill-opacity="0.501961" points="28,102 52,112 18,51" />
<polygon fill="#a58965" fill-opacity="0.501961" points="87,32 92,54 115,73" />
<polygon fill="#6f87a1" fill-opacity="0.501961" points="124,66 120,29 102,31" />
<polygon fill="#bd3934" fill-opacity="0.501961" points="86,78 68,72 71,84" />
<polygon fill="#768a9d" fill-opacity="0.501961" points="72,69 59,38 65,7" />
<polygon fill="#ffffff" fill-opacity="0.501961" points="193,61 190,55 204,54" />
<polygon fill="#2f3031" fill-opacity="0.501961" points="86,49 94,62 50,60" />
<polygon fill="#414850" fill-opacity="0.501961" points="89,24 101,67 113,45" />
<polygon fill="#607994" fill-opacity="0.501961" points="-11,32 37,76 21,35" />
<polygon fill="#ded2b6" fill-opacity="0.501961" points="49,78 70,116 157,85" />
<polygon fill="#151e27" fill-opacity="0.501961" points="131,55 124,37 127,69" />
<polygon fill="#e3b983" fill-opacity="0.501961" points="56,43 55,57 45,32" />
<polygon fill="#bea27b" fill-opacity="0.501961" points="157,38 170,42 161,18" />
<polygon fill="#1d293b" fill-opacity="0.501961" points="133,21 138,34 135,40" />
<polygon fill="#f3e9ce" fill-opacity="0.501961" points="133,66 163,60 132,79" />
<polygon fill="#8ba4bb" fill-opacity="0.501961" points="37,30 36,12 -16,31" />
<polygon fill="#b8b092" fill-opacity="0.501961" points="36,159 3,80 33,118" />
<polygon fill="#a3c1d9" fill-opacity="0.501961" points="143,5 150,-16 153,27" />
<polygon fill="#252724" fill-opacity="0.501961" points="30,111 11,86 19,84" />
<polygon fill="#2c2a30" fill-opacity="0.501961" points="137,59 140,53 136,43" />
<polygon fill="#a49773" fill-opacity="0.501961" points="204,122 82,159 175,156" />
<polygon fill="#f8f9ff" fill-opacity="0.501961" points="52,72 64,67 67,81" />
<polygon fill="#ffe7ac" fill-opacity="0.501961" points="175,28 172,32 175,37" />
<polygon fill="#28292a" fill-opacity="0.501961" points="219,36 229,55 220,91" />
<polygon fill="#bf9777" fill-opacity="0.501961" points="220,46 215,59 189,66" />
<polygon fill="#c9af8b" fill-opacity="0.501961" points="136,16 144,35 140,53" />
<polygon fill="#67492c" fill-opacity="0.501961" points="215,111 180,149 210,159" />
<polygon fill="#c3a47c" fill-opacity="0.501961" points="194,12 194,38 198,26" />
<polygon fill="#eee9d8" fill-opacity="0.501961" points="116,76 105,84 95,65" />
<polygon fill="#d7b991" fill-opacity="0.501961" points="205,23 209,11 211,34" />
<polygon fill="#a79781" fill-opacity="0.501961" points="80,38 80,61 66,24" />
<polygon fill="#d64d45" fill-opacity="0.501961" points="180,63 163,57 166,65" />
<polygon fill="#485d77" fill-opacity="0.501961" points="75,40 84,24 78,0" />
<polygon fill="#232830" fill-opacity="0.501961" points="248,27 256,93 235,115" />
<polygon fill="#4e433c" fill-opacity="0.501961" points="164,47 137,54 164,35" />
<polygon fill="#cbcdc5" fill-opacity="0.501961" points="42,3 41,22 47,20" />
<polygon fill="#43505e" fill-opacity="0.501961" points="24,89 49,124 43,150" />
<polygon fill="#2d2729" fill-opacity="0.501961" points="47,56 66,56 32,75" />
<polygon fill="#7898b7" fill-opacity="0.501961" points="221,-11 204,32 190,-16" />
<polygon fill="#a2bcd4" fill-opacity="0.501961" points="76,-16 95,3 100,41" />
<polygon fill="#36465e" fill-opacity="0.501961" points="48,12 54,22 49,-1" />
<polygon fill="#3d3b3c" fill-opacity="0.501961" points="210,8 213,37 228,54" />
<polygon fill="#364d64" fill-opacity="0.501961" points="172,36 140,-16 164,6" />
<polygon fill="#aac6df" fill-opacity="0.501961" points="63,42 61,-16 48,-7" />
<polygon fill="#846445" fill-opacity="0.501961" points="219,85 197,134 216,116" />
<polygon fill="#856c51" fill-opacity="0.501961" points="121,104 120,95 115,109" />
<polygon fill="#37465d" fill-opacity="0.501961" points="195,19 186,-2 193,-16" />
<polygon fill="#282e37" fill-opacity="0.501961" points="22,84 36,89 17,42" />
<polygon fill="#151b24" fill-opacity="0.501961" points="16,77 14,90 9,65" />
<polygon fill="#3b4a5b" fill-opacity="0.501961" points="65,35 66,18 72,44" />
<polygon fill="#1e181f" fill-opacity="0.501961" points="186,36 199,32 213,37" />
<polygon fill="#bfb291" fill-opacity="0.501961" points="113,157 80,132 205,117" />
<polygon fill="#484e56" fill-opacity="0.501961" points="153,25 140,16 144,44" />
<polygon fill="#ded7bd" fill-opacity="0.501961" points="199,44 219,65 209,100" />
<polygon fill="#321413" fill-opacity="0.501961" points="67,73 78,57 86,77" />
<polygon fill="#1b242f" fill-opacity="0.501961" points="112,56 121,63 124,80" />
<polygon fill="#d4b187" fill-opacity="0.501961" points="159,45 167,38 158,42" />
<polygon fill="#26313d" fill-opacity="0.501961" points="238,103 213,147 218,93" />
<polygon fill="#350d09" fill-opacity="0.501961" points="198,47 200,55 179,41" />
<polygon fill="#e1d3b8" fill-opacity="0.501961" points="121,115 92,71 86,110" />
<polygon fill="#bf9669" fill-opacity="0.501961" points="44,68 55,92 54,78" />
<polygon fill="#271819" fill-opacity="0.501961" points="98,72 66,58 92,61" />
<polygon fill="#a49998" fill-opacity="0.501961" points="213,45 188,39 206,38" />
<polygon fill="#435771" fill-opacity="0.501961" points="172,10 169,-11 189,26" />
<polygon fill="#7d7c72" fill-opacity="0.501961" points="34,104 23,99 17,80" />
<polygon fill="#364b67" fill-opacity="0.501961" points="128,4 128,17 134,21" />
<polygon fill="#b99a72" fill-opacity="0.501961" points="93,57 89,43 104,64" />
<polygon fill="#121518" fill-opacity="0.501961" points="109,159 75,130 88,152" />
<polygon fill="#39393d" fill-opacity="0.501961" points="212,50 226,-5 227,26" />
<polygon fill="#aaa1a4" fill-opacity="0.501961" points="55,76 58,62 50,65" />
<polygon fill="#49607d" fill-opacity="0.501961" points="23,66 -16,25 1,61" />
<polygon fill="#33120f" fill-opacity="0.501961" points="184,42 186,61 165,55" />
<polygon fill="#586d86" fill-opacity="0.501961" points="247,11 254,-10 254,35" />
<polygon fill="#292d32" fill-opacity="0.501961" points="34,72 34,42 55,95" />
<polygon fill="#3c4859" fill-opacity="0.501961" points="24,42 22,23 36,57" />
<polygon fill="#9d958e" fill-opacity="0.501961" points="220,29 216,15 216,34" />
<polygon fill="#f0d1a1" fill-opacity="0.501961" points="155,31 159,38 159,25" />
<polygon fill="#ad4b49" fill-opacity="0.501961" points="195,66 201,60 193,62" />
<polygon fill="#f2f4fb" fill-opacity="0.501961" points="161,55 165,65 151,63" />
<polygon fill="#ddd4ba" fill-opacity="0.501961" points="134,116 216,66 136,65" />
<polygon fill="#49586b" fill-opacity="0.501961" points="36,5 43,24 40,-16" />
<polygon fill="#e7b97e" fill-opacity="0.501961" points="39,50 45,59 42,61" />
<polygon fill="#7fa8d0" fill-opacity="0.501961" points="204,-16 217,20 215,-16" />
<polygon fill="#151c28" fill-opacity="0.501961" points="256,-1 271,26 251,74" />
<polygon fill="#89a2b8" fill-opacity="0.501961" points="59,44 62,13 67,38" />
<polygon fill="#af8a5c" fill-opacity="0.501961" points="143,65 145,53 129,61" />
<polygon fill="#cbc1a2" fill-opacity="0.501961" points="207,110 219,73 114,134" />
<polygon fill="#9fb8cf" fill-opacity="0.501961" points="117,32 105,-16 95,24" />
<polygon fill="#faedf1" fill-opacity="0.501961" points="97,77 100,72 90,73" />
<polygon fill="#4e5d6d" fill-opacity="0.501961" points="52,99 31,64 37,87" />
<polygon fill="#283848" fill-opacity="0.501961" points="99,27 103,51 117,59" />
<polygon fill="#937552" fill-opacity="0.501961" points="119,76 100,51 96,61" />
<polygon fill="#9c3731" fill-opacity="0.501961" points="73,83 73,69 66,70" />
<polygon fill="#b0cde8" fill-opacity="0.501961" points="77,10 65,9 74,-16" />
<polygon fill="#d2b389" fill-opacity="0.501961" points="190,18 188,36 186,26" />
<polygon fill="#afa991" fill-opacity="0.501961" points="28,111 -1,138 47,159" />
<polygon fill="#373c40" fill-opacity="0.501961" points="73,49 98,58 88,60" />
<polygon fill="#2a3541" fill-opacity="0.501961" points="166,35 168,20 174,41" />
<polygon fill="#4f637a" fill-opacity="0.501961" points="64,19 62,6 69,20" />
<polygon fill="#f4f4f5" fill-opacity="0.501961" points="200,43 205,59 211,47" />
<polygon fill="#424e5e" fill-opacity="0.501961" points="219,119 243,66 227,44" />
<polygon fill="#cd4f3f" fill-opacity="0.501961" points="168,67 172,66 165,59" />
<polygon fill="#354251" fill-opacity="0.501961" points="43,51 38,35 42,23" />
<polygon fill="#82a1bd" fill-opacity="0.501961" points="271,-14 223,-16 230,12" />
<polygon fill="#e3dbc3" fill-opacity="0.501961" points="53,83 60,72 58,97" />
<polygon fill="#292324" fill-opacity="0.501961" points="187,35 195,46 156,47" />
<polygon fill="#d6b587" fill-opacity="0.501961" points="145,34 149,42 147,48" />
<polygon fill="#819db6" fill-opacity="0.501961" points="12,25 23,35 25,51" />
<polygon fill="#8aa7c0" fill-opacity="0.501961" points="29,22 33,44 25,30" />
<polygon fill="#abc2d7" fill-opacity="0.501961" points="35,-12 36,21 1,2" />
<polygon fill="#c8a376" fill-opacity="0.501961" points="124,77 123,63 130,80" />
<polygon fill="#283241" fill-opacity="0.501961" points="148,39 156,54 152,29" />
<polygon fill="#44566d" fill-opacity="0.501961" points="88,27 98,39 87,14" />
<polygon fill="#f7cf95" fill-opacity="0.501961" points="70,33 75,40 75,48" />
<polygon fill="#d5af7e" fill-opacity="0.501961" points="78,58 84,57 80,55" />
<polygon fill="#475262" fill-opacity="0.501961" points="132,4 142,7 142,28" />
<polygon fill="#3e4e61" fill-opacity="0.501961" points="49,14 58,29 56,43" />
<polygon fill="#977244" fill-opacity="0.501961" points="221,61 219,40 212,55" />
<polygon fill="#ddd0b1" fill-opacity="0.501961" points="117,71 123,106 145,117" />
<polygon fill="#e2ba84" fill-opacity="0.501961" points="129,45 133,33 133,41" />
<polygon fill="#e3c698" fill-opacity="0.501961" points="156,23 156,41 161,35" />
<polygon fill="#ded4b8" fill-opacity="0.501961" points="217,75 120,108 131,65" />
<polygon fill="#7e7d73" fill-opacity="0.501961" points="0,68 -1,145 -16,88" />
<polygon fill="#292123" fill-opacity="0.501961" points="218,37 202,35 214,40" />
<polygon fill="#506073" fill-opacity="0.501961" points="228,37 225,73 251,11" />
<polygon fill="#b5cddf" fill-opacity="0.501961" points="47,11 43,-7 42,15" />
<polygon fill="#3c2c24" fill-opacity="0.501961" points="39,62 47,62 55,76" />
<polygon fill="#a9c0d3" fill-opacity="0.501961" points="130,5 78,-16 84,15" />
<polygon fill="#2a2e33" fill-opacity="0.501961" points="227,65 219,38 220,83" />
<polygon fill="#caa272" fill-opacity="0.501961" points="63,54 70,56 64,50" />
<polygon fill="#525b65" fill-opacity="0.501961" points="212,16 214,9 206,-3" />
<polygon fill="#e4f0ed" fill-opacity="0.501961" points="168,48 164,49 167,52" />
<polygon fill="#282b30" fill-opacity="0.501961" points="93,149 23,69 54,147" />
<polygon fill="#85929e" fill-opacity="0.501961" points="64,51 55,24 67,41" />
<polygon fill="#d7cbae" fill-opacity="0.501961" points="57,96 116,111 80,133" />
<polygon fill="#b6c8d2" fill-opacity="0.501961" points="162,-16 171,10 162,4" />
<polygon fill="#bac6c8" fill-opacity="0.501961" points="155,14 148,-5 117,-16" />
<polygon fill="#414c58" fill-opacity="0.501961" points="41,142 43,114 24,92" />
<polygon fill="#374a64" fill-opacity="0.501961" points="227,2 217,17 217,-16" />
<polygon fill="#43474b" fill-opacity="0.501961" points="136,27 134,50 140,49" />
<polygon fill="#c8a475" fill-opacity="0.501961" points="211,34 207,31 211,21" />
<polygon fill="#cab18a" fill-opacity="0.501961" points="89,39 100,58 91,50" />
<polygon fill="#a38768" fill-opacity="0.501961" points="217,34 221,37 218,22" />
<polygon fill="#36383e" fill-opacity="0.501961" points="108,50 95,37 108,61" />
<polygon fill="#152423" fill-opacity="0.501961" points="163,59 163,44 166,54" />
<polygon fill="#59616b" fill-opacity="0.501961" points="148,-16 161,3 160,26" />
<polygon fill="#978969" fill-opacity="0.501961" points="163,144 199,130 169,158" />
<polygon fill="#9c2422" fill-opacity="0.501961" points="93,70 87,77 87,74" />
<polygon fill="#3a4655" fill-opacity="0.501961" points="117,19 121,39 132,47" />
<polygon fill="#c0925a" fill-opacity="0.501961" points="122,52 122,61 127,69" />
<polygon fill="#7994ad" fill-opacity="0.501961" points="14,51 14,28 -6,29" />
<polygon fill="#debe8f" fill-opacity="0.501961" points="139,46 145,48 139,33" />
<polygon fill="#aca39d" fill-opacity="0.501961" points="40,40 34,26 35,38" />
<polygon fill="#2e3036" fill-opacity="0.501961" points="55,33 60,47 55,43" />
<polygon fill="#6985a2" fill-opacity="0.501961" points="99,28 118,37 118,54" />
<polygon fill="#809bb5" fill-opacity="0.501961" points="96,26 117,11 118,41" />
<polygon fill="#484e58" fill-opacity="0.501961" points="181,15 178,28 168,-3" />
<polygon fill="#c67b6e" fill-opacity="0.501961" points="100,77 94,78 97,81" />
<polygon fill="#9db9d2" fill-opacity="0.501961" points="189,16 185,-11 168,-10" />
<polygon fill="#a1bad2" fill-opacity="0.501961" points="136,20 130,10 135,14" />
<polygon fill="#90adc9" fill-opacity="0.501961" points="83,21 90,34 85,8" />
<polygon fill="#a73630" fill-opacity="0.501961" points="192,50 190,59 181,64" />
<polygon fill="#222d3b" fill-opacity="0.501961" points="73,53 78,54 70,44" />
<polygon fill="#2e2727" fill-opacity="0.501961" points="223,34 211,52 216,37" />
<polygon fill="#687a87" fill-opacity="0.501961" points="0,-6 -16,42 2,53" />
<polygon fill="#c6ac85" fill-opacity="0.501961" points="134,39 136,50 129,38" />
<polygon fill="#6f95bd" fill-opacity="0.501961" points="73,33 81,46 76,27" />
<polygon fill="#4a3c2e" fill-opacity="0.501961" points="201,128 232,159 189,142" />
<polygon fill="#baad8b" fill-opacity="0.501961" points="199,129 154,142 211,101" />
<polygon fill="#ddd2b8" fill-opacity="0.501961" points="206,72 193,97 170,62" />
<polygon fill="#b0a88b" fill-opacity="0.501961" points="19,85 20,91 23,91" />
<polygon fill="#e9e3d6" fill-opacity="0.501961" points="72,61 69,60 68,65" />
<polygon fill="#231918" fill-opacity="0.501961" points="86,71 67,58 90,63" />
<polygon fill="#e7e5e4" fill-opacity="0.501961" points="69,84 65,68 56,68" />
<polygon fill="#8f7c5c" fill-opacity="0.501961" points="149,128 143,131 135,130" />
<polygon fill="#a89f9d" fill-opacity="0.501961" points="195,43 191,38 211,40" />
<polygon fill="#5d758f" fill-opacity="0.501961" points="118,-14 146,12 133,-10" />
<polygon fill="#e3e3e2" fill-opacity="0.501961" points="202,61 196,57 210,52" />
<polygon fill="#2d1b1a" fill-opacity="0.501961" points="83,75 67,69 80,58" />
<polygon fill="#a9c1d4" fill-opacity="0.501961" points="10,25 0,21 16,-16" />
<polygon fill="#34455b" fill-opacity="0.501961" points="167,15 166,30 170,21" />
<polygon fill="#3f4f62" fill-opacity="0.501961" points="140,5 156,32 141,27" />
<polygon fill="#90724b" fill-opacity="0.501961" points="215,99 220,76 214,87" />
<polygon fill="#e0d6bb" fill-opacity="0.501961" points="75,82 80,101 119,78" />
<polygon fill="#f7d39e" fill-opacity="0.501961" points="170,23 174,22 171,15" />
<polygon fill="#2f3942" fill-opacity="0.501961" points="9,72 12,64 6,52" />
<polygon fill="#836547" fill-opacity="0.501961" points="119,72 110,69 107,50" />
<polygon fill="#3a424c" fill-opacity="0.501961" points="44,48 44,31 53,56" />
<polygon fill="#61758d" fill-opacity="0.501961" points="5,40 16,57 13,68" />
<polygon fill="#d8ccaf" fill-opacity="0.501961" points="133,126 122,91 214,78" />
<polygon fill="#4b5e74" fill-opacity="0.501961" points="250,49 250,16 255,31" />
<polygon fill="#1e2126" fill-opacity="0.501961" points="29,108 18,89 20,100" />
<polygon fill="#391b19" fill-opacity="0.501961" points="189,57 189,34 175,62" />
<polygon fill="#595452" fill-opacity="0.501961" points="92,36 99,60 99,42" />
<polygon fill="#414950" fill-opacity="0.501961" points="32,59 39,55 32,29" />
<polygon fill="#2b343e" fill-opacity="0.501961" points="227,14 222,48 219,27" />
<polygon fill="#cfc3a3" fill-opacity="0.501961" points="158,112 97,141 76,125" />
<polygon fill="#374656" fill-opacity="0.501961" points="175,28 186,25 186,39" />
<polygon fill="#f1d1c4" fill-opacity="0.501961" points="184,69 196,59 193,54" />
<polygon fill="#a7a288" fill-opacity="0.501961" points="-16,96 41,154 33,123" />
<polygon fill="#d8b084" fill-opacity="0.501961" points="208,23 210,15 207,8" />
<polygon fill="#6d849c" fill-opacity="0.501961" points="228,9 256,-3 228,31" />
<polygon fill="#a98f71" fill-opacity="0.501961" points="143,30 146,29 147,36" />
<polygon fill="#a0bcd5" fill-opacity="0.501961" points="67,17 78,18 61,-16" />
<polygon fill="#8ea9c3" fill-opacity="0.501961" points="143,3 154,28 151,7" />
<polygon fill="#2d2b2d" fill-opacity="0.501961" points="161,47 154,52 144,47" />
<polygon fill="#c7af8f" fill-opacity="0.501961" points="134,43 131,25 129,45" />
<polygon fill="#832220" fill-opacity="0.501961" points="199,51 190,50 193,53" />
<polygon fill="#7a98b9" fill-opacity="0.501961" points="131,41 116,14 128,14" />
<polygon fill="#c5a679" fill-opacity="0.501961" points="49,43 52,55 64,56" />
<polygon fill="#842825" fill-opacity="0.501961" points="166,52 164,61 173,57" />
<polygon fill="#9db7ce" fill-opacity="0.501961" points="113,-10 130,-2 134,12" />
<polygon fill="#3a434d" fill-opacity="0.501961" points="53,131 35,122 44,159" />
<polygon fill="#9bb4cd" fill-opacity="0.501961" points="187,-16 200,11 212,-10" />
<polygon fill="#6b86a2" fill-opacity="0.501961" points="207,28 208,13 197,13" />
<polygon fill="#2d3137" fill-opacity="0.501961" points="72,123 52,110 43,71" />
<polygon fill="#748ea5" fill-opacity="0.501961" points="31,14 27,33 33,50" />
<polygon fill="#4c1b18" fill-opacity="0.501961" points="76,77 87,78 66,63" />
<polygon fill="#dccfb1" fill-opacity="0.501961" points="215,88 218,61 197,65" />
<polygon fill="#4f6a88" fill-opacity="0.501961" points="69,42 67,52 73,58" />
<polygon fill="#2f3844" fill-opacity="0.501961" points="154,45 149,39 160,41" />
<polygon fill="#ecc897" fill-opacity="0.501961" points="187,14 189,9 190,20" />
<polygon fill="#9f2826" fill-opacity="0.501961" points="84,76 90,77 86,78" />
<polygon fill="#181817" fill-opacity="0.501961" points="271,110 185,156 271,141" />
<polygon fill="#3b4652" fill-opacity="0.501961" points="224,60 242,82 222,118" />
<polygon fill="#bb9971" fill-opacity="0.501961" points="134,53 130,65 131,47" />
<polygon fill="#aa8f71" fill-opacity="0.501961" points="122,43 119,42 123,50" />
<polygon fill="#49596b" fill-opacity="0.501961" points="26,94 11,66 16,36" />
<polygon fill="#4f5f73" fill-opacity="0.501961" points="81,12 76,13 79,-4" />
<polygon fill="#61748d" fill-opacity="0.501961" points="126,1 126,14 129,11" />
<polygon fill="#b08b61" fill-opacity="0.501961" points="149,57 136,61 151,50" />
<polygon fill="#958e90" fill-opacity="0.501961" points="54,70 65,61 53,63" />
<polygon fill="#9d7d5b" fill-opacity="0.501961" points="57,78 50,79 44,67" />
<polygon fill="#3a495b" fill-opacity="0.501961" points="81,47 88,30 80,33" />
<polygon fill="#a2b9ce" fill-opacity="0.501961" points="132,26 119,-14 95,-10" />
<polygon fill="#e5ddc4" fill-opacity="0.501961" points="152,58 173,80 129,76" />
<polygon fill="#657c94" fill-opacity="0.501961" points="24,28 21,15 20,36" />
<polygon fill="#b6b6a7" fill-opacity="0.501961" points="5,142 -16,106 8,127" />
<polygon fill="#7f654a" fill-opacity="0.501961" points="121,114 130,119 118,107" />
<polygon fill="#a5b4bf" fill-opacity="0.501961" points="52,33 44,19 47,12" />
<polygon fill="#dfd7bb" fill-opacity="0.501961" points="120,76 99,104 101,67" />
<polygon fill="#4b453d" fill-opacity="0.501961" points="60,53 64,55 58,43" />
<polygon fill="#39424d" fill-opacity="0.501961" points="122,44 129,53 130,42" />
<polygon fill="#455164" fill-opacity="0.501961" points="193,18 191,-4 198,13" />
<polygon fill="#7e9ab3" fill-opacity="0.501961" points="80,28 75,22 77,13" />
<polygon fill="#3d4449" fill-opacity="0.501961" points="72,45 69,45 69,34" />
<polygon fill="#e3e2e1" fill-opacity="0.501961" points="71,82 61,81 54,69" />
<polygon fill="#262d38" fill-opacity="0.501961" points="216,28 214,37 213,23" />
<polygon fill="#a5957a" fill-opacity="0.501961" points="215,53 210,52 201,63" />
<polygon fill="#647a96" fill-opacity="0.501961" points="61,10 65,9 63,-2" />
<polygon fill="#84a0bd" fill-opacity="0.501961" points="187,26 178,0 187,6" />
<polygon fill="#15161b" fill-opacity="0.501961" points="255,91 255,-6 271,34" />
<polygon fill="#272e35" fill-opacity="0.501961" points="33,86 19,73 36,103" />
<polygon fill="#d9cdb1" fill-opacity="0.501961" points="128,119 78,126 66,82" />
<polygon fill="#2f3641" fill-opacity="0.501961" points="37,73 25,40 44,66" />
<polygon fill="#2d3033" fill-opacity="0.501961" points="231,154 214,141 220,90" />
<polygon fill="#c4a380" fill-opacity="0.501961" points="172,35 177,38 174,26" />
<polygon fill="#25282e" fill-opacity="0.501961" points="253,90 237,104 247,39" />
<polygon fill="#98b0c4" fill-opacity="0.501961" points="216,-4 213,10 210,-3" />
<polygon fill="#d7ceb5" fill-opacity="0.501961" points="76,86 53,78 57,96" />
<polygon fill="#e1d4b1" fill-opacity="0.501961" points="149,0 156,16 151,14" />
<polygon fill="#7f756b" fill-opacity="0.501961" points="163,22 157,10 162,35" />
<polygon fill="#2e3337" fill-opacity="0.501961" points="17,97 31,111 14,81" />
<polygon fill="#4c5663" fill-opacity="0.501961" points="38,36 40,3 48,42" />
<polygon fill="#55606d" fill-opacity="0.501961" points="31,19 34,30 31,40" />
<polygon fill="#4a5d74" fill-opacity="0.501961" points="120,50 112,47 120,61" />
<polygon fill="#e4e2de" fill-opacity="0.501961" points="167,51 169,52 168,48" />
<polygon fill="#da6a5d" fill-opacity="0.501961" points="75,79 68,80 71,75" />
<polygon fill="#2f3037" fill-opacity="0.501961" points="44,65 55,62 49,50" />
<polygon fill="#332b2d" fill-opacity="0.501961" points="185,34 164,44 171,49" />
<polygon fill="#323336" fill-opacity="0.501961" points="85,62 86,47 101,66" />
<polygon fill="#bbcfdd" fill-opacity="0.501961" points="58,8 51,6 58,-16" />
<polygon fill="#2f1b1a" fill-opacity="0.501961" points="167,52 185,45 183,54" />
<polygon fill="#5b738e" fill-opacity="0.501961" points="96,36 99,33 103,44" />
<polygon fill="#495c74" fill-opacity="0.501961" points="9,74 -16,51 -9,23" />
<polygon fill="#3c444e" fill-opacity="0.501961" points="144,20 151,27 149,38" />
<polygon fill="#454f5e" fill-opacity="0.501961" points="87,35 80,10 80,40" />
<polygon fill="#5f4d3c" fill-opacity="0.501961" points="215,131 194,134 216,112" />
<polygon fill="#a78b68" fill-opacity="0.501961" points="101,51 110,70 103,66" />
<polygon fill="#d1b285" fill-opacity="0.501961" points="56,54 59,51 49,41" />
<polygon fill="#475970" fill-opacity="0.501961" points="47,7 47,-1 52,14" />
<polygon fill="#718196" fill-opacity="0.501961" points="130,43 127,32 130,31" />
<polygon fill="#463e3b" fill-opacity="0.501961" points="103,61 100,56 101,63" />
<polygon fill="#353230" fill-opacity="0.501961" points="124,54 127,72 129,60" />
<polygon fill="#ebd9cf" fill-opacity="0.501961" points="192,53 189,57 197,58" />
<polygon fill="#b8ae92" fill-opacity="0.501961" points="2,99 22,112 1,70" />
<polygon fill="#b8a287" fill-opacity="0.501961" points="161,35 164,29 161,22" />
<polygon fill="#2a2f36" fill-opacity="0.501961" points="51,102 46,131 32,80" />
<polygon fill="#c5d4db" fill-opacity="0.501961" points="26,6 26,17 22,18" />
<polygon fill="#afa991" fill-opacity="0.501961" points="-16,159 40,149 30,113" />
<polygon fill="#e8cda8" fill-opacity="0.501961" points="47,36 53,40 45,26" />
</g>
</svg>