<svg xmlns="http://www.w3.org/2000/svg" version="1.1" width="1024" height="576">
<rect x="0" y="0" width="1024" height="576" fill="#7e877a" />
<g transform="scale(4.000000) translate(0.5 0.5)">
<polygon fill="#f0ffff" fill-opacity="0.501961" points="140,91 235,-16 160,-15" />
<polygon fill="#f3c8bf" fill-opacity="0.501961" points="85,112 114,-16 33,28" />
<polygon fill="#0f1631" fill-opacity="0.501961" points="101,-16 154,-3 132,103" />
<polygon fill="#40382e" fill-opacity="0.501961" points="6,143 190,104 204,159" />
<polygon fill="#495b32" fill-opacity="0.501961" points="194,98 257,-10 256,159" />
<polygon fill="#443723" fill-opacity="0.501961" points="-16,90 2,159 48,70" />
<polygon fill="#fff7d9" fill-opacity="0.501961" points="158,66 221,69 184,88" />
<polygon fill="#000001" fill-opacity="0.501961" points="103,79 123,105 80,89" />
<polygon fill="#e0e5dd" fill-opacity="0.501961" points="115,55 122,86 13,53" />
<polygon fill="#8c6556" fill-opacity="0.501961" points="97,73 112,40 24,10" />
<polygon fill="#ebf7fd" fill-opacity="0.501961" points="27,83 48,113 39,142" />
<polygon fill="#c7c1b2" fill-opacity="0.501961" points="147,91 117,140 178,112" />
<polygon fill="#fff7f5" fill-opacity="0.501961" points="99,-16 113,43 61,-3" />
<polygon fill="#2d4bb2" fill-opacity="0.501961" points="194,74 234,33 164,43" />
<polygon fill="#cac9de" fill-opacity="0.501961" points="208,145 192,113 229,104" />
<polygon fill="#3a3739" fill-opacity="0.501961" points="64,66 38,76 81,150" />
<polygon fill="#bfe1fc" fill-opacity="0.501961" points="163,-16 145,52 220,38" />
<polygon fill="#5dbe62" fill-opacity="0.501961" points="189,12 254,62 254,-16" />
<polygon fill="#0b0704" fill-opacity="0.501961" points="146,150 167,151 192,90" />
<polygon fill="#fffff3" fill-opacity="0.501961" points="112,109 93,120 92,99" />
<polygon fill="#0d2817" fill-opacity="0.501961" points="116,98 115,159 93,144" />
<polygon fill="#5cba59" fill-opacity="0.501961" points="-16,1 20,60 65,-3" />
<polygon fill="#352230" fill-opacity="0.501961" points="224,80 179,107 268,101" />
<polygon fill="#d0baab" fill-opacity="0.501961" points="256,73 251,92 209,67" />
<polygon fill="#d0c3a1" fill-opacity="0.501961" points="-16,84 12,43 44,70" />
<polygon fill="#372621" fill-opacity="0.501961" points="256,153 198,159 269,95" />
<polygon fill="#d5d3c6" fill-opacity="0.501961" points="49,15 63,86 38,57" />
<polygon fill="#d6ede8" fill-opacity="0.501961" points="122,108 144,116 115,78" />
<polygon fill="#152126" fill-opacity="0.501961" points="68,101 119,94 112,80" />
<polygon fill="#170019" fill-opacity="0.501961" points="114,112 129,125 139,116" />
<polygon fill="#1c0000" fill-opacity="0.501961" points="205,122 204,104 217,97" />
<polygon fill="#3f2621" fill-opacity="0.501961" points="82,33 52,53 61,32" />
<polygon fill="#3b3829" fill-opacity="0.501961" points="50,159 -16,80 -16,138" />
<polygon fill="#2e2e5b" fill-opacity="0.501961" points="168,56 225,69 228,49" />
<polygon fill="#eff6e6" fill-opacity="0.501961" points="60,55 83,95 81,46" />
<polygon fill="#afa882" fill-opacity="0.501961" points="86,159 95,113 69,89" />
<polygon fill="#50522e" fill-opacity="0.501961" points="173,81 172,98 130,83" />
<polygon fill="#4c7d35" fill-opacity="0.501961" points="37,33 -16,23 44,66" />
<polygon fill="#21396c" fill-opacity="0.501961" points="50,129 57,109 39,82" />
<polygon fill="#bad5f5" fill-opacity="0.501961" points="127,124 135,139 113,132" />
<polygon fill="#8c8668" fill-opacity="0.501961" points="32,135 1,95 35,80" />
<polygon fill="#e8efe7" fill-opacity="0.501961" points="157,10 200,-16 141,84" />
<polygon fill="#dcffff" fill-opacity="0.501961" points="121,85 115,50 103,75" />
<polygon fill="#e07b79" fill-opacity="0.501961" points="50,4 112,35 112,59" />
<polygon fill="#70524f" fill-opacity="0.501961" points="136,107 148,81 120,103" />
<polygon fill="#d5e8fb" fill-opacity="0.501961" points="54,106 59,119 53,138" />
<polygon fill="#5f7ece" fill-opacity="0.501961" points="166,38 229,30 168,60" />
<polygon fill="#bbbfad" fill-opacity="0.501961" points="206,131 241,100 224,100" />
<polygon fill="#341c20" fill-opacity="0.501961" points="63,65 70,75 52,67" />
<polygon fill="#e9ded8" fill-opacity="0.501961" points="144,117 139,95 156,91" />
<polygon fill="#ccdfcd" fill-opacity="0.501961" points="28,22 10,-6 -16,-16" />
<polygon fill="#130415" fill-opacity="0.501961" points="112,138 137,159 140,138" />
<polygon fill="#ffffff" fill-opacity="0.501961" points="115,109 133,104 138,114" />
<polygon fill="#f1ead3" fill-opacity="0.501961" points="104,95 93,120 108,115" />
<polygon fill="#eadabb" fill-opacity="0.501961" points="184,91 158,56 201,80" />
<polygon fill="#e5faff" fill-opacity="0.501961" points="198,109 199,134 204,114" />
<polygon fill="#86e3c5" fill-opacity="0.501961" points="50,-16 48,12 134,-16" />
<polygon fill="#00173f" fill-opacity="0.501961" points="48,113 52,137 42,146" />
<polygon fill="#2f8215" fill-opacity="0.501961" points="228,64 250,70 271,43" />
<polygon fill="#b4736d" fill-opacity="0.501961" points="80,6 54,10 86,56" />
<polygon fill="#2f2818" fill-opacity="0.501961" points="69,103 63,120 81,148" />
<polygon fill="#1d2d28" fill-opacity="0.501961" points="101,74 117,89 117,121" />
<polygon fill="#d6d4c5" fill-opacity="0.501961" points="54,25 54,68 39,57" />
<polygon fill="#e4e3d4" fill-opacity="0.501961" points="102,74 74,89 62,50" />
<polygon fill="#8cccab" fill-opacity="0.501961" points="212,-16 179,24 204,22" />
<polygon fill="#7c7b61" fill-opacity="0.501961" points="133,114 166,118 138,140" />
<polygon fill="#393d41" fill-opacity="0.501961" points="187,87 184,106 208,100" />
<polygon fill="#edefe9" fill-opacity="0.501961" points="54,81 64,81 49,68" />
<polygon fill="#465053" fill-opacity="0.501961" points="13,77 72,110 69,84" />
<polygon fill="#e8c6b2" fill-opacity="0.501961" points="207,87 204,93 187,87" />
<polygon fill="#e1f0f6" fill-opacity="0.501961" points="47,113 42,102 32,129" />
<polygon fill="#181f14" fill-opacity="0.501961" points="193,159 187,137 143,138" />
<polygon fill="#9b9a83" fill-opacity="0.501961" points="42,159 64,111 67,141" />
<polygon fill="#3b8131" fill-opacity="0.501961" points="161,101 171,89 160,61" />
<polygon fill="#3f5f76" fill-opacity="0.501961" points="125,93 129,56 108,19" />
<polygon fill="#405b35" fill-opacity="0.501961" points="230,3 237,47 243,29" />
<polygon fill="#858065" fill-opacity="0.501961" points="93,104 99,159 82,149" />
<polygon fill="#7f8074" fill-opacity="0.501961" points="180,117 207,87 192,132" />
<polygon fill="#1f1e19" fill-opacity="0.501961" points="271,114 222,88 271,95" />
<polygon fill="#686065" fill-opacity="0.501961" points="164,47 179,69 217,66" />
<polygon fill="#464139" fill-opacity="0.501961" points="39,82 15,86 59,58" />
<polygon fill="#c3d7e4" fill-opacity="0.501961" points="211,109 211,133 224,104" />
<polygon fill="#c2f4f1" fill-opacity="0.501961" points="138,79 160,58 156,81" />
<polygon fill="#589447" fill-opacity="0.501961" points="-16,74 27,26 -11,-10" />
<polygon fill="#3b2e33" fill-opacity="0.501961" points="123,127 93,120 137,114" />
<polygon fill="#696a58" fill-opacity="0.501961" points="59,159 4,92 6,127" />
<polygon fill="#574945" fill-opacity="0.501961" points="195,84 247,77 225,102" />
<polygon fill="#637188" fill-opacity="0.501961" points="53,116 43,82 60,95" />
<polygon fill="#e2d8ba" fill-opacity="0.501961" points="173,50 170,67 177,74" />
<polygon fill="#eeb4a8" fill-opacity="0.501961" points="109,45 70,11 108,23" />
<polygon fill="#64655a" fill-opacity="0.501961" points="241,136 181,151 254,110" />
<polygon fill="#aca388" fill-opacity="0.501961" points="189,83 180,107 131,120" />
<polygon fill="#485fb7" fill-opacity="0.501961" points="212,58 226,45 209,24" />
<polygon fill="#8f8a73" fill-opacity="0.501961" points="237,80 234,112 219,124" />
<polygon fill="#d7f2f7" fill-opacity="0.501961" points="103,17 56,-8 104,-16" />
<polygon fill="#2a1a1f" fill-opacity="0.501961" points="133,106 139,106 136,94" />
<polygon fill="#69b950" fill-opacity="0.501961" points="221,27 238,55 232,67" />
<polygon fill="#c3d7dc" fill-opacity="0.501961" points="69,98 71,86 85,94" />
<polygon fill="#456880" fill-opacity="0.501961" points="136,41 138,85 154,17" />
<polygon fill="#e9e9db" fill-opacity="0.501961" points="63,47 54,60 88,82" />
<polygon fill="#7c4a5c" fill-opacity="0.501961" points="131,90 147,80 183,98" />
<polygon fill="#432d2f" fill-opacity="0.501961" points="225,127 244,103 237,124" />
<polygon fill="#4e8050" fill-opacity="0.501961" points="27,0 6,-2 22,14" />
<polygon fill="#3e3d43" fill-opacity="0.501961" points="124,-16 146,32 126,95" />
<polygon fill="#97abc9" fill-opacity="0.501961" points="129,139 142,129 111,134" />
<polygon fill="#8cb7fe" fill-opacity="0.501961" points="175,43 204,24 216,32" />
<polygon fill="#4f2c2f" fill-opacity="0.501961" points="95,46 99,50 89,62" />
<polygon fill="#adaa8f" fill-opacity="0.501961" points="21,84 31,113 30,87" />
<polygon fill="#3ca232" fill-opacity="0.501961" points="164,93 156,76 178,87" />
<polygon fill="#dfddcc" fill-opacity="0.501961" points="95,80 60,81 89,65" />
<polygon fill="#e3decb" fill-opacity="0.501961" points="109,104 89,100 110,116" />
<polygon fill="#1e222e" fill-opacity="0.501961" points="141,156 100,143 93,118" />
<polygon fill="#181513" fill-opacity="0.501961" points="5,92 12,84 -8,87" />
<polygon fill="#43221c" fill-opacity="0.501961" points="210,86 228,78 214,74" />
<polygon fill="#bbb79d" fill-opacity="0.501961" points="43,67 30,52 7,82" />
<polygon fill="#f7fff5" fill-opacity="0.501961" points="56,37 60,30 66,28" />
<polygon fill="#774342" fill-opacity="0.501961" points="88,54 83,33 82,63" />
<polygon fill="#ba8396" fill-opacity="0.501961" points="141,81 154,81 129,96" />
<polygon fill="#b2a998" fill-opacity="0.501961" points="166,41 176,85 157,62" />
<polygon fill="#fff4ef" fill-opacity="0.501961" points="162,-16 151,33 167,7" />
<polygon fill="#4b453c" fill-opacity="0.501961" points="-8,103 17,107 37,97" />
<polygon fill="#34373b" fill-opacity="0.501961" points="73,98 51,113 66,87" />
<polygon fill="#45473f" fill-opacity="0.501961" points="75,53 64,44 70,53" />
<polygon fill="#b4bdc0" fill-opacity="0.501961" points="159,15 180,-16 159,46" />
<polygon fill="#19160f" fill-opacity="0.501961" points="87,159 68,128 72,158" />
<polygon fill="#0c0a0e" fill-opacity="0.501961" points="-2,159 -15,87 4,101" />
<polygon fill="#1f1511" fill-opacity="0.501961" points="103,64 100,61 94,72" />
<polygon fill="#dad5ca" fill-opacity="0.501961" points="149,89 162,101 153,107" />
<polygon fill="#130f11" fill-opacity="0.501961" points="248,132 264,117 256,97" />
<polygon fill="#8ca1ab" fill-opacity="0.501961" points="32,122 36,158 44,128" />
<polygon fill="#4e594f" fill-opacity="0.501961" points="101,103 81,91 99,94" />
<polygon fill="#e0d8bf" fill-opacity="0.501961" points="189,86 177,95 185,64" />
<polygon fill="#1f0e2b" fill-opacity="0.501961" points="130,114 136,129 121,113" />
<polygon fill="#404644" fill-opacity="0.501961" points="205,107 183,105 166,90" />
<polygon fill="#d2d2c1" fill-opacity="0.501961" points="76,93 92,81 90,53" />
<polygon fill="#9f9b7e" fill-opacity="0.501961" points="34,120 11,106 31,100" />
<polygon fill="#74ae7b" fill-opacity="0.501961" points="20,27 62,-16 47,26" />
<polygon fill="#908e6e" fill-opacity="0.501961" points="174,89 147,115 159,133" />
<polygon fill="#c5dcea" fill-opacity="0.501961" points="234,77 238,75 235,87" />
<polygon fill="#9aa8af" fill-opacity="0.501961" points="216,139 204,119 224,122" />
<polygon fill="#aa8d7d" fill-opacity="0.501961" points="206,92 209,70 201,86" />
<polygon fill="#dae8f0" fill-opacity="0.501961" points="125,95 110,78 113,51" />
<polygon fill="#371227" fill-opacity="0.501961" points="154,87 163,100 163,91" />
<polygon fill="#70ad60" fill-opacity="0.501961" points="239,40 259,51 234,7" />
<polygon fill="#d3cfc1" fill-opacity="0.501961" points="60,60 40,58 42,26" />
<polygon fill="#232b26" fill-opacity="0.501961" points="54,29 69,22 61,29" />
<polygon fill="#7396a7" fill-opacity="0.501961" points="104,75 90,83 110,81" />
<polygon fill="#64634b" fill-opacity="0.501961" points="168,135 199,139 195,117" />
<polygon fill="#3a6231" fill-opacity="0.501961" points="104,120 115,109 116,159" />
<polygon fill="#cccfbd" fill-opacity="0.501961" points="66,19 42,43 38,33" />
<polygon fill="#e0beb1" fill-opacity="0.501961" points="81,22 76,29 60,31" />
<polygon fill="#dcecef" fill-opacity="0.501961" points="205,130 204,115 201,124" />
<polygon fill="#b3af8b" fill-opacity="0.501961" points="192,121 185,101 194,113" />
<polygon fill="#7bb386" fill-opacity="0.501961" points="131,93 133,106 118,105" />
<polygon fill="#352a39" fill-opacity="0.501961" points="21,32 14,42 21,19" />
<polygon fill="#aaa98a" fill-opacity="0.501961" points="240,89 246,72 264,91" />
<polygon fill="#3b2b30" fill-opacity="0.501961" points="61,74 70,76 70,71" />
<polygon fill="#393635" fill-opacity="0.501961" points="207,68 192,48 211,59" />
<polygon fill="#323933" fill-opacity="0.501961" points="240,61 240,79 245,68" />
<polygon fill="#e7e5d2" fill-opacity="0.501961" points="111,111 101,119 91,100" />
<polygon fill="#dbe7ee" fill-opacity="0.501961" points="47,119 36,99 43,128" />
<polygon fill="#d3e0dd" fill-opacity="0.501961" points="56,112 61,114 62,111" />
<polygon fill="#dfd0af" fill-opacity="0.501961" points="239,78 235,71 221,74" />
<polygon fill="#400f1a" fill-opacity="0.501961" points="214,99 206,126 206,95" />
<polygon fill="#8f615c" fill-opacity="0.501961" points="56,23 51,14 69,13" />
<polygon fill="#6076b5" fill-opacity="0.501961" points="167,41 203,57 162,53" />
<polygon fill="#b0af90" fill-opacity="0.501961" points="74,120 73,101 98,96" />
<polygon fill="#857d63" fill-opacity="0.501961" points="235,122 253,98 248,124" />
<polygon fill="#1b1f13" fill-opacity="0.501961" points="255,52 271,106 256,109" />
<polygon fill="#e2decf" fill-opacity="0.501961" points="82,53 63,53 46,71" />
<polygon fill="#3b3b48" fill-opacity="0.501961" points="180,62 173,55 178,69" />
<polygon fill="#698a9a" fill-opacity="0.501961" points="114,46 106,8 117,29" />
<polygon fill="#425c6f" fill-opacity="0.501961" points="140,83 124,93 122,75" />
<polygon fill="#edf3f1" fill-opacity="0.501961" points="112,111 140,110 128,105" />
<polygon fill="#4f4a39" fill-opacity="0.501961" points="219,159 244,129 222,117" />
<polygon fill="#b9b0a1" fill-opacity="0.501961" points="103,54 99,80 111,59" />
<polygon fill="#3a392e" fill-opacity="0.501961" points="194,95 163,121 178,118" />
<polygon fill="#c4d0bd" fill-opacity="0.501961" points="61,51 76,38 70,49" />
<polygon fill="#466138" fill-opacity="0.501961" points="42,55 32,45 38,32" />
<polygon fill="#222649" fill-opacity="0.501961" points="228,69 217,50 225,46" />
<polygon fill="#cae4eb" fill-opacity="0.501961" points="160,71 151,38 141,74" />
<polygon fill="#452627" fill-opacity="0.501961" points="103,65 99,65 99,53" />
<polygon fill="#123d14" fill-opacity="0.501961" points="255,-1 256,52 268,7" />
<polygon fill="#465247" fill-opacity="0.501961" points="90,95 114,103 101,90" />
<polygon fill="#dbddcc" fill-opacity="0.501961" points="82,65 78,42 74,49" />
<polygon fill="#6bb06f" fill-opacity="0.501961" points="206,14 227,-16 233,49" />
<polygon fill="#98d1ba" fill-opacity="0.501961" points="190,24 190,1 221,-6" />
<polygon fill="#353e43" fill-opacity="0.501961" points="239,91 226,83 212,109" />
<polygon fill="#8d866e" fill-opacity="0.501961" points="229,121 243,100 217,103" />
<polygon fill="#d2c9c2" fill-opacity="0.501961" points="57,18 42,24 50,25" />
<polygon fill="#e8fbef" fill-opacity="0.501961" points="202,28 196,22 183,29" />
<polygon fill="#c3d4d8" fill-opacity="0.501961" points="208,128 197,110 197,130" />
<polygon fill="#454334" fill-opacity="0.501961" points="31,136 9,126 -16,148" />
<polygon fill="#c4beaf" fill-opacity="0.501961" points="171,64 176,52 172,48" />
<polygon fill="#db908b" fill-opacity="0.501961" points="95,48 85,59 89,30" />
<polygon fill="#bbaa86" fill-opacity="0.501961" points="214,70 196,69 210,63" />
<polygon fill="#7b775b" fill-opacity="0.501961" points="137,127 144,141 179,107" />
<polygon fill="#000007" fill-opacity="0.501961" points="232,5 224,-16 230,-16" />
<polygon fill="#e1d9bc" fill-opacity="0.501961" points="167,63 198,88 173,82" />
<polygon fill="#5c7a5a" fill-opacity="0.501961" points="49,8 53,13 44,30" />
<polygon fill="#1a202c" fill-opacity="0.501961" points="42,100 44,92 49,108" />
<polygon fill="#984d4d" fill-opacity="0.501961" points="106,60 105,47 111,47" />
<polygon fill="#423f34" fill-opacity="0.501961" points="192,106 198,94 187,87" />
<polygon fill="#77735f" fill-opacity="0.501961" points="89,130 65,159 119,159" />
<polygon fill="#52403b" fill-opacity="0.501961" points="64,48 59,41 82,31" />
<polygon fill="#dedacc" fill-opacity="0.501961" points="96,72 77,64 65,80" />
<polygon fill="#7d5e55" fill-opacity="0.501961" points="76,52 83,35 87,42" />
<polygon fill="#92ab84" fill-opacity="0.501961" points="232,51 247,44 248,53" />
<polygon fill="#e2e1d5" fill-opacity="0.501961" points="60,57 83,66 62,45" />
<polygon fill="#d0d3cd" fill-opacity="0.501961" points="178,92 184,99 183,86" />
<polygon fill="#213044" fill-opacity="0.501961" points="47,149 54,118 40,144" />
<polygon fill="#3a4c8c" fill-opacity="0.501961" points="174,49 196,75 188,54" />
<polygon fill="#487a9c" fill-opacity="0.501961" points="158,-8 152,22 150,8" />
<polygon fill="#1d0a0d" fill-opacity="0.501961" points="62,68 66,72 66,77" />
<polygon fill="#66a952" fill-opacity="0.501961" points="21,25 18,48 41,54" />
<polygon fill="#14171c" fill-opacity="0.501961" points="115,84 118,99 93,84" />
<polygon fill="#436f44" fill-opacity="0.501961" points="179,87 172,90 160,72" />
<polygon fill="#939274" fill-opacity="0.501961" points="14,89 21,94 4,107" />
<polygon fill="#b5d3b0" fill-opacity="0.501961" points="20,16 32,21 38,33" />
<polygon fill="#5268b1" fill-opacity="0.501961" points="205,43 216,28 219,68" />
<polygon fill="#398e1d" fill-opacity="0.501961" points="67,88 59,82 71,82" />
<polygon fill="#3f3d33" fill-opacity="0.501961" points="48,79 3,89 32,73" />
<polygon fill="#b8d8b0" fill-opacity="0.501961" points="14,47 6,40 -1,40" />
<polygon fill="#e19990" fill-opacity="0.501961" points="65,6 87,33 84,9" />
<polygon fill="#4c3942" fill-opacity="0.501961" points="128,118 122,122 146,131" />
<polygon fill="#424c4e" fill-opacity="0.501961" points="58,128 60,153 53,151" />
<polygon fill="#def6ec" fill-opacity="0.501961" points="175,7 160,47 177,28" />
<polygon fill="#486642" fill-opacity="0.501961" points="18,38 5,50 20,45" />
<polygon fill="#6eb67f" fill-opacity="0.501961" points="45,19 18,-14 60,7" />
<polygon fill="#a4b0c1" fill-opacity="0.501961" points="143,136 127,125 115,137" />
<polygon fill="#272421" fill-opacity="0.501961" points="181,149 169,134 139,136" />
<polygon fill="#d4cfb9" fill-opacity="0.501961" points="93,116 99,120 109,115" />
<polygon fill="#d2e3cf" fill-opacity="0.501961" points="9,7 20,13 2,-8" />
<polygon fill="#7a797f" fill-opacity="0.501961" points="139,-16 148,-16 141,16" />
<polygon fill="#463b36" fill-opacity="0.501961" points="186,126 187,117 196,122" />
<polygon fill="#467639" fill-opacity="0.501961" points="117,108 113,136 107,131" />
<polygon fill="#a09b74" fill-opacity="0.501961" points="188,122 184,111 181,124" />
<polygon fill="#6b7d93" fill-opacity="0.501961" points="50,100 51,113 62,89" />
<polygon fill="#c4d0d4" fill-opacity="0.501961" points="210,113 215,133 220,106" />
<polygon fill="#acab8f" fill-opacity="0.501961" points="10,44 3,84 39,69" />
<polygon fill="#81959b" fill-opacity="0.501961" points="224,140 198,129 199,138" />
<polygon fill="#b3b8a0" fill-opacity="0.501961" points="250,69 241,76 256,71" />
<polygon fill="#beae8d" fill-opacity="0.501961" points="170,49 159,68 163,51" />
<polygon fill="#f4edd4" fill-opacity="0.501961" points="185,67 202,82 190,77" />
<polygon fill="#4f463c" fill-opacity="0.501961" points="64,33 64,47 55,41" />
<polygon fill="#838268" fill-opacity="0.501961" points="221,127 239,131 222,121" />
<polygon fill="#435677" fill-opacity="0.501961" points="197,91 204,108 194,108" />
<polygon fill="#4f8f36" fill-opacity="0.501961" points="253,71 252,56 233,70" />
<polygon fill="#324945" fill-opacity="0.501961" points="89,90 81,88 90,100" />
<polygon fill="#5a6d8d" fill-opacity="0.501961" points="46,107 37,95 39,82" />
<polygon fill="#141c33" fill-opacity="0.501961" points="216,66 210,52 209,58" />
<polygon fill="#2e2b26" fill-opacity="0.501961" points="271,108 236,87 238,100" />
<polygon fill="#412f43" fill-opacity="0.501961" points="116,130 129,112 110,112" />
<polygon fill="#423836" fill-opacity="0.501961" points="22,102 24,96 18,85" />
<polygon fill="#979275" fill-opacity="0.501961" points="93,111 95,136 73,121" />
<polygon fill="#cbd2c3" fill-opacity="0.501961" points="97,61 94,59 98,51" />
<polygon fill="#544634" fill-opacity="0.501961" points="232,86 215,72 204,102" />
<polygon fill="#95c5a8" fill-opacity="0.501961" points="176,29 223,-16 205,16" />
<polygon fill="#a9a68a" fill-opacity="0.501961" points="175,110 172,96 157,99" />
<polygon fill="#f5f1f0" fill-opacity="0.501961" points="157,-6 158,27 172,-16" />
<polygon fill="#6d6b57" fill-opacity="0.501961" points="141,112 151,135 139,141" />
<polygon fill="#d5d4d1" fill-opacity="0.501961" points="148,106 129,114 151,113" />
<polygon fill="#7b4a59" fill-opacity="0.501961" points="156,80 135,93 154,89" />
<polygon fill="#cccbcc" fill-opacity="0.501961" points="37,54 46,52 50,62" />
<polygon fill="#898467" fill-opacity="0.501961" points="194,137 185,138 195,121" />
<polygon fill="#ca7c78" fill-opacity="0.501961" points="69,38 72,20 81,25" />
<polygon fill="#d8d9c7" fill-opacity="0.501961" points="53,42 62,29 39,47" />
<polygon fill="#659d4e" fill-opacity="0.501961" points="221,30 233,31 233,61" />
<polygon fill="#ccb8ad" fill-opacity="0.501961" points="201,87 205,91 199,93" />
<polygon fill="#ddf6f0" fill-opacity="0.501961" points="192,-3 180,24 178,-16" />
<polygon fill="#504641" fill-opacity="0.501961" points="96,61 90,59 95,49" />
<polygon fill="#d2f9f6" fill-opacity="0.501961" points="71,2 80,7 87,-7" />
<polygon fill="#8fb5e5" fill-opacity="0.501961" points="197,32 173,34 181,48" />
<polygon fill="#5b5c53" fill-opacity="0.501961" points="62,38 53,32 56,30" />
<polygon fill="#6887ce" fill-opacity="0.501961" points="222,39 210,27 181,49" />
<polygon fill="#273325" fill-opacity="0.501961" points="238,33 233,28 234,22" />
<polygon fill="#71acba" fill-opacity="0.501961" points="158,36 149,39 164,39" />
<polygon fill="#b6b39c" fill-opacity="0.501961" points="42,71 33,55 -11,54" />
<polygon fill="#d8d5c5" fill-opacity="0.501961" points="72,97 74,78 96,65" />
<polygon fill="#4d849f" fill-opacity="0.501961" points="145,62 139,70 145,54" />
<polygon fill="#5ec473" fill-opacity="0.501961" points="154,83 160,69 163,80" />
<polygon fill="#509d36" fill-opacity="0.501961" points="10,47 -6,37 -6,55" />
<polygon fill="#6eb181" fill-opacity="0.501961" points="215,22 195,23 240,-16" />
<polygon fill="#79969f" fill-opacity="0.501961" points="170,10 180,-14 173,-16" />
<polygon fill="#595b6b" fill-opacity="0.501961" points="207,121 211,118 211,124" />
<polygon fill="#a0b8c7" fill-opacity="0.501961" points="52,138 55,146 54,129" />
<polygon fill="#4a5639" fill-opacity="0.501961" points="196,137 180,133 161,159" />
<polygon fill="#dceef5" fill-opacity="0.501961" points="202,110 204,118 198,109" />
<polygon fill="#b9e7e3" fill-opacity="0.501961" points="152,61 154,79 162,50" />
<polygon fill="#16191e" fill-opacity="0.501961" points="109,140 105,118 97,137" />
<polygon fill="#6caf6f" fill-opacity="0.501961" points="238,30 230,-15 255,3" />
<polygon fill="#73b972" fill-opacity="0.501961" points="20,9 24,-3 -12,-16" />
<polygon fill="#655953" fill-opacity="0.501961" points="56,83 40,59 52,100" />
<polygon fill="#aba5a5" fill-opacity="0.501961" points="100,7 96,0 98,11" />
<polygon fill="#5166b1" fill-opacity="0.501961" points="203,56 196,47 223,34" />
<polygon fill="#768c75" fill-opacity="0.501961" points="117,108 132,99 117,101" />
<polygon fill="#decfaf" fill-opacity="0.501961" points="203,68 205,81 195,68" />
<polygon fill="#474a76" fill-opacity="0.501961" points="167,55 169,60 172,52" />
<polygon fill="#cdcbbc" fill-opacity="0.501961" points="61,28 54,43 53,36" />
<polygon fill="#aba98f" fill-opacity="0.501961" points="71,102 85,95 75,119" />
<polygon fill="#5e78c3" fill-opacity="0.501961" points="183,45 190,64 173,43" />
<polygon fill="#645049" fill-opacity="0.501961" points="80,62 85,55 85,63" />
<polygon fill="#958b74" fill-opacity="0.501961" points="55,52 56,60 52,65" />
<polygon fill="#deecda" fill-opacity="0.501961" points="90,58 86,59 93,48" />
<polygon fill="#77705f" fill-opacity="0.501961" points="156,114 149,103 152,113" />
<polygon fill="#c6b89a" fill-opacity="0.501961" points="237,79 215,72 231,70" />
<polygon fill="#353736" fill-opacity="0.501961" points="22,-12 31,-16 22,16" />
<polygon fill="#e5e6dd" fill-opacity="0.501961" points="78,69 71,72 56,59" />
<polygon fill="#dfe5d2" fill-opacity="0.501961" points="97,64 98,60 95,63" />
<polygon fill="#614659" fill-opacity="0.501961" points="30,52 36,53 42,61" />
<polygon fill="#2e2627" fill-opacity="0.501961" points="239,129 223,120 233,121" />
<polygon fill="#2e2b25" fill-opacity="0.501961" points="182,123 164,137 174,113" />
<polygon fill="#584d42" fill-opacity="0.501961" points="73,50 67,49 70,51" />
<polygon fill="#cfc6b0" fill-opacity="0.501961" points="98,79 97,71 106,60" />
<polygon fill="#696750" fill-opacity="0.501961" points="9,122 37,144 4,92" />
<polygon fill="#949173" fill-opacity="0.501961" points="178,104 146,114 162,122" />
<polygon fill="#cfdde2" fill-opacity="0.501961" points="47,109 34,119 37,96" />
<polygon fill="#5a7f52" fill-opacity="0.501961" points="118,114 112,125 116,105" />
<polygon fill="#aa6c65" fill-opacity="0.501961" points="84,29 76,37 102,49" />
<polygon fill="#969b81" fill-opacity="0.501961" points="140,122 135,134 135,120" />
<polygon fill="#d0cdbe" fill-opacity="0.501961" points="43,61 40,37 49,43" />
<polygon fill="#e7f6eb" fill-opacity="0.501961" points="176,30 194,23 189,31" />
<polygon fill="#737260" fill-opacity="0.501961" points="1,57 -4,112 -16,85" />
<polygon fill="#464968" fill-opacity="0.501961" points="195,67 198,75 184,63" />
<polygon fill="#dcebf1" fill-opacity="0.501961" points="56,115 54,125 58,127" />
<polygon fill="#42583a" fill-opacity="0.501961" points="237,45 248,66 243,74" />
<polygon fill="#41444a" fill-opacity="0.501961" points="140,-9 107,-16 133,101" />
<polygon fill="#497089" fill-opacity="0.501961" points="143,67 137,86 137,76" />
<polygon fill="#596576" fill-opacity="0.501961" points="37,81 62,91 61,110" />
<polygon fill="#eff4f7" fill-opacity="0.501961" points="102,-9 99,5 108,23" />
<polygon fill="#433b2a" fill-opacity="0.501961" points="70,107 65,111 63,89" />
<polygon fill="#4d889c" fill-opacity="0.501961" points="108,14 100,-16 109,-7" />
<polygon fill="#2a1d39" fill-opacity="0.501961" points="143,159 136,133 131,158" />
<polygon fill="#172737" fill-opacity="0.501961" points="58,105 54,113 55,103" />
<polygon fill="#6b6a5b" fill-opacity="0.501961" points="53,23 54,26 49,29" />
<polygon fill="#627478" fill-opacity="0.501961" points="204,159 207,137 221,140" />
<polygon fill="#c3d6ee" fill-opacity="0.501961" points="174,93 180,94 173,90" />
<polygon fill="#34322d" fill-opacity="0.501961" points="46,77 30,85 44,70" />
<polygon fill="#adccbb" fill-opacity="0.501961" points="185,23 178,28 177,11" />
<polygon fill="#54859c" fill-opacity="0.501961" points="114,49 119,71 121,54" />
<polygon fill="#7ebea2" fill-opacity="0.501961" points="56,6 51,-16 76,7" />
<polygon fill="#8bb37a" fill-opacity="0.501961" points="241,56 240,51 256,47" />
<polygon fill="#70ab73" fill-opacity="0.501961" points="34,26 24,10 28,-1" />
<polygon fill="#d9e5d3" fill-opacity="0.501961" points="62,28 67,31 74,27" />
<polygon fill="#5f6268" fill-opacity="0.501961" points="63,117 59,107 58,120" />
<polygon fill="#575e64" fill-opacity="0.501961" points="129,22 113,26 116,42" />
<polygon fill="#90ba9f" fill-opacity="0.501961" points="123,93 126,102 134,93" />
<polygon fill="#4e5b64" fill-opacity="0.501961" points="136,29 156,-4 140,70" />
<polygon fill="#eeedec" fill-opacity="0.501961" points="113,75 117,62 121,94" />
<polygon fill="#dddbcd" fill-opacity="0.501961" points="77,51 87,80 70,86" />
</g>
</svg>