<svg xmlns="http://www.w3.org/2000/svg" version="1.1" width="1024" height="576">
<rect x="0" y="0" width="1024" height="576" fill="#4f504e" />
<g transform="scale(4.000000) translate(0.5 0.5)">
<polygon fill="#a09f97" fill-opacity="0.501961" points="155,113 -16,1 192,-16" />
<polygon fill="#120f0d" fill-opacity="0.501961" points="4,159 -16,85 270,138" />
<polygon fill="#1e1e22" fill-opacity="0.501961" points="268,154 264,22 92,159" />
<polygon fill="#b0b7c0" fill-opacity="0.501961" points="148,-13 -16,-10 -16,36" />
<polygon fill="#0b1115" fill-opacity="0.501961" points="183,-6 212,40 271,1" />
<polygon fill="#2d2d34" fill-opacity="0.501961" points="175,8 108,2 189,50" />
<polygon fill="#5f5d54" fill-opacity="0.501961" points="35,12 164,128 65,131" />
<polygon fill="#1f1f21" fill-opacity="0.501961" points="73,39 7,159 -16,62" />
<polygon fill="#908e7d" fill-opacity="0.501961" points="73,68 133,116 149,19" />
<polygon fill="#1e1d20" fill-opacity="0.501961" points="271,154 156,136 176,70" />
<polygon fill="#000000" fill-opacity="0.501961" points="130,15 116,22 107,37" />
<polygon fill="#a1aaae" fill-opacity="0.501961" points="170,34 139,-7 150,-16" />
<polygon fill="#54575b" fill-opacity="0.501961" points="271,57 152,12 169,72" />
<polygon fill="#585d64" fill-opacity="0.501961" points="51,-8 31,40 52,61" />
<polygon fill="#615e54" fill-opacity="0.501961" points="149,129 69,107 175,85" />
<polygon fill="#434243" fill-opacity="0.501961" points="70,-1 103,40 115,29" />
<polygon fill="#b2bcc6" fill-opacity="0.501961" points="112,24 55,-10 82,-16" />
<polygon fill="#161418" fill-opacity="0.501961" points="123,17 156,19 144,5" />
<polygon fill="#c2c8cf" fill-opacity="0.501961" points="42,-15 45,11 -16,4" />
<polygon fill="#70767e" fill-opacity="0.501961" points="-16,55 54,20 7,16" />
<polygon fill="#a8a38e" fill-opacity="0.501961" points="102,35 55,22 47,-10" />
<polygon fill="#19181b" fill-opacity="0.501961" points="9,97 104,149 -8,159" />
<polygon fill="#414343" fill-opacity="0.501961" points="81,65 -15,71 53,28" />
<polygon fill="#46494d" fill-opacity="0.501961" points="216,111 258,39 172,65" />
<polygon fill="#28272c" fill-opacity="0.501961" points="169,27 156,-14 186,31" />
<polygon fill="#88919d" fill-opacity="0.501961" points="150,-16 197,30 181,-16" />
<polygon fill="#6b685e" fill-opacity="0.501961" points="96,104 101,59 54,25" />
<polygon fill="#3c383b" fill-opacity="0.501961" points="119,21 85,-8 94,-16" />
<polygon fill="#c5d1db" fill-opacity="0.501961" points="100,-14 125,-9 136,9" />
<polygon fill="#72716a" fill-opacity="0.501961" points="189,20 163,101 160,42" />
<polygon fill="#979385" fill-opacity="0.501961" points="96,52 161,86 131,18" />
<polygon fill="#48473f" fill-opacity="0.501961" points="61,126 29,103 74,50" />
<polygon fill="#343239" fill-opacity="0.501961" points="134,12 167,35 132,-16" />
<polygon fill="#2b2b2f" fill-opacity="0.501961" points="171,55 176,117 230,159" />
<polygon fill="#0b0709" fill-opacity="0.501961" points="234,159 214,129 271,132" />
<polygon fill="#6a6f74" fill-opacity="0.501961" points="14,20 56,65 44,38" />
<polygon fill="#65696c" fill-opacity="0.501961" points="185,45 197,89 158,39" />
<polygon fill="#242323" fill-opacity="0.501961" points="1,96 14,116 78,55" />
<polygon fill="#181b1d" fill-opacity="0.501961" points="262,62 223,62 269,83" />
<polygon fill="#5c534e" fill-opacity="0.501961" points="75,13 54,-16 39,-16" />
<polygon fill="#313545" fill-opacity="0.501961" points="160,12 171,8 154,-16" />
<polygon fill="#878c8a" fill-opacity="0.501961" points="113,26 120,17 86,11" />
<polygon fill="#282727" fill-opacity="0.501961" points="35,81 18,38 39,65" />
<polygon fill="#3e4041" fill-opacity="0.501961" points="231,131 245,84 183,41" />
<polygon fill="#898576" fill-opacity="0.501961" points="166,56 137,105 142,16" />
<polygon fill="#65645c" fill-opacity="0.501961" points="51,76 137,119 80,60" />
<polygon fill="#868d92" fill-opacity="0.501961" points="44,7 31,7 52,36" />
<polygon fill="#2c2c31" fill-opacity="0.501961" points="159,22 163,40 141,8" />
<polygon fill="#403630" fill-opacity="0.501961" points="45,0 50,-3 52,18" />
<polygon fill="#4f4e47" fill-opacity="0.501961" points="141,132 87,136 169,95" />
<polygon fill="#221f1f" fill-opacity="0.501961" points="116,147 163,159 188,103" />
<polygon fill="#5b6064" fill-opacity="0.501961" points="22,54 -16,1 7,63" />
<polygon fill="#353530" fill-opacity="0.501961" points="109,126 60,152 47,116" />
<polygon fill="#5d6368" fill-opacity="0.501961" points="173,8 221,43 193,49" />
<polygon fill="#1c191a" fill-opacity="0.501961" points="127,19 113,14 122,22" />
<polygon fill="#24272b" fill-opacity="0.501961" points="213,46 233,47 250,37" />
<polygon fill="#404140" fill-opacity="0.501961" points="212,130 222,159 183,108" />
<polygon fill="#7d796d" fill-opacity="0.501961" points="84,64 54,30 105,26" />
<polygon fill="#262529" fill-opacity="0.501961" points="43,56 21,28 28,46" />
<polygon fill="#423b3f" fill-opacity="0.501961" points="116,-8 102,-3 120,7" />
<polygon fill="#282728" fill-opacity="0.501961" points="55,42 57,56 42,30" />
<polygon fill="#767267" fill-opacity="0.501961" points="132,106 167,47 172,85" />
<polygon fill="#57595c" fill-opacity="0.501961" points="208,56 271,35 245,54" />
<polygon fill="#3a3637" fill-opacity="0.501961" points="95,17 79,16 108,27" />
<polygon fill="#a8b3bd" fill-opacity="0.501961" points="108,6 93,-11 103,-16" />
<polygon fill="#1b1615" fill-opacity="0.501961" points="101,151 72,136 141,137" />
<polygon fill="#202525" fill-opacity="0.501961" points="193,13 200,28 205,-16" />
<polygon fill="#797c74" fill-opacity="0.501961" points="165,13 168,41 155,10" />
<polygon fill="#606361" fill-opacity="0.501961" points="65,64 44,56 30,28" />
<polygon fill="#252323" fill-opacity="0.501961" points="38,91 37,124 4,63" />
<polygon fill="#4c5054" fill-opacity="0.501961" points="206,53 256,27 205,35" />
<polygon fill="#4c4b45" fill-opacity="0.501961" points="124,128 50,77 34,100" />
<polygon fill="#2e2e2c" fill-opacity="0.501961" points="12,50 27,96 44,97" />
<polygon fill="#5e6469" fill-opacity="0.501961" points="265,18 235,28 256,10" />
<polygon fill="#494e51" fill-opacity="0.501961" points="24,97 -1,60 -5,73" />
<polygon fill="#41392f" fill-opacity="0.501961" points="167,18 174,25 160,31" />
<polygon fill="#2f2c2a" fill-opacity="0.501961" points="40,67 77,56 70,67" />
<polygon fill="#484941" fill-opacity="0.501961" points="175,135 167,159 202,151" />
<polygon fill="#68685b" fill-opacity="0.501961" points="42,68 33,54 52,70" />
<polygon fill="#4c453c" fill-opacity="0.501961" points="98,39 112,37 106,25" />
<polygon fill="#c9d3d8" fill-opacity="0.501961" points="64,-16 46,-12 70,4" />
<polygon fill="#9da5ab" fill-opacity="0.501961" points="161,21 154,-7 137,-13" />
<polygon fill="#393a43" fill-opacity="0.501961" points="99,2 113,8 121,20" />
<polygon fill="#090607" fill-opacity="0.501961" points="37,96 34,90 43,77" />
<polygon fill="#35373b" fill-opacity="0.501961" points="201,100 194,56 212,65" />
<polygon fill="#474a4c" fill-opacity="0.501961" points="223,103 252,95 195,69" />
<polygon fill="#333233" fill-opacity="0.501961" points="70,54 54,32 58,46" />
<polygon fill="#181719" fill-opacity="0.501961" points="45,128 63,159 -16,111" />
<polygon fill="#919084" fill-opacity="0.501961" points="137,22 145,82 112,69" />
<polygon fill="#979685" fill-opacity="0.501961" points="112,2 125,15 120,19" />
<polygon fill="#c1bdaf" fill-opacity="0.501961" points="51,11 54,-4 62,7" />
<polygon fill="#686d73" fill-opacity="0.501961" points="44,13 58,47 46,32" />
<polygon fill="#615e57" fill-opacity="0.501961" points="170,92 106,111 154,119" />
<polygon fill="#131110" fill-opacity="0.501961" points="123,20 138,9 145,13" />
<polygon fill="#3a3830" fill-opacity="0.501961" points="256,95 264,133 212,125" />
<polygon fill="#131516" fill-opacity="0.501961" points="256,84 255,6 269,54" />
<polygon fill="#4a4c4f" fill-opacity="0.501961" points="142,17 142,26 133,16" />
<polygon fill="#3f3e40" fill-opacity="0.501961" points="-15,102 18,120 -5,93" />
<polygon fill="#707478" fill-opacity="0.501961" points="-16,27 34,23 6,37" />
<polygon fill="#807d70" fill-opacity="0.501961" points="106,70 92,52 108,36" />
<polygon fill="#6f726f" fill-opacity="0.501961" points="158,51 172,28 183,42" />
<polygon fill="#a0a6a9" fill-opacity="0.501961" points="96,18 110,14 78,-4" />
<polygon fill="#535659" fill-opacity="0.501961" points="193,64 202,98 180,69" />
<polygon fill="#232225" fill-opacity="0.501961" points="211,159 174,84 157,120" />
<polygon fill="#9aa0a4" fill-opacity="0.501961" points="123,-1 136,11 133,3" />
<polygon fill="#828175" fill-opacity="0.501961" points="89,52 105,28 92,22" />
<polygon fill="#464347" fill-opacity="0.501961" points="113,5 131,14 105,-16" />
<polygon fill="#aaa89b" fill-opacity="0.501961" points="61,3 79,16 61,15" />
<polygon fill="#2d2a28" fill-opacity="0.501961" points="169,18 178,24 182,33" />
<polygon fill="#797d82" fill-opacity="0.501961" points="186,21 188,5 172,8" />
<polygon fill="#525458" fill-opacity="0.501961" points="86,14 96,27 69,8" />
<polygon fill="#0e0c0d" fill-opacity="0.501961" points="255,84 256,132 271,84" />
<polygon fill="#9aa0a5" fill-opacity="0.501961" points="3,6 1,21 44,6" />
<polygon fill="#565b5f" fill-opacity="0.501961" points="18,44 29,71 9,45" />
<polygon fill="#909ba3" fill-opacity="0.501961" points="77,7 84,15 75,9" />
<polygon fill="#a1a8a9" fill-opacity="0.501961" points="43,12 50,19 44,2" />
<polygon fill="#75766b" fill-opacity="0.501961" points="129,74 108,100 138,102" />
<polygon fill="#3f3f3b" fill-opacity="0.501961" points="32,87 43,77 29,59" />
<polygon fill="#44433c" fill-opacity="0.501961" points="154,124 92,126 128,135" />
<polygon fill="#292d2d" fill-opacity="0.501961" points="206,33 184,-4 239,11" />
<polygon fill="#323235" fill-opacity="0.501961" points="64,57 45,42 37,19" />
<polygon fill="#515559" fill-opacity="0.501961" points="2,56 10,51 22,78" />
<polygon fill="#26262a" fill-opacity="0.501961" points="225,85 240,86 211,73" />
<polygon fill="#42413b" fill-opacity="0.501961" points="110,129 59,121 21,87" />
<polygon fill="#2b2928" fill-opacity="0.501961" points="30,46 45,64 62,67" />
<polygon fill="#949385" fill-opacity="0.501961" points="149,37 119,27 134,18" />
<polygon fill="#c4c8cd" fill-opacity="0.501961" points="6,-16 45,1 1,0" />
<polygon fill="#706e67" fill-opacity="0.501961" points="98,51 44,19 102,87" />
<polygon fill="#11100f" fill-opacity="0.501961" points="53,70 37,82 39,89" />
<polygon fill="#2f2d33" fill-opacity="0.501961" points="156,30 162,29 162,41" />
<polygon fill="#373a3e" fill-opacity="0.501961" points="231,39 215,37 242,30" />
<polygon fill="#201e22" fill-opacity="0.501961" points="186,99 198,118 231,115" />
<polygon fill="#100d0e" fill-opacity="0.501961" points="110,36 119,24 110,31" />
<polygon fill="#3d3f42" fill-opacity="0.501961" points="178,29 200,56 198,74" />
<polygon fill="#66655b" fill-opacity="0.501961" points="51,51 58,65 64,65" />
<polygon fill="#858376" fill-opacity="0.501961" points="60,35 98,32 56,20" />
<polygon fill="#393b48" fill-opacity="0.501961" points="73,2 88,12 79,9" />
<polygon fill="#353a39" fill-opacity="0.501961" points="199,12 234,0 200,27" />
<polygon fill="#939698" fill-opacity="0.501961" points="113,10 118,8 103,1" />
<polygon fill="#73797f" fill-opacity="0.501961" points="35,11 45,42 28,28" />
<polygon fill="#4b4d50" fill-opacity="0.501961" points="255,62 253,38 231,63" />
<polygon fill="#616057" fill-opacity="0.501961" points="59,46 72,56 66,60" />
<polygon fill="#4d4f52" fill-opacity="0.501961" points="245,72 204,58 226,73" />
<polygon fill="#2a2c2e" fill-opacity="0.501961" points="198,75 216,113 202,100" />
<polygon fill="#2a292f" fill-opacity="0.501961" points="179,113 194,89 172,62" />
<polygon fill="#565a5e" fill-opacity="0.501961" points="235,41 224,38 252,29" />
<polygon fill="#5c6164" fill-opacity="0.501961" points="190,53 173,48 201,66" />
<polygon fill="#0b0a0b" fill-opacity="0.501961" points="52,70 50,75 61,66" />
<polygon fill="#7e8386" fill-opacity="0.501961" points="112,18 95,15 113,28" />
<polygon fill="#87867a" fill-opacity="0.501961" points="153,34 142,18 148,49" />
<polygon fill="#56554e" fill-opacity="0.501961" points="61,69 46,80 107,113" />
<polygon fill="#3e3c3b" fill-opacity="0.501961" points="111,8 112,15 124,23" />
<polygon fill="#4a4740" fill-opacity="0.501961" points="109,99 111,108 100,94" />
<polygon fill="#9d9b86" fill-opacity="0.501961" points="167,14 162,20 162,14" />
<polygon fill="#2b2b2e" fill-opacity="0.501961" points="34,61 20,49 17,33" />
<polygon fill="#141313" fill-opacity="0.501961" points="175,129 203,159 243,159" />
<polygon fill="#2f2c2a" fill-opacity="0.501961" points="62,61 50,49 75,61" />
<polygon fill="#5b5f61" fill-opacity="0.501961" points="181,38 208,35 194,22" />
<polygon fill="#4f4e56" fill-opacity="0.501961" points="147,6 138,10 123,-16" />
<polygon fill="#212525" fill-opacity="0.501961" points="239,18 238,3 203,23" />
<polygon fill="#64686a" fill-opacity="0.501961" points="19,46 17,36 -14,32" />
<polygon fill="#35353a" fill-opacity="0.501961" points="180,20 183,35 166,12" />
<polygon fill="#575a5b" fill-opacity="0.501961" points="52,33 48,12 56,28" />
<polygon fill="#535b54" fill-opacity="0.501961" points="131,79 129,81 123,73" />
<polygon fill="#4b4f51" fill-opacity="0.501961" points="252,81 259,78 238,72" />
<polygon fill="#212022" fill-opacity="0.501961" points="9,107 27,93 44,107" />
<polygon fill="#675d52" fill-opacity="0.501961" points="65,5 46,-8 56,-16" />
<polygon fill="#3a393d" fill-opacity="0.501961" points="87,12 92,16 84,17" />
<polygon fill="#1e2023" fill-opacity="0.501961" points="6,62 4,64 0,55" />
<polygon fill="#868478" fill-opacity="0.501961" points="116,75 108,33 100,61" />
<polygon fill="#2e3033" fill-opacity="0.501961" points="206,57 217,57 229,66" />
<polygon fill="#565a66" fill-opacity="0.501961" points="74,3 66,-12 52,-16" />
<polygon fill="#6f6f6c" fill-opacity="0.501961" points="165,62 163,27 177,33" />
<polygon fill="#323331" fill-opacity="0.501961" points="28,138 11,133 26,159" />
<polygon fill="#575d60" fill-opacity="0.501961" points="249,17 244,36 255,31" />
<polygon fill="#404043" fill-opacity="0.501961" points="147,25 163,27 149,13" />
<polygon fill="#7a8d85" fill-opacity="0.501961" points="126,81 121,74 105,93" />
<polygon fill="#6b7075" fill-opacity="0.501961" points="188,15 178,0 185,37" />
<polygon fill="#252321" fill-opacity="0.501961" points="194,128 141,147 156,121" />
<polygon fill="#94999f" fill-opacity="0.501961" points="191,-4 171,5 158,-16" />
<polygon fill="#4c4e50" fill-opacity="0.501961" points="215,86 231,85 197,72" />
<polygon fill="#9b9d93" fill-opacity="0.501961" points="125,13 120,16 110,6" />
<polygon fill="#161416" fill-opacity="0.501961" points="214,127 271,135 232,155" />
<polygon fill="#5a595a" fill-opacity="0.501961" points="75,10 70,4 64,4" />
<polygon fill="#3e3d38" fill-opacity="0.501961" points="202,128 260,99 233,125" />
<polygon fill="#474445" fill-opacity="0.501961" points="102,4 96,2 94,-5" />
<polygon fill="#19181a" fill-opacity="0.501961" points="151,11 150,14 139,10" />
<polygon fill="#262526" fill-opacity="0.501961" points="29,78 21,68 49,81" />
<polygon fill="#8d8b7f" fill-opacity="0.501961" points="152,58 135,21 131,87" />
<polygon fill="#5c584f" fill-opacity="0.501961" points="96,69 101,66 95,60" />
<polygon fill="#b5b9bd" fill-opacity="0.501961" points="63,-16 83,6 116,-16" />
<polygon fill="#79766c" fill-opacity="0.501961" points="91,65 100,96 104,67" />
<polygon fill="#2e2f34" fill-opacity="0.501961" points="225,77 209,65 242,78" />
<polygon fill="#8d8f8b" fill-opacity="0.501961" points="100,9 117,21 103,22" />
<polygon fill="#4f4e48" fill-opacity="0.501961" points="128,16 135,18 125,10" />
<polygon fill="#414449" fill-opacity="0.501961" points="197,31 188,26 202,29" />
<polygon fill="#343536" fill-opacity="0.501961" points="101,151 78,156 47,127" />
<polygon fill="#84898d" fill-opacity="0.501961" points="33,14 38,27 -11,17" />
<polygon fill="#45453f" fill-opacity="0.501961" points="153,115 153,124 141,133" />
<polygon fill="#8f8d81" fill-opacity="0.501961" points="110,70 119,26 132,76" />
<polygon fill="#a2a7ad" fill-opacity="0.501961" points="152,6 156,-4 122,-16" />
<polygon fill="#535758" fill-opacity="0.501961" points="230,31 191,52 204,37" />
<polygon fill="#40424c" fill-opacity="0.501961" points="158,4 154,-16 173,13" />
<polygon fill="#28272c" fill-opacity="0.501961" points="193,53 197,60 207,62" />
<polygon fill="#62666a" fill-opacity="0.501961" points="40,51 26,34 41,31" />
<polygon fill="#403f38" fill-opacity="0.501961" points="82,119 74,134 130,136" />
<polygon fill="#242529" fill-opacity="0.501961" points="8,94 15,93 1,80" />
<polygon fill="#5a5851" fill-opacity="0.501961" points="49,70 44,63 46,72" />
<polygon fill="#6b7075" fill-opacity="0.501961" points="21,23 16,26 25,44" />
<polygon fill="#6d6a60" fill-opacity="0.501961" points="162,102 170,74 131,107" />
<polygon fill="#302e2c" fill-opacity="0.501961" points="79,56 65,60 69,66" />
<polygon fill="#33343a" fill-opacity="0.501961" points="216,38 222,35 210,37" />
<polygon fill="#2c2a2e" fill-opacity="0.501961" points="175,83 153,132 179,111" />
<polygon fill="#696860" fill-opacity="0.501961" points="70,69 82,51 100,97" />
<polygon fill="#62676b" fill-opacity="0.501961" points="158,17 188,51 178,65" />
<polygon fill="#161516" fill-opacity="0.501961" points="13,159 11,136 -16,119" />
<polygon fill="#828074" fill-opacity="0.501961" points="115,94 149,91 167,59" />
<polygon fill="#45464d" fill-opacity="0.501961" points="184,21 196,28 189,28" />
<polygon fill="#616363" fill-opacity="0.501961" points="108,18 113,27 108,32" />
<polygon fill="#9d9b8f" fill-opacity="0.501961" points="82,18 62,7 58,20" />
<polygon fill="#1c1a20" fill-opacity="0.501961" points="271,88 256,89 239,78" />
<polygon fill="#4f5154" fill-opacity="0.501961" points="200,99 197,77 183,70" />
<polygon fill="#525149" fill-opacity="0.501961" points="29,50 41,66 54,69" />
<polygon fill="#222225" fill-opacity="0.501961" points="263,92 239,87 256,96" />
<polygon fill="#a8afb3" fill-opacity="0.501961" points="53,-8 70,5 70,-12" />
<polygon fill="#4a4d4f" fill-opacity="0.501961" points="218,71 235,78 227,79" />
<polygon fill="#575456" fill-opacity="0.501961" points="51,1 49,14 45,-1" />
<polygon fill="#25292b" fill-opacity="0.501961" points="258,29 269,34 234,46" />
<polygon fill="#2b3030" fill-opacity="0.501961" points="233,28 228,-3 249,15" />
<polygon fill="#1f1d1d" fill-opacity="0.501961" points="119,147 58,128 86,147" />
<polygon fill="#3b3d4b" fill-opacity="0.501961" points="137,11 126,11 124,6" />
<polygon fill="#65686d" fill-opacity="0.501961" points="195,31 185,24 186,38" />
<polygon fill="#7e8387" fill-opacity="0.501961" points="181,10 177,-16 174,9" />
<polygon fill="#b1b6bb" fill-opacity="0.501961" points="31,2 1,11 2,0" />
<polygon fill="#323435" fill-opacity="0.501961" points="206,108 236,111 207,100" />
<polygon fill="#6a6a61" fill-opacity="0.501961" points="112,107 125,101 100,84" />
<polygon fill="#4d4f54" fill-opacity="0.501961" points="113,9 116,18 118,14" />
<polygon fill="#4e4e46" fill-opacity="0.501961" points="25,76 34,80 34,86" />
<polygon fill="#3e3d40" fill-opacity="0.501961" points="12,96 -16,61 -10,80" />
<polygon fill="#1e1d1e" fill-opacity="0.501961" points="-3,122 60,143 41,115" />
<polygon fill="#505355" fill-opacity="0.501961" points="242,54 218,48 270,44" />
<polygon fill="#2c2c31" fill-opacity="0.501961" points="61,41 53,33 59,44" />
<polygon fill="#3e3f46" fill-opacity="0.501961" points="160,6 161,14 167,2" />
<polygon fill="#343433" fill-opacity="0.501961" points="206,120 232,159 203,159" />
<polygon fill="#262523" fill-opacity="0.501961" points="43,68 34,62 47,77" />
<polygon fill="#1a1819" fill-opacity="0.501961" points="119,18 124,19 115,29" />
<polygon fill="#858274" fill-opacity="0.501961" points="151,43 157,40 152,26" />
<polygon fill="#817e73" fill-opacity="0.501961" points="105,43 69,21 102,65" />
<polygon fill="#4b4d50" fill-opacity="0.501961" points="207,76 196,68 199,64" />
<polygon fill="#464b4c" fill-opacity="0.501961" points="1,53 -16,56 -3,-1" />
<polygon fill="#979488" fill-opacity="0.501961" points="68,19 50,5 57,25" />
<polygon fill="#313237" fill-opacity="0.501961" points="145,28 139,22 141,21" />
<polygon fill="#898f9e" fill-opacity="0.501961" points="140,1 131,-16 128,-7" />
<polygon fill="#423a32" fill-opacity="0.501961" points="175,29 165,26 172,20" />
<polygon fill="#4a4942" fill-opacity="0.501961" points="42,79 43,72 29,61" />
<polygon fill="#606569" fill-opacity="0.501961" points="59,46 52,41 50,31" />
<polygon fill="#777c7d" fill-opacity="0.501961" points="-1,-8 -16,9 2,28" />
<polygon fill="#93999c" fill-opacity="0.501961" points="42,12 45,22 34,10" />
<polygon fill="#3e4143" fill-opacity="0.501961" points="205,106 251,105 208,82" />
<polygon fill="#4a4943" fill-opacity="0.501961" points="48,80 88,113 38,97" />
<polygon fill="#29292c" fill-opacity="0.501961" points="226,46 247,37 236,46" />
<polygon fill="#28272b" fill-opacity="0.501961" points="178,105 176,88 213,102" />
<polygon fill="#272727" fill-opacity="0.501961" points="22,72 48,78 37,82" />
<polygon fill="#aca99d" fill-opacity="0.501961" points="54,14 67,9 50,4" />
<polygon fill="#222125" fill-opacity="0.501961" points="25,79 25,69 15,58" />
<polygon fill="#2a2a2b" fill-opacity="0.501961" points="271,115 236,97 269,104" />
<polygon fill="#60626a" fill-opacity="0.501961" points="77,4 65,-4 60,-16" />
<polygon fill="#4e5053" fill-opacity="0.501961" points="197,51 242,53 220,60" />
<polygon fill="#7c796f" fill-opacity="0.501961" points="152,40 157,87 168,52" />
<polygon fill="#191718" fill-opacity="0.501961" points="128,17 142,9 149,13" />
<polygon fill="#161717" fill-opacity="0.501961" points="62,64 68,64 56,71" />
<polygon fill="#3d3f41" fill-opacity="0.501961" points="203,135 190,115 200,123" />
<polygon fill="#535757" fill-opacity="0.501961" points="45,57 32,42 59,57" />
<polygon fill="#36383b" fill-opacity="0.501961" points="176,71 169,57 177,64" />
<polygon fill="#3f3e43" fill-opacity="0.501961" points="160,28 152,11 144,19" />
<polygon fill="#37393c" fill-opacity="0.501961" points="248,57 235,56 259,51" />
<polygon fill="#242828" fill-opacity="0.501961" points="195,17 184,-10 222,-7" />
<polygon fill="#3f454c" fill-opacity="0.501961" points="50,29 48,23 55,32" />
<polygon fill="#5b5b53" fill-opacity="0.501961" points="81,53 67,59 64,54" />
<polygon fill="#78756c" fill-opacity="0.501961" points="113,99 166,77 147,96" />
<polygon fill="#73776d" fill-opacity="0.501961" points="107,91 122,75 99,85" />
<polygon fill="#8b897d" fill-opacity="0.501961" points="148,27 109,68 112,36" />
<polygon fill="#83888c" fill-opacity="0.501961" points="193,19 187,3 175,-3" />
<polygon fill="#3e3d37" fill-opacity="0.501961" points="77,118 76,133 31,105" />
<polygon fill="#4b4a4d" fill-opacity="0.501961" points="77,4 96,18 90,24" />
<polygon fill="#565654" fill-opacity="0.501961" points="54,62 66,63 60,65" />
<polygon fill="#5e6364" fill-opacity="0.501961" points="187,62 168,53 187,75" />
<polygon fill="#858b8f" fill-opacity="0.501961" points="172,4 176,5 177,15" />
<polygon fill="#514d4c" fill-opacity="0.501961" points="101,7 96,0 105,4" />
<polygon fill="#161817" fill-opacity="0.501961" points="241,70 233,66 242,65" />
<polygon fill="#575b5d" fill-opacity="0.501961" points="196,23 219,54 194,48" />
<polygon fill="#201f21" fill-opacity="0.501961" points="217,159 181,104 186,132" />
<polygon fill="#868579" fill-opacity="0.501961" points="101,37 83,19 56,26" />
<polygon fill="#69665e" fill-opacity="0.501961" points="172,82 165,97 161,89" />
<polygon fill="#312d26" fill-opacity="0.501961" points="67,52 70,53 66,49" />
<polygon fill="#6f7991" fill-opacity="0.501961" points="60,-3 62,-16 48,0" />
<polygon fill="#6f716b" fill-opacity="0.501961" points="178,30 165,45 169,29" />
<polygon fill="#1e1d20" fill-opacity="0.501961" points="19,116 -16,83 12,96" />
<polygon fill="#838478" fill-opacity="0.501961" points="164,14 159,13 165,25" />
<polygon fill="#929083" fill-opacity="0.501961" points="140,31 116,32 133,18" />
<polygon fill="#3d4042" fill-opacity="0.501961" points="200,121 189,111 196,125" />
<polygon fill="#55595b" fill-opacity="0.501961" points="229,43 245,32 215,41" />
<polygon fill="#82888b" fill-opacity="0.501961" points="40,10 48,12 53,27" />
<polygon fill="#7d796f" fill-opacity="0.501961" points="102,85 90,59 114,80" />
<polygon fill="#272a2d" fill-opacity="0.501961" points="196,72 197,67 191,59" />
<polygon fill="#221f1c" fill-opacity="0.501961" points="161,125 130,153 114,142" />
<polygon fill="#5c574c" fill-opacity="0.501961" points="146,18 137,15 144,15" />
<polygon fill="#53595b" fill-opacity="0.501961" points="21,50 19,55 19,46" />
<polygon fill="#b8bec3" fill-opacity="0.501961" points="-3,2 28,-16 28,3" />
<polygon fill="#5b5852" fill-opacity="0.501961" points="123,105 87,107 149,120" />
<polygon fill="#2f322f" fill-opacity="0.501961" points="102,97 103,93 107,102" />
<polygon fill="#423f37" fill-opacity="0.501961" points="97,61 97,66 99,66" />
<polygon fill="#272626" fill-opacity="0.501961" points="27,88 1,57 10,77" />
<polygon fill="#86877e" fill-opacity="0.501961" points="119,20 105,14 111,27" />
<polygon fill="#625749" fill-opacity="0.501961" points="120,8 107,-3 111,4" />
<polygon fill="#262529" fill-opacity="0.501961" points="201,101 158,138 182,100" />
<polygon fill="#a0a6aa" fill-opacity="0.501961" points="80,2 91,14 94,3" />
<polygon fill="#423d39" fill-opacity="0.501961" points="166,29 166,11 175,26" />
<polygon fill="#817f74" fill-opacity="0.501961" points="157,36 140,15 150,43" />
<polygon fill="#494a4e" fill-opacity="0.501961" points="225,74 215,75 202,65" />
<polygon fill="#4c4e52" fill-opacity="0.501961" points="212,64 205,53 194,53" />
<polygon fill="#717578" fill-opacity="0.501961" points="189,7 193,18 186,20" />
<polygon fill="#222125" fill-opacity="0.501961" points="206,111 186,106 205,124" />
<polygon fill="#888d82" fill-opacity="0.501961" points="127,79 122,84 112,66" />
<polygon fill="#5c6062" fill-opacity="0.501961" points="58,48 54,42 63,49" />
<polygon fill="#9fa4a8" fill-opacity="0.501961" points="6,13 32,9 -3,4" />
<polygon fill="#5b5d63" fill-opacity="0.501961" points="15,33 18,31 14,24" />
<polygon fill="#2a2b2f" fill-opacity="0.501961" points="205,70 218,81 218,76" />
<polygon fill="#2e2e33" fill-opacity="0.501961" points="187,90 165,103 179,71" />
<polygon fill="#5b5f61" fill-opacity="0.501961" points="185,32 201,39 218,35" />
<polygon fill="#393a35" fill-opacity="0.501961" points="165,156 210,159 178,135" />
<polygon fill="#3a3c3e" fill-opacity="0.501961" points="15,92 8,75 26,97" />
<polygon fill="#3f4243" fill-opacity="0.501961" points="228,73 256,91 237,85" />
<polygon fill="#8b897d" fill-opacity="0.501961" points="149,66 124,88 140,85" />
<polygon fill="#222528" fill-opacity="0.501961" points="203,29 205,24 197,22" />
<polygon fill="#8e8e80" fill-opacity="0.501961" points="101,27 93,23 103,33" />
<polygon fill="#2a2827" fill-opacity="0.501961" points="58,65 48,66 40,57" />
<polygon fill="#333236" fill-opacity="0.501961" points="181,43 186,41 189,47" />
<polygon fill="#65625b" fill-opacity="0.501961" points="163,98 136,112 115,107" />
<polygon fill="#67675e" fill-opacity="0.501961" points="60,39 79,52 73,55" />
<polygon fill="#676a6f" fill-opacity="0.501961" points="84,18 89,19 83,15" />
<polygon fill="#3f3e39" fill-opacity="0.501961" points="254,102 254,113 226,116" />
<polygon fill="#28292e" fill-opacity="0.501961" points="31,68 41,79 33,77" />
<polygon fill="#181618" fill-opacity="0.501961" points="215,128 230,159 233,128" />
<polygon fill="#414446" fill-opacity="0.501961" points="205,96 233,107 203,73" />
<polygon fill="#343535" fill-opacity="0.501961" points="59,138 46,123 75,141" />
<polygon fill="#313536" fill-opacity="0.501961" points="271,51 238,72 271,64" />
<polygon fill="#6b6e73" fill-opacity="0.501961" points="40,29 25,30 36,42" />
<polygon fill="#3e3b36" fill-opacity="0.501961" points="149,25 154,23 145,16" />
<polygon fill="#302f2a" fill-opacity="0.501961" points="243,130 256,133 251,121" />
</g>
</svg>