<svg xmlns="http://www.w3.org/2000/svg" version="1.1" width="1024" height="944">
<rect x="0" y="0" width="1024" height="944" fill="#d5dae1" />
<g transform="scale(4.000000) translate(0.5 0.5)">
<polygon fill="#1d79df" fill-opacity="0.501961" points="229,17 -9,16 110,-16" />
<polygon fill="#1a51a4" fill-opacity="0.501961" points="64,184 118,199 168,183" />
<polygon fill="#001f8a" fill-opacity="0.501961" points="11,189 46,179 83,190" />
<polygon fill="#ffffff" fill-opacity="0.501961" points="-16,192 191,189 80,226" />
<polygon fill="#fffffc" fill-opacity="0.501961" points="245,32 245,181 106,182" />
<polygon fill="#0a459b" fill-opacity="0.501961" points="248,190 196,175 149,190" />
<polygon fill="#fffff6" fill-opacity="0.501961" points="110,-16 179,4 39,3" />
<polygon fill="#1472dc" fill-opacity="0.501961" points="215,1 271,17 159,16" />
<polygon fill="#fffffc" fill-opacity="0.501961" points="224,183 229,151 164,183" />
<polygon fill="#fbf7f0" fill-opacity="0.501961" points="265,10 202,80 4,76" />
<polygon fill="#bcb7b1" fill-opacity="0.501961" points="167,107 75,81 212,79" />
<polygon fill="#213f5a" fill-opacity="0.501961" points="101,230 85,225 113,225" />
<polygon fill="#ebe7e1" fill-opacity="0.501961" points="-5,185 -16,53 124,179" />
<polygon fill="#5c6c7a" fill-opacity="0.501961" points="221,233 245,226 194,225" />
<polygon fill="#a8aeb0" fill-opacity="0.501961" points="198,230 104,229 193,203" />
<polygon fill="#fffffa" fill-opacity="0.501961" points="-16,222 111,190 182,225" />
<polygon fill="#3d5469" fill-opacity="0.501961" points="56,225 77,231 93,225" />
<polygon fill="#89949f" fill-opacity="0.501961" points="44,219 4,227 66,231" />
<polygon fill="#7775c9" fill-opacity="0.501961" points="86,19 55,27 116,28" />
<polygon fill="#fffffe" fill-opacity="0.501961" points="131,150 164,125 50,136" />
<polygon fill="#2378d8" fill-opacity="0.501961" points="5,4 5,21 27,5" />
<polygon fill="#cfcbc7" fill-opacity="0.501961" points="28,138 184,93 19,78" />
<polygon fill="#fffcf6" fill-opacity="0.501961" points="185,224 245,182 247,224" />
<polygon fill="#a3a2a2" fill-opacity="0.501961" points="96,148 35,149 55,161" />
<polygon fill="#4788cf" fill-opacity="0.501961" points="246,19 253,4 192,5" />
<polygon fill="#003e95" fill-opacity="0.501961" points="20,189 40,183 7,183" />
<polygon fill="#c7c4c2" fill-opacity="0.501961" points="168,164 106,147 230,147" />
<polygon fill="#fefcfa" fill-opacity="0.501961" points="190,184 233,152 125,152" />
<polygon fill="#f8f7f5" fill-opacity="0.501961" points="-12,162 -16,225 53,225" />
<polygon fill="#ffffff" fill-opacity="0.501961" points="271,228 140,232 205,251" />
<polygon fill="#002d8d" fill-opacity="0.501961" points="103,189 80,182 67,189" />
<polygon fill="#3587ed" fill-opacity="0.501961" points="58,21 111,6 37,6" />
<polygon fill="#002088" fill-opacity="0.501961" points="229,189 239,183 211,185" />
<polygon fill="#fffff9" fill-opacity="0.501961" points="79,1 146,-16 211,4" />
<polygon fill="#428cea" fill-opacity="0.501961" points="132,3 199,8 133,21" />
<polygon fill="#003591" fill-opacity="0.501961" points="155,181 177,189 127,188" />
<polygon fill="#fffffe" fill-opacity="0.501961" points="245,190 170,191 208,210" />
<polygon fill="#002789" fill-opacity="0.501961" points="97,183 121,186 101,189" />
<polygon fill="#003292" fill-opacity="0.501961" points="186,184 163,186 184,190" />
<polygon fill="#ffffff" fill-opacity="0.501961" points="1,50 7,-16 -12,-16" />
<polygon fill="#9f9e9e" fill-opacity="0.501961" points="117,56 91,63 138,63" />
<polygon fill="#ffffff" fill-opacity="0.501961" points="271,43 250,-16 254,94" />
<polygon fill="#ffffff" fill-opacity="0.501961" points="47,105 124,105 87,116" />
<polygon fill="#8d9291" fill-opacity="0.501961" points="249,155 243,179 250,203" />
<polygon fill="#8f8e82" fill-opacity="0.501961" points="248,89 254,66 247,44" />
<polygon fill="#8b9293" fill-opacity="0.501961" points="246,117 246,165 254,142" />
<polygon fill="#fffffb" fill-opacity="0.501961" points="55,62 8,50 96,48" />
<polygon fill="#8c9190" fill-opacity="0.501961" points="248,56 246,10 254,29" />
<polygon fill="#fffefc" fill-opacity="0.501961" points="117,158 163,184 50,166" />
<polygon fill="#6b706b" fill-opacity="0.501961" points="245,232 251,216 248,201" />
<polygon fill="#fffffd" fill-opacity="0.501961" points="62,251 -16,232 113,229" />
<polygon fill="#bdbbb9" fill-opacity="0.501961" points="30,130 84,111 117,132" />
<polygon fill="#fffff5" fill-opacity="0.501961" points="259,-16 256,4 186,3" />
<polygon fill="#a6a39f" fill-opacity="0.501961" points="116,160 149,148 92,148" />
<polygon fill="#758698" fill-opacity="0.501961" points="132,232 162,226 127,223" />
<polygon fill="#fbfbfb" fill-opacity="0.501961" points="1,132 99,131 31,150" />
<polygon fill="#afaba5" fill-opacity="0.501961" points="153,218 149,202 191,202" />
<polygon fill="#fffffa" fill-opacity="0.501961" points="86,4 69,-16 -4,1" />
<polygon fill="#fffcf8" fill-opacity="0.501961" points="186,113 92,114 139,100" />
<polygon fill="#a19f9e" fill-opacity="0.501961" points="51,64 77,64 51,55" />
<polygon fill="#f9f6f4" fill-opacity="0.501961" points="5,190 41,225 166,190" />
<polygon fill="#fffffb" fill-opacity="0.501961" points="271,121 252,175 251,51" />
<polygon fill="#001f89" fill-opacity="0.501961" points="188,188 206,184 211,189" />
<polygon fill="#c2c1bf" fill-opacity="0.501961" points="9,171 86,172 43,183" />
<polygon fill="#f6f5f2" fill-opacity="0.501961" points="147,183 129,147 244,181" />
<polygon fill="#302f2f" fill-opacity="0.501961" points="152,59 150,61 160,63" />
<polygon fill="#918c86" fill-opacity="0.501961" points="54,28 26,29 40,24" />
<polygon fill="#ffffff" fill-opacity="0.501961" points="31,183 39,175 66,181" />
<polygon fill="#00288c" fill-opacity="0.501961" points="125,190 116,184 137,184" />
<polygon fill="#8f9593" fill-opacity="0.501961" points="250,85 244,107 250,124" />
<polygon fill="#797878" fill-opacity="0.501961" points="186,63 185,57 200,61" />
<polygon fill="#5f758b" fill-opacity="0.501961" points="171,223 164,230 192,226" />
<polygon fill="#908e8d" fill-opacity="0.501961" points="165,39 129,39 147,44" />
<polygon fill="#aba6a0" fill-opacity="0.501961" points="135,124 159,113 165,124" />
<polygon fill="#5385c0" fill-opacity="0.501961" points="85,18 92,4 142,16" />
<polygon fill="#ffffff" fill-opacity="0.501961" points="123,20 162,34 118,34" />
<polygon fill="#ffffff" fill-opacity="0.501961" points="271,213 255,142 250,250" />
<polygon fill="#ffffff" fill-opacity="0.501961" points="43,103 16,111 72,114" />
<polygon fill="#b6b5b4" fill-opacity="0.501961" points="106,103 31,83 31,104" />
<polygon fill="#fffffd" fill-opacity="0.501961" points="150,228 132,251 52,238" />
<polygon fill="#a7a7a6" fill-opacity="0.501961" points="172,153 212,150 184,144" />
<polygon fill="#f4f5f5" fill-opacity="0.501961" points="246,205 244,83 194,49" />
<polygon fill="#ffffff" fill-opacity="0.501961" points="37,26 61,18 11,20" />
<polygon fill="#96918a" fill-opacity="0.501961" points="34,64 15,59 40,58" />
<polygon fill="#aaacad" fill-opacity="0.501961" points="21,131 56,115 22,114" />
<polygon fill="#a1adb6" fill-opacity="0.501961" points="5,196 12,236 3,218" />
<polygon fill="#beb9b2" fill-opacity="0.501961" points="60,32 28,43 94,43" />
<polygon fill="#a5a5a5" fill-opacity="0.501961" points="21,98 39,82 22,78" />
<polygon fill="#fffdf7" fill-opacity="0.501961" points="76,30 39,29 59,40" />
<polygon fill="#fdffff" fill-opacity="0.501961" points="197,225 191,216 169,225" />
<polygon fill="#faf8f7" fill-opacity="0.501961" points="87,221 144,225 152,200" />
<polygon fill="#bab6af" fill-opacity="0.501961" points="120,126 105,114 147,115" />
<polygon fill="#fffefe" fill-opacity="0.501961" points="54,173 100,160 14,159" />
<polygon fill="#74889b" fill-opacity="0.501961" points="36,232 49,224 9,224" />
<polygon fill="#00479b" fill-opacity="0.501961" points="240,183 236,190 222,187" />
<polygon fill="#a7a6a6" fill-opacity="0.501961" points="19,158 41,159 23,146" />
<polygon fill="#003994" fill-opacity="0.501961" points="36,189 61,188 45,183" />
<polygon fill="#9f9b95" fill-opacity="0.501961" points="6,37 35,40 17,43" />
<polygon fill="#faf9f7" fill-opacity="0.501961" points="30,62 -16,79 85,78" />
<polygon fill="#9290ff" fill-opacity="0.501961" points="169,22 135,20 150,27" />
<polygon fill="#878685" fill-opacity="0.501961" points="210,206 213,211 223,210" />
<polygon fill="#9b9b9c" fill-opacity="0.501961" points="70,175 91,167 96,176" />
<polygon fill="#fdfbfa" fill-opacity="0.501961" points="81,135 112,147 42,148" />
<polygon fill="#ffffff" fill-opacity="0.501961" points="60,178 85,184 97,177" />
<polygon fill="#003c96" fill-opacity="0.501961" points="66,189 81,184 56,185" />
<polygon fill="#758594" fill-opacity="0.501961" points="121,233 148,225 110,225" />
<polygon fill="#fff6e6" fill-opacity="0.501961" points="95,-16 142,3 23,4" />
<polygon fill="#93908b" fill-opacity="0.501961" points="15,28 29,24 41,29" />
<polygon fill="#f8f6f4" fill-opacity="0.501961" points="215,149 229,51 154,141" />
<polygon fill="#c3c2c2" fill-opacity="0.501961" points="66,58 102,59 75,67" />
<polygon fill="#f2f2f0" fill-opacity="0.501961" points="15,18 10,70 -15,75" />
<polygon fill="#00459a" fill-opacity="0.501961" points="22,188 39,184 53,189" />
<polygon fill="#194e9d" fill-opacity="0.501961" points="167,184 206,183 187,189" />
<polygon fill="#f5f0ec" fill-opacity="0.501961" points="175,251 100,229 172,230" />
<polygon fill="#f6f7f7" fill-opacity="0.501961" points="11,197 19,143 5,156" />
<polygon fill="#5c7395" fill-opacity="0.501961" points="233,155 241,155 233,159" />
<polygon fill="#f6f4f2" fill-opacity="0.501961" points="51,60 144,58 88,43" />
<polygon fill="#9d9c9c" fill-opacity="0.501961" points="178,60 165,65 165,58" />
<polygon fill="#438ee2" fill-opacity="0.501961" points="3,17 55,16 29,4" />
<polygon fill="#b2b2b3" fill-opacity="0.501961" points="148,94 118,103 183,104" />
<polygon fill="#acabab" fill-opacity="0.501961" points="66,159 101,158 80,153" />
<polygon fill="#ffffff" fill-opacity="0.501961" points="38,100 56,95 72,100" />
<polygon fill="#f5f6f7" fill-opacity="0.501961" points="149,83 143,104 133,98" />
<polygon fill="#f8f7f6" fill-opacity="0.501961" points="245,18 198,79 206,19" />
<polygon fill="#faf9f9" fill-opacity="0.501961" points="146,62 90,77 191,80" />
<polygon fill="#9d9aff" fill-opacity="0.501961" points="204,21 178,29 175,21" />
<polygon fill="#99999a" fill-opacity="0.501961" points="37,171 38,177 57,175" />
<polygon fill="#c3c9cd" fill-opacity="0.501961" points="243,45 238,34 203,36" />
<polygon fill="#fdfaf1" fill-opacity="0.501961" points="248,-7 271,6 254,70" />
<polygon fill="#ffffff" fill-opacity="0.501961" points="3,185 2,76 -16,145" />
<polygon fill="#706f6f" fill-opacity="0.501961" points="187,98 178,94 187,95" />
<polygon fill="#939393" fill-opacity="0.501961" points="144,57 132,61 140,65" />
<polygon fill="#f0f1f2" fill-opacity="0.501961" points="150,101 170,84 171,97" />
<polygon fill="#f7f6f5" fill-opacity="0.501961" points="156,172 112,158 73,172" />
<polygon fill="#bfc6cf" fill-opacity="0.501961" points="6,205 12,180 4,157" />
<polygon fill="#827d76" fill-opacity="0.501961" points="107,39 93,41 101,43" />
<polygon fill="#515150" fill-opacity="0.501961" points="220,152 219,147 215,150" />
<polygon fill="#a8a7a2" fill-opacity="0.501961" points="197,217 192,206 153,217" />
<polygon fill="#f4f5f2" fill-opacity="0.501961" points="205,27 143,27 192,47" />
<polygon fill="#ffffff" fill-opacity="0.501961" points="181,213 166,213 173,208" />
<polygon fill="#fefbf7" fill-opacity="0.501961" points="140,202 182,190 219,202" />
<polygon fill="#72706d" fill-opacity="0.501961" points="152,114 162,114 164,118" />
<polygon fill="#9a99b9" fill-opacity="0.501961" points="114,30 88,28 125,20" />
<polygon fill="#ecebe9" fill-opacity="0.501961" points="114,121 150,111 157,121" />
<polygon fill="#fefbf0" fill-opacity="0.501961" points="88,30 122,29 134,41" />
<polygon fill="#726d66" fill-opacity="0.501961" points="112,42 124,43 116,38" />
<polygon fill="#f7f9fc" fill-opacity="0.501961" points="26,225 7,174 6,225" />
<polygon fill="#ffffff" fill-opacity="0.501961" points="1,98 -16,39 3,-16" />
<polygon fill="#5a56ac" fill-opacity="0.501961" points="49,29 58,25 58,21" />
<polygon fill="#003f99" fill-opacity="0.501961" points="211,184 228,189 207,189" />
<polygon fill="#fef9f5" fill-opacity="0.501961" points="-7,232 43,229 76,251" />
<polygon fill="#c6cbd0" fill-opacity="0.501961" points="4,29 4,88 14,65" />
<polygon fill="#8b8d8e" fill-opacity="0.501961" points="136,153 149,151 138,148" />
<polygon fill="#ffffff" fill-opacity="0.501961" points="48,83 29,85 38,87" />
<polygon fill="#f7f7fa" fill-opacity="0.501961" points="8,89 16,66 6,34" />
<polygon fill="#4e9bf2" fill-opacity="0.501961" points="188,4 149,15 226,14" />
<polygon fill="#f3f3f3" fill-opacity="0.501961" points="138,151 215,182 90,182" />
<polygon fill="#f9f9fc" fill-opacity="0.501961" points="110,23 91,26 95,18" />
<polygon fill="#f0efef" fill-opacity="0.501961" points="91,101 92,86 75,99" />
<polygon fill="#fcfdfd" fill-opacity="0.501961" points="126,97 133,103 128,82" />
<polygon fill="#e9e9e9" fill-opacity="0.501961" points="45,152 64,158 81,153" />
<polygon fill="#777571" fill-opacity="0.501961" points="21,57 25,62 13,63" />
<polygon fill="#1956a2" fill-opacity="0.501961" points="104,190 123,184 143,190" />
<polygon fill="#768590" fill-opacity="0.501961" points="246,211 250,204 246,194" />
<polygon fill="#747474" fill-opacity="0.501961" points="167,84 161,80 176,81" />
<polygon fill="#fbf8f4" fill-opacity="0.501961" points="144,125 108,124 136,152" />
<polygon fill="#f8f8f8" fill-opacity="0.501961" points="68,171 22,172 4,155" />
<polygon fill="#fffcf5" fill-opacity="0.501961" points="3,17 12,25 26,19" />
<polygon fill="#b9b9ba" fill-opacity="0.501961" points="120,99 152,80 110,81" />
<polygon fill="#ffffff" fill-opacity="0.501961" points="39,116 28,120 53,121" />
<polygon fill="#ffffff" fill-opacity="0.501961" points="161,224 135,217 173,217" />
<polygon fill="#f9f9f8" fill-opacity="0.501961" points="92,80 43,63 150,65" />
<polygon fill="#8e8d8e" fill-opacity="0.501961" points="16,171 18,176 32,175" />
<polygon fill="#5c7289" fill-opacity="0.501961" points="43,224 50,229 59,226" />
<polygon fill="#647586" fill-opacity="0.501961" points="148,225 171,226 156,231" />
<polygon fill="#f3f4f5" fill-opacity="0.501961" points="55,224 74,199 24,225" />
<polygon fill="#ebebea" fill-opacity="0.501961" points="144,87 128,86 146,78" />
<polygon fill="#b1b1a7" fill-opacity="0.501961" points="117,10 127,14 136,9" />
<polygon fill="#979797" fill-opacity="0.501961" points="218,147 209,153 195,149" />
<polygon fill="#f3f2f1" fill-opacity="0.501961" points="173,190 95,224 36,190" />
<polygon fill="#fafaf9" fill-opacity="0.501961" points="192,148 174,147 209,133" />
<polygon fill="#fbf3e8" fill-opacity="0.501961" points="225,4 186,-16 130,3" />
<polygon fill="#f7f8f9" fill-opacity="0.501961" points="60,122 76,126 48,127" />
<polygon fill="#747474" fill-opacity="0.501961" points="185,87 175,88 185,92" />
<polygon fill="#acb8c4" fill-opacity="0.501961" points="3,122 8,129 6,144" />
<polygon fill="#e5e0dc" fill-opacity="0.501961" points="21,228 109,228 74,243" />
<polygon fill="#ffffff" fill-opacity="0.501961" points="107,89 99,76 111,85" />
<polygon fill="#4d667e" fill-opacity="0.501961" points="184,225 209,225 202,230" />
<polygon fill="#f0f3f9" fill-opacity="0.501961" points="6,75 7,154 22,98" />
<polygon fill="#7a7b7b" fill-opacity="0.501961" points="158,87 166,90 147,90" />
<polygon fill="#dfdcd9" fill-opacity="0.501961" points="126,228 180,228 154,236" />
<polygon fill="#a7a7a8" fill-opacity="0.501961" points="79,122 70,131 45,121" />
<polygon fill="#696969" fill-opacity="0.501961" points="167,148 164,152 161,150" />
<polygon fill="#a9a8a7" fill-opacity="0.501961" points="86,90 65,89 90,83" />
<polygon fill="#faf8f5" fill-opacity="0.501961" points="205,193 230,191 191,221" />
<polygon fill="#f2f3f4" fill-opacity="0.501961" points="59,122 49,116 77,119" />
<polygon fill="#01449a" fill-opacity="0.501961" points="100,184 80,185 96,189" />
<polygon fill="#9f9e9c" fill-opacity="0.501961" points="141,121 116,121 125,126" />
<polygon fill="#3d84d5" fill-opacity="0.501961" points="245,16 214,17 244,5" />
<polygon fill="#9fa7aa" fill-opacity="0.501961" points="7,116 5,94 2,111" />
<polygon fill="#f5f6f7" fill-opacity="0.501961" points="189,90 188,95 171,92" />
<polygon fill="#faf9f7" fill-opacity="0.501961" points="179,129 175,105 154,104" />
<polygon fill="#ffffff" fill-opacity="0.501961" points="0,150 6,251 -16,225" />
<polygon fill="#787878" fill-opacity="0.501961" points="159,61 148,64 153,59" />
<polygon fill="#7f80d7" fill-opacity="0.501961" points="91,27 64,19 72,28" />
<polygon fill="#fffffb" fill-opacity="0.501961" points="37,27 12,35 40,34" />
<polygon fill="#f5f2f0" fill-opacity="0.501961" points="26,61 41,40 61,55" />
<polygon fill="#fefefd" fill-opacity="0.501961" points="-16,114 1,175 4,94" />
<polygon fill="#7a7b7b" fill-opacity="0.501961" points="72,60 59,61 61,64" />
<polygon fill="#fffefc" fill-opacity="0.501961" points="38,41 46,31 44,22" />
<polygon fill="#a4b5c7" fill-opacity="0.501961" points="230,44 239,35 238,47" />
<polygon fill="#f9f9f8" fill-opacity="0.501961" points="80,126 70,129 57,123" />
<polygon fill="#b2b1b1" fill-opacity="0.501961" points="109,99 92,97 101,80" />
<polygon fill="#f0f0f1" fill-opacity="0.501961" points="227,151 147,156 216,182" />
<polygon fill="#898989" fill-opacity="0.501961" points="56,156 54,160 39,155" />
<polygon fill="#5b6e81" fill-opacity="0.501961" points="21,230 29,225 3,225" />
<polygon fill="#878686" fill-opacity="0.501961" points="73,132 74,127 61,130" />
<polygon fill="#ffffff" fill-opacity="0.501961" points="102,35 83,29 67,34" />
<polygon fill="#92abc0" fill-opacity="0.501961" points="97,13 87,5 120,11" />
<polygon fill="#0f499a" fill-opacity="0.501961" points="14,183 26,184 14,190" />
<polygon fill="#ffffff" fill-opacity="0.501961" points="53,182 34,175 8,182" />
<polygon fill="#708291" fill-opacity="0.501961" points="249,66 246,59 247,75" />
<polygon fill="#f0f0f1" fill-opacity="0.501961" points="110,160 70,172 34,158" />
<polygon fill="#9fa0a2" fill-opacity="0.501961" points="201,79 196,91 189,90" />
<polygon fill="#ffffff" fill-opacity="0.501961" points="164,85 156,87 147,84" />
<polygon fill="#f0f2f3" fill-opacity="0.501961" points="195,38 230,37 247,111" />
<polygon fill="#848586" fill-opacity="0.501961" points="171,95 176,93 185,99" />
<polygon fill="#f9fbfc" fill-opacity="0.501961" points="16,168 6,163 8,196" />
<polygon fill="#f8f6f6" fill-opacity="0.501961" points="190,98 210,112 168,97" />
<polygon fill="#f9f9f8" fill-opacity="0.501961" points="79,93 62,88 56,94" />
<polygon fill="#727a82" fill-opacity="0.501961" points="245,227 241,230 230,225" />
<polygon fill="#f5f5f2" fill-opacity="0.501961" points="230,169 244,148 244,191" />
<polygon fill="#fafbfc" fill-opacity="0.501961" points="133,91 118,90 118,94" />
<polygon fill="#f2f2f2" fill-opacity="0.501961" points="223,152 110,152 228,184" />
<polygon fill="#8a8988" fill-opacity="0.501961" points="51,83 48,80 37,84" />
<polygon fill="#8a8988" fill-opacity="0.501961" points="112,157 125,154 130,158" />
<polygon fill="#798996" fill-opacity="0.501961" points="246,73 246,96 250,87" />
<polygon fill="#c9c8c7" fill-opacity="0.501961" points="149,35 187,36 158,43" />
<polygon fill="#6c6c6c" fill-opacity="0.501961" points="66,94 77,95 67,98" />
<polygon fill="#887df3" fill-opacity="0.501961" points="134,17 128,29 134,23" />
<polygon fill="#fefdfc" fill-opacity="0.501961" points="76,143 88,132 88,122" />
<polygon fill="#94908b" fill-opacity="0.501961" points="107,159 107,154 97,156" />
<polygon fill="#a8a8a7" fill-opacity="0.501961" points="86,104 80,102 89,81" />
<polygon fill="#ffffff" fill-opacity="0.501961" points="23,128 34,126 13,123" />
<polygon fill="#fbfafa" fill-opacity="0.501961" points="142,57 203,58 172,48" />
<polygon fill="#83837b" fill-opacity="0.501961" points="247,29 251,18 247,15" />
<polygon fill="#f4f4f4" fill-opacity="0.501961" points="74,78 95,88 83,86" />
<polygon fill="#aeaeae" fill-opacity="0.501961" points="30,88 33,97 59,96" />
<polygon fill="#f0f0f0" fill-opacity="0.501961" points="52,91 40,96 23,91" />
<polygon fill="#5a5b5b" fill-opacity="0.501961" points="32,97 43,94 34,94" />
<polygon fill="#6b6b6c" fill-opacity="0.501961" points="64,176 71,172 75,176" />
<polygon fill="#f5f5f4" fill-opacity="0.501961" points="88,91 109,89 98,94" />
<polygon fill="#919292" fill-opacity="0.501961" points="147,94 147,101 158,95" />
<polygon fill="#f7f6f4" fill-opacity="0.501961" points="17,45 20,58 60,57" />
<polygon fill="#f4f5f7" fill-opacity="0.501961" points="44,131 62,124 43,124" />
<polygon fill="#ffffff" fill-opacity="0.501961" points="143,234 236,232 208,251" />
<polygon fill="#ffffff" fill-opacity="0.501961" points="203,84 192,87 187,84" />
<polygon fill="#e2ddd7" fill-opacity="0.501961" points="186,236 198,227 223,230" />
<polygon fill="#ffffff" fill-opacity="0.501961" points="43,233 110,251 176,232" />
<polygon fill="#f7f6f6" fill-opacity="0.501961" points="159,67 218,85 215,62" />
<polygon fill="#a0a0a1" fill-opacity="0.501961" points="85,58 73,61 92,63" />
<polygon fill="#acabaa" fill-opacity="0.501961" points="120,86 129,78 154,81" />
<polygon fill="#3484df" fill-opacity="0.501961" points="80,9 66,17 107,17" />
<polygon fill="#ffffff" fill-opacity="0.501961" points="118,122 107,105 112,100" />
<polygon fill="#f2f2f2" fill-opacity="0.501961" points="144,100 142,95 157,99" />
<polygon fill="#a1a09f" fill-opacity="0.501961" points="30,64 42,62 32,58" />
<polygon fill="#fdfdfc" fill-opacity="0.501961" points="88,99 99,123 97,108" />
<polygon fill="#5f7be4" fill-opacity="0.501961" points="111,9 114,14 107,24" />
<polygon fill="#95948b" fill-opacity="0.501961" points="248,136 252,121 247,105" />
<polygon fill="#c0bebe" fill-opacity="0.501961" points="113,35 120,40 129,35" />
<polygon fill="#f6f6f5" fill-opacity="0.501961" points="47,113 76,103 106,114" />
<polygon fill="#989f9b" fill-opacity="0.501961" points="5,150 5,136 3,143" />
<polygon fill="#edede8" fill-opacity="0.501961" points="250,161 250,75 263,117" />
<polygon fill="#8a8782" fill-opacity="0.501961" points="108,121 98,121 107,126" />
<polygon fill="#6c6d6c" fill-opacity="0.501961" points="89,114 95,119 94,115" />
<polygon fill="#fffefd" fill-opacity="0.501961" points="21,81 17,104 14,72" />
<polygon fill="#9fa4a0" fill-opacity="0.501961" points="6,72 2,60 5,48" />
<polygon fill="#98a0a3" fill-opacity="0.501961" points="7,199 3,192 5,182" />
<polygon fill="#737470" fill-opacity="0.501961" points="175,210 183,211 190,207" />
<polygon fill="#f9f8f7" fill-opacity="0.501961" points="106,155 116,153 97,151" />
<polygon fill="#cbc1b2" fill-opacity="0.501961" points="252,12 248,5 250,24" />
<polygon fill="#f8f8f8" fill-opacity="0.501961" points="14,104 41,115 72,104" />
<polygon fill="#8bbcf2" fill-opacity="0.501961" points="40,8 16,6 35,13" />
<polygon fill="#989797" fill-opacity="0.501961" points="55,118 55,112 63,116" />
<polygon fill="#f6f7f6" fill-opacity="0.501961" points="125,85 112,86 113,82" />
<polygon fill="#949391" fill-opacity="0.501961" points="21,29 33,27 9,24" />
<polygon fill="#ababab" fill-opacity="0.501961" points="63,161 60,155 80,156" />
<polygon fill="#818395" fill-opacity="0.501961" points="102,29 108,27 93,23" />
<polygon fill="#868586" fill-opacity="0.501961" points="99,100 87,104 104,104" />
<polygon fill="#7d7d7d" fill-opacity="0.501961" points="36,125 41,122 24,121" />
<polygon fill="#9fa0a1" fill-opacity="0.501961" points="26,103 19,105 26,92" />
<polygon fill="#d2d1d1" fill-opacity="0.501961" points="145,41 164,49 119,47" />
<polygon fill="#efeeec" fill-opacity="0.501961" points="67,44 120,59 155,43" />
<polygon fill="#549df1" fill-opacity="0.501961" points="10,17 5,6 35,5" />
<polygon fill="#a7a8a8" fill-opacity="0.501961" points="78,42 40,43 58,37" />
<polygon fill="#ffffff" fill-opacity="0.501961" points="89,100 81,99 75,85" />
<polygon fill="#6f6f6f" fill-opacity="0.501961" points="168,100 159,104 168,104" />
<polygon fill="#949396" fill-opacity="0.501961" points="152,217 170,216 151,211" />
<polygon fill="#ffffff" fill-opacity="0.501961" points="187,205 180,208 190,207" />
<polygon fill="#fdfdfd" fill-opacity="0.501961" points="125,98 131,98 126,85" />
<polygon fill="#f4f4f3" fill-opacity="0.501961" points="73,173 17,169 71,158" />
<polygon fill="#dfe1f4" fill-opacity="0.501961" points="84,17 94,17 103,36" />
<polygon fill="#ebeaeb" fill-opacity="0.501961" points="167,210 152,214 169,215" />
<polygon fill="#f2f2f2" fill-opacity="0.501961" points="146,63 157,88 170,63" />
<polygon fill="#516981" fill-opacity="0.501961" points="124,225 129,229 113,226" />
<polygon fill="#ffffff" fill-opacity="0.501961" points="71,97 77,100 63,98" />
<polygon fill="#fcfdfc" fill-opacity="0.501961" points="68,176 42,176 58,183" />
<polygon fill="#5ba1f1" fill-opacity="0.501961" points="223,16 243,5 185,6" />
<polygon fill="#ffffff" fill-opacity="0.501961" points="10,44 6,26 14,21" />
<polygon fill="#ffffff" fill-opacity="0.501961" points="23,99 30,95 35,101" />
<polygon fill="#9e9e9f" fill-opacity="0.501961" points="162,90 161,98 166,97" />
<polygon fill="#fdfcf9" fill-opacity="0.501961" points="5,66 1,10 -16,52" />
<polygon fill="#c4c2c0" fill-opacity="0.501961" points="15,129 12,116 11,140" />
<polygon fill="#e9e9e9" fill-opacity="0.501961" points="51,31 74,37 43,39" />
<polygon fill="#f8f9f7" fill-opacity="0.501961" points="236,33 245,19 244,56" />
<polygon fill="#878787" fill-opacity="0.501961" points="68,104 76,102 68,101" />
<polygon fill="#818282" fill-opacity="0.501961" points="59,147 59,152 47,149" />
<polygon fill="#7d7f80" fill-opacity="0.501961" points="122,90 115,87 106,90" />
<polygon fill="#fdfefe" fill-opacity="0.501961" points="105,89 122,92 111,94" />
<polygon fill="#8698a4" fill-opacity="0.501961" points="200,4 186,3 190,6" />
<polygon fill="#8c9db3" fill-opacity="0.501961" points="6,150 4,160 7,160" />
<polygon fill="#e9e9e8" fill-opacity="0.501961" points="74,118 104,128 98,118" />
<polygon fill="#ffffff" fill-opacity="0.501961" points="214,155 211,142 215,142" />
<polygon fill="#d6cec6" fill-opacity="0.501961" points="8,227 26,228 8,233" />
<polygon fill="#aaa9a8" fill-opacity="0.501961" points="56,96 55,80 60,80" />
<polygon fill="#ffffff" fill-opacity="0.501961" points="-16,3 40,-16 96,0" />
<polygon fill="#b2b1b0" fill-opacity="0.501961" points="204,214 211,216 198,216" />
<polygon fill="#f8f8f9" fill-opacity="0.501961" points="37,141 31,155 27,123" />
<polygon fill="#f4f4f4" fill-opacity="0.501961" points="44,70 31,65 44,91" />
<polygon fill="#f8f8f6" fill-opacity="0.501961" points="242,18 191,18 237,32" />
<polygon fill="#777778" fill-opacity="0.501961" points="150,151 143,150 150,148" />
<polygon fill="#c8c7c6" fill-opacity="0.501961" points="199,51 212,47 187,46" />
<polygon fill="#edf0f2" fill-opacity="0.501961" points="247,131 190,48 242,48" />
<polygon fill="#9e9d9b" fill-opacity="0.501961" points="141,125 163,124 151,121" />
<polygon fill="#5c5c5d" fill-opacity="0.501961" points="22,93 21,97 24,94" />
<polygon fill="#feffff" fill-opacity="0.501961" points="76,144 72,137 73,155" />
<polygon fill="#969696" fill-opacity="0.501961" points="122,65 125,60 104,61" />
<polygon fill="#f3f3f3" fill-opacity="0.501961" points="120,81 169,68 112,63" />
<polygon fill="#f4f3f3" fill-opacity="0.501961" points="119,148 135,121 150,147" />
<polygon fill="#9d9d9d" fill-opacity="0.501961" points="193,152 172,150 189,147" />
<polygon fill="#aeadac" fill-opacity="0.501961" points="104,80 86,86 69,81" />
<polygon fill="#576d82" fill-opacity="0.501961" points="56,229 49,225 68,226" />
<polygon fill="#ffffff" fill-opacity="0.501961" points="148,0 271,2 209,-16" />
<polygon fill="#faf9f9" fill-opacity="0.501961" points="82,56 81,86 75,76" />
<polygon fill="#b0afad" fill-opacity="0.501961" points="89,113 101,131 90,131" />
<polygon fill="#9cabbb" fill-opacity="0.501961" points="3,114 6,127 7,115" />
<polygon fill="#6a94c2" fill-opacity="0.501961" points="130,11 155,4 107,4" />
<polygon fill="#edeff3" fill-opacity="0.501961" points="8,173 6,113 23,167" />
<polygon fill="#fffff9" fill-opacity="0.501961" points="131,34 119,18 129,19" />
<polygon fill="#63605e" fill-opacity="0.501961" points="194,212 191,206 193,204" />
</g>
</svg>