<svg xmlns="http://www.w3.org/2000/svg" version="1.1" width="1024" height="688">
<rect x="0" y="0" width="1024" height="688" fill="#eae8e4" />
<g transform="scale(4.000000) translate(0.5 0.5)">
<polygon fill="#9e8b6e" fill-opacity="0.501961" points="25,24 -16,103 25,187" />
<polygon fill="#6f574d" fill-opacity="0.501961" points="182,139 207,104 184,15" />
<polygon fill="#8b644b" fill-opacity="0.501961" points="97,155 93,47 121,53" />
<polygon fill="#ffffff" fill-opacity="0.501961" points="99,0 -1,-12 86,187" />
<polygon fill="#ffffff" fill-opacity="0.501961" points="84,-16 173,187 185,-7" />
<polygon fill="#ffffff" fill-opacity="0.501961" points="6,151 6,17 -16,99" />
<polygon fill="#ffffff" fill-opacity="0.501961" points="249,-16 201,103 248,187" />
<polygon fill="#9d7647" fill-opacity="0.501961" points="202,28 186,26 201,71" />
<polygon fill="#905841" fill-opacity="0.501961" points="7,162 7,114 26,147" />
<polygon fill="#b8aca0" fill-opacity="0.501961" points="93,133 113,158 114,77" />
<polygon fill="#814018" fill-opacity="0.501961" points="26,51 6,48 6,62" />
<polygon fill="#867168" fill-opacity="0.501961" points="204,136 183,136 183,58" />
<polygon fill="#f2e37e" fill-opacity="0.501961" points="114,39 96,45 98,-9" />
<polygon fill="#351000" fill-opacity="0.501961" points="27,72 10,73 7,81" />
<polygon fill="#ffffff" fill-opacity="0.501961" points="94,153 95,-12 18,173" />
<polygon fill="#ffffff" fill-opacity="0.501961" points="182,-16 107,167 182,145" />
<polygon fill="#f9eecf" fill-opacity="0.501961" points="203,73 192,31 186,69" />
<polygon fill="#0d8692" fill-opacity="0.501961" points="9,108 29,99 9,96" />
<polygon fill="#dcd077" fill-opacity="0.501961" points="10,20 5,6 45,13" />
<polygon fill="#7d4c41" fill-opacity="0.501961" points="95,54 106,92 95,113" />
<polygon fill="#fdfefa" fill-opacity="0.501961" points="186,106 224,114 187,117" />
<polygon fill="#e7ecee" fill-opacity="0.501961" points="133,70 139,44 92,71" />
<polygon fill="#f9fcff" fill-opacity="0.501961" points="237,165 227,125 129,165" />
<polygon fill="#fbfcfd" fill-opacity="0.501961" points="183,94 226,54 246,94" />
<polygon fill="#ffffff" fill-opacity="0.501961" points="102,141 3,139 72,121" />
<polygon fill="#d8ccbe" fill-opacity="0.501961" points="100,155 102,75 118,101" />
<polygon fill="#914b12" fill-opacity="0.501961" points="23,126 7,119 24,117" />
<polygon fill="#fff173" fill-opacity="0.501961" points="185,8 202,7 184,27" />
<polygon fill="#ffffff" fill-opacity="0.501961" points="58,49 36,37 -6,49" />
<polygon fill="#955b20" fill-opacity="0.501961" points="99,62 95,50 115,49" />
<polygon fill="#635268" fill-opacity="0.501961" points="181,83 188,72 215,75" />
<polygon fill="#dde0e5" fill-opacity="0.501961" points="129,167 -16,157 43,184" />
<polygon fill="#e5d976" fill-opacity="0.501961" points="10,44 8,30 40,36" />
<polygon fill="#ffffff" fill-opacity="0.501961" points="27,87 106,92 56,103" />
<polygon fill="#641800" fill-opacity="0.501961" points="111,79 96,73 112,72" />
<polygon fill="#ffffff" fill-opacity="0.501961" points="248,106 248,-8 188,-16" />
<polygon fill="#868bb5" fill-opacity="0.501961" points="129,149 99,138 92,152" />
<polygon fill="#d3cab8" fill-opacity="0.501961" points="198,118 238,121 182,134" />
<polygon fill="#3b3a6d" fill-opacity="0.501961" points="203,97 180,94 193,108" />
<polygon fill="#ffffff" fill-opacity="0.501961" points="176,42 193,-9 93,25" />
<polygon fill="#ffffff" fill-opacity="0.501961" points="37,7 96,163 83,-9" />
<polygon fill="#b8babc" fill-opacity="0.501961" points="151,75 114,73 124,84" />
<polygon fill="#bcb9b6" fill-opacity="0.501961" points="33,140 67,143 11,153" />
<polygon fill="#4e1404" fill-opacity="0.501961" points="9,140 8,158 16,140" />
<polygon fill="#969af7" fill-opacity="0.501961" points="171,152 130,148 152,157" />
<polygon fill="#824b26" fill-opacity="0.501961" points="198,27 183,26 182,39" />
<polygon fill="#a4a09c" fill-opacity="0.501961" points="16,58 51,53 34,50" />
<polygon fill="#919293" fill-opacity="0.501961" points="56,79 42,74 68,74" />
<polygon fill="#786038" fill-opacity="0.501961" points="120,120 102,117 109,122" />
<polygon fill="#d7cb7f" fill-opacity="0.501961" points="105,7 129,13 95,21" />
<polygon fill="#afb1b3" fill-opacity="0.501961" points="205,50 208,59 238,53" />
<polygon fill="#ffffff" fill-opacity="0.501961" points="29,91 -10,105 -5,92" />
<polygon fill="#bdbbb6" fill-opacity="0.501961" points="103,131 117,119 148,120" />
<polygon fill="#f6f9fc" fill-opacity="0.501961" points="114,145 114,49 139,139" />
<polygon fill="#030004" fill-opacity="0.501961" points="193,90 186,86 183,90" />
<polygon fill="#bfc0c4" fill-opacity="0.501961" points="254,165 207,183 156,166" />
<polygon fill="#bcc0ff" fill-opacity="0.501961" points="185,148 217,161 244,153" />
<polygon fill="#ffffff" fill-opacity="0.501961" points="46,109 83,125 8,114" />
<polygon fill="#949597" fill-opacity="0.501961" points="206,32 214,27 224,30" />
<polygon fill="#fffafd" fill-opacity="0.501961" points="10,134 25,134 21,128" />
<polygon fill="#ffffff" fill-opacity="0.501961" points="128,-4 182,22 183,158" />
<polygon fill="#919294" fill-opacity="0.501961" points="203,13 226,11 218,16" />
<polygon fill="#f2f4f4" fill-opacity="0.501961" points="202,115 203,30 228,64" />
<polygon fill="#ffffff" fill-opacity="0.501961" points="261,33 222,14 174,24" />
<polygon fill="#ffffff" fill-opacity="0.501961" points="28,160 -16,158 -10,173" />
<polygon fill="#f8c140" fill-opacity="0.501961" points="13,109 5,102 23,106" />
<polygon fill="#f1faff" fill-opacity="0.501961" points="5,187 -16,117 7,43" />
<polygon fill="#725928" fill-opacity="0.501961" points="203,129 182,136 201,135" />
<polygon fill="#929294" fill-opacity="0.501961" points="141,33 133,38 123,36" />
<polygon fill="#ffffff" fill-opacity="0.501961" points="195,70 146,74 153,62" />
<polygon fill="#c2c3c3" fill-opacity="0.501961" points="64,165 103,180 156,166" />
<polygon fill="#ffffff" fill-opacity="0.501961" points="111,109 100,108 109,96" />
<polygon fill="#ffffff" fill-opacity="0.501961" points="25,4 23,41 36,51" />
<polygon fill="#ffffff" fill-opacity="0.501961" points="34,73 13,70 52,64" />
<polygon fill="#ffffff" fill-opacity="0.501961" points="148,168 95,187 29,170" />
<polygon fill="#bfc1c5" fill-opacity="0.501961" points="250,138 250,25 268,75" />
<polygon fill="#ababab" fill-opacity="0.501961" points="135,57 117,51 146,51" />
<polygon fill="#ffffff" fill-opacity="0.501961" points="192,47 156,53 124,40" />
<polygon fill="#005479" fill-opacity="0.501961" points="22,98 22,107 12,97" />
<polygon fill="#ffe0ba" fill-opacity="0.501961" points="17,140 21,152 10,155" />
<polygon fill="#5a4020" fill-opacity="0.501961" points="183,118 184,127 202,117" />
<polygon fill="#ffffff" fill-opacity="0.501961" points="157,151 188,114 105,138" />
<polygon fill="#703820" fill-opacity="0.501961" points="24,144 27,153 16,143" />
<polygon fill="#85654a" fill-opacity="0.501961" points="109,135 94,129 96,136" />
<polygon fill="#ffffe5" fill-opacity="0.501961" points="198,44 198,34 185,42" />
<polygon fill="#ffffff" fill-opacity="0.501961" points="237,170 166,187 163,168" />
<polygon fill="#ffffff" fill-opacity="0.501961" points="254,154 271,90 253,28" />
<polygon fill="#ffffda" fill-opacity="0.501961" points="106,123 97,133 113,132" />
<polygon fill="#bbb8b6" fill-opacity="0.501961" points="112,97 143,98 107,108" />
<polygon fill="#77592e" fill-opacity="0.501961" points="27,88 24,84 11,91" />
<polygon fill="#fcfafb" fill-opacity="0.501961" points="23,92 41,88 26,108" />
<polygon fill="#ffffff" fill-opacity="0.501961" points="-8,29 66,6 115,29" />
<polygon fill="#ffffed" fill-opacity="0.501961" points="24,66 9,63 23,59" />
<polygon fill="#560e17" fill-opacity="0.501961" points="94,114 105,112 96,108" />
<polygon fill="#ffffff" fill-opacity="0.501961" points="66,144 17,163 119,164" />
<polygon fill="#ffffff" fill-opacity="0.501961" points="104,115 67,119 65,107" />
<polygon fill="#2b0000" fill-opacity="0.501961" points="113,98 114,95 107,95" />
<polygon fill="#ffedc4" fill-opacity="0.501961" points="191,134 206,119 184,129" />
<polygon fill="#362d23" fill-opacity="0.501961" points="11,71 7,76 7,85" />
<polygon fill="#b8bbb8" fill-opacity="0.501961" points="229,98 202,103 201,95" />
<polygon fill="#a2a3a6" fill-opacity="0.501961" points="52,120 42,125 28,120" />
<polygon fill="#8d7457" fill-opacity="0.501961" points="20,118 26,123 27,138" />
<polygon fill="#d9beaf" fill-opacity="0.501961" points="185,111 199,115 193,98" />
<polygon fill="#6d6f72" fill-opacity="0.501961" points="41,75 31,77 27,74" />
<polygon fill="#afafae" fill-opacity="0.501961" points="27,166 47,171 66,165" />
<polygon fill="#fff3cb" fill-opacity="0.501961" points="24,73 7,87 23,85" />
<polygon fill="#766556" fill-opacity="0.501961" points="116,68 109,64 99,67" />
<polygon fill="#845c42" fill-opacity="0.501961" points="25,157 7,158 7,151" />
<polygon fill="#ffffff" fill-opacity="0.501961" points="62,161 87,135 105,137" />
<polygon fill="#271338" fill-opacity="0.501961" points="185,74 183,86 189,91" />
<polygon fill="#ffffff" fill-opacity="0.501961" points="159,125 117,109 186,91" />
<polygon fill="#af9d75" fill-opacity="0.501961" points="180,60 216,52 185,50" />
<polygon fill="#8b8471" fill-opacity="0.501961" points="202,79 203,89 194,91" />
<polygon fill="#ffffff" fill-opacity="0.501961" points="250,152 247,121 175,145" />
<polygon fill="#ffffdf" fill-opacity="0.501961" points="200,65 187,65 191,52" />
<polygon fill="#fffef8" fill-opacity="0.501961" points="113,66 108,59 100,65" />
<polygon fill="#443f3a" fill-opacity="0.501961" points="184,43 203,43 192,46" />
<polygon fill="#e2c148" fill-opacity="0.501961" points="187,20 184,13 199,17" />
<polygon fill="#624b41" fill-opacity="0.501961" points="11,136 5,131 24,135" />
<polygon fill="#fff9f2" fill-opacity="0.501961" points="187,85 195,80 201,88" />
<polygon fill="#9a999a" fill-opacity="0.501961" points="227,52 243,57 242,52" />
<polygon fill="#ffffff" fill-opacity="0.501961" points="182,103 181,81 100,93" />
<polygon fill="#6f635e" fill-opacity="0.501961" points="196,67 186,66 188,70" />
<polygon fill="#ffffff" fill-opacity="0.501961" points="235,163 182,164 212,155" />
<polygon fill="#f5fbff" fill-opacity="0.501961" points="8,4 -16,39 7,44" />
<polygon fill="#818183" fill-opacity="0.501961" points="43,97 35,100 28,98" />
<polygon fill="#725344" fill-opacity="0.501961" points="9,50 12,69 6,67" />
<polygon fill="#ffffff" fill-opacity="0.501961" points="221,51 197,48 242,24" />
<polygon fill="#e9c53b" fill-opacity="0.501961" points="12,21 22,16 9,14" />
<polygon fill="#4f4a39" fill-opacity="0.501961" points="200,113 203,110 192,112" />
<polygon fill="#89653f" fill-opacity="0.501961" points="106,52 113,52 114,67" />
<polygon fill="#594c36" fill-opacity="0.501961" points="111,91 101,89 114,88" />
<polygon fill="#847d64" fill-opacity="0.501961" points="114,129 116,136 105,135" />
<polygon fill="#989cb5" fill-opacity="0.501961" points="26,34 37,39 46,34" />
<polygon fill="#00001a" fill-opacity="0.501961" points="97,149 99,148 96,146" />
<polygon fill="#ffffff" fill-opacity="0.501961" points="10,45 37,37 38,52" />
<polygon fill="#f4d5b0" fill-opacity="0.501961" points="100,84 105,72 113,89" />
<polygon fill="#5e210e" fill-opacity="0.501961" points="96,87 96,74 102,75" />
<polygon fill="#fcffff" fill-opacity="0.501961" points="112,29 113,-2 125,-1" />
<polygon fill="#1e2653" fill-opacity="0.501961" points="200,96 192,95 203,105" />
<polygon fill="#ffffff" fill-opacity="0.501961" points="114,131 113,148 172,138" />
<polygon fill="#754c39" fill-opacity="0.501961" points="7,139 26,139 10,146" />
<polygon fill="#777979" fill-opacity="0.501961" points="122,35 113,34 120,37" />
<polygon fill="#fafcfd" fill-opacity="0.501961" points="207,151 244,125 202,122" />
<polygon fill="#fff0ed" fill-opacity="0.501961" points="112,104 99,101 104,111" />
<polygon fill="#b896a6" fill-opacity="0.501961" points="99,158 104,147 111,156" />
<polygon fill="#8f8f8e" fill-opacity="0.501961" points="131,76 115,77 118,73" />
<polygon fill="#b6b7ba" fill-opacity="0.501961" points="250,166 250,119 258,143" />
<polygon fill="#a4a8fe" fill-opacity="0.501961" points="174,157 186,152 175,148" />
<polygon fill="#ffffff" fill-opacity="0.501961" points="100,71 135,73 128,65" />
<polygon fill="#ffffff" fill-opacity="0.501961" points="79,168 25,187 -2,168" />
<polygon fill="#7c4d36" fill-opacity="0.501961" points="113,76 113,85 103,71" />
<polygon fill="#fbffff" fill-opacity="0.501961" points="218,66 184,69 211,74" />
<polygon fill="#6e6e6d" fill-opacity="0.501961" points="154,75 147,77 141,75" />
<polygon fill="#a2a09e" fill-opacity="0.501961" points="136,121 123,118 108,124" />
<polygon fill="#ffffff" fill-opacity="0.501961" points="248,136 249,56 219,55" />
<polygon fill="#ffffff" fill-opacity="0.501961" points="151,50 88,47 121,39" />
<polygon fill="#e1bc36" fill-opacity="0.501961" points="110,40 97,43 97,36" />
<polygon fill="#545141" fill-opacity="0.501961" points="113,109 114,112 105,113" />
<polygon fill="#ffffff" fill-opacity="0.501961" points="141,77 115,77 143,85" />
<polygon fill="#feef7e" fill-opacity="0.501961" points="9,45 10,28 22,32" />
<polygon fill="#ffffff" fill-opacity="0.501961" points="251,187 258,69 271,128" />
<polygon fill="#ffffff" fill-opacity="0.501961" points="159,162 108,163 115,151" />
<polygon fill="#fafbfc" fill-opacity="0.501961" points="202,76 203,113 222,119" />
<polygon fill="#34270b" fill-opacity="0.501961" points="195,52 193,49 196,49" />
<polygon fill="#7d441c" fill-opacity="0.501961" points="190,27 200,28 201,33" />
<polygon fill="#63573d" fill-opacity="0.501961" points="112,121 114,128 112,132" />
<polygon fill="#eae8e2" fill-opacity="0.501961" points="53,155 9,153 45,144" />
<polygon fill="#ffffff" fill-opacity="0.501961" points="-16,62 14,70 -13,73" />
<polygon fill="#989ec2" fill-opacity="0.501961" points="24,15 40,14 32,9" />
<polygon fill="#6b6c59" fill-opacity="0.501961" points="201,62 197,67 203,69" />
<polygon fill="#b5b6b9" fill-opacity="0.501961" points="252,5 247,17 251,25" />
<polygon fill="#fee1dd" fill-opacity="0.501961" points="23,124 11,133 24,134" />
<polygon fill="#674c41" fill-opacity="0.501961" points="16,88 6,90 15,91" />
<polygon fill="#ffffff" fill-opacity="0.501961" points="231,145 172,134 165,152" />
<polygon fill="#695a63" fill-opacity="0.501961" points="201,72 181,71 200,79" />
<polygon fill="#b5b8be" fill-opacity="0.501961" points="223,116 200,122 247,123" />
<polygon fill="#251411" fill-opacity="0.501961" points="11,66 21,66 18,68" />
<polygon fill="#ffffff" fill-opacity="0.501961" points="244,120 198,116 244,93" />
<polygon fill="#ffffff" fill-opacity="0.501961" points="43,143 36,135 14,137" />
<polygon fill="#ffffff" fill-opacity="0.501961" points="94,122 95,162 33,122" />
<polygon fill="#fff1cc" fill-opacity="0.501961" points="109,119 112,134 98,134" />
<polygon fill="#ffffff" fill-opacity="0.501961" points="112,-4 2,26 63,38" />
<polygon fill="#ffffff" fill-opacity="0.501961" points="115,119 181,100 116,100" />
<polygon fill="#eaedeb" fill-opacity="0.501961" points="5,-5 -16,64 8,114" />
<polygon fill="#d0d1d3" fill-opacity="0.501961" points="32,54 31,64 54,65" />
<polygon fill="#433147" fill-opacity="0.501961" points="184,95 189,102 183,112" />
<polygon fill="#fbffff" fill-opacity="0.501961" points="-16,128 -6,141 12,138" />
<polygon fill="#bec0c3" fill-opacity="0.501961" points="53,100 37,107 40,112" />
<polygon fill="#ffffff" fill-opacity="0.501961" points="172,3 129,35 189,24" />
<polygon fill="#8a8ea9" fill-opacity="0.501961" points="129,11 128,16 119,13" />
<polygon fill="#b37a4c" fill-opacity="0.501961" points="8,132 25,122 10,117" />
<polygon fill="#b6b7b8" fill-opacity="0.501961" points="33,166 15,171 4,165" />
<polygon fill="#a09e9f" fill-opacity="0.501961" points="216,98 203,97 209,101" />
<polygon fill="#816e36" fill-opacity="0.501961" points="95,117 96,135 100,118" />
<polygon fill="#ffffff" fill-opacity="0.501961" points="103,115 124,119 139,112" />
<polygon fill="#ffeb68" fill-opacity="0.501961" points="97,20 110,14 97,10" />
<polygon fill="#b1b1b3" fill-opacity="0.501961" points="53,32 44,37 48,39" />
<polygon fill="#fff0d1" fill-opacity="0.501961" points="189,59 198,52 200,66" />
<polygon fill="#4b382c" fill-opacity="0.501961" points="7,76 8,87 10,78" />
<polygon fill="#ffe7c8" fill-opacity="0.501961" points="23,57 10,66 10,57" />
<polygon fill="#bca46a" fill-opacity="0.501961" points="10,112 24,103 23,113" />
<polygon fill="#ffffff" fill-opacity="0.501961" points="217,4 250,-16 248,37" />
<polygon fill="#545892" fill-opacity="0.501961" points="114,146 110,140 101,140" />
<polygon fill="#d5804c" fill-opacity="0.501961" points="10,51 25,58 23,51" />
<polygon fill="#ffffff" fill-opacity="0.501961" points="181,84 125,54 181,55" />
<polygon fill="#722226" fill-opacity="0.501961" points="96,98 100,112 94,113" />
<polygon fill="#ffffff" fill-opacity="0.501961" points="101,69 72,78 59,65" />
<polygon fill="#ffffff" fill-opacity="0.501961" points="103,92 38,102 58,87" />
<polygon fill="#ffffff" fill-opacity="0.501961" points="13,115 -14,107 -9,117" />
<polygon fill="#d8d8d9" fill-opacity="0.501961" points="201,53 236,65 208,64" />
<polygon fill="#b15c30" fill-opacity="0.501961" points="99,87 105,85 104,89" />
<polygon fill="#0b4679" fill-opacity="0.501961" points="98,144 96,152 100,148" />
<polygon fill="#726758" fill-opacity="0.501961" points="200,89 190,88 191,91" />
<polygon fill="#d4d5d5" fill-opacity="0.501961" points="122,79 114,87 144,88" />
<polygon fill="#ffffff" fill-opacity="0.501961" points="201,168 198,187 269,169" />
<polygon fill="#ffffff" fill-opacity="0.501961" points="248,50 241,98 199,94" />
<polygon fill="#ffffff" fill-opacity="0.501961" points="176,4 172,38 84,26" />
<polygon fill="#ffffff" fill-opacity="0.501961" points="85,144 22,164 110,165" />
<polygon fill="#e5e5e8" fill-opacity="0.501961" points="63,2 149,3 110,-11" />
<polygon fill="#4f374f" fill-opacity="0.501961" points="190,91 183,89 186,76" />
<polygon fill="#ffffff" fill-opacity="0.501961" points="114,28 111,40 118,51" />
<polygon fill="#8e8e8c" fill-opacity="0.501961" points="221,77 216,74 210,76" />
<polygon fill="#ffffff" fill-opacity="0.501961" points="93,20 38,0 93,136" />
<polygon fill="#8d5c45" fill-opacity="0.501961" points="24,141 27,157 16,141" />
<polygon fill="#795122" fill-opacity="0.501961" points="97,67 95,52 99,56" />
<polygon fill="#727056" fill-opacity="0.501961" points="201,117 202,127 199,129" />
<polygon fill="#ffffff" fill-opacity="0.501961" points="135,86 153,99 192,92" />
<polygon fill="#ffffff" fill-opacity="0.501961" points="253,107 222,120 188,115" />
<polygon fill="#ffffff" fill-opacity="0.501961" points="148,111 185,114 137,150" />
<polygon fill="#e9d281" fill-opacity="0.501961" points="97,131 97,118 103,119" />
<polygon fill="#fefdfd" fill-opacity="0.501961" points="37,187 -16,168 97,170" />
<polygon fill="#ffffff" fill-opacity="0.501961" points="27,145 87,162 91,145" />
<polygon fill="#f9eccc" fill-opacity="0.501961" points="14,149 24,150 22,156" />
<polygon fill="#fffc8c" fill-opacity="0.501961" points="22,8 9,7 14,19" />
<polygon fill="#59312d" fill-opacity="0.501961" points="103,94 95,101 97,95" />
<polygon fill="#098fba" fill-opacity="0.501961" points="25,102 11,102 9,97" />
<polygon fill="#cbb551" fill-opacity="0.501961" points="111,33 105,41 110,41" />
<polygon fill="#fdffff" fill-opacity="0.501961" points="38,93 19,97 6,91" />
<polygon fill="#f1d5d2" fill-opacity="0.501961" points="112,62 103,53 108,65" />
<polygon fill="#999998" fill-opacity="0.501961" points="71,165 57,165 63,168" />
<polygon fill="#8b8c79" fill-opacity="0.501961" points="132,150 127,147 135,149" />
<polygon fill="#e8e9eb" fill-opacity="0.501961" points="145,3 215,-16 267,3" />
<polygon fill="#7b8081" fill-opacity="0.501961" points="122,51 113,54 125,54" />
<polygon fill="#ffffff" fill-opacity="0.501961" points="93,90 38,102 53,77" />
<polygon fill="#ebd2ca" fill-opacity="0.501961" points="198,89 189,87 190,74" />
<polygon fill="#fffaf2" fill-opacity="0.501961" points="181,106 193,109 188,110" />
<polygon fill="#afb1b3" fill-opacity="0.501961" points="49,140 59,146 32,143" />
<polygon fill="#6a5e44" fill-opacity="0.501961" points="25,85 13,91 25,90" />
<polygon fill="#ffffff" fill-opacity="0.501961" points="39,19 25,38 23,15" />
<polygon fill="#ffffff" fill-opacity="0.501961" points="92,142 39,142 93,65" />
<polygon fill="#454933" fill-opacity="0.501961" points="26,67 25,63 23,68" />
<polygon fill="#ffffff" fill-opacity="0.501961" points="84,69 26,37 95,38" />
<polygon fill="#543b27" fill-opacity="0.501961" points="12,137 7,132 8,118" />
<polygon fill="#afb1b1" fill-opacity="0.501961" points="224,30 214,35 202,29" />
<polygon fill="#ffffff" fill-opacity="0.501961" points="195,47 214,51 229,44" />
<polygon fill="#fefefd" fill-opacity="0.501961" points="114,120 116,147 132,146" />
<polygon fill="#b7b8ba" fill-opacity="0.501961" points="35,77 50,78 45,75" />
<polygon fill="#ffffe1" fill-opacity="0.501961" points="184,41 199,35 199,40" />
<polygon fill="#ffffff" fill-opacity="0.501961" points="199,156 228,165 235,156" />
<polygon fill="#e0e0e0" fill-opacity="0.501961" points="146,134 116,123 117,134" />
<polygon fill="#faeed0" fill-opacity="0.501961" points="108,80 100,86 113,86" />
<polygon fill="#fff6d0" fill-opacity="0.501961" points="186,134 188,125 189,134" />
<polygon fill="#71573d" fill-opacity="0.501961" points="12,81 7,72 21,73" />
<polygon fill="#cecdcd" fill-opacity="0.501961" points="116,65 140,64 127,58" />
<polygon fill="#ffffff" fill-opacity="0.501961" points="235,39 236,32 209,33" />
<polygon fill="#906e4c" fill-opacity="0.501961" points="24,118 25,127 9,117" />
<polygon fill="#cdced1" fill-opacity="0.501961" points="33,88 36,81 53,87" />
<polygon fill="#c9badf" fill-opacity="0.501961" points="107,158 106,142 114,147" />
<polygon fill="#7a6d69" fill-opacity="0.501961" points="197,111 185,111 188,115" />
<polygon fill="#a1a3f9" fill-opacity="0.501961" points="203,156 191,148 212,153" />
<polygon fill="#ffffff" fill-opacity="0.501961" points="191,69 220,68 214,75" />
<polygon fill="#c4a930" fill-opacity="0.501961" points="197,19 198,12 196,16" />
<polygon fill="#ffecc6" fill-opacity="0.501961" points="200,131 195,127 198,117" />
<polygon fill="#b1b4f9" fill-opacity="0.501961" points="244,156 239,150 222,156" />
<polygon fill="#c99f95" fill-opacity="0.501961" points="21,124 10,133 15,121" />
<polygon fill="#63684a" fill-opacity="0.501961" points="26,62 24,58 25,52" />
<polygon fill="#ffffff" fill-opacity="0.501961" points="101,143 99,144 100,146" />
<polygon fill="#feeadf" fill-opacity="0.501961" points="195,78 191,85 199,87" />
<polygon fill="#9c9c9c" fill-opacity="0.501961" points="230,165 236,168 245,166" />
<polygon fill="#ffff8a" fill-opacity="0.501961" points="101,41 110,36 96,31" />
<polygon fill="#ffffff" fill-opacity="0.501961" points="193,25 236,30 203,13" />
<polygon fill="#ffffff" fill-opacity="0.501961" points="79,169 140,187 204,169" />
<polygon fill="#eda581" fill-opacity="0.501961" points="102,68 99,53 98,60" />
<polygon fill="#ffffff" fill-opacity="0.501961" points="98,164 145,164 145,151" />
<polygon fill="#de8855" fill-opacity="0.501961" points="187,29 197,30 200,34" />
<polygon fill="#9a9a9a" fill-opacity="0.501961" points="223,165 214,168 205,165" />
<polygon fill="#ffffff" fill-opacity="0.501961" points="33,119 101,115 54,103" />
<polygon fill="#8e7a5b" fill-opacity="0.501961" points="193,54 189,49 200,51" />
<polygon fill="#ffffff" fill-opacity="0.501961" points="23,69 35,65 28,76" />
<polygon fill="#795e48" fill-opacity="0.501961" points="192,65 181,68 199,68" />
<polygon fill="#eecf92" fill-opacity="0.501961" points="199,53 185,51 185,59" />
<polygon fill="#45261c" fill-opacity="0.501961" points="185,42 182,44 184,35" />
<polygon fill="#fffdf4" fill-opacity="0.501961" points="111,110 108,111 112,103" />
<polygon fill="#ffffff" fill-opacity="0.501961" points="200,10 163,-16 244,13" />
<polygon fill="#ffe3e5" fill-opacity="0.501961" points="99,99 99,107 102,104" />
<polygon fill="#ffffff" fill-opacity="0.501961" points="254,109 254,-12 271,47" />
<polygon fill="#794d2b" fill-opacity="0.501961" points="186,65 183,56 183,67" />
<polygon fill="#ffffff" fill-opacity="0.501961" points="118,146 109,140 138,125" />
<polygon fill="#7b765d" fill-opacity="0.501961" points="112,121 96,116 112,116" />
<polygon fill="#ffffff" fill-opacity="0.501961" points="105,47 185,22 153,53" />
<polygon fill="#ffffff" fill-opacity="0.501961" points="124,12 99,4 147,4" />
<polygon fill="#e8eae8" fill-opacity="0.501961" points="1,96 10,106 9,92" />
<polygon fill="#878c8f" fill-opacity="0.501961" points="207,121 202,119 211,120" />
<polygon fill="#ffffff" fill-opacity="0.501961" points="21,165 39,159 -1,159" />
<polygon fill="#a7a9aa" fill-opacity="0.501961" points="139,100 130,98 140,96" />
<polygon fill="#fffffd" fill-opacity="0.501961" points="195,108 198,111 189,111" />
<polygon fill="#ffeed1" fill-opacity="0.501961" points="194,53 186,66 200,66" />
<polygon fill="#141c50" fill-opacity="0.501961" points="183,95 188,104 188,95" />
<polygon fill="#ffffff" fill-opacity="0.501961" points="209,150 249,151 244,120" />
<polygon fill="#ffffff" fill-opacity="0.501961" points="157,164 199,164 198,152" />
<polygon fill="#ffffff" fill-opacity="0.501961" points="106,136 55,136 82,148" />
<polygon fill="#ffffff" fill-opacity="0.501961" points="240,86 195,92 214,97" />
<polygon fill="#afaeb0" fill-opacity="0.501961" points="146,165 132,170 116,165" />
<polygon fill="#4e3225" fill-opacity="0.501961" points="96,65 107,68 96,68" />
<polygon fill="#754837" fill-opacity="0.501961" points="95,76 105,72 95,90" />
<polygon fill="#dcdcdc" fill-opacity="0.501961" points="231,131 210,124 212,133" />
<polygon fill="#adaeae" fill-opacity="0.501961" points="254,33 250,16 249,45" />
<polygon fill="#ffffff" fill-opacity="0.501961" points="155,122 192,114 121,110" />
<polygon fill="#949598" fill-opacity="0.501961" points="65,145 52,145 59,143" />
<polygon fill="#f8fdfb" fill-opacity="0.501961" points="114,48 115,76 121,69" />
<polygon fill="#3e3050" fill-opacity="0.501961" points="187,86 183,73 189,75" />
<polygon fill="#e5c75c" fill-opacity="0.501961" points="22,42 23,35 10,42" />
<polygon fill="#a9a8a9" fill-opacity="0.501961" points="228,55 218,53 238,51" />
<polygon fill="#905a34" fill-opacity="0.501961" points="13,49 14,59 7,51" />
<polygon fill="#ffd7aa" fill-opacity="0.501961" points="187,39 186,34 189,37" />
<polygon fill="#ffffff" fill-opacity="0.501961" points="179,-10 174,41 185,16" />
<polygon fill="#ffffff" fill-opacity="0.501961" points="183,137 188,158 196,142" />
<polygon fill="#ffffff" fill-opacity="0.501961" points="56,77 34,77 74,90" />
<polygon fill="#d5b79b" fill-opacity="0.501961" points="11,62 22,56 17,52" />
<polygon fill="#ffffff" fill-opacity="0.501961" points="117,85 140,77 167,84" />
<polygon fill="#e0e0e1" fill-opacity="0.501961" points="221,105 203,106 211,97" />
<polygon fill="#9090f9" fill-opacity="0.501961" points="192,155 193,149 196,151" />
<polygon fill="#95b2df" fill-opacity="0.501961" points="96,153 101,147 99,156" />
<polygon fill="#684236" fill-opacity="0.501961" points="14,159 8,157 17,156" />
<polygon fill="#a8a8a9" fill-opacity="0.501961" points="161,169 151,165 170,166" />
<polygon fill="#929292" fill-opacity="0.501961" points="64,77 60,76 68,74" />
<polygon fill="#f3f3f4" fill-opacity="0.501961" points="111,167 157,181 172,169" />
<polygon fill="#faffff" fill-opacity="0.501961" points="117,117 101,116 119,112" />
<polygon fill="#796446" fill-opacity="0.501961" points="200,51 202,56 194,49" />
<polygon fill="#ffffff" fill-opacity="0.501961" points="11,48 96,48 96,24" />
<polygon fill="#36312b" fill-opacity="0.501961" points="189,120 183,130 183,121" />
<polygon fill="#ffffff" fill-opacity="0.501961" points="142,157 155,165 181,156" />
<polygon fill="#a2a2a1" fill-opacity="0.501961" points="50,36 44,38 37,35" />
<polygon fill="#999a9a" fill-opacity="0.501961" points="172,165 184,165 179,168" />
<polygon fill="#ffffff" fill-opacity="0.501961" points="26,135 26,125 54,141" />
<polygon fill="#767f74" fill-opacity="0.501961" points="200,45 204,46 202,38" />
<polygon fill="#a9a9aa" fill-opacity="0.501961" points="242,119 240,123 226,121" />
<polygon fill="#ffffff" fill-opacity="0.501961" points="250,164 239,154 212,163" />
<polygon fill="#dfe0e1" fill-opacity="0.501961" points="232,41 201,42 202,33" />
</g>
</svg>