<svg xmlns="http://www.w3.org/2000/svg" version="1.1" width="1024" height="776">
<rect x="0" y="0" width="1024" height="776" fill="#5c8c8a" />
<g transform="scale(4.000000) translate(0.5 0.5)">
<polygon fill="#fff581" fill-opacity="0.501961" points="71,166 114,76 10,107" />
<polygon fill="#3e74ff" fill-opacity="0.501961" points="94,75 237,22 239,110" />
<polygon fill="#2d0227" fill-opacity="0.501961" points="131,187 244,187 220,99" />
<polygon fill="#3c7bff" fill-opacity="0.501961" points="154,177 -16,178 105,136" />
<polygon fill="#4b6e18" fill-opacity="0.501961" points="200,3 -16,4 140,65" />
<polygon fill="#00b22d" fill-opacity="0.501961" points="4,4 5,193 37,78" />
<polygon fill="#ffffff" fill-opacity="0.501961" points="271,187 198,209 121,190" />
<polygon fill="#f0d6a9" fill-opacity="0.501961" points="16,114 96,134 17,162" />
<polygon fill="#ffffff" fill-opacity="0.501961" points="63,209 138,188 -5,189" />
<polygon fill="#ffffff" fill-opacity="0.501961" points="251,140 251,-4 271,69" />
<polygon fill="#2b7b43" fill-opacity="0.501961" points="104,29 176,189 57,52" />
<polygon fill="#ffffff" fill-opacity="0.501961" points="3,-16 -16,49 2,118" />
<polygon fill="#009d39" fill-opacity="0.501961" points="228,127 250,46 250,204" />
<polygon fill="#ffffff" fill-opacity="0.501961" points="271,141 249,209 253,85" />
<polygon fill="#ffffff" fill-opacity="0.501961" points="133,-16 182,2 68,1" />
<polygon fill="#ffffff" fill-opacity="0.501961" points="41,-16 109,0 -16,4" />
<polygon fill="#4874fc" fill-opacity="0.501961" points="154,36 180,167 241,32" />
<polygon fill="#ffffff" fill-opacity="0.501961" points="4,207 1,119 -16,149" />
<polygon fill="#ffa0a6" fill-opacity="0.501961" points="52,49 32,25 68,9" />
<polygon fill="#42251f" fill-opacity="0.501961" points="180,131 234,116 232,179" />
<polygon fill="#00b01a" fill-opacity="0.501961" points="252,29 239,-14 240,74" />
<polygon fill="#8d2e00" fill-opacity="0.501961" points="7,25 10,3 91,13" />
<polygon fill="#ffffff" fill-opacity="0.501961" points="210,-16 271,2 148,1" />
<polygon fill="#410523" fill-opacity="0.501961" points="142,159 165,182 171,123" />
<polygon fill="#457815" fill-opacity="0.501961" points="25,100 113,76 41,68" />
<polygon fill="#f7ec94" fill-opacity="0.501961" points="104,91 84,148 33,97" />
<polygon fill="#817666" fill-opacity="0.501961" points="188,119 244,103 127,90" />
<polygon fill="#007d2f" fill-opacity="0.501961" points="115,150 98,124 157,116" />
<polygon fill="#4e82ff" fill-opacity="0.501961" points="52,177 96,130 145,178" />
<polygon fill="#4a90fc" fill-opacity="0.501961" points="32,60 6,86 75,58" />
<polygon fill="#5b93ea" fill-opacity="0.501961" points="92,66 163,68 103,92" />
<polygon fill="#39a580" fill-opacity="0.501961" points="131,3 163,106 102,17" />
<polygon fill="#ffffff" fill-opacity="0.501961" points="269,189 205,209 136,191" />
<polygon fill="#4875ed" fill-opacity="0.501961" points="146,135 160,103 190,145" />
<polygon fill="#00a839" fill-opacity="0.501961" points="211,15 247,3 170,3" />
<polygon fill="#00b01d" fill-opacity="0.501961" points="52,178 22,187 77,187" />
<polygon fill="#00a917" fill-opacity="0.501961" points="15,147 4,187 16,186" />
<polygon fill="#a88132" fill-opacity="0.501961" points="17,107 22,133 60,83" />
<polygon fill="#ffffff" fill-opacity="0.501961" points="-16,132 2,59 4,157" />
<polygon fill="#73657c" fill-opacity="0.501961" points="109,37 251,28 149,4" />
<polygon fill="#00b833" fill-opacity="0.501961" points="107,177 86,188 141,186" />
<polygon fill="#5181ff" fill-opacity="0.501961" points="238,124 237,41 165,37" />
<polygon fill="#ffffff" fill-opacity="0.501961" points="21,191 150,189 88,209" />
<polygon fill="#457cff" fill-opacity="0.501961" points="16,160 153,148 121,181" />
<polygon fill="#4796ff" fill-opacity="0.501961" points="191,162 172,164 181,137" />
<polygon fill="#ffffff" fill-opacity="0.501961" points="252,-11 254,100 271,42" />
<polygon fill="#239f47" fill-opacity="0.501961" points="143,63 52,53 173,34" />
<polygon fill="#fff2f1" fill-opacity="0.501961" points="37,34 48,45 63,30" />
<polygon fill="#945e10" fill-opacity="0.501961" points="46,6 110,43 98,8" />
<polygon fill="#ac9c5d" fill-opacity="0.501961" points="83,110 79,153 51,155" />
<polygon fill="#4f85ff" fill-opacity="0.501961" points="17,155 84,176 15,178" />
<polygon fill="#00a642" fill-opacity="0.501961" points="4,43 3,161 21,104" />
<polygon fill="#00aa32" fill-opacity="0.501961" points="249,42 249,111 238,81" />
<polygon fill="#ffffff" fill-opacity="0.501961" points="251,175 271,205 256,120" />
<polygon fill="#3f7244" fill-opacity="0.501961" points="143,113 96,119 152,71" />
<polygon fill="#4580ff" fill-opacity="0.501961" points="137,84 159,96 194,81" />
<polygon fill="#559eff" fill-opacity="0.501961" points="66,53 35,42 62,39" />
<polygon fill="#00ab2a" fill-opacity="0.501961" points="84,189 63,182 103,181" />
<polygon fill="#6b70ff" fill-opacity="0.501961" points="232,150 237,130 238,166" />
<polygon fill="#ffffff" fill-opacity="0.501961" points="98,2 -14,2 53,-16" />
<polygon fill="#ffffff" fill-opacity="0.501961" points="2,81 -16,52 2,-15" />
<polygon fill="#ffffff" fill-opacity="0.501961" points="220,-16 251,1 157,2" />
<polygon fill="#7381ff" fill-opacity="0.501961" points="198,12 235,12 222,20" />
<polygon fill="#ffc5d4" fill-opacity="0.501961" points="40,24 44,16 59,16" />
<polygon fill="#201c1a" fill-opacity="0.501961" points="197,147 180,133 232,113" />
<polygon fill="#516c3e" fill-opacity="0.501961" points="84,93 61,67 118,77" />
<polygon fill="#009643" fill-opacity="0.501961" points="182,3 171,15 131,3" />
<polygon fill="#e6ea8e" fill-opacity="0.501961" points="57,138 78,85 36,98" />
<polygon fill="#1f8f55" fill-opacity="0.501961" points="83,21 60,21 71,79" />
<polygon fill="#230f0c" fill-opacity="0.501961" points="176,176 211,166 167,164" />
<polygon fill="#f6d8d3" fill-opacity="0.501961" points="148,111 141,94 153,106" />
<polygon fill="#009b33" fill-opacity="0.501961" points="250,122 235,122 249,176" />
<polygon fill="#278a46" fill-opacity="0.501961" points="111,148 138,152 146,98" />
<polygon fill="#b9aa88" fill-opacity="0.501961" points="211,105 236,101 240,113" />
<polygon fill="#ffffff" fill-opacity="0.501961" points="-16,164 1,110 4,209" />
<polygon fill="#3c2f16" fill-opacity="0.501961" points="60,21 53,31 39,32" />
<polygon fill="#00a03e" fill-opacity="0.501961" points="237,34 249,2 247,74" />
<polygon fill="#6e501a" fill-opacity="0.501961" points="165,133 161,118 175,127" />
<polygon fill="#4797ff" fill-opacity="0.501961" points="100,88 137,82 174,42" />
<polygon fill="#0e9a4d" fill-opacity="0.501961" points="6,103 3,20 36,23" />
<polygon fill="#58a249" fill-opacity="0.501961" points="55,47 36,45 30,109" />
<polygon fill="#ffffa4" fill-opacity="0.501961" points="14,133 27,131 39,151" />
<polygon fill="#ffffff" fill-opacity="0.501961" points="209,0 87,2 147,-16" />
<polygon fill="#00b249" fill-opacity="0.501961" points="3,176 40,182 17,187" />
<polygon fill="#4b512e" fill-opacity="0.501961" points="83,129 71,121 80,117" />
<polygon fill="#3e1f1a" fill-opacity="0.501961" points="173,142 148,183 149,149" />
<polygon fill="#659276" fill-opacity="0.501961" points="14,22 18,76 35,28" />
<polygon fill="#5ab3ff" fill-opacity="0.501961" points="30,149 16,133 17,150" />
<polygon fill="#6da0f0" fill-opacity="0.501961" points="127,38 132,30 107,22" />
<polygon fill="#85ba7e" fill-opacity="0.501961" points="119,76 95,56 74,67" />
<polygon fill="#4c4346" fill-opacity="0.501961" points="189,163 236,173 228,103" />
<polygon fill="#ffffff" fill-opacity="0.501961" points="-14,189 42,209 105,191" />
<polygon fill="#b1a89b" fill-opacity="0.501961" points="181,101 151,109 208,110" />
<polygon fill="#4f85ff" fill-opacity="0.501961" points="31,58 16,85 44,65" />
<polygon fill="#3b61a6" fill-opacity="0.501961" points="239,111 198,106 190,127" />
<polygon fill="#4e8ff6" fill-opacity="0.501961" points="142,161 149,124 167,112" />
<polygon fill="#6189ed" fill-opacity="0.501961" points="164,172 164,180 180,179" />
<polygon fill="#504f58" fill-opacity="0.501961" points="189,93 177,107 147,95" />
<polygon fill="#4984fe" fill-opacity="0.501961" points="141,180 148,162 100,141" />
<polygon fill="#6e6571" fill-opacity="0.501961" points="196,37 129,8 243,20" />
<polygon fill="#7c6833" fill-opacity="0.501961" points="156,79 141,84 144,66" />
<polygon fill="#3164a8" fill-opacity="0.501961" points="217,150 198,157 215,165" />
<polygon fill="#107f54" fill-opacity="0.501961" points="26,69 62,85 96,75" />
<polygon fill="#62db4e" fill-opacity="0.501961" points="116,70 119,39 135,40" />
<polygon fill="#009e3d" fill-opacity="0.501961" points="249,142 237,101 249,66" />
<polygon fill="#dbd79f" fill-opacity="0.501961" points="26,113 94,127 86,144" />
<polygon fill="#c1931e" fill-opacity="0.501961" points="74,89 102,92 82,80" />
<polygon fill="#0b8066" fill-opacity="0.501961" points="92,14 69,26 112,18" />
<polygon fill="#198a53" fill-opacity="0.501961" points="99,126 141,85 111,87" />
<polygon fill="#db9b37" fill-opacity="0.501961" points="82,28 103,32 96,19" />
<polygon fill="#ab740b" fill-opacity="0.501961" points="52,152 66,151 65,135" />
<polygon fill="#2b874d" fill-opacity="0.501961" points="97,133 157,107 130,152" />
<polygon fill="#ad5c4c" fill-opacity="0.501961" points="138,107 121,117 124,98" />
<polygon fill="#00a24a" fill-opacity="0.501961" points="241,135 251,182 237,189" />
<polygon fill="#ffd5ca" fill-opacity="0.501961" points="37,43 60,30 55,41" />
<polygon fill="#3b80fe" fill-opacity="0.501961" points="28,46 29,62 40,40" />
<polygon fill="#301d27" fill-opacity="0.501961" points="228,113 187,138 241,132" />
<polygon fill="#f4d5ad" fill-opacity="0.501961" points="49,59 36,62 39,54" />
<polygon fill="#009f3a" fill-opacity="0.501961" points="125,10 146,3 109,3" />
<polygon fill="#393709" fill-opacity="0.501961" points="43,11 8,15 33,26" />
<polygon fill="#4597fb" fill-opacity="0.501961" points="110,115 108,124 123,113" />
<polygon fill="#487ef7" fill-opacity="0.501961" points="204,102 215,30 143,67" />
<polygon fill="#419ee8" fill-opacity="0.501961" points="106,85 105,100 95,72" />
<polygon fill="#00ab4b" fill-opacity="0.501961" points="14,180 5,150 16,117" />
<polygon fill="#58420a" fill-opacity="0.501961" points="107,17 114,4 64,5" />
<polygon fill="#ff7e83" fill-opacity="0.501961" points="44,16 51,26 65,17" />
<polygon fill="#c0c8c6" fill-opacity="0.501961" points="126,23 141,26 121,31" />
<polygon fill="#faeda4" fill-opacity="0.501961" points="59,99 96,128 85,97" />
<polygon fill="#cfc6c2" fill-opacity="0.501961" points="159,102 154,110 179,102" />
<polygon fill="#fff0ef" fill-opacity="0.501961" points="140,188 206,190 157,209" />
<polygon fill="#813a24" fill-opacity="0.501961" points="113,71 112,82 99,82" />
<polygon fill="#1c8053" fill-opacity="0.501961" points="142,31 118,67 165,48" />
<polygon fill="#c1bebe" fill-opacity="0.501961" points="168,18 154,23 182,21" />
<polygon fill="#5fd04c" fill-opacity="0.501961" points="36,70 32,93 11,95" />
<polygon fill="#009a3e" fill-opacity="0.501961" points="7,9 6,2 20,2" />
<polygon fill="#2c170c" fill-opacity="0.501961" points="158,160 140,162 156,139" />
<polygon fill="#fff9ec" fill-opacity="0.501961" points="197,103 194,110 191,101" />
<polygon fill="#794f3d" fill-opacity="0.501961" points="188,161 237,142 193,144" />
<polygon fill="#5d7bb9" fill-opacity="0.501961" points="69,126 62,115 60,122" />
<polygon fill="#529eff" fill-opacity="0.501961" points="74,36 60,38 63,42" />
<polygon fill="#1f6835" fill-opacity="0.501961" points="119,33 103,21 111,66" />
<polygon fill="#533f47" fill-opacity="0.501961" points="166,186 172,144 138,186" />
<polygon fill="#f1f2e4" fill-opacity="0.501961" points="223,102 226,109 215,110" />
<polygon fill="#8e5c1e" fill-opacity="0.501961" points="50,95 63,87 35,78" />
<polygon fill="#ffff92" fill-opacity="0.501961" points="35,159 21,155 21,147" />
<polygon fill="#143d1e" fill-opacity="0.501961" points="157,108 153,100 154,121" />
<polygon fill="#00af4c" fill-opacity="0.501961" points="3,11 10,72 16,37" />
<polygon fill="#4c81ff" fill-opacity="0.501961" points="167,135 185,164 189,143" />
<polygon fill="#01133d" fill-opacity="0.501961" points="162,114 166,102 168,105" />
<polygon fill="#7cbfd3" fill-opacity="0.501961" points="150,180 91,179 120,171" />
<polygon fill="#373e45" fill-opacity="0.501961" points="204,23 176,23 209,33" />
<polygon fill="#957243" fill-opacity="0.501961" points="17,129 35,132 29,117" />
<polygon fill="#9c7236" fill-opacity="0.501961" points="34,94 16,117 42,111" />
<polygon fill="#ffffff" fill-opacity="0.501961" points="145,94 139,96 142,100" />
<polygon fill="#8bd9db" fill-opacity="0.501961" points="37,174 52,180 19,180" />
<polygon fill="#5bc540" fill-opacity="0.501961" points="136,151 150,143 124,140" />
<polygon fill="#4579f3" fill-opacity="0.501961" points="92,130 145,177 101,177" />
<polygon fill="#c7c187" fill-opacity="0.501961" points="38,143 57,154 34,101" />
<polygon fill="#009b43" fill-opacity="0.501961" points="248,4 250,15 211,5" />
<polygon fill="#1d3c14" fill-opacity="0.501961" points="146,104 147,96 137,107" />
<polygon fill="#82d674" fill-opacity="0.501961" points="25,57 17,57 16,79" />
<polygon fill="#bbf66e" fill-opacity="0.501961" points="102,96 64,97 70,85" />
<polygon fill="#619bd7" fill-opacity="0.501961" points="69,143 73,136 95,156" />
<polygon fill="#ffffff" fill-opacity="0.501961" points="256,86 253,-15 271,43" />
<polygon fill="#4690fb" fill-opacity="0.501961" points="119,96 115,67 127,68" />
<polygon fill="#ffe66d" fill-opacity="0.501961" points="75,155 73,141 78,142" />
<polygon fill="#46c443" fill-opacity="0.501961" points="95,67 83,46 109,63" />
<polygon fill="#2c3340" fill-opacity="0.501961" points="221,124 227,105 235,147" />
<polygon fill="#457bf9" fill-opacity="0.501961" points="50,171 53,146 22,178" />
<polygon fill="#00a447" fill-opacity="0.501961" points="138,179 108,182 140,188" />
<polygon fill="#000e2e" fill-opacity="0.501961" points="215,100 214,113 219,111" />
<polygon fill="#e4e292" fill-opacity="0.501961" points="51,127 25,115 70,109" />
<polygon fill="#019f55" fill-opacity="0.501961" points="224,3 160,4 182,15" />
<polygon fill="#726b6f" fill-opacity="0.501961" points="174,8 123,9 169,21" />
<polygon fill="#b76b17" fill-opacity="0.501961" points="45,16 49,6 20,7" />
<polygon fill="#3a75f8" fill-opacity="0.501961" points="192,117 176,135 208,117" />
<polygon fill="#533040" fill-opacity="0.501961" points="68,57 64,75 75,73" />
<polygon fill="#207c3a" fill-opacity="0.501961" points="29,59 31,66 10,71" />
<polygon fill="#47e130" fill-opacity="0.501961" points="142,63 129,59 139,68" />
<polygon fill="#ffffff" fill-opacity="0.501961" points="255,112 253,209 271,176" />
<polygon fill="#161950" fill-opacity="0.501961" points="144,179 150,166 175,174" />
<polygon fill="#89c792" fill-opacity="0.501961" points="21,91 17,108 16,79" />
<polygon fill="#7f6f45" fill-opacity="0.501961" points="71,118 87,130 71,128" />
<polygon fill="#1f6b61" fill-opacity="0.501961" points="21,58 37,37 22,31" />
<polygon fill="#ffffff" fill-opacity="0.501961" points="-16,58 3,121 1,-2" />
<polygon fill="#227855" fill-opacity="0.501961" points="147,135 114,149 116,108" />
<polygon fill="#04703d" fill-opacity="0.501961" points="127,94 139,86 148,95" />
<polygon fill="#0a2e77" fill-opacity="0.501961" points="213,18 201,28 206,14" />
<polygon fill="#4379f3" fill-opacity="0.501961" points="45,176 70,150 92,174" />
<polygon fill="#548aff" fill-opacity="0.501961" points="23,83 40,63 16,74" />
<polygon fill="#a1a8ad" fill-opacity="0.501961" points="184,11 206,17 168,17" />
<polygon fill="#40dc48" fill-opacity="0.501961" points="126,11 136,20 109,18" />
<polygon fill="#2a1e49" fill-opacity="0.501961" points="228,179 217,159 199,176" />
<polygon fill="#000500" fill-opacity="0.501961" points="147,27 143,30 144,20" />
<polygon fill="#646976" fill-opacity="0.501961" points="186,110 222,114 160,124" />
<polygon fill="#fcfbf4" fill-opacity="0.501961" points="178,111 179,105 186,103" />
<polygon fill="#00802a" fill-opacity="0.501961" points="40,2 23,2 39,7" />
<polygon fill="#2860e4" fill-opacity="0.501961" points="181,119 155,112 181,111" />
<polygon fill="#5d7c90" fill-opacity="0.501961" points="46,129 52,131 54,145" />
<polygon fill="#525a2b" fill-opacity="0.501961" points="153,69 156,81 144,82" />
<polygon fill="#6a82ff" fill-opacity="0.501961" points="237,126 232,113 238,115" />
<polygon fill="#3d8bff" fill-opacity="0.501961" points="66,63 51,68 52,53" />
<polygon fill="#3c7fff" fill-opacity="0.501961" points="21,175 30,167 16,149" />
<polygon fill="#006221" fill-opacity="0.501961" points="56,10 63,3 40,3" />
<polygon fill="#8a8483" fill-opacity="0.501961" points="154,25 169,34 203,24" />
<polygon fill="#2e3b42" fill-opacity="0.501961" points="184,12 184,36 191,17" />
<polygon fill="#ffffff" fill-opacity="0.501961" points="142,192 204,209 260,190" />
<polygon fill="#00a140" fill-opacity="0.501961" points="11,134 16,180 3,173" />
<polygon fill="#11233d" fill-opacity="0.501961" points="194,93 187,111 188,99" />
<polygon fill="#458df3" fill-opacity="0.501961" points="152,94 129,61 116,71" />
<polygon fill="#477cf3" fill-opacity="0.501961" points="234,98 162,38 233,33" />
<polygon fill="#091f16" fill-opacity="0.501961" points="159,36 159,25 165,34" />
<polygon fill="#c9be99" fill-opacity="0.501961" points="219,28 233,24 240,28" />
<polygon fill="#fffffb" fill-opacity="0.501961" points="2,204 -16,147 2,114" />
<polygon fill="#a5998a" fill-opacity="0.501961" points="160,168 172,158 167,157" />
<polygon fill="#caa7dc" fill-opacity="0.501961" points="30,25 32,37 27,32" />
<polygon fill="#a34800" fill-opacity="0.501961" points="27,17 20,23 9,20" />
<polygon fill="#304a7b" fill-opacity="0.501961" points="197,105 210,99 200,123" />
<polygon fill="#00a247" fill-opacity="0.501961" points="15,65 4,102 15,119" />
<polygon fill="#4491ff" fill-opacity="0.501961" points="62,42 51,42 54,53" />
<polygon fill="#009746" fill-opacity="0.501961" points="62,188 74,180 39,182" />
<polygon fill="#2d4400" fill-opacity="0.501961" points="50,76 52,83 34,74" />
<polygon fill="#fff5aa" fill-opacity="0.501961" points="45,125 68,126 71,139" />
<polygon fill="#4d77ef" fill-opacity="0.501961" points="212,14 234,22 237,13" />
<polygon fill="#fff9a2" fill-opacity="0.501961" points="29,141 34,131 16,135" />
<polygon fill="#614339" fill-opacity="0.501961" points="207,187 243,188 216,179" />
<polygon fill="#3685ff" fill-opacity="0.501961" points="201,169 204,171 211,168" />
<polygon fill="#009844" fill-opacity="0.501961" points="251,36 240,11 239,67" />
<polygon fill="#bd92a5" fill-opacity="0.501961" points="95,64 80,72 83,63" />
<polygon fill="#339857" fill-opacity="0.501961" points="59,52 76,69 126,38" />
<polygon fill="#cdc1a5" fill-opacity="0.501961" points="227,23 236,19 216,21" />
<polygon fill="#f8eb8f" fill-opacity="0.501961" points="35,155 25,141 43,153" />
<polygon fill="#454646" fill-opacity="0.501961" points="175,28 166,30 163,12" />
<polygon fill="#3fa2ff" fill-opacity="0.501961" points="98,66 106,65 96,76" />
<polygon fill="#fe9d46" fill-opacity="0.501961" points="106,9 114,6 98,6" />
<polygon fill="#2cb022" fill-opacity="0.501961" points="47,45 36,49 34,59" />
<polygon fill="#b7b4b9" fill-opacity="0.501961" points="187,31 169,35 165,30" />
<polygon fill="#0c090a" fill-opacity="0.501961" points="148,13 155,10 166,13" />
<polygon fill="#3de872" fill-opacity="0.501961" points="64,71 64,65 42,71" />
<polygon fill="#4981ff" fill-opacity="0.501961" points="188,160 186,146 170,163" />
<polygon fill="#488d4a" fill-opacity="0.501961" points="47,119 40,119 43,124" />
<polygon fill="#00a043" fill-opacity="0.501961" points="239,70 250,106 239,144" />
<polygon fill="#162908" fill-opacity="0.501961" points="114,56 113,49 99,56" />
<polygon fill="#86d9d4" fill-opacity="0.501961" points="53,179 72,174 91,180" />
<polygon fill="#487bf1" fill-opacity="0.501961" points="43,177 143,177 143,150" />
<polygon fill="#36333d" fill-opacity="0.501961" points="234,100 236,107 231,112" />
<polygon fill="#46a7ff" fill-opacity="0.501961" points="94,120 98,119 99,110" />
<polygon fill="#ffffff" fill-opacity="0.501961" points="201,-1 268,4 271,-16" />
<polygon fill="#00883f" fill-opacity="0.501961" points="79,186 66,180 96,181" />
<polygon fill="#191b15" fill-opacity="0.501961" points="233,24 227,21 220,24" />
<polygon fill="#00be6a" fill-opacity="0.501961" points="249,70 238,45 239,75" />
<polygon fill="#d4cdd2" fill-opacity="0.501961" points="154,28 150,20 152,14" />
<polygon fill="#dbe08f" fill-opacity="0.501961" points="16,114 17,132 22,120" />
<polygon fill="#3bd54e" fill-opacity="0.501961" points="61,21 76,37 62,33" />
<polygon fill="#48a1ff" fill-opacity="0.501961" points="141,72 157,55 146,56" />
<polygon fill="#ffffff" fill-opacity="0.501961" points="147,110 154,102 146,105" />
<polygon fill="#487df4" fill-opacity="0.501961" points="229,100 164,43 194,99" />
<polygon fill="#ffffff" fill-opacity="0.501961" points="1,0 70,2 63,-15" />
<polygon fill="#319046" fill-opacity="0.501961" points="18,112 18,83 37,81" />
<polygon fill="#c4bdbc" fill-opacity="0.501961" points="255,37 250,55 250,24" />
<polygon fill="#7f4a38" fill-opacity="0.501961" points="217,145 224,133 230,175" />
<polygon fill="#f7f0f6" fill-opacity="0.501961" points="145,31 146,33 153,30" />
<polygon fill="#faf7f5" fill-opacity="0.501961" points="157,34 158,30 155,30" />
<polygon fill="#be6928" fill-opacity="0.501961" points="35,6 56,6 53,11" />
<polygon fill="#fdf5e0" fill-opacity="0.501961" points="190,115 194,113 184,114" />
<polygon fill="#6db9e5" fill-opacity="0.501961" points="101,102 112,99 102,97" />
<polygon fill="#3993e0" fill-opacity="0.501961" points="24,146 31,146 36,160" />
<polygon fill="#66db64" fill-opacity="0.501961" points="120,43 137,39 149,44" />
<polygon fill="#2a352e" fill-opacity="0.501961" points="148,17 149,32 153,17" />
<polygon fill="#187c41" fill-opacity="0.501961" points="99,113 98,135 112,107" />
<polygon fill="#a98134" fill-opacity="0.501961" points="58,21 82,20 73,16" />
<polygon fill="#3a8eff" fill-opacity="0.501961" points="218,152 216,156 218,159" />
<polygon fill="#1a0f05" fill-opacity="0.501961" points="218,166 194,162 193,169" />
<polygon fill="#784c6a" fill-opacity="0.501961" points="120,101 120,114 135,113" />
<polygon fill="#6dcff9" fill-opacity="0.501961" points="238,168 238,158 235,164" />
<polygon fill="#289c58" fill-opacity="0.501961" points="94,74 77,71 101,90" />
<polygon fill="#ffe0c7" fill-opacity="0.501961" points="41,26 43,42 36,28" />
<polygon fill="#00a455" fill-opacity="0.501961" points="6,177 45,185 20,187" />
<polygon fill="#1d734f" fill-opacity="0.501961" points="81,47 87,62 56,56" />
<polygon fill="#b6812d" fill-opacity="0.501961" points="82,34 109,27 97,23" />
<polygon fill="#72511c" fill-opacity="0.501961" points="123,34 138,34 128,31" />
<polygon fill="#6f6144" fill-opacity="0.501961" points="163,121 161,132 176,132" />
<polygon fill="#0e1824" fill-opacity="0.501961" points="179,107 177,102 175,110" />
<polygon fill="#009a44" fill-opacity="0.501961" points="82,187 128,187 102,180" />
<polygon fill="#1e8366" fill-opacity="0.501961" points="118,15 124,26 83,17" />
<polygon fill="#5cabdf" fill-opacity="0.501961" points="28,44 17,49 30,38" />
<polygon fill="#63463f" fill-opacity="0.501961" points="179,148 162,138 155,168" />
<polygon fill="#3a3025" fill-opacity="0.501961" points="235,17 238,22 234,26" />
<polygon fill="#63d473" fill-opacity="0.501961" points="85,48 85,56 100,43" />
<polygon fill="#f8ef9c" fill-opacity="0.501961" points="70,129 90,130 85,144" />
<polygon fill="#00a84f" fill-opacity="0.501961" points="16,22 15,58 5,22" />
<polygon fill="#c6b8bb" fill-opacity="0.501961" points="110,187 92,192 77,187" />
<polygon fill="#53d230" fill-opacity="0.501961" points="48,55 36,48 57,51" />
<polygon fill="#688ca3" fill-opacity="0.501961" points="35,131 52,129 37,135" />
<polygon fill="#e9e2e0" fill-opacity="0.501961" points="165,101 157,101 158,110" />
<polygon fill="#ffffff" fill-opacity="0.501961" points="54,191 119,209 179,192" />
<polygon fill="#2d3320" fill-opacity="0.501961" points="47,25 57,31 46,30" />
<polygon fill="#424442" fill-opacity="0.501961" points="160,14 151,19 178,19" />
<polygon fill="#5e8efa" fill-opacity="0.501961" points="238,92 237,33 228,66" />
<polygon fill="#1d7050" fill-opacity="0.501961" points="140,60 164,44 123,47" />
<polygon fill="#5292fc" fill-opacity="0.501961" points="103,18 107,17 112,26" />
<polygon fill="#5edd53" fill-opacity="0.501961" points="13,91 48,97 29,86" />
<polygon fill="#5c9af5" fill-opacity="0.501961" points="233,134 240,134 237,157" />
<polygon fill="#608faa" fill-opacity="0.501961" points="50,152 37,149 29,138" />
<polygon fill="#ffffff" fill-opacity="0.501961" points="193,1 79,0 133,-16" />
<polygon fill="#c16a24" fill-opacity="0.501961" points="64,7 82,11 81,6" />
<polygon fill="#baf081" fill-opacity="0.501961" points="32,107 40,95 62,93" />
<polygon fill="#4c2f31" fill-opacity="0.501961" points="175,187 192,156 195,185" />
<polygon fill="#456239" fill-opacity="0.501961" points="46,88 34,101 37,75" />
<polygon fill="#00a346" fill-opacity="0.501961" points="238,138 247,170 249,110" />
<polygon fill="#bbb8ac" fill-opacity="0.501961" points="197,33 189,30 204,31" />
<polygon fill="#292a3f" fill-opacity="0.501961" points="161,102 155,97 143,100" />
<polygon fill="#191002" fill-opacity="0.501961" points="184,131 181,135 196,137" />
<polygon fill="#213532" fill-opacity="0.501961" points="227,150 233,163 234,144" />
<polygon fill="#c2bbc0" fill-opacity="0.501961" points="156,20 140,19 143,23" />
<polygon fill="#437dff" fill-opacity="0.501961" points="206,122 176,132 178,122" />
<polygon fill="#feedf8" fill-opacity="0.501961" points="131,11 132,9 135,11" />
<polygon fill="#00743c" fill-opacity="0.501961" points="81,12 82,3 91,5" />
<polygon fill="#f5edda" fill-opacity="0.501961" points="211,109 208,105 216,111" />
<polygon fill="#c06019" fill-opacity="0.501961" points="98,7 87,6 94,15" />
<polygon fill="#4a7cf0" fill-opacity="0.501961" points="149,92 239,96 191,34" />
<polygon fill="#4e80f2" fill-opacity="0.501961" points="237,100 208,30 238,31" />
<polygon fill="#4198ff" fill-opacity="0.501961" points="117,32 124,37 130,36" />
<polygon fill="#eedd8c" fill-opacity="0.501961" points="70,148 68,139 62,154" />
<polygon fill="#7e789d" fill-opacity="0.501961" points="204,180 213,176 226,179" />
<polygon fill="#d5baa4" fill-opacity="0.501961" points="159,190 158,184 169,190" />
<polygon fill="#839588" fill-opacity="0.501961" points="3,181 17,177 21,181" />
<polygon fill="#434a53" fill-opacity="0.501961" points="174,21 169,34 175,35" />
<polygon fill="#122b6a" fill-opacity="0.501961" points="218,179 238,172 246,179" />
<polygon fill="#158b4a" fill-opacity="0.501961" points="199,11 241,12 221,5" />
<polygon fill="#4586f3" fill-opacity="0.501961" points="90,131 110,141 90,169" />
<polygon fill="#23804b" fill-opacity="0.501961" points="134,86 120,90 148,115" />
<polygon fill="#588b77" fill-opacity="0.501961" points="211,8 170,8 189,14" />
<polygon fill="#3c7bff" fill-opacity="0.501961" points="149,136 153,126 167,137" />
<polygon fill="#857121" fill-opacity="0.501961" points="85,83 109,90 84,90" />
<polygon fill="#989896" fill-opacity="0.501961" points="166,18 180,14 157,14" />
<polygon fill="#cac2be" fill-opacity="0.501961" points="250,153 255,135 250,121" />
<polygon fill="#4584ff" fill-opacity="0.501961" points="57,67 39,66 62,60" />
<polygon fill="#868b69" fill-opacity="0.501961" points="73,37 89,39 81,44" />
<polygon fill="#1f3762" fill-opacity="0.501961" points="220,100 228,102 230,99" />
<polygon fill="#87b891" fill-opacity="0.501961" points="22,29 16,51 16,23" />
<polygon fill="#00c973" fill-opacity="0.501961" points="14,151 5,135 15,133" />
<polygon fill="#7fcca0" fill-opacity="0.501961" points="215,9 221,6 228,9" />
<polygon fill="#603029" fill-opacity="0.501961" points="216,179 225,168 210,167" />
<polygon fill="#009c33" fill-opacity="0.501961" points="228,8 197,7 213,3" />
<polygon fill="#d4d1be" fill-opacity="0.501961" points="176,100 170,97 180,97" />
<polygon fill="#156640" fill-opacity="0.501961" points="18,47 28,38 17,34" />
<polygon fill="#694114" fill-opacity="0.501961" points="28,7 69,8 46,15" />
<polygon fill="#363d5b" fill-opacity="0.501961" points="231,138 240,130 226,109" />
<polygon fill="#fffefe" fill-opacity="0.501961" points="254,69 271,127 253,177" />
</g>
</svg>