<svg xmlns="http://www.w3.org/2000/svg" version="1.1" width="1024" height="576">
<rect x="0" y="0" width="1024" height="576" fill="#babcc5" />
<g transform="scale(4.000000) translate(0.5 0.5)">
<polygon fill="#07001f" fill-opacity="0.501961" points="168,140 73,159 128,23" />
<polygon fill="#ffffff" fill-opacity="0.501961" points="-16,1 11,122 155,-9" />
<polygon fill="#fefffe" fill-opacity="0.501961" points="178,124 271,9 123,-16" />
<polygon fill="#544860" fill-opacity="0.501961" points="149,105 -16,138 271,159" />
<polygon fill="#51516c" fill-opacity="0.501961" points="86,26 132,159 150,39" />
<polygon fill="#fffffc" fill-opacity="0.501961" points="-16,96 106,105 77,30" />
<polygon fill="#707082" fill-opacity="0.501961" points="115,123 0,120 -1,159" />
<polygon fill="#e9ebed" fill-opacity="0.501961" points="271,65 162,131 143,26" />
<polygon fill="#93aac7" fill-opacity="0.501961" points="155,54 136,22 42,24" />
<polygon fill="#a0afc8" fill-opacity="0.501961" points="92,141 95,99 -16,107" />
<polygon fill="#a8b3bd" fill-opacity="0.501961" points="165,26 268,41 261,7" />
<polygon fill="#a8afc1" fill-opacity="0.501961" points="163,131 144,90 258,127" />
<polygon fill="#eeeeec" fill-opacity="0.501961" points="60,109 -16,51 102,24" />
<polygon fill="#646577" fill-opacity="0.501961" points="106,32 101,109 148,49" />
<polygon fill="#94adc3" fill-opacity="0.501961" points="61,30 15,18 -16,34" />
<polygon fill="#372940" fill-opacity="0.501961" points="168,148 128,113 78,159" />
<polygon fill="#eeeeed" fill-opacity="0.501961" points="151,99 256,105 159,29" />
<polygon fill="#c4cbd0" fill-opacity="0.501961" points="223,-16 271,89 213,159" />
<polygon fill="#f8f7f3" fill-opacity="0.501961" points="158,-16 124,22 226,20" />
<polygon fill="#0f140e" fill-opacity="0.501961" points="255,44 255,134 271,97" />
<polygon fill="#f7f6f2" fill-opacity="0.501961" points="42,-16 -16,22 114,20" />
<polygon fill="#5f5d70" fill-opacity="0.501961" points="45,133 88,129 88,145" />
<polygon fill="#7c7983" fill-opacity="0.501961" points="194,119 225,134 128,159" />
<polygon fill="#646874" fill-opacity="0.501961" points="147,59 86,48 150,89" />
<polygon fill="#5d4d5d" fill-opacity="0.501961" points="-16,143 -16,126 46,137" />
<polygon fill="#191d15" fill-opacity="0.501961" points="255,-16 271,19 257,73" />
<polygon fill="#c6c3d8" fill-opacity="0.501961" points="92,124 104,83 91,93" />
<polygon fill="#a0aac0" fill-opacity="0.501961" points="170,104 159,139 214,101" />
<polygon fill="#7790b4" fill-opacity="0.501961" points="120,22 95,66 86,48" />
<polygon fill="#a8b1c6" fill-opacity="0.501961" points="147,21 171,34 217,23" />
<polygon fill="#9db2c2" fill-opacity="0.501961" points="112,-16 101,18 122,8" />
<polygon fill="#e8e8e9" fill-opacity="0.501961" points="107,21 45,106 -16,80" />
<polygon fill="#574765" fill-opacity="0.501961" points="160,109 161,156 105,71" />
<polygon fill="#efefee" fill-opacity="0.501961" points="-16,26 86,106 101,75" />
<polygon fill="#a6b5ce" fill-opacity="0.501961" points="85,104 11,121 -16,100" />
<polygon fill="#cecfb5" fill-opacity="0.501961" points="184,159 164,142 239,141" />
<polygon fill="#8b9dbc" fill-opacity="0.501961" points="147,37 97,34 127,21" />
<polygon fill="#f2f1ef" fill-opacity="0.501961" points="223,31 205,66 165,32" />
<polygon fill="#b8b3c2" fill-opacity="0.501961" points="50,132 47,125 27,128" />
<polygon fill="#0f130e" fill-opacity="0.501961" points="256,120 255,146 261,133" />
<polygon fill="#cbcfd4" fill-opacity="0.501961" points="254,124 212,23 254,-16" />
<polygon fill="#796e97" fill-opacity="0.501961" points="98,103 103,131 109,87" />
<polygon fill="#8082a5" fill-opacity="0.501961" points="143,104 157,109 143,62" />
<polygon fill="#bbb993" fill-opacity="0.501961" points="50,159 83,141 -12,141" />
<polygon fill="#d1d7e0" fill-opacity="0.501961" points="216,113 178,118 220,124" />
<polygon fill="#55475f" fill-opacity="0.501961" points="117,138 148,67 107,79" />
<polygon fill="#888f9e" fill-opacity="0.501961" points="176,131 207,124 162,119" />
<polygon fill="#a4a5a4" fill-opacity="0.501961" points="0,-5 -16,54 1,98" />
<polygon fill="#a9bfcd" fill-opacity="0.501961" points="84,33 42,21 96,21" />
<polygon fill="#696870" fill-opacity="0.501961" points="142,40 94,58 132,93" />
<polygon fill="#677b83" fill-opacity="0.501961" points="228,159 212,126 241,159" />
<polygon fill="#f0c6db" fill-opacity="0.501961" points="86,152 91,132 92,145" />
<polygon fill="#efecec" fill-opacity="0.501961" points="163,103 192,88 148,94" />
<polygon fill="#8f9db6" fill-opacity="0.501961" points="-16,116 -12,102 32,113" />
<polygon fill="#665d6b" fill-opacity="0.501961" points="181,141 208,138 169,130" />
<polygon fill="#ebebeb" fill-opacity="0.501961" points="123,-16 125,26 255,-5" />
<polygon fill="#96a7bc" fill-opacity="0.501961" points="153,30 151,21 164,31" />
<polygon fill="#efeeed" fill-opacity="0.501961" points="7,32 1,80 89,34" />
<polygon fill="#f4f4ee" fill-opacity="0.501961" points="107,22 87,40 99,14" />
<polygon fill="#afb0c5" fill-opacity="0.501961" points="169,133 175,159 163,143" />
<polygon fill="#bdc5d3" fill-opacity="0.501961" points="88,120 96,98 16,120" />
<polygon fill="#6e799d" fill-opacity="0.501961" points="146,47 96,53 117,28" />
<polygon fill="#c8c6d3" fill-opacity="0.501961" points="165,120 181,118 155,101" />
<polygon fill="#616983" fill-opacity="0.501961" points="19,126 -16,116 -16,128" />
<polygon fill="#655b7b" fill-opacity="0.501961" points="150,97 163,127 139,110" />
<polygon fill="#9fb0c4" fill-opacity="0.501961" points="-3,20 0,31 37,29" />
<polygon fill="#d3d9df" fill-opacity="0.501961" points="228,143 214,124 214,91" />
<polygon fill="#858d9d" fill-opacity="0.501961" points="89,120 51,135 19,121" />
<polygon fill="#605376" fill-opacity="0.501961" points="93,116 133,115 104,99" />
<polygon fill="#99a8c2" fill-opacity="0.501961" points="100,82 106,93 94,100" />
<polygon fill="#e9e9ea" fill-opacity="0.501961" points="-7,105 100,74 58,35" />
<polygon fill="#595a74" fill-opacity="0.501961" points="89,132 73,131 84,156" />
<polygon fill="#97a7c1" fill-opacity="0.501961" points="84,46 134,24 116,20" />
<polygon fill="#353b4e" fill-opacity="0.501961" points="102,56 111,59 112,52" />
<polygon fill="#a6a4b2" fill-opacity="0.501961" points="204,121 201,130 170,129" />
<polygon fill="#42384f" fill-opacity="0.501961" points="97,159 108,119 197,159" />
<polygon fill="#cdceda" fill-opacity="0.501961" points="149,78 158,60 147,27" />
<polygon fill="#f4f4f1" fill-opacity="0.501961" points="104,-16 71,-4 99,14" />
<polygon fill="#c6cdd0" fill-opacity="0.501961" points="254,-6 214,-5 254,72" />
<polygon fill="#747180" fill-opacity="0.501961" points="41,143 81,131 37,130" />
<polygon fill="#9dacc7" fill-opacity="0.501961" points="214,116 174,113 212,103" />
<polygon fill="#7a8eac" fill-opacity="0.501961" points="100,36 101,72 92,55" />
<polygon fill="#9cacc5" fill-opacity="0.501961" points="213,22 183,28 214,30" />
<polygon fill="#5f506f" fill-opacity="0.501961" points="103,137 89,158 96,109" />
<polygon fill="#edeceb" fill-opacity="0.501961" points="140,15 166,43 146,42" />
<polygon fill="#a2afc4" fill-opacity="0.501961" points="85,102 37,114 90,115" />
<polygon fill="#69758f" fill-opacity="0.501961" points="145,51 151,85 132,58" />
<polygon fill="#7889aa" fill-opacity="0.501961" points="127,30 142,34 149,57" />
<polygon fill="#8a9da8" fill-opacity="0.501961" points="64,147 69,152 70,130" />
<polygon fill="#b1c3d2" fill-opacity="0.501961" points="5,32 77,32 46,21" />
<polygon fill="#ececeb" fill-opacity="0.501961" points="219,99 208,32 167,102" />
<polygon fill="#b394af" fill-opacity="0.501961" points="104,115 101,122 106,121" />
<polygon fill="#433f59" fill-opacity="0.501961" points="143,66 137,102 134,77" />
<polygon fill="#c2d3e2" fill-opacity="0.501961" points="44,101 97,100 71,108" />
<polygon fill="#766f7e" fill-opacity="0.501961" points="210,141 216,130 176,130" />
<polygon fill="#51658f" fill-opacity="0.501961" points="102,96 109,87 105,66" />
<polygon fill="#7b8a99" fill-opacity="0.501961" points="188,128 209,121 167,122" />
<polygon fill="#bec2c4" fill-opacity="0.501961" points="217,122 235,159 250,99" />
<polygon fill="#c1cad2" fill-opacity="0.501961" points="84,46 85,58 97,33" />
<polygon fill="#c0a9bb" fill-opacity="0.501961" points="31,132 42,128 18,128" />
<polygon fill="#3e4551" fill-opacity="0.501961" points="131,57 128,47 137,52" />
<polygon fill="#70647a" fill-opacity="0.501961" points="6,130 42,130 40,141" />
<polygon fill="#ccced7" fill-opacity="0.501961" points="55,123 74,116 37,117" />
<polygon fill="#ebebeb" fill-opacity="0.501961" points="217,-16 215,21 95,20" />
<polygon fill="#ebebeb" fill-opacity="0.501961" points="-8,-16 87,22 10,22" />
<polygon fill="#897c83" fill-opacity="0.501961" points="115,55 125,58 114,33" />
<polygon fill="#675976" fill-opacity="0.501961" points="158,126 163,122 160,132" />
<polygon fill="#ebebeb" fill-opacity="0.501961" points="1,33 3,100 97,32" />
<polygon fill="#edebeb" fill-opacity="0.501961" points="164,54 154,83 162,115" />
<polygon fill="#7e8f93" fill-opacity="0.501961" points="195,121 201,145 194,144" />
<polygon fill="#675d6e" fill-opacity="0.501961" points="171,131 191,138 171,140" />
<polygon fill="#696e74" fill-opacity="0.501961" points="0,159 0,101 -13,133" />
<polygon fill="#c7c9c9" fill-opacity="0.501961" points="214,135 212,159 220,141" />
<polygon fill="#ab9fb7" fill-opacity="0.501961" points="102,99 91,110 90,130" />
<polygon fill="#bfbccc" fill-opacity="0.501961" points="165,131 169,104 159,101" />
<polygon fill="#ededec" fill-opacity="0.501961" points="94,100 37,96 96,65" />
<polygon fill="#cbb8ca" fill-opacity="0.501961" points="160,103 153,94 143,91" />
<polygon fill="#3b475f" fill-opacity="0.501961" points="107,75 126,81 110,85" />
<polygon fill="#786c8e" fill-opacity="0.501961" points="157,102 159,119 142,93" />
<polygon fill="#544762" fill-opacity="0.501961" points="102,139 106,116 151,112" />
<polygon fill="#d1d4dd" fill-opacity="0.501961" points="216,22 218,84 255,99" />
<polygon fill="#d7d5de" fill-opacity="0.501961" points="16,118 42,120 28,115" />
<polygon fill="#c4c7d4" fill-opacity="0.501961" points="101,98 101,78 88,113" />
<polygon fill="#babfc5" fill-opacity="0.501961" points="249,33 254,20 221,30" />
<polygon fill="#728090" fill-opacity="0.501961" points="58,125 90,128 76,121" />
<polygon fill="#686168" fill-opacity="0.501961" points="111,46 125,97 136,68" />
<polygon fill="#bec4c7" fill-opacity="0.501961" points="254,148 226,99 253,103" />
<polygon fill="#9aa9bc" fill-opacity="0.501961" points="88,50 97,32 91,63" />
<polygon fill="#a6b4cd" fill-opacity="0.501961" points="114,22 131,23 130,33" />
<polygon fill="#dbd0d9" fill-opacity="0.501961" points="93,113 97,99 93,98" />
<polygon fill="#5e5e80" fill-opacity="0.501961" points="97,106 100,121 95,116" />
<polygon fill="#b0bece" fill-opacity="0.501961" points="89,62 100,76 97,65" />
<polygon fill="#777f98" fill-opacity="0.501961" points="14,120 30,127 -6,125" />
<polygon fill="#53345a" fill-opacity="0.501961" points="126,96 116,87 111,105" />
<polygon fill="#baacb7" fill-opacity="0.501961" points="67,130 83,129 73,126" />
<polygon fill="#b7c7d8" fill-opacity="0.501961" points="164,103 195,110 198,101" />
<polygon fill="#7b8690" fill-opacity="0.501961" points="209,124 226,139 209,131" />
<polygon fill="#a6b8c7" fill-opacity="0.501961" points="71,31 96,24 89,31" />
<polygon fill="#7c6d82" fill-opacity="0.501961" points="160,134 167,143 167,135" />
<polygon fill="#6c6170" fill-opacity="0.501961" points="70,142 58,134 48,138" />
<polygon fill="#7e7b83" fill-opacity="0.501961" points="111,74 116,59 102,63" />
<polygon fill="#9aafbf" fill-opacity="0.501961" points="175,114 166,115 163,105" />
<polygon fill="#b6bac9" fill-opacity="0.501961" points="186,29 153,32 154,22" />
<polygon fill="#4e5c81" fill-opacity="0.501961" points="87,140 90,121 82,137" />
<polygon fill="#b9c6d1" fill-opacity="0.501961" points="121,13 94,-7 123,-2" />
<polygon fill="#b5b5a2" fill-opacity="0.501961" points="81,142 45,143 95,155" />
<polygon fill="#8191ae" fill-opacity="0.501961" points="141,38 120,26 92,40" />
<polygon fill="#cbcfd5" fill-opacity="0.501961" points="214,26 257,44 234,65" />
<polygon fill="#dfdedf" fill-opacity="0.501961" points="165,116 176,117 172,119" />
<polygon fill="#563e5d" fill-opacity="0.501961" points="138,80 124,104 142,103" />
<polygon fill="#785c8a" fill-opacity="0.501961" points="108,90 112,88 110,101" />
<polygon fill="#5d5364" fill-opacity="0.501961" points="10,132 -16,129 -13,149" />
<polygon fill="#96a0b0" fill-opacity="0.501961" points="42,120 45,129 64,120" />
<polygon fill="#818899" fill-opacity="0.501961" points="170,128 166,121 193,124" />
<polygon fill="#eaeaea" fill-opacity="0.501961" points="139,28 186,-9 123,0" />
<polygon fill="#909cb6" fill-opacity="0.501961" points="97,96 104,94 98,88" />
<polygon fill="#c3b7c2" fill-opacity="0.501961" points="47,128 30,127 38,130" />
<polygon fill="#bdb0bd" fill-opacity="0.501961" points="194,130 191,126 178,128" />
<polygon fill="#667294" fill-opacity="0.501961" points="106,41 103,75 98,50" />
<polygon fill="#acbfd6" fill-opacity="0.501961" points="16,107 -16,93 0,108" />
<polygon fill="#4c425a" fill-opacity="0.501961" points="147,117 119,121 162,140" />
<polygon fill="#736c73" fill-opacity="0.501961" points="129,66 118,47 145,67" />
<polygon fill="#b8bbca" fill-opacity="0.501961" points="151,42 153,53 147,63" />
<polygon fill="#ebebea" fill-opacity="0.501961" points="210,32 149,32 162,96" />
<polygon fill="#c6b2c2" fill-opacity="0.501961" points="167,126 164,112 161,136" />
<polygon fill="#c9ced7" fill-opacity="0.501961" points="206,115 195,117 219,128" />
<polygon fill="#c5d2e2" fill-opacity="0.501961" points="16,99 42,108 70,101" />
<polygon fill="#3b3245" fill-opacity="0.501961" points="126,132 168,159 101,153" />
<polygon fill="#d5dbe4" fill-opacity="0.501961" points="227,80 218,42 215,115" />
<polygon fill="#8fa4be" fill-opacity="0.501961" points="149,85 153,89 152,93" />
<polygon fill="#bdb2c1" fill-opacity="0.501961" points="197,128 194,132 208,128" />
<polygon fill="#6f7376" fill-opacity="0.501961" points="197,154 195,128 189,156" />
<polygon fill="#737b80" fill-opacity="0.501961" points="60,159 69,159 67,126" />
<polygon fill="#5d516f" fill-opacity="0.501961" points="159,125 116,105 128,98" />
<polygon fill="#6b7682" fill-opacity="0.501961" points="222,136 231,159 221,159" />
<polygon fill="#d2adca" fill-opacity="0.501961" points="169,147 157,159 164,140" />
<polygon fill="#5f698f" fill-opacity="0.501961" points="133,50 133,43 120,44" />
<polygon fill="#4b445e" fill-opacity="0.501961" points="99,119 103,159 94,142" />
<polygon fill="#75868e" fill-opacity="0.501961" points="-13,73 1,25 -15,6" />
<polygon fill="#b8afb8" fill-opacity="0.501961" points="67,129 58,128 65,126" />
<polygon fill="#717f89" fill-opacity="0.501961" points="57,126 44,143 38,137" />
<polygon fill="#a9b1c5" fill-opacity="0.501961" points="57,103 89,114 16,115" />
<polygon fill="#848ba3" fill-opacity="0.501961" points="51,121 24,126 47,128" />
<polygon fill="#bcc3d0" fill-opacity="0.501961" points="200,32 185,21 162,30" />
<polygon fill="#c7c2a3" fill-opacity="0.501961" points="228,159 211,142 172,143" />
<polygon fill="#e8eae9" fill-opacity="0.501961" points="91,31 136,10 99,16" />
<polygon fill="#cfd8de" fill-opacity="0.501961" points="213,33 229,14 221,-16" />
<polygon fill="#5d5a79" fill-opacity="0.501961" points="94,135 95,115 106,101" />
<polygon fill="#b5c4d3" fill-opacity="0.501961" points="47,22 3,21 37,31" />
<polygon fill="#576282" fill-opacity="0.501961" points="140,52 143,76 146,61" />
<polygon fill="#e9eaea" fill-opacity="0.501961" points="18,101 85,100 49,46" />
<polygon fill="#c0aeba" fill-opacity="0.501961" points="2,130 -3,127 12,128" />
<polygon fill="#5b4c68" fill-opacity="0.501961" points="164,134 137,159 157,159" />
<polygon fill="#cfd6e0" fill-opacity="0.501961" points="-9,121 6,118 -16,114" />
<polygon fill="#646a8c" fill-opacity="0.501961" points="108,97 102,97 99,111" />
<polygon fill="#cacfdd" fill-opacity="0.501961" points="152,74 153,84 149,80" />
<polygon fill="#ebebeb" fill-opacity="0.501961" points="49,17 1,-16 1,22" />
<polygon fill="#6a606b" fill-opacity="0.501961" points="33,140 -13,128 -14,141" />
<polygon fill="#bbbfc1" fill-opacity="0.501961" points="255,124 228,124 227,157" />
<polygon fill="#8691a0" fill-opacity="0.501961" points="211,125 176,128 187,120" />
<polygon fill="#b297b0" fill-opacity="0.501961" points="102,130 102,116 104,123" />
<polygon fill="#d8dde2" fill-opacity="0.501961" points="92,35 84,61 84,44" />
<polygon fill="#58526d" fill-opacity="0.501961" points="94,120 102,114 100,130" />
<polygon fill="#6c577b" fill-opacity="0.501961" points="114,85 104,96 107,122" />
<polygon fill="#484c5a" fill-opacity="0.501961" points="143,83 140,75 121,82" />
<polygon fill="#9facc4" fill-opacity="0.501961" points="105,25 124,25 95,35" />
<polygon fill="#a7adc2" fill-opacity="0.501961" points="46,113 18,116 15,106" />
<polygon fill="#eaeced" fill-opacity="0.501961" points="212,78 212,101 197,102" />
<polygon fill="#b6b2a0" fill-opacity="0.501961" points="47,141 29,159 64,142" />
<polygon fill="#cbcfd5" fill-opacity="0.501961" points="254,26 215,111 254,94" />
<polygon fill="#736a7a" fill-opacity="0.501961" points="196,143 193,133 174,131" />
<polygon fill="#bcbbc9" fill-opacity="0.501961" points="169,135 165,107 162,120" />
<polygon fill="#ced8df" fill-opacity="0.501961" points="101,19 102,-7 106,9" />
<polygon fill="#b4c1cc" fill-opacity="0.501961" points="104,16 115,-16 114,13" />
<polygon fill="#8682a1" fill-opacity="0.501961" points="158,106 152,100 160,116" />
<polygon fill="#c7ccd0" fill-opacity="0.501961" points="215,26 257,-16 247,22" />
<polygon fill="#8f9fac" fill-opacity="0.501961" points="68,140 68,126 71,135" />
<polygon fill="#a8b4c9" fill-opacity="0.501961" points="206,117 213,102 167,111" />
<polygon fill="#b9c3d7" fill-opacity="0.501961" points="130,20 141,26 115,22" />
<polygon fill="#a7b5c8" fill-opacity="0.501961" points="210,22 214,31 180,25" />
<polygon fill="#ebeaea" fill-opacity="0.501961" points="2,93 1,37 94,70" />
<polygon fill="#d1d2dc" fill-opacity="0.501961" points="153,75 152,90 158,100" />
<polygon fill="#e9e9ea" fill-opacity="0.501961" points="216,31 195,50 216,104" />
<polygon fill="#837a96" fill-opacity="0.501961" points="144,93 150,97 145,103" />
<polygon fill="#536482" fill-opacity="0.501961" points="141,86 147,81 149,89" />
<polygon fill="#595e7a" fill-opacity="0.501961" points="82,129 83,139 89,141" />
<polygon fill="#858c8a" fill-opacity="0.501961" points="139,56 139,59 130,58" />
<polygon fill="#665b76" fill-opacity="0.501961" points="155,115 162,127 160,135" />
<polygon fill="#655a77" fill-opacity="0.501961" points="152,107 150,120 145,95" />
<polygon fill="#796f80" fill-opacity="0.501961" points="168,135 166,131 161,135" />
<polygon fill="#6e6c7c" fill-opacity="0.501961" points="132,47 112,67 116,52" />
<polygon fill="#636767" fill-opacity="0.501961" points="255,47 255,6 271,29" />
<polygon fill="#788695" fill-opacity="0.501961" points="54,126 78,127 64,122" />
<polygon fill="#bfc5cb" fill-opacity="0.501961" points="253,35 218,26 254,18" />
<polygon fill="#eaebea" fill-opacity="0.501961" points="124,-16 132,19 165,48" />
<polygon fill="#cbccd6" fill-opacity="0.501961" points="29,116 1,116 15,120" />
<polygon fill="#676d89" fill-opacity="0.501961" points="106,43 104,53 119,52" />
<polygon fill="#6b666a" fill-opacity="0.501961" points="135,81 127,95 120,88" />
<polygon fill="#9fa8c0" fill-opacity="0.501961" points="193,113 213,107 214,115" />
<polygon fill="#7f6982" fill-opacity="0.501961" points="103,130 102,137 101,132" />
<polygon fill="#816c89" fill-opacity="0.501961" points="93,123 94,113 98,118" />
<polygon fill="#b3b8b9" fill-opacity="0.501961" points="199,143 196,151 197,138" />
<polygon fill="#776c79" fill-opacity="0.501961" points="211,140 212,130 196,141" />
<polygon fill="#e9eaea" fill-opacity="0.501961" points="201,100 158,101 155,70" />
<polygon fill="#453b51" fill-opacity="0.501961" points="135,134 82,152 128,119" />
<polygon fill="#bba4ba" fill-opacity="0.501961" points="92,129 89,128 90,136" />
<polygon fill="#99a0a8" fill-opacity="0.501961" points="215,124 211,121 213,120" />
<polygon fill="#cecfd9" fill-opacity="0.501961" points="153,76 155,57 148,71" />
<polygon fill="#a09a87" fill-opacity="0.501961" points="25,142 43,159 -1,141" />
<polygon fill="#726c79" fill-opacity="0.501961" points="24,131 61,141 11,141" />
<polygon fill="#acbccb" fill-opacity="0.501961" points="72,22 89,28 97,22" />
<polygon fill="#5e516e" fill-opacity="0.501961" points="103,132 106,107 115,112" />
<polygon fill="#d8cfd3" fill-opacity="0.501961" points="181,21 164,21 169,26" />
<polygon fill="#c8c4d2" fill-opacity="0.501961" points="90,104 93,118 96,99" />
<polygon fill="#e1d2e2" fill-opacity="0.501961" points="90,145 89,142 94,146" />
<polygon fill="#7686ac" fill-opacity="0.501961" points="102,77 105,82 104,85" />
<polygon fill="#c3c8cf" fill-opacity="0.501961" points="231,96 223,134 216,124" />
<polygon fill="#8e9eb3" fill-opacity="0.501961" points="99,68 94,40 89,51" />
<polygon fill="#606b8d" fill-opacity="0.501961" points="91,117 89,131 83,135" />
<polygon fill="#d9cfda" fill-opacity="0.501961" points="151,95 164,108 156,94" />
<polygon fill="#6e6673" fill-opacity="0.501961" points="175,141 169,132 186,139" />
<polygon fill="#bbc1c5" fill-opacity="0.501961" points="254,145 241,104 254,105" />
<polygon fill="#4b587b" fill-opacity="0.501961" points="104,88 106,74 111,81" />
<polygon fill="#7b7c88" fill-opacity="0.501961" points="-9,128 -5,122 12,127" />
<polygon fill="#717fa4" fill-opacity="0.501961" points="116,33 139,39 121,41" />
<polygon fill="#c6cdd3" fill-opacity="0.501961" points="164,119 185,120 167,114" />
<polygon fill="#685f73" fill-opacity="0.501961" points="76,139 71,136 88,133" />
<polygon fill="#c8b8c3" fill-opacity="0.501961" points="172,128 163,125 163,132" />
<polygon fill="#4d4b54" fill-opacity="0.501961" points="-1,139 -15,123 0,130" />
<polygon fill="#484646" fill-opacity="0.501961" points="134,53 130,54 134,57" />
<polygon fill="#a5b1c0" fill-opacity="0.501961" points="165,115 182,113 163,109" />
<polygon fill="#6d7c9d" fill-opacity="0.501961" points="142,42 148,59 142,64" />
<polygon fill="#6b656d" fill-opacity="0.501961" points="125,78 140,71 143,60" />
<polygon fill="#768591" fill-opacity="0.501961" points="65,124 67,132 69,120" />
<polygon fill="#cad6e8" fill-opacity="0.501961" points="14,98 1,101 19,102" />
<polygon fill="#76818c" fill-opacity="0.501961" points="44,133 39,152 56,126" />
<polygon fill="#bbbdbc" fill-opacity="0.501961" points="216,136 225,148 219,146" />
<polygon fill="#515a74" fill-opacity="0.501961" points="131,48 142,51 141,55" />
<polygon fill="#7a888d" fill-opacity="0.501961" points="221,134 216,131 220,138" />
<polygon fill="#8b8594" fill-opacity="0.501961" points="119,39 114,46 114,31" />
<polygon fill="#bbacb8" fill-opacity="0.501961" points="14,130 6,127 20,128" />
<polygon fill="#70677a" fill-opacity="0.501961" points="169,131 184,140 185,134" />
<polygon fill="#dbdde4" fill-opacity="0.501961" points="152,37 158,48 154,63" />
<polygon fill="#ebebeb" fill-opacity="0.501961" points="216,20 155,17 209,-3" />
<polygon fill="#b1c0d4" fill-opacity="0.501961" points="60,104 76,109 86,104" />
<polygon fill="#5d676f" fill-opacity="0.501961" points="46,138 38,146 38,159" />
<polygon fill="#b0becb" fill-opacity="0.501961" points="88,51 89,65 93,62" />
<polygon fill="#b9c3d3" fill-opacity="0.501961" points="97,73 92,63 103,75" />
<polygon fill="#eaeaea" fill-opacity="0.501961" points="62,97 89,64 71,33" />
<polygon fill="#99a8c3" fill-opacity="0.501961" points="134,24 143,33 113,28" />
<polygon fill="#cdb6c7" fill-opacity="0.501961" points="92,118 93,128 89,135" />
<polygon fill="#c5abc1" fill-opacity="0.501961" points="167,158 165,138 161,159" />
<polygon fill="#848f9c" fill-opacity="0.501961" points="212,127 195,121 185,126" />
<polygon fill="#585573" fill-opacity="0.501961" points="102,108 102,119 92,130" />
<polygon fill="#cfd4dd" fill-opacity="0.501961" points="204,116 213,125 200,118" />
<polygon fill="#554964" fill-opacity="0.501961" points="141,127 153,117 118,108" />
<polygon fill="#eaeaea" fill-opacity="0.501961" points="64,-16 103,-11 100,24" />
<polygon fill="#cad5df" fill-opacity="0.501961" points="92,101 89,106 90,113" />
<polygon fill="#bcc7d2" fill-opacity="0.501961" points="122,10 113,13 119,-10" />
<polygon fill="#b6ae96" fill-opacity="0.501961" points="192,141 174,142 203,151" />
<polygon fill="#563f5f" fill-opacity="0.501961" points="115,106 121,79 111,95" />
<polygon fill="#404c65" fill-opacity="0.501961" points="141,86 134,77 141,70" />
<polygon fill="#6b727c" fill-opacity="0.501961" points="165,137 166,130 168,141" />
<polygon fill="#594667" fill-opacity="0.501961" points="135,92 141,87 144,106" />
<polygon fill="#98a9bd" fill-opacity="0.501961" points="101,91 98,87 96,98" />
<polygon fill="#7d7487" fill-opacity="0.501961" points="213,138 196,130 213,131" />
<polygon fill="#86899c" fill-opacity="0.501961" points="34,128 22,122 2,128" />
<polygon fill="#d1d5de" fill-opacity="0.501961" points="214,107 227,94 226,66" />
<polygon fill="#c9cdd7" fill-opacity="0.501961" points="170,118 199,120 190,114" />
<polygon fill="#e1e1e1" fill-opacity="0.501961" points="191,0 123,0 182,-16" />
<polygon fill="#7989a6" fill-opacity="0.501961" points="95,56 115,33 100,39" />
<polygon fill="#b9c2d5" fill-opacity="0.501961" points="118,19 118,25 113,22" />
<polygon fill="#bdc1d2" fill-opacity="0.501961" points="32,115 42,121 16,121" />
<polygon fill="#c9c5a7" fill-opacity="0.501961" points="80,142 100,158 82,159" />
<polygon fill="#aeb2b3" fill-opacity="0.501961" points="255,134 252,145 252,139" />
<polygon fill="#90a0ad" fill-opacity="0.501961" points="197,122 185,122 191,120" />
<polygon fill="#c5c8d4" fill-opacity="0.501961" points="173,108 161,102 175,102" />
<polygon fill="#4d5151" fill-opacity="0.501961" points="114,53 105,61 113,57" />
<polygon fill="#a9afbe" fill-opacity="0.501961" points="151,55 149,48 151,47" />
<polygon fill="#ccd2d9" fill-opacity="0.501961" points="93,69 100,75 102,87" />
<polygon fill="#676c8a" fill-opacity="0.501961" points="90,135 78,135 89,125" />
<polygon fill="#6f6472" fill-opacity="0.501961" points="81,147 76,131 72,133" />
<polygon fill="#838e9c" fill-opacity="0.501961" points="169,127 166,120 170,120" />
<polygon fill="#c3c6cf" fill-opacity="0.501961" points="73,115 72,119 87,118" />
<polygon fill="#81878a" fill-opacity="0.501961" points="100,64 111,62 106,60" />
<polygon fill="#b5c2d7" fill-opacity="0.501961" points="29,104 80,102 55,110" />
<polygon fill="#eaeaeb" fill-opacity="0.501961" points="90,43 89,37 92,35" />
<polygon fill="#babec1" fill-opacity="0.501961" points="253,132 219,127 245,159" />
<polygon fill="#929db9" fill-opacity="0.501961" points="84,119 81,129 92,114" />
<polygon fill="#cad0d5" fill-opacity="0.501961" points="246,23 215,-13 245,-1" />
<polygon fill="#969ead" fill-opacity="0.501961" points="48,123 55,121 44,135" />
<polygon fill="#6d7c98" fill-opacity="0.501961" points="144,77 147,75 147,66" />
<polygon fill="#acbac9" fill-opacity="0.501961" points="148,22 160,22 159,31" />
<polygon fill="#444e6c" fill-opacity="0.501961" points="107,92 110,74 114,84" />
<polygon fill="#aaafbc" fill-opacity="0.501961" points="169,154 169,133 176,159" />
<polygon fill="#c9cdd2" fill-opacity="0.501961" points="228,31 251,44 228,56" />
<polygon fill="#6d6671" fill-opacity="0.501961" points="121,60 110,76 110,64" />
<polygon fill="#babed0" fill-opacity="0.501961" points="98,97 102,88 101,96" />
<polygon fill="#6a7393" fill-opacity="0.501961" points="135,40 131,47 146,52" />
<polygon fill="#727a83" fill-opacity="0.501961" points="196,141 195,125 193,133" />
<polygon fill="#93a0ac" fill-opacity="0.501961" points="67,119 76,119 69,122" />
<polygon fill="#9398b2" fill-opacity="0.501961" points="93,109 89,115 92,113" />
<polygon fill="#ebebeb" fill-opacity="0.501961" points="132,-7 143,14 117,20" />
<polygon fill="#dfe4e8" fill-opacity="0.501961" points="204,101 175,101 190,96" />
<polygon fill="#818fa8" fill-opacity="0.501961" points="147,48 144,55 142,38" />
<polygon fill="#d9dfe6" fill-opacity="0.501961" points="218,19 214,11 215,32" />
<polygon fill="#eaebea" fill-opacity="0.501961" points="93,32 3,35 1,96" />
<polygon fill="#eaeae9" fill-opacity="0.501961" points="34,99 11,92 2,99" />
<polygon fill="#494d61" fill-opacity="0.501961" points="105,53 111,54 101,58" />
<polygon fill="#e2e2e2" fill-opacity="0.501961" points="104,0 48,-16 16,-1" />
</g>
</svg>