<svg xmlns="http://www.w3.org/2000/svg" version="1.1" width="1024" height="576">
<rect x="0" y="0" width="1024" height="576" fill="#6c6965" />
<g transform="scale(4.000000) translate(0.5 0.5)">
<polygon fill="#eeeef2" fill-opacity="0.501961" points="58,-16 48,77 271,8" />
<polygon fill="#211b16" fill-opacity="0.501961" points="16,131 157,-11 155,128" />
<polygon fill="#f5f9fe" fill-opacity="0.501961" points="159,72 158,-16 254,65" />
<polygon fill="#0e0600" fill-opacity="0.501961" points="69,159 35,-16 -16,135" />
<polygon fill="#271d14" fill-opacity="0.501961" points="271,68 253,159 71,85" />
<polygon fill="#e9f0f3" fill-opacity="0.501961" points="113,70 53,72 79,-16" />
<polygon fill="#121015" fill-opacity="0.501961" points="113,21 106,131 147,31" />
<polygon fill="#fdffff" fill-opacity="0.501961" points="102,2 146,-16 145,24" />
<polygon fill="#ffffff" fill-opacity="0.501961" points="-16,36 17,40 11,16" />
<polygon fill="#95939a" fill-opacity="0.501961" points="255,72 251,-16 187,69" />
<polygon fill="#000000" fill-opacity="0.501961" points="154,159 78,138 228,138" />
<polygon fill="#81756d" fill-opacity="0.501961" points="84,159 95,92 34,96" />
<polygon fill="#d3d2d1" fill-opacity="0.501961" points="220,-16 223,63 147,61" />
<polygon fill="#b2cdf6" fill-opacity="0.501961" points="198,128 135,132 170,140" />
<polygon fill="#292f26" fill-opacity="0.501961" points="115,97 -1,41 -16,87" />
<polygon fill="#282c1e" fill-opacity="0.501961" points="45,-16 -16,10 52,29" />
<polygon fill="#b2d0fd" fill-opacity="0.501961" points="70,137 132,137 99,127" />
<polygon fill="#837364" fill-opacity="0.501961" points="231,96 171,130 152,96" />
<polygon fill="#4d575d" fill-opacity="0.501961" points="208,72 200,44 209,18" />
<polygon fill="#696671" fill-opacity="0.501961" points="249,65 227,-11 222,69" />
<polygon fill="#d3d6d7" fill-opacity="0.501961" points="64,-16 117,58 48,51" />
<polygon fill="#1b0b04" fill-opacity="0.501961" points="271,152 211,159 229,102" />
<polygon fill="#19110b" fill-opacity="0.501961" points="125,151 -11,159 -4,120" />
<polygon fill="#dde3e2" fill-opacity="0.501961" points="133,-16 101,-16 101,52" />
<polygon fill="#2c241e" fill-opacity="0.501961" points="162,127 123,19 97,128" />
<polygon fill="#697377" fill-opacity="0.501961" points="104,42 94,17 97,69" />
<polygon fill="#d9d9d8" fill-opacity="0.501961" points="201,-16 158,65 204,72" />
<polygon fill="#61696d" fill-opacity="0.501961" points="157,-2 139,42 159,97" />
<polygon fill="#99b0d5" fill-opacity="0.501961" points="124,128 95,137 144,138" />
<polygon fill="#110d00" fill-opacity="0.501961" points="253,-12 271,18 256,62" />
<polygon fill="#d4d8d7" fill-opacity="0.501961" points="255,48 246,70 250,21" />
<polygon fill="#d2d4d4" fill-opacity="0.501961" points="93,72 95,-16 56,70" />
<polygon fill="#2c2c33" fill-opacity="0.501961" points="104,82 126,14 149,49" />
<polygon fill="#2c3639" fill-opacity="0.501961" points="208,96 129,72 271,71" />
<polygon fill="#dadde2" fill-opacity="0.501961" points="-16,18 14,37 14,18" />
<polygon fill="#525a5c" fill-opacity="0.501961" points="111,72 94,103 60,71" />
<polygon fill="#c7afa5" fill-opacity="0.501961" points="211,26 254,3 148,-7" />
<polygon fill="#444842" fill-opacity="0.501961" points="107,32 125,14 112,63" />
<polygon fill="#3b2d1c" fill-opacity="0.501961" points="-3,151 -16,35 55,109" />
<polygon fill="#d6dbdc" fill-opacity="0.501961" points="209,16 216,69 223,29" />
<polygon fill="#424339" fill-opacity="0.501961" points="55,79 40,-16 5,2" />
<polygon fill="#9dbbe8" fill-opacity="0.501961" points="83,129 62,136 73,138" />
<polygon fill="#160d07" fill-opacity="0.501961" points="100,143 184,159 170,137" />
<polygon fill="#d9dade" fill-opacity="0.501961" points="119,-16 142,2 147,34" />
<polygon fill="#302a1b" fill-opacity="0.501961" points="271,151 248,93 258,30" />
<polygon fill="#ced1d0" fill-opacity="0.501961" points="100,7 101,68 125,-16" />
<polygon fill="#5c676e" fill-opacity="0.501961" points="96,25 95,-16 106,-16" />
<polygon fill="#7f7878" fill-opacity="0.501961" points="211,11 203,37 204,-12" />
<polygon fill="#251f1b" fill-opacity="0.501961" points="180,159 271,137 193,128" />
<polygon fill="#423021" fill-opacity="0.501961" points="67,129 159,88 159,127" />
<polygon fill="#696a76" fill-opacity="0.501961" points="225,59 247,16 249,69" />
<polygon fill="#6c5f57" fill-opacity="0.501961" points="154,108 166,130 238,112" />
<polygon fill="#91a4c2" fill-opacity="0.501961" points="122,138 172,138 149,128" />
<polygon fill="#c1c3c4" fill-opacity="0.501961" points="54,71 94,70 53,44" />
<polygon fill="#4b3829" fill-opacity="0.501961" points="271,95 268,119 183,107" />
<polygon fill="#bccce2" fill-opacity="0.501961" points="187,130 166,131 187,138" />
<polygon fill="#665b4f" fill-opacity="0.501961" points="112,119 52,91 51,132" />
<polygon fill="#d4d6d6" fill-opacity="0.501961" points="104,-16 53,63 58,1" />
<polygon fill="#5f5d60" fill-opacity="0.501961" points="154,91 136,17 157,48" />
<polygon fill="#d2d4d6" fill-opacity="0.501961" points="111,59 103,68 102,38" />
<polygon fill="#d4d5d8" fill-opacity="0.501961" points="143,-16 145,14 101,18" />
<polygon fill="#4a5157" fill-opacity="0.501961" points="202,64 208,78 208,49" />
<polygon fill="#191512" fill-opacity="0.501961" points="120,134 126,159 90,158" />
<polygon fill="#474b3c" fill-opacity="0.501961" points="-16,48 20,69 26,35" />
<polygon fill="#958578" fill-opacity="0.501961" points="198,101 177,93 157,101" />
<polygon fill="#323033" fill-opacity="0.501961" points="136,18 106,35 146,74" />
<polygon fill="#d5d1ce" fill-opacity="0.501961" points="160,-16 159,50 210,-8" />
<polygon fill="#99b4db" fill-opacity="0.501961" points="67,135 66,129 83,131" />
<polygon fill="#3c2d22" fill-opacity="0.501961" points="78,105 128,120 180,106" />
<polygon fill="#917f6d" fill-opacity="0.501961" points="54,99 90,102 92,92" />
<polygon fill="#34271c" fill-opacity="0.501961" points="100,93 110,128 174,129" />
<polygon fill="#887d7d" fill-opacity="0.501961" points="223,-6 256,11 222,9" />
<polygon fill="#1b150f" fill-opacity="0.501961" points="61,139 102,159 176,139" />
<polygon fill="#7e7166" fill-opacity="0.501961" points="219,126 222,109 208,110" />
<polygon fill="#d4cac7" fill-opacity="0.501961" points="225,-9 209,49 209,-16" />
<polygon fill="#483a31" fill-opacity="0.501961" points="23,93 66,126 64,147" />
<polygon fill="#302f27" fill-opacity="0.501961" points="47,18 45,-6 -15,-4" />
<polygon fill="#2e2118" fill-opacity="0.501961" points="207,101 196,159 213,158" />
<polygon fill="#cbcccf" fill-opacity="0.501961" points="15,20 -16,41 16,38" />
<polygon fill="#3e3d3c" fill-opacity="0.501961" points="110,96 58,72 41,95" />
<polygon fill="#5a4735" fill-opacity="0.501961" points="-1,98 41,92 78,111" />
<polygon fill="#555c63" fill-opacity="0.501961" points="101,68 96,48 94,81" />
<polygon fill="#d5afa2" fill-opacity="0.501961" points="186,16 246,16 211,5" />
<polygon fill="#777d7d" fill-opacity="0.501961" points="158,0 143,34 157,56" />
<polygon fill="#22262b" fill-opacity="0.501961" points="135,114 140,45 104,82" />
<polygon fill="#756b62" fill-opacity="0.501961" points="52,110 51,125 105,109" />
<polygon fill="#747782" fill-opacity="0.501961" points="224,17 227,62 242,16" />
<polygon fill="#5f5163" fill-opacity="0.501961" points="113,24 138,19 129,15" />
<polygon fill="#c5d5eb" fill-opacity="0.501961" points="189,130 189,138 184,132" />
<polygon fill="#574e48" fill-opacity="0.501961" points="201,133 157,122 204,121" />
<polygon fill="#4f4731" fill-opacity="0.501961" points="254,-4 262,39 251,23" />
<polygon fill="#d2d6d8" fill-opacity="0.501961" points="202,19 204,64 160,50" />
<polygon fill="#797364" fill-opacity="0.501961" points="48,74 47,48 56,77" />
<polygon fill="#c2c5c5" fill-opacity="0.501961" points="212,71 223,71 211,34" />
<polygon fill="#35312c" fill-opacity="0.501961" points="181,136 191,159 157,141" />
<polygon fill="#b3b9bb" fill-opacity="0.501961" points="193,72 174,62 175,72" />
<polygon fill="#99a8c2" fill-opacity="0.501961" points="114,129 164,132 139,138" />
<polygon fill="#272a27" fill-opacity="0.501961" points="271,100 260,76 209,78" />
<polygon fill="#232420" fill-opacity="0.501961" points="28,54 54,90 21,93" />
<polygon fill="#777569" fill-opacity="0.501961" points="49,13 45,51 53,31" />
<polygon fill="#777e82" fill-opacity="0.501961" points="105,68 98,92 108,77" />
<polygon fill="#352419" fill-opacity="0.501961" points="-8,133 -16,106 62,107" />
<polygon fill="#9bacc7" fill-opacity="0.501961" points="90,129 65,138 77,129" />
<polygon fill="#484d3d" fill-opacity="0.501961" points="15,50 18,3 26,31" />
<polygon fill="#7d736b" fill-opacity="0.501961" points="161,118 158,109 194,110" />
<polygon fill="#493c32" fill-opacity="0.501961" points="109,129 105,81 90,127" />
<polygon fill="#6e8065" fill-opacity="0.501961" points="116,28 110,43 106,32" />
<polygon fill="#3b3630" fill-opacity="0.501961" points="151,72 153,135 134,83" />
<polygon fill="#272a2b" fill-opacity="0.501961" points="163,91 99,95 110,67" />
<polygon fill="#3f3026" fill-opacity="0.501961" points="223,104 253,106 216,139" />
<polygon fill="#d0d2d4" fill-opacity="0.501961" points="104,33 155,-16 100,-4" />
<polygon fill="#120e09" fill-opacity="0.501961" points="254,158 255,65 271,127" />
<polygon fill="#494545" fill-opacity="0.501961" points="14,128 14,138 -16,130" />
<polygon fill="#382b21" fill-opacity="0.501961" points="108,100 113,110 72,107" />
<polygon fill="#1a1319" fill-opacity="0.501961" points="116,31 136,31 116,47" />
<polygon fill="#444946" fill-opacity="0.501961" points="157,59 157,80 143,43" />
<polygon fill="#f0c0b0" fill-opacity="0.501961" points="243,10 232,16 253,13" />
<polygon fill="#a5a7a9" fill-opacity="0.501961" points="70,70 54,63 85,63" />
<polygon fill="#cfb5aa" fill-opacity="0.501961" points="158,10 188,3 159,1" />
<polygon fill="#74675b" fill-opacity="0.501961" points="253,108 252,123 247,110" />
<polygon fill="#34454e" fill-opacity="0.501961" points="207,3 199,-7 213,-16" />
<polygon fill="#635e4a" fill-opacity="0.501961" points="252,64 271,57 250,78" />
<polygon fill="#716e5d" fill-opacity="0.501961" points="46,8 52,32 58,-10" />
<polygon fill="#514031" fill-opacity="0.501961" points="225,82 271,99 199,96" />
<polygon fill="#d4dae4" fill-opacity="0.501961" points="99,129 95,132 104,134" />
<polygon fill="#2e3637" fill-opacity="0.501961" points="177,96 213,84 159,85" />
<polygon fill="#4c4642" fill-opacity="0.501961" points="76,135 69,120 74,118" />
<polygon fill="#7f7162" fill-opacity="0.501961" points="201,105 203,95 180,94" />
<polygon fill="#4b5456" fill-opacity="0.501961" points="148,6 143,-10 176,-16" />
<polygon fill="#4e5042" fill-opacity="0.501961" points="130,58 120,42 135,42" />
<polygon fill="#1b1410" fill-opacity="0.501961" points="53,131 13,137 41,158" />
<polygon fill="#695e55" fill-opacity="0.501961" points="102,105 106,125 100,126" />
<polygon fill="#616e76" fill-opacity="0.501961" points="208,35 204,25 208,20" />
<polygon fill="#838c90" fill-opacity="0.501961" points="95,57 95,13 102,33" />
<polygon fill="#c2c2c3" fill-opacity="0.501961" points="10,37 -10,18 16,18" />
<polygon fill="#363d3d" fill-opacity="0.501961" points="49,79 95,92 103,75" />
<polygon fill="#675444" fill-opacity="0.501961" points="64,92 35,103 31,94" />
<polygon fill="#0f100c" fill-opacity="0.501961" points="271,36 255,-16 255,34" />
<polygon fill="#899397" fill-opacity="0.501961" points="155,79 151,82 159,87" />
<polygon fill="#5e472b" fill-opacity="0.501961" points="159,103 136,95 134,104" />
<polygon fill="#48433d" fill-opacity="0.501961" points="77,124 49,123 59,134" />
<polygon fill="#cecfd0" fill-opacity="0.501961" points="54,22 50,48 100,-8" />
<polygon fill="#837567" fill-opacity="0.501961" points="219,106 210,99 222,95" />
<polygon fill="#c5c8c9" fill-opacity="0.501961" points="203,49 203,19 191,61" />
<polygon fill="#d1d3d2" fill-opacity="0.501961" points="254,48 249,48 251,32" />
<polygon fill="#b0bdd3" fill-opacity="0.501961" points="111,130 127,135 131,130" />
<polygon fill="#362f0d" fill-opacity="0.501961" points="250,2 238,-16 267,-16" />
<polygon fill="#d3d5d6" fill-opacity="0.501961" points="93,63 60,58 94,-16" />
<polygon fill="#191217" fill-opacity="0.501961" points="136,64 129,92 124,69" />
<polygon fill="#48463f" fill-opacity="0.501961" points="36,37 48,15 47,73" />
<polygon fill="#484c41" fill-opacity="0.501961" points="21,18 -16,18 9,-16" />
<polygon fill="#4f4540" fill-opacity="0.501961" points="208,123 215,158 224,117" />
<polygon fill="#767d7f" fill-opacity="0.501961" points="146,22 145,-2 158,35" />
<polygon fill="#281c13" fill-opacity="0.501961" points="111,127 142,118 160,128" />
<polygon fill="#868c87" fill-opacity="0.501961" points="153,71 146,57 145,63" />
<polygon fill="#928272" fill-opacity="0.501961" points="95,103 73,99 94,97" />
<polygon fill="#202026" fill-opacity="0.501961" points="110,51 126,76 123,47" />
<polygon fill="#887c6c" fill-opacity="0.501961" points="49,97 68,97 59,105" />
<polygon fill="#bdb9c0" fill-opacity="0.501961" points="146,35 145,13 139,18" />
<polygon fill="#7c7d83" fill-opacity="0.501961" points="225,71 223,10 252,71" />
<polygon fill="#343a38" fill-opacity="0.501961" points="179,88 161,91 152,70" />
<polygon fill="#d5dbd9" fill-opacity="0.501961" points="173,4 202,-1 146,-16" />
<polygon fill="#7a8caa" fill-opacity="0.501961" points="91,138 68,138 84,133" />
<polygon fill="#d0d2d3" fill-opacity="0.501961" points="143,20 144,-16 120,11" />
<polygon fill="#413a33" fill-opacity="0.501961" points="202,101 216,109 174,108" />
<polygon fill="#d2b5a9" fill-opacity="0.501961" points="239,8 253,5 241,2" />
<polygon fill="#c7c9cc" fill-opacity="0.501961" points="249,37 251,29 248,21" />
<polygon fill="#5f4c39" fill-opacity="0.501961" points="225,93 220,104 265,100" />
<polygon fill="#95a4bc" fill-opacity="0.501961" points="165,129 188,135 139,138" />
<polygon fill="#babdbf" fill-opacity="0.501961" points="159,69 158,54 203,71" />
<polygon fill="#464c4a" fill-opacity="0.501961" points="183,86 222,71 174,76" />
<polygon fill="#ccd1cd" fill-opacity="0.501961" points="101,39 100,29 110,47" />
<polygon fill="#abafb2" fill-opacity="0.501961" points="103,64 106,65 106,74" />
<polygon fill="#776a5d" fill-opacity="0.501961" points="168,106 201,97 203,106" />
<polygon fill="#71665e" fill-opacity="0.501961" points="202,108 178,108 199,129" />
<polygon fill="#cdd1d3" fill-opacity="0.501961" points="184,64 160,59 158,8" />
<polygon fill="#5f4932" fill-opacity="0.501961" points="101,100 116,95 88,93" />
<polygon fill="#302a2a" fill-opacity="0.501961" points="61,109 78,109 70,105" />
<polygon fill="#2e3226" fill-opacity="0.501961" points="-2,62 44,66 -12,103" />
<polygon fill="#57514a" fill-opacity="0.501961" points="159,115 158,128 207,129" />
<polygon fill="#4c424c" fill-opacity="0.501961" points="117,20 141,20 144,39" />
<polygon fill="#403126" fill-opacity="0.501961" points="220,107 243,103 255,136" />
<polygon fill="#71707a" fill-opacity="0.501961" points="247,16 223,17 248,67" />
<polygon fill="#635c57" fill-opacity="0.501961" points="84,117 94,134 95,107" />
<polygon fill="#d6dadb" fill-opacity="0.501961" points="203,17 164,16 175,63" />
<polygon fill="#372d25" fill-opacity="0.501961" points="144,116 90,106 118,94" />
<polygon fill="#cacbcc" fill-opacity="0.501961" points="211,3 223,26 209,46" />
<polygon fill="#231c18" fill-opacity="0.501961" points="255,158 243,124 166,159" />
<polygon fill="#393e42" fill-opacity="0.501961" points="139,52 144,88 152,72" />
<polygon fill="#6d767c" fill-opacity="0.501961" points="96,2 96,29 100,16" />
<polygon fill="#c1ccd8" fill-opacity="0.501961" points="152,136 149,131 142,137" />
<polygon fill="#c7b2aa" fill-opacity="0.501961" points="208,5 233,2 205,15" />
<polygon fill="#b3b6b6" fill-opacity="0.501961" points="191,69 202,68 203,51" />
<polygon fill="#8b7f72" fill-opacity="0.501961" points="182,103 202,98 166,97" />
<polygon fill="#d1d7dd" fill-opacity="0.501961" points="95,135 97,131 101,137" />
<polygon fill="#646a77" fill-opacity="0.501961" points="215,-2 256,-7 240,2" />
<polygon fill="#ccd4d8" fill-opacity="0.501961" points="178,137 177,129 173,133" />
<polygon fill="#949396" fill-opacity="0.501961" points="221,61 228,35 221,26" />
<polygon fill="#312d31" fill-opacity="0.501961" points="128,25 141,66 145,40" />
<polygon fill="#5f6260" fill-opacity="0.501961" points="157,57 150,35 146,57" />
<polygon fill="#3f3228" fill-opacity="0.501961" points="104,128 93,128 96,108" />
<polygon fill="#637184" fill-opacity="0.501961" points="138,134 133,138 132,133" />
<polygon fill="#38291d" fill-opacity="0.501961" points="114,132 105,107 115,117" />
<polygon fill="#625e50" fill-opacity="0.501961" points="46,30 48,-16 58,-8" />
<polygon fill="#746960" fill-opacity="0.501961" points="221,108 212,124 210,108" />
<polygon fill="#4b4e46" fill-opacity="0.501961" points="19,41 14,55 -16,39" />
<polygon fill="#3f2d20" fill-opacity="0.501961" points="52,123 -16,115 51,104" />
<polygon fill="#9daac2" fill-opacity="0.501961" points="116,131 106,130 116,138" />
<polygon fill="#594e46" fill-opacity="0.501961" points="250,134 247,119 254,116" />
<polygon fill="#ceada3" fill-opacity="0.501961" points="203,11 241,10 221,17" />
<polygon fill="#3e434d" fill-opacity="0.501961" points="171,139 173,138 170,133" />
<polygon fill="#929394" fill-opacity="0.501961" points="0,37 0,23 -8,49" />
<polygon fill="#72797b" fill-opacity="0.501961" points="112,53 113,64 109,63" />
<polygon fill="#acaeaf" fill-opacity="0.501961" points="176,70 195,64 163,65" />
<polygon fill="#2c2018" fill-opacity="0.501961" points="55,143 47,121 -10,118" />
<polygon fill="#575544" fill-opacity="0.501961" points="253,13 251,30 258,17" />
<polygon fill="#acbacc" fill-opacity="0.501961" points="77,129 79,136 87,131" />
<polygon fill="#71675e" fill-opacity="0.501961" points="65,118 98,108 51,109" />
<polygon fill="#3c2a1d" fill-opacity="0.501961" points="135,110 131,131 161,106" />
<polygon fill="#544f49" fill-opacity="0.501961" points="55,129 53,117 90,128" />
<polygon fill="#777c80" fill-opacity="0.501961" points="222,9 230,11 223,5" />
<polygon fill="#4e564b" fill-opacity="0.501961" points="108,55 116,50 109,40" />
<polygon fill="#898a8d" fill-opacity="0.501961" points="214,64 234,64 234,70" />
<polygon fill="#37322e" fill-opacity="0.501961" points="67,127 50,134 61,143" />
<polygon fill="#545455" fill-opacity="0.501961" points="85,135 87,120 83,123" />
<polygon fill="#2a2824" fill-opacity="0.501961" points="36,159 109,143 74,138" />
<polygon fill="#bec0c0" fill-opacity="0.501961" points="250,65 248,50 254,39" />
<polygon fill="#63696f" fill-opacity="0.501961" points="208,35 204,49 209,61" />
<polygon fill="#d3d4d6" fill-opacity="0.501961" points="133,-16 103,13 113,27" />
<polygon fill="#6f604f" fill-opacity="0.501961" points="71,101 98,101 82,106" />
<polygon fill="#cdd3d9" fill-opacity="0.501961" points="189,136 184,134 186,130" />
<polygon fill="#777467" fill-opacity="0.501961" points="49,52 49,73 53,65" />
<polygon fill="#4a3a29" fill-opacity="0.501961" points="34,92 -16,96 23,106" />
<polygon fill="#6a777b" fill-opacity="0.501961" points="209,13 207,22 204,21" />
<polygon fill="#928a87" fill-opacity="0.501961" points="203,-7 204,7 210,12" />
<polygon fill="#323637" fill-opacity="0.501961" points="105,81 120,87 116,54" />
<polygon fill="#616f88" fill-opacity="0.501961" points="182,136 177,127 181,131" />
<polygon fill="#798286" fill-opacity="0.501961" points="97,55 101,40 96,25" />
<polygon fill="#c2c5c6" fill-opacity="0.501961" points="101,69 100,25 110,57" />
<polygon fill="#d6bfb5" fill-opacity="0.501961" points="164,2 205,3 194,11" />
<polygon fill="#262427" fill-opacity="0.501961" points="134,159 143,135 142,152" />
<polygon fill="#788aa9" fill-opacity="0.501961" points="141,137 137,129 146,130" />
<polygon fill="#c4c4c5" fill-opacity="0.501961" points="-1,19 15,40 15,22" />
<polygon fill="#413a35" fill-opacity="0.501961" points="190,128 195,159 204,127" />
<polygon fill="#363732" fill-opacity="0.501961" points="23,54 31,12 54,89" />
<polygon fill="#5c4f40" fill-opacity="0.501961" points="156,88 166,96 178,95" />
<polygon fill="#91817a" fill-opacity="0.501961" points="241,6 252,7 246,4" />
<polygon fill="#4e5558" fill-opacity="0.501961" points="96,7 104,-16 97,-9" />
<polygon fill="#303029" fill-opacity="0.501961" points="46,-3 -1,-11 47,12" />
<polygon fill="#494b3f" fill-opacity="0.501961" points="24,35 17,58 17,18" />
<polygon fill="#343437" fill-opacity="0.501961" points="104,135 99,159 106,159" />
<polygon fill="#292c2e" fill-opacity="0.501961" points="269,98 246,71 230,72" />
<polygon fill="#cbb3a6" fill-opacity="0.501961" points="251,12 248,10 249,21" />
<polygon fill="#5e6b80" fill-opacity="0.501961" points="160,126 162,136 159,139" />
<polygon fill="#3d4242" fill-opacity="0.501961" points="55,73 68,97 72,72" />
<polygon fill="#99a796" fill-opacity="0.501961" points="109,35 106,39 108,29" />
<polygon fill="#363936" fill-opacity="0.501961" points="213,75 172,91 248,92" />
<polygon fill="#1e1812" fill-opacity="0.501961" points="113,138 77,147 128,159" />
<polygon fill="#413540" fill-opacity="0.501961" points="111,42 119,19 122,29" />
<polygon fill="#575c61" fill-opacity="0.501961" points="204,72 174,71 189,77" />
<polygon fill="#4e4136" fill-opacity="0.501961" points="217,97 251,85 211,85" />
<polygon fill="#c0c0c1" fill-opacity="0.501961" points="224,70 215,66 209,70" />
<polygon fill="#c4c5c6" fill-opacity="0.501961" points="100,9 122,-8 103,-14" />
<polygon fill="#76767f" fill-opacity="0.501961" points="251,72 229,23 223,44" />
<polygon fill="#94a5bf" fill-opacity="0.501961" points="176,138 163,129 174,131" />
<polygon fill="#85786b" fill-opacity="0.501961" points="172,101 158,102 160,97" />
<polygon fill="#5e5754" fill-opacity="0.501961" points="169,113 172,134 165,119" />
<polygon fill="#b8b9b8" fill-opacity="0.501961" points="55,71 65,71 53,60" />
<polygon fill="#d1b0a6" fill-opacity="0.501961" points="210,10 217,17 191,13" />
<polygon fill="#231b20" fill-opacity="0.501961" points="116,37 127,28 140,39" />
<polygon fill="#655c67" fill-opacity="0.501961" points="133,23 135,17 129,16" />
<polygon fill="#3f3f3b" fill-opacity="0.501961" points="46,20 32,5 38,61" />
<polygon fill="#201d17" fill-opacity="0.501961" points="115,159 121,150 119,134" />
<polygon fill="#5d5e66" fill-opacity="0.501961" points="238,9 236,6 238,1" />
<polygon fill="#353831" fill-opacity="0.501961" points="254,48 271,40 266,8" />
<polygon fill="#788083" fill-opacity="0.501961" points="103,81 98,87 99,91" />
<polygon fill="#423d2a" fill-opacity="0.501961" points="250,10 271,-14 271,0" />
<polygon fill="#473121" fill-opacity="0.501961" points="107,109 146,109 108,120" />
<polygon fill="#7f91af" fill-opacity="0.501961" points="120,138 120,136 125,138" />
<polygon fill="#5b524a" fill-opacity="0.501961" points="100,117 105,109 104,132" />
<polygon fill="#929292" fill-opacity="0.501961" points="250,65 251,70 237,70" />
<polygon fill="#564d46" fill-opacity="0.501961" points="152,81 150,69 154,66" />
<polygon fill="#261f18" fill-opacity="0.501961" points="255,62 270,115 254,138" />
<polygon fill="#4b5b66" fill-opacity="0.501961" points="230,6 229,9 233,8" />
<polygon fill="#a6b9d7" fill-opacity="0.501961" points="86,130 84,134 92,131" />
<polygon fill="#c7c9c9" fill-opacity="0.501961" points="190,66 161,66 173,71" />
<polygon fill="#d6d8d9" fill-opacity="0.501961" points="163,47 186,7 200,48" />
<polygon fill="#2e2c2b" fill-opacity="0.501961" points="-1,135 4,159 17,136" />
<polygon fill="#bfc3c3" fill-opacity="0.501961" points="166,59 159,30 158,52" />
<polygon fill="#575c5c" fill-opacity="0.501961" points="157,11 159,-16 134,-16" />
<polygon fill="#52565b" fill-opacity="0.501961" points="72,71 59,72 64,77" />
<polygon fill="#90a1c0" fill-opacity="0.501961" points="67,130 76,133 71,138" />
<polygon fill="#24272e" fill-opacity="0.501961" points="142,108 125,100 108,108" />
<polygon fill="#403023" fill-opacity="0.501961" points="203,101 204,130 210,107" />
<polygon fill="#d2c5bf" fill-opacity="0.501961" points="216,12 225,-16 208,4" />
<polygon fill="#312c26" fill-opacity="0.501961" points="157,138 204,141 174,158" />
<polygon fill="#65768f" fill-opacity="0.501961" points="155,135 151,130 150,139" />
<polygon fill="#cdd0d0" fill-opacity="0.501961" points="134,11 144,-16 144,25" />
<polygon fill="#abbacd" fill-opacity="0.501961" points="64,138 68,131 69,135" />
<polygon fill="#4f4941" fill-opacity="0.501961" points="158,125 176,129 180,124" />
<polygon fill="#becbdd" fill-opacity="0.501961" points="149,130 147,129 145,133" />
<polygon fill="#2f3738" fill-opacity="0.501961" points="46,92 47,80 88,91" />
<polygon fill="#5c5043" fill-opacity="0.501961" points="192,102 184,106 179,102" />
<polygon fill="#bfc2c2" fill-opacity="0.501961" points="105,64 100,69 103,70" />
<polygon fill="#c9cbcc" fill-opacity="0.501961" points="88,66 94,70 78,71" />
<polygon fill="#837a7b" fill-opacity="0.501961" points="229,10 229,6 243,9" />
<polygon fill="#b0bcce" fill-opacity="0.501961" points="188,138 182,131 188,129" />
<polygon fill="#7d6f7c" fill-opacity="0.501961" points="113,27 116,21 122,19" />
<polygon fill="#2c2924" fill-opacity="0.501961" points="51,148 70,149 63,135" />
<polygon fill="#77756b" fill-opacity="0.501961" points="53,15 46,29 53,27" />
<polygon fill="#c7afa5" fill-opacity="0.501961" points="250,8 236,2 254,2" />
<polygon fill="#2c3032" fill-opacity="0.501961" points="142,93 129,66 152,80" />
<polygon fill="#676d79" fill-opacity="0.501961" points="228,6 253,-16 237,-12" />
<polygon fill="#4d4c59" fill-opacity="0.501961" points="147,48 141,56 147,58" />
<polygon fill="#5d594a" fill-opacity="0.501961" points="247,77 254,69 262,75" />
<polygon fill="#3e4343" fill-opacity="0.501961" points="104,83 60,76 66,90" />
<polygon fill="#4d3d29" fill-opacity="0.501961" points="155,106 136,104 159,92" />
<polygon fill="#9ba8bf" fill-opacity="0.501961" points="109,130 96,136 118,137" />
<polygon fill="#d5d7d7" fill-opacity="0.501961" points="107,6 143,12 118,16" />
<polygon fill="#2e2721" fill-opacity="0.501961" points="240,111 235,106 258,106" />
<polygon fill="#312217" fill-opacity="0.501961" points="157,126 152,130 145,114" />
<polygon fill="#ccd1d3" fill-opacity="0.501961" points="220,17 211,23 218,45" />
<polygon fill="#35302c" fill-opacity="0.501961" points="223,135 217,159 208,134" />
<polygon fill="#4e4640" fill-opacity="0.501961" points="193,123 189,140 201,125" />
<polygon fill="#614f42" fill-opacity="0.501961" points="164,92 189,94 175,97" />
<polygon fill="#7b7066" fill-opacity="0.501961" points="95,116 74,111 93,110" />
<polygon fill="#3b3b30" fill-opacity="0.501961" points="14,74 25,55 -16,54" />
<polygon fill="#25251e" fill-opacity="0.501961" points="24,90 52,91 25,73" />
<polygon fill="#d6bcb4" fill-opacity="0.501961" points="234,3 233,6 239,11" />
<polygon fill="#d0d2d3" fill-opacity="0.501961" points="52,55 63,15 95,63" />
<polygon fill="#9c9fa0" fill-opacity="0.501961" points="192,65 203,67 200,64" />
<polygon fill="#4f473d" fill-opacity="0.501961" points="46,60 45,74 51,77" />
<polygon fill="#262323" fill-opacity="0.501961" points="112,54 121,49 116,35" />
<polygon fill="#64594f" fill-opacity="0.501961" points="94,117 71,124 47,116" />
<polygon fill="#312e2c" fill-opacity="0.501961" points="88,137 113,159 78,156" />
<polygon fill="#494e51" fill-opacity="0.501961" points="97,67 94,76 103,77" />
<polygon fill="#352b23" fill-opacity="0.501961" points="30,104 63,107 30,113" />
<polygon fill="#9b9ea0" fill-opacity="0.501961" points="163,63 163,66 158,64" />
<polygon fill="#516991" fill-opacity="0.501961" points="124,136 123,129 122,132" />
<polygon fill="#393e3b" fill-opacity="0.501961" points="166,92 209,76 155,77" />
<polygon fill="#cccecf" fill-opacity="0.501961" points="96,24 55,-3 91,-5" />
<polygon fill="#1d1611" fill-opacity="0.501961" points="180,147 128,138 132,159" />
<polygon fill="#0d1118" fill-opacity="0.501961" points="106,87 111,88 105,94" />
<polygon fill="#655544" fill-opacity="0.501961" points="204,93 219,106 203,104" />
<polygon fill="#7b7a82" fill-opacity="0.501961" points="248,60 242,49 248,35" />
<polygon fill="#5f4c3c" fill-opacity="0.501961" points="47,93 58,104 35,99" />
<polygon fill="#73685f" fill-opacity="0.501961" points="159,121 160,110 197,111" />
<polygon fill="#51554e" fill-opacity="0.501961" points="7,10 -16,14 17,18" />
<polygon fill="#434437" fill-opacity="0.501961" points="23,-3 -16,-14 25,27" />
<polygon fill="#38342f" fill-opacity="0.501961" points="173,109 168,106 185,105" />
</g>
</svg>