<svg xmlns="http://www.w3.org/2000/svg" version="1.1" width="1024" height="428">
<rect x="0" y="0" width="1024" height="428" fill="#99979e" />
<g transform="scale(4.000000) translate(0.5 0.5)">
<polygon fill="#000000" fill-opacity="0.501961" points="167,121 265,-16 271,108" />
<polygon fill="#fffbff" fill-opacity="0.501961" points="-16,6 271,-16 146,76" />
<polygon fill="#263b49" fill-opacity="0.501961" points="207,101 10,122 -16,66" />
<polygon fill="#000000" fill-opacity="0.501961" points="189,46 223,25 271,44" />
<polygon fill="#e2d8de" fill-opacity="0.501961" points="3,-16 -14,74 265,11" />
<polygon fill="#7c889b" fill-opacity="0.501961" points="124,30 225,105 27,84" />
<polygon fill="#111517" fill-opacity="0.501961" points="271,34 269,122 190,74" />
<polygon fill="#ffe8d3" fill-opacity="0.501961" points="208,68 139,42 225,50" />
<polygon fill="#f7e9e7" fill-opacity="0.501961" points="118,33 248,-16 239,22" />
<polygon fill="#25282b" fill-opacity="0.501961" points="148,121 7,109 95,93" />
<polygon fill="#000000" fill-opacity="0.501961" points="184,97 207,93 209,73" />
<polygon fill="#001418" fill-opacity="0.501961" points="253,15 244,28 248,-14" />
<polygon fill="#d2beb6" fill-opacity="0.501961" points="194,99 224,88 206,108" />
<polygon fill="#191e22" fill-opacity="0.501961" points="271,35 264,122 214,23" />
<polygon fill="#c1bfc8" fill-opacity="0.501961" points="4,-13 140,-16 -16,89" />
<polygon fill="#dec3c2" fill-opacity="0.501961" points="158,46 167,79 226,48" />
<polygon fill="#fbded6" fill-opacity="0.501961" points="107,27 214,24 170,54" />
<polygon fill="#9ea3b5" fill-opacity="0.501961" points="6,78 205,65 120,39" />
<polygon fill="#180708" fill-opacity="0.501961" points="227,43 187,48 226,30" />
<polygon fill="#504447" fill-opacity="0.501961" points="241,29 223,120 209,69" />
<polygon fill="#27272a" fill-opacity="0.501961" points="202,78 213,69 184,67" />
<polygon fill="#66727f" fill-opacity="0.501961" points="135,107 31,79 177,76" />
<polygon fill="#ffffff" fill-opacity="0.501961" points="259,29 263,-16 254,4" />
<polygon fill="#3d2b2c" fill-opacity="0.501961" points="193,48 191,39 224,44" />
<polygon fill="#798e98" fill-opacity="0.501961" points="268,27 221,28 245,21" />
<polygon fill="#181f21" fill-opacity="0.501961" points="202,122 217,103 137,104" />
<polygon fill="#dfcdcd" fill-opacity="0.501961" points="21,26 90,49 21,64" />
<polygon fill="#b4aca8" fill-opacity="0.501961" points="186,99 225,96 206,106" />
<polygon fill="#40474f" fill-opacity="0.501961" points="-16,101 68,122 29,89" />
<polygon fill="#9096a8" fill-opacity="0.501961" points="5,61 50,72 -15,77" />
<polygon fill="#ffdcc5" fill-opacity="0.501961" points="211,60 174,52 224,47" />
<polygon fill="#f1deda" fill-opacity="0.501961" points="209,33 153,50 245,-12" />
<polygon fill="#6d474c" fill-opacity="0.501961" points="238,73 237,92 209,93" />
<polygon fill="#1b2022" fill-opacity="0.501961" points="271,91 215,56 238,103" />
<polygon fill="#f2e6e5" fill-opacity="0.501961" points="238,-16 227,24 246,13" />
<polygon fill="#afb1bb" fill-opacity="0.501961" points="134,96 128,101 115,98" />
<polygon fill="#a69397" fill-opacity="0.501961" points="235,79 240,84 232,83" />
<polygon fill="#262d31" fill-opacity="0.501961" points="102,88 80,112 68,104" />
<polygon fill="#1e2a29" fill-opacity="0.501961" points="271,0 242,4 265,-16" />
<polygon fill="#2b3a43" fill-opacity="0.501961" points="12,81 -16,68 -16,102" />
<polygon fill="#fffffc" fill-opacity="0.501961" points="251,6 268,-16 269,1" />
<polygon fill="#b1b8c6" fill-opacity="0.501961" points="16,26 57,2 -16,-2" />
<polygon fill="#b89a9f" fill-opacity="0.501961" points="222,87 226,86 226,77" />
<polygon fill="#697988" fill-opacity="0.501961" points="55,105 13,76 94,80" />
<polygon fill="#4e646b" fill-opacity="0.501961" points="223,64 216,56 243,65" />
<polygon fill="#a8aab8" fill-opacity="0.501961" points="149,80 210,59 76,59" />
<polygon fill="#5e4341" fill-opacity="0.501961" points="240,48 209,46 226,41" />
<polygon fill="#7e838d" fill-opacity="0.501961" points="137,71 174,107 190,93" />
<polygon fill="#183f48" fill-opacity="0.501961" points="169,118 271,112 228,98" />
<polygon fill="#1b2022" fill-opacity="0.501961" points="217,24 207,46 249,34" />
<polygon fill="#e1d9dd" fill-opacity="0.501961" points="205,37 246,-16 66,31" />
<polygon fill="#141b1c" fill-opacity="0.501961" points="200,71 210,91 189,96" />
<polygon fill="#55545a" fill-opacity="0.501961" points="184,76 207,65 194,67" />
<polygon fill="#fbcfc0" fill-opacity="0.501961" points="206,58 226,51 180,48" />
<polygon fill="#8d92a0" fill-opacity="0.501961" points="127,71 177,92 199,76" />
<polygon fill="#34555c" fill-opacity="0.501961" points="244,67 227,58 261,65" />
<polygon fill="#1e2022" fill-opacity="0.501961" points="223,29 270,30 222,49" />
<polygon fill="#989ca0" fill-opacity="0.501961" points="211,62 205,70 197,70" />
<polygon fill="#23292b" fill-opacity="0.501961" points="108,121 113,97 59,122" />
<polygon fill="#210d10" fill-opacity="0.501961" points="189,115 203,116 184,96" />
<polygon fill="#191819" fill-opacity="0.501961" points="231,66 218,67 219,85" />
<polygon fill="#a27d87" fill-opacity="0.501961" points="222,33 215,35 216,30" />
<polygon fill="#54606c" fill-opacity="0.501961" points="97,105 111,81 84,95" />
<polygon fill="#aeb1be" fill-opacity="0.501961" points="140,72 186,75 190,58" />
<polygon fill="#726061" fill-opacity="0.501961" points="216,61 224,62 228,48" />
<polygon fill="#16282c" fill-opacity="0.501961" points="245,14 245,22 271,18" />
<polygon fill="#68595b" fill-opacity="0.501961" points="215,61 234,56 216,55" />
<polygon fill="#e0dae0" fill-opacity="0.501961" points="128,36 177,-16 247,5" />
<polygon fill="#d8cdd1" fill-opacity="0.501961" points="138,26 52,60 59,14" />
<polygon fill="#6e7683" fill-opacity="0.501961" points="-15,75 -5,98 17,100" />
<polygon fill="#f6d7cd" fill-opacity="0.501961" points="190,57 188,25 157,44" />
<polygon fill="#6b737d" fill-opacity="0.501961" points="125,104 196,96 139,84" />
<polygon fill="#f5ddd4" fill-opacity="0.501961" points="211,32 221,13 182,43" />
<polygon fill="#efdfe0" fill-opacity="0.501961" points="264,-16 271,13 240,-11" />
<polygon fill="#989daf" fill-opacity="0.501961" points="27,70 111,42 141,76" />
<polygon fill="#171a1c" fill-opacity="0.501961" points="240,102 271,64 238,71" />
<polygon fill="#acb2c1" fill-opacity="0.501961" points="217,72 216,68 215,72" />
<polygon fill="#898e96" fill-opacity="0.501961" points="179,102 199,80 170,98" />
<polygon fill="#d7b8b2" fill-opacity="0.501961" points="211,67 216,55 210,60" />
<polygon fill="#7a8797" fill-opacity="0.501961" points="32,73 21,90 85,74" />
<polygon fill="#ecdfde" fill-opacity="0.501961" points="219,21 249,-16 237,23" />
<polygon fill="#182326" fill-opacity="0.501961" points="248,14 257,24 250,2" />
<polygon fill="#9e9da7" fill-opacity="0.501961" points="146,60 177,59 111,36" />
<polygon fill="#898083" fill-opacity="0.501961" points="234,49 238,53 237,44" />
<polygon fill="#9199ab" fill-opacity="0.501961" points="58,78 -4,69 67,58" />
<polygon fill="#2d1f22" fill-opacity="0.501961" points="232,87 232,70 213,63" />
<polygon fill="#5a6c79" fill-opacity="0.501961" points="17,91 42,81 6,76" />
<polygon fill="#262627" fill-opacity="0.501961" points="190,93 219,64 200,71" />
<polygon fill="#43494f" fill-opacity="0.501961" points="24,107 62,103 12,93" />
<polygon fill="#3b3a3d" fill-opacity="0.501961" points="190,41 196,47 213,35" />
<polygon fill="#191e20" fill-opacity="0.501961" points="242,63 235,30 268,29" />
<polygon fill="#c7b0ad" fill-opacity="0.501961" points="206,105 210,103 205,100" />
<polygon fill="#95979e" fill-opacity="0.501961" points="85,83 88,91 96,88" />
<polygon fill="#a29b98" fill-opacity="0.501961" points="223,98 216,96 205,105" />
<polygon fill="#27333b" fill-opacity="0.501961" points="169,103 169,122 138,102" />
<polygon fill="#fffbf3" fill-opacity="0.501961" points="271,-9 254,10 271,39" />
<polygon fill="#c8bdbf" fill-opacity="0.501961" points="-16,59 25,10 36,62" />
<polygon fill="#858e9a" fill-opacity="0.501961" points="23,88 7,92 4,87" />
<polygon fill="#4b5a65" fill-opacity="0.501961" points="99,90 115,90 118,103" />
<polygon fill="#203032" fill-opacity="0.501961" points="223,61 266,49 257,63" />
<polygon fill="#6c777d" fill-opacity="0.501961" points="243,29 222,24 264,21" />
<polygon fill="#5b2b30" fill-opacity="0.501961" points="208,87 236,92 230,85" />
<polygon fill="#151f21" fill-opacity="0.501961" points="256,102 271,71 226,100" />
<polygon fill="#0d0a09" fill-opacity="0.501961" points="212,103 235,109 213,114" />
<polygon fill="#212324" fill-opacity="0.501961" points="191,102 231,114 153,115" />
<polygon fill="#4b2732" fill-opacity="0.501961" points="188,74 190,76 194,67" />
<polygon fill="#647173" fill-opacity="0.501961" points="214,83 210,83 212,75" />
<polygon fill="#313c45" fill-opacity="0.501961" points="5,101 -16,122 -16,73" />
<polygon fill="#e3dcdf" fill-opacity="0.501961" points="208,23 220,-16 246,6" />
<polygon fill="#3b5865" fill-opacity="0.501961" points="230,103 204,122 255,105" />
<polygon fill="#ffe4cf" fill-opacity="0.501961" points="223,48 222,53 209,48" />
<polygon fill="#c3c5d0" fill-opacity="0.501961" points="30,-16 14,44 104,-15" />
<polygon fill="#8c9099" fill-opacity="0.501961" points="53,103 48,122 63,109" />
<polygon fill="#647280" fill-opacity="0.501961" points="49,81 35,102 90,78" />
<polygon fill="#636767" fill-opacity="0.501961" points="221,101 234,92 211,88" />
<polygon fill="#715556" fill-opacity="0.501961" points="227,40 225,58 222,44" />
<polygon fill="#e8d5d2" fill-opacity="0.501961" points="192,44 111,20 142,45" />
<polygon fill="#d4d0d9" fill-opacity="0.501961" points="134,34 66,19 127,-16" />
<polygon fill="#35525d" fill-opacity="0.501961" points="186,100 182,94 190,97" />
<polygon fill="#b0adb4" fill-opacity="0.501961" points="169,55 213,62 186,67" />
<polygon fill="#7c8390" fill-opacity="0.501961" points="134,91 125,74 189,81" />
<polygon fill="#586470" fill-opacity="0.501961" points="61,85 90,94 79,100" />
<polygon fill="#f1d1c6" fill-opacity="0.501961" points="175,41 152,49 186,57" />
<polygon fill="#1d2224" fill-opacity="0.501961" points="80,99 88,98 96,116" />
<polygon fill="#a1a2ab" fill-opacity="0.501961" points="127,96 130,110 141,120" />
<polygon fill="#333334" fill-opacity="0.501961" points="219,80 235,73 193,72" />
<polygon fill="#1a1b1e" fill-opacity="0.501961" points="271,27 235,51 263,56" />
<polygon fill="#243340" fill-opacity="0.501961" points="87,98 96,89 100,91" />
<polygon fill="#201d1f" fill-opacity="0.501961" points="233,44 219,24 221,38" />
<polygon fill="#1b2a2b" fill-opacity="0.501961" points="255,3 248,3 248,-7" />
<polygon fill="#737983" fill-opacity="0.501961" points="137,100 151,103 170,92" />
<polygon fill="#aaa5a6" fill-opacity="0.501961" points="218,93 201,104 200,95" />
<polygon fill="#989a9b" fill-opacity="0.501961" points="203,67 202,70 193,70" />
<polygon fill="#06110d" fill-opacity="0.501961" points="178,104 168,111 171,122" />
<polygon fill="#171d1f" fill-opacity="0.501961" points="189,94 209,74 210,91" />
<polygon fill="#7d8690" fill-opacity="0.501961" points="94,98 117,96 101,93" />
<polygon fill="#191d20" fill-opacity="0.501961" points="216,24 224,36 239,33" />
<polygon fill="#6e4c48" fill-opacity="0.501961" points="199,49 196,46 198,51" />
<polygon fill="#151d1e" fill-opacity="0.501961" points="213,88 223,77 215,79" />
<polygon fill="#36474b" fill-opacity="0.501961" points="243,17 250,13 242,22" />
<polygon fill="#f6cebc" fill-opacity="0.501961" points="211,63 202,47 217,47" />
<polygon fill="#362023" fill-opacity="0.501961" points="201,70 188,74 214,75" />
<polygon fill="#2b2123" fill-opacity="0.501961" points="222,43 212,34 188,47" />
<polygon fill="#9b8f8c" fill-opacity="0.501961" points="223,79 225,82 227,78" />
<polygon fill="#b1b5c1" fill-opacity="0.501961" points="20,8 -12,30 1,-5" />
<polygon fill="#151e21" fill-opacity="0.501961" points="230,73 256,68 215,64" />
<polygon fill="#676f77" fill-opacity="0.501961" points="-16,108 33,102 -11,122" />
<polygon fill="#2c3233" fill-opacity="0.501961" points="232,93 236,102 215,91" />
<polygon fill="#7e848a" fill-opacity="0.501961" points="202,65 207,69 214,62" />
<polygon fill="#390f11" fill-opacity="0.501961" points="232,47 229,55 228,45" />
<polygon fill="#272e32" fill-opacity="0.501961" points="82,122 101,122 109,97" />
<polygon fill="#88919c" fill-opacity="0.501961" points="86,90 87,83 74,85" />
<polygon fill="#89757a" fill-opacity="0.501961" points="237,85 230,85 238,77" />
<polygon fill="#97a0a6" fill-opacity="0.501961" points="172,101 184,98 170,106" />
<polygon fill="#4d5b66" fill-opacity="0.501961" points="17,74 24,90 4,79" />
<polygon fill="#f6d5ca" fill-opacity="0.501961" points="168,52 179,42 213,61" />
<polygon fill="#6f7b87" fill-opacity="0.501961" points="113,78 144,89 100,89" />
<polygon fill="#5e6875" fill-opacity="0.501961" points="130,98 132,115 143,90" />
<polygon fill="#343e46" fill-opacity="0.501961" points="34,98 17,99 11,92" />
<polygon fill="#d8c9c7" fill-opacity="0.501961" points="252,7 266,-16 271,-8" />
<polygon fill="#697480" fill-opacity="0.501961" points="67,99 78,79 33,94" />
<polygon fill="#9da0ae" fill-opacity="0.501961" points="193,77 174,72 195,86" />
<polygon fill="#544747" fill-opacity="0.501961" points="223,64 225,54 214,56" />
<polygon fill="#460e15" fill-opacity="0.501961" points="231,85 230,75 235,88" />
<polygon fill="#3f454b" fill-opacity="0.501961" points="112,107 97,99 123,101" />
<polygon fill="#655f63" fill-opacity="0.501961" points="235,56 219,63 224,56" />
<polygon fill="#3e444b" fill-opacity="0.501961" points="58,101 49,104 49,98" />
<polygon fill="#848a93" fill-opacity="0.501961" points="154,84 181,105 170,81" />
<polygon fill="#a4a6b2" fill-opacity="0.501961" points="177,75 197,75 187,79" />
<polygon fill="#3a545d" fill-opacity="0.501961" points="231,65 254,66 248,61" />
<polygon fill="#a0a2ae" fill-opacity="0.501961" points="156,55 77,70 125,34" />
<polygon fill="#26353b" fill-opacity="0.501961" points="9,79 -1,86 3,80" />
<polygon fill="#4f4b51" fill-opacity="0.501961" points="236,38 229,41 233,43" />
<polygon fill="#b0b1bc" fill-opacity="0.501961" points="190,72 175,57 145,67" />
<polygon fill="#263237" fill-opacity="0.501961" points="253,17 260,17 244,9" />
<polygon fill="#2e2e2f" fill-opacity="0.501961" points="234,69 214,78 239,78" />
<polygon fill="#c8b6b5" fill-opacity="0.501961" points="-11,60 31,64 -16,32" />
<polygon fill="#737e8a" fill-opacity="0.501961" points="76,85 53,93 45,87" />
<polygon fill="#d6cacc" fill-opacity="0.501961" points="31,26 102,42 68,55" />
<polygon fill="#667785" fill-opacity="0.501961" points="40,75 41,87 1,75" />
<polygon fill="#1f2528" fill-opacity="0.501961" points="195,80 210,93 211,77" />
<polygon fill="#b8b9b9" fill-opacity="0.501961" points="241,3 271,-16 257,-16" />
<polygon fill="#305862" fill-opacity="0.501961" points="191,70 194,67 186,67" />
<polygon fill="#d2cdd1" fill-opacity="0.501961" points="252,0 249,-5 264,0" />
<polygon fill="#596069" fill-opacity="0.501961" points="162,104 171,100 148,93" />
<polygon fill="#eddede" fill-opacity="0.501961" points="191,20 246,9 235,23" />
<polygon fill="#ecdedc" fill-opacity="0.501961" points="246,12 236,21 217,19" />
<polygon fill="#787d86" fill-opacity="0.501961" points="107,122 135,101 119,103" />
<polygon fill="#2c3134" fill-opacity="0.501961" points="70,96 80,109 67,112" />
<polygon fill="#a49fa0" fill-opacity="0.501961" points="215,97 193,96 197,104" />
<polygon fill="#b1b1bb" fill-opacity="0.501961" points="125,95 126,100 130,96" />
<polygon fill="#9d9fac" fill-opacity="0.501961" points="189,58 144,53 165,62" />
<polygon fill="#253c4d" fill-opacity="0.501961" points="103,94 101,91 95,94" />
<polygon fill="#cecbd5" fill-opacity="0.501961" points="161,-16 70,-6 49,49" />
<polygon fill="#f8d2c3" fill-opacity="0.501961" points="206,49 215,61 193,57" />
<polygon fill="#beb3b5" fill-opacity="0.501961" points="162,53 145,45 144,51" />
<polygon fill="#4a5963" fill-opacity="0.501961" points="2,85 -3,93 11,94" />
<polygon fill="#53687a" fill-opacity="0.501961" points="52,89 53,81 71,82" />
<polygon fill="#f4d4ca" fill-opacity="0.501961" points="197,49 199,57 173,55" />
<polygon fill="#eedcda" fill-opacity="0.501961" points="172,30 206,36 221,15" />
<polygon fill="#303c45" fill-opacity="0.501961" points="10,101 26,117 45,121" />
<polygon fill="#637078" fill-opacity="0.501961" points="256,29 226,25 256,21" />
<polygon fill="#f1dbd8" fill-opacity="0.501961" points="253,11 271,-2 270,14" />
<polygon fill="#787b89" fill-opacity="0.501961" points="10,96 -1,96 17,101" />
<polygon fill="#999eac" fill-opacity="0.501961" points="66,59 125,56 107,41" />
<polygon fill="#8d92a1" fill-opacity="0.501961" points="12,68 -2,78 -16,67" />
<polygon fill="#c8c3c9" fill-opacity="0.501961" points="31,11 53,41 13,49" />
<polygon fill="#341319" fill-opacity="0.501961" points="198,71 192,74 187,73" />
<polygon fill="#587177" fill-opacity="0.501961" points="205,37 199,42 190,42" />
<polygon fill="#767b79" fill-opacity="0.501961" points="229,27 226,24 222,24" />
<polygon fill="#ded6da" fill-opacity="0.501961" points="155,35 189,-10 102,33" />
<polygon fill="#e5dcde" fill-opacity="0.501961" points="174,24 245,14 241,-5" />
<polygon fill="#3e494d" fill-opacity="0.501961" points="249,14 252,12 242,7" />
<polygon fill="#707d8b" fill-opacity="0.501961" points="26,77 30,85 20,93" />
<polygon fill="#e2dbdd" fill-opacity="0.501961" points="243,10 218,12 246,-16" />
<polygon fill="#757d88" fill-opacity="0.501961" points="138,96 155,103 156,93" />
<polygon fill="#49494b" fill-opacity="0.501961" points="246,55 251,57 242,56" />
<polygon fill="#4c5860" fill-opacity="0.501961" points="6,86 12,84 12,73" />
<polygon fill="#576471" fill-opacity="0.501961" points="45,95 60,101 63,91" />
<polygon fill="#7f8593" fill-opacity="0.501961" points="180,76 174,83 194,82" />
<polygon fill="#060905" fill-opacity="0.501961" points="166,105 151,122 197,118" />
<polygon fill="#91162a" fill-opacity="0.501961" points="190,48 193,45 195,47" />
<polygon fill="#5f292f" fill-opacity="0.501961" points="187,100 186,104 180,102" />
<polygon fill="#bdb3ae" fill-opacity="0.501961" points="253,3 251,6 251,3" />
<polygon fill="#282120" fill-opacity="0.501961" points="222,41 222,33 217,48" />
<polygon fill="#bdb9bf" fill-opacity="0.501961" points="187,62 199,65 173,69" />
<polygon fill="#fbd5c3" fill-opacity="0.501961" points="220,47 222,53 210,53" />
<polygon fill="#423132" fill-opacity="0.501961" points="209,39 198,46 192,43" />
<polygon fill="#757f8a" fill-opacity="0.501961" points="57,94 64,87 43,88" />
<polygon fill="#6b6e76" fill-opacity="0.501961" points="21,96 13,102 17,96" />
<polygon fill="#8e94a9" fill-opacity="0.501961" points="57,65 60,76 99,74" />
<polygon fill="#1f2023" fill-opacity="0.501961" points="241,95 237,69 271,88" />
<polygon fill="#291f20" fill-opacity="0.501961" points="209,73 218,65 196,73" />
<polygon fill="#e1dae0" fill-opacity="0.501961" points="188,3 231,-16 245,9" />
<polygon fill="#9094a2" fill-opacity="0.501961" points="189,84 195,82 180,75" />
<polygon fill="#3b1519" fill-opacity="0.501961" points="232,84 227,78 230,89" />
<polygon fill="#404646" fill-opacity="0.501961" points="200,71 212,78 222,77" />
<polygon fill="#79808c" fill-opacity="0.501961" points="105,88 146,91 153,77" />
<polygon fill="#5e5f64" fill-opacity="0.501961" points="89,92 99,104 94,107" />
<polygon fill="#9ea0af" fill-opacity="0.501961" points="134,73 168,74 145,67" />
<polygon fill="#475766" fill-opacity="0.501961" points="142,95 136,93 137,89" />
<polygon fill="#eed2c9" fill-opacity="0.501961" points="146,45 172,55 193,38" />
<polygon fill="#55606d" fill-opacity="0.501961" points="163,93 167,102 169,99" />
<polygon fill="#cbc8cf" fill-opacity="0.501961" points="9,105 10,119 16,120" />
<polygon fill="#1d2a2c" fill-opacity="0.501961" points="254,62 258,54 228,60" />
<polygon fill="#f2d0c1" fill-opacity="0.501961" points="205,47 223,54 198,52" />
<polygon fill="#4d6372" fill-opacity="0.501961" points="95,90 108,83 100,84" />
<polygon fill="#8b8e90" fill-opacity="0.501961" points="233,80 234,83 239,85" />
<polygon fill="#373433" fill-opacity="0.501961" points="216,25 207,43 215,36" />
<polygon fill="#aca2a2" fill-opacity="0.501961" points="215,93 219,99 197,100" />
<polygon fill="#a8aab5" fill-opacity="0.501961" points="99,45 138,54 114,36" />
<polygon fill="#878688" fill-opacity="0.501961" points="233,25 237,28 240,25" />
<polygon fill="#616a73" fill-opacity="0.501961" points="130,94 121,98 127,89" />
<polygon fill="#403c3d" fill-opacity="0.501961" points="229,76 218,74 228,72" />
<polygon fill="#646466" fill-opacity="0.501961" points="81,116 68,122 78,103" />
<polygon fill="#9da2b1" fill-opacity="0.501961" points="155,74 185,77 176,70" />
<polygon fill="#34474e" fill-opacity="0.501961" points="244,3 260,-16 271,-12" />
<polygon fill="#161e20" fill-opacity="0.501961" points="218,62 232,75 213,65" />
<polygon fill="#323f49" fill-opacity="0.501961" points="21,101 18,92 11,93" />
<polygon fill="#25201f" fill-opacity="0.501961" points="223,89 217,74 222,71" />
<polygon fill="#7c848e" fill-opacity="0.501961" points="131,80 134,98 139,86" />
<polygon fill="#181f21" fill-opacity="0.501961" points="194,46 227,32 223,42" />
<polygon fill="#23282a" fill-opacity="0.501961" points="62,122 94,122 111,100" />
<polygon fill="#858991" fill-opacity="0.501961" points="45,97 41,95 41,101" />
<polygon fill="#9e9f9e" fill-opacity="0.501961" points="245,1 247,-14 251,-4" />
<polygon fill="#7a838f" fill-opacity="0.501961" points="7,92 -3,91 17,87" />
<polygon fill="#1a1f1f" fill-opacity="0.501961" points="199,93 194,94 192,87" />
<polygon fill="#70818a" fill-opacity="0.501961" points="193,40 198,39 195,41" />
<polygon fill="#405157" fill-opacity="0.501961" points="246,27 245,16 242,17" />
<polygon fill="#888a91" fill-opacity="0.501961" points="19,100 13,97 11,99" />
<polygon fill="#21303c" fill-opacity="0.501961" points="128,122 161,122 143,101" />
<polygon fill="#eadcdb" fill-opacity="0.501961" points="229,24 221,22 239,5" />
<polygon fill="#5c6a76" fill-opacity="0.501961" points="178,95 179,101 174,95" />
<polygon fill="#1d2424" fill-opacity="0.501961" points="248,12 248,-5 253,12" />
<polygon fill="#777e86" fill-opacity="0.501961" points="120,88 115,98 133,86" />
<polygon fill="#d6c6c6" fill-opacity="0.501961" points="41,61 56,35 73,54" />
<polygon fill="#2d3338" fill-opacity="0.501961" points="74,95 84,103 94,102" />
<polygon fill="#3f4142" fill-opacity="0.501961" points="44,122 31,92 32,114" />
<polygon fill="#827072" fill-opacity="0.501961" points="227,47 230,58 226,53" />
<polygon fill="#505961" fill-opacity="0.501961" points="46,100 46,110 39,99" />
<polygon fill="#afabb3" fill-opacity="0.501961" points="201,60 193,67 189,58" />
<polygon fill="#9699a3" fill-opacity="0.501961" points="162,83 193,83 189,91" />
<polygon fill="#808791" fill-opacity="0.501961" points="184,95 189,89 173,93" />
<polygon fill="#5f3032" fill-opacity="0.501961" points="223,84 213,84 225,90" />
<polygon fill="#edd9d7" fill-opacity="0.501961" points="147,26 213,29 157,44" />
<polygon fill="#c2c7d6" fill-opacity="0.501961" points="138,-12 26,-16 50,12" />
<polygon fill="#1e2627" fill-opacity="0.501961" points="181,104 219,107 146,122" />
<polygon fill="#3a464f" fill-opacity="0.501961" points="125,104 136,118 121,122" />
<polygon fill="#422e2e" fill-opacity="0.501961" points="229,56 228,50 237,51" />
<polygon fill="#979fb2" fill-opacity="0.501961" points="67,57 30,65 96,69" />
<polygon fill="#596f7f" fill-opacity="0.501961" points="6,78 13,82 19,80" />
<polygon fill="#4c5863" fill-opacity="0.501961" points="3,95 -12,84 0,105" />
<polygon fill="#73787e" fill-opacity="0.501961" points="51,104 53,115 57,103" />
<polygon fill="#344047" fill-opacity="0.501961" points="157,97 168,122 158,111" />
<polygon fill="#4e1c1e" fill-opacity="0.501961" points="229,47 227,45 220,48" />
<polygon fill="#3b3f44" fill-opacity="0.501961" points="105,100 114,107 97,100" />
<polygon fill="#3a4243" fill-opacity="0.501961" points="215,92 219,95 226,92" />
<polygon fill="#a0989c" fill-opacity="0.501961" points="233,48 236,48 234,46" />
<polygon fill="#aea3a3" fill-opacity="0.501961" points="206,105 209,100 188,99" />
<polygon fill="#3c3a3b" fill-opacity="0.501961" points="236,50 238,56 224,56" />
<polygon fill="#4d5c69" fill-opacity="0.501961" points="36,93 32,89 22,92" />
<polygon fill="#8c929a" fill-opacity="0.501961" points="128,103 143,110 130,122" />
<polygon fill="#5e646d" fill-opacity="0.501961" points="30,100 39,101 41,96" />
<polygon fill="#142224" fill-opacity="0.501961" points="244,93 227,99 271,106" />
<polygon fill="#9499a7" fill-opacity="0.501961" points="145,52 156,58 129,55" />
<polygon fill="#636e79" fill-opacity="0.501961" points="157,88 140,99 158,96" />
<polygon fill="#975a64" fill-opacity="0.501961" points="226,89 231,92 220,90" />
<polygon fill="#1e3644" fill-opacity="0.501961" points="186,98 184,98 186,96" />
<polygon fill="#47535c" fill-opacity="0.501961" points="140,105 153,105 140,122" />
<polygon fill="#bfbec7" fill-opacity="0.501961" points="16,45 4,18 35,-16" />
<polygon fill="#2d4751" fill-opacity="0.501961" points="229,100 214,102 248,114" />
<polygon fill="#a19fae" fill-opacity="0.501961" points="27,74 31,67 55,71" />
<polygon fill="#f0cebc" fill-opacity="0.501961" points="210,48 204,47 203,49" />
<polygon fill="#241e20" fill-opacity="0.501961" points="232,45 229,34 228,55" />
<polygon fill="#646c6b" fill-opacity="0.501961" points="222,24 224,27 225,25" />
<polygon fill="#cebdbe" fill-opacity="0.501961" points="23,65 3,46 55,56" />
<polygon fill="#59616a" fill-opacity="0.501961" points="70,98 91,92 80,99" />
<polygon fill="#5f6e7b" fill-opacity="0.501961" points="72,97 83,87 70,88" />
<polygon fill="#252b2e" fill-opacity="0.501961" points="73,98 81,113 70,103" />
<polygon fill="#818a95" fill-opacity="0.501961" points="149,96 143,99 151,100" />
<polygon fill="#75252c" fill-opacity="0.501961" points="230,55 233,47 230,50" />
<polygon fill="#2a3b40" fill-opacity="0.501961" points="251,17 238,22 264,21" />
<polygon fill="#637483" fill-opacity="0.501961" points="95,79 101,84 82,80" />
<polygon fill="#1a1d1f" fill-opacity="0.501961" points="207,93 190,91 209,85" />
<polygon fill="#9d9fab" fill-opacity="0.501961" points="12,74 1,60 -7,72" />
<polygon fill="#58636e" fill-opacity="0.501961" points="127,104 132,96 137,96" />
<polygon fill="#1c2831" fill-opacity="0.501961" points="158,102 158,115 124,122" />
<polygon fill="#2b3136" fill-opacity="0.501961" points="76,94 89,122 86,103" />
<polygon fill="#385960" fill-opacity="0.501961" points="226,64 233,61 218,62" />
<polygon fill="#a7a2ab" fill-opacity="0.501961" points="123,34 140,52 149,49" />
<polygon fill="#516879" fill-opacity="0.501961" points="82,80 74,86 70,81" />
<polygon fill="#d8d3dc" fill-opacity="0.501961" points="168,-16 102,31 184,1" />
<polygon fill="#e5d8d6" fill-opacity="0.501961" points="251,12 264,9 271,0" />
<polygon fill="#b1b0b6" fill-opacity="0.501961" points="-14,68 -3,59 22,64" />
<polygon fill="#ded0cf" fill-opacity="0.501961" points="92,33 69,54 108,39" />
<polygon fill="#8e93a2" fill-opacity="0.501961" points="126,72 119,78 145,76" />
<polygon fill="#ac9f9d" fill-opacity="0.501961" points="214,94 203,105 210,104" />
<polygon fill="#606d79" fill-opacity="0.501961" points="144,87 133,89 140,91" />
<polygon fill="#958f8f" fill-opacity="0.501961" points="202,69 205,69 204,66" />
<polygon fill="#5a5f62" fill-opacity="0.501961" points="214,81 211,76 210,80" />
<polygon fill="#212a2d" fill-opacity="0.501961" points="212,77 223,84 218,74" />
<polygon fill="#5e5558" fill-opacity="0.501961" points="221,62 214,58 226,59" />
<polygon fill="#737e89" fill-opacity="0.501961" points="76,88 72,93 76,94" />
<polygon fill="#919bac" fill-opacity="0.501961" points="46,71 12,67 59,60" />
<polygon fill="#9f9796" fill-opacity="0.501961" points="214,102 211,98 222,99" />
<polygon fill="#e8ddde" fill-opacity="0.501961" points="246,8 186,12 188,33" />
<polygon fill="#373e41" fill-opacity="0.501961" points="58,105 46,110 70,108" />
<polygon fill="#f7d3c3" fill-opacity="0.501961" points="208,54 208,47 213,52" />
<polygon fill="#9fa2b5" fill-opacity="0.501961" points="123,58 114,72 69,61" />
<polygon fill="#a3a6ae" fill-opacity="0.501961" points="178,101 178,97 183,98" />
</g>
</svg>