<svg xmlns="http://www.w3.org/2000/svg" version="1.1" width="1024" height="392">
<rect x="0" y="0" width="1024" height="392" fill="#757e7d" />
<g transform="scale(4.000000) translate(0.5 0.5)">
<polygon fill="#f2f6f0" fill-opacity="0.501961" points="75,2 122,98 167,-16" />
<polygon fill="#070f14" fill-opacity="0.501961" points="113,90 0,113 -12,23" />
<polygon fill="#000506" fill-opacity="0.501961" points="254,113 97,105 269,64" />
<polygon fill="#b2bbb7" fill-opacity="0.501961" points="271,15 142,-16 185,82" />
<polygon fill="#000000" fill-opacity="0.501961" points="153,15 141,60 167,113" />
<polygon fill="#3c423f" fill-opacity="0.501961" points="171,113 174,29 143,108" />
<polygon fill="#566365" fill-opacity="0.501961" points="-16,15 168,106 80,102" />
<polygon fill="#fefdf1" fill-opacity="0.501961" points="147,71 130,85 120,61" />
<polygon fill="#96a2a1" fill-opacity="0.501961" points="97,-16 115,86 46,19" />
<polygon fill="#0e1313" fill-opacity="0.501961" points="-14,100 83,92 -11,73" />
<polygon fill="#d2d5d2" fill-opacity="0.501961" points="110,5 212,-16 126,37" />
<polygon fill="#2b404c" fill-opacity="0.501961" points="80,-12 24,14 -10,-2" />
<polygon fill="#030809" fill-opacity="0.501961" points="152,33 164,64 134,68" />
<polygon fill="#969d98" fill-opacity="0.501961" points="196,67 160,113 158,70" />
<polygon fill="#040707" fill-opacity="0.501961" points="172,50 166,67 171,81" />
<polygon fill="#bdc4bf" fill-opacity="0.501961" points="253,33 173,44 201,19" />
<polygon fill="#000505" fill-opacity="0.501961" points="162,111 152,47 148,81" />
<polygon fill="#7c8987" fill-opacity="0.501961" points="173,46 215,78 271,75" />
<polygon fill="#1f2627" fill-opacity="0.501961" points="258,76 271,106 164,85" />
<polygon fill="#f3f4e9" fill-opacity="0.501961" points="174,71 174,83 193,65" />
<polygon fill="#c9d0c9" fill-opacity="0.501961" points="163,48 154,30 163,20" />
<polygon fill="#515e61" fill-opacity="0.501961" points="88,20 68,79 90,71" />
<polygon fill="#c7cbc6" fill-opacity="0.501961" points="146,47 112,82 140,0" />
<polygon fill="#869190" fill-opacity="0.501961" points="228,-16 198,76 271,26" />
<polygon fill="#3f4847" fill-opacity="0.501961" points="162,86 213,74 226,94" />
<polygon fill="#39403f" fill-opacity="0.501961" points="173,7 172,31 179,15" />
<polygon fill="#c6cbc3" fill-opacity="0.501961" points="125,83 147,74 108,44" />
<polygon fill="#8c999a" fill-opacity="0.501961" points="85,-2 103,44 17,28" />
<polygon fill="#b2b9b2" fill-opacity="0.501961" points="142,48 114,84 89,47" />
<polygon fill="#556365" fill-opacity="0.501961" points="227,60 265,88 270,40" />
<polygon fill="#131a1b" fill-opacity="0.501961" points="164,19 163,31 167,34" />
<polygon fill="#546365" fill-opacity="0.501961" points="62,44 55,80 -16,24" />
<polygon fill="#070c0b" fill-opacity="0.501961" points="169,56 176,56 172,36" />
<polygon fill="#050807" fill-opacity="0.501961" points="-16,97 35,102 19,83" />
<polygon fill="#a8aea8" fill-opacity="0.501961" points="167,78 170,43 154,12" />
<polygon fill="#4f5a5c" fill-opacity="0.501961" points="102,63 67,67 105,113" />
<polygon fill="#16191b" fill-opacity="0.501961" points="137,66 173,67 145,49" />
<polygon fill="#333b3d" fill-opacity="0.501961" points="65,113 -16,64 96,90" />
<polygon fill="#cccfc6" fill-opacity="0.501961" points="187,74 207,73 185,64" />
<polygon fill="#d7dcd0" fill-opacity="0.501961" points="144,94 133,92 150,89" />
<polygon fill="#9ea8a5" fill-opacity="0.501961" points="188,44 177,-4 174,67" />
<polygon fill="#0e1112" fill-opacity="0.501961" points="271,113 260,85 176,104" />
<polygon fill="#9da8a7" fill-opacity="0.501961" points="181,-16 148,9 265,0" />
<polygon fill="#7b8988" fill-opacity="0.501961" points="86,25 47,60 72,67" />
<polygon fill="#b4bbb5" fill-opacity="0.501961" points="255,28 198,44 192,27" />
<polygon fill="#5e6968" fill-opacity="0.501961" points="197,87 187,89 182,72" />
<polygon fill="#586d76" fill-opacity="0.501961" points="1,12 23,25 79,-9" />
<polygon fill="#242929" fill-opacity="0.501961" points="156,21 149,57 160,63" />
<polygon fill="#1f2728" fill-opacity="0.501961" points="158,74 166,86 142,89" />
<polygon fill="#7d8785" fill-opacity="0.501961" points="228,79 179,62 235,37" />
<polygon fill="#3f4846" fill-opacity="0.501961" points="148,24 154,48 156,25" />
<polygon fill="#cbcdcb" fill-opacity="0.501961" points="108,-16 126,25 170,18" />
<polygon fill="#cbcec5" fill-opacity="0.501961" points="103,83 148,69 104,70" />
<polygon fill="#a4aaa4" fill-opacity="0.501961" points="195,67 207,75 234,67" />
<polygon fill="#9fa8a3" fill-opacity="0.501961" points="156,75 168,73 156,66" />
<polygon fill="#7a8789" fill-opacity="0.501961" points="271,-5 214,6 248,26" />
<polygon fill="#77817d" fill-opacity="0.501961" points="114,108 103,81 131,85" />
<polygon fill="#a3acaa" fill-opacity="0.501961" points="80,30 60,19 102,1" />
<polygon fill="#ebede5" fill-opacity="0.501961" points="165,81 169,73 164,76" />
<polygon fill="#f5f3ea" fill-opacity="0.501961" points="145,69 132,76 147,76" />
<polygon fill="#606a69" fill-opacity="0.501961" points="159,73 159,90 200,113" />
<polygon fill="#d1d7d2" fill-opacity="0.501961" points="154,29 162,41 164,36" />
<polygon fill="#131717" fill-opacity="0.501961" points="171,54 174,69 169,79" />
<polygon fill="#000000" fill-opacity="0.501961" points="151,90 144,113 171,113" />
<polygon fill="#d1d5cd" fill-opacity="0.501961" points="172,83 175,66 188,68" />
<polygon fill="#465053" fill-opacity="0.501961" points="45,44 32,71 -16,35" />
<polygon fill="#d4d6cf" fill-opacity="0.501961" points="112,71 136,63 136,83" />
<polygon fill="#717875" fill-opacity="0.501961" points="165,39 160,55 167,66" />
<polygon fill="#0d1316" fill-opacity="0.501961" points="145,38 152,29 154,52" />
<polygon fill="#2f383f" fill-opacity="0.501961" points="8,-16 62,-6 -8,6" />
<polygon fill="#020403" fill-opacity="0.501961" points="132,96 134,113 108,98" />
<polygon fill="#a0aaa6" fill-opacity="0.501961" points="130,34 90,61 92,29" />
<polygon fill="#bec3bf" fill-opacity="0.501961" points="109,3 146,43 132,72" />
<polygon fill="#b0b6ad" fill-opacity="0.501961" points="116,91 117,96 131,89" />
<polygon fill="#141919" fill-opacity="0.501961" points="145,45 166,63 148,70" />
<polygon fill="#252e2f" fill-opacity="0.501961" points="176,91 160,91 147,100" />
<polygon fill="#a9b2ae" fill-opacity="0.501961" points="170,38 165,9 174,9" />
<polygon fill="#818c8b" fill-opacity="0.501961" points="67,58 74,45 72,78" />
<polygon fill="#99a29b" fill-opacity="0.501961" points="183,94 157,105 160,97" />
<polygon fill="#657174" fill-opacity="0.501961" points="78,30 78,62 92,31" />
<polygon fill="#5a6663" fill-opacity="0.501961" points="126,91 149,88 148,79" />
<polygon fill="#555e60" fill-opacity="0.501961" points="94,83 80,110 127,83" />
<polygon fill="#363e3f" fill-opacity="0.501961" points="71,93 32,108 64,66" />
<polygon fill="#434844" fill-opacity="0.501961" points="140,69 150,66 141,66" />
<polygon fill="#cfd3cf" fill-opacity="0.501961" points="200,20 208,26 193,29" />
<polygon fill="#b5bbb6" fill-opacity="0.501961" points="144,9 173,-16 159,24" />
<polygon fill="#cdcecc" fill-opacity="0.501961" points="150,5 142,47 111,2" />
<polygon fill="#616f70" fill-opacity="0.501961" points="62,48 36,53 54,73" />
<polygon fill="#5a6566" fill-opacity="0.501961" points="261,80 263,67 220,72" />
<polygon fill="#98a29c" fill-opacity="0.501961" points="172,88 158,89 169,92" />
<polygon fill="#b9c0bb" fill-opacity="0.501961" points="166,37 168,48 171,25" />
<polygon fill="#738487" fill-opacity="0.501961" points="34,8 65,8 17,37" />
<polygon fill="#808d90" fill-opacity="0.501961" points="78,-13 87,11 54,10" />
<polygon fill="#a6afa7" fill-opacity="0.501961" points="103,68 108,81 141,85" />
<polygon fill="#313b3c" fill-opacity="0.501961" points="172,75 166,87 165,82" />
<polygon fill="#707c7c" fill-opacity="0.501961" points="233,47 197,62 236,67" />
<polygon fill="#707b77" fill-opacity="0.501961" points="134,75 146,79 149,93" />
<polygon fill="#e3e2db" fill-opacity="0.501961" points="122,70 138,78 134,65" />
<polygon fill="#2e3638" fill-opacity="0.501961" points="0,54 2,90 17,88" />
<polygon fill="#4c5653" fill-opacity="0.501961" points="152,22 147,26 147,29" />
<polygon fill="#141818" fill-opacity="0.501961" points="159,42 150,80 146,64" />
<polygon fill="#788480" fill-opacity="0.501961" points="185,73 177,82 193,80" />
<polygon fill="#343b3a" fill-opacity="0.501961" points="191,77 219,76 226,109" />
<polygon fill="#c6ccc3" fill-opacity="0.501961" points="187,80 200,69 188,67" />
<polygon fill="#8e9794" fill-opacity="0.501961" points="228,36 175,54 181,69" />
<polygon fill="#2a2d2a" fill-opacity="0.501961" points="164,72 161,62 165,58" />
<polygon fill="#2d3434" fill-opacity="0.501961" points="173,9 174,17 178,6" />
<polygon fill="#949f9f" fill-opacity="0.501961" points="177,-16 247,-13 177,29" />
<polygon fill="#eaefe4" fill-opacity="0.501961" points="147,72 144,69 145,68" />
<polygon fill="#98a19d" fill-opacity="0.501961" points="271,44 255,24 236,39" />
<polygon fill="#a7afac" fill-opacity="0.501961" points="173,16 175,-16 155,20" />
<polygon fill="#5b6e74" fill-opacity="0.501961" points="42,19 8,4 10,22" />
<polygon fill="#d0d3cf" fill-opacity="0.501961" points="149,30 135,27 138,39" />
<polygon fill="#333b3b" fill-opacity="0.501961" points="185,94 187,83 174,93" />
<polygon fill="#292f30" fill-opacity="0.501961" points="174,23 174,31 170,32" />
<polygon fill="#586263" fill-opacity="0.501961" points="189,81 186,82 183,71" />
<polygon fill="#afb7b3" fill-opacity="0.501961" points="110,38 103,-11 89,22" />
<polygon fill="#a7b1ac" fill-opacity="0.501961" points="165,56 164,61 161,50" />
<polygon fill="#8e9897" fill-opacity="0.501961" points="180,35 196,-16 197,27" />
<polygon fill="#bcc4bf" fill-opacity="0.501961" points="159,48 164,50 159,37" />
<polygon fill="#85908c" fill-opacity="0.501961" points="189,77 225,72 209,63" />
<polygon fill="#5b686b" fill-opacity="0.501961" points="78,47 112,89 87,80" />
<polygon fill="#202526" fill-opacity="0.501961" points="266,81 213,86 234,97" />
<polygon fill="#76827e" fill-opacity="0.501961" points="178,90 171,89 179,85" />
<polygon fill="#3e474a" fill-opacity="0.501961" points="60,65 53,87 71,64" />
<polygon fill="#b0b8b3" fill-opacity="0.501961" points="93,53 132,66 145,46" />
<polygon fill="#a7afab" fill-opacity="0.501961" points="195,42 173,43 175,26" />
<polygon fill="#4e534d" fill-opacity="0.501961" points="163,31 165,41 166,31" />
<polygon fill="#111514" fill-opacity="0.501961" points="151,63 150,92 159,80" />
<polygon fill="#212626" fill-opacity="0.501961" points="173,74 168,56 173,46" />
<polygon fill="#505957" fill-opacity="0.501961" points="128,92 140,88 129,87" />
<polygon fill="#202525" fill-opacity="0.501961" points="168,59 173,75 168,72" />
<polygon fill="#89928f" fill-opacity="0.501961" points="158,75 156,67 163,69" />
<polygon fill="#a3aca9" fill-opacity="0.501961" points="205,16 223,14 212,34" />
<polygon fill="#818b8b" fill-opacity="0.501961" points="269,-4 258,22 215,30" />
<polygon fill="#4b5554" fill-opacity="0.501961" points="180,94 213,91 202,98" />
<polygon fill="#000000" fill-opacity="0.501961" points="190,96 168,101 211,104" />
<polygon fill="#b0b8b4" fill-opacity="0.501961" points="153,7 164,-14 163,38" />
<polygon fill="#475459" fill-opacity="0.501961" points="39,9 34,-1 4,3" />
<polygon fill="#b7bfb8" fill-opacity="0.501961" points="226,31 254,26 236,35" />
<polygon fill="#949c98" fill-opacity="0.501961" points="196,65 174,69 176,50" />
<polygon fill="#697271" fill-opacity="0.501961" points="182,88 196,87 187,85" />
<polygon fill="#96a09d" fill-opacity="0.501961" points="175,33 178,-1 187,33" />
<polygon fill="#7f8a8a" fill-opacity="0.501961" points="260,40 219,36 236,52" />
<polygon fill="#454f4f" fill-opacity="0.501961" points="160,88 164,74 159,70" />
<polygon fill="#546162" fill-opacity="0.501961" points="242,58 257,76 271,53" />
<polygon fill="#97a1a1" fill-opacity="0.501961" points="96,-16 70,19 75,44" />
<polygon fill="#708388" fill-opacity="0.501961" points="-14,32 4,5 15,7" />
<polygon fill="#818a87" fill-opacity="0.501961" points="167,68 161,52 169,51" />
<polygon fill="#dbdcd3" fill-opacity="0.501961" points="164,79 168,80 166,67" />
<polygon fill="#495255" fill-opacity="0.501961" points="88,81 81,58 65,87" />
<polygon fill="#121717" fill-opacity="0.501961" points="150,64 158,49 164,68" />
<polygon fill="#4c514f" fill-opacity="0.501961" points="163,63 167,56 166,49" />
<polygon fill="#5f6968" fill-opacity="0.501961" points="139,77 137,87 151,91" />
<polygon fill="#444c49" fill-opacity="0.501961" points="151,88 155,86 154,94" />
<polygon fill="#7a8586" fill-opacity="0.501961" points="89,59 83,31 92,32" />
<polygon fill="#4d5c64" fill-opacity="0.501961" points="17,29 -16,22 -7,35" />
<polygon fill="#929c9b" fill-opacity="0.501961" points="238,28 214,-16 214,30" />
<polygon fill="#0d1414" fill-opacity="0.501961" points="155,44 157,37 159,48" />
<polygon fill="#343a39" fill-opacity="0.501961" points="209,87 200,80 185,82" />
<polygon fill="#0c0f0f" fill-opacity="0.501961" points="-12,102 26,86 26,98" />
<polygon fill="#808b8b" fill-opacity="0.501961" points="67,32 70,76 77,49" />
<polygon fill="#333a3b" fill-opacity="0.501961" points="231,92 196,98 228,77" />
<polygon fill="#d6d8d0" fill-opacity="0.501961" points="144,75 116,80 135,65" />
<polygon fill="#a6afab" fill-opacity="0.501961" points="161,34 161,22 154,32" />
<polygon fill="#e6e6dd" fill-opacity="0.501961" points="184,70 175,76 177,69" />
<polygon fill="#aab3af" fill-opacity="0.501961" points="202,7 210,-16 255,-16" />
<polygon fill="#c0c5c2" fill-opacity="0.501961" points="125,32 102,11 148,30" />
<polygon fill="#464f52" fill-opacity="0.501961" points="50,77 22,77 22,41" />
<polygon fill="#6a797c" fill-opacity="0.501961" points="11,37 16,23 27,35" />
<polygon fill="#9aa39f" fill-opacity="0.501961" points="180,44 228,47 205,37" />
<polygon fill="#858e8d" fill-opacity="0.501961" points="178,52 198,69 223,45" />
<polygon fill="#647070" fill-opacity="0.501961" points="210,69 211,79 223,79" />
<polygon fill="#7f8b8b" fill-opacity="0.501961" points="12,24 76,43 48,18" />
<polygon fill="#c2c6c1" fill-opacity="0.501961" points="153,16 142,34 147,-16" />
<polygon fill="#b1b7af" fill-opacity="0.501961" points="222,71 211,67 233,68" />
<polygon fill="#757e7b" fill-opacity="0.501961" points="153,46 155,48 155,44" />
<polygon fill="#bfc4bc" fill-opacity="0.501961" points="104,67 119,77 120,66" />
<polygon fill="#252c2b" fill-opacity="0.501961" points="39,86 15,107 55,89" />
<polygon fill="#9ca6a3" fill-opacity="0.501961" points="168,52 165,58 169,55" />
<polygon fill="#1c211f" fill-opacity="0.501961" points="173,62 169,49 168,64" />
<polygon fill="#414847" fill-opacity="0.501961" points="165,27 165,23 160,22" />
<polygon fill="#abb3af" fill-opacity="0.501961" points="157,28 158,36 164,18" />
<polygon fill="#c3c9c5" fill-opacity="0.501961" points="146,42 131,41 122,49" />
<polygon fill="#1e2324" fill-opacity="0.501961" points="141,69 150,60 149,35" />
<polygon fill="#939b95" fill-opacity="0.501961" points="126,94 111,91 117,95" />
<polygon fill="#bbc1bc" fill-opacity="0.501961" points="136,12 162,24 163,16" />
<polygon fill="#b3bab4" fill-opacity="0.501961" points="249,26 271,22 271,37" />
<polygon fill="#a2aaa7" fill-opacity="0.501961" points="177,8 205,-15 161,-16" />
<polygon fill="#4a4e4a" fill-opacity="0.501961" points="155,29 154,22 157,25" />
<polygon fill="#879194" fill-opacity="0.501961" points="254,-12 224,13 199,13" />
<polygon fill="#aeb7b1" fill-opacity="0.501961" points="175,79 178,82 168,83" />
<polygon fill="#5d696b" fill-opacity="0.501961" points="102,62 87,62 88,87" />
<polygon fill="#1f2423" fill-opacity="0.501961" points="170,69 165,63 152,62" />
<polygon fill="#858f8b" fill-opacity="0.501961" points="131,87 134,83 122,83" />
<polygon fill="#171b1b" fill-opacity="0.501961" points="147,67 152,90 156,60" />
<polygon fill="#9ea69d" fill-opacity="0.501961" points="132,92 132,94 139,94" />
<polygon fill="#6d7978" fill-opacity="0.501961" points="199,67 253,48 237,65" />
<polygon fill="#5b605e" fill-opacity="0.501961" points="153,38 155,41 154,45" />
<polygon fill="#bec4bd" fill-opacity="0.501961" points="119,79 132,76 137,83" />
<polygon fill="#b2bab5" fill-opacity="0.501961" points="171,39 183,33 185,38" />
<polygon fill="#3a403d" fill-opacity="0.501961" points="141,107 112,108 131,93" />
<polygon fill="#050a0a" fill-opacity="0.501961" points="165,109 148,104 152,90" />
<polygon fill="#404c4c" fill-opacity="0.501961" points="142,52 143,54 149,48" />
<polygon fill="#232929" fill-opacity="0.501961" points="211,84 196,91 229,88" />
<polygon fill="#526165" fill-opacity="0.501961" points="-16,0 -8,8 12,5" />
<polygon fill="#4f5958" fill-opacity="0.501961" points="159,94 171,105 164,108" />
<polygon fill="#dbdcd4" fill-opacity="0.501961" points="187,67 193,69 188,74" />
<polygon fill="#d0d4ce" fill-opacity="0.501961" points="223,33 234,34 226,31" />
<polygon fill="#969e9b" fill-opacity="0.501961" points="171,25 171,30 164,35" />
<polygon fill="#141a1a" fill-opacity="0.501961" points="155,42 159,45 157,49" />
<polygon fill="#52646b" fill-opacity="0.501961" points="13,11 27,18 22,24" />
<polygon fill="#171d1e" fill-opacity="0.501961" points="152,35 152,33 159,36" />
<polygon fill="#9fa7a5" fill-opacity="0.501961" points="92,62 104,61 91,36" />
<polygon fill="#858f8a" fill-opacity="0.501961" points="159,92 162,87 175,88" />
<polygon fill="#191d1e" fill-opacity="0.501961" points="139,68 154,56 153,32" />
<polygon fill="#526065" fill-opacity="0.501961" points="12,42 2,33 32,40" />
<polygon fill="#929b9a" fill-opacity="0.501961" points="53,33 74,32 58,10" />
<polygon fill="#aeb6b2" fill-opacity="0.501961" points="157,33 163,59 164,43" />
<polygon fill="#6d7d7e" fill-opacity="0.501961" points="67,36 61,56 42,33" />
<polygon fill="#121516" fill-opacity="0.501961" points="257,95 264,85 238,94" />
<polygon fill="#818b86" fill-opacity="0.501961" points="144,85 147,81 138,84" />
<polygon fill="#2e3638" fill-opacity="0.501961" points="19,87 50,83 -13,72" />
<polygon fill="#9ea6a0" fill-opacity="0.501961" points="204,73 208,64 188,77" />
<polygon fill="#475051" fill-opacity="0.501961" points="184,83 183,89 162,82" />
<polygon fill="#919b9b" fill-opacity="0.501961" points="99,41 95,51 89,26" />
<polygon fill="#7e8887" fill-opacity="0.501961" points="227,70 205,69 207,75" />
<polygon fill="#939c98" fill-opacity="0.501961" points="105,77 116,79 110,83" />
<polygon fill="#3f4848" fill-opacity="0.501961" points="75,94 49,93 83,113" />
<polygon fill="#7d898a" fill-opacity="0.501961" points="243,25 230,6 271,-14" />
<polygon fill="#909998" fill-opacity="0.501961" points="174,31 185,36 198,18" />
<polygon fill="#373f40" fill-opacity="0.501961" points="179,95 183,87 180,79" />
<polygon fill="#b0b8b3" fill-opacity="0.501961" points="139,69 107,44 125,47" />
<polygon fill="#5c6a6f" fill-opacity="0.501961" points="24,11 64,-16 53,6" />
<polygon fill="#252c2d" fill-opacity="0.501961" points="149,34 149,26 153,34" />
<polygon fill="#1d2222" fill-opacity="0.501961" points="159,46 155,58 160,68" />
<polygon fill="#272e2d" fill-opacity="0.501961" points="181,88 175,93 196,90" />
<polygon fill="#232926" fill-opacity="0.501961" points="191,96 160,98 141,113" />
<polygon fill="#afb6b1" fill-opacity="0.501961" points="137,62 122,67 139,52" />
<polygon fill="#c2c8c3" fill-opacity="0.501961" points="209,23 200,33 197,21" />
<polygon fill="#6f7f83" fill-opacity="0.501961" points="37,20 29,8 58,10" />
<polygon fill="#aeb5b0" fill-opacity="0.501961" points="166,33 170,31 170,37" />
<polygon fill="#6b7776" fill-opacity="0.501961" points="221,70 245,76 227,77" />
<polygon fill="#4a5558" fill-opacity="0.501961" points="271,67 271,76 238,72" />
<polygon fill="#a3aca9" fill-opacity="0.501961" points="125,38 89,56 107,34" />
<polygon fill="#454e51" fill-opacity="0.501961" points="69,66 56,69 67,79" />
<polygon fill="#1e2426" fill-opacity="0.501961" points="154,32 147,32 147,48" />
<polygon fill="#303635" fill-opacity="0.501961" points="175,26 173,17 172,27" />
<polygon fill="#99a3a0" fill-opacity="0.501961" points="175,25 186,40 178,4" />
<polygon fill="#5b686b" fill-opacity="0.501961" points="40,40 54,42 54,75" />
<polygon fill="#141719" fill-opacity="0.501961" points="228,95 180,99 197,108" />
<polygon fill="#161a17" fill-opacity="0.501961" points="170,41 170,49 175,50" />
<polygon fill="#717c7a" fill-opacity="0.501961" points="121,83 114,91 128,88" />
<polygon fill="#2e3535" fill-opacity="0.501961" points="174,11 173,8 179,8" />
<polygon fill="#b9c1bc" fill-opacity="0.501961" points="122,7 99,3 128,-4" />
<polygon fill="#828a85" fill-opacity="0.501961" points="181,96 185,109 169,94" />
<polygon fill="#1a2121" fill-opacity="0.501961" points="165,24 163,27 165,21" />
<polygon fill="#a0a9a7" fill-opacity="0.501961" points="172,-10 180,16 179,-16" />
<polygon fill="#40484a" fill-opacity="0.501961" points="100,90 85,82 52,106" />
<polygon fill="#a1aaa7" fill-opacity="0.501961" points="165,17 174,-6 172,22" />
<polygon fill="#5a5e59" fill-opacity="0.501961" points="161,78 164,79 164,71" />
<polygon fill="#99a29b" fill-opacity="0.501961" points="147,89 150,90 148,93" />
<polygon fill="#b3bbb6" fill-opacity="0.501961" points="183,37 220,36 203,26" />
<polygon fill="#a8b0ad" fill-opacity="0.501961" points="157,34 162,36 163,24" />
<polygon fill="#8f9794" fill-opacity="0.501961" points="165,47 167,51 168,47" />
<polygon fill="#505551" fill-opacity="0.501961" points="165,38 163,49 166,46" />
<polygon fill="#a0aaa7" fill-opacity="0.501961" points="93,4 85,25 70,26" />
<polygon fill="#929791" fill-opacity="0.501961" points="145,66 148,70 144,67" />
<polygon fill="#697577" fill-opacity="0.501961" points="104,73 101,80 99,67" />
<polygon fill="#171b1c" fill-opacity="0.501961" points="155,80 152,48 140,56" />
<polygon fill="#6d787b" fill-opacity="0.501961" points="79,38 89,22 83,51" />
<polygon fill="#87908b" fill-opacity="0.501961" points="245,68 235,67 237,70" />
<polygon fill="#7f8988" fill-opacity="0.501961" points="226,49 224,36 249,50" />
<polygon fill="#505a5a" fill-opacity="0.501961" points="135,88 150,88 148,84" />
<polygon fill="#4f5c5a" fill-opacity="0.501961" points="145,76 148,81 147,76" />
<polygon fill="#c0c6bf" fill-opacity="0.501961" points="173,75 178,80 175,83" />
<polygon fill="#495555" fill-opacity="0.501961" points="166,80 166,83 172,79" />
<polygon fill="#0c1110" fill-opacity="0.501961" points="156,88 159,83 154,74" />
<polygon fill="#879090" fill-opacity="0.501961" points="76,36 76,57 66,33" />
<polygon fill="#747e79" fill-opacity="0.501961" points="126,101 101,99 109,91" />
<polygon fill="#384043" fill-opacity="0.501961" points="32,70 14,73 -12,50" />
<polygon fill="#909a98" fill-opacity="0.501961" points="198,55 202,43 174,49" />
<polygon fill="#b8beb9" fill-opacity="0.501961" points="131,48 96,54 135,58" />
<polygon fill="#444e50" fill-opacity="0.501961" points="20,57 -16,42 40,46" />
<polygon fill="#546164" fill-opacity="0.501961" points="97,78 78,52 75,65" />
<polygon fill="#b0b8b3" fill-opacity="0.501961" points="123,28 105,56 133,35" />
<polygon fill="#bbc1be" fill-opacity="0.501961" points="119,11 103,21 95,15" />
<polygon fill="#cdcfce" fill-opacity="0.501961" points="144,-9 146,19 113,17" />
<polygon fill="#b4bbb7" fill-opacity="0.501961" points="133,65 112,42 144,48" />
<polygon fill="#889291" fill-opacity="0.501961" points="223,21 229,12 256,16" />
<polygon fill="#212626" fill-opacity="0.501961" points="189,96 175,97 205,113" />
<polygon fill="#a4ada9" fill-opacity="0.501961" points="93,50 110,62 104,64" />
<polygon fill="#919c97" fill-opacity="0.501961" points="190,79 188,77 186,80" />
<polygon fill="#0f1313" fill-opacity="0.501961" points="161,63 162,68 164,62" />
<polygon fill="#a8b0ab" fill-opacity="0.501961" points="228,35 238,39 249,25" />
<polygon fill="#181d1c" fill-opacity="0.501961" points="155,77 144,64 153,68" />
<polygon fill="#3b4244" fill-opacity="0.501961" points="216,75 211,84 229,85" />
<polygon fill="#505c5e" fill-opacity="0.501961" points="29,56 46,45 49,75" />
<polygon fill="#798688" fill-opacity="0.501961" points="63,11 59,-12 76,3" />
<polygon fill="#3b4342" fill-opacity="0.501961" points="172,70 174,71 170,78" />
<polygon fill="#858f8c" fill-opacity="0.501961" points="189,65 220,75 194,52" />
<polygon fill="#3c4443" fill-opacity="0.501961" points="161,84 164,75 161,78" />
<polygon fill="#9da6a2" fill-opacity="0.501961" points="172,33 171,10 166,31" />
<polygon fill="#838d88" fill-opacity="0.501961" points="145,94 150,92 147,92" />
<polygon fill="#bcc1bd" fill-opacity="0.501961" points="161,-13 150,24 150,-16" />
<polygon fill="#7b8786" fill-opacity="0.501961" points="235,26 266,22 237,18" />
<polygon fill="#8d9693" fill-opacity="0.501961" points="228,46 222,36 208,47" />
<polygon fill="#a1aba8" fill-opacity="0.501961" points="168,54 169,46 165,55" />
<polygon fill="#536162" fill-opacity="0.501961" points="232,72 240,69 248,74" />
<polygon fill="#76817f" fill-opacity="0.501961" points="163,73 161,75 158,70" />
<polygon fill="#2b3232" fill-opacity="0.501961" points="204,80 218,80 205,88" />
<polygon fill="#e3e3db" fill-opacity="0.501961" points="146,73 122,74 130,69" />
<polygon fill="#252b2e" fill-opacity="0.501961" points="264,76 239,89 271,85" />
<polygon fill="#929d9e" fill-opacity="0.501961" points="92,9 77,-16 78,15" />
<polygon fill="#4f595b" fill-opacity="0.501961" points="90,75 90,100 109,90" />
<polygon fill="#b2b3ac" fill-opacity="0.501961" points="162,69 161,72 164,71" />
<polygon fill="#525a57" fill-opacity="0.501961" points="123,95 119,95 126,108" />
<polygon fill="#919b98" fill-opacity="0.501961" points="196,25 174,26 182,33" />
<polygon fill="#d6d8d1" fill-opacity="0.501961" points="175,70 184,77 180,71" />
<polygon fill="#687779" fill-opacity="0.501961" points="62,47 27,35 50,36" />
<polygon fill="#636d6c" fill-opacity="0.501961" points="157,113 185,95 127,113" />
<polygon fill="#687676" fill-opacity="0.501961" points="59,56 42,55 58,48" />
<polygon fill="#d8dad1" fill-opacity="0.501961" points="178,72 174,68 174,75" />
<polygon fill="#8e9695" fill-opacity="0.501961" points="234,39 258,29 249,40" />
<polygon fill="#4b595e" fill-opacity="0.501961" points="11,6 40,7 36,-6" />
<polygon fill="#818c8d" fill-opacity="0.501961" points="51,24 15,23 40,35" />
<polygon fill="#909892" fill-opacity="0.501961" points="136,91 136,94 129,91" />
<polygon fill="#464f52" fill-opacity="0.501961" points="66,80 75,75 92,91" />
<polygon fill="#9ca5a1" fill-opacity="0.501961" points="229,31 208,30 217,25" />
<polygon fill="#6b7776" fill-opacity="0.501961" points="248,65 259,67 239,70" />
<polygon fill="#abb3af" fill-opacity="0.501961" points="160,25 154,17 166,13" />
<polygon fill="#636b69" fill-opacity="0.501961" points="153,86 153,89 154,88" />
<polygon fill="#6e7776" fill-opacity="0.501961" points="88,83 89,75 91,86" />
<polygon fill="#677271" fill-opacity="0.501961" points="164,82 167,80 169,84" />
<polygon fill="#b5bdb5" fill-opacity="0.501961" points="110,77 134,79 121,82" />
<polygon fill="#495255" fill-opacity="0.501961" points="60,73 94,85 74,87" />
<polygon fill="#959e99" fill-opacity="0.501961" points="179,58 175,69 192,61" />
<polygon fill="#677171" fill-opacity="0.501961" points="183,77 186,73 189,82" />
<polygon fill="#d2d5d1" fill-opacity="0.501961" points="141,29 145,44 135,37" />
<polygon fill="#929b99" fill-opacity="0.501961" points="159,51 162,55 164,46" />
<polygon fill="#212624" fill-opacity="0.501961" points="158,39 152,42 155,36" />
<polygon fill="#3e4748" fill-opacity="0.501961" points="221,89 219,95 200,94" />
<polygon fill="#151a19" fill-opacity="0.501961" points="153,95 150,89 153,82" />
<polygon fill="#71746c" fill-opacity="0.501961" points="154,27 156,28 158,26" />
<polygon fill="#353d40" fill-opacity="0.501961" points="92,91 80,95 66,87" />
<polygon fill="#2d3435" fill-opacity="0.501961" points="200,93 174,92 184,88" />
<polygon fill="#212727" fill-opacity="0.501961" points="155,42 155,34 145,38" />
<polygon fill="#1a1f20" fill-opacity="0.501961" points="199,95 219,113 190,113" />
<polygon fill="#354046" fill-opacity="0.501961" points="39,-10 7,3 -16,-6" />
<polygon fill="#a2acaa" fill-opacity="0.501961" points="92,31 100,25 89,17" />
</g>
</svg>